<?xml version="1.0" encoding="UTF-8" standalone="yes"?>
                 <!DOCTYPE svg PUBLIC "-//W3C//DTD SVG 1.0//EN" "http://www.w3.org/TR/2001/REC-SVG-20010904/DTD/svg10.dtd">
                 <svg height="500" width="900" xmlns="http://www.w3.org/2000/svg" xmlns:xlink="http://www.w3.org/1999/xlink">
                 <line x1="85" y1="450" x2="867" y2="450" style="stroke:rgb(99,99,99);stroke-width:2" />
<rect height="7.000000" width="2.000000" x="85.000000" y="450.000000" fill="rgb(0, 0, 0)" style="fill-opacity:1.00" />
<text x="107.000000" y="470">
1
</text>
<rect height="7.000000" width="2.000000" x="145.000000" y="450.000000" fill="rgb(0, 0, 0)" style="fill-opacity:1.00" />
<text x="167.000000" y="470">
2
</text>
<rect height="7.000000" width="2.000000" x="205.000000" y="450.000000" fill="rgb(0, 0, 0)" style="fill-opacity:1.00" />
<text x="227.000000" y="470">
3
</text>
<rect height="7.000000" width="2.000000" x="265.000000" y="450.000000" fill="rgb(0, 0, 0)" style="fill-opacity:1.00" />
<text x="287.000000" y="470">
4
</text>
<rect height="7.000000" width="2.000000" x="325.000000" y="450.000000" fill="rgb(0, 0, 0)" style="fill-opacity:1.00" />
<text x="347.000000" y="470">
5
</text>
<rect height="7.000000" width="2.000000" x="385.000000" y="450.000000" fill="rgb(0, 0, 0)" style="fill-opacity:1.00" />
<text x="407.000000" y="470">
6
</text>
<rect height="7.000000" width="2.000000" x="445.000000" y="450.000000" fill="rgb(0, 0, 0)" style="fill-opacity:1.00" />
<text x="467.000000" y="470">
7
</text>
<rect height="7.000000" width="2.000000" x="505.000000" y="450.000000" fill="rgb(0, 0, 0)" style="fill-opacity:1.00" />
<text x="527.000000" y="470">
8
</text>
<rect height="7.000000" width="2.000000" x="565.000000" y="450.000000" fill="rgb(0, 0, 0)" style="fill-opacity:1.00" />
<text x="587.000000" y="470">
9
</text>
<rect height="7.000000" width="2.000000" x="625.000000" y="450.000000" fill="rgb(0, 0, 0)" style="fill-opacity:1.00" />
<text x="647.000000" y="470">
10
</text>
<rect height="7.000000" width="2.000000" x="685.000000" y="450.000000" fill="rgb(0, 0, 0)" style="fill-opacity:1.00" />
<text x="707.000000" y="470">
11
</text>
<rect height="7.000000" width="2.000000" x="745.000000" y="450.000000" fill="rgb(0, 0, 0)" style="fill-opacity:1.00" />
<text x="767.000000" y="470">
12
</text>
<rect height="7.000000" width="2.000000" x="805.000000" y="450.000000" fill="rgb(0, 0, 0)" style="fill-opacity:1.00" />
<text x="827.000000" y="470">
13
</text>
<rect height="7.000000" width="2.000000" x="865.000000" y="450.000000" fill="rgb(0, 0, 0)" style="fill-opacity:1.00" />
<!-- Begin 'A' -->
<polygon points=" 10.000000, 110.000000, 35.200000, 10.000000, 44.800000, 10.000000, 70.000000, 110.000000, 61.000000, 110.000000, 53.500000, 85.000000, 26.500000, 85.000000, 19.000000, 110.000000" fill="rgb(178, 34, 34)" style="fill-opacity:1.00" />
<polygon points=" 40.000000, 30.000000, 30.400000, 69.000000, 48.400000, 69.000000" fill="rgb(255, 255, 255)" style="fill-opacity:1.00" />
<!-- End 'A' -->
<!-- Begin 'C' -->
<ellipse cx="40.000000" cy="170.000000" rx="30.000000" ry="50.000000" fill="rgb(0, 0, 128)" style="fill-opacity:1.00" />
<ellipse cx="40.000000" cy="170.000000" rx="20.000000" ry="33.333333" fill="rgb(255, 255, 255)" style="fill-opacity:1.00" />
<rect height="50.000000" width="30.000000" x="40.000000" y="145.000000" fill="rgb(255, 255, 255)" style="fill-opacity:1.00" />
<!-- End 'C' -->
<!-- Begin 'G' -->
<ellipse cx="40.000000" cy="280.000000" rx="30.000000" ry="50.000000" fill="rgb(255, 165, 0)" style="fill-opacity:1.00" />
<ellipse cx="40.000000" cy="280.000000" rx="20.000000" ry="33.333333" fill="rgb(255, 255, 255)" style="fill-opacity:1.00" />
<rect height="50.000000" width="30.000000" x="40.000000" y="255.000000" fill="rgb(255, 255, 255)" style="fill-opacity:1.00" />
<rect height="12.500000" width="30.000000" x="40.000000" y="292.500000" fill="rgb(255, 165, 0)" style="fill-opacity:1.00" />
<rect height="37.500000" width="7.500000" x="62.500000" y="292.500000" fill="rgb(255, 165, 0)" style="fill-opacity:1.00" />
<!-- End 'G' -->
<!-- Begin 'T' -->
<rect height="16.000000" width="60.000000" x="10.000000" y="340.000000" fill="rgb(0, 100, 0)" style="fill-opacity:1.00" />
<rect height="100.000000" width="12.000000" x="34.000000" y="340.000000" fill="rgb(0, 100, 0)" style="fill-opacity:1.00" />
<!-- End 'T' -->
<!-- Begin 'G' -->
<ellipse cx="115.000000" cy="26.197074" rx="25.000000" ry="16.197074" fill="rgb(255, 165, 0)" style="fill-opacity:0.28" />
<ellipse cx="115.000000" cy="26.197074" rx="16.666667" ry="10.798049" fill="rgb(255, 255, 255)" style="fill-opacity:1.00" />
<rect height="16.197074" width="25.000000" x="115.000000" y="18.098537" fill="rgb(255, 255, 255)" style="fill-opacity:1.00" />
<rect height="4.049268" width="25.000000" x="115.000000" y="30.246342" fill="rgb(255, 165, 0)" style="fill-opacity:0.28" />
<rect height="12.147805" width="6.250000" x="133.750000" y="30.246342" fill="rgb(255, 165, 0)" style="fill-opacity:0.28" />
<!-- End 'G' -->
<!-- Begin 'A' -->
<polygon points=" 90.000000, 72.747751, 111.000000, 42.394148, 119.000000, 42.394148, 140.000000, 72.747751, 132.500000, 72.747751, 126.250000, 65.159350, 103.750000, 65.159350, 97.500000, 72.747751" fill="rgb(178, 34, 34)" style="fill-opacity:0.28" />
<polygon points=" 115.000000, 48.464869, 107.000000, 59.606310, 122.000000, 59.606310" fill="rgb(255, 255, 255)" style="fill-opacity:1.00" />
<!-- End 'A' -->
<!-- Begin 'T' -->
<rect height="3.336821" width="50.000000" x="90.000000" y="72.747751" fill="rgb(0, 100, 0)" style="fill-opacity:0.28" />
<rect height="20.855131" width="10.000000" x="110.000000" y="72.747751" fill="rgb(0, 100, 0)" style="fill-opacity:0.28" />
<!-- End 'T' -->
<!-- Begin 'C' -->
<ellipse cx="115.000000" cy="101.801441" rx="25.000000" ry="8.198559" fill="rgb(0, 0, 128)" style="fill-opacity:0.28" />
<ellipse cx="115.000000" cy="101.801441" rx="16.666667" ry="5.465706" fill="rgb(255, 255, 255)" style="fill-opacity:1.00" />
<rect height="8.198559" width="25.000000" x="115.000000" y="97.702162" fill="rgb(255, 255, 255)" style="fill-opacity:1.00" />
<!-- End 'C' -->
<!-- Begin 'A' -->
<polygon points=" 90.000000, 159.223676, 111.000000, 120.000000, 119.000000, 120.000000, 140.000000, 159.223676, 132.500000, 159.223676, 126.250000, 149.417757, 103.750000, 149.417757, 97.500000, 159.223676" fill="rgb(178, 34, 34)" style="fill-opacity:0.22" />
<polygon points=" 115.000000, 127.844735, 107.000000, 142.534206, 122.000000, 142.534206" fill="rgb(255, 255, 255)" style="fill-opacity:1.00" />
<!-- End 'A' -->
<!-- Begin 'T' -->
<rect height="5.095302" width="50.000000" x="90.000000" y="159.223676" fill="rgb(0, 100, 0)" style="fill-opacity:0.22" />
<rect height="31.845640" width="10.000000" x="110.000000" y="159.223676" fill="rgb(0, 100, 0)" style="fill-opacity:0.22" />
<!-- End 'T' -->
<!-- Begin 'C' -->
<ellipse cx="115.000000" cy="202.547191" rx="25.000000" ry="11.477875" fill="rgb(0, 0, 128)" style="fill-opacity:0.22" />
<ellipse cx="115.000000" cy="202.547191" rx="16.666667" ry="7.651917" fill="rgb(255, 255, 255)" style="fill-opacity:1.00" />
<rect height="11.477875" width="25.000000" x="115.000000" y="196.808253" fill="rgb(255, 255, 255)" style="fill-opacity:1.00" />
<!-- End 'C' -->
<!-- Begin 'G' -->
<ellipse cx="115.000000" cy="217.012533" rx="25.000000" ry="2.987467" fill="rgb(255, 165, 0)" style="fill-opacity:0.22" />
<ellipse cx="115.000000" cy="217.012533" rx="16.666667" ry="1.991645" fill="rgb(255, 255, 255)" style="fill-opacity:1.00" />
<rect height="2.987467" width="25.000000" x="115.000000" y="215.518800" fill="rgb(255, 255, 255)" style="fill-opacity:1.00" />
<rect height="0.746867" width="25.000000" x="115.000000" y="217.759400" fill="rgb(255, 165, 0)" style="fill-opacity:0.22" />
<rect height="2.240600" width="6.250000" x="133.750000" y="217.759400" fill="rgb(255, 165, 0)" style="fill-opacity:0.22" />
<!-- End 'G' -->
<!-- Begin 'G' -->
<ellipse cx="115.000000" cy="245.883916" rx="25.000000" ry="15.883916" fill="rgb(255, 165, 0)" style="fill-opacity:0.22" />
<ellipse cx="115.000000" cy="245.883916" rx="16.666667" ry="10.589277" fill="rgb(255, 255, 255)" style="fill-opacity:1.00" />
<rect height="15.883916" width="25.000000" x="115.000000" y="237.941958" fill="rgb(255, 255, 255)" style="fill-opacity:1.00" />
<rect height="3.970979" width="25.000000" x="115.000000" y="249.854895" fill="rgb(255, 165, 0)" style="fill-opacity:0.22" />
<rect height="11.912937" width="6.250000" x="133.750000" y="249.854895" fill="rgb(255, 165, 0)" style="fill-opacity:0.22" />
<!-- End 'G' -->
<!-- Begin 'A' -->
<polygon points=" 90.000000, 289.919794, 111.000000, 261.767832, 119.000000, 261.767832, 140.000000, 289.919794, 132.500000, 289.919794, 126.250000, 282.881804, 103.750000, 282.881804, 97.500000, 289.919794" fill="rgb(178, 34, 34)" style="fill-opacity:0.22" />
<polygon points=" 115.000000, 267.398225, 107.000000, 277.659010, 122.000000, 277.659010" fill="rgb(255, 255, 255)" style="fill-opacity:1.00" />
<!-- End 'A' -->
<!-- Begin 'T' -->
<rect height="3.262412" width="50.000000" x="90.000000" y="289.919794" fill="rgb(0, 100, 0)" style="fill-opacity:0.22" />
<rect height="20.390074" width="10.000000" x="110.000000" y="289.919794" fill="rgb(0, 100, 0)" style="fill-opacity:0.22" />
<!-- End 'T' -->
<!-- Begin 'C' -->
<ellipse cx="115.000000" cy="320.154934" rx="25.000000" ry="9.845066" fill="rgb(0, 0, 128)" style="fill-opacity:0.22" />
<ellipse cx="115.000000" cy="320.154934" rx="16.666667" ry="6.563377" fill="rgb(255, 255, 255)" style="fill-opacity:1.00" />
<rect height="9.845066" width="25.000000" x="115.000000" y="315.232401" fill="rgb(255, 255, 255)" style="fill-opacity:1.00" />
<!-- End 'C' -->
<!-- Begin 'G' -->
<ellipse cx="115.000000" cy="355.911566" rx="25.000000" ry="15.911566" fill="rgb(255, 165, 0)" style="fill-opacity:0.28" />
<ellipse cx="115.000000" cy="355.911566" rx="16.666667" ry="10.607710" fill="rgb(255, 255, 255)" style="fill-opacity:1.00" />
<rect height="15.911566" width="25.000000" x="115.000000" y="347.955783" fill="rgb(255, 255, 255)" style="fill-opacity:1.00" />
<rect height="3.977891" width="25.000000" x="115.000000" y="359.889457" fill="rgb(255, 165, 0)" style="fill-opacity:0.28" />
<rect height="11.933674" width="6.250000" x="133.750000" y="359.889457" fill="rgb(255, 165, 0)" style="fill-opacity:0.28" />
<!-- End 'G' -->
<!-- Begin 'T' -->
<rect height="4.550010" width="50.000000" x="90.000000" y="371.823131" fill="rgb(0, 100, 0)" style="fill-opacity:0.28" />
<rect height="28.437562" width="10.000000" x="110.000000" y="371.823131" fill="rgb(0, 100, 0)" style="fill-opacity:0.28" />
<!-- End 'T' -->
<!-- Begin 'C' -->
<ellipse cx="115.000000" cy="410.413256" rx="25.000000" ry="10.152563" fill="rgb(0, 0, 128)" style="fill-opacity:0.28" />
<ellipse cx="115.000000" cy="410.413256" rx="16.666667" ry="6.768375" fill="rgb(255, 255, 255)" style="fill-opacity:1.00" />
<rect height="10.152563" width="25.000000" x="115.000000" y="405.336975" fill="rgb(255, 255, 255)" style="fill-opacity:1.00" />
<!-- End 'C' -->
<!-- Begin 'A' -->
<polygon points=" 90.000000, 440.000000, 111.000000, 420.565819, 119.000000, 420.565819, 140.000000, 440.000000, 132.500000, 440.000000, 126.250000, 435.141455, 103.750000, 435.141455, 97.500000, 440.000000" fill="rgb(178, 34, 34)" style="fill-opacity:0.28" />
<polygon points=" 115.000000, 424.452655, 107.000000, 431.226328, 122.000000, 431.226328" fill="rgb(255, 255, 255)" style="fill-opacity:1.00" />
<!-- End 'A' -->
<!-- Begin 'G' -->
<ellipse cx="175.000000" cy="26.873661" rx="25.000000" ry="16.873661" fill="rgb(255, 165, 0)" style="fill-opacity:0.29" />
<ellipse cx="175.000000" cy="26.873661" rx="16.666667" ry="11.249107" fill="rgb(255, 255, 255)" style="fill-opacity:1.00" />
<rect height="16.873661" width="25.000000" x="175.000000" y="18.436830" fill="rgb(255, 255, 255)" style="fill-opacity:1.00" />
<rect height="4.218415" width="25.000000" x="175.000000" y="31.092076" fill="rgb(255, 165, 0)" style="fill-opacity:0.29" />
<rect height="12.655245" width="6.250000" x="193.750000" y="31.092076" fill="rgb(255, 165, 0)" style="fill-opacity:0.29" />
<!-- End 'G' -->
<!-- Begin 'A' -->
<polygon points=" 150.000000, 69.593240, 171.000000, 43.747321, 179.000000, 43.747321, 200.000000, 69.593240, 192.500000, 69.593240, 186.250000, 63.131760, 163.750000, 63.131760, 157.500000, 69.593240" fill="rgb(178, 34, 34)" style="fill-opacity:0.29" />
<polygon points=" 175.000000, 48.916505, 167.000000, 58.254872, 182.000000, 58.254872" fill="rgb(255, 255, 255)" style="fill-opacity:1.00" />
<!-- End 'A' -->
<!-- Begin 'T' -->
<rect height="3.433842" width="50.000000" x="150.000000" y="69.593240" fill="rgb(0, 100, 0)" style="fill-opacity:0.29" />
<rect height="21.461515" width="10.000000" x="170.000000" y="69.593240" fill="rgb(0, 100, 0)" style="fill-opacity:0.29" />
<!-- End 'T' -->
<!-- Begin 'C' -->
<ellipse cx="175.000000" cy="100.527377" rx="25.000000" ry="9.472623" fill="rgb(0, 0, 128)" style="fill-opacity:0.29" />
<ellipse cx="175.000000" cy="100.527377" rx="16.666667" ry="6.315082" fill="rgb(255, 255, 255)" style="fill-opacity:1.00" />
<rect height="9.472623" width="25.000000" x="175.000000" y="95.791066" fill="rgb(255, 255, 255)" style="fill-opacity:1.00" />
<!-- End 'C' -->
<!-- Begin 'T' -->
<rect height="5.798355" width="50.000000" x="150.000000" y="120.000000" fill="rgb(0, 100, 0)" style="fill-opacity:0.20" />
<rect height="36.239722" width="10.000000" x="170.000000" y="120.000000" fill="rgb(0, 100, 0)" style="fill-opacity:0.20" />
<!-- End 'T' -->
<!-- Begin 'A' -->
<polygon points=" 150.000000, 186.012259, 171.000000, 156.239722, 179.000000, 156.239722, 200.000000, 186.012259, 192.500000, 186.012259, 186.250000, 178.569125, 163.750000, 178.569125, 157.500000, 186.012259" fill="rgb(178, 34, 34)" style="fill-opacity:0.20" />
<polygon points=" 175.000000, 162.194229, 167.000000, 173.103244, 182.000000, 173.103244" fill="rgb(255, 255, 255)" style="fill-opacity:1.00" />
<!-- End 'A' -->
<!-- Begin 'C' -->
<ellipse cx="175.000000" cy="199.632394" rx="25.000000" ry="13.620135" fill="rgb(0, 0, 128)" style="fill-opacity:0.20" />
<ellipse cx="175.000000" cy="199.632394" rx="16.666667" ry="9.080090" fill="rgb(255, 255, 255)" style="fill-opacity:1.00" />
<rect height="13.620135" width="25.000000" x="175.000000" y="192.822327" fill="rgb(255, 255, 255)" style="fill-opacity:1.00" />
<!-- End 'C' -->
<!-- Begin 'G' -->
<ellipse cx="175.000000" cy="216.626265" rx="25.000000" ry="3.373735" fill="rgb(255, 165, 0)" style="fill-opacity:0.20" />
<ellipse cx="175.000000" cy="216.626265" rx="16.666667" ry="2.249157" fill="rgb(255, 255, 255)" style="fill-opacity:1.00" />
<rect height="3.373735" width="25.000000" x="175.000000" y="214.939397" fill="rgb(255, 255, 255)" style="fill-opacity:1.00" />
<rect height="0.843434" width="25.000000" x="175.000000" y="217.469698" fill="rgb(255, 165, 0)" style="fill-opacity:0.20" />
<rect height="2.530302" width="6.250000" x="193.750000" y="217.469698" fill="rgb(255, 165, 0)" style="fill-opacity:0.20" />
<!-- End 'G' -->
<!-- Begin 'A' -->
<polygon points=" 150.000000, 259.275350, 171.000000, 230.000000, 179.000000, 230.000000, 200.000000, 259.275350, 192.500000, 259.275350, 186.250000, 251.956512, 163.750000, 251.956512, 157.500000, 259.275350" fill="rgb(178, 34, 34)" style="fill-opacity:0.26" />
<polygon points=" 175.000000, 235.855070, 167.000000, 246.565210, 182.000000, 246.565210" fill="rgb(255, 255, 255)" style="fill-opacity:1.00" />
<!-- End 'A' -->
<!-- Begin 'G' -->
<ellipse cx="175.000000" cy="273.556845" rx="25.000000" ry="14.281495" fill="rgb(255, 165, 0)" style="fill-opacity:0.26" />
<ellipse cx="175.000000" cy="273.556845" rx="16.666667" ry="9.520997" fill="rgb(255, 255, 255)" style="fill-opacity:1.00" />
<rect height="14.281495" width="25.000000" x="175.000000" y="266.416097" fill="rgb(255, 255, 255)" style="fill-opacity:1.00" />
<rect height="3.570374" width="25.000000" x="175.000000" y="277.127219" fill="rgb(255, 165, 0)" style="fill-opacity:0.26" />
<rect height="10.711121" width="6.250000" x="193.750000" y="277.127219" fill="rgb(255, 165, 0)" style="fill-opacity:0.26" />
<!-- End 'G' -->
<!-- Begin 'T' -->
<rect height="3.519285" width="50.000000" x="150.000000" y="287.838340" fill="rgb(0, 100, 0)" style="fill-opacity:0.26" />
<rect height="21.995530" width="10.000000" x="170.000000" y="287.838340" fill="rgb(0, 100, 0)" style="fill-opacity:0.26" />
<!-- End 'T' -->
<!-- Begin 'C' -->
<ellipse cx="175.000000" cy="319.916935" rx="25.000000" ry="10.083065" fill="rgb(0, 0, 128)" style="fill-opacity:0.26" />
<ellipse cx="175.000000" cy="319.916935" rx="16.666667" ry="6.722043" fill="rgb(255, 255, 255)" style="fill-opacity:1.00" />
<rect height="10.083065" width="25.000000" x="175.000000" y="314.875402" fill="rgb(255, 255, 255)" style="fill-opacity:1.00" />
<!-- End 'C' -->
<!-- Begin 'G' -->
<ellipse cx="175.000000" cy="358.376999" rx="25.000000" ry="18.376999" fill="rgb(255, 165, 0)" style="fill-opacity:0.25" />
<ellipse cx="175.000000" cy="358.376999" rx="16.666667" ry="12.251333" fill="rgb(255, 255, 255)" style="fill-opacity:1.00" />
<rect height="18.376999" width="25.000000" x="175.000000" y="349.188500" fill="rgb(255, 255, 255)" style="fill-opacity:1.00" />
<rect height="4.594250" width="25.000000" x="175.000000" y="362.971249" fill="rgb(255, 165, 0)" style="fill-opacity:0.25" />
<rect height="13.782750" width="6.250000" x="193.750000" y="362.971249" fill="rgb(255, 165, 0)" style="fill-opacity:0.25" />
<!-- End 'G' -->
<!-- Begin 'T' -->
<rect height="4.235391" width="50.000000" x="150.000000" y="376.753999" fill="rgb(0, 100, 0)" style="fill-opacity:0.25" />
<rect height="26.471196" width="10.000000" x="170.000000" y="376.753999" fill="rgb(0, 100, 0)" style="fill-opacity:0.25" />
<!-- End 'T' -->
<!-- Begin 'C' -->
<ellipse cx="175.000000" cy="413.155560" rx="25.000000" ry="9.930365" fill="rgb(0, 0, 128)" style="fill-opacity:0.25" />
<ellipse cx="175.000000" cy="413.155560" rx="16.666667" ry="6.620244" fill="rgb(255, 255, 255)" style="fill-opacity:1.00" />
<rect height="9.930365" width="25.000000" x="175.000000" y="408.190377" fill="rgb(255, 255, 255)" style="fill-opacity:1.00" />
<!-- End 'C' -->
<!-- Begin 'A' -->
<polygon points=" 150.000000, 440.000000, 171.000000, 423.085925, 179.000000, 423.085925, 200.000000, 440.000000, 192.500000, 440.000000, 186.250000, 435.771481, 163.750000, 435.771481, 157.500000, 440.000000" fill="rgb(178, 34, 34)" style="fill-opacity:0.25" />
<polygon points=" 175.000000, 426.468740, 167.000000, 432.234370, 182.000000, 432.234370" fill="rgb(255, 255, 255)" style="fill-opacity:1.00" />
<!-- End 'A' -->
<!-- Begin 'G' -->
<ellipse cx="235.000000" cy="28.303449" rx="25.000000" ry="18.303449" fill="rgb(255, 165, 0)" style="fill-opacity:0.25" />
<ellipse cx="235.000000" cy="28.303449" rx="16.666667" ry="12.202299" fill="rgb(255, 255, 255)" style="fill-opacity:1.00" />
<rect height="18.303449" width="25.000000" x="235.000000" y="19.151725" fill="rgb(255, 255, 255)" style="fill-opacity:1.00" />
<rect height="4.575862" width="25.000000" x="235.000000" y="32.879311" fill="rgb(255, 165, 0)" style="fill-opacity:0.25" />
<rect height="13.727587" width="6.250000" x="253.750000" y="32.879311" fill="rgb(255, 165, 0)" style="fill-opacity:0.25" />
<!-- End 'G' -->
<!-- Begin 'A' -->
<polygon points=" 210.000000, 77.681034, 231.000000, 46.606898, 239.000000, 46.606898, 260.000000, 77.681034, 252.500000, 77.681034, 246.250000, 69.912500, 223.750000, 69.912500, 217.500000, 77.681034" fill="rgb(178, 34, 34)" style="fill-opacity:0.25" />
<polygon points=" 235.000000, 52.821725, 227.000000, 64.251380, 242.000000, 64.251380" fill="rgb(255, 255, 255)" style="fill-opacity:1.00" />
<!-- End 'A' -->
<!-- Begin 'T' -->
<rect height="3.096191" width="50.000000" x="210.000000" y="77.681034" fill="rgb(0, 100, 0)" style="fill-opacity:0.25" />
<rect height="19.351191" width="10.000000" x="230.000000" y="77.681034" fill="rgb(0, 100, 0)" style="fill-opacity:0.25" />
<!-- End 'T' -->
<!-- Begin 'C' -->
<ellipse cx="235.000000" cy="103.516113" rx="25.000000" ry="6.483887" fill="rgb(0, 0, 128)" style="fill-opacity:0.25" />
<ellipse cx="235.000000" cy="103.516113" rx="16.666667" ry="4.322591" fill="rgb(255, 255, 255)" style="fill-opacity:1.00" />
<rect height="6.483887" width="25.000000" x="235.000000" y="100.274169" fill="rgb(255, 255, 255)" style="fill-opacity:1.00" />
<!-- End 'C' -->
<!-- Begin 'T' -->
<rect height="5.891050" width="50.000000" x="210.000000" y="120.000000" fill="rgb(0, 100, 0)" style="fill-opacity:0.21" />
<rect height="36.819065" width="10.000000" x="230.000000" y="120.000000" fill="rgb(0, 100, 0)" style="fill-opacity:0.21" />
<!-- End 'T' -->
<!-- Begin 'A' -->
<polygon points=" 210.000000, 191.477637, 231.000000, 156.819065, 239.000000, 156.819065, 260.000000, 191.477637, 252.500000, 191.477637, 246.250000, 182.812994, 223.750000, 182.812994, 217.500000, 191.477637" fill="rgb(178, 34, 34)" style="fill-opacity:0.21" />
<polygon points=" 235.000000, 163.750780, 227.000000, 176.614208, 242.000000, 176.614208" fill="rgb(255, 255, 255)" style="fill-opacity:1.00" />
<!-- End 'A' -->
<!-- Begin 'C' -->
<ellipse cx="235.000000" cy="199.984423" rx="25.000000" ry="8.506787" fill="rgb(0, 0, 128)" style="fill-opacity:0.21" />
<ellipse cx="235.000000" cy="199.984423" rx="16.666667" ry="5.671191" fill="rgb(255, 255, 255)" style="fill-opacity:1.00" />
<rect height="8.506787" width="25.000000" x="235.000000" y="195.731030" fill="rgb(255, 255, 255)" style="fill-opacity:1.00" />
<!-- End 'C' -->
<!-- Begin 'G' -->
<ellipse cx="235.000000" cy="214.245605" rx="25.000000" ry="5.754395" fill="rgb(255, 165, 0)" style="fill-opacity:0.21" />
<ellipse cx="235.000000" cy="214.245605" rx="16.666667" ry="3.836263" fill="rgb(255, 255, 255)" style="fill-opacity:1.00" />
<rect height="5.754395" width="25.000000" x="235.000000" y="211.368407" fill="rgb(255, 255, 255)" style="fill-opacity:1.00" />
<rect height="1.438599" width="25.000000" x="235.000000" y="215.684204" fill="rgb(255, 165, 0)" style="fill-opacity:0.21" />
<rect height="4.315796" width="6.250000" x="253.750000" y="215.684204" fill="rgb(255, 165, 0)" style="fill-opacity:0.21" />
<!-- End 'G' -->
<!-- Begin 'G' -->
<ellipse cx="235.000000" cy="247.314624" rx="25.000000" ry="17.314624" fill="rgb(255, 165, 0)" style="fill-opacity:0.28" />
<ellipse cx="235.000000" cy="247.314624" rx="16.666667" ry="11.543083" fill="rgb(255, 255, 255)" style="fill-opacity:1.00" />
<rect height="17.314624" width="25.000000" x="235.000000" y="238.657312" fill="rgb(255, 255, 255)" style="fill-opacity:1.00" />
<rect height="4.328656" width="25.000000" x="235.000000" y="251.643280" fill="rgb(255, 165, 0)" style="fill-opacity:0.28" />
<rect height="12.985968" width="6.250000" x="253.750000" y="251.643280" fill="rgb(255, 165, 0)" style="fill-opacity:0.28" />
<!-- End 'G' -->
<!-- Begin 'A' -->
<polygon points=" 210.000000, 291.595179, 231.000000, 264.629248, 239.000000, 264.629248, 260.000000, 291.595179, 252.500000, 291.595179, 246.250000, 284.853697, 223.750000, 284.853697, 217.500000, 291.595179" fill="rgb(178, 34, 34)" style="fill-opacity:0.28" />
<polygon points=" 235.000000, 270.022435, 227.000000, 279.808807, 242.000000, 279.808807" fill="rgb(255, 255, 255)" style="fill-opacity:1.00" />
<!-- End 'A' -->
<!-- Begin 'T' -->
<rect height="3.404277" width="50.000000" x="210.000000" y="291.595179" fill="rgb(0, 100, 0)" style="fill-opacity:0.28" />
<rect height="21.276728" width="10.000000" x="230.000000" y="291.595179" fill="rgb(0, 100, 0)" style="fill-opacity:0.28" />
<!-- End 'T' -->
<!-- Begin 'C' -->
<ellipse cx="235.000000" cy="321.435954" rx="25.000000" ry="8.564046" fill="rgb(0, 0, 128)" style="fill-opacity:0.28" />
<ellipse cx="235.000000" cy="321.435954" rx="16.666667" ry="5.709364" fill="rgb(255, 255, 255)" style="fill-opacity:1.00" />
<rect height="8.564046" width="25.000000" x="235.000000" y="317.153931" fill="rgb(255, 255, 255)" style="fill-opacity:1.00" />
<!-- End 'C' -->
<!-- Begin 'G' -->
<ellipse cx="235.000000" cy="363.644685" rx="25.000000" ry="23.644685" fill="rgb(255, 165, 0)" style="fill-opacity:0.26" />
<ellipse cx="235.000000" cy="363.644685" rx="16.666667" ry="15.763123" fill="rgb(255, 255, 255)" style="fill-opacity:1.00" />
<rect height="23.644685" width="25.000000" x="235.000000" y="351.822343" fill="rgb(255, 255, 255)" style="fill-opacity:1.00" />
<rect height="5.911171" width="25.000000" x="235.000000" y="369.555856" fill="rgb(255, 165, 0)" style="fill-opacity:0.26" />
<rect height="17.733514" width="6.250000" x="253.750000" y="369.555856" fill="rgb(255, 165, 0)" style="fill-opacity:0.26" />
<!-- End 'G' -->
<!-- Begin 'T' -->
<rect height="3.630079" width="50.000000" x="210.000000" y="387.289370" fill="rgb(0, 100, 0)" style="fill-opacity:0.26" />
<rect height="22.687993" width="10.000000" x="230.000000" y="387.289370" fill="rgb(0, 100, 0)" style="fill-opacity:0.26" />
<!-- End 'T' -->
<!-- Begin 'A' -->
<polygon points=" 210.000000, 425.596202, 231.000000, 409.977364, 239.000000, 409.977364, 260.000000, 425.596202, 252.500000, 425.596202, 246.250000, 421.691492, 223.750000, 421.691492, 217.500000, 425.596202" fill="rgb(178, 34, 34)" style="fill-opacity:0.26" />
<polygon points=" 235.000000, 413.101131, 227.000000, 418.348667, 242.000000, 418.348667" fill="rgb(255, 255, 255)" style="fill-opacity:1.00" />
<!-- End 'A' -->
<!-- Begin 'C' -->
<ellipse cx="235.000000" cy="432.798101" rx="25.000000" ry="7.201899" fill="rgb(0, 0, 128)" style="fill-opacity:0.26" />
<ellipse cx="235.000000" cy="432.798101" rx="16.666667" ry="4.801266" fill="rgb(255, 255, 255)" style="fill-opacity:1.00" />
<rect height="7.201899" width="25.000000" x="235.000000" y="429.197152" fill="rgb(255, 255, 255)" style="fill-opacity:1.00" />
<!-- End 'C' -->
<!-- Begin 'A' -->
<polygon points=" 270.000000, 59.749065, 291.000000, 10.000000, 299.000000, 10.000000, 320.000000, 59.749065, 312.500000, 59.749065, 306.250000, 47.311799, 283.750000, 47.311799, 277.500000, 59.749065" fill="rgb(178, 34, 34)" style="fill-opacity:0.27" />
<polygon points=" 295.000000, 19.949813, 287.000000, 38.849439, 302.000000, 38.849439" fill="rgb(255, 255, 255)" style="fill-opacity:1.00" />
<!-- End 'A' -->
<!-- Begin 'G' -->
<ellipse cx="295.000000" cy="77.140493" rx="25.000000" ry="17.391427" fill="rgb(255, 165, 0)" style="fill-opacity:0.27" />
<ellipse cx="295.000000" cy="77.140493" rx="16.666667" ry="11.594285" fill="rgb(255, 255, 255)" style="fill-opacity:1.00" />
<rect height="17.391427" width="25.000000" x="295.000000" y="68.444779" fill="rgb(255, 255, 255)" style="fill-opacity:1.00" />
<rect height="4.347857" width="25.000000" x="295.000000" y="81.488349" fill="rgb(255, 165, 0)" style="fill-opacity:0.27" />
<rect height="13.043570" width="6.250000" x="313.750000" y="81.488349" fill="rgb(255, 165, 0)" style="fill-opacity:0.27" />
<!-- End 'G' -->
<!-- Begin 'C' -->
<ellipse cx="295.000000" cy="100.528162" rx="25.000000" ry="5.996242" fill="rgb(0, 0, 128)" style="fill-opacity:0.27" />
<ellipse cx="295.000000" cy="100.528162" rx="16.666667" ry="3.997495" fill="rgb(255, 255, 255)" style="fill-opacity:1.00" />
<rect height="5.996242" width="25.000000" x="295.000000" y="97.530041" fill="rgb(255, 255, 255)" style="fill-opacity:1.00" />
<!-- End 'C' -->
<!-- Begin 'T' -->
<rect height="0.556095" width="50.000000" x="270.000000" y="106.524405" fill="rgb(0, 100, 0)" style="fill-opacity:0.27" />
<rect height="3.475595" width="10.000000" x="290.000000" y="106.524405" fill="rgb(0, 100, 0)" style="fill-opacity:0.27" />
<!-- End 'T' -->
<!-- Begin 'A' -->
<polygon points=" 270.000000, 186.569952, 291.000000, 120.000000, 299.000000, 120.000000, 320.000000, 186.569952, 312.500000, 186.569952, 306.250000, 169.927464, 283.750000, 169.927464, 277.500000, 186.569952" fill="rgb(178, 34, 34)" style="fill-opacity:0.15" />
<polygon points=" 295.000000, 133.313990, 287.000000, 158.941971, 302.000000, 158.941971" fill="rgb(255, 255, 255)" style="fill-opacity:1.00" />
<!-- End 'A' -->
<!-- Begin 'C' -->
<ellipse cx="295.000000" cy="195.061177" rx="25.000000" ry="8.491224" fill="rgb(0, 0, 128)" style="fill-opacity:0.15" />
<ellipse cx="295.000000" cy="195.061177" rx="16.666667" ry="5.660816" fill="rgb(255, 255, 255)" style="fill-opacity:1.00" />
<rect height="8.491224" width="25.000000" x="295.000000" y="190.815564" fill="rgb(255, 255, 255)" style="fill-opacity:1.00" />
<!-- End 'C' -->
<!-- Begin 'G' -->
<ellipse cx="295.000000" cy="209.143710" rx="25.000000" ry="5.591310" fill="rgb(255, 165, 0)" style="fill-opacity:0.15" />
<ellipse cx="295.000000" cy="209.143710" rx="16.666667" ry="3.727540" fill="rgb(255, 255, 255)" style="fill-opacity:1.00" />
<rect height="5.591310" width="25.000000" x="295.000000" y="206.348055" fill="rgb(255, 255, 255)" style="fill-opacity:1.00" />
<rect height="1.397827" width="25.000000" x="295.000000" y="210.541538" fill="rgb(255, 165, 0)" style="fill-opacity:0.15" />
<rect height="4.193482" width="6.250000" x="313.750000" y="210.541538" fill="rgb(255, 165, 0)" style="fill-opacity:0.15" />
<!-- End 'G' -->
<!-- Begin 'T' -->
<rect height="0.842397" width="50.000000" x="270.000000" y="214.735020" fill="rgb(0, 100, 0)" style="fill-opacity:0.15" />
<rect height="5.264980" width="10.000000" x="290.000000" y="214.735020" fill="rgb(0, 100, 0)" style="fill-opacity:0.15" />
<!-- End 'T' -->
<!-- Begin 'A' -->
<polygon points=" 270.000000, 278.373729, 291.000000, 230.000000, 299.000000, 230.000000, 320.000000, 278.373729, 312.500000, 278.373729, 306.250000, 266.280297, 283.750000, 266.280297, 277.500000, 278.373729" fill="rgb(178, 34, 34)" style="fill-opacity:0.34" />
<polygon points=" 295.000000, 239.674746, 287.000000, 258.024238, 302.000000, 258.024238" fill="rgb(255, 255, 255)" style="fill-opacity:1.00" />
<!-- End 'A' -->
<!-- Begin 'G' -->
<ellipse cx="295.000000" cy="292.187229" rx="25.000000" ry="13.813499" fill="rgb(255, 165, 0)" style="fill-opacity:0.34" />
<ellipse cx="295.000000" cy="292.187229" rx="16.666667" ry="9.209000" fill="rgb(255, 255, 255)" style="fill-opacity:1.00" />
<rect height="13.813499" width="25.000000" x="295.000000" y="285.280479" fill="rgb(255, 255, 255)" style="fill-opacity:1.00" />
<rect height="3.453375" width="25.000000" x="295.000000" y="295.640604" fill="rgb(255, 165, 0)" style="fill-opacity:0.34" />
<rect height="10.360125" width="6.250000" x="313.750000" y="295.640604" fill="rgb(255, 165, 0)" style="fill-opacity:0.34" />
<!-- End 'G' -->
<!-- Begin 'C' -->
<ellipse cx="295.000000" cy="315.798736" rx="25.000000" ry="9.798008" fill="rgb(0, 0, 128)" style="fill-opacity:0.34" />
<ellipse cx="295.000000" cy="315.798736" rx="16.666667" ry="6.532005" fill="rgb(255, 255, 255)" style="fill-opacity:1.00" />
<rect height="9.798008" width="25.000000" x="295.000000" y="310.899732" fill="rgb(255, 255, 255)" style="fill-opacity:1.00" />
<!-- End 'C' -->
<!-- Begin 'T' -->
<rect height="0.704521" width="50.000000" x="270.000000" y="325.596743" fill="rgb(0, 100, 0)" style="fill-opacity:0.34" />
<rect height="4.403257" width="10.000000" x="290.000000" y="325.596743" fill="rgb(0, 100, 0)" style="fill-opacity:0.34" />
<!-- End 'T' -->
<!-- Begin 'A' -->
<polygon points=" 270.000000, 382.078707, 291.000000, 340.000000, 299.000000, 340.000000, 320.000000, 382.078707, 312.500000, 382.078707, 306.250000, 371.559031, 283.750000, 371.559031, 277.500000, 382.078707" fill="rgb(178, 34, 34)" style="fill-opacity:0.24" />
<polygon points=" 295.000000, 348.415741, 287.000000, 364.247224, 302.000000, 364.247224" fill="rgb(255, 255, 255)" style="fill-opacity:1.00" />
<!-- End 'A' -->
<!-- Begin 'G' -->
<ellipse cx="295.000000" cy="397.107931" rx="25.000000" ry="15.029224" fill="rgb(255, 165, 0)" style="fill-opacity:0.24" />
<ellipse cx="295.000000" cy="397.107931" rx="16.666667" ry="10.019482" fill="rgb(255, 255, 255)" style="fill-opacity:1.00" />
<rect height="15.029224" width="25.000000" x="295.000000" y="389.593319" fill="rgb(255, 255, 255)" style="fill-opacity:1.00" />
<rect height="3.757306" width="25.000000" x="295.000000" y="400.865237" fill="rgb(255, 165, 0)" style="fill-opacity:0.24" />
<rect height="11.271918" width="6.250000" x="313.750000" y="400.865237" fill="rgb(255, 165, 0)" style="fill-opacity:0.24" />
<!-- End 'G' -->
<!-- Begin 'C' -->
<ellipse cx="295.000000" cy="424.214069" rx="25.000000" ry="12.076915" fill="rgb(0, 0, 128)" style="fill-opacity:0.24" />
<ellipse cx="295.000000" cy="424.214069" rx="16.666667" ry="8.051276" fill="rgb(255, 255, 255)" style="fill-opacity:1.00" />
<rect height="12.076915" width="25.000000" x="295.000000" y="418.175612" fill="rgb(255, 255, 255)" style="fill-opacity:1.00" />
<!-- End 'C' -->
<!-- Begin 'T' -->
<rect height="0.593443" width="50.000000" x="270.000000" y="436.290984" fill="rgb(0, 100, 0)" style="fill-opacity:0.24" />
<rect height="3.709016" width="10.000000" x="290.000000" y="436.290984" fill="rgb(0, 100, 0)" style="fill-opacity:0.24" />
<!-- End 'T' -->
<!-- Begin 'T' -->
<rect height="15.942441" width="50.000000" x="330.000000" y="10.000000" fill="rgb(0, 100, 0)" style="fill-opacity:0.50" />
<rect height="99.640255" width="10.000000" x="350.000000" y="10.000000" fill="rgb(0, 100, 0)" style="fill-opacity:0.50" />
<!-- End 'T' -->
<!-- Begin 'C' -->
<ellipse cx="355.000000" cy="109.770237" rx="25.000000" ry="0.129982" fill="rgb(0, 0, 128)" style="fill-opacity:0.50" />
<ellipse cx="355.000000" cy="109.770237" rx="16.666667" ry="0.086655" fill="rgb(255, 255, 255)" style="fill-opacity:1.00" />
<rect height="0.129982" width="25.000000" x="355.000000" y="109.705246" fill="rgb(255, 255, 255)" style="fill-opacity:1.00" />
<!-- End 'C' -->
<!-- Begin 'A' -->
<polygon points=" 330.000000, 109.963709, 351.000000, 109.900219, 359.000000, 109.900219, 380.000000, 109.963709, 372.500000, 109.963709, 366.250000, 109.947837, 343.750000, 109.947837, 337.500000, 109.963709" fill="rgb(178, 34, 34)" style="fill-opacity:0.50" />
<!-- End 'A' -->
<!-- Begin 'G' -->
<ellipse cx="355.000000" cy="109.981855" rx="25.000000" ry="0.018145" fill="rgb(255, 165, 0)" style="fill-opacity:0.50" />
<ellipse cx="355.000000" cy="109.981855" rx="16.666667" ry="0.012097" fill="rgb(255, 255, 255)" style="fill-opacity:1.00" />
<rect height="0.018145" width="25.000000" x="355.000000" y="109.972782" fill="rgb(255, 255, 255)" style="fill-opacity:1.00" />
<rect height="0.004536" width="25.000000" x="355.000000" y="109.986391" fill="rgb(255, 165, 0)" style="fill-opacity:0.50" />
<rect height="0.013609" width="6.250000" x="373.750000" y="109.986391" fill="rgb(255, 165, 0)" style="fill-opacity:0.50" />
<!-- End 'G' -->
<!-- Begin 'T' -->
<rect height="15.992462" width="50.000000" x="330.000000" y="120.000000" fill="rgb(0, 100, 0)" style="fill-opacity:0.18" />
<rect height="99.952886" width="10.000000" x="350.000000" y="120.000000" fill="rgb(0, 100, 0)" style="fill-opacity:0.18" />
<!-- End 'T' -->
<!-- Begin 'A' -->
<polygon points=" 330.000000, 219.991612, 351.000000, 219.952886, 359.000000, 219.952886, 380.000000, 219.991612, 372.500000, 219.991612, 366.250000, 219.981930, 343.750000, 219.981930, 337.500000, 219.991612" fill="rgb(178, 34, 34)" style="fill-opacity:0.18" />
<!-- End 'A' -->
<!-- Begin 'C' -->
<ellipse cx="355.000000" cy="219.995806" rx="25.000000" ry="0.004194" fill="rgb(0, 0, 128)" style="fill-opacity:0.18" />
<ellipse cx="355.000000" cy="219.995806" rx="16.666667" ry="0.002796" fill="rgb(255, 255, 255)" style="fill-opacity:1.00" />
<rect height="0.004194" width="25.000000" x="355.000000" y="219.993709" fill="rgb(255, 255, 255)" style="fill-opacity:1.00" />
<!-- End 'C' -->
<!-- Begin 'G' -->
<ellipse cx="355.000000" cy="220.000000" rx="25.000000" ry="0.000000" fill="rgb(255, 165, 0)" style="fill-opacity:0.18" />
<ellipse cx="355.000000" cy="220.000000" rx="16.666667" ry="0.000000" fill="rgb(255, 255, 255)" style="fill-opacity:1.00" />
<rect height="0.000000" width="25.000000" x="355.000000" y="220.000000" fill="rgb(255, 255, 255)" style="fill-opacity:1.00" />
<rect height="0.000000" width="25.000000" x="355.000000" y="220.000000" fill="rgb(255, 165, 0)" style="fill-opacity:0.18" />
<rect height="0.000000" width="6.250000" x="373.750000" y="220.000000" fill="rgb(255, 165, 0)" style="fill-opacity:0.18" />
<!-- End 'G' -->
<!-- Begin 'T' -->
<rect height="15.988564" width="50.000000" x="330.000000" y="230.000000" fill="rgb(0, 100, 0)" style="fill-opacity:0.28" />
<rect height="99.928526" width="10.000000" x="350.000000" y="230.000000" fill="rgb(0, 100, 0)" style="fill-opacity:0.28" />
<!-- End 'T' -->
<!-- Begin 'A' -->
<polygon points=" 330.000000, 329.981353, 351.000000, 329.928526, 359.000000, 329.928526, 380.000000, 329.981353, 372.500000, 329.981353, 366.250000, 329.968146, 343.750000, 329.968146, 337.500000, 329.981353" fill="rgb(178, 34, 34)" style="fill-opacity:0.28" />
<!-- End 'A' -->
<!-- Begin 'C' -->
<ellipse cx="355.000000" cy="329.990468" rx="25.000000" ry="0.009115" fill="rgb(0, 0, 128)" style="fill-opacity:0.28" />
<ellipse cx="355.000000" cy="329.990468" rx="16.666667" ry="0.006077" fill="rgb(255, 255, 255)" style="fill-opacity:1.00" />
<rect height="0.009115" width="25.000000" x="355.000000" y="329.985910" fill="rgb(255, 255, 255)" style="fill-opacity:1.00" />
<!-- End 'C' -->
<!-- Begin 'G' -->
<ellipse cx="355.000000" cy="329.999792" rx="25.000000" ry="0.000208" fill="rgb(255, 165, 0)" style="fill-opacity:0.28" />
<ellipse cx="355.000000" cy="329.999792" rx="16.666667" ry="0.000139" fill="rgb(255, 255, 255)" style="fill-opacity:1.00" />
<rect height="0.000208" width="25.000000" x="355.000000" y="329.999687" fill="rgb(255, 255, 255)" style="fill-opacity:1.00" />
<rect height="0.000052" width="25.000000" x="355.000000" y="329.999844" fill="rgb(255, 165, 0)" style="fill-opacity:0.28" />
<rect height="0.000156" width="6.250000" x="373.750000" y="329.999844" fill="rgb(255, 165, 0)" style="fill-opacity:0.28" />
<!-- End 'G' -->
<!-- Begin 'T' -->
<rect height="15.999996" width="50.000000" x="330.000000" y="340.000000" fill="rgb(0, 100, 0)" style="fill-opacity:0.04" />
<rect height="99.999974" width="10.000000" x="350.000000" y="340.000000" fill="rgb(0, 100, 0)" style="fill-opacity:0.04" />
<!-- End 'T' -->
<!-- Begin 'A' -->
<polygon points=" 330.000000, 440.000000, 351.000000, 439.999974, 359.000000, 439.999974, 380.000000, 440.000000, 372.500000, 440.000000, 366.250000, 439.999993, 343.750000, 439.999993, 337.500000, 440.000000" fill="rgb(178, 34, 34)" style="fill-opacity:0.04" />
<!-- End 'A' -->
<!-- Begin 'G' -->
<ellipse cx="355.000000" cy="440.000000" rx="25.000000" ry="0.000000" fill="rgb(255, 165, 0)" style="fill-opacity:0.04" />
<ellipse cx="355.000000" cy="440.000000" rx="16.666667" ry="0.000000" fill="rgb(255, 255, 255)" style="fill-opacity:1.00" />
<rect height="0.000000" width="25.000000" x="355.000000" y="440.000000" fill="rgb(255, 255, 255)" style="fill-opacity:1.00" />
<rect height="0.000000" width="25.000000" x="355.000000" y="440.000000" fill="rgb(255, 165, 0)" style="fill-opacity:0.04" />
<rect height="0.000000" width="6.250000" x="373.750000" y="440.000000" fill="rgb(255, 165, 0)" style="fill-opacity:0.04" />
<!-- End 'G' -->
<!-- Begin 'C' -->
<ellipse cx="355.000000" cy="440.000000" rx="25.000000" ry="0.000000" fill="rgb(0, 0, 128)" style="fill-opacity:0.04" />
<ellipse cx="355.000000" cy="440.000000" rx="16.666667" ry="0.000000" fill="rgb(255, 255, 255)" style="fill-opacity:1.00" />
<rect height="0.000000" width="25.000000" x="355.000000" y="440.000000" fill="rgb(255, 255, 255)" style="fill-opacity:1.00" />
<!-- End 'C' -->
<!-- Begin 'G' -->
<ellipse cx="415.000000" cy="55.912384" rx="25.000000" ry="45.912384" fill="rgb(255, 165, 0)" style="fill-opacity:0.00" />
<ellipse cx="415.000000" cy="55.912384" rx="16.666667" ry="30.608256" fill="rgb(255, 255, 255)" style="fill-opacity:1.00" />
<rect height="45.912384" width="25.000000" x="415.000000" y="32.956192" fill="rgb(255, 255, 255)" style="fill-opacity:1.00" />
<rect height="11.478096" width="25.000000" x="415.000000" y="67.390480" fill="rgb(255, 165, 0)" style="fill-opacity:0.00" />
<rect height="34.434288" width="6.250000" x="433.750000" y="67.390480" fill="rgb(255, 165, 0)" style="fill-opacity:0.00" />
<!-- End 'G' -->
<!-- Begin 'T' -->
<rect height="1.267626" width="50.000000" x="390.000000" y="101.824768" fill="rgb(0, 100, 0)" style="fill-opacity:0.00" />
<rect height="7.922664" width="10.000000" x="410.000000" y="101.824768" fill="rgb(0, 100, 0)" style="fill-opacity:0.00" />
<!-- End 'T' -->
<!-- Begin 'A' -->
<polygon points=" 390.000000, 109.903043, 411.000000, 109.747432, 419.000000, 109.747432, 440.000000, 109.903043, 432.500000, 109.903043, 426.250000, 109.864140, 403.750000, 109.864140, 397.500000, 109.903043" fill="rgb(178, 34, 34)" style="fill-opacity:0.00" />
<!-- End 'A' -->
<!-- Begin 'C' -->
<ellipse cx="415.000000" cy="109.951521" rx="25.000000" ry="0.048479" fill="rgb(0, 0, 128)" style="fill-opacity:0.00" />
<ellipse cx="415.000000" cy="109.951521" rx="16.666667" ry="0.032319" fill="rgb(255, 255, 255)" style="fill-opacity:1.00" />
<rect height="0.048479" width="25.000000" x="415.000000" y="109.927282" fill="rgb(255, 255, 255)" style="fill-opacity:1.00" />
<!-- End 'C' -->
<!-- Begin 'G' -->
<ellipse cx="415.000000" cy="168.569326" rx="25.000000" ry="48.569326" fill="rgb(255, 165, 0)" style="fill-opacity:0.00" />
<ellipse cx="415.000000" cy="168.569326" rx="16.666667" ry="32.379551" fill="rgb(255, 255, 255)" style="fill-opacity:1.00" />
<rect height="48.569326" width="25.000000" x="415.000000" y="144.284663" fill="rgb(255, 255, 255)" style="fill-opacity:1.00" />
<rect height="12.142332" width="25.000000" x="415.000000" y="180.711658" fill="rgb(255, 165, 0)" style="fill-opacity:0.00" />
<rect height="36.426995" width="6.250000" x="433.750000" y="180.711658" fill="rgb(255, 165, 0)" style="fill-opacity:0.00" />
<!-- End 'G' -->
<!-- Begin 'T' -->
<rect height="0.457797" width="50.000000" x="390.000000" y="217.138653" fill="rgb(0, 100, 0)" style="fill-opacity:0.00" />
<rect height="2.861231" width="10.000000" x="410.000000" y="217.138653" fill="rgb(0, 100, 0)" style="fill-opacity:0.00" />
<!-- End 'T' -->
<!-- Begin 'A' -->
<polygon points=" 390.000000, 219.999984, 411.000000, 219.999884, 419.000000, 219.999884, 440.000000, 219.999984, 432.500000, 219.999984, 426.250000, 219.999959, 403.750000, 219.999959, 397.500000, 219.999984" fill="rgb(178, 34, 34)" style="fill-opacity:0.00" />
<!-- End 'A' -->
<!-- Begin 'C' -->
<ellipse cx="415.000000" cy="219.999992" rx="25.000000" ry="0.000008" fill="rgb(0, 0, 128)" style="fill-opacity:0.00" />
<ellipse cx="415.000000" cy="219.999992" rx="16.666667" ry="0.000005" fill="rgb(255, 255, 255)" style="fill-opacity:1.00" />
<rect height="0.000008" width="25.000000" x="415.000000" y="219.999988" fill="rgb(255, 255, 255)" style="fill-opacity:1.00" />
<!-- End 'C' -->
<!-- Begin 'G' -->
<ellipse cx="415.000000" cy="279.902425" rx="25.000000" ry="49.902425" fill="rgb(255, 165, 0)" style="fill-opacity:0.00" />
<ellipse cx="415.000000" cy="279.902425" rx="16.666667" ry="33.268284" fill="rgb(255, 255, 255)" style="fill-opacity:1.00" />
<rect height="49.902425" width="25.000000" x="415.000000" y="254.951213" fill="rgb(255, 255, 255)" style="fill-opacity:1.00" />
<rect height="12.475606" width="25.000000" x="415.000000" y="292.378032" fill="rgb(255, 165, 0)" style="fill-opacity:0.00" />
<rect height="37.426819" width="6.250000" x="433.750000" y="292.378032" fill="rgb(255, 165, 0)" style="fill-opacity:0.00" />
<!-- End 'G' -->
<!-- Begin 'T' -->
<rect height="0.027431" width="50.000000" x="390.000000" y="329.804851" fill="rgb(0, 100, 0)" style="fill-opacity:0.00" />
<rect height="0.171441" width="10.000000" x="410.000000" y="329.804851" fill="rgb(0, 100, 0)" style="fill-opacity:0.00" />
<!-- End 'T' -->
<!-- Begin 'A' -->
<polygon points=" 390.000000, 329.990543, 411.000000, 329.976292, 419.000000, 329.976292, 440.000000, 329.990543, 432.500000, 329.990543, 426.250000, 329.986980, 403.750000, 329.986980, 397.500000, 329.990543" fill="rgb(178, 34, 34)" style="fill-opacity:0.00" />
<!-- End 'A' -->
<!-- Begin 'C' -->
<ellipse cx="415.000000" cy="329.995272" rx="25.000000" ry="0.004728" fill="rgb(0, 0, 128)" style="fill-opacity:0.00" />
<ellipse cx="415.000000" cy="329.995272" rx="16.666667" ry="0.003152" fill="rgb(255, 255, 255)" style="fill-opacity:1.00" />
<rect height="0.004728" width="25.000000" x="415.000000" y="329.992907" fill="rgb(255, 255, 255)" style="fill-opacity:1.00" />
<!-- End 'C' -->
<!-- Begin 'G' -->
<ellipse cx="415.000000" cy="384.309636" rx="25.000000" ry="44.309636" fill="rgb(255, 165, 0)" style="fill-opacity:1.00" />
<ellipse cx="415.000000" cy="384.309636" rx="16.666667" ry="29.539757" fill="rgb(255, 255, 255)" style="fill-opacity:1.00" />
<rect height="44.309636" width="25.000000" x="415.000000" y="362.154818" fill="rgb(255, 255, 255)" style="fill-opacity:1.00" />
<rect height="11.077409" width="25.000000" x="415.000000" y="395.387045" fill="rgb(255, 165, 0)" style="fill-opacity:1.00" />
<rect height="33.232227" width="6.250000" x="433.750000" y="395.387045" fill="rgb(255, 165, 0)" style="fill-opacity:1.00" />
<!-- End 'G' -->
<!-- Begin 'T' -->
<rect height="1.646677" width="50.000000" x="390.000000" y="428.619272" fill="rgb(0, 100, 0)" style="fill-opacity:1.00" />
<rect height="10.291731" width="10.000000" x="410.000000" y="428.619272" fill="rgb(0, 100, 0)" style="fill-opacity:1.00" />
<!-- End 'T' -->
<!-- Begin 'A' -->
<polygon points=" 390.000000, 439.558997, 411.000000, 438.911003, 419.000000, 438.911003, 440.000000, 439.558997, 432.500000, 439.558997, 426.250000, 439.396998, 403.750000, 439.396998, 397.500000, 439.558997" fill="rgb(178, 34, 34)" style="fill-opacity:1.00" />
<!-- End 'A' -->
<!-- Begin 'C' -->
<ellipse cx="415.000000" cy="439.779498" rx="25.000000" ry="0.220502" fill="rgb(0, 0, 128)" style="fill-opacity:1.00" />
<ellipse cx="415.000000" cy="439.779498" rx="16.666667" ry="0.147001" fill="rgb(255, 255, 255)" style="fill-opacity:1.00" />
<rect height="0.220502" width="25.000000" x="415.000000" y="439.669247" fill="rgb(255, 255, 255)" style="fill-opacity:1.00" />
<!-- End 'C' -->
<!-- Begin 'A' -->
<polygon points=" 450.000000, 109.991754, 471.000000, 10.000000, 479.000000, 10.000000, 500.000000, 109.991754, 492.500000, 109.991754, 486.250000, 84.993816, 463.750000, 84.993816, 457.500000, 109.991754" fill="rgb(178, 34, 34)" style="fill-opacity:0.01" />
<polygon points=" 475.000000, 29.998351, 467.000000, 68.995052, 482.000000, 68.995052" fill="rgb(255, 255, 255)" style="fill-opacity:1.00" />
<!-- End 'A' -->
<!-- Begin 'C' -->
<ellipse cx="475.000000" cy="109.994454" rx="25.000000" ry="0.002700" fill="rgb(0, 0, 128)" style="fill-opacity:0.01" />
<ellipse cx="475.000000" cy="109.994454" rx="16.666667" ry="0.001800" fill="rgb(255, 255, 255)" style="fill-opacity:1.00" />
<rect height="0.002700" width="25.000000" x="475.000000" y="109.993104" fill="rgb(255, 255, 255)" style="fill-opacity:1.00" />
<!-- End 'C' -->
<!-- Begin 'T' -->
<rect height="0.000451" width="50.000000" x="450.000000" y="109.997155" fill="rgb(0, 100, 0)" style="fill-opacity:0.01" />
<rect height="0.002821" width="10.000000" x="470.000000" y="109.997155" fill="rgb(0, 100, 0)" style="fill-opacity:0.01" />
<!-- End 'T' -->
<!-- Begin 'G' -->
<ellipse cx="475.000000" cy="109.999988" rx="25.000000" ry="0.000012" fill="rgb(255, 165, 0)" style="fill-opacity:0.01" />
<ellipse cx="475.000000" cy="109.999988" rx="16.666667" ry="0.000008" fill="rgb(255, 255, 255)" style="fill-opacity:1.00" />
<rect height="0.000012" width="25.000000" x="475.000000" y="109.999982" fill="rgb(255, 255, 255)" style="fill-opacity:1.00" />
<rect height="0.000003" width="25.000000" x="475.000000" y="109.999991" fill="rgb(255, 165, 0)" style="fill-opacity:0.01" />
<rect height="0.000009" width="6.250000" x="493.750000" y="109.999991" fill="rgb(255, 165, 0)" style="fill-opacity:0.01" />
<!-- End 'G' -->
<!-- Begin 'A' -->
<polygon points=" 450.000000, 219.999843, 471.000000, 120.000000, 479.000000, 120.000000, 500.000000, 219.999843, 492.500000, 219.999843, 486.250000, 194.999882, 463.750000, 194.999882, 457.500000, 219.999843" fill="rgb(178, 34, 34)" style="fill-opacity:0.00" />
<polygon points=" 475.000000, 139.999969, 467.000000, 178.999906, 482.000000, 178.999906" fill="rgb(255, 255, 255)" style="fill-opacity:1.00" />
<!-- End 'A' -->
<!-- Begin 'G' -->
<ellipse cx="475.000000" cy="219.999918" rx="25.000000" ry="0.000075" fill="rgb(255, 165, 0)" style="fill-opacity:0.00" />
<ellipse cx="475.000000" cy="219.999918" rx="16.666667" ry="0.000050" fill="rgb(255, 255, 255)" style="fill-opacity:1.00" />
<rect height="0.000075" width="25.000000" x="475.000000" y="219.999880" fill="rgb(255, 255, 255)" style="fill-opacity:1.00" />
<rect height="0.000019" width="25.000000" x="475.000000" y="219.999937" fill="rgb(255, 165, 0)" style="fill-opacity:0.00" />
<rect height="0.000056" width="6.250000" x="493.750000" y="219.999937" fill="rgb(255, 165, 0)" style="fill-opacity:0.00" />
<!-- End 'G' -->
<!-- Begin 'T' -->
<rect height="0.000001" width="50.000000" x="450.000000" y="219.999993" fill="rgb(0, 100, 0)" style="fill-opacity:0.00" />
<rect height="0.000006" width="10.000000" x="470.000000" y="219.999993" fill="rgb(0, 100, 0)" style="fill-opacity:0.00" />
<!-- End 'T' -->
<!-- Begin 'C' -->
<ellipse cx="475.000000" cy="220.000000" rx="25.000000" ry="0.000000" fill="rgb(0, 0, 128)" style="fill-opacity:0.00" />
<ellipse cx="475.000000" cy="220.000000" rx="16.666667" ry="0.000000" fill="rgb(255, 255, 255)" style="fill-opacity:1.00" />
<rect height="0.000000" width="25.000000" x="475.000000" y="219.999999" fill="rgb(255, 255, 255)" style="fill-opacity:1.00" />
<!-- End 'C' -->
<!-- Begin 'A' -->
<polygon points=" 450.000000, 326.656880, 471.000000, 230.000000, 479.000000, 230.000000, 500.000000, 326.656880, 492.500000, 326.656880, 486.250000, 302.492660, 463.750000, 302.492660, 457.500000, 326.656880" fill="rgb(178, 34, 34)" style="fill-opacity:0.89" />
<polygon points=" 475.000000, 249.331376, 467.000000, 286.994128, 482.000000, 286.994128" fill="rgb(255, 255, 255)" style="fill-opacity:1.00" />
<!-- End 'A' -->
<!-- Begin 'T' -->
<rect height="0.391213" width="50.000000" x="450.000000" y="326.656880" fill="rgb(0, 100, 0)" style="fill-opacity:0.89" />
<rect height="2.445082" width="10.000000" x="470.000000" y="326.656880" fill="rgb(0, 100, 0)" style="fill-opacity:0.89" />
<!-- End 'T' -->
<!-- Begin 'G' -->
<ellipse cx="475.000000" cy="329.346658" rx="25.000000" ry="0.244696" fill="rgb(255, 165, 0)" style="fill-opacity:0.89" />
<ellipse cx="475.000000" cy="329.346658" rx="16.666667" ry="0.163130" fill="rgb(255, 255, 255)" style="fill-opacity:1.00" />
<rect height="0.244696" width="25.000000" x="475.000000" y="329.224310" fill="rgb(255, 255, 255)" style="fill-opacity:1.00" />
<rect height="0.061174" width="25.000000" x="475.000000" y="329.407832" fill="rgb(255, 165, 0)" style="fill-opacity:0.89" />
<rect height="0.183522" width="6.250000" x="493.750000" y="329.407832" fill="rgb(255, 165, 0)" style="fill-opacity:0.89" />
<!-- End 'G' -->
<!-- Begin 'C' -->
<ellipse cx="475.000000" cy="329.795677" rx="25.000000" ry="0.204323" fill="rgb(0, 0, 128)" style="fill-opacity:0.89" />
<ellipse cx="475.000000" cy="329.795677" rx="16.666667" ry="0.136215" fill="rgb(255, 255, 255)" style="fill-opacity:1.00" />
<rect height="0.204323" width="25.000000" x="475.000000" y="329.693515" fill="rgb(255, 255, 255)" style="fill-opacity:1.00" />
<!-- End 'C' -->
<!-- Begin 'A' -->
<polygon points=" 450.000000, 426.412399, 471.000000, 340.000000, 479.000000, 340.000000, 500.000000, 426.412399, 492.500000, 426.412399, 486.250000, 404.809299, 463.750000, 404.809299, 457.500000, 426.412399" fill="rgb(178, 34, 34)" style="fill-opacity:0.10" />
<polygon points=" 475.000000, 357.282480, 467.000000, 390.847439, 482.000000, 390.847439" fill="rgb(255, 255, 255)" style="fill-opacity:1.00" />
<!-- End 'A' -->
<!-- Begin 'G' -->
<ellipse cx="475.000000" cy="432.338757" rx="25.000000" ry="5.926358" fill="rgb(255, 165, 0)" style="fill-opacity:0.10" />
<ellipse cx="475.000000" cy="432.338757" rx="16.666667" ry="3.950906" fill="rgb(255, 255, 255)" style="fill-opacity:1.00" />
<rect height="5.926358" width="25.000000" x="475.000000" y="429.375578" fill="rgb(255, 255, 255)" style="fill-opacity:1.00" />
<rect height="1.481590" width="25.000000" x="475.000000" y="433.820347" fill="rgb(255, 165, 0)" style="fill-opacity:0.10" />
<rect height="4.444769" width="6.250000" x="493.750000" y="433.820347" fill="rgb(255, 165, 0)" style="fill-opacity:0.10" />
<!-- End 'G' -->
<!-- Begin 'T' -->
<rect height="0.277505" width="50.000000" x="450.000000" y="438.265115" fill="rgb(0, 100, 0)" style="fill-opacity:0.10" />
<rect height="1.734406" width="10.000000" x="470.000000" y="438.265115" fill="rgb(0, 100, 0)" style="fill-opacity:0.10" />
<!-- End 'T' -->
<!-- Begin 'C' -->
<ellipse cx="475.000000" cy="439.999761" rx="25.000000" ry="0.000239" fill="rgb(0, 0, 128)" style="fill-opacity:0.10" />
<ellipse cx="475.000000" cy="439.999761" rx="16.666667" ry="0.000160" fill="rgb(255, 255, 255)" style="fill-opacity:1.00" />
<rect height="0.000239" width="25.000000" x="475.000000" y="439.999641" fill="rgb(255, 255, 255)" style="fill-opacity:1.00" />
<!-- End 'C' -->
<!-- Begin 'C' -->
<ellipse cx="535.000000" cy="31.724952" rx="25.000000" ry="21.724952" fill="rgb(0, 0, 128)" style="fill-opacity:0.96" />
<ellipse cx="535.000000" cy="31.724952" rx="16.666667" ry="14.483302" fill="rgb(255, 255, 255)" style="fill-opacity:1.00" />
<rect height="21.724952" width="25.000000" x="535.000000" y="20.862476" fill="rgb(255, 255, 255)" style="fill-opacity:1.00" />
<!-- End 'C' -->
<!-- Begin 'G' -->
<ellipse cx="535.000000" cy="72.912228" rx="25.000000" ry="19.462323" fill="rgb(255, 165, 0)" style="fill-opacity:0.96" />
<ellipse cx="535.000000" cy="72.912228" rx="16.666667" ry="12.974882" fill="rgb(255, 255, 255)" style="fill-opacity:1.00" />
<rect height="19.462323" width="25.000000" x="535.000000" y="63.181066" fill="rgb(255, 255, 255)" style="fill-opacity:1.00" />
<rect height="4.865581" width="25.000000" x="535.000000" y="77.777809" fill="rgb(255, 165, 0)" style="fill-opacity:0.96" />
<rect height="14.596742" width="6.250000" x="553.750000" y="77.777809" fill="rgb(255, 165, 0)" style="fill-opacity:0.96" />
<!-- End 'G' -->
<!-- Begin 'T' -->
<rect height="1.581680" width="50.000000" x="510.000000" y="92.374551" fill="rgb(0, 100, 0)" style="fill-opacity:0.96" />
<rect height="9.885498" width="10.000000" x="530.000000" y="92.374551" fill="rgb(0, 100, 0)" style="fill-opacity:0.96" />
<!-- End 'T' -->
<!-- Begin 'A' -->
<polygon points=" 510.000000, 110.000000, 531.000000, 102.260049, 539.000000, 102.260049, 560.000000, 110.000000, 552.500000, 110.000000, 546.250000, 108.065012, 523.750000, 108.065012, 517.500000, 110.000000" fill="rgb(178, 34, 34)" style="fill-opacity:0.96" />
<!-- End 'A' -->
<!-- Begin 'G' -->
<ellipse cx="535.000000" cy="169.700881" rx="25.000000" ry="49.700881" fill="rgb(255, 165, 0)" style="fill-opacity:0.00" />
<ellipse cx="535.000000" cy="169.700881" rx="16.666667" ry="33.133921" fill="rgb(255, 255, 255)" style="fill-opacity:1.00" />
<rect height="49.700881" width="25.000000" x="535.000000" y="144.850441" fill="rgb(255, 255, 255)" style="fill-opacity:1.00" />
<rect height="12.425220" width="25.000000" x="535.000000" y="182.126101" fill="rgb(255, 165, 0)" style="fill-opacity:0.00" />
<rect height="37.275661" width="6.250000" x="553.750000" y="182.126101" fill="rgb(255, 165, 0)" style="fill-opacity:0.00" />
<!-- End 'G' -->
<!-- Begin 'T' -->
<rect height="0.094683" width="50.000000" x="510.000000" y="219.401762" fill="rgb(0, 100, 0)" style="fill-opacity:0.00" />
<rect height="0.591766" width="10.000000" x="530.000000" y="219.401762" fill="rgb(0, 100, 0)" style="fill-opacity:0.00" />
<!-- End 'T' -->
<!-- Begin 'C' -->
<ellipse cx="535.000000" cy="219.996177" rx="25.000000" ry="0.002649" fill="rgb(0, 0, 128)" style="fill-opacity:0.00" />
<ellipse cx="535.000000" cy="219.996177" rx="16.666667" ry="0.001766" fill="rgb(255, 255, 255)" style="fill-opacity:1.00" />
<rect height="0.002649" width="25.000000" x="535.000000" y="219.994853" fill="rgb(255, 255, 255)" style="fill-opacity:1.00" />
<!-- End 'C' -->
<!-- Begin 'A' -->
<polygon points=" 510.000000, 220.000000, 531.000000, 219.998827, 539.000000, 219.998827, 560.000000, 220.000000, 552.500000, 220.000000, 546.250000, 219.999707, 523.750000, 219.999707, 517.500000, 220.000000" fill="rgb(178, 34, 34)" style="fill-opacity:0.00" />
<!-- End 'A' -->
<!-- Begin 'C' -->
<ellipse cx="535.000000" cy="278.757875" rx="25.000000" ry="48.757875" fill="rgb(0, 0, 128)" style="fill-opacity:0.02" />
<ellipse cx="535.000000" cy="278.757875" rx="16.666667" ry="32.505250" fill="rgb(255, 255, 255)" style="fill-opacity:1.00" />
<rect height="48.757875" width="25.000000" x="535.000000" y="254.378937" fill="rgb(255, 255, 255)" style="fill-opacity:1.00" />
<!-- End 'C' -->
<!-- Begin 'T' -->
<rect height="0.387002" width="50.000000" x="510.000000" y="327.515749" fill="rgb(0, 100, 0)" style="fill-opacity:0.02" />
<rect height="2.418764" width="10.000000" x="530.000000" y="327.515749" fill="rgb(0, 100, 0)" style="fill-opacity:0.02" />
<!-- End 'T' -->
<!-- Begin 'G' -->
<ellipse cx="535.000000" cy="329.965916" rx="25.000000" ry="0.031403" fill="rgb(255, 165, 0)" style="fill-opacity:0.02" />
<ellipse cx="535.000000" cy="329.965916" rx="16.666667" ry="0.020935" fill="rgb(255, 255, 255)" style="fill-opacity:1.00" />
<rect height="0.031403" width="25.000000" x="535.000000" y="329.950214" fill="rgb(255, 255, 255)" style="fill-opacity:1.00" />
<rect height="0.007851" width="25.000000" x="535.000000" y="329.973766" fill="rgb(255, 165, 0)" style="fill-opacity:0.02" />
<rect height="0.023552" width="6.250000" x="553.750000" y="329.973766" fill="rgb(255, 165, 0)" style="fill-opacity:0.02" />
<!-- End 'G' -->
<!-- Begin 'A' -->
<polygon points=" 510.000000, 330.000000, 531.000000, 329.997318, 539.000000, 329.997318, 560.000000, 330.000000, 552.500000, 330.000000, 546.250000, 329.999330, 523.750000, 329.999330, 517.500000, 330.000000" fill="rgb(178, 34, 34)" style="fill-opacity:0.02" />
<!-- End 'A' -->
<!-- Begin 'G' -->
<ellipse cx="535.000000" cy="372.699244" rx="25.000000" ry="32.699244" fill="rgb(255, 165, 0)" style="fill-opacity:0.02" />
<ellipse cx="535.000000" cy="372.699244" rx="16.666667" ry="21.799496" fill="rgb(255, 255, 255)" style="fill-opacity:1.00" />
<rect height="32.699244" width="25.000000" x="535.000000" y="356.349622" fill="rgb(255, 255, 255)" style="fill-opacity:1.00" />
<rect height="8.174811" width="25.000000" x="535.000000" y="380.874055" fill="rgb(255, 165, 0)" style="fill-opacity:0.02" />
<rect height="24.524433" width="6.250000" x="553.750000" y="380.874055" fill="rgb(255, 165, 0)" style="fill-opacity:0.02" />
<!-- End 'G' -->
<!-- Begin 'T' -->
<rect height="2.993997" width="50.000000" x="510.000000" y="405.398488" fill="rgb(0, 100, 0)" style="fill-opacity:0.02" />
<rect height="18.712484" width="10.000000" x="530.000000" y="405.398488" fill="rgb(0, 100, 0)" style="fill-opacity:0.02" />
<!-- End 'T' -->
<!-- Begin 'C' -->
<ellipse cx="535.000000" cy="431.952597" rx="25.000000" ry="7.841625" fill="rgb(0, 0, 128)" style="fill-opacity:0.02" />
<ellipse cx="535.000000" cy="431.952597" rx="16.666667" ry="5.227750" fill="rgb(255, 255, 255)" style="fill-opacity:1.00" />
<rect height="7.841625" width="25.000000" x="535.000000" y="428.031785" fill="rgb(255, 255, 255)" style="fill-opacity:1.00" />
<!-- End 'C' -->
<!-- Begin 'A' -->
<polygon points=" 510.000000, 440.000000, 531.000000, 439.794223, 539.000000, 439.794223, 560.000000, 440.000000, 552.500000, 440.000000, 546.250000, 439.948556, 523.750000, 439.948556, 517.500000, 440.000000" fill="rgb(178, 34, 34)" style="fill-opacity:0.02" />
<!-- End 'A' -->
<!-- Begin 'T' -->
<rect height="13.716866" width="50.000000" x="570.000000" y="10.000000" fill="rgb(0, 100, 0)" style="fill-opacity:0.07" />
<rect height="85.730415" width="10.000000" x="590.000000" y="10.000000" fill="rgb(0, 100, 0)" style="fill-opacity:0.07" />
<!-- End 'T' -->
<!-- Begin 'A' -->
<polygon points=" 570.000000, 103.142262, 591.000000, 95.730415, 599.000000, 95.730415, 620.000000, 103.142262, 612.500000, 103.142262, 606.250000, 101.289300, 583.750000, 101.289300, 577.500000, 103.142262" fill="rgb(178, 34, 34)" style="fill-opacity:0.07" />
<!-- End 'A' -->
<!-- Begin 'G' -->
<ellipse cx="595.000000" cy="106.571048" rx="25.000000" ry="3.428787" fill="rgb(255, 165, 0)" style="fill-opacity:0.07" />
<ellipse cx="595.000000" cy="106.571048" rx="16.666667" ry="2.285858" fill="rgb(255, 255, 255)" style="fill-opacity:1.00" />
<rect height="3.428787" width="25.000000" x="595.000000" y="104.856655" fill="rgb(255, 255, 255)" style="fill-opacity:1.00" />
<rect height="0.857197" width="25.000000" x="595.000000" y="107.428245" fill="rgb(255, 165, 0)" style="fill-opacity:0.07" />
<rect height="2.571590" width="6.250000" x="613.750000" y="107.428245" fill="rgb(255, 165, 0)" style="fill-opacity:0.07" />
<!-- End 'G' -->
<!-- Begin 'C' -->
<ellipse cx="595.000000" cy="109.999917" rx="25.000000" ry="0.000083" fill="rgb(0, 0, 128)" style="fill-opacity:0.07" />
<ellipse cx="595.000000" cy="109.999917" rx="16.666667" ry="0.000055" fill="rgb(255, 255, 255)" style="fill-opacity:1.00" />
<rect height="0.000083" width="25.000000" x="595.000000" y="109.999876" fill="rgb(255, 255, 255)" style="fill-opacity:1.00" />
<!-- End 'C' -->
<!-- Begin 'T' -->
<rect height="12.662157" width="50.000000" x="570.000000" y="120.000000" fill="rgb(0, 100, 0)" style="fill-opacity:0.44" />
<rect height="79.138482" width="10.000000" x="590.000000" y="120.000000" fill="rgb(0, 100, 0)" style="fill-opacity:0.44" />
<!-- End 'T' -->
<!-- Begin 'A' -->
<polygon points=" 570.000000, 209.963893, 591.000000, 199.138482, 599.000000, 199.138482, 620.000000, 209.963893, 612.500000, 209.963893, 606.250000, 207.257540, 583.750000, 207.257540, 577.500000, 209.963893" fill="rgb(178, 34, 34)" style="fill-opacity:0.44" />
<polygon points=" 595.000000, 201.303565, 587.000000, 204.633729, 602.000000, 204.633729" fill="rgb(255, 255, 255)" style="fill-opacity:1.00" />
<!-- End 'A' -->
<!-- Begin 'G' -->
<ellipse cx="595.000000" cy="213.400807" rx="25.000000" ry="3.436914" fill="rgb(255, 165, 0)" style="fill-opacity:0.44" />
<ellipse cx="595.000000" cy="213.400807" rx="16.666667" ry="2.291276" fill="rgb(255, 255, 255)" style="fill-opacity:1.00" />
<rect height="3.436914" width="25.000000" x="595.000000" y="211.682350" fill="rgb(255, 255, 255)" style="fill-opacity:1.00" />
<rect height="0.859229" width="25.000000" x="595.000000" y="214.260036" fill="rgb(255, 165, 0)" style="fill-opacity:0.44" />
<rect height="2.577686" width="6.250000" x="613.750000" y="214.260036" fill="rgb(255, 165, 0)" style="fill-opacity:0.44" />
<!-- End 'G' -->
<!-- Begin 'C' -->
<ellipse cx="595.000000" cy="218.418861" rx="25.000000" ry="1.581139" fill="rgb(0, 0, 128)" style="fill-opacity:0.44" />
<ellipse cx="595.000000" cy="218.418861" rx="16.666667" ry="1.054093" fill="rgb(255, 255, 255)" style="fill-opacity:1.00" />
<rect height="1.581139" width="25.000000" x="595.000000" y="217.628291" fill="rgb(255, 255, 255)" style="fill-opacity:1.00" />
<!-- End 'C' -->
<!-- Begin 'T' -->
<rect height="14.746622" width="50.000000" x="570.000000" y="230.000000" fill="rgb(0, 100, 0)" style="fill-opacity:0.39" />
<rect height="92.166389" width="10.000000" x="590.000000" y="230.000000" fill="rgb(0, 100, 0)" style="fill-opacity:0.39" />
<!-- End 'T' -->
<!-- Begin 'G' -->
<ellipse cx="595.000000" cy="324.337779" rx="25.000000" ry="2.171390" fill="rgb(255, 165, 0)" style="fill-opacity:0.39" />
<ellipse cx="595.000000" cy="324.337779" rx="16.666667" ry="1.447593" fill="rgb(255, 255, 255)" style="fill-opacity:1.00" />
<rect height="2.171390" width="25.000000" x="595.000000" y="323.252084" fill="rgb(255, 255, 255)" style="fill-opacity:1.00" />
<rect height="0.542847" width="25.000000" x="595.000000" y="324.880626" fill="rgb(255, 165, 0)" style="fill-opacity:0.39" />
<rect height="1.628542" width="6.250000" x="613.750000" y="324.880626" fill="rgb(255, 165, 0)" style="fill-opacity:0.39" />
<!-- End 'G' -->
<!-- Begin 'A' -->
<polygon points=" 570.000000, 328.801610, 591.000000, 326.509168, 599.000000, 326.509168, 620.000000, 328.801610, 612.500000, 328.801610, 606.250000, 328.228500, 583.750000, 328.228500, 577.500000, 328.801610" fill="rgb(178, 34, 34)" style="fill-opacity:0.39" />
<!-- End 'A' -->
<!-- Begin 'C' -->
<ellipse cx="595.000000" cy="329.400805" rx="25.000000" ry="0.599195" fill="rgb(0, 0, 128)" style="fill-opacity:0.39" />
<ellipse cx="595.000000" cy="329.400805" rx="16.666667" ry="0.399463" fill="rgb(255, 255, 255)" style="fill-opacity:1.00" />
<rect height="0.599195" width="25.000000" x="595.000000" y="329.101208" fill="rgb(255, 255, 255)" style="fill-opacity:1.00" />
<!-- End 'C' -->
<!-- Begin 'T' -->
<rect height="10.593787" width="50.000000" x="570.000000" y="340.000000" fill="rgb(0, 100, 0)" style="fill-opacity:0.10" />
<rect height="66.211169" width="10.000000" x="590.000000" y="340.000000" fill="rgb(0, 100, 0)" style="fill-opacity:0.10" />
<!-- End 'T' -->
<!-- Begin 'G' -->
<ellipse cx="595.000000" cy="418.396324" rx="25.000000" ry="12.185155" fill="rgb(255, 165, 0)" style="fill-opacity:0.10" />
<ellipse cx="595.000000" cy="418.396324" rx="16.666667" ry="8.123437" fill="rgb(255, 255, 255)" style="fill-opacity:1.00" />
<rect height="12.185155" width="25.000000" x="595.000000" y="412.303746" fill="rgb(255, 255, 255)" style="fill-opacity:1.00" />
<rect height="3.046289" width="25.000000" x="595.000000" y="421.442613" fill="rgb(255, 165, 0)" style="fill-opacity:0.10" />
<rect height="9.138866" width="6.250000" x="613.750000" y="421.442613" fill="rgb(255, 165, 0)" style="fill-opacity:0.10" />
<!-- End 'G' -->
<!-- Begin 'C' -->
<ellipse cx="595.000000" cy="433.151618" rx="25.000000" ry="2.570139" fill="rgb(0, 0, 128)" style="fill-opacity:0.10" />
<ellipse cx="595.000000" cy="433.151618" rx="16.666667" ry="1.713426" fill="rgb(255, 255, 255)" style="fill-opacity:1.00" />
<rect height="2.570139" width="25.000000" x="595.000000" y="431.866548" fill="rgb(255, 255, 255)" style="fill-opacity:1.00" />
<!-- End 'C' -->
<!-- Begin 'A' -->
<polygon points=" 570.000000, 440.000000, 591.000000, 435.721756, 599.000000, 435.721756, 620.000000, 440.000000, 612.500000, 440.000000, 606.250000, 438.930439, 583.750000, 438.930439, 577.500000, 440.000000" fill="rgb(178, 34, 34)" style="fill-opacity:0.10" />
<!-- End 'A' -->
<!-- Begin 'T' -->
<rect height="10.434773" width="50.000000" x="630.000000" y="10.000000" fill="rgb(0, 100, 0)" style="fill-opacity:0.07" />
<rect height="65.217330" width="10.000000" x="650.000000" y="10.000000" fill="rgb(0, 100, 0)" style="fill-opacity:0.07" />
<!-- End 'T' -->
<!-- Begin 'C' -->
<ellipse cx="655.000000" cy="88.840370" rx="25.000000" ry="13.623040" fill="rgb(0, 0, 128)" style="fill-opacity:0.07" />
<ellipse cx="655.000000" cy="88.840370" rx="16.666667" ry="9.082027" fill="rgb(255, 255, 255)" style="fill-opacity:1.00" />
<rect height="13.623040" width="25.000000" x="655.000000" y="82.028850" fill="rgb(255, 255, 255)" style="fill-opacity:1.00" />
<!-- End 'C' -->
<!-- Begin 'A' -->
<polygon points=" 630.000000, 109.999582, 651.000000, 102.463410, 659.000000, 102.463410, 680.000000, 109.999582, 672.500000, 109.999582, 666.250000, 108.115539, 643.750000, 108.115539, 637.500000, 109.999582" fill="rgb(178, 34, 34)" style="fill-opacity:0.07" />
<!-- End 'A' -->
<!-- Begin 'G' -->
<ellipse cx="655.000000" cy="109.999791" rx="25.000000" ry="0.000209" fill="rgb(255, 165, 0)" style="fill-opacity:0.07" />
<ellipse cx="655.000000" cy="109.999791" rx="16.666667" ry="0.000139" fill="rgb(255, 255, 255)" style="fill-opacity:1.00" />
<rect height="0.000209" width="25.000000" x="655.000000" y="109.999686" fill="rgb(255, 255, 255)" style="fill-opacity:1.00" />
<rect height="0.000052" width="25.000000" x="655.000000" y="109.999843" fill="rgb(255, 165, 0)" style="fill-opacity:0.07" />
<rect height="0.000157" width="6.250000" x="673.750000" y="109.999843" fill="rgb(255, 165, 0)" style="fill-opacity:0.07" />
<!-- End 'G' -->
<!-- Begin 'T' -->
<rect height="15.837679" width="50.000000" x="630.000000" y="120.000000" fill="rgb(0, 100, 0)" style="fill-opacity:0.02" />
<rect height="98.985491" width="10.000000" x="650.000000" y="120.000000" fill="rgb(0, 100, 0)" style="fill-opacity:0.02" />
<!-- End 'T' -->
<!-- Begin 'C' -->
<ellipse cx="655.000000" cy="219.249914" rx="25.000000" ry="0.264423" fill="rgb(0, 0, 128)" style="fill-opacity:0.02" />
<ellipse cx="655.000000" cy="219.249914" rx="16.666667" ry="0.176282" fill="rgb(255, 255, 255)" style="fill-opacity:1.00" />
<rect height="0.264423" width="25.000000" x="655.000000" y="219.117703" fill="rgb(255, 255, 255)" style="fill-opacity:1.00" />
<!-- End 'C' -->
<!-- Begin 'A' -->
<polygon points=" 630.000000, 219.999885, 651.000000, 219.514338, 659.000000, 219.514338, 680.000000, 219.999885, 672.500000, 219.999885, 666.250000, 219.878498, 643.750000, 219.878498, 637.500000, 219.999885" fill="rgb(178, 34, 34)" style="fill-opacity:0.02" />
<!-- End 'A' -->
<!-- Begin 'G' -->
<ellipse cx="655.000000" cy="219.999943" rx="25.000000" ry="0.000057" fill="rgb(255, 165, 0)" style="fill-opacity:0.02" />
<ellipse cx="655.000000" cy="219.999943" rx="16.666667" ry="0.000038" fill="rgb(255, 255, 255)" style="fill-opacity:1.00" />
<rect height="0.000057" width="25.000000" x="655.000000" y="219.999914" fill="rgb(255, 255, 255)" style="fill-opacity:1.00" />
<rect height="0.000014" width="25.000000" x="655.000000" y="219.999957" fill="rgb(255, 165, 0)" style="fill-opacity:0.02" />
<rect height="0.000043" width="6.250000" x="673.750000" y="219.999957" fill="rgb(255, 165, 0)" style="fill-opacity:0.02" />
<!-- End 'G' -->
<!-- Begin 'T' -->
<rect height="12.460535" width="50.000000" x="630.000000" y="230.000000" fill="rgb(0, 100, 0)" style="fill-opacity:0.08" />
<rect height="77.878343" width="10.000000" x="650.000000" y="230.000000" fill="rgb(0, 100, 0)" style="fill-opacity:0.08" />
<!-- End 'T' -->
<!-- Begin 'C' -->
<ellipse cx="655.000000" cy="315.615320" rx="25.000000" ry="7.736977" fill="rgb(0, 0, 128)" style="fill-opacity:0.08" />
<ellipse cx="655.000000" cy="315.615320" rx="16.666667" ry="5.157984" fill="rgb(255, 255, 255)" style="fill-opacity:1.00" />
<rect height="7.736977" width="25.000000" x="655.000000" y="311.746831" fill="rgb(255, 255, 255)" style="fill-opacity:1.00" />
<!-- End 'C' -->
<!-- Begin 'A' -->
<polygon points=" 630.000000, 329.758857, 651.000000, 323.352296, 659.000000, 323.352296, 680.000000, 329.758857, 672.500000, 329.758857, 666.250000, 328.157217, 643.750000, 328.157217, 637.500000, 329.758857" fill="rgb(178, 34, 34)" style="fill-opacity:0.08" />
<!-- End 'A' -->
<!-- Begin 'G' -->
<ellipse cx="655.000000" cy="329.879428" rx="25.000000" ry="0.120572" fill="rgb(255, 165, 0)" style="fill-opacity:0.08" />
<ellipse cx="655.000000" cy="329.879428" rx="16.666667" ry="0.080381" fill="rgb(255, 255, 255)" style="fill-opacity:1.00" />
<rect height="0.120572" width="25.000000" x="655.000000" y="329.819143" fill="rgb(255, 255, 255)" style="fill-opacity:1.00" />
<rect height="0.030143" width="25.000000" x="655.000000" y="329.909571" fill="rgb(255, 165, 0)" style="fill-opacity:0.08" />
<rect height="0.090429" width="6.250000" x="673.750000" y="329.909571" fill="rgb(255, 165, 0)" style="fill-opacity:0.08" />
<!-- End 'G' -->
<!-- Begin 'C' -->
<ellipse cx="655.000000" cy="385.198255" rx="25.000000" ry="45.198255" fill="rgb(0, 0, 128)" style="fill-opacity:0.83" />
<ellipse cx="655.000000" cy="385.198255" rx="16.666667" ry="30.132170" fill="rgb(255, 255, 255)" style="fill-opacity:1.00" />
<rect height="45.198255" width="25.000000" x="655.000000" y="362.599127" fill="rgb(255, 255, 255)" style="fill-opacity:1.00" />
<!-- End 'C' -->
<!-- Begin 'A' -->
<polygon points=" 630.000000, 438.747268, 651.000000, 430.396510, 659.000000, 430.396510, 680.000000, 438.747268, 672.500000, 438.747268, 666.250000, 436.659578, 643.750000, 436.659578, 637.500000, 438.747268" fill="rgb(178, 34, 34)" style="fill-opacity:0.83" />
<polygon points=" 655.000000, 432.066661, 647.000000, 434.406964, 662.000000, 434.406964" fill="rgb(255, 255, 255)" style="fill-opacity:1.00" />
<!-- End 'A' -->
<!-- Begin 'T' -->
<rect height="0.200437" width="50.000000" x="630.000000" y="438.747268" fill="rgb(0, 100, 0)" style="fill-opacity:0.83" />
<rect height="1.252731" width="10.000000" x="650.000000" y="438.747268" fill="rgb(0, 100, 0)" style="fill-opacity:0.83" />
<!-- End 'T' -->
<!-- Begin 'G' -->
<ellipse cx="655.000000" cy="439.999999" rx="25.000000" ry="0.000001" fill="rgb(255, 165, 0)" style="fill-opacity:0.83" />
<ellipse cx="655.000000" cy="439.999999" rx="16.666667" ry="0.000000" fill="rgb(255, 255, 255)" style="fill-opacity:1.00" />
<rect height="0.000001" width="25.000000" x="655.000000" y="439.999999" fill="rgb(255, 255, 255)" style="fill-opacity:1.00" />
<rect height="0.000000" width="25.000000" x="655.000000" y="439.999999" fill="rgb(255, 165, 0)" style="fill-opacity:0.83" />
<rect height="0.000001" width="6.250000" x="673.750000" y="439.999999" fill="rgb(255, 165, 0)" style="fill-opacity:0.83" />
<!-- End 'G' -->
<!-- Begin 'A' -->
<polygon points=" 690.000000, 105.441735, 711.000000, 10.000000, 719.000000, 10.000000, 740.000000, 105.441735, 732.500000, 105.441735, 726.250000, 81.581301, 703.750000, 81.581301, 697.500000, 105.441735" fill="rgb(178, 34, 34)" style="fill-opacity:0.08" />
<polygon points=" 715.000000, 29.088347, 707.000000, 66.265041, 722.000000, 66.265041" fill="rgb(255, 255, 255)" style="fill-opacity:1.00" />
<!-- End 'A' -->
<!-- Begin 'C' -->
<ellipse cx="715.000000" cy="107.493724" rx="25.000000" ry="2.051989" fill="rgb(0, 0, 128)" style="fill-opacity:0.08" />
<ellipse cx="715.000000" cy="107.493724" rx="16.666667" ry="1.367993" fill="rgb(255, 255, 255)" style="fill-opacity:1.00" />
<rect height="2.051989" width="25.000000" x="715.000000" y="106.467729" fill="rgb(255, 255, 255)" style="fill-opacity:1.00" />
<!-- End 'C' -->
<!-- Begin 'T' -->
<rect height="0.072135" width="50.000000" x="690.000000" y="109.545713" fill="rgb(0, 100, 0)" style="fill-opacity:0.08" />
<rect height="0.450844" width="10.000000" x="710.000000" y="109.545713" fill="rgb(0, 100, 0)" style="fill-opacity:0.08" />
<!-- End 'T' -->
<!-- Begin 'G' -->
<ellipse cx="715.000000" cy="109.998278" rx="25.000000" ry="0.001722" fill="rgb(255, 165, 0)" style="fill-opacity:0.08" />
<ellipse cx="715.000000" cy="109.998278" rx="16.666667" ry="0.001148" fill="rgb(255, 255, 255)" style="fill-opacity:1.00" />
<rect height="0.001722" width="25.000000" x="715.000000" y="109.997417" fill="rgb(255, 255, 255)" style="fill-opacity:1.00" />
<rect height="0.000430" width="25.000000" x="715.000000" y="109.998709" fill="rgb(255, 165, 0)" style="fill-opacity:0.08" />
<rect height="0.001291" width="6.250000" x="733.750000" y="109.998709" fill="rgb(255, 165, 0)" style="fill-opacity:0.08" />
<!-- End 'G' -->
<!-- Begin 'A' -->
<polygon points=" 690.000000, 219.871178, 711.000000, 120.000000, 719.000000, 120.000000, 740.000000, 219.871178, 732.500000, 219.871178, 726.250000, 194.903383, 703.750000, 194.903383, 697.500000, 219.871178" fill="rgb(178, 34, 34)" style="fill-opacity:0.78" />
<polygon points=" 715.000000, 139.974236, 707.000000, 178.922707, 722.000000, 178.922707" fill="rgb(255, 255, 255)" style="fill-opacity:1.00" />
<!-- End 'A' -->
<!-- Begin 'C' -->
<ellipse cx="715.000000" cy="219.917653" rx="25.000000" ry="0.046476" fill="rgb(0, 0, 128)" style="fill-opacity:0.78" />
<ellipse cx="715.000000" cy="219.917653" rx="16.666667" ry="0.030984" fill="rgb(255, 255, 255)" style="fill-opacity:1.00" />
<rect height="0.046476" width="25.000000" x="715.000000" y="219.894416" fill="rgb(255, 255, 255)" style="fill-opacity:1.00" />
<!-- End 'C' -->
<!-- Begin 'T' -->
<rect height="0.005632" width="50.000000" x="690.000000" y="219.964129" fill="rgb(0, 100, 0)" style="fill-opacity:0.78" />
<rect height="0.035200" width="10.000000" x="710.000000" y="219.964129" fill="rgb(0, 100, 0)" style="fill-opacity:0.78" />
<!-- End 'T' -->
<!-- Begin 'G' -->
<ellipse cx="715.000000" cy="219.999665" rx="25.000000" ry="0.000335" fill="rgb(255, 165, 0)" style="fill-opacity:0.78" />
<ellipse cx="715.000000" cy="219.999665" rx="16.666667" ry="0.000224" fill="rgb(255, 255, 255)" style="fill-opacity:1.00" />
<rect height="0.000335" width="25.000000" x="715.000000" y="219.999497" fill="rgb(255, 255, 255)" style="fill-opacity:1.00" />
<rect height="0.000084" width="25.000000" x="715.000000" y="219.999748" fill="rgb(255, 165, 0)" style="fill-opacity:0.78" />
<rect height="0.000252" width="6.250000" x="733.750000" y="219.999748" fill="rgb(255, 165, 0)" style="fill-opacity:0.78" />
<!-- End 'G' -->
<!-- Begin 'C' -->
<ellipse cx="715.000000" cy="278.090909" rx="25.000000" ry="48.090909" fill="rgb(0, 0, 128)" style="fill-opacity:0.00" />
<ellipse cx="715.000000" cy="278.090909" rx="16.666667" ry="32.060606" fill="rgb(255, 255, 255)" style="fill-opacity:1.00" />
<rect height="48.090909" width="25.000000" x="715.000000" y="254.045454" fill="rgb(255, 255, 255)" style="fill-opacity:1.00" />
<!-- End 'C' -->
<!-- Begin 'A' -->
<polygon points=" 690.000000, 329.978367, 711.000000, 326.181818, 719.000000, 326.181818, 740.000000, 329.978367, 732.500000, 329.978367, 726.250000, 329.029230, 703.750000, 329.029230, 697.500000, 329.978367" fill="rgb(178, 34, 34)" style="fill-opacity:0.00" />
<!-- End 'A' -->
<!-- Begin 'T' -->
<rect height="0.003461" width="50.000000" x="690.000000" y="329.978367" fill="rgb(0, 100, 0)" style="fill-opacity:0.00" />
<rect height="0.021630" width="10.000000" x="710.000000" y="329.978367" fill="rgb(0, 100, 0)" style="fill-opacity:0.00" />
<!-- End 'T' -->
<!-- Begin 'G' -->
<ellipse cx="715.000000" cy="329.999998" rx="25.000000" ry="0.000002" fill="rgb(255, 165, 0)" style="fill-opacity:0.00" />
<ellipse cx="715.000000" cy="329.999998" rx="16.666667" ry="0.000001" fill="rgb(255, 255, 255)" style="fill-opacity:1.00" />
<rect height="0.000002" width="25.000000" x="715.000000" y="329.999997" fill="rgb(255, 255, 255)" style="fill-opacity:1.00" />
<rect height="0.000000" width="25.000000" x="715.000000" y="329.999999" fill="rgb(255, 165, 0)" style="fill-opacity:0.00" />
<rect height="0.000001" width="6.250000" x="733.750000" y="329.999999" fill="rgb(255, 165, 0)" style="fill-opacity:0.00" />
<!-- End 'G' -->
<!-- Begin 'C' -->
<ellipse cx="715.000000" cy="380.873315" rx="25.000000" ry="40.873315" fill="rgb(0, 0, 128)" style="fill-opacity:0.14" />
<ellipse cx="715.000000" cy="380.873315" rx="16.666667" ry="27.248877" fill="rgb(255, 255, 255)" style="fill-opacity:1.00" />
<rect height="40.873315" width="25.000000" x="715.000000" y="360.436658" fill="rgb(255, 255, 255)" style="fill-opacity:1.00" />
<!-- End 'C' -->
<!-- Begin 'A' -->
<polygon points=" 690.000000, 434.974028, 711.000000, 421.746631, 719.000000, 421.746631, 740.000000, 434.974028, 732.500000, 434.974028, 726.250000, 431.667179, 703.750000, 431.667179, 697.500000, 434.974028" fill="rgb(178, 34, 34)" style="fill-opacity:0.14" />
<polygon points=" 715.000000, 424.392110, 707.000000, 428.683069, 722.000000, 428.683069" fill="rgb(255, 255, 255)" style="fill-opacity:1.00" />
<!-- End 'A' -->
<!-- Begin 'T' -->
<rect height="0.423972" width="50.000000" x="690.000000" y="434.974028" fill="rgb(0, 100, 0)" style="fill-opacity:0.14" />
<rect height="2.649824" width="10.000000" x="710.000000" y="434.974028" fill="rgb(0, 100, 0)" style="fill-opacity:0.14" />
<!-- End 'T' -->
<!-- Begin 'G' -->
<ellipse cx="715.000000" cy="438.811926" rx="25.000000" ry="1.188074" fill="rgb(255, 165, 0)" style="fill-opacity:0.14" />
<ellipse cx="715.000000" cy="438.811926" rx="16.666667" ry="0.792049" fill="rgb(255, 255, 255)" style="fill-opacity:1.00" />
<rect height="1.188074" width="25.000000" x="715.000000" y="438.217889" fill="rgb(255, 255, 255)" style="fill-opacity:1.00" />
<rect height="0.297018" width="25.000000" x="715.000000" y="439.108945" fill="rgb(255, 165, 0)" style="fill-opacity:0.14" />
<rect height="0.891055" width="6.250000" x="733.750000" y="439.108945" fill="rgb(255, 165, 0)" style="fill-opacity:0.14" />
<!-- End 'G' -->
<!-- Begin 'T' -->
<rect height="7.997818" width="50.000000" x="750.000000" y="10.000000" fill="rgb(0, 100, 0)" style="fill-opacity:0.88" />
<rect height="49.986365" width="10.000000" x="770.000000" y="10.000000" fill="rgb(0, 100, 0)" style="fill-opacity:0.88" />
<!-- End 'T' -->
<!-- Begin 'C' -->
<ellipse cx="775.000000" cy="73.868841" rx="25.000000" ry="13.882476" fill="rgb(0, 0, 128)" style="fill-opacity:0.88" />
<ellipse cx="775.000000" cy="73.868841" rx="16.666667" ry="9.254984" fill="rgb(255, 255, 255)" style="fill-opacity:1.00" />
<rect height="13.882476" width="25.000000" x="775.000000" y="66.927603" fill="rgb(255, 255, 255)" style="fill-opacity:1.00" />
<!-- End 'C' -->
<!-- Begin 'G' -->
<ellipse cx="775.000000" cy="96.416029" rx="25.000000" ry="8.664712" fill="rgb(255, 165, 0)" style="fill-opacity:0.88" />
<ellipse cx="775.000000" cy="96.416029" rx="16.666667" ry="5.776475" fill="rgb(255, 255, 255)" style="fill-opacity:1.00" />
<rect height="8.664712" width="25.000000" x="775.000000" y="92.083673" fill="rgb(255, 255, 255)" style="fill-opacity:1.00" />
<rect height="2.166178" width="25.000000" x="775.000000" y="98.582207" fill="rgb(255, 165, 0)" style="fill-opacity:0.88" />
<rect height="6.498534" width="6.250000" x="793.750000" y="98.582207" fill="rgb(255, 165, 0)" style="fill-opacity:0.88" />
<!-- End 'G' -->
<!-- Begin 'A' -->
<polygon points=" 750.000000, 110.000000, 771.000000, 105.080741, 779.000000, 105.080741, 800.000000, 110.000000, 792.500000, 110.000000, 786.250000, 108.770185, 763.750000, 108.770185, 757.500000, 110.000000" fill="rgb(178, 34, 34)" style="fill-opacity:0.88" />
<!-- End 'A' -->
<!-- Begin 'A' -->
<polygon points=" 750.000000, 216.192585, 771.000000, 120.000000, 779.000000, 120.000000, 800.000000, 216.192585, 792.500000, 216.192585, 786.250000, 192.144438, 763.750000, 192.144438, 757.500000, 216.192585" fill="rgb(178, 34, 34)" style="fill-opacity:0.12" />
<polygon points=" 775.000000, 139.238517, 767.000000, 176.715551, 782.000000, 176.715551" fill="rgb(255, 255, 255)" style="fill-opacity:1.00" />
<!-- End 'A' -->
<!-- Begin 'T' -->
<rect height="0.480476" width="50.000000" x="750.000000" y="216.192585" fill="rgb(0, 100, 0)" style="fill-opacity:0.12" />
<rect height="3.002976" width="10.000000" x="770.000000" y="216.192585" fill="rgb(0, 100, 0)" style="fill-opacity:0.12" />
<!-- End 'T' -->
<!-- Begin 'G' -->
<ellipse cx="775.000000" cy="219.594318" rx="25.000000" ry="0.398757" fill="rgb(255, 165, 0)" style="fill-opacity:0.12" />
<ellipse cx="775.000000" cy="219.594318" rx="16.666667" ry="0.265838" fill="rgb(255, 255, 255)" style="fill-opacity:1.00" />
<rect height="0.398757" width="25.000000" x="775.000000" y="219.394939" fill="rgb(255, 255, 255)" style="fill-opacity:1.00" />
<rect height="0.099689" width="25.000000" x="775.000000" y="219.694007" fill="rgb(255, 165, 0)" style="fill-opacity:0.12" />
<rect height="0.299067" width="6.250000" x="793.750000" y="219.694007" fill="rgb(255, 165, 0)" style="fill-opacity:0.12" />
<!-- End 'G' -->
<!-- Begin 'C' -->
<ellipse cx="775.000000" cy="219.996537" rx="25.000000" ry="0.003463" fill="rgb(0, 0, 128)" style="fill-opacity:0.12" />
<ellipse cx="775.000000" cy="219.996537" rx="16.666667" ry="0.002309" fill="rgb(255, 255, 255)" style="fill-opacity:1.00" />
<rect height="0.003463" width="25.000000" x="775.000000" y="219.994806" fill="rgb(255, 255, 255)" style="fill-opacity:1.00" />
<!-- End 'C' -->
<!-- Begin 'A' -->
<polygon points=" 750.000000, 322.556582, 771.000000, 230.000000, 779.000000, 230.000000, 800.000000, 322.556582, 792.500000, 322.556582, 786.250000, 299.417437, 763.750000, 299.417437, 757.500000, 322.556582" fill="rgb(178, 34, 34)" style="fill-opacity:0.00" />
<polygon points=" 775.000000, 248.511316, 767.000000, 284.533949, 782.000000, 284.533949" fill="rgb(255, 255, 255)" style="fill-opacity:1.00" />
<!-- End 'A' -->
<!-- Begin 'G' -->
<ellipse cx="775.000000" cy="326.088448" rx="25.000000" ry="3.531865" fill="rgb(255, 165, 0)" style="fill-opacity:0.00" />
<ellipse cx="775.000000" cy="326.088448" rx="16.666667" ry="2.354577" fill="rgb(255, 255, 255)" style="fill-opacity:1.00" />
<rect height="3.531865" width="25.000000" x="775.000000" y="324.322515" fill="rgb(255, 255, 255)" style="fill-opacity:1.00" />
<rect height="0.882966" width="25.000000" x="775.000000" y="326.971414" fill="rgb(255, 165, 0)" style="fill-opacity:0.00" />
<rect height="2.648899" width="6.250000" x="793.750000" y="326.971414" fill="rgb(255, 165, 0)" style="fill-opacity:0.00" />
<!-- End 'G' -->
<!-- Begin 'T' -->
<rect height="0.054198" width="50.000000" x="750.000000" y="329.620313" fill="rgb(0, 100, 0)" style="fill-opacity:0.00" />
<rect height="0.338737" width="10.000000" x="770.000000" y="329.620313" fill="rgb(0, 100, 0)" style="fill-opacity:0.00" />
<!-- End 'T' -->
<!-- Begin 'C' -->
<ellipse cx="775.000000" cy="329.979525" rx="25.000000" ry="0.020475" fill="rgb(0, 0, 128)" style="fill-opacity:0.00" />
<ellipse cx="775.000000" cy="329.979525" rx="16.666667" ry="0.013650" fill="rgb(255, 255, 255)" style="fill-opacity:1.00" />
<rect height="0.020475" width="25.000000" x="775.000000" y="329.969288" fill="rgb(255, 255, 255)" style="fill-opacity:1.00" />
<!-- End 'C' -->
<!-- Begin 'A' -->
<polygon points=" 750.000000, 439.379634, 771.000000, 340.000000, 779.000000, 340.000000, 800.000000, 439.379634, 792.500000, 439.379634, 786.250000, 414.534726, 763.750000, 414.534726, 757.500000, 439.379634" fill="rgb(178, 34, 34)" style="fill-opacity:0.00" />
<polygon points=" 775.000000, 359.875927, 767.000000, 398.627780, 782.000000, 398.627780" fill="rgb(255, 255, 255)" style="fill-opacity:1.00" />
<!-- End 'A' -->
<!-- Begin 'T' -->
<rect height="0.099070" width="50.000000" x="750.000000" y="439.379634" fill="rgb(0, 100, 0)" style="fill-opacity:0.00" />
<rect height="0.619188" width="10.000000" x="770.000000" y="439.379634" fill="rgb(0, 100, 0)" style="fill-opacity:0.00" />
<!-- End 'T' -->
<!-- Begin 'G' -->
<ellipse cx="775.000000" cy="439.999402" rx="25.000000" ry="0.000580" fill="rgb(255, 165, 0)" style="fill-opacity:0.00" />
<ellipse cx="775.000000" cy="439.999402" rx="16.666667" ry="0.000387" fill="rgb(255, 255, 255)" style="fill-opacity:1.00" />
<rect height="0.000580" width="25.000000" x="775.000000" y="439.999112" fill="rgb(255, 255, 255)" style="fill-opacity:1.00" />
<rect height="0.000145" width="25.000000" x="775.000000" y="439.999547" fill="rgb(255, 165, 0)" style="fill-opacity:0.00" />
<rect height="0.000435" width="6.250000" x="793.750000" y="439.999547" fill="rgb(255, 165, 0)" style="fill-opacity:0.00" />
<!-- End 'G' -->
<!-- Begin 'C' -->
<ellipse cx="775.000000" cy="439.999991" rx="25.000000" ry="0.000009" fill="rgb(0, 0, 128)" style="fill-opacity:0.00" />
<ellipse cx="775.000000" cy="439.999991" rx="16.666667" ry="0.000006" fill="rgb(255, 255, 255)" style="fill-opacity:1.00" />
<rect height="0.000009" width="25.000000" x="775.000000" y="439.999987" fill="rgb(255, 255, 255)" style="fill-opacity:1.00" />
<!-- End 'C' -->
<!-- Begin 'T' -->
<rect height="7.532296" width="50.000000" x="810.000000" y="10.000000" fill="rgb(0, 100, 0)" style="fill-opacity:0.16" />
<rect height="47.076847" width="10.000000" x="830.000000" y="10.000000" fill="rgb(0, 100, 0)" style="fill-opacity:0.16" />
<!-- End 'T' -->
<!-- Begin 'C' -->
<ellipse cx="835.000000" cy="71.746020" rx="25.000000" ry="14.669173" fill="rgb(0, 0, 128)" style="fill-opacity:0.16" />
<ellipse cx="835.000000" cy="71.746020" rx="16.666667" ry="9.779449" fill="rgb(255, 255, 255)" style="fill-opacity:1.00" />
<rect height="14.669173" width="25.000000" x="835.000000" y="64.411434" fill="rgb(255, 255, 255)" style="fill-opacity:1.00" />
<!-- End 'C' -->
<!-- Begin 'G' -->
<ellipse cx="835.000000" cy="95.169694" rx="25.000000" ry="8.754501" fill="rgb(255, 165, 0)" style="fill-opacity:0.16" />
<ellipse cx="835.000000" cy="95.169694" rx="16.666667" ry="5.836334" fill="rgb(255, 255, 255)" style="fill-opacity:1.00" />
<rect height="8.754501" width="25.000000" x="835.000000" y="90.792444" fill="rgb(255, 255, 255)" style="fill-opacity:1.00" />
<rect height="2.188625" width="25.000000" x="835.000000" y="97.358320" fill="rgb(255, 165, 0)" style="fill-opacity:0.16" />
<rect height="6.565876" width="6.250000" x="853.750000" y="97.358320" fill="rgb(255, 165, 0)" style="fill-opacity:0.16" />
<!-- End 'G' -->
<!-- Begin 'A' -->
<polygon points=" 810.000000, 110.000000, 831.000000, 103.924195, 839.000000, 103.924195, 860.000000, 110.000000, 852.500000, 110.000000, 846.250000, 108.481049, 823.750000, 108.481049, 817.500000, 110.000000" fill="rgb(178, 34, 34)" style="fill-opacity:0.16" />
<!-- End 'A' -->
<!-- Begin 'T' -->
<rect height="5.448406" width="50.000000" x="810.000000" y="120.000000" fill="rgb(0, 100, 0)" style="fill-opacity:0.24" />
<rect height="34.052536" width="10.000000" x="830.000000" y="120.000000" fill="rgb(0, 100, 0)" style="fill-opacity:0.24" />
<!-- End 'T' -->
<!-- Begin 'C' -->
<ellipse cx="835.000000" cy="170.204629" rx="25.000000" ry="16.152092" fill="rgb(0, 0, 128)" style="fill-opacity:0.24" />
<ellipse cx="835.000000" cy="170.204629" rx="16.666667" ry="10.768062" fill="rgb(255, 255, 255)" style="fill-opacity:1.00" />
<rect height="16.152092" width="25.000000" x="835.000000" y="162.128583" fill="rgb(255, 255, 255)" style="fill-opacity:1.00" />
<!-- End 'C' -->
<!-- Begin 'A' -->
<polygon points=" 810.000000, 214.639351, 831.000000, 186.356721, 839.000000, 186.356721, 860.000000, 214.639351, 852.500000, 214.639351, 846.250000, 207.568694, 823.750000, 207.568694, 817.500000, 214.639351" fill="rgb(178, 34, 34)" style="fill-opacity:0.24" />
<polygon points=" 835.000000, 192.013247, 827.000000, 202.326299, 842.000000, 202.326299" fill="rgb(255, 255, 255)" style="fill-opacity:1.00" />
<!-- End 'A' -->
<!-- Begin 'G' -->
<ellipse cx="835.000000" cy="217.319676" rx="25.000000" ry="2.680324" fill="rgb(255, 165, 0)" style="fill-opacity:0.24" />
<ellipse cx="835.000000" cy="217.319676" rx="16.666667" ry="1.786883" fill="rgb(255, 255, 255)" style="fill-opacity:1.00" />
<rect height="2.680324" width="25.000000" x="835.000000" y="215.979514" fill="rgb(255, 255, 255)" style="fill-opacity:1.00" />
<rect height="0.670081" width="25.000000" x="835.000000" y="217.989757" fill="rgb(255, 165, 0)" style="fill-opacity:0.24" />
<rect height="2.010243" width="6.250000" x="853.750000" y="217.989757" fill="rgb(255, 165, 0)" style="fill-opacity:0.24" />
<!-- End 'G' -->
<!-- Begin 'A' -->
<polygon points=" 810.000000, 263.477367, 831.000000, 230.000000, 839.000000, 230.000000, 860.000000, 263.477367, 852.500000, 263.477367, 846.250000, 255.108025, 823.750000, 255.108025, 817.500000, 263.477367" fill="rgb(178, 34, 34)" style="fill-opacity:0.15" />
<polygon points=" 835.000000, 236.695473, 827.000000, 249.086420, 842.000000, 249.086420" fill="rgb(255, 255, 255)" style="fill-opacity:1.00" />
<!-- End 'A' -->
<!-- Begin 'C' -->
<ellipse cx="835.000000" cy="280.062871" rx="25.000000" ry="16.585504" fill="rgb(0, 0, 128)" style="fill-opacity:0.15" />
<ellipse cx="835.000000" cy="280.062871" rx="16.666667" ry="11.057003" fill="rgb(255, 255, 255)" style="fill-opacity:1.00" />
<rect height="16.585504" width="25.000000" x="835.000000" y="271.770119" fill="rgb(255, 255, 255)" style="fill-opacity:1.00" />
<!-- End 'C' -->
<!-- Begin 'T' -->
<rect height="2.807389" width="50.000000" x="810.000000" y="296.648376" fill="rgb(0, 100, 0)" style="fill-opacity:0.15" />
<rect height="17.546182" width="10.000000" x="830.000000" y="296.648376" fill="rgb(0, 100, 0)" style="fill-opacity:0.15" />
<!-- End 'T' -->
<!-- Begin 'G' -->
<ellipse cx="835.000000" cy="322.097279" rx="25.000000" ry="7.902721" fill="rgb(255, 165, 0)" style="fill-opacity:0.15" />
<ellipse cx="835.000000" cy="322.097279" rx="16.666667" ry="5.268481" fill="rgb(255, 255, 255)" style="fill-opacity:1.00" />
<rect height="7.902721" width="25.000000" x="835.000000" y="318.145918" fill="rgb(255, 255, 255)" style="fill-opacity:1.00" />
<rect height="1.975680" width="25.000000" x="835.000000" y="324.072959" fill="rgb(255, 165, 0)" style="fill-opacity:0.15" />
<rect height="5.927041" width="6.250000" x="853.750000" y="324.072959" fill="rgb(255, 165, 0)" style="fill-opacity:0.15" />
<!-- End 'G' -->
<!-- Begin 'C' -->
<ellipse cx="835.000000" cy="355.812041" rx="25.000000" ry="15.812041" fill="rgb(0, 0, 128)" style="fill-opacity:0.44" />
<ellipse cx="835.000000" cy="355.812041" rx="16.666667" ry="10.541360" fill="rgb(255, 255, 255)" style="fill-opacity:1.00" />
<rect height="15.812041" width="25.000000" x="835.000000" y="347.906020" fill="rgb(255, 255, 255)" style="fill-opacity:1.00" />
<!-- End 'C' -->
<!-- Begin 'T' -->
<rect height="4.129314" width="50.000000" x="810.000000" y="371.624081" fill="rgb(0, 100, 0)" style="fill-opacity:0.44" />
<rect height="25.808210" width="10.000000" x="830.000000" y="371.624081" fill="rgb(0, 100, 0)" style="fill-opacity:0.44" />
<!-- End 'T' -->
<!-- Begin 'A' -->
<polygon points=" 810.000000, 418.970956, 831.000000, 397.432291, 839.000000, 397.432291, 860.000000, 418.970956, 852.500000, 418.970956, 846.250000, 413.586290, 823.750000, 413.586290, 817.500000, 418.970956" fill="rgb(178, 34, 34)" style="fill-opacity:0.44" />
<polygon points=" 835.000000, 401.740024, 827.000000, 409.355490, 842.000000, 409.355490" fill="rgb(255, 255, 255)" style="fill-opacity:1.00" />
<!-- End 'A' -->
<!-- Begin 'G' -->
<ellipse cx="835.000000" cy="429.485478" rx="25.000000" ry="10.514522" fill="rgb(255, 165, 0)" style="fill-opacity:0.44" />
<ellipse cx="835.000000" cy="429.485478" rx="16.666667" ry="7.009681" fill="rgb(255, 255, 255)" style="fill-opacity:1.00" />
<rect height="10.514522" width="25.000000" x="835.000000" y="424.228217" fill="rgb(255, 255, 255)" style="fill-opacity:1.00" />
<rect height="2.628631" width="25.000000" x="835.000000" y="432.114108" fill="rgb(255, 165, 0)" style="fill-opacity:0.44" />
<rect height="7.885892" width="6.250000" x="853.750000" y="432.114108" fill="rgb(255, 165, 0)" style="fill-opacity:0.44" />
<!-- End 'G' -->
<text x="460.000000" y="495">
IC = 9.61
</text>

</svg>
