<?xml version="1.0" encoding="UTF-8" standalone="yes"?>
                 <!DOCTYPE svg PUBLIC "-//W3C//DTD SVG 1.0//EN" "http://www.w3.org/TR/2001/REC-SVG-20010904/DTD/svg10.dtd">
                 <svg height="170" width="900" xmlns="http://www.w3.org/2000/svg" xmlns:xlink="http://www.w3.org/1999/xlink">
                 <line x1="85" y1="120" x2="867" y2="120" style="stroke:rgb(99,99,99);stroke-width:2" />
<rect height="7.000000" width="2.000000" x="85.000000" y="120.000000" fill="rgb(0, 0, 0)" style="fill-opacity:1.00" />
<text x="107.000000" y="140">
1
</text>
<rect height="7.000000" width="2.000000" x="145.000000" y="120.000000" fill="rgb(0, 0, 0)" style="fill-opacity:1.00" />
<text x="167.000000" y="140">
2
</text>
<rect height="7.000000" width="2.000000" x="205.000000" y="120.000000" fill="rgb(0, 0, 0)" style="fill-opacity:1.00" />
<text x="227.000000" y="140">
3
</text>
<rect height="7.000000" width="2.000000" x="265.000000" y="120.000000" fill="rgb(0, 0, 0)" style="fill-opacity:1.00" />
<text x="287.000000" y="140">
4
</text>
<rect height="7.000000" width="2.000000" x="325.000000" y="120.000000" fill="rgb(0, 0, 0)" style="fill-opacity:1.00" />
<text x="347.000000" y="140">
5
</text>
<rect height="7.000000" width="2.000000" x="385.000000" y="120.000000" fill="rgb(0, 0, 0)" style="fill-opacity:1.00" />
<text x="407.000000" y="140">
6
</text>
<rect height="7.000000" width="2.000000" x="445.000000" y="120.000000" fill="rgb(0, 0, 0)" style="fill-opacity:1.00" />
<text x="467.000000" y="140">
7
</text>
<rect height="7.000000" width="2.000000" x="505.000000" y="120.000000" fill="rgb(0, 0, 0)" style="fill-opacity:1.00" />
<text x="527.000000" y="140">
8
</text>
<rect height="7.000000" width="2.000000" x="565.000000" y="120.000000" fill="rgb(0, 0, 0)" style="fill-opacity:1.00" />
<text x="587.000000" y="140">
9
</text>
<rect height="7.000000" width="2.000000" x="625.000000" y="120.000000" fill="rgb(0, 0, 0)" style="fill-opacity:1.00" />
<text x="647.000000" y="140">
10
</text>
<rect height="7.000000" width="2.000000" x="685.000000" y="120.000000" fill="rgb(0, 0, 0)" style="fill-opacity:1.00" />
<text x="707.000000" y="140">
11
</text>
<rect height="7.000000" width="2.000000" x="745.000000" y="120.000000" fill="rgb(0, 0, 0)" style="fill-opacity:1.00" />
<text x="767.000000" y="140">
12
</text>
<rect height="7.000000" width="2.000000" x="805.000000" y="120.000000" fill="rgb(0, 0, 0)" style="fill-opacity:1.00" />
<text x="827.000000" y="140">
13
</text>
<rect height="7.000000" width="2.000000" x="865.000000" y="120.000000" fill="rgb(0, 0, 0)" style="fill-opacity:1.00" />
<line x1="80" y1="112" x2="80" y2="10" style="stroke:rgb(99,99,99);stroke-width:2" />
<rect height="2.000000" width="7.000000" x="73.000000" y="110.000000" fill="rgb(0, 0, 0)" style="fill-opacity:1.00" />
<text x="63" y="115">
0
</text>
<rect height="2.000000" width="7.000000" x="73.000000" y="60.000000" fill="rgb(0, 0, 0)" style="fill-opacity:1.00" />
<text x="63" y="65">
1
</text>
<rect height="2.000000" width="7.000000" x="73.000000" y="10.000000" fill="rgb(0, 0, 0)" style="fill-opacity:1.00" />
<text x="63" y="15">
2
</text>
<text x="50" y="65"
transform="rotate(-90, 50, 70)">
bits
</text>
<!-- Begin 'A' -->
<polygon points=" 90.000000, 106.871618, 111.000000, 104.918826, 119.000000, 104.918826, 140.000000, 106.871618, 132.500000, 106.871618, 126.250000, 106.383420, 103.750000, 106.383420, 97.500000, 106.871618" fill="rgb(178, 34, 34)" style="fill-opacity:1.00" />
<!-- End 'A' -->
<!-- Begin 'T' -->
<rect height="0.234108" width="50.000000" x="90.000000" y="106.871618" fill="rgb(0, 100, 0)" style="fill-opacity:1.00" />
<rect height="1.463178" width="10.000000" x="110.000000" y="106.871618" fill="rgb(0, 100, 0)" style="fill-opacity:1.00" />
<!-- End 'T' -->
<!-- Begin 'C' -->
<ellipse cx="115.000000" cy="108.806548" rx="25.000000" ry="0.471753" fill="rgb(0, 0, 128)" style="fill-opacity:1.00" />
<ellipse cx="115.000000" cy="108.806548" rx="16.666667" ry="0.314502" fill="rgb(255, 255, 255)" style="fill-opacity:1.00" />
<rect height="0.471753" width="25.000000" x="115.000000" y="108.570672" fill="rgb(255, 255, 255)" style="fill-opacity:1.00" />
<!-- End 'C' -->
<!-- Begin 'G' -->
<ellipse cx="115.000000" cy="109.639150" rx="25.000000" ry="0.360850" fill="rgb(255, 165, 0)" style="fill-opacity:1.00" />
<ellipse cx="115.000000" cy="109.639150" rx="16.666667" ry="0.240566" fill="rgb(255, 255, 255)" style="fill-opacity:1.00" />
<rect height="0.360850" width="25.000000" x="115.000000" y="109.458726" fill="rgb(255, 255, 255)" style="fill-opacity:1.00" />
<rect height="0.090212" width="25.000000" x="115.000000" y="109.729363" fill="rgb(255, 165, 0)" style="fill-opacity:1.00" />
<rect height="0.270637" width="6.250000" x="133.750000" y="109.729363" fill="rgb(255, 165, 0)" style="fill-opacity:1.00" />
<!-- End 'G' -->
<!-- Begin 'A' -->
<polygon points=" 150.000000, 104.567464, 171.000000, 99.828260, 179.000000, 99.828260, 200.000000, 104.567464, 192.500000, 104.567464, 186.250000, 103.382663, 163.750000, 103.382663, 157.500000, 104.567464" fill="rgb(178, 34, 34)" style="fill-opacity:1.00" />
<!-- End 'A' -->
<!-- Begin 'T' -->
<rect height="0.426055" width="50.000000" x="150.000000" y="104.567464" fill="rgb(0, 100, 0)" style="fill-opacity:1.00" />
<rect height="2.662845" width="10.000000" x="170.000000" y="104.567464" fill="rgb(0, 100, 0)" style="fill-opacity:1.00" />
<!-- End 'T' -->
<!-- Begin 'G' -->
<ellipse cx="175.000000" cy="108.046464" rx="25.000000" ry="0.816156" fill="rgb(255, 165, 0)" style="fill-opacity:1.00" />
<ellipse cx="175.000000" cy="108.046464" rx="16.666667" ry="0.544104" fill="rgb(255, 255, 255)" style="fill-opacity:1.00" />
<rect height="0.816156" width="25.000000" x="175.000000" y="107.638386" fill="rgb(255, 255, 255)" style="fill-opacity:1.00" />
<rect height="0.204039" width="25.000000" x="175.000000" y="108.250503" fill="rgb(255, 165, 0)" style="fill-opacity:1.00" />
<rect height="0.612117" width="6.250000" x="193.750000" y="108.250503" fill="rgb(255, 165, 0)" style="fill-opacity:1.00" />
<!-- End 'G' -->
<!-- Begin 'C' -->
<ellipse cx="175.000000" cy="109.431310" rx="25.000000" ry="0.568690" fill="rgb(0, 0, 128)" style="fill-opacity:1.00" />
<ellipse cx="175.000000" cy="109.431310" rx="16.666667" ry="0.379127" fill="rgb(255, 255, 255)" style="fill-opacity:1.00" />
<rect height="0.568690" width="25.000000" x="175.000000" y="109.146965" fill="rgb(255, 255, 255)" style="fill-opacity:1.00" />
<!-- End 'C' -->
<!-- Begin 'A' -->
<polygon points=" 210.000000, 104.557242, 231.000000, 100.202755, 239.000000, 100.202755, 260.000000, 104.557242, 252.500000, 104.557242, 246.250000, 103.468621, 223.750000, 103.468621, 217.500000, 104.557242" fill="rgb(178, 34, 34)" style="fill-opacity:1.00" />
<!-- End 'A' -->
<!-- Begin 'T' -->
<rect height="0.453964" width="50.000000" x="210.000000" y="104.557242" fill="rgb(0, 100, 0)" style="fill-opacity:1.00" />
<rect height="2.837273" width="10.000000" x="230.000000" y="104.557242" fill="rgb(0, 100, 0)" style="fill-opacity:1.00" />
<!-- End 'T' -->
<!-- Begin 'G' -->
<ellipse cx="235.000000" cy="108.176611" rx="25.000000" ry="0.782096" fill="rgb(255, 165, 0)" style="fill-opacity:1.00" />
<ellipse cx="235.000000" cy="108.176611" rx="16.666667" ry="0.521397" fill="rgb(255, 255, 255)" style="fill-opacity:1.00" />
<rect height="0.782096" width="25.000000" x="235.000000" y="107.785563" fill="rgb(255, 255, 255)" style="fill-opacity:1.00" />
<rect height="0.195524" width="25.000000" x="235.000000" y="108.372135" fill="rgb(255, 165, 0)" style="fill-opacity:1.00" />
<rect height="0.586572" width="6.250000" x="253.750000" y="108.372135" fill="rgb(255, 165, 0)" style="fill-opacity:1.00" />
<!-- End 'G' -->
<!-- Begin 'C' -->
<ellipse cx="235.000000" cy="109.479353" rx="25.000000" ry="0.520647" fill="rgb(0, 0, 128)" style="fill-opacity:1.00" />
<ellipse cx="235.000000" cy="109.479353" rx="16.666667" ry="0.347098" fill="rgb(255, 255, 255)" style="fill-opacity:1.00" />
<rect height="0.520647" width="25.000000" x="235.000000" y="109.219030" fill="rgb(255, 255, 255)" style="fill-opacity:1.00" />
<!-- End 'C' -->
<!-- Begin 'A' -->
<polygon points=" 270.000000, 105.569039, 291.000000, 101.580798, 299.000000, 101.580798, 320.000000, 105.569039, 312.500000, 105.569039, 306.250000, 104.571979, 283.750000, 104.571979, 277.500000, 105.569039" fill="rgb(178, 34, 34)" style="fill-opacity:1.00" />
<!-- End 'A' -->
<!-- Begin 'G' -->
<ellipse cx="295.000000" cy="106.335552" rx="25.000000" ry="0.766512" fill="rgb(255, 165, 0)" style="fill-opacity:1.00" />
<ellipse cx="295.000000" cy="106.335552" rx="16.666667" ry="0.511008" fill="rgb(255, 255, 255)" style="fill-opacity:1.00" />
<rect height="0.766512" width="25.000000" x="295.000000" y="105.952295" fill="rgb(255, 255, 255)" style="fill-opacity:1.00" />
<rect height="0.191628" width="25.000000" x="295.000000" y="106.527180" fill="rgb(255, 165, 0)" style="fill-opacity:1.00" />
<rect height="0.574884" width="6.250000" x="313.750000" y="106.527180" fill="rgb(255, 165, 0)" style="fill-opacity:1.00" />
<!-- End 'G' -->
<!-- Begin 'C' -->
<ellipse cx="295.000000" cy="107.850455" rx="25.000000" ry="0.748391" fill="rgb(0, 0, 128)" style="fill-opacity:1.00" />
<ellipse cx="295.000000" cy="107.850455" rx="16.666667" ry="0.498927" fill="rgb(255, 255, 255)" style="fill-opacity:1.00" />
<rect height="0.748391" width="25.000000" x="295.000000" y="107.476259" fill="rgb(255, 255, 255)" style="fill-opacity:1.00" />
<!-- End 'C' -->
<!-- Begin 'T' -->
<rect height="0.224185" width="50.000000" x="270.000000" y="108.598846" fill="rgb(0, 100, 0)" style="fill-opacity:1.00" />
<rect height="1.401154" width="10.000000" x="290.000000" y="108.598846" fill="rgb(0, 100, 0)" style="fill-opacity:1.00" />
<!-- End 'T' -->
<!-- Begin 'G' -->
<ellipse cx="355.000000" cy="81.103934" rx="25.000000" ry="16.422318" fill="rgb(255, 165, 0)" style="fill-opacity:1.00" />
<ellipse cx="355.000000" cy="81.103934" rx="16.666667" ry="10.948212" fill="rgb(255, 255, 255)" style="fill-opacity:1.00" />
<rect height="16.422318" width="25.000000" x="355.000000" y="72.892775" fill="rgb(255, 255, 255)" style="fill-opacity:1.00" />
<rect height="4.105579" width="25.000000" x="355.000000" y="85.209513" fill="rgb(255, 165, 0)" style="fill-opacity:1.00" />
<rect height="12.316738" width="6.250000" x="373.750000" y="85.209513" fill="rgb(255, 165, 0)" style="fill-opacity:1.00" />
<!-- End 'G' -->
<!-- Begin 'T' -->
<rect height="1.449617" width="50.000000" x="330.000000" y="97.526251" fill="rgb(0, 100, 0)" style="fill-opacity:1.00" />
<rect height="9.060108" width="10.000000" x="350.000000" y="97.526251" fill="rgb(0, 100, 0)" style="fill-opacity:1.00" />
<!-- End 'T' -->
<!-- Begin 'A' -->
<polygon points=" 330.000000, 109.923200, 351.000000, 106.586360, 359.000000, 106.586360, 380.000000, 109.923200, 372.500000, 109.923200, 366.250000, 109.088990, 343.750000, 109.088990, 337.500000, 109.923200" fill="rgb(178, 34, 34)" style="fill-opacity:1.00" />
<!-- End 'A' -->
<!-- Begin 'C' -->
<ellipse cx="355.000000" cy="109.961600" rx="25.000000" ry="0.038400" fill="rgb(0, 0, 128)" style="fill-opacity:1.00" />
<ellipse cx="355.000000" cy="109.961600" rx="16.666667" ry="0.025600" fill="rgb(255, 255, 255)" style="fill-opacity:1.00" />
<rect height="0.038400" width="25.000000" x="355.000000" y="109.942400" fill="rgb(255, 255, 255)" style="fill-opacity:1.00" />
<!-- End 'C' -->
<!-- Begin 'T' -->
<rect height="14.271976" width="50.000000" x="390.000000" y="18.752877" fill="rgb(0, 100, 0)" style="fill-opacity:1.00" />
<rect height="89.199851" width="10.000000" x="410.000000" y="18.752877" fill="rgb(0, 100, 0)" style="fill-opacity:1.00" />
<!-- End 'T' -->
<!-- Begin 'C' -->
<ellipse cx="415.000000" cy="108.716967" rx="25.000000" ry="0.764239" fill="rgb(0, 0, 128)" style="fill-opacity:1.00" />
<ellipse cx="415.000000" cy="108.716967" rx="16.666667" ry="0.509493" fill="rgb(255, 255, 255)" style="fill-opacity:1.00" />
<rect height="0.764239" width="25.000000" x="415.000000" y="108.334848" fill="rgb(255, 255, 255)" style="fill-opacity:1.00" />
<!-- End 'C' -->
<!-- Begin 'A' -->
<polygon points=" 390.000000, 109.969730, 411.000000, 109.481207, 419.000000, 109.481207, 440.000000, 109.969730, 432.500000, 109.969730, 426.250000, 109.847599, 403.750000, 109.847599, 397.500000, 109.969730" fill="rgb(178, 34, 34)" style="fill-opacity:1.00" />
<!-- End 'A' -->
<!-- Begin 'G' -->
<ellipse cx="415.000000" cy="109.984865" rx="25.000000" ry="0.015135" fill="rgb(255, 165, 0)" style="fill-opacity:1.00" />
<ellipse cx="415.000000" cy="109.984865" rx="16.666667" ry="0.010090" fill="rgb(255, 255, 255)" style="fill-opacity:1.00" />
<rect height="0.015135" width="25.000000" x="415.000000" y="109.977297" fill="rgb(255, 255, 255)" style="fill-opacity:1.00" />
<rect height="0.003784" width="25.000000" x="415.000000" y="109.988649" fill="rgb(255, 165, 0)" style="fill-opacity:1.00" />
<rect height="0.011351" width="6.250000" x="433.750000" y="109.988649" fill="rgb(255, 165, 0)" style="fill-opacity:1.00" />
<!-- End 'G' -->
<!-- Begin 'C' -->
<ellipse cx="475.000000" cy="76.475266" rx="25.000000" ry="12.132085" fill="rgb(0, 0, 128)" style="fill-opacity:1.00" />
<ellipse cx="475.000000" cy="76.475266" rx="16.666667" ry="8.088057" fill="rgb(255, 255, 255)" style="fill-opacity:1.00" />
<rect height="12.132085" width="25.000000" x="475.000000" y="70.409223" fill="rgb(255, 255, 255)" style="fill-opacity:1.00" />
<!-- End 'C' -->
<!-- Begin 'T' -->
<rect height="3.328460" width="50.000000" x="450.000000" y="88.607352" fill="rgb(0, 100, 0)" style="fill-opacity:1.00" />
<rect height="20.802877" width="10.000000" x="470.000000" y="88.607352" fill="rgb(0, 100, 0)" style="fill-opacity:1.00" />
<!-- End 'T' -->
<!-- Begin 'A' -->
<polygon points=" 450.000000, 109.962410, 471.000000, 109.410229, 479.000000, 109.410229, 500.000000, 109.962410, 492.500000, 109.962410, 486.250000, 109.824365, 463.750000, 109.824365, 457.500000, 109.962410" fill="rgb(178, 34, 34)" style="fill-opacity:1.00" />
<!-- End 'A' -->
<!-- Begin 'G' -->
<ellipse cx="475.000000" cy="109.981205" rx="25.000000" ry="0.018795" fill="rgb(255, 165, 0)" style="fill-opacity:1.00" />
<ellipse cx="475.000000" cy="109.981205" rx="16.666667" ry="0.012530" fill="rgb(255, 255, 255)" style="fill-opacity:1.00" />
<rect height="0.018795" width="25.000000" x="475.000000" y="109.971808" fill="rgb(255, 255, 255)" style="fill-opacity:1.00" />
<rect height="0.004699" width="25.000000" x="475.000000" y="109.985904" fill="rgb(255, 165, 0)" style="fill-opacity:1.00" />
<rect height="0.014096" width="6.250000" x="493.750000" y="109.985904" fill="rgb(255, 165, 0)" style="fill-opacity:1.00" />
<!-- End 'G' -->
<!-- Begin 'A' -->
<polygon points=" 510.000000, 90.549551, 531.000000, 70.507027, 539.000000, 70.507027, 560.000000, 90.549551, 552.500000, 90.549551, 546.250000, 85.538920, 523.750000, 85.538920, 517.500000, 90.549551" fill="rgb(178, 34, 34)" style="fill-opacity:1.00" />
<polygon points=" 535.000000, 74.515532, 527.000000, 81.532542, 542.000000, 81.532542" fill="rgb(255, 255, 255)" style="fill-opacity:1.00" />
<!-- End 'A' -->
<!-- Begin 'G' -->
<ellipse cx="535.000000" cy="99.594240" rx="25.000000" ry="9.044689" fill="rgb(255, 165, 0)" style="fill-opacity:1.00" />
<ellipse cx="535.000000" cy="99.594240" rx="16.666667" ry="6.029792" fill="rgb(255, 255, 255)" style="fill-opacity:1.00" />
<rect height="9.044689" width="25.000000" x="535.000000" y="95.071896" fill="rgb(255, 255, 255)" style="fill-opacity:1.00" />
<rect height="2.261172" width="25.000000" x="535.000000" y="101.855412" fill="rgb(255, 165, 0)" style="fill-opacity:1.00" />
<rect height="6.783516" width="6.250000" x="553.750000" y="101.855412" fill="rgb(255, 165, 0)" style="fill-opacity:1.00" />
<!-- End 'G' -->
<!-- Begin 'T' -->
<rect height="0.153687" width="50.000000" x="510.000000" y="108.638929" fill="rgb(0, 100, 0)" style="fill-opacity:1.00" />
<rect height="0.960546" width="10.000000" x="530.000000" y="108.638929" fill="rgb(0, 100, 0)" style="fill-opacity:1.00" />
<!-- End 'T' -->
<!-- Begin 'C' -->
<ellipse cx="535.000000" cy="109.799737" rx="25.000000" ry="0.200263" fill="rgb(0, 0, 128)" style="fill-opacity:1.00" />
<ellipse cx="535.000000" cy="109.799737" rx="16.666667" ry="0.133508" fill="rgb(255, 255, 255)" style="fill-opacity:1.00" />
<rect height="0.200263" width="25.000000" x="535.000000" y="109.699606" fill="rgb(255, 255, 255)" style="fill-opacity:1.00" />
<!-- End 'C' -->
<!-- Begin 'A' -->
<polygon points=" 570.000000, 105.543208, 591.000000, 29.211996, 599.000000, 29.211996, 620.000000, 105.543208, 612.500000, 105.543208, 606.250000, 86.460405, 583.750000, 86.460405, 577.500000, 105.543208" fill="rgb(178, 34, 34)" style="fill-opacity:1.00" />
<polygon points=" 595.000000, 44.478239, 587.000000, 74.010724, 602.000000, 74.010724" fill="rgb(255, 255, 255)" style="fill-opacity:1.00" />
<!-- End 'A' -->
<!-- Begin 'G' -->
<ellipse cx="595.000000" cy="106.652359" rx="25.000000" ry="1.109150" fill="rgb(255, 165, 0)" style="fill-opacity:1.00" />
<ellipse cx="595.000000" cy="106.652359" rx="16.666667" ry="0.739434" fill="rgb(255, 255, 255)" style="fill-opacity:1.00" />
<rect height="1.109150" width="25.000000" x="595.000000" y="106.097784" fill="rgb(255, 255, 255)" style="fill-opacity:1.00" />
<rect height="0.277288" width="25.000000" x="595.000000" y="106.929646" fill="rgb(255, 165, 0)" style="fill-opacity:1.00" />
<rect height="0.831863" width="6.250000" x="613.750000" y="106.929646" fill="rgb(255, 165, 0)" style="fill-opacity:1.00" />
<!-- End 'G' -->
<!-- Begin 'T' -->
<rect height="0.278936" width="50.000000" x="570.000000" y="107.761509" fill="rgb(0, 100, 0)" style="fill-opacity:1.00" />
<rect height="1.743350" width="10.000000" x="590.000000" y="107.761509" fill="rgb(0, 100, 0)" style="fill-opacity:1.00" />
<!-- End 'T' -->
<!-- Begin 'C' -->
<ellipse cx="595.000000" cy="109.752429" rx="25.000000" ry="0.247571" fill="rgb(0, 0, 128)" style="fill-opacity:1.00" />
<ellipse cx="595.000000" cy="109.752429" rx="16.666667" ry="0.165047" fill="rgb(255, 255, 255)" style="fill-opacity:1.00" />
<rect height="0.247571" width="25.000000" x="595.000000" y="109.628644" fill="rgb(255, 255, 255)" style="fill-opacity:1.00" />
<!-- End 'C' -->
<!-- Begin 'C' -->
<ellipse cx="655.000000" cy="83.086566" rx="25.000000" ry="14.687541" fill="rgb(0, 0, 128)" style="fill-opacity:1.00" />
<ellipse cx="655.000000" cy="83.086566" rx="16.666667" ry="9.791694" fill="rgb(255, 255, 255)" style="fill-opacity:1.00" />
<rect height="14.687541" width="25.000000" x="655.000000" y="75.742796" fill="rgb(255, 255, 255)" style="fill-opacity:1.00" />
<!-- End 'C' -->
<!-- Begin 'A' -->
<polygon points=" 630.000000, 106.712127, 651.000000, 97.774107, 659.000000, 97.774107, 680.000000, 106.712127, 672.500000, 106.712127, 666.250000, 104.477622, 643.750000, 104.477622, 637.500000, 106.712127" fill="rgb(178, 34, 34)" style="fill-opacity:1.00" />
<polygon points=" 655.000000, 99.561711, 647.000000, 102.136919, 662.000000, 102.136919" fill="rgb(255, 255, 255)" style="fill-opacity:1.00" />
<!-- End 'A' -->
<!-- Begin 'T' -->
<rect height="0.449113" width="50.000000" x="630.000000" y="106.712127" fill="rgb(0, 100, 0)" style="fill-opacity:1.00" />
<rect height="2.806956" width="10.000000" x="650.000000" y="106.712127" fill="rgb(0, 100, 0)" style="fill-opacity:1.00" />
<!-- End 'T' -->
<!-- Begin 'G' -->
<ellipse cx="655.000000" cy="109.759541" rx="25.000000" ry="0.240459" fill="rgb(255, 165, 0)" style="fill-opacity:1.00" />
<ellipse cx="655.000000" cy="109.759541" rx="16.666667" ry="0.160306" fill="rgb(255, 255, 255)" style="fill-opacity:1.00" />
<rect height="0.240459" width="25.000000" x="655.000000" y="109.639312" fill="rgb(255, 255, 255)" style="fill-opacity:1.00" />
<rect height="0.060115" width="25.000000" x="655.000000" y="109.819656" fill="rgb(255, 165, 0)" style="fill-opacity:1.00" />
<rect height="0.180344" width="6.250000" x="673.750000" y="109.819656" fill="rgb(255, 165, 0)" style="fill-opacity:1.00" />
<!-- End 'G' -->
<!-- Begin 'T' -->
<rect height="0.587984" width="50.000000" x="690.000000" y="102.120338" fill="rgb(0, 100, 0)" style="fill-opacity:1.00" />
<rect height="3.674900" width="10.000000" x="710.000000" y="102.120338" fill="rgb(0, 100, 0)" style="fill-opacity:1.00" />
<!-- End 'T' -->
<!-- Begin 'C' -->
<ellipse cx="715.000000" cy="106.508936" rx="25.000000" ry="0.713698" fill="rgb(0, 0, 128)" style="fill-opacity:1.00" />
<ellipse cx="715.000000" cy="106.508936" rx="16.666667" ry="0.475799" fill="rgb(255, 255, 255)" style="fill-opacity:1.00" />
<rect height="0.713698" width="25.000000" x="715.000000" y="106.152087" fill="rgb(255, 255, 255)" style="fill-opacity:1.00" />
<!-- End 'C' -->
<!-- Begin 'G' -->
<ellipse cx="715.000000" cy="107.925117" rx="25.000000" ry="0.702483" fill="rgb(255, 165, 0)" style="fill-opacity:1.00" />
<ellipse cx="715.000000" cy="107.925117" rx="16.666667" ry="0.468322" fill="rgb(255, 255, 255)" style="fill-opacity:1.00" />
<rect height="0.702483" width="25.000000" x="715.000000" y="107.573875" fill="rgb(255, 255, 255)" style="fill-opacity:1.00" />
<rect height="0.175621" width="25.000000" x="715.000000" y="108.100737" fill="rgb(255, 165, 0)" style="fill-opacity:1.00" />
<rect height="0.526862" width="6.250000" x="733.750000" y="108.100737" fill="rgb(255, 165, 0)" style="fill-opacity:1.00" />
<!-- End 'G' -->
<!-- Begin 'A' -->
<polygon points=" 690.000000, 110.000000, 711.000000, 108.627599, 719.000000, 108.627599, 740.000000, 110.000000, 732.500000, 110.000000, 726.250000, 109.656900, 703.750000, 109.656900, 697.500000, 110.000000" fill="rgb(178, 34, 34)" style="fill-opacity:1.00" />
<!-- End 'A' -->
<!-- Begin 'T' -->
<rect height="0.609598" width="50.000000" x="750.000000" y="101.160874" fill="rgb(0, 100, 0)" style="fill-opacity:1.00" />
<rect height="3.809988" width="10.000000" x="770.000000" y="101.160874" fill="rgb(0, 100, 0)" style="fill-opacity:1.00" />
<!-- End 'T' -->
<!-- Begin 'A' -->
<polygon points=" 750.000000, 107.540330, 771.000000, 104.970862, 779.000000, 104.970862, 800.000000, 107.540330, 792.500000, 107.540330, 786.250000, 106.897963, 763.750000, 106.897963, 757.500000, 107.540330" fill="rgb(178, 34, 34)" style="fill-opacity:1.00" />
<!-- End 'A' -->
<!-- Begin 'C' -->
<ellipse cx="775.000000" cy="108.292291" rx="25.000000" ry="0.751962" fill="rgb(0, 0, 128)" style="fill-opacity:1.00" />
<ellipse cx="775.000000" cy="108.292291" rx="16.666667" ry="0.501308" fill="rgb(255, 255, 255)" style="fill-opacity:1.00" />
<rect height="0.751962" width="25.000000" x="775.000000" y="107.916311" fill="rgb(255, 255, 255)" style="fill-opacity:1.00" />
<!-- End 'C' -->
<!-- Begin 'G' -->
<ellipse cx="775.000000" cy="109.522127" rx="25.000000" ry="0.477873" fill="rgb(255, 165, 0)" style="fill-opacity:1.00" />
<ellipse cx="775.000000" cy="109.522127" rx="16.666667" ry="0.318582" fill="rgb(255, 255, 255)" style="fill-opacity:1.00" />
<rect height="0.477873" width="25.000000" x="775.000000" y="109.283190" fill="rgb(255, 255, 255)" style="fill-opacity:1.00" />
<rect height="0.119468" width="25.000000" x="775.000000" y="109.641595" fill="rgb(255, 165, 0)" style="fill-opacity:1.00" />
<rect height="0.358405" width="6.250000" x="793.750000" y="109.641595" fill="rgb(255, 165, 0)" style="fill-opacity:1.00" />
<!-- End 'G' -->
<!-- Begin 'T' -->
<rect height="0.642487" width="50.000000" x="810.000000" y="101.070408" fill="rgb(0, 100, 0)" style="fill-opacity:1.00" />
<rect height="4.015547" width="10.000000" x="830.000000" y="101.070408" fill="rgb(0, 100, 0)" style="fill-opacity:1.00" />
<!-- End 'T' -->
<!-- Begin 'A' -->
<polygon points=" 810.000000, 107.439855, 831.000000, 105.085954, 839.000000, 105.085954, 860.000000, 107.439855, 852.500000, 107.439855, 846.250000, 106.851380, 823.750000, 106.851380, 817.500000, 107.439855" fill="rgb(178, 34, 34)" style="fill-opacity:1.00" />
<!-- End 'A' -->
<!-- Begin 'C' -->
<ellipse cx="835.000000" cy="108.202131" rx="25.000000" ry="0.762276" fill="rgb(0, 0, 128)" style="fill-opacity:1.00" />
<ellipse cx="835.000000" cy="108.202131" rx="16.666667" ry="0.508184" fill="rgb(255, 255, 255)" style="fill-opacity:1.00" />
<rect height="0.762276" width="25.000000" x="835.000000" y="107.820993" fill="rgb(255, 255, 255)" style="fill-opacity:1.00" />
<!-- End 'C' -->
<!-- Begin 'G' -->
<ellipse cx="835.000000" cy="109.482204" rx="25.000000" ry="0.517796" fill="rgb(255, 165, 0)" style="fill-opacity:1.00" />
<ellipse cx="835.000000" cy="109.482204" rx="16.666667" ry="0.345198" fill="rgb(255, 255, 255)" style="fill-opacity:1.00" />
<rect height="0.517796" width="25.000000" x="835.000000" y="109.223305" fill="rgb(255, 255, 255)" style="fill-opacity:1.00" />
<rect height="0.129449" width="25.000000" x="835.000000" y="109.611653" fill="rgb(255, 165, 0)" style="fill-opacity:1.00" />
<rect height="0.388347" width="6.250000" x="853.750000" y="109.611653" fill="rgb(255, 165, 0)" style="fill-opacity:1.00" />
<!-- End 'G' -->
<text x="460.000000" y="165">
IC = 8.06
</text>

</svg>
