<?xml version="1.0" encoding="UTF-8" standalone="yes"?>
                 <!DOCTYPE svg PUBLIC "-//W3C//DTD SVG 1.0//EN" "http://www.w3.org/TR/2001/REC-SVG-20010904/DTD/svg10.dtd">
                 <svg height="500" width="720" xmlns="http://www.w3.org/2000/svg" xmlns:xlink="http://www.w3.org/1999/xlink">
                 <line x1="85" y1="450" x2="687" y2="450" style="stroke:rgb(99,99,99);stroke-width:2" />
<rect height="7.000000" width="2.000000" x="85.000000" y="450.000000" fill="rgb(0, 0, 0)" style="fill-opacity:1.00" />
<text x="107.000000" y="470">
1
</text>
<rect height="7.000000" width="2.000000" x="145.000000" y="450.000000" fill="rgb(0, 0, 0)" style="fill-opacity:1.00" />
<text x="167.000000" y="470">
2
</text>
<rect height="7.000000" width="2.000000" x="205.000000" y="450.000000" fill="rgb(0, 0, 0)" style="fill-opacity:1.00" />
<text x="227.000000" y="470">
3
</text>
<rect height="7.000000" width="2.000000" x="265.000000" y="450.000000" fill="rgb(0, 0, 0)" style="fill-opacity:1.00" />
<text x="287.000000" y="470">
4
</text>
<rect height="7.000000" width="2.000000" x="325.000000" y="450.000000" fill="rgb(0, 0, 0)" style="fill-opacity:1.00" />
<text x="347.000000" y="470">
5
</text>
<rect height="7.000000" width="2.000000" x="385.000000" y="450.000000" fill="rgb(0, 0, 0)" style="fill-opacity:1.00" />
<text x="407.000000" y="470">
6
</text>
<rect height="7.000000" width="2.000000" x="445.000000" y="450.000000" fill="rgb(0, 0, 0)" style="fill-opacity:1.00" />
<text x="467.000000" y="470">
7
</text>
<rect height="7.000000" width="2.000000" x="505.000000" y="450.000000" fill="rgb(0, 0, 0)" style="fill-opacity:1.00" />
<text x="527.000000" y="470">
8
</text>
<rect height="7.000000" width="2.000000" x="565.000000" y="450.000000" fill="rgb(0, 0, 0)" style="fill-opacity:1.00" />
<text x="587.000000" y="470">
9
</text>
<rect height="7.000000" width="2.000000" x="625.000000" y="450.000000" fill="rgb(0, 0, 0)" style="fill-opacity:1.00" />
<text x="647.000000" y="470">
10
</text>
<rect height="7.000000" width="2.000000" x="685.000000" y="450.000000" fill="rgb(0, 0, 0)" style="fill-opacity:1.00" />
<!-- Begin 'A' -->
<polygon points=" 10.000000, 110.000000, 35.200000, 10.000000, 44.800000, 10.000000, 70.000000, 110.000000, 61.000000, 110.000000, 53.500000, 85.000000, 26.500000, 85.000000, 19.000000, 110.000000" fill="rgb(178, 34, 34)" style="fill-opacity:1.00" />
<polygon points=" 40.000000, 30.000000, 30.400000, 69.000000, 48.400000, 69.000000" fill="rgb(255, 255, 255)" style="fill-opacity:1.00" />
<!-- End 'A' -->
<!-- Begin 'C' -->
<ellipse cx="40.000000" cy="170.000000" rx="30.000000" ry="50.000000" fill="rgb(0, 0, 128)" style="fill-opacity:1.00" />
<ellipse cx="40.000000" cy="170.000000" rx="20.000000" ry="33.333333" fill="rgb(255, 255, 255)" style="fill-opacity:1.00" />
<rect height="50.000000" width="30.000000" x="40.000000" y="145.000000" fill="rgb(255, 255, 255)" style="fill-opacity:1.00" />
<!-- End 'C' -->
<!-- Begin 'G' -->
<ellipse cx="40.000000" cy="280.000000" rx="30.000000" ry="50.000000" fill="rgb(255, 165, 0)" style="fill-opacity:1.00" />
<ellipse cx="40.000000" cy="280.000000" rx="20.000000" ry="33.333333" fill="rgb(255, 255, 255)" style="fill-opacity:1.00" />
<rect height="50.000000" width="30.000000" x="40.000000" y="255.000000" fill="rgb(255, 255, 255)" style="fill-opacity:1.00" />
<rect height="12.500000" width="30.000000" x="40.000000" y="292.500000" fill="rgb(255, 165, 0)" style="fill-opacity:1.00" />
<rect height="37.500000" width="7.500000" x="62.500000" y="292.500000" fill="rgb(255, 165, 0)" style="fill-opacity:1.00" />
<!-- End 'G' -->
<!-- Begin 'T' -->
<rect height="16.000000" width="60.000000" x="10.000000" y="340.000000" fill="rgb(0, 100, 0)" style="fill-opacity:1.00" />
<rect height="100.000000" width="12.000000" x="34.000000" y="340.000000" fill="rgb(0, 100, 0)" style="fill-opacity:1.00" />
<!-- End 'T' -->
<!-- Begin 'T' -->
<rect height="6.245773" width="50.000000" x="90.000000" y="10.000000" fill="rgb(0, 100, 0)" style="fill-opacity:0.29" />
<rect height="39.036079" width="10.000000" x="110.000000" y="10.000000" fill="rgb(0, 100, 0)" style="fill-opacity:0.29" />
<!-- End 'T' -->
<!-- Begin 'G' -->
<ellipse cx="115.000000" cy="62.099143" rx="25.000000" ry="13.063064" fill="rgb(255, 165, 0)" style="fill-opacity:0.29" />
<ellipse cx="115.000000" cy="62.099143" rx="16.666667" ry="8.708709" fill="rgb(255, 255, 255)" style="fill-opacity:1.00" />
<rect height="13.063064" width="25.000000" x="115.000000" y="55.567611" fill="rgb(255, 255, 255)" style="fill-opacity:1.00" />
<rect height="3.265766" width="25.000000" x="115.000000" y="65.364909" fill="rgb(255, 165, 0)" style="fill-opacity:0.29" />
<rect height="9.797298" width="6.250000" x="133.750000" y="65.364909" fill="rgb(255, 165, 0)" style="fill-opacity:0.29" />
<!-- End 'G' -->
<!-- Begin 'A' -->
<polygon points=" 90.000000, 95.385261, 111.000000, 75.162207, 119.000000, 75.162207, 140.000000, 95.385261, 132.500000, 95.385261, 126.250000, 90.329498, 103.750000, 90.329498, 97.500000, 95.385261" fill="rgb(178, 34, 34)" style="fill-opacity:0.29" />
<polygon points=" 115.000000, 79.206818, 107.000000, 86.296040, 122.000000, 86.296040" fill="rgb(255, 255, 255)" style="fill-opacity:1.00" />
<!-- End 'A' -->
<!-- Begin 'C' -->
<ellipse cx="115.000000" cy="102.692631" rx="25.000000" ry="7.307369" fill="rgb(0, 0, 128)" style="fill-opacity:0.29" />
<ellipse cx="115.000000" cy="102.692631" rx="16.666667" ry="4.871580" fill="rgb(255, 255, 255)" style="fill-opacity:1.00" />
<rect height="7.307369" width="25.000000" x="115.000000" y="99.038946" fill="rgb(255, 255, 255)" style="fill-opacity:1.00" />
<!-- End 'C' -->
<!-- Begin 'T' -->
<rect height="5.709292" width="50.000000" x="90.000000" y="120.000000" fill="rgb(0, 100, 0)" style="fill-opacity:0.22" />
<rect height="35.683076" width="10.000000" x="110.000000" y="120.000000" fill="rgb(0, 100, 0)" style="fill-opacity:0.22" />
<!-- End 'T' -->
<!-- Begin 'G' -->
<ellipse cx="115.000000" cy="169.048073" rx="25.000000" ry="13.364997" fill="rgb(255, 165, 0)" style="fill-opacity:0.22" />
<ellipse cx="115.000000" cy="169.048073" rx="16.666667" ry="8.909998" fill="rgb(255, 255, 255)" style="fill-opacity:1.00" />
<rect height="13.364997" width="25.000000" x="115.000000" y="162.365574" fill="rgb(255, 255, 255)" style="fill-opacity:1.00" />
<rect height="3.341249" width="25.000000" x="115.000000" y="172.389322" fill="rgb(255, 165, 0)" style="fill-opacity:0.22" />
<rect height="10.023748" width="6.250000" x="133.750000" y="172.389322" fill="rgb(255, 165, 0)" style="fill-opacity:0.22" />
<!-- End 'G' -->
<!-- Begin 'C' -->
<ellipse cx="115.000000" cy="192.525679" rx="25.000000" ry="10.112609" fill="rgb(0, 0, 128)" style="fill-opacity:0.22" />
<ellipse cx="115.000000" cy="192.525679" rx="16.666667" ry="6.741739" fill="rgb(255, 255, 255)" style="fill-opacity:1.00" />
<rect height="10.112609" width="25.000000" x="115.000000" y="187.469375" fill="rgb(255, 255, 255)" style="fill-opacity:1.00" />
<!-- End 'C' -->
<!-- Begin 'A' -->
<polygon points=" 90.000000, 220.000000, 111.000000, 202.638288, 119.000000, 202.638288, 140.000000, 220.000000, 132.500000, 220.000000, 126.250000, 215.659572, 103.750000, 215.659572, 97.500000, 220.000000" fill="rgb(178, 34, 34)" style="fill-opacity:0.22" />
<polygon points=" 115.000000, 206.110631, 107.000000, 212.055315, 122.000000, 212.055315" fill="rgb(255, 255, 255)" style="fill-opacity:1.00" />
<!-- End 'A' -->
<!-- Begin 'T' -->
<rect height="6.839614" width="50.000000" x="90.000000" y="230.000000" fill="rgb(0, 100, 0)" style="fill-opacity:0.21" />
<rect height="42.747586" width="10.000000" x="110.000000" y="230.000000" fill="rgb(0, 100, 0)" style="fill-opacity:0.21" />
<!-- End 'T' -->
<!-- Begin 'G' -->
<ellipse cx="115.000000" cy="284.507338" rx="25.000000" ry="11.759752" fill="rgb(255, 165, 0)" style="fill-opacity:0.21" />
<ellipse cx="115.000000" cy="284.507338" rx="16.666667" ry="7.839834" fill="rgb(255, 255, 255)" style="fill-opacity:1.00" />
<rect height="11.759752" width="25.000000" x="115.000000" y="278.627462" fill="rgb(255, 255, 255)" style="fill-opacity:1.00" />
<rect height="2.939938" width="25.000000" x="115.000000" y="287.447276" fill="rgb(255, 165, 0)" style="fill-opacity:0.21" />
<rect height="8.819814" width="6.250000" x="133.750000" y="287.447276" fill="rgb(255, 165, 0)" style="fill-opacity:0.21" />
<!-- End 'G' -->
<!-- Begin 'A' -->
<polygon points=" 90.000000, 317.541856, 111.000000, 296.267090, 119.000000, 296.267090, 140.000000, 317.541856, 132.500000, 317.541856, 126.250000, 312.223165, 103.750000, 312.223165, 97.500000, 317.541856" fill="rgb(178, 34, 34)" style="fill-opacity:0.21" />
<polygon points=" 115.000000, 300.522043, 107.000000, 308.031950, 122.000000, 308.031950" fill="rgb(255, 255, 255)" style="fill-opacity:1.00" />
<!-- End 'A' -->
<!-- Begin 'C' -->
<ellipse cx="115.000000" cy="323.770928" rx="25.000000" ry="6.229072" fill="rgb(0, 0, 128)" style="fill-opacity:0.21" />
<ellipse cx="115.000000" cy="323.770928" rx="16.666667" ry="4.152715" fill="rgb(255, 255, 255)" style="fill-opacity:1.00" />
<rect height="6.229072" width="25.000000" x="115.000000" y="320.656392" fill="rgb(255, 255, 255)" style="fill-opacity:1.00" />
<!-- End 'C' -->
<!-- Begin 'G' -->
<ellipse cx="115.000000" cy="360.776174" rx="25.000000" ry="20.776174" fill="rgb(255, 165, 0)" style="fill-opacity:0.29" />
<ellipse cx="115.000000" cy="360.776174" rx="16.666667" ry="13.850783" fill="rgb(255, 255, 255)" style="fill-opacity:1.00" />
<rect height="20.776174" width="25.000000" x="115.000000" y="350.388087" fill="rgb(255, 255, 255)" style="fill-opacity:1.00" />
<rect height="5.194044" width="25.000000" x="115.000000" y="365.970218" fill="rgb(255, 165, 0)" style="fill-opacity:0.29" />
<rect height="15.582131" width="6.250000" x="133.750000" y="365.970218" fill="rgb(255, 165, 0)" style="fill-opacity:0.29" />
<!-- End 'G' -->
<!-- Begin 'T' -->
<rect height="4.773781" width="50.000000" x="90.000000" y="381.552349" fill="rgb(0, 100, 0)" style="fill-opacity:0.29" />
<rect height="29.836133" width="10.000000" x="110.000000" y="381.552349" fill="rgb(0, 100, 0)" style="fill-opacity:0.29" />
<!-- End 'T' -->
<!-- Begin 'A' -->
<polygon points=" 90.000000, 425.934080, 111.000000, 411.388481, 119.000000, 411.388481, 140.000000, 425.934080, 132.500000, 425.934080, 126.250000, 422.297680, 103.750000, 422.297680, 97.500000, 425.934080" fill="rgb(178, 34, 34)" style="fill-opacity:0.29" />
<polygon points=" 115.000000, 414.297601, 107.000000, 419.115840, 122.000000, 419.115840" fill="rgb(255, 255, 255)" style="fill-opacity:1.00" />
<!-- End 'A' -->
<!-- Begin 'C' -->
<ellipse cx="115.000000" cy="432.967040" rx="25.000000" ry="7.032960" fill="rgb(0, 0, 128)" style="fill-opacity:0.29" />
<ellipse cx="115.000000" cy="432.967040" rx="16.666667" ry="4.688640" fill="rgb(255, 255, 255)" style="fill-opacity:1.00" />
<rect height="7.032960" width="25.000000" x="115.000000" y="429.450560" fill="rgb(255, 255, 255)" style="fill-opacity:1.00" />
<!-- End 'C' -->
<!-- Begin 'G' -->
<ellipse cx="175.000000" cy="34.940766" rx="25.000000" ry="24.940766" fill="rgb(255, 165, 0)" style="fill-opacity:0.18" />
<ellipse cx="175.000000" cy="34.940766" rx="16.666667" ry="16.627178" fill="rgb(255, 255, 255)" style="fill-opacity:1.00" />
<rect height="24.940766" width="25.000000" x="175.000000" y="22.470383" fill="rgb(255, 255, 255)" style="fill-opacity:1.00" />
<rect height="6.235192" width="25.000000" x="175.000000" y="41.175958" fill="rgb(255, 165, 0)" style="fill-opacity:0.18" />
<rect height="18.705575" width="6.250000" x="193.750000" y="41.175958" fill="rgb(255, 165, 0)" style="fill-opacity:0.18" />
<!-- End 'G' -->
<!-- Begin 'T' -->
<rect height="4.034367" width="50.000000" x="150.000000" y="59.881533" fill="rgb(0, 100, 0)" style="fill-opacity:0.18" />
<rect height="25.214791" width="10.000000" x="170.000000" y="59.881533" fill="rgb(0, 100, 0)" style="fill-opacity:0.18" />
<!-- End 'T' -->
<!-- Begin 'A' -->
<polygon points=" 150.000000, 102.127353, 171.000000, 85.096323, 179.000000, 85.096323, 200.000000, 102.127353, 192.500000, 102.127353, 186.250000, 97.869596, 163.750000, 97.869596, 157.500000, 102.127353" fill="rgb(178, 34, 34)" style="fill-opacity:0.18" />
<polygon points=" 175.000000, 88.502529, 167.000000, 94.314941, 182.000000, 94.314941" fill="rgb(255, 255, 255)" style="fill-opacity:1.00" />
<!-- End 'A' -->
<!-- Begin 'C' -->
<ellipse cx="175.000000" cy="106.063677" rx="25.000000" ry="3.936323" fill="rgb(0, 0, 128)" style="fill-opacity:0.18" />
<ellipse cx="175.000000" cy="106.063677" rx="16.666667" ry="2.624216" fill="rgb(255, 255, 255)" style="fill-opacity:1.00" />
<rect height="3.936323" width="25.000000" x="175.000000" y="104.095515" fill="rgb(255, 255, 255)" style="fill-opacity:1.00" />
<!-- End 'C' -->
<!-- Begin 'G' -->
<ellipse cx="175.000000" cy="150.555822" rx="25.000000" ry="30.555822" fill="rgb(255, 165, 0)" style="fill-opacity:0.15" />
<ellipse cx="175.000000" cy="150.555822" rx="16.666667" ry="20.370548" fill="rgb(255, 255, 255)" style="fill-opacity:1.00" />
<rect height="30.555822" width="25.000000" x="175.000000" y="135.277911" fill="rgb(255, 255, 255)" style="fill-opacity:1.00" />
<rect height="7.638955" width="25.000000" x="175.000000" y="158.194777" fill="rgb(255, 165, 0)" style="fill-opacity:0.15" />
<rect height="22.916866" width="6.250000" x="193.750000" y="158.194777" fill="rgb(255, 165, 0)" style="fill-opacity:0.15" />
<!-- End 'G' -->
<!-- Begin 'T' -->
<rect height="2.960873" width="50.000000" x="150.000000" y="181.111643" fill="rgb(0, 100, 0)" style="fill-opacity:0.15" />
<rect height="18.505458" width="10.000000" x="170.000000" y="181.111643" fill="rgb(0, 100, 0)" style="fill-opacity:0.15" />
<!-- End 'T' -->
<!-- Begin 'A' -->
<polygon points=" 150.000000, 214.441752, 171.000000, 199.617101, 179.000000, 199.617101, 200.000000, 214.441752, 192.500000, 214.441752, 186.250000, 210.735589, 163.750000, 210.735589, 157.500000, 214.441752" fill="rgb(178, 34, 34)" style="fill-opacity:0.15" />
<polygon points=" 175.000000, 202.582031, 167.000000, 207.511892, 182.000000, 207.511892" fill="rgb(255, 255, 255)" style="fill-opacity:1.00" />
<!-- End 'A' -->
<!-- Begin 'C' -->
<ellipse cx="175.000000" cy="217.220876" rx="25.000000" ry="2.779124" fill="rgb(0, 0, 128)" style="fill-opacity:0.15" />
<ellipse cx="175.000000" cy="217.220876" rx="16.666667" ry="1.852749" fill="rgb(255, 255, 255)" style="fill-opacity:1.00" />
<rect height="2.779124" width="25.000000" x="175.000000" y="215.831314" fill="rgb(255, 255, 255)" style="fill-opacity:1.00" />
<!-- End 'C' -->
<!-- Begin 'G' -->
<ellipse cx="175.000000" cy="244.600999" rx="25.000000" ry="14.600999" fill="rgb(255, 165, 0)" style="fill-opacity:0.30" />
<ellipse cx="175.000000" cy="244.600999" rx="16.666667" ry="9.733999" fill="rgb(255, 255, 255)" style="fill-opacity:1.00" />
<rect height="14.600999" width="25.000000" x="175.000000" y="237.300499" fill="rgb(255, 255, 255)" style="fill-opacity:1.00" />
<rect height="3.650250" width="25.000000" x="175.000000" y="248.251249" fill="rgb(255, 165, 0)" style="fill-opacity:0.30" />
<rect height="10.950749" width="6.250000" x="193.750000" y="248.251249" fill="rgb(255, 165, 0)" style="fill-opacity:0.30" />
<!-- End 'G' -->
<!-- Begin 'A' -->
<polygon points=" 150.000000, 284.453210, 171.000000, 259.201998, 179.000000, 259.201998, 200.000000, 284.453210, 192.500000, 284.453210, 186.250000, 278.140407, 163.750000, 278.140407, 157.500000, 284.453210" fill="rgb(178, 34, 34)" style="fill-opacity:0.30" />
<polygon points=" 175.000000, 264.252240, 167.000000, 273.352725, 182.000000, 273.352725" fill="rgb(255, 255, 255)" style="fill-opacity:1.00" />
<!-- End 'A' -->
<!-- Begin 'T' -->
<rect height="3.748476" width="50.000000" x="150.000000" y="284.453210" fill="rgb(0, 100, 0)" style="fill-opacity:0.30" />
<rect height="23.427974" width="10.000000" x="170.000000" y="284.453210" fill="rgb(0, 100, 0)" style="fill-opacity:0.30" />
<!-- End 'T' -->
<!-- Begin 'C' -->
<ellipse cx="175.000000" cy="318.940592" rx="25.000000" ry="11.059408" fill="rgb(0, 0, 128)" style="fill-opacity:0.30" />
<ellipse cx="175.000000" cy="318.940592" rx="16.666667" ry="7.372938" fill="rgb(255, 255, 255)" style="fill-opacity:1.00" />
<rect height="11.059408" width="25.000000" x="175.000000" y="313.410888" fill="rgb(255, 255, 255)" style="fill-opacity:1.00" />
<!-- End 'C' -->
<!-- Begin 'G' -->
<ellipse cx="175.000000" cy="373.811969" rx="25.000000" ry="33.811969" fill="rgb(255, 165, 0)" style="fill-opacity:0.36" />
<ellipse cx="175.000000" cy="373.811969" rx="16.666667" ry="22.541313" fill="rgb(255, 255, 255)" style="fill-opacity:1.00" />
<rect height="33.811969" width="25.000000" x="175.000000" y="356.905984" fill="rgb(255, 255, 255)" style="fill-opacity:1.00" />
<rect height="8.452992" width="25.000000" x="175.000000" y="382.264961" fill="rgb(255, 165, 0)" style="fill-opacity:0.36" />
<rect height="25.358977" width="6.250000" x="193.750000" y="382.264961" fill="rgb(255, 165, 0)" style="fill-opacity:0.36" />
<!-- End 'G' -->
<!-- Begin 'T' -->
<rect height="2.208578" width="50.000000" x="150.000000" y="407.623938" fill="rgb(0, 100, 0)" style="fill-opacity:0.36" />
<rect height="13.803613" width="10.000000" x="170.000000" y="407.623938" fill="rgb(0, 100, 0)" style="fill-opacity:0.36" />
<!-- End 'T' -->
<!-- Begin 'C' -->
<ellipse cx="175.000000" cy="426.118856" rx="25.000000" ry="4.691305" fill="rgb(0, 0, 128)" style="fill-opacity:0.36" />
<ellipse cx="175.000000" cy="426.118856" rx="16.666667" ry="3.127537" fill="rgb(255, 255, 255)" style="fill-opacity:1.00" />
<rect height="4.691305" width="25.000000" x="175.000000" y="423.773204" fill="rgb(255, 255, 255)" style="fill-opacity:1.00" />
<!-- End 'C' -->
<!-- Begin 'A' -->
<polygon points=" 150.000000, 440.000000, 171.000000, 430.810162, 179.000000, 430.810162, 200.000000, 440.000000, 192.500000, 440.000000, 186.250000, 437.702540, 163.750000, 437.702540, 157.500000, 440.000000" fill="rgb(178, 34, 34)" style="fill-opacity:0.36" />
<polygon points=" 175.000000, 432.648129, 167.000000, 435.324065, 182.000000, 435.324065" fill="rgb(255, 255, 255)" style="fill-opacity:1.00" />
<!-- End 'A' -->
<!-- Begin 'T' -->
<rect height="8.454247" width="50.000000" x="210.000000" y="10.000000" fill="rgb(0, 100, 0)" style="fill-opacity:0.16" />
<rect height="52.839046" width="10.000000" x="230.000000" y="10.000000" fill="rgb(0, 100, 0)" style="fill-opacity:0.16" />
<!-- End 'T' -->
<!-- Begin 'A' -->
<polygon points=" 210.000000, 90.376640, 231.000000, 62.839046, 239.000000, 62.839046, 260.000000, 90.376640, 252.500000, 90.376640, 246.250000, 83.492242, 223.750000, 83.492242, 217.500000, 90.376640" fill="rgb(178, 34, 34)" style="fill-opacity:0.16" />
<polygon points=" 235.000000, 68.346565, 227.000000, 78.361603, 242.000000, 78.361603" fill="rgb(255, 255, 255)" style="fill-opacity:1.00" />
<!-- End 'A' -->
<!-- Begin 'C' -->
<ellipse cx="235.000000" cy="99.098380" rx="25.000000" ry="8.721739" fill="rgb(0, 0, 128)" style="fill-opacity:0.16" />
<ellipse cx="235.000000" cy="99.098380" rx="16.666667" ry="5.814493" fill="rgb(255, 255, 255)" style="fill-opacity:1.00" />
<rect height="8.721739" width="25.000000" x="235.000000" y="94.737510" fill="rgb(255, 255, 255)" style="fill-opacity:1.00" />
<!-- End 'C' -->
<!-- Begin 'G' -->
<ellipse cx="235.000000" cy="108.910059" rx="25.000000" ry="1.089941" fill="rgb(255, 165, 0)" style="fill-opacity:0.16" />
<ellipse cx="235.000000" cy="108.910059" rx="16.666667" ry="0.726627" fill="rgb(255, 255, 255)" style="fill-opacity:1.00" />
<rect height="1.089941" width="25.000000" x="235.000000" y="108.365089" fill="rgb(255, 255, 255)" style="fill-opacity:1.00" />
<rect height="0.272485" width="25.000000" x="235.000000" y="109.182545" fill="rgb(255, 165, 0)" style="fill-opacity:0.16" />
<rect height="0.817455" width="6.250000" x="253.750000" y="109.182545" fill="rgb(255, 165, 0)" style="fill-opacity:0.16" />
<!-- End 'G' -->
<!-- Begin 'T' -->
<rect height="9.091186" width="50.000000" x="210.000000" y="120.000000" fill="rgb(0, 100, 0)" style="fill-opacity:0.12" />
<rect height="56.819916" width="10.000000" x="230.000000" y="120.000000" fill="rgb(0, 100, 0)" style="fill-opacity:0.12" />
<!-- End 'T' -->
<!-- Begin 'A' -->
<polygon points=" 210.000000, 199.155961, 231.000000, 176.819916, 239.000000, 176.819916, 260.000000, 199.155961, 252.500000, 199.155961, 246.250000, 193.571950, 223.750000, 193.571950, 217.500000, 199.155961" fill="rgb(178, 34, 34)" style="fill-opacity:0.12" />
<polygon points=" 235.000000, 181.287125, 227.000000, 189.221543, 242.000000, 189.221543" fill="rgb(255, 255, 255)" style="fill-opacity:1.00" />
<!-- End 'A' -->
<!-- Begin 'C' -->
<ellipse cx="235.000000" cy="207.912186" rx="25.000000" ry="8.756224" fill="rgb(0, 0, 128)" style="fill-opacity:0.12" />
<ellipse cx="235.000000" cy="207.912186" rx="16.666667" ry="5.837483" fill="rgb(255, 255, 255)" style="fill-opacity:1.00" />
<rect height="8.756224" width="25.000000" x="235.000000" y="203.534074" fill="rgb(255, 255, 255)" style="fill-opacity:1.00" />
<!-- End 'C' -->
<!-- Begin 'G' -->
<ellipse cx="235.000000" cy="218.334205" rx="25.000000" ry="1.665795" fill="rgb(255, 165, 0)" style="fill-opacity:0.12" />
<ellipse cx="235.000000" cy="218.334205" rx="16.666667" ry="1.110530" fill="rgb(255, 255, 255)" style="fill-opacity:1.00" />
<rect height="1.665795" width="25.000000" x="235.000000" y="217.501308" fill="rgb(255, 255, 255)" style="fill-opacity:1.00" />
<rect height="0.416449" width="25.000000" x="235.000000" y="218.750654" fill="rgb(255, 165, 0)" style="fill-opacity:0.12" />
<rect height="1.249346" width="6.250000" x="253.750000" y="218.750654" fill="rgb(255, 165, 0)" style="fill-opacity:0.12" />
<!-- End 'G' -->
<!-- Begin 'C' -->
<ellipse cx="235.000000" cy="253.323820" rx="25.000000" ry="23.323820" fill="rgb(0, 0, 128)" style="fill-opacity:0.52" />
<ellipse cx="235.000000" cy="253.323820" rx="16.666667" ry="15.549214" fill="rgb(255, 255, 255)" style="fill-opacity:1.00" />
<rect height="23.323820" width="25.000000" x="235.000000" y="241.661910" fill="rgb(255, 255, 255)" style="fill-opacity:1.00" />
<!-- End 'C' -->
<!-- Begin 'A' -->
<polygon points=" 210.000000, 319.003142, 231.000000, 276.647641, 239.000000, 276.647641, 260.000000, 319.003142, 252.500000, 319.003142, 246.250000, 308.414267, 223.750000, 308.414267, 217.500000, 319.003142" fill="rgb(178, 34, 34)" style="fill-opacity:0.52" />
<polygon points=" 235.000000, 285.118741, 227.000000, 301.060942, 242.000000, 301.060942" fill="rgb(255, 255, 255)" style="fill-opacity:1.00" />
<!-- End 'A' -->
<!-- Begin 'T' -->
<rect height="1.619897" width="50.000000" x="210.000000" y="319.003142" fill="rgb(0, 100, 0)" style="fill-opacity:0.52" />
<rect height="10.124354" width="10.000000" x="230.000000" y="319.003142" fill="rgb(0, 100, 0)" style="fill-opacity:0.52" />
<!-- End 'T' -->
<!-- Begin 'G' -->
<ellipse cx="235.000000" cy="329.563748" rx="25.000000" ry="0.436252" fill="rgb(255, 165, 0)" style="fill-opacity:0.52" />
<ellipse cx="235.000000" cy="329.563748" rx="16.666667" ry="0.290835" fill="rgb(255, 255, 255)" style="fill-opacity:1.00" />
<rect height="0.436252" width="25.000000" x="235.000000" y="329.345622" fill="rgb(255, 255, 255)" style="fill-opacity:1.00" />
<rect height="0.109063" width="25.000000" x="235.000000" y="329.672811" fill="rgb(255, 165, 0)" style="fill-opacity:0.52" />
<rect height="0.327189" width="6.250000" x="253.750000" y="329.672811" fill="rgb(255, 165, 0)" style="fill-opacity:0.52" />
<!-- End 'G' -->
<!-- Begin 'C' -->
<ellipse cx="235.000000" cy="368.289875" rx="25.000000" ry="28.289875" fill="rgb(0, 0, 128)" style="fill-opacity:0.19" />
<ellipse cx="235.000000" cy="368.289875" rx="16.666667" ry="18.859917" fill="rgb(255, 255, 255)" style="fill-opacity:1.00" />
<rect height="28.289875" width="25.000000" x="235.000000" y="354.144937" fill="rgb(255, 255, 255)" style="fill-opacity:1.00" />
<!-- End 'C' -->
<!-- Begin 'A' -->
<polygon points=" 210.000000, 431.762944, 231.000000, 396.579750, 239.000000, 396.579750, 260.000000, 431.762944, 252.500000, 431.762944, 246.250000, 422.967146, 223.750000, 422.967146, 217.500000, 431.762944" fill="rgb(178, 34, 34)" style="fill-opacity:0.19" />
<polygon points=" 235.000000, 403.616389, 227.000000, 416.689666, 242.000000, 416.689666" fill="rgb(255, 255, 255)" style="fill-opacity:1.00" />
<!-- End 'A' -->
<!-- Begin 'T' -->
<rect height="0.998694" width="50.000000" x="210.000000" y="431.762944" fill="rgb(0, 100, 0)" style="fill-opacity:0.19" />
<rect height="6.241837" width="10.000000" x="230.000000" y="431.762944" fill="rgb(0, 100, 0)" style="fill-opacity:0.19" />
<!-- End 'T' -->
<!-- Begin 'G' -->
<ellipse cx="235.000000" cy="439.002391" rx="25.000000" ry="0.997609" fill="rgb(255, 165, 0)" style="fill-opacity:0.19" />
<ellipse cx="235.000000" cy="439.002391" rx="16.666667" ry="0.665073" fill="rgb(255, 255, 255)" style="fill-opacity:1.00" />
<rect height="0.997609" width="25.000000" x="235.000000" y="438.503586" fill="rgb(255, 255, 255)" style="fill-opacity:1.00" />
<rect height="0.249402" width="25.000000" x="235.000000" y="439.251793" fill="rgb(255, 165, 0)" style="fill-opacity:0.19" />
<rect height="0.748207" width="6.250000" x="253.750000" y="439.251793" fill="rgb(255, 165, 0)" style="fill-opacity:0.19" />
<!-- End 'G' -->
<!-- Begin 'C' -->
<ellipse cx="295.000000" cy="57.686990" rx="25.000000" ry="47.686990" fill="rgb(0, 0, 128)" style="fill-opacity:0.36" />
<ellipse cx="295.000000" cy="57.686990" rx="16.666667" ry="31.791327" fill="rgb(255, 255, 255)" style="fill-opacity:1.00" />
<rect height="47.686990" width="25.000000" x="295.000000" y="33.843495" fill="rgb(255, 255, 255)" style="fill-opacity:1.00" />
<!-- End 'C' -->
<!-- Begin 'T' -->
<rect height="0.483002" width="50.000000" x="270.000000" y="105.373980" fill="rgb(0, 100, 0)" style="fill-opacity:0.36" />
<rect height="3.018763" width="10.000000" x="290.000000" y="105.373980" fill="rgb(0, 100, 0)" style="fill-opacity:0.36" />
<!-- End 'T' -->
<!-- Begin 'G' -->
<ellipse cx="295.000000" cy="109.017919" rx="25.000000" ry="0.625176" fill="rgb(255, 165, 0)" style="fill-opacity:0.36" />
<ellipse cx="295.000000" cy="109.017919" rx="16.666667" ry="0.416784" fill="rgb(255, 255, 255)" style="fill-opacity:1.00" />
<rect height="0.625176" width="25.000000" x="295.000000" y="108.705331" fill="rgb(255, 255, 255)" style="fill-opacity:1.00" />
<rect height="0.156294" width="25.000000" x="295.000000" y="109.174213" fill="rgb(255, 165, 0)" style="fill-opacity:0.36" />
<rect height="0.468882" width="6.250000" x="313.750000" y="109.174213" fill="rgb(255, 165, 0)" style="fill-opacity:0.36" />
<!-- End 'G' -->
<!-- Begin 'A' -->
<polygon points=" 270.000000, 110.000000, 291.000000, 109.643096, 299.000000, 109.643096, 320.000000, 110.000000, 312.500000, 110.000000, 306.250000, 109.910774, 283.750000, 109.910774, 277.500000, 110.000000" fill="rgb(178, 34, 34)" style="fill-opacity:0.36" />
<!-- End 'A' -->
<!-- Begin 'C' -->
<ellipse cx="295.000000" cy="165.738646" rx="25.000000" ry="45.738646" fill="rgb(0, 0, 128)" style="fill-opacity:0.40" />
<ellipse cx="295.000000" cy="165.738646" rx="16.666667" ry="30.492431" fill="rgb(255, 255, 255)" style="fill-opacity:1.00" />
<rect height="45.738646" width="25.000000" x="295.000000" y="142.869323" fill="rgb(255, 255, 255)" style="fill-opacity:1.00" />
<!-- End 'C' -->
<!-- Begin 'T' -->
<rect height="0.613457" width="50.000000" x="270.000000" y="211.477293" fill="rgb(0, 100, 0)" style="fill-opacity:0.40" />
<rect height="3.834104" width="10.000000" x="290.000000" y="211.477293" fill="rgb(0, 100, 0)" style="fill-opacity:0.40" />
<!-- End 'T' -->
<!-- Begin 'G' -->
<ellipse cx="295.000000" cy="217.108333" rx="25.000000" ry="1.796936" fill="rgb(255, 165, 0)" style="fill-opacity:0.40" />
<ellipse cx="295.000000" cy="217.108333" rx="16.666667" ry="1.197957" fill="rgb(255, 255, 255)" style="fill-opacity:1.00" />
<rect height="1.796936" width="25.000000" x="295.000000" y="216.209865" fill="rgb(255, 255, 255)" style="fill-opacity:1.00" />
<rect height="0.449234" width="25.000000" x="295.000000" y="217.557567" fill="rgb(255, 165, 0)" style="fill-opacity:0.40" />
<rect height="1.347702" width="6.250000" x="313.750000" y="217.557567" fill="rgb(255, 165, 0)" style="fill-opacity:0.40" />
<!-- End 'G' -->
<!-- Begin 'A' -->
<polygon points=" 270.000000, 220.000000, 291.000000, 218.905269, 299.000000, 218.905269, 320.000000, 220.000000, 312.500000, 220.000000, 306.250000, 219.726317, 283.750000, 219.726317, 277.500000, 220.000000" fill="rgb(178, 34, 34)" style="fill-opacity:0.40" />
<!-- End 'A' -->
<!-- Begin 'C' -->
<ellipse cx="295.000000" cy="261.486486" rx="25.000000" ry="31.486486" fill="rgb(0, 0, 128)" style="fill-opacity:0.02" />
<ellipse cx="295.000000" cy="261.486486" rx="16.666667" ry="20.990991" fill="rgb(255, 255, 255)" style="fill-opacity:1.00" />
<rect height="31.486486" width="25.000000" x="295.000000" y="245.743243" fill="rgb(255, 255, 255)" style="fill-opacity:1.00" />
<!-- End 'C' -->
<!-- Begin 'G' -->
<ellipse cx="295.000000" cy="305.473235" rx="25.000000" ry="12.500263" fill="rgb(255, 165, 0)" style="fill-opacity:0.02" />
<ellipse cx="295.000000" cy="305.473235" rx="16.666667" ry="8.333508" fill="rgb(255, 255, 255)" style="fill-opacity:1.00" />
<rect height="12.500263" width="25.000000" x="295.000000" y="299.223104" fill="rgb(255, 255, 255)" style="fill-opacity:1.00" />
<rect height="3.125066" width="25.000000" x="295.000000" y="308.598300" fill="rgb(255, 165, 0)" style="fill-opacity:0.02" />
<rect height="9.375197" width="6.250000" x="313.750000" y="308.598300" fill="rgb(255, 165, 0)" style="fill-opacity:0.02" />
<!-- End 'G' -->
<!-- Begin 'T' -->
<rect height="1.923861" width="50.000000" x="270.000000" y="317.973497" fill="rgb(0, 100, 0)" style="fill-opacity:0.02" />
<rect height="12.024130" width="10.000000" x="290.000000" y="317.973497" fill="rgb(0, 100, 0)" style="fill-opacity:0.02" />
<!-- End 'T' -->
<!-- Begin 'A' -->
<polygon points=" 270.000000, 330.000000, 291.000000, 329.997628, 299.000000, 329.997628, 320.000000, 330.000000, 312.500000, 330.000000, 306.250000, 329.999407, 283.750000, 329.999407, 277.500000, 330.000000" fill="rgb(178, 34, 34)" style="fill-opacity:0.02" />
<!-- End 'A' -->
<!-- Begin 'G' -->
<ellipse cx="295.000000" cy="380.206888" rx="25.000000" ry="40.206888" fill="rgb(255, 165, 0)" style="fill-opacity:0.22" />
<ellipse cx="295.000000" cy="380.206888" rx="16.666667" ry="26.804592" fill="rgb(255, 255, 255)" style="fill-opacity:1.00" />
<rect height="40.206888" width="25.000000" x="295.000000" y="360.103444" fill="rgb(255, 255, 255)" style="fill-opacity:1.00" />
<rect height="10.051722" width="25.000000" x="295.000000" y="390.258610" fill="rgb(255, 165, 0)" style="fill-opacity:0.22" />
<rect height="30.155166" width="6.250000" x="313.750000" y="390.258610" fill="rgb(255, 165, 0)" style="fill-opacity:0.22" />
<!-- End 'G' -->
<!-- Begin 'T' -->
<rect height="1.988369" width="50.000000" x="270.000000" y="420.413775" fill="rgb(0, 100, 0)" style="fill-opacity:0.22" />
<rect height="12.427305" width="10.000000" x="290.000000" y="420.413775" fill="rgb(0, 100, 0)" style="fill-opacity:0.22" />
<!-- End 'T' -->
<!-- Begin 'C' -->
<ellipse cx="295.000000" cy="435.340455" rx="25.000000" ry="2.499374" fill="rgb(0, 0, 128)" style="fill-opacity:0.22" />
<ellipse cx="295.000000" cy="435.340455" rx="16.666667" ry="1.666250" fill="rgb(255, 255, 255)" style="fill-opacity:1.00" />
<rect height="2.499374" width="25.000000" x="295.000000" y="434.090768" fill="rgb(255, 255, 255)" style="fill-opacity:1.00" />
<!-- End 'C' -->
<!-- Begin 'A' -->
<polygon points=" 270.000000, 440.000000, 291.000000, 437.839830, 299.000000, 437.839830, 320.000000, 440.000000, 312.500000, 440.000000, 306.250000, 439.459957, 283.750000, 439.459957, 277.500000, 440.000000" fill="rgb(178, 34, 34)" style="fill-opacity:0.22" />
<!-- End 'A' -->
<!-- Begin 'A' -->
<polygon points=" 330.000000, 109.758866, 351.000000, 10.000000, 359.000000, 10.000000, 380.000000, 109.758866, 372.500000, 109.758866, 366.250000, 84.819149, 343.750000, 84.819149, 337.500000, 109.758866" fill="rgb(178, 34, 34)" style="fill-opacity:0.01" />
<polygon points=" 355.000000, 29.951773, 347.000000, 68.855319, 362.000000, 68.855319" fill="rgb(255, 255, 255)" style="fill-opacity:1.00" />
<!-- End 'A' -->
<!-- Begin 'C' -->
<ellipse cx="355.000000" cy="109.868217" rx="25.000000" ry="0.109351" fill="rgb(0, 0, 128)" style="fill-opacity:0.01" />
<ellipse cx="355.000000" cy="109.868217" rx="16.666667" ry="0.072901" fill="rgb(255, 255, 255)" style="fill-opacity:1.00" />
<rect height="0.109351" width="25.000000" x="355.000000" y="109.813541" fill="rgb(255, 255, 255)" style="fill-opacity:1.00" />
<!-- End 'C' -->
<!-- Begin 'G' -->
<ellipse cx="355.000000" cy="109.985245" rx="25.000000" ry="0.007677" fill="rgb(255, 165, 0)" style="fill-opacity:0.01" />
<ellipse cx="355.000000" cy="109.985245" rx="16.666667" ry="0.005118" fill="rgb(255, 255, 255)" style="fill-opacity:1.00" />
<rect height="0.007677" width="25.000000" x="355.000000" y="109.981406" fill="rgb(255, 255, 255)" style="fill-opacity:1.00" />
<rect height="0.001919" width="25.000000" x="355.000000" y="109.987164" fill="rgb(255, 165, 0)" style="fill-opacity:0.01" />
<rect height="0.005758" width="6.250000" x="373.750000" y="109.987164" fill="rgb(255, 165, 0)" style="fill-opacity:0.01" />
<!-- End 'G' -->
<!-- Begin 'T' -->
<rect height="0.001133" width="50.000000" x="330.000000" y="109.992922" fill="rgb(0, 100, 0)" style="fill-opacity:0.01" />
<rect height="0.007078" width="10.000000" x="350.000000" y="109.992922" fill="rgb(0, 100, 0)" style="fill-opacity:0.01" />
<!-- End 'T' -->
<!-- Begin 'A' -->
<polygon points=" 330.000000, 219.341646, 351.000000, 120.000000, 359.000000, 120.000000, 380.000000, 219.341646, 372.500000, 219.341646, 366.250000, 194.506234, 343.750000, 194.506234, 337.500000, 219.341646" fill="rgb(178, 34, 34)" style="fill-opacity:0.73" />
<polygon points=" 355.000000, 139.868329, 347.000000, 178.604987, 362.000000, 178.604987" fill="rgb(255, 255, 255)" style="fill-opacity:1.00" />
<!-- End 'A' -->
<!-- Begin 'G' -->
<ellipse cx="355.000000" cy="219.601999" rx="25.000000" ry="0.260353" fill="rgb(255, 165, 0)" style="fill-opacity:0.73" />
<ellipse cx="355.000000" cy="219.601999" rx="16.666667" ry="0.173569" fill="rgb(255, 255, 255)" style="fill-opacity:1.00" />
<rect height="0.260353" width="25.000000" x="355.000000" y="219.471822" fill="rgb(255, 255, 255)" style="fill-opacity:1.00" />
<rect height="0.065088" width="25.000000" x="355.000000" y="219.667087" fill="rgb(255, 165, 0)" style="fill-opacity:0.73" />
<rect height="0.195265" width="6.250000" x="373.750000" y="219.667087" fill="rgb(255, 165, 0)" style="fill-opacity:0.73" />
<!-- End 'G' -->
<!-- Begin 'T' -->
<rect height="0.016089" width="50.000000" x="330.000000" y="219.862351" fill="rgb(0, 100, 0)" style="fill-opacity:0.73" />
<rect height="0.100555" width="10.000000" x="350.000000" y="219.862351" fill="rgb(0, 100, 0)" style="fill-opacity:0.73" />
<!-- End 'T' -->
<!-- Begin 'C' -->
<ellipse cx="355.000000" cy="219.981453" rx="25.000000" ry="0.018547" fill="rgb(0, 0, 128)" style="fill-opacity:0.73" />
<ellipse cx="355.000000" cy="219.981453" rx="16.666667" ry="0.012365" fill="rgb(255, 255, 255)" style="fill-opacity:1.00" />
<rect height="0.018547" width="25.000000" x="355.000000" y="219.972180" fill="rgb(255, 255, 255)" style="fill-opacity:1.00" />
<!-- End 'C' -->
<!-- Begin 'A' -->
<polygon points=" 330.000000, 329.071044, 351.000000, 230.000000, 359.000000, 230.000000, 380.000000, 329.071044, 372.500000, 329.071044, 366.250000, 304.303283, 343.750000, 304.303283, 337.500000, 329.071044" fill="rgb(178, 34, 34)" style="fill-opacity:0.20" />
<polygon points=" 355.000000, 249.814209, 347.000000, 288.442626, 362.000000, 288.442626" fill="rgb(255, 255, 255)" style="fill-opacity:1.00" />
<!-- End 'A' -->
<!-- Begin 'G' -->
<ellipse cx="355.000000" cy="329.441342" rx="25.000000" ry="0.370298" fill="rgb(255, 165, 0)" style="fill-opacity:0.20" />
<ellipse cx="355.000000" cy="329.441342" rx="16.666667" ry="0.246865" fill="rgb(255, 255, 255)" style="fill-opacity:1.00" />
<rect height="0.370298" width="25.000000" x="355.000000" y="329.256193" fill="rgb(255, 255, 255)" style="fill-opacity:1.00" />
<rect height="0.092574" width="25.000000" x="355.000000" y="329.533917" fill="rgb(255, 165, 0)" style="fill-opacity:0.20" />
<rect height="0.277723" width="6.250000" x="373.750000" y="329.533917" fill="rgb(255, 165, 0)" style="fill-opacity:0.20" />
<!-- End 'G' -->
<!-- Begin 'T' -->
<rect height="0.019098" width="50.000000" x="330.000000" y="329.811640" fill="rgb(0, 100, 0)" style="fill-opacity:0.20" />
<rect height="0.119365" width="10.000000" x="350.000000" y="329.811640" fill="rgb(0, 100, 0)" style="fill-opacity:0.20" />
<!-- End 'T' -->
<!-- Begin 'C' -->
<ellipse cx="355.000000" cy="329.965502" rx="25.000000" ry="0.034498" fill="rgb(0, 0, 128)" style="fill-opacity:0.20" />
<ellipse cx="355.000000" cy="329.965502" rx="16.666667" ry="0.022998" fill="rgb(255, 255, 255)" style="fill-opacity:1.00" />
<rect height="0.034498" width="25.000000" x="355.000000" y="329.948254" fill="rgb(255, 255, 255)" style="fill-opacity:1.00" />
<!-- End 'C' -->
<!-- Begin 'A' -->
<polygon points=" 330.000000, 439.952480, 351.000000, 340.000000, 359.000000, 340.000000, 380.000000, 439.952480, 372.500000, 439.952480, 366.250000, 414.964360, 343.750000, 414.964360, 337.500000, 439.952480" fill="rgb(178, 34, 34)" style="fill-opacity:0.06" />
<polygon points=" 355.000000, 359.990496, 347.000000, 398.971488, 362.000000, 398.971488" fill="rgb(255, 255, 255)" style="fill-opacity:1.00" />
<!-- End 'A' -->
<!-- Begin 'G' -->
<ellipse cx="355.000000" cy="439.969819" rx="25.000000" ry="0.017339" fill="rgb(255, 165, 0)" style="fill-opacity:0.06" />
<ellipse cx="355.000000" cy="439.969819" rx="16.666667" ry="0.011559" fill="rgb(255, 255, 255)" style="fill-opacity:1.00" />
<rect height="0.017339" width="25.000000" x="355.000000" y="439.961150" fill="rgb(255, 255, 255)" style="fill-opacity:1.00" />
<rect height="0.004335" width="25.000000" x="355.000000" y="439.974154" fill="rgb(255, 165, 0)" style="fill-opacity:0.06" />
<rect height="0.013004" width="6.250000" x="373.750000" y="439.974154" fill="rgb(255, 165, 0)" style="fill-opacity:0.06" />
<!-- End 'G' -->
<!-- Begin 'T' -->
<rect height="0.002026" width="50.000000" x="330.000000" y="439.987158" fill="rgb(0, 100, 0)" style="fill-opacity:0.06" />
<rect height="0.012664" width="10.000000" x="350.000000" y="439.987158" fill="rgb(0, 100, 0)" style="fill-opacity:0.06" />
<!-- End 'T' -->
<!-- Begin 'C' -->
<ellipse cx="355.000000" cy="439.999911" rx="25.000000" ry="0.000089" fill="rgb(0, 0, 128)" style="fill-opacity:0.06" />
<ellipse cx="355.000000" cy="439.999911" rx="16.666667" ry="0.000059" fill="rgb(255, 255, 255)" style="fill-opacity:1.00" />
<rect height="0.000089" width="25.000000" x="355.000000" y="439.999866" fill="rgb(255, 255, 255)" style="fill-opacity:1.00" />
<!-- End 'C' -->
<!-- Begin 'C' -->
<ellipse cx="415.000000" cy="57.733234" rx="25.000000" ry="47.733234" fill="rgb(0, 0, 128)" style="fill-opacity:0.99" />
<ellipse cx="415.000000" cy="57.733234" rx="16.666667" ry="31.822156" fill="rgb(255, 255, 255)" style="fill-opacity:1.00" />
<rect height="47.733234" width="25.000000" x="415.000000" y="33.866617" fill="rgb(255, 255, 255)" style="fill-opacity:1.00" />
<!-- End 'C' -->
<!-- Begin 'G' -->
<ellipse cx="415.000000" cy="106.615973" rx="25.000000" ry="1.149505" fill="rgb(255, 165, 0)" style="fill-opacity:0.99" />
<ellipse cx="415.000000" cy="106.615973" rx="16.666667" ry="0.766336" fill="rgb(255, 255, 255)" style="fill-opacity:1.00" />
<rect height="1.149505" width="25.000000" x="415.000000" y="106.041221" fill="rgb(255, 255, 255)" style="fill-opacity:1.00" />
<rect height="0.287376" width="25.000000" x="415.000000" y="106.903349" fill="rgb(255, 165, 0)" style="fill-opacity:0.99" />
<rect height="0.862128" width="6.250000" x="433.750000" y="106.903349" fill="rgb(255, 165, 0)" style="fill-opacity:0.99" />
<!-- End 'G' -->
<!-- Begin 'T' -->
<rect height="0.300327" width="50.000000" x="390.000000" y="107.765477" fill="rgb(0, 100, 0)" style="fill-opacity:0.99" />
<rect height="1.877041" width="10.000000" x="410.000000" y="107.765477" fill="rgb(0, 100, 0)" style="fill-opacity:0.99" />
<!-- End 'T' -->
<!-- Begin 'A' -->
<polygon points=" 390.000000, 110.000000, 411.000000, 109.642519, 419.000000, 109.642519, 440.000000, 110.000000, 432.500000, 110.000000, 426.250000, 109.910630, 403.750000, 109.910630, 397.500000, 110.000000" fill="rgb(178, 34, 34)" style="fill-opacity:0.99" />
<!-- End 'A' -->
<!-- Begin 'C' -->
<ellipse cx="415.000000" cy="169.931756" rx="25.000000" ry="49.931756" fill="rgb(0, 0, 128)" style="fill-opacity:0.00" />
<ellipse cx="415.000000" cy="169.931756" rx="16.666667" ry="33.287837" fill="rgb(255, 255, 255)" style="fill-opacity:1.00" />
<rect height="49.931756" width="25.000000" x="415.000000" y="144.965878" fill="rgb(255, 255, 255)" style="fill-opacity:1.00" />
<!-- End 'C' -->
<!-- Begin 'G' -->
<ellipse cx="415.000000" cy="219.924880" rx="25.000000" ry="0.061369" fill="rgb(255, 165, 0)" style="fill-opacity:0.00" />
<ellipse cx="415.000000" cy="219.924880" rx="16.666667" ry="0.040912" fill="rgb(255, 255, 255)" style="fill-opacity:1.00" />
<rect height="0.061369" width="25.000000" x="415.000000" y="219.894195" fill="rgb(255, 255, 255)" style="fill-opacity:1.00" />
<rect height="0.015342" width="25.000000" x="415.000000" y="219.940222" fill="rgb(255, 165, 0)" style="fill-opacity:0.00" />
<rect height="0.046026" width="6.250000" x="433.750000" y="219.940222" fill="rgb(255, 165, 0)" style="fill-opacity:0.00" />
<!-- End 'G' -->
<!-- Begin 'A' -->
<polygon points=" 390.000000, 219.999901, 411.000000, 219.986248, 419.000000, 219.986248, 440.000000, 219.999901, 432.500000, 219.999901, 426.250000, 219.996488, 403.750000, 219.996488, 397.500000, 219.999901" fill="rgb(178, 34, 34)" style="fill-opacity:0.00" />
<!-- End 'A' -->
<!-- Begin 'T' -->
<rect height="0.000016" width="50.000000" x="390.000000" y="219.999901" fill="rgb(0, 100, 0)" style="fill-opacity:0.00" />
<rect height="0.000099" width="10.000000" x="410.000000" y="219.999901" fill="rgb(0, 100, 0)" style="fill-opacity:0.00" />
<!-- End 'T' -->
<!-- Begin 'C' -->
<ellipse cx="415.000000" cy="278.519209" rx="25.000000" ry="48.519209" fill="rgb(0, 0, 128)" style="fill-opacity:0.01" />
<ellipse cx="415.000000" cy="278.519209" rx="16.666667" ry="32.346139" fill="rgb(255, 255, 255)" style="fill-opacity:1.00" />
<rect height="48.519209" width="25.000000" x="415.000000" y="254.259604" fill="rgb(255, 255, 255)" style="fill-opacity:1.00" />
<!-- End 'C' -->
<!-- Begin 'T' -->
<rect height="0.458935" width="50.000000" x="390.000000" y="327.038418" fill="rgb(0, 100, 0)" style="fill-opacity:0.01" />
<rect height="2.868344" width="10.000000" x="410.000000" y="327.038418" fill="rgb(0, 100, 0)" style="fill-opacity:0.01" />
<!-- End 'T' -->
<!-- Begin 'A' -->
<polygon points=" 390.000000, 329.999983, 411.000000, 329.906762, 419.000000, 329.906762, 440.000000, 329.999983, 432.500000, 329.999983, 426.250000, 329.976678, 403.750000, 329.976678, 397.500000, 329.999983" fill="rgb(178, 34, 34)" style="fill-opacity:0.01" />
<!-- End 'A' -->
<!-- Begin 'G' -->
<ellipse cx="415.000000" cy="329.999991" rx="25.000000" ry="0.000009" fill="rgb(255, 165, 0)" style="fill-opacity:0.01" />
<ellipse cx="415.000000" cy="329.999991" rx="16.666667" ry="0.000006" fill="rgb(255, 255, 255)" style="fill-opacity:1.00" />
<rect height="0.000009" width="25.000000" x="415.000000" y="329.999987" fill="rgb(255, 255, 255)" style="fill-opacity:1.00" />
<rect height="0.000002" width="25.000000" x="415.000000" y="329.999994" fill="rgb(255, 165, 0)" style="fill-opacity:0.01" />
<rect height="0.000006" width="6.250000" x="433.750000" y="329.999994" fill="rgb(255, 165, 0)" style="fill-opacity:0.01" />
<!-- End 'G' -->
<!-- Begin 'C' -->
<ellipse cx="415.000000" cy="389.972120" rx="25.000000" ry="49.972120" fill="rgb(0, 0, 128)" style="fill-opacity:0.00" />
<ellipse cx="415.000000" cy="389.972120" rx="16.666667" ry="33.314747" fill="rgb(255, 255, 255)" style="fill-opacity:1.00" />
<rect height="49.972120" width="25.000000" x="415.000000" y="364.986060" fill="rgb(255, 255, 255)" style="fill-opacity:1.00" />
<!-- End 'C' -->
<!-- Begin 'T' -->
<rect height="0.008013" width="50.000000" x="390.000000" y="439.944240" fill="rgb(0, 100, 0)" style="fill-opacity:0.00" />
<rect height="0.050081" width="10.000000" x="410.000000" y="439.944240" fill="rgb(0, 100, 0)" style="fill-opacity:0.00" />
<!-- End 'T' -->
<!-- Begin 'G' -->
<ellipse cx="415.000000" cy="439.996604" rx="25.000000" ry="0.002283" fill="rgb(255, 165, 0)" style="fill-opacity:0.00" />
<ellipse cx="415.000000" cy="439.996604" rx="16.666667" ry="0.001522" fill="rgb(255, 255, 255)" style="fill-opacity:1.00" />
<rect height="0.002283" width="25.000000" x="415.000000" y="439.995463" fill="rgb(255, 255, 255)" style="fill-opacity:1.00" />
<rect height="0.000571" width="25.000000" x="415.000000" y="439.997175" fill="rgb(255, 165, 0)" style="fill-opacity:0.00" />
<rect height="0.001712" width="6.250000" x="433.750000" y="439.997175" fill="rgb(255, 165, 0)" style="fill-opacity:0.00" />
<!-- End 'G' -->
<!-- Begin 'A' -->
<polygon points=" 390.000000, 440.000000, 411.000000, 439.998887, 419.000000, 439.998887, 440.000000, 440.000000, 432.500000, 440.000000, 426.250000, 439.999722, 403.750000, 439.999722, 397.500000, 440.000000" fill="rgb(178, 34, 34)" style="fill-opacity:0.00" />
<!-- End 'A' -->
<!-- Begin 'G' -->
<ellipse cx="475.000000" cy="59.905824" rx="25.000000" ry="49.905824" fill="rgb(255, 165, 0)" style="fill-opacity:0.00" />
<ellipse cx="475.000000" cy="59.905824" rx="16.666667" ry="33.270549" fill="rgb(255, 255, 255)" style="fill-opacity:1.00" />
<rect height="49.905824" width="25.000000" x="475.000000" y="34.952912" fill="rgb(255, 255, 255)" style="fill-opacity:1.00" />
<rect height="12.476456" width="25.000000" x="475.000000" y="72.382280" fill="rgb(255, 165, 0)" style="fill-opacity:0.00" />
<rect height="37.429368" width="6.250000" x="493.750000" y="72.382280" fill="rgb(255, 165, 0)" style="fill-opacity:0.00" />
<!-- End 'G' -->
<!-- Begin 'A' -->
<polygon points=" 450.000000, 109.985236, 471.000000, 109.811647, 479.000000, 109.811647, 500.000000, 109.985236, 492.500000, 109.985236, 486.250000, 109.941839, 463.750000, 109.941839, 457.500000, 109.985236" fill="rgb(178, 34, 34)" style="fill-opacity:0.00" />
<!-- End 'A' -->
<!-- Begin 'C' -->
<ellipse cx="475.000000" cy="109.991530" rx="25.000000" ry="0.006294" fill="rgb(0, 0, 128)" style="fill-opacity:0.00" />
<ellipse cx="475.000000" cy="109.991530" rx="16.666667" ry="0.004196" fill="rgb(255, 255, 255)" style="fill-opacity:1.00" />
<rect height="0.006294" width="25.000000" x="475.000000" y="109.988383" fill="rgb(255, 255, 255)" style="fill-opacity:1.00" />
<!-- End 'C' -->
<!-- Begin 'T' -->
<rect height="0.000348" width="50.000000" x="450.000000" y="109.997823" fill="rgb(0, 100, 0)" style="fill-opacity:0.00" />
<rect height="0.002177" width="10.000000" x="470.000000" y="109.997823" fill="rgb(0, 100, 0)" style="fill-opacity:0.00" />
<!-- End 'T' -->
<!-- Begin 'G' -->
<ellipse cx="475.000000" cy="168.377528" rx="25.000000" ry="48.377528" fill="rgb(255, 165, 0)" style="fill-opacity:0.95" />
<ellipse cx="475.000000" cy="168.377528" rx="16.666667" ry="32.251685" fill="rgb(255, 255, 255)" style="fill-opacity:1.00" />
<rect height="48.377528" width="25.000000" x="475.000000" y="144.188764" fill="rgb(255, 255, 255)" style="fill-opacity:1.00" />
<rect height="12.094382" width="25.000000" x="475.000000" y="180.471910" fill="rgb(255, 165, 0)" style="fill-opacity:0.95" />
<rect height="36.283146" width="6.250000" x="493.750000" y="180.471910" fill="rgb(255, 165, 0)" style="fill-opacity:0.95" />
<!-- End 'G' -->
<!-- Begin 'A' -->
<polygon points=" 450.000000, 218.554487, 471.000000, 216.755055, 479.000000, 216.755055, 500.000000, 218.554487, 492.500000, 218.554487, 486.250000, 218.104629, 463.750000, 218.104629, 457.500000, 218.554487" fill="rgb(178, 34, 34)" style="fill-opacity:0.95" />
<!-- End 'A' -->
<!-- Begin 'C' -->
<ellipse cx="475.000000" cy="219.045978" rx="25.000000" ry="0.491491" fill="rgb(0, 0, 128)" style="fill-opacity:0.95" />
<ellipse cx="475.000000" cy="219.045978" rx="16.666667" ry="0.327660" fill="rgb(255, 255, 255)" style="fill-opacity:1.00" />
<rect height="0.491491" width="25.000000" x="475.000000" y="218.800233" fill="rgb(255, 255, 255)" style="fill-opacity:1.00" />
<!-- End 'C' -->
<!-- Begin 'T' -->
<rect height="0.074005" width="50.000000" x="450.000000" y="219.537468" fill="rgb(0, 100, 0)" style="fill-opacity:0.95" />
<rect height="0.462532" width="10.000000" x="470.000000" y="219.537468" fill="rgb(0, 100, 0)" style="fill-opacity:0.95" />
<!-- End 'T' -->
<!-- Begin 'C' -->
<ellipse cx="475.000000" cy="259.541792" rx="25.000000" ry="29.541792" fill="rgb(0, 0, 128)" style="fill-opacity:0.02" />
<ellipse cx="475.000000" cy="259.541792" rx="16.666667" ry="19.694528" fill="rgb(255, 255, 255)" style="fill-opacity:1.00" />
<rect height="29.541792" width="25.000000" x="475.000000" y="244.770896" fill="rgb(255, 255, 255)" style="fill-opacity:1.00" />
<!-- End 'C' -->
<!-- Begin 'G' -->
<ellipse cx="475.000000" cy="309.538800" rx="25.000000" ry="20.455216" fill="rgb(255, 165, 0)" style="fill-opacity:0.02" />
<ellipse cx="475.000000" cy="309.538800" rx="16.666667" ry="13.636810" fill="rgb(255, 255, 255)" style="fill-opacity:1.00" />
<rect height="20.455216" width="25.000000" x="475.000000" y="299.311192" fill="rgb(255, 255, 255)" style="fill-opacity:1.00" />
<rect height="5.113804" width="25.000000" x="475.000000" y="314.652604" fill="rgb(255, 165, 0)" style="fill-opacity:0.02" />
<rect height="15.341412" width="6.250000" x="493.750000" y="314.652604" fill="rgb(255, 165, 0)" style="fill-opacity:0.02" />
<!-- End 'G' -->
<!-- Begin 'T' -->
<rect height="0.000561" width="50.000000" x="450.000000" y="329.994015" fill="rgb(0, 100, 0)" style="fill-opacity:0.02" />
<rect height="0.003503" width="10.000000" x="470.000000" y="329.994015" fill="rgb(0, 100, 0)" style="fill-opacity:0.02" />
<!-- End 'T' -->
<!-- Begin 'A' -->
<polygon points=" 450.000000, 330.000000, 471.000000, 329.997519, 479.000000, 329.997519, 500.000000, 330.000000, 492.500000, 330.000000, 486.250000, 329.999380, 463.750000, 329.999380, 457.500000, 330.000000" fill="rgb(178, 34, 34)" style="fill-opacity:0.02" />
<!-- End 'A' -->
<!-- Begin 'G' -->
<ellipse cx="475.000000" cy="389.980341" rx="25.000000" ry="49.980341" fill="rgb(255, 165, 0)" style="fill-opacity:0.02" />
<ellipse cx="475.000000" cy="389.980341" rx="16.666667" ry="33.320228" fill="rgb(255, 255, 255)" style="fill-opacity:1.00" />
<rect height="49.980341" width="25.000000" x="475.000000" y="364.990171" fill="rgb(255, 255, 255)" style="fill-opacity:1.00" />
<rect height="12.495085" width="25.000000" x="475.000000" y="402.475427" fill="rgb(255, 165, 0)" style="fill-opacity:0.02" />
<rect height="37.485256" width="6.250000" x="493.750000" y="402.475427" fill="rgb(255, 165, 0)" style="fill-opacity:0.02" />
<!-- End 'G' -->
<!-- Begin 'A' -->
<polygon points=" 450.000000, 439.991793, 471.000000, 439.960683, 479.000000, 439.960683, 500.000000, 439.991793, 492.500000, 439.991793, 486.250000, 439.984015, 463.750000, 439.984015, 457.500000, 439.991793" fill="rgb(178, 34, 34)" style="fill-opacity:0.02" />
<!-- End 'A' -->
<!-- Begin 'T' -->
<rect height="0.001157" width="50.000000" x="450.000000" y="439.991793" fill="rgb(0, 100, 0)" style="fill-opacity:0.02" />
<rect height="0.007228" width="10.000000" x="470.000000" y="439.991793" fill="rgb(0, 100, 0)" style="fill-opacity:0.02" />
<!-- End 'T' -->
<!-- Begin 'C' -->
<ellipse cx="475.000000" cy="439.999510" rx="25.000000" ry="0.000490" fill="rgb(0, 0, 128)" style="fill-opacity:0.02" />
<ellipse cx="475.000000" cy="439.999510" rx="16.666667" ry="0.000326" fill="rgb(255, 255, 255)" style="fill-opacity:1.00" />
<rect height="0.000490" width="25.000000" x="475.000000" y="439.999266" fill="rgb(255, 255, 255)" style="fill-opacity:1.00" />
<!-- End 'C' -->
<!-- Begin 'T' -->
<rect height="15.996289" width="50.000000" x="510.000000" y="10.000000" fill="rgb(0, 100, 0)" style="fill-opacity:0.02" />
<rect height="99.976805" width="10.000000" x="530.000000" y="10.000000" fill="rgb(0, 100, 0)" style="fill-opacity:0.02" />
<!-- End 'T' -->
<!-- Begin 'C' -->
<ellipse cx="535.000000" cy="109.987452" rx="25.000000" ry="0.010647" fill="rgb(0, 0, 128)" style="fill-opacity:0.02" />
<ellipse cx="535.000000" cy="109.987452" rx="16.666667" ry="0.007098" fill="rgb(255, 255, 255)" style="fill-opacity:1.00" />
<rect height="0.010647" width="25.000000" x="535.000000" y="109.982129" fill="rgb(255, 255, 255)" style="fill-opacity:1.00" />
<!-- End 'C' -->
<!-- Begin 'A' -->
<polygon points=" 510.000000, 109.999705, 531.000000, 109.998100, 539.000000, 109.998100, 560.000000, 109.999705, 552.500000, 109.999705, 546.250000, 109.999303, 523.750000, 109.999303, 517.500000, 109.999705" fill="rgb(178, 34, 34)" style="fill-opacity:0.02" />
<!-- End 'A' -->
<!-- Begin 'G' -->
<ellipse cx="535.000000" cy="109.999852" rx="25.000000" ry="0.000148" fill="rgb(255, 165, 0)" style="fill-opacity:0.02" />
<ellipse cx="535.000000" cy="109.999852" rx="16.666667" ry="0.000098" fill="rgb(255, 255, 255)" style="fill-opacity:1.00" />
<rect height="0.000148" width="25.000000" x="535.000000" y="109.999778" fill="rgb(255, 255, 255)" style="fill-opacity:1.00" />
<rect height="0.000037" width="25.000000" x="535.000000" y="109.999889" fill="rgb(255, 165, 0)" style="fill-opacity:0.02" />
<rect height="0.000111" width="6.250000" x="553.750000" y="109.999889" fill="rgb(255, 165, 0)" style="fill-opacity:0.02" />
<!-- End 'G' -->
<!-- Begin 'T' -->
<rect height="15.980857" width="50.000000" x="510.000000" y="120.000000" fill="rgb(0, 100, 0)" style="fill-opacity:0.02" />
<rect height="99.880357" width="10.000000" x="530.000000" y="120.000000" fill="rgb(0, 100, 0)" style="fill-opacity:0.02" />
<!-- End 'T' -->
<!-- Begin 'G' -->
<ellipse cx="535.000000" cy="219.938947" rx="25.000000" ry="0.058590" fill="rgb(255, 165, 0)" style="fill-opacity:0.02" />
<ellipse cx="535.000000" cy="219.938947" rx="16.666667" ry="0.039060" fill="rgb(255, 255, 255)" style="fill-opacity:1.00" />
<rect height="0.058590" width="25.000000" x="535.000000" y="219.909652" fill="rgb(255, 255, 255)" style="fill-opacity:1.00" />
<rect height="0.014648" width="25.000000" x="535.000000" y="219.953595" fill="rgb(255, 165, 0)" style="fill-opacity:0.02" />
<rect height="0.043943" width="6.250000" x="553.750000" y="219.953595" fill="rgb(255, 165, 0)" style="fill-opacity:0.02" />
<!-- End 'G' -->
<!-- Begin 'A' -->
<polygon points=" 510.000000, 219.999944, 531.000000, 219.997538, 539.000000, 219.997538, 560.000000, 219.999944, 552.500000, 219.999944, 546.250000, 219.999342, 523.750000, 219.999342, 517.500000, 219.999944" fill="rgb(178, 34, 34)" style="fill-opacity:0.02" />
<!-- End 'A' -->
<!-- Begin 'C' -->
<ellipse cx="535.000000" cy="219.999972" rx="25.000000" ry="0.000028" fill="rgb(0, 0, 128)" style="fill-opacity:0.02" />
<ellipse cx="535.000000" cy="219.999972" rx="16.666667" ry="0.000019" fill="rgb(255, 255, 255)" style="fill-opacity:1.00" />
<rect height="0.000028" width="25.000000" x="535.000000" y="219.999958" fill="rgb(255, 255, 255)" style="fill-opacity:1.00" />
<!-- End 'C' -->
<!-- Begin 'T' -->
<rect height="15.733033" width="50.000000" x="510.000000" y="230.000000" fill="rgb(0, 100, 0)" style="fill-opacity:0.96" />
<rect height="98.331454" width="10.000000" x="530.000000" y="230.000000" fill="rgb(0, 100, 0)" style="fill-opacity:0.96" />
<!-- End 'T' -->
<!-- Begin 'C' -->
<ellipse cx="535.000000" cy="328.733197" rx="25.000000" ry="0.401742" fill="rgb(0, 0, 128)" style="fill-opacity:0.96" />
<ellipse cx="535.000000" cy="328.733197" rx="16.666667" ry="0.267828" fill="rgb(255, 255, 255)" style="fill-opacity:1.00" />
<rect height="0.401742" width="25.000000" x="535.000000" y="328.532325" fill="rgb(255, 255, 255)" style="fill-opacity:1.00" />
<!-- End 'C' -->
<!-- Begin 'G' -->
<ellipse cx="535.000000" cy="329.468515" rx="25.000000" ry="0.333576" fill="rgb(255, 165, 0)" style="fill-opacity:0.96" />
<ellipse cx="535.000000" cy="329.468515" rx="16.666667" ry="0.222384" fill="rgb(255, 255, 255)" style="fill-opacity:1.00" />
<rect height="0.333576" width="25.000000" x="535.000000" y="329.301727" fill="rgb(255, 255, 255)" style="fill-opacity:1.00" />
<rect height="0.083394" width="25.000000" x="535.000000" y="329.551909" fill="rgb(255, 165, 0)" style="fill-opacity:0.96" />
<rect height="0.250182" width="6.250000" x="553.750000" y="329.551909" fill="rgb(255, 165, 0)" style="fill-opacity:0.96" />
<!-- End 'G' -->
<!-- Begin 'A' -->
<polygon points=" 510.000000, 330.000000, 531.000000, 329.802091, 539.000000, 329.802091, 560.000000, 330.000000, 552.500000, 330.000000, 546.250000, 329.950523, 523.750000, 329.950523, 517.500000, 330.000000" fill="rgb(178, 34, 34)" style="fill-opacity:0.96" />
<!-- End 'A' -->
<!-- Begin 'T' -->
<rect height="15.997837" width="50.000000" x="510.000000" y="340.000000" fill="rgb(0, 100, 0)" style="fill-opacity:0.00" />
<rect height="99.986480" width="10.000000" x="530.000000" y="340.000000" fill="rgb(0, 100, 0)" style="fill-opacity:0.00" />
<!-- End 'T' -->
<!-- Begin 'A' -->
<polygon points=" 510.000000, 439.994289, 531.000000, 439.986480, 539.000000, 439.986480, 560.000000, 439.994289, 552.500000, 439.994289, 546.250000, 439.992337, 523.750000, 439.992337, 517.500000, 439.994289" fill="rgb(178, 34, 34)" style="fill-opacity:0.00" />
<!-- End 'A' -->
<!-- Begin 'C' -->
<ellipse cx="535.000000" cy="439.996585" rx="25.000000" ry="0.002296" fill="rgb(0, 0, 128)" style="fill-opacity:0.00" />
<ellipse cx="535.000000" cy="439.996585" rx="16.666667" ry="0.001531" fill="rgb(255, 255, 255)" style="fill-opacity:1.00" />
<rect height="0.002296" width="25.000000" x="535.000000" y="439.995437" fill="rgb(255, 255, 255)" style="fill-opacity:1.00" />
<!-- End 'C' -->
<!-- Begin 'G' -->
<ellipse cx="535.000000" cy="439.999440" rx="25.000000" ry="0.000560" fill="rgb(255, 165, 0)" style="fill-opacity:0.00" />
<ellipse cx="535.000000" cy="439.999440" rx="16.666667" ry="0.000373" fill="rgb(255, 255, 255)" style="fill-opacity:1.00" />
<rect height="0.000560" width="25.000000" x="535.000000" y="439.999161" fill="rgb(255, 255, 255)" style="fill-opacity:1.00" />
<rect height="0.000140" width="25.000000" x="535.000000" y="439.999580" fill="rgb(255, 165, 0)" style="fill-opacity:0.00" />
<rect height="0.000420" width="6.250000" x="553.750000" y="439.999580" fill="rgb(255, 165, 0)" style="fill-opacity:0.00" />
<!-- End 'G' -->
<!-- Begin 'G' -->
<ellipse cx="595.000000" cy="35.600493" rx="25.000000" ry="25.600493" fill="rgb(255, 165, 0)" style="fill-opacity:0.00" />
<ellipse cx="595.000000" cy="35.600493" rx="16.666667" ry="17.066995" fill="rgb(255, 255, 255)" style="fill-opacity:1.00" />
<rect height="25.600493" width="25.000000" x="595.000000" y="22.800246" fill="rgb(255, 255, 255)" style="fill-opacity:1.00" />
<rect height="6.400123" width="25.000000" x="595.000000" y="42.000616" fill="rgb(255, 165, 0)" style="fill-opacity:0.00" />
<rect height="19.200370" width="6.250000" x="613.750000" y="42.000616" fill="rgb(255, 165, 0)" style="fill-opacity:0.00" />
<!-- End 'G' -->
<!-- Begin 'C' -->
<ellipse cx="595.000000" cy="74.149634" rx="25.000000" ry="12.948649" fill="rgb(0, 0, 128)" style="fill-opacity:0.00" />
<ellipse cx="595.000000" cy="74.149634" rx="16.666667" ry="8.632433" fill="rgb(255, 255, 255)" style="fill-opacity:1.00" />
<rect height="12.948649" width="25.000000" x="595.000000" y="67.675310" fill="rgb(255, 255, 255)" style="fill-opacity:1.00" />
<!-- End 'C' -->
<!-- Begin 'T' -->
<rect height="2.967902" width="50.000000" x="570.000000" y="87.098283" fill="rgb(0, 100, 0)" style="fill-opacity:0.00" />
<rect height="18.549386" width="10.000000" x="590.000000" y="87.098283" fill="rgb(0, 100, 0)" style="fill-opacity:0.00" />
<!-- End 'T' -->
<!-- Begin 'A' -->
<polygon points=" 570.000000, 110.000000, 591.000000, 105.647669, 599.000000, 105.647669, 620.000000, 110.000000, 612.500000, 110.000000, 606.250000, 108.911917, 583.750000, 108.911917, 577.500000, 110.000000" fill="rgb(178, 34, 34)" style="fill-opacity:0.00" />
<!-- End 'A' -->
<!-- Begin 'G' -->
<ellipse cx="595.000000" cy="139.671536" rx="25.000000" ry="19.671536" fill="rgb(255, 165, 0)" style="fill-opacity:0.01" />
<ellipse cx="595.000000" cy="139.671536" rx="16.666667" ry="13.114357" fill="rgb(255, 255, 255)" style="fill-opacity:1.00" />
<rect height="19.671536" width="25.000000" x="595.000000" y="129.835768" fill="rgb(255, 255, 255)" style="fill-opacity:1.00" />
<rect height="4.917884" width="25.000000" x="595.000000" y="144.589420" fill="rgb(255, 165, 0)" style="fill-opacity:0.01" />
<rect height="14.753652" width="6.250000" x="613.750000" y="144.589420" fill="rgb(255, 165, 0)" style="fill-opacity:0.01" />
<!-- End 'G' -->
<!-- Begin 'T' -->
<rect height="3.526495" width="50.000000" x="570.000000" y="159.343071" fill="rgb(0, 100, 0)" style="fill-opacity:0.01" />
<rect height="22.040591" width="10.000000" x="590.000000" y="159.343071" fill="rgb(0, 100, 0)" style="fill-opacity:0.01" />
<!-- End 'T' -->
<!-- Begin 'C' -->
<ellipse cx="595.000000" cy="191.129357" rx="25.000000" ry="9.745694" fill="rgb(0, 0, 128)" style="fill-opacity:0.01" />
<ellipse cx="595.000000" cy="191.129357" rx="16.666667" ry="6.497129" fill="rgb(255, 255, 255)" style="fill-opacity:1.00" />
<rect height="9.745694" width="25.000000" x="595.000000" y="186.256510" fill="rgb(255, 255, 255)" style="fill-opacity:1.00" />
<!-- End 'C' -->
<!-- Begin 'A' -->
<polygon points=" 570.000000, 220.000000, 591.000000, 200.875051, 599.000000, 200.875051, 620.000000, 220.000000, 612.500000, 220.000000, 606.250000, 215.218763, 583.750000, 215.218763, 577.500000, 220.000000" fill="rgb(178, 34, 34)" style="fill-opacity:0.01" />
<polygon points=" 595.000000, 204.700041, 587.000000, 211.350020, 602.000000, 211.350020" fill="rgb(255, 255, 255)" style="fill-opacity:1.00" />
<!-- End 'A' -->
<!-- Begin 'T' -->
<rect height="13.832222" width="50.000000" x="570.000000" y="230.000000" fill="rgb(0, 100, 0)" style="fill-opacity:0.01" />
<rect height="86.451389" width="10.000000" x="590.000000" y="230.000000" fill="rgb(0, 100, 0)" style="fill-opacity:0.01" />
<!-- End 'T' -->
<!-- Begin 'C' -->
<ellipse cx="595.000000" cy="321.023476" rx="25.000000" ry="4.572087" fill="rgb(0, 0, 128)" style="fill-opacity:0.01" />
<ellipse cx="595.000000" cy="321.023476" rx="16.666667" ry="3.048058" fill="rgb(255, 255, 255)" style="fill-opacity:1.00" />
<rect height="4.572087" width="25.000000" x="595.000000" y="318.737432" fill="rgb(255, 255, 255)" style="fill-opacity:1.00" />
<!-- End 'C' -->
<!-- Begin 'G' -->
<ellipse cx="595.000000" cy="326.846069" rx="25.000000" ry="1.250506" fill="rgb(255, 165, 0)" style="fill-opacity:0.01" />
<ellipse cx="595.000000" cy="326.846069" rx="16.666667" ry="0.833671" fill="rgb(255, 255, 255)" style="fill-opacity:1.00" />
<rect height="1.250506" width="25.000000" x="595.000000" y="326.220816" fill="rgb(255, 255, 255)" style="fill-opacity:1.00" />
<rect height="0.312627" width="25.000000" x="595.000000" y="327.158695" fill="rgb(255, 165, 0)" style="fill-opacity:0.01" />
<rect height="0.937880" width="6.250000" x="613.750000" y="327.158695" fill="rgb(255, 165, 0)" style="fill-opacity:0.01" />
<!-- End 'G' -->
<!-- Begin 'A' -->
<polygon points=" 570.000000, 330.000000, 591.000000, 328.096575, 599.000000, 328.096575, 620.000000, 330.000000, 612.500000, 330.000000, 606.250000, 329.524144, 583.750000, 329.524144, 577.500000, 330.000000" fill="rgb(178, 34, 34)" style="fill-opacity:0.01" />
<!-- End 'A' -->
<!-- Begin 'G' -->
<ellipse cx="595.000000" cy="377.014242" rx="25.000000" ry="37.014242" fill="rgb(255, 165, 0)" style="fill-opacity:0.98" />
<ellipse cx="595.000000" cy="377.014242" rx="16.666667" ry="24.676161" fill="rgb(255, 255, 255)" style="fill-opacity:1.00" />
<rect height="37.014242" width="25.000000" x="595.000000" y="358.507121" fill="rgb(255, 255, 255)" style="fill-opacity:1.00" />
<rect height="9.253561" width="25.000000" x="595.000000" y="386.267803" fill="rgb(255, 165, 0)" style="fill-opacity:0.98" />
<rect height="27.760682" width="6.250000" x="613.750000" y="386.267803" fill="rgb(255, 165, 0)" style="fill-opacity:0.98" />
<!-- End 'G' -->
<!-- Begin 'C' -->
<ellipse cx="595.000000" cy="423.657383" rx="25.000000" ry="9.628898" fill="rgb(0, 0, 128)" style="fill-opacity:0.98" />
<ellipse cx="595.000000" cy="423.657383" rx="16.666667" ry="6.419265" fill="rgb(255, 255, 255)" style="fill-opacity:1.00" />
<rect height="9.628898" width="25.000000" x="595.000000" y="418.842934" fill="rgb(255, 255, 255)" style="fill-opacity:1.00" />
<!-- End 'C' -->
<!-- Begin 'A' -->
<polygon points=" 570.000000, 438.768307, 591.000000, 433.286281, 599.000000, 433.286281, 620.000000, 438.768307, 612.500000, 438.768307, 606.250000, 437.397800, 583.750000, 437.397800, 577.500000, 438.768307" fill="rgb(178, 34, 34)" style="fill-opacity:0.98" />
<!-- End 'A' -->
<!-- Begin 'T' -->
<rect height="0.197071" width="50.000000" x="570.000000" y="438.768307" fill="rgb(0, 100, 0)" style="fill-opacity:0.98" />
<rect height="1.231693" width="10.000000" x="590.000000" y="438.768307" fill="rgb(0, 100, 0)" style="fill-opacity:0.98" />
<!-- End 'T' -->
<!-- Begin 'A' -->
<polygon points=" 630.000000, 52.714225, 651.000000, 10.000000, 659.000000, 10.000000, 680.000000, 52.714225, 672.500000, 52.714225, 666.250000, 42.035669, 643.750000, 42.035669, 637.500000, 52.714225" fill="rgb(178, 34, 34)" style="fill-opacity:0.06" />
<polygon points=" 655.000000, 18.542845, 647.000000, 34.628535, 662.000000, 34.628535" fill="rgb(255, 255, 255)" style="fill-opacity:1.00" />
<!-- End 'A' -->
<!-- Begin 'T' -->
<rect height="4.585455" width="50.000000" x="630.000000" y="52.714225" fill="rgb(0, 100, 0)" style="fill-opacity:0.06" />
<rect height="28.659093" width="10.000000" x="650.000000" y="52.714225" fill="rgb(0, 100, 0)" style="fill-opacity:0.06" />
<!-- End 'T' -->
<!-- Begin 'G' -->
<ellipse cx="655.000000" cy="93.447828" rx="25.000000" ry="12.074510" fill="rgb(255, 165, 0)" style="fill-opacity:0.06" />
<ellipse cx="655.000000" cy="93.447828" rx="16.666667" ry="8.049673" fill="rgb(255, 255, 255)" style="fill-opacity:1.00" />
<rect height="12.074510" width="25.000000" x="655.000000" y="87.410573" fill="rgb(255, 255, 255)" style="fill-opacity:1.00" />
<rect height="3.018627" width="25.000000" x="655.000000" y="96.466455" fill="rgb(255, 165, 0)" style="fill-opacity:0.06" />
<rect height="9.055882" width="6.250000" x="673.750000" y="96.466455" fill="rgb(255, 165, 0)" style="fill-opacity:0.06" />
<!-- End 'G' -->
<!-- Begin 'C' -->
<ellipse cx="655.000000" cy="107.761169" rx="25.000000" ry="2.238831" fill="rgb(0, 0, 128)" style="fill-opacity:0.06" />
<ellipse cx="655.000000" cy="107.761169" rx="16.666667" ry="1.492554" fill="rgb(255, 255, 255)" style="fill-opacity:1.00" />
<rect height="2.238831" width="25.000000" x="655.000000" y="106.641753" fill="rgb(255, 255, 255)" style="fill-opacity:1.00" />
<!-- End 'C' -->
<!-- Begin 'A' -->
<polygon points=" 630.000000, 210.405325, 651.000000, 120.000000, 659.000000, 120.000000, 680.000000, 210.405325, 672.500000, 210.405325, 666.250000, 187.803993, 643.750000, 187.803993, 637.500000, 210.405325" fill="rgb(178, 34, 34)" style="fill-opacity:0.19" />
<polygon points=" 655.000000, 138.081065, 647.000000, 173.243195, 662.000000, 173.243195" fill="rgb(255, 255, 255)" style="fill-opacity:1.00" />
<!-- End 'A' -->
<!-- Begin 'G' -->
<ellipse cx="655.000000" cy="213.179955" rx="25.000000" ry="2.774630" fill="rgb(255, 165, 0)" style="fill-opacity:0.19" />
<ellipse cx="655.000000" cy="213.179955" rx="16.666667" ry="1.849754" fill="rgb(255, 255, 255)" style="fill-opacity:1.00" />
<rect height="2.774630" width="25.000000" x="655.000000" y="211.792640" fill="rgb(255, 255, 255)" style="fill-opacity:1.00" />
<rect height="0.693658" width="25.000000" x="655.000000" y="213.873613" fill="rgb(255, 165, 0)" style="fill-opacity:0.19" />
<rect height="2.080973" width="6.250000" x="673.750000" y="213.873613" fill="rgb(255, 165, 0)" style="fill-opacity:0.19" />
<!-- End 'G' -->
<!-- Begin 'T' -->
<rect height="0.481921" width="50.000000" x="630.000000" y="215.954585" fill="rgb(0, 100, 0)" style="fill-opacity:0.19" />
<rect height="3.012008" width="10.000000" x="650.000000" y="215.954585" fill="rgb(0, 100, 0)" style="fill-opacity:0.19" />
<!-- End 'T' -->
<!-- Begin 'C' -->
<ellipse cx="655.000000" cy="219.483297" rx="25.000000" ry="0.516703" fill="rgb(0, 0, 128)" style="fill-opacity:0.19" />
<ellipse cx="655.000000" cy="219.483297" rx="16.666667" ry="0.344469" fill="rgb(255, 255, 255)" style="fill-opacity:1.00" />
<rect height="0.516703" width="25.000000" x="655.000000" y="219.224945" fill="rgb(255, 255, 255)" style="fill-opacity:1.00" />
<!-- End 'C' -->
<!-- Begin 'G' -->
<ellipse cx="655.000000" cy="255.874420" rx="25.000000" ry="25.874420" fill="rgb(255, 165, 0)" style="fill-opacity:0.73" />
<ellipse cx="655.000000" cy="255.874420" rx="16.666667" ry="17.249613" fill="rgb(255, 255, 255)" style="fill-opacity:1.00" />
<rect height="25.874420" width="25.000000" x="655.000000" y="242.937210" fill="rgb(255, 255, 255)" style="fill-opacity:1.00" />
<rect height="6.468605" width="25.000000" x="655.000000" y="262.343025" fill="rgb(255, 165, 0)" style="fill-opacity:0.73" />
<rect height="19.405815" width="6.250000" x="673.750000" y="262.343025" fill="rgb(255, 165, 0)" style="fill-opacity:0.73" />
<!-- End 'G' -->
<!-- Begin 'T' -->
<rect height="7.335709" width="50.000000" x="630.000000" y="281.748840" fill="rgb(0, 100, 0)" style="fill-opacity:0.73" />
<rect height="45.848184" width="10.000000" x="650.000000" y="281.748840" fill="rgb(0, 100, 0)" style="fill-opacity:0.73" />
<!-- End 'T' -->
<!-- Begin 'C' -->
<ellipse cx="655.000000" cy="328.435008" rx="25.000000" ry="0.837984" fill="rgb(0, 0, 128)" style="fill-opacity:0.73" />
<ellipse cx="655.000000" cy="328.435008" rx="16.666667" ry="0.558656" fill="rgb(255, 255, 255)" style="fill-opacity:1.00" />
<rect height="0.837984" width="25.000000" x="655.000000" y="328.016016" fill="rgb(255, 255, 255)" style="fill-opacity:1.00" />
<!-- End 'C' -->
<!-- Begin 'A' -->
<polygon points=" 630.000000, 330.000000, 651.000000, 329.272992, 659.000000, 329.272992, 680.000000, 330.000000, 672.500000, 330.000000, 666.250000, 329.818248, 643.750000, 329.818248, 637.500000, 330.000000" fill="rgb(178, 34, 34)" style="fill-opacity:0.73" />
<!-- End 'A' -->
<!-- Begin 'G' -->
<ellipse cx="655.000000" cy="370.511937" rx="25.000000" ry="30.511937" fill="rgb(255, 165, 0)" style="fill-opacity:0.02" />
<ellipse cx="655.000000" cy="370.511937" rx="16.666667" ry="20.341291" fill="rgb(255, 255, 255)" style="fill-opacity:1.00" />
<rect height="30.511937" width="25.000000" x="655.000000" y="355.255969" fill="rgb(255, 255, 255)" style="fill-opacity:1.00" />
<rect height="7.627984" width="25.000000" x="655.000000" y="378.139921" fill="rgb(255, 165, 0)" style="fill-opacity:0.02" />
<rect height="22.883953" width="6.250000" x="673.750000" y="378.139921" fill="rgb(255, 165, 0)" style="fill-opacity:0.02" />
<!-- End 'G' -->
<!-- Begin 'T' -->
<rect height="3.521767" width="50.000000" x="630.000000" y="401.023874" fill="rgb(0, 100, 0)" style="fill-opacity:0.02" />
<rect height="22.011043" width="10.000000" x="650.000000" y="401.023874" fill="rgb(0, 100, 0)" style="fill-opacity:0.02" />
<!-- End 'T' -->
<!-- Begin 'A' -->
<polygon points=" 630.000000, 436.819722, 651.000000, 423.034918, 659.000000, 423.034918, 680.000000, 436.819722, 672.500000, 436.819722, 666.250000, 433.373521, 643.750000, 433.373521, 637.500000, 436.819722" fill="rgb(178, 34, 34)" style="fill-opacity:0.02" />
<polygon points=" 655.000000, 425.791879, 647.000000, 430.305800, 662.000000, 430.305800" fill="rgb(255, 255, 255)" style="fill-opacity:1.00" />
<!-- End 'A' -->
<!-- Begin 'C' -->
<ellipse cx="655.000000" cy="438.409861" rx="25.000000" ry="1.590139" fill="rgb(0, 0, 128)" style="fill-opacity:0.02" />
<ellipse cx="655.000000" cy="438.409861" rx="16.666667" ry="1.060093" fill="rgb(255, 255, 255)" style="fill-opacity:1.00" />
<rect height="1.590139" width="25.000000" x="655.000000" y="437.614792" fill="rgb(255, 255, 255)" style="fill-opacity:1.00" />
<!-- End 'C' -->
<text x="370.000000" y="495">
IC = 10.00
</text>

</svg>
