<?xml version="1.0" encoding="UTF-8" standalone="yes"?>
                 <!DOCTYPE svg PUBLIC "-//W3C//DTD SVG 1.0//EN" "http://www.w3.org/TR/2001/REC-SVG-20010904/DTD/svg10.dtd">
                 <svg height="500" width="600" xmlns="http://www.w3.org/2000/svg" xmlns:xlink="http://www.w3.org/1999/xlink">
                 <line x1="85" y1="450" x2="567" y2="450" style="stroke:rgb(99,99,99);stroke-width:2" />
<rect height="7.000000" width="2.000000" x="85.000000" y="450.000000" fill="rgb(0, 0, 0)" style="fill-opacity:1.00" />
<text x="107.000000" y="470">
1
</text>
<rect height="7.000000" width="2.000000" x="145.000000" y="450.000000" fill="rgb(0, 0, 0)" style="fill-opacity:1.00" />
<text x="167.000000" y="470">
2
</text>
<rect height="7.000000" width="2.000000" x="205.000000" y="450.000000" fill="rgb(0, 0, 0)" style="fill-opacity:1.00" />
<text x="227.000000" y="470">
3
</text>
<rect height="7.000000" width="2.000000" x="265.000000" y="450.000000" fill="rgb(0, 0, 0)" style="fill-opacity:1.00" />
<text x="287.000000" y="470">
4
</text>
<rect height="7.000000" width="2.000000" x="325.000000" y="450.000000" fill="rgb(0, 0, 0)" style="fill-opacity:1.00" />
<text x="347.000000" y="470">
5
</text>
<rect height="7.000000" width="2.000000" x="385.000000" y="450.000000" fill="rgb(0, 0, 0)" style="fill-opacity:1.00" />
<text x="407.000000" y="470">
6
</text>
<rect height="7.000000" width="2.000000" x="445.000000" y="450.000000" fill="rgb(0, 0, 0)" style="fill-opacity:1.00" />
<text x="467.000000" y="470">
7
</text>
<rect height="7.000000" width="2.000000" x="505.000000" y="450.000000" fill="rgb(0, 0, 0)" style="fill-opacity:1.00" />
<text x="527.000000" y="470">
8
</text>
<rect height="7.000000" width="2.000000" x="565.000000" y="450.000000" fill="rgb(0, 0, 0)" style="fill-opacity:1.00" />
<!-- Begin 'A' -->
<polygon points=" 10.000000, 110.000000, 35.200000, 10.000000, 44.800000, 10.000000, 70.000000, 110.000000, 61.000000, 110.000000, 53.500000, 85.000000, 26.500000, 85.000000, 19.000000, 110.000000" fill="rgb(178, 34, 34)" style="fill-opacity:1.00" />
<polygon points=" 40.000000, 30.000000, 30.400000, 69.000000, 48.400000, 69.000000" fill="rgb(255, 255, 255)" style="fill-opacity:1.00" />
<!-- End 'A' -->
<!-- Begin 'C' -->
<ellipse cx="40.000000" cy="170.000000" rx="30.000000" ry="50.000000" fill="rgb(0, 0, 128)" style="fill-opacity:1.00" />
<ellipse cx="40.000000" cy="170.000000" rx="20.000000" ry="33.333333" fill="rgb(255, 255, 255)" style="fill-opacity:1.00" />
<rect height="50.000000" width="30.000000" x="40.000000" y="145.000000" fill="rgb(255, 255, 255)" style="fill-opacity:1.00" />
<!-- End 'C' -->
<!-- Begin 'G' -->
<ellipse cx="40.000000" cy="280.000000" rx="30.000000" ry="50.000000" fill="rgb(255, 165, 0)" style="fill-opacity:1.00" />
<ellipse cx="40.000000" cy="280.000000" rx="20.000000" ry="33.333333" fill="rgb(255, 255, 255)" style="fill-opacity:1.00" />
<rect height="50.000000" width="30.000000" x="40.000000" y="255.000000" fill="rgb(255, 255, 255)" style="fill-opacity:1.00" />
<rect height="12.500000" width="30.000000" x="40.000000" y="292.500000" fill="rgb(255, 165, 0)" style="fill-opacity:1.00" />
<rect height="37.500000" width="7.500000" x="62.500000" y="292.500000" fill="rgb(255, 165, 0)" style="fill-opacity:1.00" />
<!-- End 'G' -->
<!-- Begin 'T' -->
<rect height="16.000000" width="60.000000" x="10.000000" y="340.000000" fill="rgb(0, 100, 0)" style="fill-opacity:1.00" />
<rect height="100.000000" width="12.000000" x="34.000000" y="340.000000" fill="rgb(0, 100, 0)" style="fill-opacity:1.00" />
<!-- End 'T' -->
<!-- Begin 'C' -->
<ellipse cx="115.000000" cy="42.208461" rx="25.000000" ry="32.208461" fill="rgb(0, 0, 128)" style="fill-opacity:0.27" />
<ellipse cx="115.000000" cy="42.208461" rx="16.666667" ry="21.472308" fill="rgb(255, 255, 255)" style="fill-opacity:1.00" />
<rect height="32.208461" width="25.000000" x="115.000000" y="26.104231" fill="rgb(255, 255, 255)" style="fill-opacity:1.00" />
<!-- End 'C' -->
<!-- Begin 'G' -->
<ellipse cx="115.000000" cy="86.451590" rx="25.000000" ry="12.034667" fill="rgb(255, 165, 0)" style="fill-opacity:0.27" />
<ellipse cx="115.000000" cy="86.451590" rx="16.666667" ry="8.023111" fill="rgb(255, 255, 255)" style="fill-opacity:1.00" />
<rect height="12.034667" width="25.000000" x="115.000000" y="80.434256" fill="rgb(255, 255, 255)" style="fill-opacity:1.00" />
<rect height="3.008667" width="25.000000" x="115.000000" y="89.460257" fill="rgb(255, 165, 0)" style="fill-opacity:0.27" />
<rect height="9.026000" width="6.250000" x="133.750000" y="89.460257" fill="rgb(255, 165, 0)" style="fill-opacity:0.27" />
<!-- End 'G' -->
<!-- Begin 'T' -->
<rect height="1.807618" width="50.000000" x="90.000000" y="98.486257" fill="rgb(0, 100, 0)" style="fill-opacity:0.27" />
<rect height="11.297610" width="10.000000" x="110.000000" y="98.486257" fill="rgb(0, 100, 0)" style="fill-opacity:0.27" />
<!-- End 'T' -->
<!-- Begin 'A' -->
<polygon points=" 90.000000, 110.000000, 111.000000, 109.783867, 119.000000, 109.783867, 140.000000, 110.000000, 132.500000, 110.000000, 126.250000, 109.945967, 103.750000, 109.945967, 97.500000, 110.000000" fill="rgb(178, 34, 34)" style="fill-opacity:0.27" />
<!-- End 'A' -->
<!-- Begin 'C' -->
<ellipse cx="115.000000" cy="155.933175" rx="25.000000" ry="35.933175" fill="rgb(0, 0, 128)" style="fill-opacity:0.24" />
<ellipse cx="115.000000" cy="155.933175" rx="16.666667" ry="23.955450" fill="rgb(255, 255, 255)" style="fill-opacity:1.00" />
<rect height="35.933175" width="25.000000" x="115.000000" y="137.966587" fill="rgb(255, 255, 255)" style="fill-opacity:1.00" />
<!-- End 'C' -->
<!-- Begin 'T' -->
<rect height="3.409219" width="50.000000" x="90.000000" y="191.866349" fill="rgb(0, 100, 0)" style="fill-opacity:0.24" />
<rect height="21.307621" width="10.000000" x="110.000000" y="191.866349" fill="rgb(0, 100, 0)" style="fill-opacity:0.24" />
<!-- End 'T' -->
<!-- Begin 'A' -->
<polygon points=" 90.000000, 216.889318, 111.000000, 213.173970, 119.000000, 213.173970, 140.000000, 216.889318, 132.500000, 216.889318, 126.250000, 215.960481, 103.750000, 215.960481, 97.500000, 216.889318" fill="rgb(178, 34, 34)" style="fill-opacity:0.24" />
<!-- End 'A' -->
<!-- Begin 'G' -->
<ellipse cx="115.000000" cy="218.444659" rx="25.000000" ry="1.555341" fill="rgb(255, 165, 0)" style="fill-opacity:0.24" />
<ellipse cx="115.000000" cy="218.444659" rx="16.666667" ry="1.036894" fill="rgb(255, 255, 255)" style="fill-opacity:1.00" />
<rect height="1.555341" width="25.000000" x="115.000000" y="217.666989" fill="rgb(255, 255, 255)" style="fill-opacity:1.00" />
<rect height="0.388835" width="25.000000" x="115.000000" y="218.833494" fill="rgb(255, 165, 0)" style="fill-opacity:0.24" />
<rect height="1.166506" width="6.250000" x="133.750000" y="218.833494" fill="rgb(255, 165, 0)" style="fill-opacity:0.24" />
<!-- End 'G' -->
<!-- Begin 'C' -->
<ellipse cx="115.000000" cy="261.577441" rx="25.000000" ry="31.577441" fill="rgb(0, 0, 128)" style="fill-opacity:0.24" />
<ellipse cx="115.000000" cy="261.577441" rx="16.666667" ry="21.051628" fill="rgb(255, 255, 255)" style="fill-opacity:1.00" />
<rect height="31.577441" width="25.000000" x="115.000000" y="245.788721" fill="rgb(255, 255, 255)" style="fill-opacity:1.00" />
<!-- End 'C' -->
<!-- Begin 'G' -->
<ellipse cx="115.000000" cy="301.800658" rx="25.000000" ry="8.645775" fill="rgb(255, 165, 0)" style="fill-opacity:0.24" />
<ellipse cx="115.000000" cy="301.800658" rx="16.666667" ry="5.763850" fill="rgb(255, 255, 255)" style="fill-opacity:1.00" />
<rect height="8.645775" width="25.000000" x="115.000000" y="297.477771" fill="rgb(255, 255, 255)" style="fill-opacity:1.00" />
<rect height="2.161444" width="25.000000" x="115.000000" y="303.962102" fill="rgb(255, 165, 0)" style="fill-opacity:0.24" />
<rect height="6.484331" width="6.250000" x="133.750000" y="303.962102" fill="rgb(255, 165, 0)" style="fill-opacity:0.24" />
<!-- End 'G' -->
<!-- Begin 'T' -->
<rect height="2.592444" width="50.000000" x="90.000000" y="310.446433" fill="rgb(0, 100, 0)" style="fill-opacity:0.24" />
<rect height="16.202776" width="10.000000" x="110.000000" y="310.446433" fill="rgb(0, 100, 0)" style="fill-opacity:0.24" />
<!-- End 'T' -->
<!-- Begin 'A' -->
<polygon points=" 90.000000, 330.000000, 111.000000, 326.649210, 119.000000, 326.649210, 140.000000, 330.000000, 132.500000, 330.000000, 126.250000, 329.162302, 103.750000, 329.162302, 97.500000, 330.000000" fill="rgb(178, 34, 34)" style="fill-opacity:0.24" />
<!-- End 'A' -->
<!-- Begin 'C' -->
<ellipse cx="115.000000" cy="368.828601" rx="25.000000" ry="28.828601" fill="rgb(0, 0, 128)" style="fill-opacity:0.25" />
<ellipse cx="115.000000" cy="368.828601" rx="16.666667" ry="19.219067" fill="rgb(255, 255, 255)" style="fill-opacity:1.00" />
<rect height="28.828601" width="25.000000" x="115.000000" y="354.414300" fill="rgb(255, 255, 255)" style="fill-opacity:1.00" />
<!-- End 'C' -->
<!-- Begin 'G' -->
<ellipse cx="115.000000" cy="407.404897" rx="25.000000" ry="9.747695" fill="rgb(255, 165, 0)" style="fill-opacity:0.25" />
<ellipse cx="115.000000" cy="407.404897" rx="16.666667" ry="6.498463" fill="rgb(255, 255, 255)" style="fill-opacity:1.00" />
<rect height="9.747695" width="25.000000" x="115.000000" y="402.531049" fill="rgb(255, 255, 255)" style="fill-opacity:1.00" />
<rect height="2.436924" width="25.000000" x="115.000000" y="409.841821" fill="rgb(255, 165, 0)" style="fill-opacity:0.25" />
<rect height="7.310771" width="6.250000" x="133.750000" y="409.841821" fill="rgb(255, 165, 0)" style="fill-opacity:0.25" />
<!-- End 'G' -->
<!-- Begin 'T' -->
<rect height="3.075253" width="50.000000" x="90.000000" y="417.152592" fill="rgb(0, 100, 0)" style="fill-opacity:0.25" />
<rect height="19.220333" width="10.000000" x="110.000000" y="417.152592" fill="rgb(0, 100, 0)" style="fill-opacity:0.25" />
<!-- End 'T' -->
<!-- Begin 'A' -->
<polygon points=" 90.000000, 440.000000, 111.000000, 436.372925, 119.000000, 436.372925, 140.000000, 440.000000, 132.500000, 440.000000, 126.250000, 439.093231, 103.750000, 439.093231, 97.500000, 440.000000" fill="rgb(178, 34, 34)" style="fill-opacity:0.25" />
<!-- End 'A' -->
<!-- Begin 'C' -->
<ellipse cx="175.000000" cy="59.033329" rx="25.000000" ry="49.033329" fill="rgb(0, 0, 128)" style="fill-opacity:0.03" />
<ellipse cx="175.000000" cy="59.033329" rx="16.666667" ry="32.688886" fill="rgb(255, 255, 255)" style="fill-opacity:1.00" />
<rect height="49.033329" width="25.000000" x="175.000000" y="34.516664" fill="rgb(255, 255, 255)" style="fill-opacity:1.00" />
<!-- End 'C' -->
<!-- Begin 'T' -->
<rect height="0.308938" width="50.000000" x="150.000000" y="108.066657" fill="rgb(0, 100, 0)" style="fill-opacity:0.03" />
<rect height="1.930862" width="10.000000" x="170.000000" y="108.066657" fill="rgb(0, 100, 0)" style="fill-opacity:0.03" />
<!-- End 'T' -->
<!-- Begin 'A' -->
<polygon points=" 150.000000, 109.999726, 171.000000, 109.997519, 179.000000, 109.997519, 200.000000, 109.999726, 192.500000, 109.999726, 186.250000, 109.999174, 163.750000, 109.999174, 157.500000, 109.999726" fill="rgb(178, 34, 34)" style="fill-opacity:0.03" />
<!-- End 'A' -->
<!-- Begin 'G' -->
<ellipse cx="175.000000" cy="109.999863" rx="25.000000" ry="0.000137" fill="rgb(255, 165, 0)" style="fill-opacity:0.03" />
<ellipse cx="175.000000" cy="109.999863" rx="16.666667" ry="0.000091" fill="rgb(255, 255, 255)" style="fill-opacity:1.00" />
<rect height="0.000137" width="25.000000" x="175.000000" y="109.999794" fill="rgb(255, 255, 255)" style="fill-opacity:1.00" />
<rect height="0.000034" width="25.000000" x="175.000000" y="109.999897" fill="rgb(255, 165, 0)" style="fill-opacity:0.03" />
<rect height="0.000103" width="6.250000" x="193.750000" y="109.999897" fill="rgb(255, 165, 0)" style="fill-opacity:0.03" />
<!-- End 'G' -->
<!-- Begin 'C' -->
<ellipse cx="175.000000" cy="146.607723" rx="25.000000" ry="26.607723" fill="rgb(0, 0, 128)" style="fill-opacity:0.63" />
<ellipse cx="175.000000" cy="146.607723" rx="16.666667" ry="17.738482" fill="rgb(255, 255, 255)" style="fill-opacity:1.00" />
<rect height="26.607723" width="25.000000" x="175.000000" y="133.303861" fill="rgb(255, 255, 255)" style="fill-opacity:1.00" />
<!-- End 'C' -->
<!-- Begin 'T' -->
<rect height="6.640598" width="50.000000" x="150.000000" y="173.215445" fill="rgb(0, 100, 0)" style="fill-opacity:0.63" />
<rect height="41.503737" width="10.000000" x="170.000000" y="173.215445" fill="rgb(0, 100, 0)" style="fill-opacity:0.63" />
<!-- End 'T' -->
<!-- Begin 'A' -->
<polygon points=" 150.000000, 218.841977, 171.000000, 214.719182, 179.000000, 214.719182, 200.000000, 218.841977, 192.500000, 218.841977, 186.250000, 217.811278, 163.750000, 217.811278, 157.500000, 218.841977" fill="rgb(178, 34, 34)" style="fill-opacity:0.63" />
<!-- End 'A' -->
<!-- Begin 'G' -->
<ellipse cx="175.000000" cy="219.420989" rx="25.000000" ry="0.579011" fill="rgb(255, 165, 0)" style="fill-opacity:0.63" />
<ellipse cx="175.000000" cy="219.420989" rx="16.666667" ry="0.386008" fill="rgb(255, 255, 255)" style="fill-opacity:1.00" />
<rect height="0.579011" width="25.000000" x="175.000000" y="219.131483" fill="rgb(255, 255, 255)" style="fill-opacity:1.00" />
<rect height="0.144753" width="25.000000" x="175.000000" y="219.565741" fill="rgb(255, 165, 0)" style="fill-opacity:0.63" />
<rect height="0.434259" width="6.250000" x="193.750000" y="219.565741" fill="rgb(255, 165, 0)" style="fill-opacity:0.63" />
<!-- End 'G' -->
<!-- Begin 'C' -->
<ellipse cx="175.000000" cy="265.587379" rx="25.000000" ry="35.587379" fill="rgb(0, 0, 128)" style="fill-opacity:0.15" />
<ellipse cx="175.000000" cy="265.587379" rx="16.666667" ry="23.724919" fill="rgb(255, 255, 255)" style="fill-opacity:1.00" />
<rect height="35.587379" width="25.000000" x="175.000000" y="247.793689" fill="rgb(255, 255, 255)" style="fill-opacity:1.00" />
<!-- End 'C' -->
<!-- Begin 'T' -->
<rect height="4.609050" width="50.000000" x="150.000000" y="301.174757" fill="rgb(0, 100, 0)" style="fill-opacity:0.15" />
<rect height="28.806561" width="10.000000" x="170.000000" y="301.174757" fill="rgb(0, 100, 0)" style="fill-opacity:0.15" />
<!-- End 'T' -->
<!-- Begin 'G' -->
<ellipse cx="175.000000" cy="329.989593" rx="25.000000" ry="0.008275" fill="rgb(255, 165, 0)" style="fill-opacity:0.15" />
<ellipse cx="175.000000" cy="329.989593" rx="16.666667" ry="0.005517" fill="rgb(255, 255, 255)" style="fill-opacity:1.00" />
<rect height="0.008275" width="25.000000" x="175.000000" y="329.985456" fill="rgb(255, 255, 255)" style="fill-opacity:1.00" />
<rect height="0.002069" width="25.000000" x="175.000000" y="329.991662" fill="rgb(255, 165, 0)" style="fill-opacity:0.15" />
<rect height="0.006207" width="6.250000" x="193.750000" y="329.991662" fill="rgb(255, 165, 0)" style="fill-opacity:0.15" />
<!-- End 'G' -->
<!-- Begin 'A' -->
<polygon points=" 150.000000, 330.000000, 171.000000, 329.997869, 179.000000, 329.997869, 200.000000, 330.000000, 192.500000, 330.000000, 186.250000, 329.999467, 163.750000, 329.999467, 157.500000, 330.000000" fill="rgb(178, 34, 34)" style="fill-opacity:0.15" />
<!-- End 'A' -->
<!-- Begin 'C' -->
<ellipse cx="175.000000" cy="386.318067" rx="25.000000" ry="46.318067" fill="rgb(0, 0, 128)" style="fill-opacity:0.18" />
<ellipse cx="175.000000" cy="386.318067" rx="16.666667" ry="30.878711" fill="rgb(255, 255, 255)" style="fill-opacity:1.00" />
<rect height="46.318067" width="25.000000" x="175.000000" y="363.159033" fill="rgb(255, 255, 255)" style="fill-opacity:1.00" />
<!-- End 'C' -->
<!-- Begin 'G' -->
<ellipse cx="175.000000" cy="434.587192" rx="25.000000" ry="1.951058" fill="rgb(255, 165, 0)" style="fill-opacity:0.18" />
<ellipse cx="175.000000" cy="434.587192" rx="16.666667" ry="1.300706" fill="rgb(255, 255, 255)" style="fill-opacity:1.00" />
<rect height="1.951058" width="25.000000" x="175.000000" y="433.611662" fill="rgb(255, 255, 255)" style="fill-opacity:1.00" />
<rect height="0.487765" width="25.000000" x="175.000000" y="435.074956" fill="rgb(255, 165, 0)" style="fill-opacity:0.18" />
<rect height="1.463294" width="6.250000" x="193.750000" y="435.074956" fill="rgb(255, 165, 0)" style="fill-opacity:0.18" />
<!-- End 'G' -->
<!-- Begin 'T' -->
<rect height="0.542939" width="50.000000" x="150.000000" y="436.538250" fill="rgb(0, 100, 0)" style="fill-opacity:0.18" />
<rect height="3.393367" width="10.000000" x="170.000000" y="436.538250" fill="rgb(0, 100, 0)" style="fill-opacity:0.18" />
<!-- End 'T' -->
<!-- Begin 'A' -->
<polygon points=" 150.000000, 440.000000, 171.000000, 439.931616, 179.000000, 439.931616, 200.000000, 440.000000, 192.500000, 440.000000, 186.250000, 439.982904, 163.750000, 439.982904, 157.500000, 440.000000" fill="rgb(178, 34, 34)" style="fill-opacity:0.18" />
<!-- End 'A' -->
<!-- Begin 'T' -->
<rect height="8.086873" width="50.000000" x="210.000000" y="10.000000" fill="rgb(0, 100, 0)" style="fill-opacity:0.03" />
<rect height="50.542956" width="10.000000" x="230.000000" y="10.000000" fill="rgb(0, 100, 0)" style="fill-opacity:0.03" />
<!-- End 'T' -->
<!-- Begin 'A' -->
<polygon points=" 210.000000, 109.999624, 231.000000, 60.542956, 239.000000, 60.542956, 260.000000, 109.999624, 252.500000, 109.999624, 246.250000, 97.635457, 223.750000, 97.635457, 217.500000, 109.999624" fill="rgb(178, 34, 34)" style="fill-opacity:0.03" />
<polygon points=" 235.000000, 70.434289, 227.000000, 89.216957, 242.000000, 89.216957" fill="rgb(255, 255, 255)" style="fill-opacity:1.00" />
<!-- End 'A' -->
<!-- Begin 'G' -->
<ellipse cx="235.000000" cy="109.999796" rx="25.000000" ry="0.000172" fill="rgb(255, 165, 0)" style="fill-opacity:0.03" />
<ellipse cx="235.000000" cy="109.999796" rx="16.666667" ry="0.000115" fill="rgb(255, 255, 255)" style="fill-opacity:1.00" />
<rect height="0.000172" width="25.000000" x="235.000000" y="109.999710" fill="rgb(255, 255, 255)" style="fill-opacity:1.00" />
<rect height="0.000043" width="25.000000" x="235.000000" y="109.999839" fill="rgb(255, 165, 0)" style="fill-opacity:0.03" />
<rect height="0.000129" width="6.250000" x="253.750000" y="109.999839" fill="rgb(255, 165, 0)" style="fill-opacity:0.03" />
<!-- End 'G' -->
<!-- Begin 'C' -->
<ellipse cx="235.000000" cy="109.999984" rx="25.000000" ry="0.000016" fill="rgb(0, 0, 128)" style="fill-opacity:0.03" />
<ellipse cx="235.000000" cy="109.999984" rx="16.666667" ry="0.000011" fill="rgb(255, 255, 255)" style="fill-opacity:1.00" />
<rect height="0.000016" width="25.000000" x="235.000000" y="109.999976" fill="rgb(255, 255, 255)" style="fill-opacity:1.00" />
<!-- End 'C' -->
<!-- Begin 'T' -->
<rect height="9.216207" width="50.000000" x="210.000000" y="120.000000" fill="rgb(0, 100, 0)" style="fill-opacity:0.65" />
<rect height="57.601293" width="10.000000" x="230.000000" y="120.000000" fill="rgb(0, 100, 0)" style="fill-opacity:0.65" />
<!-- End 'T' -->
<!-- Begin 'A' -->
<polygon points=" 210.000000, 218.207381, 231.000000, 177.601293, 239.000000, 177.601293, 260.000000, 218.207381, 252.500000, 218.207381, 246.250000, 208.055859, 223.750000, 208.055859, 217.500000, 218.207381" fill="rgb(178, 34, 34)" style="fill-opacity:0.65" />
<polygon points=" 235.000000, 185.722510, 227.000000, 200.964946, 242.000000, 200.964946" fill="rgb(255, 255, 255)" style="fill-opacity:1.00" />
<!-- End 'A' -->
<!-- Begin 'C' -->
<ellipse cx="235.000000" cy="218.996880" rx="25.000000" ry="0.789499" fill="rgb(0, 0, 128)" style="fill-opacity:0.65" />
<ellipse cx="235.000000" cy="218.996880" rx="16.666667" ry="0.526332" fill="rgb(255, 255, 255)" style="fill-opacity:1.00" />
<rect height="0.789499" width="25.000000" x="235.000000" y="218.602131" fill="rgb(255, 255, 255)" style="fill-opacity:1.00" />
<!-- End 'C' -->
<!-- Begin 'G' -->
<ellipse cx="235.000000" cy="219.893189" rx="25.000000" ry="0.106811" fill="rgb(255, 165, 0)" style="fill-opacity:0.65" />
<ellipse cx="235.000000" cy="219.893189" rx="16.666667" ry="0.071207" fill="rgb(255, 255, 255)" style="fill-opacity:1.00" />
<rect height="0.106811" width="25.000000" x="235.000000" y="219.839784" fill="rgb(255, 255, 255)" style="fill-opacity:1.00" />
<rect height="0.026703" width="25.000000" x="235.000000" y="219.919892" fill="rgb(255, 165, 0)" style="fill-opacity:0.65" />
<rect height="0.080108" width="6.250000" x="253.750000" y="219.919892" fill="rgb(255, 165, 0)" style="fill-opacity:0.65" />
<!-- End 'G' -->
<!-- Begin 'A' -->
<polygon points=" 210.000000, 293.804411, 231.000000, 230.000000, 239.000000, 230.000000, 260.000000, 293.804411, 252.500000, 293.804411, 246.250000, 277.853308, 223.750000, 277.853308, 217.500000, 293.804411" fill="rgb(178, 34, 34)" style="fill-opacity:0.01" />
<polygon points=" 235.000000, 242.760882, 227.000000, 267.282647, 242.000000, 267.282647" fill="rgb(255, 255, 255)" style="fill-opacity:1.00" />
<!-- End 'A' -->
<!-- Begin 'T' -->
<rect height="5.791294" width="50.000000" x="210.000000" y="293.804411" fill="rgb(0, 100, 0)" style="fill-opacity:0.01" />
<rect height="36.195589" width="10.000000" x="230.000000" y="293.804411" fill="rgb(0, 100, 0)" style="fill-opacity:0.01" />
<!-- End 'T' -->
<!-- Begin 'C' -->
<ellipse cx="235.000000" cy="330.000000" rx="25.000000" ry="0.000000" fill="rgb(0, 0, 128)" style="fill-opacity:0.01" />
<ellipse cx="235.000000" cy="330.000000" rx="16.666667" ry="0.000000" fill="rgb(255, 255, 255)" style="fill-opacity:1.00" />
<rect height="0.000000" width="25.000000" x="235.000000" y="330.000000" fill="rgb(255, 255, 255)" style="fill-opacity:1.00" />
<!-- End 'C' -->
<!-- Begin 'G' -->
<ellipse cx="235.000000" cy="330.000000" rx="25.000000" ry="0.000000" fill="rgb(255, 165, 0)" style="fill-opacity:0.01" />
<ellipse cx="235.000000" cy="330.000000" rx="16.666667" ry="0.000000" fill="rgb(255, 255, 255)" style="fill-opacity:1.00" />
<rect height="0.000000" width="25.000000" x="235.000000" y="330.000000" fill="rgb(255, 255, 255)" style="fill-opacity:1.00" />
<rect height="0.000000" width="25.000000" x="235.000000" y="330.000000" fill="rgb(255, 165, 0)" style="fill-opacity:0.01" />
<rect height="0.000000" width="6.250000" x="253.750000" y="330.000000" fill="rgb(255, 165, 0)" style="fill-opacity:0.01" />
<!-- End 'G' -->
<!-- Begin 'A' -->
<polygon points=" 210.000000, 391.317034, 231.000000, 340.000000, 239.000000, 340.000000, 260.000000, 391.317034, 252.500000, 391.317034, 246.250000, 378.487776, 223.750000, 378.487776, 217.500000, 391.317034" fill="rgb(178, 34, 34)" style="fill-opacity:0.31" />
<polygon points=" 235.000000, 350.263407, 227.000000, 369.790221, 242.000000, 369.790221" fill="rgb(255, 255, 255)" style="fill-opacity:1.00" />
<!-- End 'A' -->
<!-- Begin 'T' -->
<rect height="7.780857" width="50.000000" x="210.000000" y="391.317034" fill="rgb(0, 100, 0)" style="fill-opacity:0.31" />
<rect height="48.630356" width="10.000000" x="230.000000" y="391.317034" fill="rgb(0, 100, 0)" style="fill-opacity:0.31" />
<!-- End 'T' -->
<!-- Begin 'G' -->
<ellipse cx="235.000000" cy="439.972856" rx="25.000000" ry="0.025466" fill="rgb(255, 165, 0)" style="fill-opacity:0.31" />
<ellipse cx="235.000000" cy="439.972856" rx="16.666667" ry="0.016977" fill="rgb(255, 255, 255)" style="fill-opacity:1.00" />
<rect height="0.025466" width="25.000000" x="235.000000" y="439.960123" fill="rgb(255, 255, 255)" style="fill-opacity:1.00" />
<rect height="0.006366" width="25.000000" x="235.000000" y="439.979222" fill="rgb(255, 165, 0)" style="fill-opacity:0.31" />
<rect height="0.019099" width="6.250000" x="253.750000" y="439.979222" fill="rgb(255, 165, 0)" style="fill-opacity:0.31" />
<!-- End 'G' -->
<!-- Begin 'C' -->
<ellipse cx="235.000000" cy="439.999161" rx="25.000000" ry="0.000839" fill="rgb(0, 0, 128)" style="fill-opacity:0.31" />
<ellipse cx="235.000000" cy="439.999161" rx="16.666667" ry="0.000559" fill="rgb(255, 255, 255)" style="fill-opacity:1.00" />
<rect height="0.000839" width="25.000000" x="235.000000" y="439.998741" fill="rgb(255, 255, 255)" style="fill-opacity:1.00" />
<!-- End 'C' -->
<!-- Begin 'T' -->
<rect height="15.782154" width="50.000000" x="270.000000" y="10.000000" fill="rgb(0, 100, 0)" style="fill-opacity:0.45" />
<rect height="98.638461" width="10.000000" x="290.000000" y="10.000000" fill="rgb(0, 100, 0)" style="fill-opacity:0.45" />
<!-- End 'T' -->
<!-- Begin 'C' -->
<ellipse cx="295.000000" cy="109.282075" rx="25.000000" ry="0.643613" fill="rgb(0, 0, 128)" style="fill-opacity:0.45" />
<ellipse cx="295.000000" cy="109.282075" rx="16.666667" ry="0.429076" fill="rgb(255, 255, 255)" style="fill-opacity:1.00" />
<rect height="0.643613" width="25.000000" x="295.000000" y="108.960268" fill="rgb(255, 255, 255)" style="fill-opacity:1.00" />
<!-- End 'C' -->
<!-- Begin 'G' -->
<ellipse cx="295.000000" cy="109.955962" rx="25.000000" ry="0.030274" fill="rgb(255, 165, 0)" style="fill-opacity:0.45" />
<ellipse cx="295.000000" cy="109.955962" rx="16.666667" ry="0.020183" fill="rgb(255, 255, 255)" style="fill-opacity:1.00" />
<rect height="0.030274" width="25.000000" x="295.000000" y="109.940825" fill="rgb(255, 255, 255)" style="fill-opacity:1.00" />
<rect height="0.007569" width="25.000000" x="295.000000" y="109.963531" fill="rgb(255, 165, 0)" style="fill-opacity:0.45" />
<rect height="0.022706" width="6.250000" x="313.750000" y="109.963531" fill="rgb(255, 165, 0)" style="fill-opacity:0.45" />
<!-- End 'G' -->
<!-- Begin 'A' -->
<polygon points=" 270.000000, 110.000000, 291.000000, 109.986236, 299.000000, 109.986236, 320.000000, 110.000000, 312.500000, 110.000000, 306.250000, 109.996559, 283.750000, 109.996559, 277.500000, 110.000000" fill="rgb(178, 34, 34)" style="fill-opacity:0.45" />
<!-- End 'A' -->
<!-- Begin 'T' -->
<rect height="15.994630" width="50.000000" x="270.000000" y="120.000000" fill="rgb(0, 100, 0)" style="fill-opacity:0.01" />
<rect height="99.966435" width="10.000000" x="290.000000" y="120.000000" fill="rgb(0, 100, 0)" style="fill-opacity:0.01" />
<!-- End 'T' -->
<!-- Begin 'G' -->
<ellipse cx="295.000000" cy="219.978687" rx="25.000000" ry="0.012252" fill="rgb(255, 165, 0)" style="fill-opacity:0.01" />
<ellipse cx="295.000000" cy="219.978687" rx="16.666667" ry="0.008168" fill="rgb(255, 255, 255)" style="fill-opacity:1.00" />
<rect height="0.012252" width="25.000000" x="295.000000" y="219.972561" fill="rgb(255, 255, 255)" style="fill-opacity:1.00" />
<rect height="0.003063" width="25.000000" x="295.000000" y="219.981750" fill="rgb(255, 165, 0)" style="fill-opacity:0.01" />
<rect height="0.009189" width="6.250000" x="313.750000" y="219.981750" fill="rgb(255, 165, 0)" style="fill-opacity:0.01" />
<!-- End 'G' -->
<!-- Begin 'C' -->
<ellipse cx="295.000000" cy="219.995379" rx="25.000000" ry="0.004440" fill="rgb(0, 0, 128)" style="fill-opacity:0.01" />
<ellipse cx="295.000000" cy="219.995379" rx="16.666667" ry="0.002960" fill="rgb(255, 255, 255)" style="fill-opacity:1.00" />
<rect height="0.004440" width="25.000000" x="295.000000" y="219.993159" fill="rgb(255, 255, 255)" style="fill-opacity:1.00" />
<!-- End 'C' -->
<!-- Begin 'A' -->
<polygon points=" 270.000000, 220.000000, 291.000000, 219.999819, 299.000000, 219.999819, 320.000000, 220.000000, 312.500000, 220.000000, 306.250000, 219.999955, 283.750000, 219.999955, 277.500000, 220.000000" fill="rgb(178, 34, 34)" style="fill-opacity:0.01" />
<!-- End 'A' -->
<!-- Begin 'T' -->
<rect height="15.870599" width="50.000000" x="270.000000" y="230.000000" fill="rgb(0, 100, 0)" style="fill-opacity:0.00" />
<rect height="99.191241" width="10.000000" x="290.000000" y="230.000000" fill="rgb(0, 100, 0)" style="fill-opacity:0.00" />
<!-- End 'T' -->
<!-- Begin 'C' -->
<ellipse cx="295.000000" cy="329.459111" rx="25.000000" ry="0.267870" fill="rgb(0, 0, 128)" style="fill-opacity:0.00" />
<ellipse cx="295.000000" cy="329.459111" rx="16.666667" ry="0.178580" fill="rgb(255, 255, 255)" style="fill-opacity:1.00" />
<rect height="0.267870" width="25.000000" x="295.000000" y="329.325176" fill="rgb(255, 255, 255)" style="fill-opacity:1.00" />
<!-- End 'C' -->
<!-- Begin 'G' -->
<ellipse cx="295.000000" cy="329.863484" rx="25.000000" ry="0.136502" fill="rgb(255, 165, 0)" style="fill-opacity:0.00" />
<ellipse cx="295.000000" cy="329.863484" rx="16.666667" ry="0.091002" fill="rgb(255, 255, 255)" style="fill-opacity:1.00" />
<rect height="0.136502" width="25.000000" x="295.000000" y="329.795233" fill="rgb(255, 255, 255)" style="fill-opacity:1.00" />
<rect height="0.034126" width="25.000000" x="295.000000" y="329.897609" fill="rgb(255, 165, 0)" style="fill-opacity:0.00" />
<rect height="0.102377" width="6.250000" x="313.750000" y="329.897609" fill="rgb(255, 165, 0)" style="fill-opacity:0.00" />
<!-- End 'G' -->
<!-- Begin 'A' -->
<polygon points=" 270.000000, 330.000000, 291.000000, 329.999986, 299.000000, 329.999986, 320.000000, 330.000000, 312.500000, 330.000000, 306.250000, 329.999997, 283.750000, 329.999997, 277.500000, 330.000000" fill="rgb(178, 34, 34)" style="fill-opacity:0.00" />
<!-- End 'A' -->
<!-- Begin 'T' -->
<rect height="14.513813" width="50.000000" x="270.000000" y="340.000000" fill="rgb(0, 100, 0)" style="fill-opacity:0.54" />
<rect height="90.711328" width="10.000000" x="290.000000" y="340.000000" fill="rgb(0, 100, 0)" style="fill-opacity:0.54" />
<!-- End 'T' -->
<!-- Begin 'G' -->
<ellipse cx="295.000000" cy="433.417597" rx="25.000000" ry="2.706269" fill="rgb(255, 165, 0)" style="fill-opacity:0.54" />
<ellipse cx="295.000000" cy="433.417597" rx="16.666667" ry="1.804179" fill="rgb(255, 255, 255)" style="fill-opacity:1.00" />
<rect height="2.706269" width="25.000000" x="295.000000" y="432.064463" fill="rgb(255, 255, 255)" style="fill-opacity:1.00" />
<rect height="0.676567" width="25.000000" x="295.000000" y="434.094164" fill="rgb(255, 165, 0)" style="fill-opacity:0.54" />
<rect height="2.029701" width="6.250000" x="313.750000" y="434.094164" fill="rgb(255, 165, 0)" style="fill-opacity:0.54" />
<!-- End 'G' -->
<!-- Begin 'C' -->
<ellipse cx="295.000000" cy="438.059340" rx="25.000000" ry="1.935474" fill="rgb(0, 0, 128)" style="fill-opacity:0.54" />
<ellipse cx="295.000000" cy="438.059340" rx="16.666667" ry="1.290316" fill="rgb(255, 255, 255)" style="fill-opacity:1.00" />
<rect height="1.935474" width="25.000000" x="295.000000" y="437.091603" fill="rgb(255, 255, 255)" style="fill-opacity:1.00" />
<!-- End 'C' -->
<!-- Begin 'A' -->
<polygon points=" 270.000000, 440.000000, 291.000000, 439.994814, 299.000000, 439.994814, 320.000000, 440.000000, 312.500000, 440.000000, 306.250000, 439.998704, 283.750000, 439.998704, 277.500000, 440.000000" fill="rgb(178, 34, 34)" style="fill-opacity:0.54" />
<!-- End 'A' -->
<!-- Begin 'T' -->
<rect height="15.740694" width="50.000000" x="330.000000" y="10.000000" fill="rgb(0, 100, 0)" style="fill-opacity:0.00" />
<rect height="98.379335" width="10.000000" x="350.000000" y="10.000000" fill="rgb(0, 100, 0)" style="fill-opacity:0.00" />
<!-- End 'T' -->
<!-- Begin 'G' -->
<ellipse cx="355.000000" cy="109.183270" rx="25.000000" ry="0.803936" fill="rgb(255, 165, 0)" style="fill-opacity:0.00" />
<ellipse cx="355.000000" cy="109.183270" rx="16.666667" ry="0.535957" fill="rgb(255, 255, 255)" style="fill-opacity:1.00" />
<rect height="0.803936" width="25.000000" x="355.000000" y="108.781303" fill="rgb(255, 255, 255)" style="fill-opacity:1.00" />
<rect height="0.200984" width="25.000000" x="355.000000" y="109.384254" fill="rgb(255, 165, 0)" style="fill-opacity:0.00" />
<rect height="0.602952" width="6.250000" x="373.750000" y="109.384254" fill="rgb(255, 165, 0)" style="fill-opacity:0.00" />
<!-- End 'G' -->
<!-- Begin 'A' -->
<polygon points=" 330.000000, 109.999890, 351.000000, 109.987206, 359.000000, 109.987206, 380.000000, 109.999890, 372.500000, 109.999890, 366.250000, 109.996719, 343.750000, 109.996719, 337.500000, 109.999890" fill="rgb(178, 34, 34)" style="fill-opacity:0.00" />
<!-- End 'A' -->
<!-- Begin 'C' -->
<ellipse cx="355.000000" cy="109.999945" rx="25.000000" ry="0.000055" fill="rgb(0, 0, 128)" style="fill-opacity:0.00" />
<ellipse cx="355.000000" cy="109.999945" rx="16.666667" ry="0.000037" fill="rgb(255, 255, 255)" style="fill-opacity:1.00" />
<rect height="0.000055" width="25.000000" x="355.000000" y="109.999918" fill="rgb(255, 255, 255)" style="fill-opacity:1.00" />
<!-- End 'C' -->
<!-- Begin 'T' -->
<rect height="15.998124" width="50.000000" x="330.000000" y="120.000000" fill="rgb(0, 100, 0)" style="fill-opacity:0.03" />
<rect height="99.988275" width="10.000000" x="350.000000" y="120.000000" fill="rgb(0, 100, 0)" style="fill-opacity:0.03" />
<!-- End 'T' -->
<!-- Begin 'C' -->
<ellipse cx="355.000000" cy="219.990885" rx="25.000000" ry="0.002610" fill="rgb(0, 0, 128)" style="fill-opacity:0.03" />
<ellipse cx="355.000000" cy="219.990885" rx="16.666667" ry="0.001740" fill="rgb(255, 255, 255)" style="fill-opacity:1.00" />
<rect height="0.002610" width="25.000000" x="355.000000" y="219.989580" fill="rgb(255, 255, 255)" style="fill-opacity:1.00" />
<!-- End 'C' -->
<!-- Begin 'A' -->
<polygon points=" 330.000000, 219.997401, 351.000000, 219.993496, 359.000000, 219.993496, 380.000000, 219.997401, 372.500000, 219.997401, 366.250000, 219.996424, 343.750000, 219.996424, 337.500000, 219.997401" fill="rgb(178, 34, 34)" style="fill-opacity:0.03" />
<!-- End 'A' -->
<!-- Begin 'G' -->
<ellipse cx="355.000000" cy="219.998700" rx="25.000000" ry="0.001300" fill="rgb(255, 165, 0)" style="fill-opacity:0.03" />
<ellipse cx="355.000000" cy="219.998700" rx="16.666667" ry="0.000866" fill="rgb(255, 255, 255)" style="fill-opacity:1.00" />
<rect height="0.001300" width="25.000000" x="355.000000" y="219.998050" fill="rgb(255, 255, 255)" style="fill-opacity:1.00" />
<rect height="0.000325" width="25.000000" x="355.000000" y="219.999025" fill="rgb(255, 165, 0)" style="fill-opacity:0.03" />
<rect height="0.000975" width="6.250000" x="373.750000" y="219.999025" fill="rgb(255, 165, 0)" style="fill-opacity:0.03" />
<!-- End 'G' -->
<!-- Begin 'T' -->
<rect height="15.997225" width="50.000000" x="330.000000" y="230.000000" fill="rgb(0, 100, 0)" style="fill-opacity:0.03" />
<rect height="99.982655" width="10.000000" x="350.000000" y="230.000000" fill="rgb(0, 100, 0)" style="fill-opacity:0.03" />
<!-- End 'T' -->
<!-- Begin 'A' -->
<polygon points=" 330.000000, 329.996645, 351.000000, 329.982655, 359.000000, 329.982655, 380.000000, 329.996645, 372.500000, 329.996645, 366.250000, 329.993148, 343.750000, 329.993148, 337.500000, 329.996645" fill="rgb(178, 34, 34)" style="fill-opacity:0.03" />
<!-- End 'A' -->
<!-- Begin 'G' -->
<ellipse cx="355.000000" cy="329.997624" rx="25.000000" ry="0.000979" fill="rgb(255, 165, 0)" style="fill-opacity:0.03" />
<ellipse cx="355.000000" cy="329.997624" rx="16.666667" ry="0.000653" fill="rgb(255, 255, 255)" style="fill-opacity:1.00" />
<rect height="0.000979" width="25.000000" x="355.000000" y="329.997134" fill="rgb(255, 255, 255)" style="fill-opacity:1.00" />
<rect height="0.000245" width="25.000000" x="355.000000" y="329.997869" fill="rgb(255, 165, 0)" style="fill-opacity:0.03" />
<rect height="0.000734" width="6.250000" x="373.750000" y="329.997869" fill="rgb(255, 165, 0)" style="fill-opacity:0.03" />
<!-- End 'G' -->
<!-- Begin 'C' -->
<ellipse cx="355.000000" cy="329.999301" rx="25.000000" ry="0.000699" fill="rgb(0, 0, 128)" style="fill-opacity:0.03" />
<ellipse cx="355.000000" cy="329.999301" rx="16.666667" ry="0.000466" fill="rgb(255, 255, 255)" style="fill-opacity:1.00" />
<rect height="0.000699" width="25.000000" x="355.000000" y="329.998952" fill="rgb(255, 255, 255)" style="fill-opacity:1.00" />
<!-- End 'C' -->
<!-- Begin 'T' -->
<rect height="15.973869" width="50.000000" x="330.000000" y="340.000000" fill="rgb(0, 100, 0)" style="fill-opacity:0.94" />
<rect height="99.836681" width="10.000000" x="350.000000" y="340.000000" fill="rgb(0, 100, 0)" style="fill-opacity:0.94" />
<!-- End 'T' -->
<!-- Begin 'A' -->
<polygon points=" 330.000000, 439.979797, 351.000000, 439.836681, 359.000000, 439.836681, 380.000000, 439.979797, 372.500000, 439.979797, 366.250000, 439.944018, 343.750000, 439.944018, 337.500000, 439.979797" fill="rgb(178, 34, 34)" style="fill-opacity:0.94" />
<!-- End 'A' -->
<!-- Begin 'G' -->
<ellipse cx="355.000000" cy="439.985164" rx="25.000000" ry="0.005367" fill="rgb(255, 165, 0)" style="fill-opacity:0.94" />
<ellipse cx="355.000000" cy="439.985164" rx="16.666667" ry="0.003578" fill="rgb(255, 255, 255)" style="fill-opacity:1.00" />
<rect height="0.005367" width="25.000000" x="355.000000" y="439.982480" fill="rgb(255, 255, 255)" style="fill-opacity:1.00" />
<rect height="0.001342" width="25.000000" x="355.000000" y="439.986506" fill="rgb(255, 165, 0)" style="fill-opacity:0.94" />
<rect height="0.004025" width="6.250000" x="373.750000" y="439.986506" fill="rgb(255, 165, 0)" style="fill-opacity:0.94" />
<!-- End 'G' -->
<!-- Begin 'C' -->
<ellipse cx="355.000000" cy="439.995265" rx="25.000000" ry="0.004735" fill="rgb(0, 0, 128)" style="fill-opacity:0.94" />
<ellipse cx="355.000000" cy="439.995265" rx="16.666667" ry="0.003156" fill="rgb(255, 255, 255)" style="fill-opacity:1.00" />
<rect height="0.004735" width="25.000000" x="355.000000" y="439.992898" fill="rgb(255, 255, 255)" style="fill-opacity:1.00" />
<!-- End 'C' -->
<!-- Begin 'G' -->
<ellipse cx="415.000000" cy="59.761953" rx="25.000000" ry="49.761953" fill="rgb(255, 165, 0)" style="fill-opacity:0.00" />
<ellipse cx="415.000000" cy="59.761953" rx="16.666667" ry="33.174635" fill="rgb(255, 255, 255)" style="fill-opacity:1.00" />
<rect height="49.761953" width="25.000000" x="415.000000" y="34.880976" fill="rgb(255, 255, 255)" style="fill-opacity:1.00" />
<rect height="12.440488" width="25.000000" x="415.000000" y="72.202441" fill="rgb(255, 165, 0)" style="fill-opacity:0.00" />
<rect height="37.321465" width="6.250000" x="433.750000" y="72.202441" fill="rgb(255, 165, 0)" style="fill-opacity:0.00" />
<!-- End 'G' -->
<!-- Begin 'A' -->
<polygon points=" 390.000000, 109.971412, 411.000000, 109.523906, 419.000000, 109.523906, 440.000000, 109.971412, 432.500000, 109.971412, 426.250000, 109.859535, 403.750000, 109.859535, 397.500000, 109.971412" fill="rgb(178, 34, 34)" style="fill-opacity:0.00" />
<!-- End 'A' -->
<!-- Begin 'T' -->
<rect height="0.002990" width="50.000000" x="390.000000" y="109.971412" fill="rgb(0, 100, 0)" style="fill-opacity:0.00" />
<rect height="0.018688" width="10.000000" x="410.000000" y="109.971412" fill="rgb(0, 100, 0)" style="fill-opacity:0.00" />
<!-- End 'T' -->
<!-- Begin 'C' -->
<ellipse cx="415.000000" cy="109.995050" rx="25.000000" ry="0.004950" fill="rgb(0, 0, 128)" style="fill-opacity:0.00" />
<ellipse cx="415.000000" cy="109.995050" rx="16.666667" ry="0.003300" fill="rgb(255, 255, 255)" style="fill-opacity:1.00" />
<rect height="0.004950" width="25.000000" x="415.000000" y="109.992575" fill="rgb(255, 255, 255)" style="fill-opacity:1.00" />
<!-- End 'C' -->
<!-- Begin 'G' -->
<ellipse cx="415.000000" cy="151.514797" rx="25.000000" ry="31.514797" fill="rgb(255, 165, 0)" style="fill-opacity:0.00" />
<ellipse cx="415.000000" cy="151.514797" rx="16.666667" ry="21.009865" fill="rgb(255, 255, 255)" style="fill-opacity:1.00" />
<rect height="31.514797" width="25.000000" x="415.000000" y="135.757399" fill="rgb(255, 255, 255)" style="fill-opacity:1.00" />
<rect height="7.878699" width="25.000000" x="415.000000" y="159.393497" fill="rgb(255, 165, 0)" style="fill-opacity:0.00" />
<rect height="23.636098" width="6.250000" x="433.750000" y="159.393497" fill="rgb(255, 165, 0)" style="fill-opacity:0.00" />
<!-- End 'G' -->
<!-- Begin 'C' -->
<ellipse cx="415.000000" cy="199.002076" rx="25.000000" ry="15.972481" fill="rgb(0, 0, 128)" style="fill-opacity:0.00" />
<ellipse cx="415.000000" cy="199.002076" rx="16.666667" ry="10.648320" fill="rgb(255, 255, 255)" style="fill-opacity:1.00" />
<rect height="15.972481" width="25.000000" x="415.000000" y="191.015835" fill="rgb(255, 255, 255)" style="fill-opacity:1.00" />
<!-- End 'C' -->
<!-- Begin 'A' -->
<polygon points=" 390.000000, 218.466879, 411.000000, 214.974556, 419.000000, 214.974556, 440.000000, 218.466879, 432.500000, 218.466879, 426.250000, 217.593798, 403.750000, 217.593798, 397.500000, 218.466879" fill="rgb(178, 34, 34)" style="fill-opacity:0.00" />
<!-- End 'A' -->
<!-- Begin 'T' -->
<rect height="0.245299" width="50.000000" x="390.000000" y="218.466879" fill="rgb(0, 100, 0)" style="fill-opacity:0.00" />
<rect height="1.533121" width="10.000000" x="410.000000" y="218.466879" fill="rgb(0, 100, 0)" style="fill-opacity:0.00" />
<!-- End 'T' -->
<!-- Begin 'G' -->
<ellipse cx="415.000000" cy="279.468645" rx="25.000000" ry="49.468645" fill="rgb(255, 165, 0)" style="fill-opacity:0.00" />
<ellipse cx="415.000000" cy="279.468645" rx="16.666667" ry="32.979097" fill="rgb(255, 255, 255)" style="fill-opacity:1.00" />
<rect height="49.468645" width="25.000000" x="415.000000" y="254.734323" fill="rgb(255, 255, 255)" style="fill-opacity:1.00" />
<rect height="12.367161" width="25.000000" x="415.000000" y="291.835807" fill="rgb(255, 165, 0)" style="fill-opacity:0.00" />
<rect height="37.101484" width="6.250000" x="433.750000" y="291.835807" fill="rgb(255, 165, 0)" style="fill-opacity:0.00" />
<!-- End 'G' -->
<!-- Begin 'T' -->
<rect height="0.086667" width="50.000000" x="390.000000" y="328.937291" fill="rgb(0, 100, 0)" style="fill-opacity:0.00" />
<rect height="0.541667" width="10.000000" x="410.000000" y="328.937291" fill="rgb(0, 100, 0)" style="fill-opacity:0.00" />
<!-- End 'T' -->
<!-- Begin 'C' -->
<ellipse cx="415.000000" cy="329.639877" rx="25.000000" ry="0.160919" fill="rgb(0, 0, 128)" style="fill-opacity:0.00" />
<ellipse cx="415.000000" cy="329.639877" rx="16.666667" ry="0.107279" fill="rgb(255, 255, 255)" style="fill-opacity:1.00" />
<rect height="0.160919" width="25.000000" x="415.000000" y="329.559417" fill="rgb(255, 255, 255)" style="fill-opacity:1.00" />
<!-- End 'C' -->
<!-- Begin 'A' -->
<polygon points=" 390.000000, 330.000000, 411.000000, 329.800796, 419.000000, 329.800796, 440.000000, 330.000000, 432.500000, 330.000000, 426.250000, 329.950199, 403.750000, 329.950199, 397.500000, 330.000000" fill="rgb(178, 34, 34)" style="fill-opacity:0.00" />
<!-- End 'A' -->
<!-- Begin 'G' -->
<ellipse cx="415.000000" cy="381.881508" rx="25.000000" ry="41.881508" fill="rgb(255, 165, 0)" style="fill-opacity:1.00" />
<ellipse cx="415.000000" cy="381.881508" rx="16.666667" ry="27.921006" fill="rgb(255, 255, 255)" style="fill-opacity:1.00" />
<rect height="41.881508" width="25.000000" x="415.000000" y="360.940754" fill="rgb(255, 255, 255)" style="fill-opacity:1.00" />
<rect height="10.470377" width="25.000000" x="415.000000" y="392.351885" fill="rgb(255, 165, 0)" style="fill-opacity:1.00" />
<rect height="31.411131" width="6.250000" x="433.750000" y="392.351885" fill="rgb(255, 165, 0)" style="fill-opacity:1.00" />
<!-- End 'G' -->
<!-- Begin 'C' -->
<ellipse cx="415.000000" cy="428.797889" rx="25.000000" ry="5.034872" fill="rgb(0, 0, 128)" style="fill-opacity:1.00" />
<ellipse cx="415.000000" cy="428.797889" rx="16.666667" ry="3.356581" fill="rgb(255, 255, 255)" style="fill-opacity:1.00" />
<rect height="5.034872" width="25.000000" x="415.000000" y="426.280453" fill="rgb(255, 255, 255)" style="fill-opacity:1.00" />
<!-- End 'C' -->
<!-- Begin 'A' -->
<polygon points=" 390.000000, 439.909810, 411.000000, 433.832761, 419.000000, 433.832761, 440.000000, 439.909810, 432.500000, 439.909810, 426.250000, 438.390548, 403.750000, 438.390548, 397.500000, 439.909810" fill="rgb(178, 34, 34)" style="fill-opacity:1.00" />
<!-- End 'A' -->
<!-- Begin 'T' -->
<rect height="0.014430" width="50.000000" x="390.000000" y="439.909810" fill="rgb(0, 100, 0)" style="fill-opacity:1.00" />
<rect height="0.090190" width="10.000000" x="410.000000" y="439.909810" fill="rgb(0, 100, 0)" style="fill-opacity:1.00" />
<!-- End 'T' -->
<!-- Begin 'T' -->
<rect height="15.996273" width="50.000000" x="450.000000" y="10.000000" fill="rgb(0, 100, 0)" style="fill-opacity:0.06" />
<rect height="99.976704" width="10.000000" x="470.000000" y="10.000000" fill="rgb(0, 100, 0)" style="fill-opacity:0.06" />
<!-- End 'T' -->
<!-- Begin 'G' -->
<ellipse cx="475.000000" cy="109.982946" rx="25.000000" ry="0.006242" fill="rgb(255, 165, 0)" style="fill-opacity:0.06" />
<ellipse cx="475.000000" cy="109.982946" rx="16.666667" ry="0.004162" fill="rgb(255, 255, 255)" style="fill-opacity:1.00" />
<rect height="0.006242" width="25.000000" x="475.000000" y="109.979825" fill="rgb(255, 255, 255)" style="fill-opacity:1.00" />
<rect height="0.001561" width="25.000000" x="475.000000" y="109.984507" fill="rgb(255, 165, 0)" style="fill-opacity:0.06" />
<rect height="0.004682" width="6.250000" x="493.750000" y="109.984507" fill="rgb(255, 165, 0)" style="fill-opacity:0.06" />
<!-- End 'G' -->
<!-- Begin 'A' -->
<polygon points=" 450.000000, 109.994938, 471.000000, 109.989189, 479.000000, 109.989189, 500.000000, 109.994938, 492.500000, 109.994938, 486.250000, 109.993501, 463.750000, 109.993501, 457.500000, 109.994938" fill="rgb(178, 34, 34)" style="fill-opacity:0.06" />
<!-- End 'A' -->
<!-- Begin 'C' -->
<ellipse cx="475.000000" cy="109.997469" rx="25.000000" ry="0.002531" fill="rgb(0, 0, 128)" style="fill-opacity:0.06" />
<ellipse cx="475.000000" cy="109.997469" rx="16.666667" ry="0.001687" fill="rgb(255, 255, 255)" style="fill-opacity:1.00" />
<rect height="0.002531" width="25.000000" x="475.000000" y="109.996203" fill="rgb(255, 255, 255)" style="fill-opacity:1.00" />
<!-- End 'C' -->
<!-- Begin 'T' -->
<rect height="15.206991" width="50.000000" x="450.000000" y="120.000000" fill="rgb(0, 100, 0)" style="fill-opacity:0.10" />
<rect height="95.043693" width="10.000000" x="470.000000" y="120.000000" fill="rgb(0, 100, 0)" style="fill-opacity:0.10" />
<!-- End 'T' -->
<!-- Begin 'A' -->
<polygon points=" 450.000000, 219.975340, 471.000000, 215.043693, 479.000000, 215.043693, 500.000000, 219.975340, 492.500000, 219.975340, 486.250000, 218.742428, 463.750000, 218.742428, 457.500000, 219.975340" fill="rgb(178, 34, 34)" style="fill-opacity:0.10" />
<!-- End 'A' -->
<!-- Begin 'C' -->
<ellipse cx="475.000000" cy="219.987598" rx="25.000000" ry="0.012258" fill="rgb(0, 0, 128)" style="fill-opacity:0.10" />
<ellipse cx="475.000000" cy="219.987598" rx="16.666667" ry="0.008172" fill="rgb(255, 255, 255)" style="fill-opacity:1.00" />
<rect height="0.012258" width="25.000000" x="475.000000" y="219.981469" fill="rgb(255, 255, 255)" style="fill-opacity:1.00" />
<!-- End 'C' -->
<!-- Begin 'G' -->
<ellipse cx="475.000000" cy="219.999928" rx="25.000000" ry="0.000072" fill="rgb(255, 165, 0)" style="fill-opacity:0.10" />
<ellipse cx="475.000000" cy="219.999928" rx="16.666667" ry="0.000048" fill="rgb(255, 255, 255)" style="fill-opacity:1.00" />
<rect height="0.000072" width="25.000000" x="475.000000" y="219.999893" fill="rgb(255, 255, 255)" style="fill-opacity:1.00" />
<rect height="0.000018" width="25.000000" x="475.000000" y="219.999946" fill="rgb(255, 165, 0)" style="fill-opacity:0.10" />
<rect height="0.000054" width="6.250000" x="493.750000" y="219.999946" fill="rgb(255, 165, 0)" style="fill-opacity:0.10" />
<!-- End 'G' -->
<!-- Begin 'T' -->
<rect height="15.767271" width="50.000000" x="450.000000" y="230.000000" fill="rgb(0, 100, 0)" style="fill-opacity:0.84" />
<rect height="98.545443" width="10.000000" x="470.000000" y="230.000000" fill="rgb(0, 100, 0)" style="fill-opacity:0.84" />
<!-- End 'T' -->
<!-- Begin 'A' -->
<polygon points=" 450.000000, 329.911236, 471.000000, 328.545443, 479.000000, 328.545443, 500.000000, 329.911236, 492.500000, 329.911236, 486.250000, 329.569787, 463.750000, 329.569787, 457.500000, 329.911236" fill="rgb(178, 34, 34)" style="fill-opacity:0.84" />
<!-- End 'A' -->
<!-- Begin 'G' -->
<ellipse cx="475.000000" cy="329.939021" rx="25.000000" ry="0.027785" fill="rgb(255, 165, 0)" style="fill-opacity:0.84" />
<ellipse cx="475.000000" cy="329.939021" rx="16.666667" ry="0.018523" fill="rgb(255, 255, 255)" style="fill-opacity:1.00" />
<rect height="0.027785" width="25.000000" x="475.000000" y="329.925128" fill="rgb(255, 255, 255)" style="fill-opacity:1.00" />
<rect height="0.006946" width="25.000000" x="475.000000" y="329.945967" fill="rgb(255, 165, 0)" style="fill-opacity:0.84" />
<rect height="0.020839" width="6.250000" x="493.750000" y="329.945967" fill="rgb(255, 165, 0)" style="fill-opacity:0.84" />
<!-- End 'G' -->
<!-- Begin 'C' -->
<ellipse cx="475.000000" cy="329.983403" rx="25.000000" ry="0.016597" fill="rgb(0, 0, 128)" style="fill-opacity:0.84" />
<ellipse cx="475.000000" cy="329.983403" rx="16.666667" ry="0.011065" fill="rgb(255, 255, 255)" style="fill-opacity:1.00" />
<rect height="0.016597" width="25.000000" x="475.000000" y="329.975104" fill="rgb(255, 255, 255)" style="fill-opacity:1.00" />
<!-- End 'C' -->
<!-- Begin 'T' -->
<rect height="8.509846" width="50.000000" x="450.000000" y="340.000000" fill="rgb(0, 100, 0)" style="fill-opacity:0.00" />
<rect height="53.186538" width="10.000000" x="470.000000" y="340.000000" fill="rgb(0, 100, 0)" style="fill-opacity:0.00" />
<!-- End 'T' -->
<!-- Begin 'G' -->
<ellipse cx="475.000000" cy="405.753979" rx="25.000000" ry="12.567441" fill="rgb(255, 165, 0)" style="fill-opacity:0.00" />
<ellipse cx="475.000000" cy="405.753979" rx="16.666667" ry="8.378294" fill="rgb(255, 255, 255)" style="fill-opacity:1.00" />
<rect height="12.567441" width="25.000000" x="475.000000" y="399.470259" fill="rgb(255, 255, 255)" style="fill-opacity:1.00" />
<rect height="3.141860" width="25.000000" x="475.000000" y="408.895840" fill="rgb(255, 165, 0)" style="fill-opacity:0.00" />
<rect height="9.425581" width="6.250000" x="493.750000" y="408.895840" fill="rgb(255, 165, 0)" style="fill-opacity:0.00" />
<!-- End 'G' -->
<!-- Begin 'A' -->
<polygon points=" 450.000000, 433.060222, 471.000000, 418.321420, 479.000000, 418.321420, 500.000000, 433.060222, 492.500000, 433.060222, 486.250000, 429.375522, 463.750000, 429.375522, 457.500000, 433.060222" fill="rgb(178, 34, 34)" style="fill-opacity:0.00" />
<polygon points=" 475.000000, 421.269181, 467.000000, 426.164702, 482.000000, 426.164702" fill="rgb(255, 255, 255)" style="fill-opacity:1.00" />
<!-- End 'A' -->
<!-- Begin 'C' -->
<ellipse cx="475.000000" cy="436.530111" rx="25.000000" ry="3.469889" fill="rgb(0, 0, 128)" style="fill-opacity:0.00" />
<ellipse cx="475.000000" cy="436.530111" rx="16.666667" ry="2.313259" fill="rgb(255, 255, 255)" style="fill-opacity:1.00" />
<rect height="3.469889" width="25.000000" x="475.000000" y="434.795167" fill="rgb(255, 255, 255)" style="fill-opacity:1.00" />
<!-- End 'C' -->
<!-- Begin 'T' -->
<rect height="13.337224" width="50.000000" x="510.000000" y="10.000000" fill="rgb(0, 100, 0)" style="fill-opacity:0.02" />
<rect height="83.357652" width="10.000000" x="530.000000" y="10.000000" fill="rgb(0, 100, 0)" style="fill-opacity:0.02" />
<!-- End 'T' -->
<!-- Begin 'C' -->
<ellipse cx="535.000000" cy="100.950431" rx="25.000000" ry="7.592779" fill="rgb(0, 0, 128)" style="fill-opacity:0.02" />
<ellipse cx="535.000000" cy="100.950431" rx="16.666667" ry="5.061852" fill="rgb(255, 255, 255)" style="fill-opacity:1.00" />
<rect height="7.592779" width="25.000000" x="535.000000" y="97.154041" fill="rgb(255, 255, 255)" style="fill-opacity:1.00" />
<!-- End 'C' -->
<!-- Begin 'G' -->
<ellipse cx="535.000000" cy="109.112120" rx="25.000000" ry="0.568910" fill="rgb(255, 165, 0)" style="fill-opacity:0.02" />
<ellipse cx="535.000000" cy="109.112120" rx="16.666667" ry="0.379273" fill="rgb(255, 255, 255)" style="fill-opacity:1.00" />
<rect height="0.568910" width="25.000000" x="535.000000" y="108.827665" fill="rgb(255, 255, 255)" style="fill-opacity:1.00" />
<rect height="0.142228" width="25.000000" x="535.000000" y="109.254347" fill="rgb(255, 165, 0)" style="fill-opacity:0.02" />
<rect height="0.426683" width="6.250000" x="553.750000" y="109.254347" fill="rgb(255, 165, 0)" style="fill-opacity:0.02" />
<!-- End 'G' -->
<!-- Begin 'A' -->
<polygon points=" 510.000000, 110.000000, 531.000000, 109.681030, 539.000000, 109.681030, 560.000000, 110.000000, 552.500000, 110.000000, 546.250000, 109.920257, 523.750000, 109.920257, 517.500000, 110.000000" fill="rgb(178, 34, 34)" style="fill-opacity:0.02" />
<!-- End 'A' -->
<!-- Begin 'T' -->
<rect height="11.648944" width="50.000000" x="510.000000" y="120.000000" fill="rgb(0, 100, 0)" style="fill-opacity:0.00" />
<rect height="72.805903" width="10.000000" x="530.000000" y="120.000000" fill="rgb(0, 100, 0)" style="fill-opacity:0.00" />
<!-- End 'T' -->
<!-- Begin 'C' -->
<ellipse cx="535.000000" cy="206.295406" rx="25.000000" ry="13.489503" fill="rgb(0, 0, 128)" style="fill-opacity:0.00" />
<ellipse cx="535.000000" cy="206.295406" rx="16.666667" ry="8.993002" fill="rgb(255, 255, 255)" style="fill-opacity:1.00" />
<rect height="13.489503" width="25.000000" x="535.000000" y="199.550654" fill="rgb(255, 255, 255)" style="fill-opacity:1.00" />
<!-- End 'C' -->
<!-- Begin 'A' -->
<polygon points=" 510.000000, 219.999345, 531.000000, 219.784909, 539.000000, 219.784909, 560.000000, 219.999345, 552.500000, 219.999345, 546.250000, 219.945736, 523.750000, 219.945736, 517.500000, 219.999345" fill="rgb(178, 34, 34)" style="fill-opacity:0.00" />
<!-- End 'A' -->
<!-- Begin 'G' -->
<ellipse cx="535.000000" cy="219.999672" rx="25.000000" ry="0.000328" fill="rgb(255, 165, 0)" style="fill-opacity:0.00" />
<ellipse cx="535.000000" cy="219.999672" rx="16.666667" ry="0.000218" fill="rgb(255, 255, 255)" style="fill-opacity:1.00" />
<rect height="0.000328" width="25.000000" x="535.000000" y="219.999508" fill="rgb(255, 255, 255)" style="fill-opacity:1.00" />
<rect height="0.000082" width="25.000000" x="535.000000" y="219.999754" fill="rgb(255, 165, 0)" style="fill-opacity:0.00" />
<rect height="0.000246" width="6.250000" x="553.750000" y="219.999754" fill="rgb(255, 165, 0)" style="fill-opacity:0.00" />
<!-- End 'G' -->
<!-- Begin 'C' -->
<ellipse cx="535.000000" cy="269.010072" rx="25.000000" ry="39.010072" fill="rgb(0, 0, 128)" style="fill-opacity:0.00" />
<ellipse cx="535.000000" cy="269.010072" rx="16.666667" ry="26.006715" fill="rgb(255, 255, 255)" style="fill-opacity:1.00" />
<rect height="39.010072" width="25.000000" x="535.000000" y="249.505036" fill="rgb(255, 255, 255)" style="fill-opacity:1.00" />
<!-- End 'C' -->
<!-- Begin 'T' -->
<rect height="2.964029" width="50.000000" x="510.000000" y="308.020144" fill="rgb(0, 100, 0)" style="fill-opacity:0.00" />
<rect height="18.525183" width="10.000000" x="530.000000" y="308.020144" fill="rgb(0, 100, 0)" style="fill-opacity:0.00" />
<!-- End 'T' -->
<!-- Begin 'G' -->
<ellipse cx="535.000000" cy="328.220118" rx="25.000000" ry="1.674791" fill="rgb(255, 165, 0)" style="fill-opacity:0.00" />
<ellipse cx="535.000000" cy="328.220118" rx="16.666667" ry="1.116528" fill="rgb(255, 255, 255)" style="fill-opacity:1.00" />
<rect height="1.674791" width="25.000000" x="535.000000" y="327.382723" fill="rgb(255, 255, 255)" style="fill-opacity:1.00" />
<rect height="0.418698" width="25.000000" x="535.000000" y="328.638816" fill="rgb(255, 165, 0)" style="fill-opacity:0.00" />
<rect height="1.256093" width="6.250000" x="553.750000" y="328.638816" fill="rgb(255, 165, 0)" style="fill-opacity:0.00" />
<!-- End 'G' -->
<!-- Begin 'A' -->
<polygon points=" 510.000000, 330.000000, 531.000000, 329.894910, 539.000000, 329.894910, 560.000000, 330.000000, 552.500000, 330.000000, 546.250000, 329.973727, 523.750000, 329.973727, 517.500000, 330.000000" fill="rgb(178, 34, 34)" style="fill-opacity:0.00" />
<!-- End 'A' -->
<!-- Begin 'T' -->
<rect height="8.219313" width="50.000000" x="510.000000" y="340.000000" fill="rgb(0, 100, 0)" style="fill-opacity:0.98" />
<rect height="51.370709" width="10.000000" x="530.000000" y="340.000000" fill="rgb(0, 100, 0)" style="fill-opacity:0.98" />
<!-- End 'T' -->
<!-- Begin 'C' -->
<ellipse cx="535.000000" cy="403.774448" rx="25.000000" ry="12.403739" fill="rgb(0, 0, 128)" style="fill-opacity:0.98" />
<ellipse cx="535.000000" cy="403.774448" rx="16.666667" ry="8.269160" fill="rgb(255, 255, 255)" style="fill-opacity:1.00" />
<rect height="12.403739" width="25.000000" x="535.000000" y="397.572578" fill="rgb(255, 255, 255)" style="fill-opacity:1.00" />
<!-- End 'C' -->
<!-- Begin 'G' -->
<ellipse cx="535.000000" cy="423.244444" rx="25.000000" ry="7.066257" fill="rgb(255, 165, 0)" style="fill-opacity:0.98" />
<ellipse cx="535.000000" cy="423.244444" rx="16.666667" ry="4.710838" fill="rgb(255, 255, 255)" style="fill-opacity:1.00" />
<rect height="7.066257" width="25.000000" x="535.000000" y="419.711316" fill="rgb(255, 255, 255)" style="fill-opacity:1.00" />
<rect height="1.766564" width="25.000000" x="535.000000" y="425.011009" fill="rgb(255, 165, 0)" style="fill-opacity:0.98" />
<rect height="5.299693" width="6.250000" x="553.750000" y="425.011009" fill="rgb(255, 165, 0)" style="fill-opacity:0.98" />
<!-- End 'G' -->
<!-- Begin 'A' -->
<polygon points=" 510.000000, 440.000000, 531.000000, 430.310701, 539.000000, 430.310701, 560.000000, 440.000000, 552.500000, 440.000000, 546.250000, 437.577675, 523.750000, 437.577675, 517.500000, 440.000000" fill="rgb(178, 34, 34)" style="fill-opacity:0.98" />
<polygon points=" 535.000000, 432.248561, 527.000000, 435.124281, 542.000000, 435.124281" fill="rgb(255, 255, 255)" style="fill-opacity:1.00" />
<!-- End 'A' -->
<text x="310.000000" y="495">
IC = 9.29
</text>

</svg>
