<?xml version="1.0" encoding="UTF-8" standalone="yes"?>
                 <!DOCTYPE svg PUBLIC "-//W3C//DTD SVG 1.0//EN" "http://www.w3.org/TR/2001/REC-SVG-20010904/DTD/svg10.dtd">
                 <svg height="500" width="720" xmlns="http://www.w3.org/2000/svg" xmlns:xlink="http://www.w3.org/1999/xlink">
                 <line x1="85" y1="450" x2="687" y2="450" style="stroke:rgb(99,99,99);stroke-width:2" />
<rect height="7.000000" width="2.000000" x="85.000000" y="450.000000" fill="rgb(0, 0, 0)" style="fill-opacity:1.00" />
<text x="107.000000" y="470">
1
</text>
<rect height="7.000000" width="2.000000" x="145.000000" y="450.000000" fill="rgb(0, 0, 0)" style="fill-opacity:1.00" />
<text x="167.000000" y="470">
2
</text>
<rect height="7.000000" width="2.000000" x="205.000000" y="450.000000" fill="rgb(0, 0, 0)" style="fill-opacity:1.00" />
<text x="227.000000" y="470">
3
</text>
<rect height="7.000000" width="2.000000" x="265.000000" y="450.000000" fill="rgb(0, 0, 0)" style="fill-opacity:1.00" />
<text x="287.000000" y="470">
4
</text>
<rect height="7.000000" width="2.000000" x="325.000000" y="450.000000" fill="rgb(0, 0, 0)" style="fill-opacity:1.00" />
<text x="347.000000" y="470">
5
</text>
<rect height="7.000000" width="2.000000" x="385.000000" y="450.000000" fill="rgb(0, 0, 0)" style="fill-opacity:1.00" />
<text x="407.000000" y="470">
6
</text>
<rect height="7.000000" width="2.000000" x="445.000000" y="450.000000" fill="rgb(0, 0, 0)" style="fill-opacity:1.00" />
<text x="467.000000" y="470">
7
</text>
<rect height="7.000000" width="2.000000" x="505.000000" y="450.000000" fill="rgb(0, 0, 0)" style="fill-opacity:1.00" />
<text x="527.000000" y="470">
8
</text>
<rect height="7.000000" width="2.000000" x="565.000000" y="450.000000" fill="rgb(0, 0, 0)" style="fill-opacity:1.00" />
<text x="587.000000" y="470">
9
</text>
<rect height="7.000000" width="2.000000" x="625.000000" y="450.000000" fill="rgb(0, 0, 0)" style="fill-opacity:1.00" />
<text x="647.000000" y="470">
10
</text>
<rect height="7.000000" width="2.000000" x="685.000000" y="450.000000" fill="rgb(0, 0, 0)" style="fill-opacity:1.00" />
<!-- Begin 'A' -->
<polygon points=" 10.000000, 110.000000, 35.200000, 10.000000, 44.800000, 10.000000, 70.000000, 110.000000, 61.000000, 110.000000, 53.500000, 85.000000, 26.500000, 85.000000, 19.000000, 110.000000" fill="rgb(178, 34, 34)" style="fill-opacity:1.00" />
<polygon points=" 40.000000, 30.000000, 30.400000, 69.000000, 48.400000, 69.000000" fill="rgb(255, 255, 255)" style="fill-opacity:1.00" />
<!-- End 'A' -->
<!-- Begin 'C' -->
<ellipse cx="40.000000" cy="170.000000" rx="30.000000" ry="50.000000" fill="rgb(0, 0, 128)" style="fill-opacity:1.00" />
<ellipse cx="40.000000" cy="170.000000" rx="20.000000" ry="33.333333" fill="rgb(255, 255, 255)" style="fill-opacity:1.00" />
<rect height="50.000000" width="30.000000" x="40.000000" y="145.000000" fill="rgb(255, 255, 255)" style="fill-opacity:1.00" />
<!-- End 'C' -->
<!-- Begin 'G' -->
<ellipse cx="40.000000" cy="280.000000" rx="30.000000" ry="50.000000" fill="rgb(255, 165, 0)" style="fill-opacity:1.00" />
<ellipse cx="40.000000" cy="280.000000" rx="20.000000" ry="33.333333" fill="rgb(255, 255, 255)" style="fill-opacity:1.00" />
<rect height="50.000000" width="30.000000" x="40.000000" y="255.000000" fill="rgb(255, 255, 255)" style="fill-opacity:1.00" />
<rect height="12.500000" width="30.000000" x="40.000000" y="292.500000" fill="rgb(255, 165, 0)" style="fill-opacity:1.00" />
<rect height="37.500000" width="7.500000" x="62.500000" y="292.500000" fill="rgb(255, 165, 0)" style="fill-opacity:1.00" />
<!-- End 'G' -->
<!-- Begin 'T' -->
<rect height="16.000000" width="60.000000" x="10.000000" y="340.000000" fill="rgb(0, 100, 0)" style="fill-opacity:1.00" />
<rect height="100.000000" width="12.000000" x="34.000000" y="340.000000" fill="rgb(0, 100, 0)" style="fill-opacity:1.00" />
<!-- End 'T' -->
<!-- Begin 'G' -->
<ellipse cx="115.000000" cy="24.525712" rx="25.000000" ry="14.525712" fill="rgb(255, 165, 0)" style="fill-opacity:0.30" />
<ellipse cx="115.000000" cy="24.525712" rx="16.666667" ry="9.683808" fill="rgb(255, 255, 255)" style="fill-opacity:1.00" />
<rect height="14.525712" width="25.000000" x="115.000000" y="17.262856" fill="rgb(255, 255, 255)" style="fill-opacity:1.00" />
<rect height="3.631428" width="25.000000" x="115.000000" y="28.157141" fill="rgb(255, 165, 0)" style="fill-opacity:0.30" />
<rect height="10.894284" width="6.250000" x="133.750000" y="28.157141" fill="rgb(255, 165, 0)" style="fill-opacity:0.30" />
<!-- End 'G' -->
<!-- Begin 'A' -->
<polygon points=" 90.000000, 67.796461, 111.000000, 39.051425, 119.000000, 39.051425, 140.000000, 67.796461, 132.500000, 67.796461, 126.250000, 60.610202, 103.750000, 60.610202, 97.500000, 67.796461" fill="rgb(178, 34, 34)" style="fill-opacity:0.30" />
<polygon points=" 115.000000, 44.800432, 107.000000, 55.298447, 122.000000, 55.298447" fill="rgb(255, 255, 255)" style="fill-opacity:1.00" />
<!-- End 'A' -->
<!-- Begin 'T' -->
<rect height="4.045909" width="50.000000" x="90.000000" y="67.796461" fill="rgb(0, 100, 0)" style="fill-opacity:0.30" />
<rect height="25.286930" width="10.000000" x="110.000000" y="67.796461" fill="rgb(0, 100, 0)" style="fill-opacity:0.30" />
<!-- End 'T' -->
<!-- Begin 'C' -->
<ellipse cx="115.000000" cy="101.541695" rx="25.000000" ry="8.458305" fill="rgb(0, 0, 128)" style="fill-opacity:0.30" />
<ellipse cx="115.000000" cy="101.541695" rx="16.666667" ry="5.638870" fill="rgb(255, 255, 255)" style="fill-opacity:1.00" />
<rect height="8.458305" width="25.000000" x="115.000000" y="97.312543" fill="rgb(255, 255, 255)" style="fill-opacity:1.00" />
<!-- End 'C' -->
<!-- Begin 'A' -->
<polygon points=" 90.000000, 160.359440, 111.000000, 120.000000, 119.000000, 120.000000, 140.000000, 160.359440, 132.500000, 160.359440, 126.250000, 150.269580, 103.750000, 150.269580, 97.500000, 160.359440" fill="rgb(178, 34, 34)" style="fill-opacity:0.20" />
<polygon points=" 115.000000, 128.071888, 107.000000, 143.215664, 122.000000, 143.215664" fill="rgb(255, 255, 255)" style="fill-opacity:1.00" />
<!-- End 'A' -->
<!-- Begin 'T' -->
<rect height="5.429350" width="50.000000" x="90.000000" y="160.359440" fill="rgb(0, 100, 0)" style="fill-opacity:0.20" />
<rect height="33.933439" width="10.000000" x="110.000000" y="160.359440" fill="rgb(0, 100, 0)" style="fill-opacity:0.20" />
<!-- End 'T' -->
<!-- Begin 'C' -->
<ellipse cx="115.000000" cy="205.298254" rx="25.000000" ry="11.005375" fill="rgb(0, 0, 128)" style="fill-opacity:0.20" />
<ellipse cx="115.000000" cy="205.298254" rx="16.666667" ry="7.336916" fill="rgb(255, 255, 255)" style="fill-opacity:1.00" />
<rect height="11.005375" width="25.000000" x="115.000000" y="199.795567" fill="rgb(255, 255, 255)" style="fill-opacity:1.00" />
<!-- End 'C' -->
<!-- Begin 'G' -->
<ellipse cx="115.000000" cy="218.151814" rx="25.000000" ry="1.848186" fill="rgb(255, 165, 0)" style="fill-opacity:0.20" />
<ellipse cx="115.000000" cy="218.151814" rx="16.666667" ry="1.232124" fill="rgb(255, 255, 255)" style="fill-opacity:1.00" />
<rect height="1.848186" width="25.000000" x="115.000000" y="217.227722" fill="rgb(255, 255, 255)" style="fill-opacity:1.00" />
<rect height="0.462046" width="25.000000" x="115.000000" y="218.613861" fill="rgb(255, 165, 0)" style="fill-opacity:0.20" />
<rect height="1.386139" width="6.250000" x="133.750000" y="218.613861" fill="rgb(255, 165, 0)" style="fill-opacity:0.20" />
<!-- End 'G' -->
<!-- Begin 'A' -->
<polygon points=" 90.000000, 278.754588, 111.000000, 230.000000, 119.000000, 230.000000, 140.000000, 278.754588, 132.500000, 278.754588, 126.250000, 266.565941, 103.750000, 266.565941, 97.500000, 278.754588" fill="rgb(178, 34, 34)" style="fill-opacity:0.20" />
<polygon points=" 115.000000, 239.750918, 107.000000, 258.252753, 122.000000, 258.252753" fill="rgb(255, 255, 255)" style="fill-opacity:1.00" />
<!-- End 'A' -->
<!-- Begin 'G' -->
<ellipse cx="115.000000" cy="288.933418" rx="25.000000" ry="10.178830" fill="rgb(255, 165, 0)" style="fill-opacity:0.20" />
<ellipse cx="115.000000" cy="288.933418" rx="16.666667" ry="6.785887" fill="rgb(255, 255, 255)" style="fill-opacity:1.00" />
<rect height="10.178830" width="25.000000" x="115.000000" y="283.844003" fill="rgb(255, 255, 255)" style="fill-opacity:1.00" />
<rect height="2.544708" width="25.000000" x="115.000000" y="291.478126" fill="rgb(255, 165, 0)" style="fill-opacity:0.20" />
<rect height="7.634123" width="6.250000" x="133.750000" y="291.478126" fill="rgb(255, 165, 0)" style="fill-opacity:0.20" />
<!-- End 'G' -->
<!-- Begin 'C' -->
<ellipse cx="115.000000" cy="307.084753" rx="25.000000" ry="7.972505" fill="rgb(0, 0, 128)" style="fill-opacity:0.20" />
<ellipse cx="115.000000" cy="307.084753" rx="16.666667" ry="5.315003" fill="rgb(255, 255, 255)" style="fill-opacity:1.00" />
<rect height="7.972505" width="25.000000" x="115.000000" y="303.098501" fill="rgb(255, 255, 255)" style="fill-opacity:1.00" />
<!-- End 'C' -->
<!-- Begin 'T' -->
<rect height="2.390839" width="50.000000" x="90.000000" y="315.057258" fill="rgb(0, 100, 0)" style="fill-opacity:0.20" />
<rect height="14.942742" width="10.000000" x="110.000000" y="315.057258" fill="rgb(0, 100, 0)" style="fill-opacity:0.20" />
<!-- End 'T' -->
<!-- Begin 'T' -->
<rect height="4.938138" width="50.000000" x="90.000000" y="340.000000" fill="rgb(0, 100, 0)" style="fill-opacity:0.30" />
<rect height="30.863362" width="10.000000" x="110.000000" y="340.000000" fill="rgb(0, 100, 0)" style="fill-opacity:0.30" />
<!-- End 'T' -->
<!-- Begin 'G' -->
<ellipse cx="115.000000" cy="384.420361" rx="25.000000" ry="13.556999" fill="rgb(255, 165, 0)" style="fill-opacity:0.30" />
<ellipse cx="115.000000" cy="384.420361" rx="16.666667" ry="9.038000" fill="rgb(255, 255, 255)" style="fill-opacity:1.00" />
<rect height="13.556999" width="25.000000" x="115.000000" y="377.641862" fill="rgb(255, 255, 255)" style="fill-opacity:1.00" />
<rect height="3.389250" width="25.000000" x="115.000000" y="387.809611" fill="rgb(255, 165, 0)" style="fill-opacity:0.30" />
<rect height="10.167750" width="6.250000" x="133.750000" y="387.809611" fill="rgb(255, 165, 0)" style="fill-opacity:0.30" />
<!-- End 'G' -->
<!-- Begin 'A' -->
<polygon points=" 90.000000, 421.328078, 111.000000, 397.977361, 119.000000, 397.977361, 140.000000, 421.328078, 132.500000, 421.328078, 126.250000, 415.490399, 103.750000, 415.490399, 97.500000, 421.328078" fill="rgb(178, 34, 34)" style="fill-opacity:0.30" />
<polygon points=" 115.000000, 402.647504, 107.000000, 410.987791, 122.000000, 410.987791" fill="rgb(255, 255, 255)" style="fill-opacity:1.00" />
<!-- End 'A' -->
<!-- Begin 'C' -->
<ellipse cx="115.000000" cy="430.664039" rx="25.000000" ry="9.335961" fill="rgb(0, 0, 128)" style="fill-opacity:0.30" />
<ellipse cx="115.000000" cy="430.664039" rx="16.666667" ry="6.223974" fill="rgb(255, 255, 255)" style="fill-opacity:1.00" />
<rect height="9.335961" width="25.000000" x="115.000000" y="425.996059" fill="rgb(255, 255, 255)" style="fill-opacity:1.00" />
<!-- End 'C' -->
<!-- Begin 'C' -->
<ellipse cx="175.000000" cy="27.149135" rx="25.000000" ry="17.149135" fill="rgb(0, 0, 128)" style="fill-opacity:0.33" />
<ellipse cx="175.000000" cy="27.149135" rx="16.666667" ry="11.432757" fill="rgb(255, 255, 255)" style="fill-opacity:1.00" />
<rect height="17.149135" width="25.000000" x="175.000000" y="18.574567" fill="rgb(255, 255, 255)" style="fill-opacity:1.00" />
<!-- End 'C' -->
<!-- Begin 'G' -->
<ellipse cx="175.000000" cy="58.751901" rx="25.000000" ry="14.453632" fill="rgb(255, 165, 0)" style="fill-opacity:0.33" />
<ellipse cx="175.000000" cy="58.751901" rx="16.666667" ry="9.635754" fill="rgb(255, 255, 255)" style="fill-opacity:1.00" />
<rect height="14.453632" width="25.000000" x="175.000000" y="51.525085" fill="rgb(255, 255, 255)" style="fill-opacity:1.00" />
<rect height="3.613408" width="25.000000" x="175.000000" y="62.365309" fill="rgb(255, 165, 0)" style="fill-opacity:0.33" />
<rect height="10.840224" width="6.250000" x="193.750000" y="62.365309" fill="rgb(255, 165, 0)" style="fill-opacity:0.33" />
<!-- End 'G' -->
<!-- Begin 'T' -->
<rect height="3.202471" width="50.000000" x="150.000000" y="73.205533" fill="rgb(0, 100, 0)" style="fill-opacity:0.33" />
<rect height="20.015444" width="10.000000" x="170.000000" y="73.205533" fill="rgb(0, 100, 0)" style="fill-opacity:0.33" />
<!-- End 'T' -->
<!-- Begin 'A' -->
<polygon points=" 150.000000, 110.000000, 171.000000, 93.220977, 179.000000, 93.220977, 200.000000, 110.000000, 192.500000, 110.000000, 186.250000, 105.805244, 163.750000, 105.805244, 157.500000, 110.000000" fill="rgb(178, 34, 34)" style="fill-opacity:0.33" />
<polygon points=" 175.000000, 96.576782, 167.000000, 102.288391, 182.000000, 102.288391" fill="rgb(255, 255, 255)" style="fill-opacity:1.00" />
<!-- End 'A' -->
<!-- Begin 'C' -->
<ellipse cx="175.000000" cy="140.210084" rx="25.000000" ry="20.210084" fill="rgb(0, 0, 128)" style="fill-opacity:0.18" />
<ellipse cx="175.000000" cy="140.210084" rx="16.666667" ry="13.473389" fill="rgb(255, 255, 255)" style="fill-opacity:1.00" />
<rect height="20.210084" width="25.000000" x="175.000000" y="130.105042" fill="rgb(255, 255, 255)" style="fill-opacity:1.00" />
<!-- End 'C' -->
<!-- Begin 'T' -->
<rect height="5.380475" width="50.000000" x="150.000000" y="160.420167" fill="rgb(0, 100, 0)" style="fill-opacity:0.18" />
<rect height="33.627969" width="10.000000" x="170.000000" y="160.420167" fill="rgb(0, 100, 0)" style="fill-opacity:0.18" />
<!-- End 'T' -->
<!-- Begin 'A' -->
<polygon points=" 150.000000, 217.716504, 171.000000, 194.048136, 179.000000, 194.048136, 200.000000, 217.716504, 192.500000, 217.716504, 186.250000, 211.799412, 163.750000, 211.799412, 157.500000, 217.716504" fill="rgb(178, 34, 34)" style="fill-opacity:0.18" />
<polygon points=" 175.000000, 198.781810, 167.000000, 207.249157, 182.000000, 207.249157" fill="rgb(255, 255, 255)" style="fill-opacity:1.00" />
<!-- End 'A' -->
<!-- Begin 'G' -->
<ellipse cx="175.000000" cy="218.858252" rx="25.000000" ry="1.141748" fill="rgb(255, 165, 0)" style="fill-opacity:0.18" />
<ellipse cx="175.000000" cy="218.858252" rx="16.666667" ry="0.761165" fill="rgb(255, 255, 255)" style="fill-opacity:1.00" />
<rect height="1.141748" width="25.000000" x="175.000000" y="218.287378" fill="rgb(255, 255, 255)" style="fill-opacity:1.00" />
<rect height="0.285437" width="25.000000" x="175.000000" y="219.143689" fill="rgb(255, 165, 0)" style="fill-opacity:0.18" />
<rect height="0.856311" width="6.250000" x="193.750000" y="219.143689" fill="rgb(255, 165, 0)" style="fill-opacity:0.18" />
<!-- End 'G' -->
<!-- Begin 'C' -->
<ellipse cx="175.000000" cy="251.481976" rx="25.000000" ry="21.481976" fill="rgb(0, 0, 128)" style="fill-opacity:0.22" />
<ellipse cx="175.000000" cy="251.481976" rx="16.666667" ry="14.321317" fill="rgb(255, 255, 255)" style="fill-opacity:1.00" />
<rect height="21.481976" width="25.000000" x="175.000000" y="240.740988" fill="rgb(255, 255, 255)" style="fill-opacity:1.00" />
<!-- End 'C' -->
<!-- Begin 'T' -->
<rect height="3.646664" width="50.000000" x="150.000000" y="272.963951" fill="rgb(0, 100, 0)" style="fill-opacity:0.22" />
<rect height="22.791647" width="10.000000" x="170.000000" y="272.963951" fill="rgb(0, 100, 0)" style="fill-opacity:0.22" />
<!-- End 'T' -->
<!-- Begin 'G' -->
<ellipse cx="175.000000" cy="305.468278" rx="25.000000" ry="9.712680" fill="rgb(255, 165, 0)" style="fill-opacity:0.22" />
<ellipse cx="175.000000" cy="305.468278" rx="16.666667" ry="6.475120" fill="rgb(255, 255, 255)" style="fill-opacity:1.00" />
<rect height="9.712680" width="25.000000" x="175.000000" y="300.611938" fill="rgb(255, 255, 255)" style="fill-opacity:1.00" />
<rect height="2.428170" width="25.000000" x="175.000000" y="307.896448" fill="rgb(255, 165, 0)" style="fill-opacity:0.22" />
<rect height="7.284510" width="6.250000" x="193.750000" y="307.896448" fill="rgb(255, 165, 0)" style="fill-opacity:0.22" />
<!-- End 'G' -->
<!-- Begin 'A' -->
<polygon points=" 150.000000, 330.000000, 171.000000, 315.180958, 179.000000, 315.180958, 200.000000, 330.000000, 192.500000, 330.000000, 186.250000, 326.295240, 163.750000, 326.295240, 157.500000, 330.000000" fill="rgb(178, 34, 34)" style="fill-opacity:0.22" />
<polygon points=" 175.000000, 318.144766, 167.000000, 323.072383, 182.000000, 323.072383" fill="rgb(255, 255, 255)" style="fill-opacity:1.00" />
<!-- End 'A' -->
<!-- Begin 'T' -->
<rect height="5.813504" width="50.000000" x="150.000000" y="340.000000" fill="rgb(0, 100, 0)" style="fill-opacity:0.27" />
<rect height="36.334400" width="10.000000" x="170.000000" y="340.000000" fill="rgb(0, 100, 0)" style="fill-opacity:0.27" />
<!-- End 'T' -->
<!-- Begin 'C' -->
<ellipse cx="175.000000" cy="392.005977" rx="25.000000" ry="15.671577" fill="rgb(0, 0, 128)" style="fill-opacity:0.27" />
<ellipse cx="175.000000" cy="392.005977" rx="16.666667" ry="10.447718" fill="rgb(255, 255, 255)" style="fill-opacity:1.00" />
<rect height="15.671577" width="25.000000" x="175.000000" y="384.170189" fill="rgb(255, 255, 255)" style="fill-opacity:1.00" />
<!-- End 'C' -->
<!-- Begin 'G' -->
<ellipse cx="175.000000" cy="416.237449" rx="25.000000" ry="8.559896" fill="rgb(255, 165, 0)" style="fill-opacity:0.27" />
<ellipse cx="175.000000" cy="416.237449" rx="16.666667" ry="5.706597" fill="rgb(255, 255, 255)" style="fill-opacity:1.00" />
<rect height="8.559896" width="25.000000" x="175.000000" y="411.957501" fill="rgb(255, 255, 255)" style="fill-opacity:1.00" />
<rect height="2.139974" width="25.000000" x="175.000000" y="418.377423" fill="rgb(255, 165, 0)" style="fill-opacity:0.27" />
<rect height="6.419922" width="6.250000" x="193.750000" y="418.377423" fill="rgb(255, 165, 0)" style="fill-opacity:0.27" />
<!-- End 'G' -->
<!-- Begin 'A' -->
<polygon points=" 150.000000, 440.000000, 171.000000, 424.797345, 179.000000, 424.797345, 200.000000, 440.000000, 192.500000, 440.000000, 186.250000, 436.199336, 163.750000, 436.199336, 157.500000, 440.000000" fill="rgb(178, 34, 34)" style="fill-opacity:0.27" />
<polygon points=" 175.000000, 427.837876, 167.000000, 432.918938, 182.000000, 432.918938" fill="rgb(255, 255, 255)" style="fill-opacity:1.00" />
<!-- End 'A' -->
<!-- Begin 'T' -->
<rect height="12.500972" width="50.000000" x="210.000000" y="10.000000" fill="rgb(0, 100, 0)" style="fill-opacity:0.17" />
<rect height="78.131076" width="10.000000" x="230.000000" y="10.000000" fill="rgb(0, 100, 0)" style="fill-opacity:0.17" />
<!-- End 'T' -->
<!-- Begin 'C' -->
<ellipse cx="235.000000" cy="97.200840" rx="25.000000" ry="9.069764" fill="rgb(0, 0, 128)" style="fill-opacity:0.17" />
<ellipse cx="235.000000" cy="97.200840" rx="16.666667" ry="6.046510" fill="rgb(255, 255, 255)" style="fill-opacity:1.00" />
<rect height="9.069764" width="25.000000" x="235.000000" y="92.665958" fill="rgb(255, 255, 255)" style="fill-opacity:1.00" />
<!-- End 'C' -->
<!-- Begin 'A' -->
<polygon points=" 210.000000, 109.639881, 231.000000, 106.270604, 239.000000, 106.270604, 260.000000, 109.639881, 252.500000, 109.639881, 246.250000, 108.797562, 223.750000, 108.797562, 217.500000, 109.639881" fill="rgb(178, 34, 34)" style="fill-opacity:0.17" />
<!-- End 'A' -->
<!-- Begin 'G' -->
<ellipse cx="235.000000" cy="109.819941" rx="25.000000" ry="0.180059" fill="rgb(255, 165, 0)" style="fill-opacity:0.17" />
<ellipse cx="235.000000" cy="109.819941" rx="16.666667" ry="0.120040" fill="rgb(255, 255, 255)" style="fill-opacity:1.00" />
<rect height="0.180059" width="25.000000" x="235.000000" y="109.729911" fill="rgb(255, 255, 255)" style="fill-opacity:1.00" />
<rect height="0.045015" width="25.000000" x="235.000000" y="109.864955" fill="rgb(255, 165, 0)" style="fill-opacity:0.17" />
<rect height="0.135045" width="6.250000" x="253.750000" y="109.864955" fill="rgb(255, 165, 0)" style="fill-opacity:0.17" />
<!-- End 'G' -->
<!-- Begin 'T' -->
<rect height="12.411071" width="50.000000" x="210.000000" y="120.000000" fill="rgb(0, 100, 0)" style="fill-opacity:0.37" />
<rect height="77.569193" width="10.000000" x="230.000000" y="120.000000" fill="rgb(0, 100, 0)" style="fill-opacity:0.37" />
<!-- End 'T' -->
<!-- Begin 'C' -->
<ellipse cx="235.000000" cy="205.308624" rx="25.000000" ry="7.739431" fill="rgb(0, 0, 128)" style="fill-opacity:0.37" />
<ellipse cx="235.000000" cy="205.308624" rx="16.666667" ry="5.159621" fill="rgb(255, 255, 255)" style="fill-opacity:1.00" />
<rect height="7.739431" width="25.000000" x="235.000000" y="201.438909" fill="rgb(255, 255, 255)" style="fill-opacity:1.00" />
<!-- End 'C' -->
<!-- Begin 'A' -->
<polygon points=" 210.000000, 219.961376, 231.000000, 213.048056, 239.000000, 213.048056, 260.000000, 219.961376, 252.500000, 219.961376, 246.250000, 218.233046, 223.750000, 218.233046, 217.500000, 219.961376" fill="rgb(178, 34, 34)" style="fill-opacity:0.37" />
<!-- End 'A' -->
<!-- Begin 'G' -->
<ellipse cx="235.000000" cy="219.980688" rx="25.000000" ry="0.019312" fill="rgb(255, 165, 0)" style="fill-opacity:0.37" />
<ellipse cx="235.000000" cy="219.980688" rx="16.666667" ry="0.012875" fill="rgb(255, 255, 255)" style="fill-opacity:1.00" />
<rect height="0.019312" width="25.000000" x="235.000000" y="219.971032" fill="rgb(255, 255, 255)" style="fill-opacity:1.00" />
<rect height="0.004828" width="25.000000" x="235.000000" y="219.985516" fill="rgb(255, 165, 0)" style="fill-opacity:0.37" />
<rect height="0.014484" width="6.250000" x="253.750000" y="219.985516" fill="rgb(255, 165, 0)" style="fill-opacity:0.37" />
<!-- End 'G' -->
<!-- Begin 'T' -->
<rect height="11.459122" width="50.000000" x="210.000000" y="230.000000" fill="rgb(0, 100, 0)" style="fill-opacity:0.19" />
<rect height="71.619513" width="10.000000" x="230.000000" y="230.000000" fill="rgb(0, 100, 0)" style="fill-opacity:0.19" />
<!-- End 'T' -->
<!-- Begin 'C' -->
<ellipse cx="235.000000" cy="312.556005" rx="25.000000" ry="10.936492" fill="rgb(0, 0, 128)" style="fill-opacity:0.19" />
<ellipse cx="235.000000" cy="312.556005" rx="16.666667" ry="7.290995" fill="rgb(255, 255, 255)" style="fill-opacity:1.00" />
<rect height="10.936492" width="25.000000" x="235.000000" y="307.087759" fill="rgb(255, 255, 255)" style="fill-opacity:1.00" />
<!-- End 'C' -->
<!-- Begin 'A' -->
<polygon points=" 210.000000, 328.974645, 231.000000, 323.492498, 239.000000, 323.492498, 260.000000, 328.974645, 252.500000, 328.974645, 246.250000, 327.604108, 223.750000, 327.604108, 217.500000, 328.974645" fill="rgb(178, 34, 34)" style="fill-opacity:0.19" />
<!-- End 'A' -->
<!-- Begin 'G' -->
<ellipse cx="235.000000" cy="329.487323" rx="25.000000" ry="0.512677" fill="rgb(255, 165, 0)" style="fill-opacity:0.19" />
<ellipse cx="235.000000" cy="329.487323" rx="16.666667" ry="0.341785" fill="rgb(255, 255, 255)" style="fill-opacity:1.00" />
<rect height="0.512677" width="25.000000" x="235.000000" y="329.230984" fill="rgb(255, 255, 255)" style="fill-opacity:1.00" />
<rect height="0.128169" width="25.000000" x="235.000000" y="329.615492" fill="rgb(255, 165, 0)" style="fill-opacity:0.19" />
<rect height="0.384508" width="6.250000" x="253.750000" y="329.615492" fill="rgb(255, 165, 0)" style="fill-opacity:0.19" />
<!-- End 'G' -->
<!-- Begin 'T' -->
<rect height="13.619926" width="50.000000" x="210.000000" y="340.000000" fill="rgb(0, 100, 0)" style="fill-opacity:0.27" />
<rect height="85.124535" width="10.000000" x="230.000000" y="340.000000" fill="rgb(0, 100, 0)" style="fill-opacity:0.27" />
<!-- End 'T' -->
<!-- Begin 'C' -->
<ellipse cx="235.000000" cy="429.555908" rx="25.000000" ry="4.431373" fill="rgb(0, 0, 128)" style="fill-opacity:0.27" />
<ellipse cx="235.000000" cy="429.555908" rx="16.666667" ry="2.954248" fill="rgb(255, 255, 255)" style="fill-opacity:1.00" />
<rect height="4.431373" width="25.000000" x="235.000000" y="427.340222" fill="rgb(255, 255, 255)" style="fill-opacity:1.00" />
<!-- End 'C' -->
<!-- Begin 'A' -->
<polygon points=" 210.000000, 439.621923, 231.000000, 433.987280, 239.000000, 433.987280, 260.000000, 439.621923, 252.500000, 439.621923, 246.250000, 438.213263, 223.750000, 438.213263, 217.500000, 439.621923" fill="rgb(178, 34, 34)" style="fill-opacity:0.27" />
<!-- End 'A' -->
<!-- Begin 'G' -->
<ellipse cx="235.000000" cy="439.810962" rx="25.000000" ry="0.189038" fill="rgb(255, 165, 0)" style="fill-opacity:0.27" />
<ellipse cx="235.000000" cy="439.810962" rx="16.666667" ry="0.126026" fill="rgb(255, 255, 255)" style="fill-opacity:1.00" />
<rect height="0.189038" width="25.000000" x="235.000000" y="439.716442" fill="rgb(255, 255, 255)" style="fill-opacity:1.00" />
<rect height="0.047260" width="25.000000" x="235.000000" y="439.858221" fill="rgb(255, 165, 0)" style="fill-opacity:0.27" />
<rect height="0.141779" width="6.250000" x="253.750000" y="439.858221" fill="rgb(255, 165, 0)" style="fill-opacity:0.27" />
<!-- End 'G' -->
<!-- Begin 'A' -->
<polygon points=" 270.000000, 93.225335, 291.000000, 10.000000, 299.000000, 10.000000, 320.000000, 93.225335, 312.500000, 93.225335, 306.250000, 72.419001, 283.750000, 72.419001, 277.500000, 93.225335" fill="rgb(178, 34, 34)" style="fill-opacity:0.06" />
<polygon points=" 295.000000, 26.645067, 287.000000, 58.935201, 302.000000, 58.935201" fill="rgb(255, 255, 255)" style="fill-opacity:1.00" />
<!-- End 'A' -->
<!-- Begin 'C' -->
<ellipse cx="295.000000" cy="99.925314" rx="25.000000" ry="6.699978" fill="rgb(0, 0, 128)" style="fill-opacity:0.06" />
<ellipse cx="295.000000" cy="99.925314" rx="16.666667" ry="4.466652" fill="rgb(255, 255, 255)" style="fill-opacity:1.00" />
<rect height="6.699978" width="25.000000" x="295.000000" y="96.575324" fill="rgb(255, 255, 255)" style="fill-opacity:1.00" />
<!-- End 'C' -->
<!-- Begin 'G' -->
<ellipse cx="295.000000" cy="107.612828" rx="25.000000" ry="0.987536" fill="rgb(255, 165, 0)" style="fill-opacity:0.06" />
<ellipse cx="295.000000" cy="107.612828" rx="16.666667" ry="0.658357" fill="rgb(255, 255, 255)" style="fill-opacity:1.00" />
<rect height="0.987536" width="25.000000" x="295.000000" y="107.119060" fill="rgb(255, 255, 255)" style="fill-opacity:1.00" />
<rect height="0.246884" width="25.000000" x="295.000000" y="107.859711" fill="rgb(255, 165, 0)" style="fill-opacity:0.06" />
<rect height="0.740652" width="6.250000" x="313.750000" y="107.859711" fill="rgb(255, 165, 0)" style="fill-opacity:0.06" />
<!-- End 'G' -->
<!-- Begin 'T' -->
<rect height="0.223942" width="50.000000" x="270.000000" y="108.600363" fill="rgb(0, 100, 0)" style="fill-opacity:0.06" />
<rect height="1.399637" width="10.000000" x="290.000000" y="108.600363" fill="rgb(0, 100, 0)" style="fill-opacity:0.06" />
<!-- End 'T' -->
<!-- Begin 'A' -->
<polygon points=" 270.000000, 195.023243, 291.000000, 120.000000, 299.000000, 120.000000, 320.000000, 195.023243, 312.500000, 195.023243, 306.250000, 176.267433, 283.750000, 176.267433, 277.500000, 195.023243" fill="rgb(178, 34, 34)" style="fill-opacity:0.15" />
<polygon points=" 295.000000, 135.004649, 287.000000, 164.013946, 302.000000, 164.013946" fill="rgb(255, 255, 255)" style="fill-opacity:1.00" />
<!-- End 'A' -->
<!-- Begin 'C' -->
<ellipse cx="295.000000" cy="203.615922" rx="25.000000" ry="8.592679" fill="rgb(0, 0, 128)" style="fill-opacity:0.15" />
<ellipse cx="295.000000" cy="203.615922" rx="16.666667" ry="5.728453" fill="rgb(255, 255, 255)" style="fill-opacity:1.00" />
<rect height="8.592679" width="25.000000" x="295.000000" y="199.319583" fill="rgb(255, 255, 255)" style="fill-opacity:1.00" />
<!-- End 'C' -->
<!-- Begin 'T' -->
<rect height="1.184460" width="50.000000" x="270.000000" y="212.208601" fill="rgb(0, 100, 0)" style="fill-opacity:0.15" />
<rect height="7.402872" width="10.000000" x="290.000000" y="212.208601" fill="rgb(0, 100, 0)" style="fill-opacity:0.15" />
<!-- End 'T' -->
<!-- Begin 'G' -->
<ellipse cx="295.000000" cy="219.805737" rx="25.000000" ry="0.194263" fill="rgb(255, 165, 0)" style="fill-opacity:0.15" />
<ellipse cx="295.000000" cy="219.805737" rx="16.666667" ry="0.129509" fill="rgb(255, 255, 255)" style="fill-opacity:1.00" />
<rect height="0.194263" width="25.000000" x="295.000000" y="219.708605" fill="rgb(255, 255, 255)" style="fill-opacity:1.00" />
<rect height="0.048566" width="25.000000" x="295.000000" y="219.854303" fill="rgb(255, 165, 0)" style="fill-opacity:0.15" />
<rect height="0.145697" width="6.250000" x="313.750000" y="219.854303" fill="rgb(255, 165, 0)" style="fill-opacity:0.15" />
<!-- End 'G' -->
<!-- Begin 'A' -->
<polygon points=" 270.000000, 319.803533, 291.000000, 230.000000, 299.000000, 230.000000, 320.000000, 319.803533, 312.500000, 319.803533, 306.250000, 297.352650, 283.750000, 297.352650, 277.500000, 319.803533" fill="rgb(178, 34, 34)" style="fill-opacity:0.00" />
<polygon points=" 295.000000, 247.960707, 287.000000, 282.882120, 302.000000, 282.882120" fill="rgb(255, 255, 255)" style="fill-opacity:1.00" />
<!-- End 'A' -->
<!-- Begin 'C' -->
<ellipse cx="295.000000" cy="323.586114" rx="25.000000" ry="3.782581" fill="rgb(0, 0, 128)" style="fill-opacity:0.00" />
<ellipse cx="295.000000" cy="323.586114" rx="16.666667" ry="2.521721" fill="rgb(255, 255, 255)" style="fill-opacity:1.00" />
<rect height="3.782581" width="25.000000" x="295.000000" y="321.694824" fill="rgb(255, 255, 255)" style="fill-opacity:1.00" />
<!-- End 'C' -->
<!-- Begin 'G' -->
<ellipse cx="295.000000" cy="328.218642" rx="25.000000" ry="0.849947" fill="rgb(255, 165, 0)" style="fill-opacity:0.00" />
<ellipse cx="295.000000" cy="328.218642" rx="16.666667" ry="0.566631" fill="rgb(255, 255, 255)" style="fill-opacity:1.00" />
<rect height="0.849947" width="25.000000" x="295.000000" y="327.793669" fill="rgb(255, 255, 255)" style="fill-opacity:1.00" />
<rect height="0.212487" width="25.000000" x="295.000000" y="328.431129" fill="rgb(255, 165, 0)" style="fill-opacity:0.00" />
<rect height="0.637460" width="6.250000" x="313.750000" y="328.431129" fill="rgb(255, 165, 0)" style="fill-opacity:0.00" />
<!-- End 'G' -->
<!-- Begin 'T' -->
<rect height="0.149026" width="50.000000" x="270.000000" y="329.068589" fill="rgb(0, 100, 0)" style="fill-opacity:0.00" />
<rect height="0.931411" width="10.000000" x="290.000000" y="329.068589" fill="rgb(0, 100, 0)" style="fill-opacity:0.00" />
<!-- End 'T' -->
<!-- Begin 'A' -->
<polygon points=" 270.000000, 400.794673, 291.000000, 340.000000, 299.000000, 340.000000, 320.000000, 400.794673, 312.500000, 400.794673, 306.250000, 385.596004, 283.750000, 385.596004, 277.500000, 400.794673" fill="rgb(178, 34, 34)" style="fill-opacity:0.79" />
<polygon points=" 295.000000, 352.158935, 287.000000, 375.476804, 302.000000, 375.476804" fill="rgb(255, 255, 255)" style="fill-opacity:1.00" />
<!-- End 'A' -->
<!-- Begin 'C' -->
<ellipse cx="295.000000" cy="415.958363" rx="25.000000" ry="15.163690" fill="rgb(0, 0, 128)" style="fill-opacity:0.79" />
<ellipse cx="295.000000" cy="415.958363" rx="16.666667" ry="10.109127" fill="rgb(255, 255, 255)" style="fill-opacity:1.00" />
<rect height="15.163690" width="25.000000" x="295.000000" y="408.376518" fill="rgb(255, 255, 255)" style="fill-opacity:1.00" />
<!-- End 'C' -->
<!-- Begin 'T' -->
<rect height="0.792110" width="50.000000" x="270.000000" y="431.122053" fill="rgb(0, 100, 0)" style="fill-opacity:0.79" />
<rect height="4.950688" width="10.000000" x="290.000000" y="431.122053" fill="rgb(0, 100, 0)" style="fill-opacity:0.79" />
<!-- End 'T' -->
<!-- Begin 'G' -->
<ellipse cx="295.000000" cy="438.036371" rx="25.000000" ry="1.963629" fill="rgb(255, 165, 0)" style="fill-opacity:0.79" />
<ellipse cx="295.000000" cy="438.036371" rx="16.666667" ry="1.309086" fill="rgb(255, 255, 255)" style="fill-opacity:1.00" />
<rect height="1.963629" width="25.000000" x="295.000000" y="437.054556" fill="rgb(255, 255, 255)" style="fill-opacity:1.00" />
<rect height="0.490907" width="25.000000" x="295.000000" y="438.527278" fill="rgb(255, 165, 0)" style="fill-opacity:0.79" />
<rect height="1.472722" width="6.250000" x="313.750000" y="438.527278" fill="rgb(255, 165, 0)" style="fill-opacity:0.79" />
<!-- End 'G' -->
<!-- Begin 'A' -->
<polygon points=" 330.000000, 109.302811, 351.000000, 10.000000, 359.000000, 10.000000, 380.000000, 109.302811, 372.500000, 109.302811, 366.250000, 84.477108, 343.750000, 84.477108, 337.500000, 109.302811" fill="rgb(178, 34, 34)" style="fill-opacity:0.64" />
<polygon points=" 355.000000, 29.860562, 347.000000, 68.581686, 362.000000, 68.581686" fill="rgb(255, 255, 255)" style="fill-opacity:1.00" />
<!-- End 'A' -->
<!-- Begin 'G' -->
<ellipse cx="355.000000" cy="109.629690" rx="25.000000" ry="0.326879" fill="rgb(255, 165, 0)" style="fill-opacity:0.64" />
<ellipse cx="355.000000" cy="109.629690" rx="16.666667" ry="0.217919" fill="rgb(255, 255, 255)" style="fill-opacity:1.00" />
<rect height="0.326879" width="25.000000" x="355.000000" y="109.466250" fill="rgb(255, 255, 255)" style="fill-opacity:1.00" />
<rect height="0.081720" width="25.000000" x="355.000000" y="109.711410" fill="rgb(255, 165, 0)" style="fill-opacity:0.64" />
<rect height="0.245159" width="6.250000" x="373.750000" y="109.711410" fill="rgb(255, 165, 0)" style="fill-opacity:0.64" />
<!-- End 'G' -->
<!-- Begin 'T' -->
<rect height="0.003914" width="50.000000" x="330.000000" y="109.956569" fill="rgb(0, 100, 0)" style="fill-opacity:0.64" />
<rect height="0.024465" width="10.000000" x="350.000000" y="109.956569" fill="rgb(0, 100, 0)" style="fill-opacity:0.64" />
<!-- End 'T' -->
<!-- Begin 'C' -->
<ellipse cx="355.000000" cy="109.990517" rx="25.000000" ry="0.009483" fill="rgb(0, 0, 128)" style="fill-opacity:0.64" />
<ellipse cx="355.000000" cy="109.990517" rx="16.666667" ry="0.006322" fill="rgb(255, 255, 255)" style="fill-opacity:1.00" />
<rect height="0.009483" width="25.000000" x="355.000000" y="109.985775" fill="rgb(255, 255, 255)" style="fill-opacity:1.00" />
<!-- End 'C' -->
<!-- Begin 'A' -->
<polygon points=" 330.000000, 219.257367, 351.000000, 120.000000, 359.000000, 120.000000, 380.000000, 219.257367, 372.500000, 219.257367, 366.250000, 194.443026, 343.750000, 194.443026, 337.500000, 219.257367" fill="rgb(178, 34, 34)" style="fill-opacity:0.27" />
<polygon points=" 355.000000, 139.851473, 347.000000, 178.554420, 362.000000, 178.554420" fill="rgb(255, 255, 255)" style="fill-opacity:1.00" />
<!-- End 'A' -->
<!-- Begin 'G' -->
<ellipse cx="355.000000" cy="219.623969" rx="25.000000" ry="0.366602" fill="rgb(255, 165, 0)" style="fill-opacity:0.27" />
<ellipse cx="355.000000" cy="219.623969" rx="16.666667" ry="0.244401" fill="rgb(255, 255, 255)" style="fill-opacity:1.00" />
<rect height="0.366602" width="25.000000" x="355.000000" y="219.440668" fill="rgb(255, 255, 255)" style="fill-opacity:1.00" />
<rect height="0.091650" width="25.000000" x="355.000000" y="219.715620" fill="rgb(255, 165, 0)" style="fill-opacity:0.27" />
<rect height="0.274951" width="6.250000" x="373.750000" y="219.715620" fill="rgb(255, 165, 0)" style="fill-opacity:0.27" />
<!-- End 'G' -->
<!-- Begin 'T' -->
<rect height="0.000789" width="50.000000" x="330.000000" y="219.990571" fill="rgb(0, 100, 0)" style="fill-opacity:0.27" />
<rect height="0.004932" width="10.000000" x="350.000000" y="219.990571" fill="rgb(0, 100, 0)" style="fill-opacity:0.27" />
<!-- End 'T' -->
<!-- Begin 'C' -->
<ellipse cx="355.000000" cy="219.997751" rx="25.000000" ry="0.002249" fill="rgb(0, 0, 128)" style="fill-opacity:0.27" />
<ellipse cx="355.000000" cy="219.997751" rx="16.666667" ry="0.001499" fill="rgb(255, 255, 255)" style="fill-opacity:1.00" />
<rect height="0.002249" width="25.000000" x="355.000000" y="219.996627" fill="rgb(255, 255, 255)" style="fill-opacity:1.00" />
<!-- End 'C' -->
<!-- Begin 'A' -->
<polygon points=" 330.000000, 329.886204, 351.000000, 230.000000, 359.000000, 230.000000, 380.000000, 329.886204, 372.500000, 329.886204, 366.250000, 304.914653, 343.750000, 304.914653, 337.500000, 329.886204" fill="rgb(178, 34, 34)" style="fill-opacity:0.03" />
<polygon points=" 355.000000, 249.977241, 347.000000, 288.931722, 362.000000, 288.931722" fill="rgb(255, 255, 255)" style="fill-opacity:1.00" />
<!-- End 'A' -->
<!-- Begin 'G' -->
<ellipse cx="355.000000" cy="329.941078" rx="25.000000" ry="0.054874" fill="rgb(255, 165, 0)" style="fill-opacity:0.03" />
<ellipse cx="355.000000" cy="329.941078" rx="16.666667" ry="0.036583" fill="rgb(255, 255, 255)" style="fill-opacity:1.00" />
<rect height="0.054874" width="25.000000" x="355.000000" y="329.913641" fill="rgb(255, 255, 255)" style="fill-opacity:1.00" />
<rect height="0.013719" width="25.000000" x="355.000000" y="329.954797" fill="rgb(255, 165, 0)" style="fill-opacity:0.03" />
<rect height="0.041156" width="6.250000" x="373.750000" y="329.954797" fill="rgb(255, 165, 0)" style="fill-opacity:0.03" />
<!-- End 'G' -->
<!-- Begin 'C' -->
<ellipse cx="355.000000" cy="329.996989" rx="25.000000" ry="0.001036" fill="rgb(0, 0, 128)" style="fill-opacity:0.03" />
<ellipse cx="355.000000" cy="329.996989" rx="16.666667" ry="0.000691" fill="rgb(255, 255, 255)" style="fill-opacity:1.00" />
<rect height="0.001036" width="25.000000" x="355.000000" y="329.996471" fill="rgb(255, 255, 255)" style="fill-opacity:1.00" />
<!-- End 'C' -->
<!-- Begin 'T' -->
<rect height="0.000316" width="50.000000" x="330.000000" y="329.998025" fill="rgb(0, 100, 0)" style="fill-opacity:0.03" />
<rect height="0.001975" width="10.000000" x="350.000000" y="329.998025" fill="rgb(0, 100, 0)" style="fill-opacity:0.03" />
<!-- End 'T' -->
<!-- Begin 'A' -->
<polygon points=" 330.000000, 439.792042, 351.000000, 340.000000, 359.000000, 340.000000, 380.000000, 439.792042, 372.500000, 439.792042, 366.250000, 414.844032, 343.750000, 414.844032, 337.500000, 439.792042" fill="rgb(178, 34, 34)" style="fill-opacity:0.05" />
<polygon points=" 355.000000, 359.958408, 347.000000, 398.875225, 362.000000, 398.875225" fill="rgb(255, 255, 255)" style="fill-opacity:1.00" />
<!-- End 'A' -->
<!-- Begin 'G' -->
<ellipse cx="355.000000" cy="439.891944" rx="25.000000" ry="0.099902" fill="rgb(255, 165, 0)" style="fill-opacity:0.05" />
<ellipse cx="355.000000" cy="439.891944" rx="16.666667" ry="0.066601" fill="rgb(255, 255, 255)" style="fill-opacity:1.00" />
<rect height="0.099902" width="25.000000" x="355.000000" y="439.841993" fill="rgb(255, 255, 255)" style="fill-opacity:1.00" />
<rect height="0.024975" width="25.000000" x="355.000000" y="439.916920" fill="rgb(255, 165, 0)" style="fill-opacity:0.05" />
<rect height="0.074926" width="6.250000" x="373.750000" y="439.916920" fill="rgb(255, 165, 0)" style="fill-opacity:0.05" />
<!-- End 'G' -->
<!-- Begin 'C' -->
<ellipse cx="355.000000" cy="439.993973" rx="25.000000" ry="0.002127" fill="rgb(0, 0, 128)" style="fill-opacity:0.05" />
<ellipse cx="355.000000" cy="439.993973" rx="16.666667" ry="0.001418" fill="rgb(255, 255, 255)" style="fill-opacity:1.00" />
<rect height="0.002127" width="25.000000" x="355.000000" y="439.992909" fill="rgb(255, 255, 255)" style="fill-opacity:1.00" />
<!-- End 'C' -->
<!-- Begin 'T' -->
<rect height="0.000624" width="50.000000" x="330.000000" y="439.996099" fill="rgb(0, 100, 0)" style="fill-opacity:0.05" />
<rect height="0.003901" width="10.000000" x="350.000000" y="439.996099" fill="rgb(0, 100, 0)" style="fill-opacity:0.05" />
<!-- End 'T' -->
<!-- Begin 'T' -->
<rect height="15.992707" width="50.000000" x="390.000000" y="10.000000" fill="rgb(0, 100, 0)" style="fill-opacity:0.99" />
<rect height="99.954422" width="10.000000" x="410.000000" y="10.000000" fill="rgb(0, 100, 0)" style="fill-opacity:0.99" />
<!-- End 'T' -->
<!-- Begin 'A' -->
<polygon points=" 390.000000, 109.974046, 411.000000, 109.954422, 419.000000, 109.954422, 440.000000, 109.974046, 432.500000, 109.974046, 426.250000, 109.969140, 403.750000, 109.969140, 397.500000, 109.974046" fill="rgb(178, 34, 34)" style="fill-opacity:0.99" />
<!-- End 'A' -->
<!-- Begin 'G' -->
<ellipse cx="415.000000" cy="109.982265" rx="25.000000" ry="0.008219" fill="rgb(255, 165, 0)" style="fill-opacity:0.99" />
<ellipse cx="415.000000" cy="109.982265" rx="16.666667" ry="0.005479" fill="rgb(255, 255, 255)" style="fill-opacity:1.00" />
<rect height="0.008219" width="25.000000" x="415.000000" y="109.978156" fill="rgb(255, 255, 255)" style="fill-opacity:1.00" />
<rect height="0.002055" width="25.000000" x="415.000000" y="109.984320" fill="rgb(255, 165, 0)" style="fill-opacity:0.99" />
<rect height="0.006164" width="6.250000" x="433.750000" y="109.984320" fill="rgb(255, 165, 0)" style="fill-opacity:0.99" />
<!-- End 'G' -->
<!-- Begin 'C' -->
<ellipse cx="415.000000" cy="109.995242" rx="25.000000" ry="0.004758" fill="rgb(0, 0, 128)" style="fill-opacity:0.99" />
<ellipse cx="415.000000" cy="109.995242" rx="16.666667" ry="0.003172" fill="rgb(255, 255, 255)" style="fill-opacity:1.00" />
<rect height="0.004758" width="25.000000" x="415.000000" y="109.992863" fill="rgb(255, 255, 255)" style="fill-opacity:1.00" />
<!-- End 'C' -->
<!-- Begin 'T' -->
<rect height="15.999466" width="50.000000" x="390.000000" y="120.000000" fill="rgb(0, 100, 0)" style="fill-opacity:0.00" />
<rect height="99.996662" width="10.000000" x="410.000000" y="120.000000" fill="rgb(0, 100, 0)" style="fill-opacity:0.00" />
<!-- End 'T' -->
<!-- Begin 'A' -->
<polygon points=" 390.000000, 219.999260, 411.000000, 219.996662, 419.000000, 219.996662, 440.000000, 219.999260, 432.500000, 219.999260, 426.250000, 219.998611, 403.750000, 219.998611, 397.500000, 219.999260" fill="rgb(178, 34, 34)" style="fill-opacity:0.00" />
<!-- End 'A' -->
<!-- Begin 'G' -->
<ellipse cx="415.000000" cy="219.999484" rx="25.000000" ry="0.000224" fill="rgb(255, 165, 0)" style="fill-opacity:0.00" />
<ellipse cx="415.000000" cy="219.999484" rx="16.666667" ry="0.000150" fill="rgb(255, 255, 255)" style="fill-opacity:1.00" />
<rect height="0.000224" width="25.000000" x="415.000000" y="219.999372" fill="rgb(255, 255, 255)" style="fill-opacity:1.00" />
<rect height="0.000056" width="25.000000" x="415.000000" y="219.999541" fill="rgb(255, 165, 0)" style="fill-opacity:0.00" />
<rect height="0.000168" width="6.250000" x="433.750000" y="219.999541" fill="rgb(255, 165, 0)" style="fill-opacity:0.00" />
<!-- End 'G' -->
<!-- Begin 'C' -->
<ellipse cx="415.000000" cy="219.999854" rx="25.000000" ry="0.000146" fill="rgb(0, 0, 128)" style="fill-opacity:0.00" />
<ellipse cx="415.000000" cy="219.999854" rx="16.666667" ry="0.000097" fill="rgb(255, 255, 255)" style="fill-opacity:1.00" />
<rect height="0.000146" width="25.000000" x="415.000000" y="219.999782" fill="rgb(255, 255, 255)" style="fill-opacity:1.00" />
<!-- End 'C' -->
<!-- Begin 'T' -->
<rect height="15.999564" width="50.000000" x="390.000000" y="230.000000" fill="rgb(0, 100, 0)" style="fill-opacity:0.01" />
<rect height="99.997277" width="10.000000" x="410.000000" y="230.000000" fill="rgb(0, 100, 0)" style="fill-opacity:0.01" />
<!-- End 'T' -->
<!-- Begin 'A' -->
<polygon points=" 390.000000, 329.998548, 411.000000, 329.997277, 419.000000, 329.997277, 440.000000, 329.998548, 432.500000, 329.998548, 426.250000, 329.998231, 403.750000, 329.998231, 397.500000, 329.998548" fill="rgb(178, 34, 34)" style="fill-opacity:0.01" />
<!-- End 'A' -->
<!-- Begin 'C' -->
<ellipse cx="415.000000" cy="329.999033" rx="25.000000" ry="0.000485" fill="rgb(0, 0, 128)" style="fill-opacity:0.01" />
<ellipse cx="415.000000" cy="329.999033" rx="16.666667" ry="0.000323" fill="rgb(255, 255, 255)" style="fill-opacity:1.00" />
<rect height="0.000485" width="25.000000" x="415.000000" y="329.998791" fill="rgb(255, 255, 255)" style="fill-opacity:1.00" />
<!-- End 'C' -->
<!-- Begin 'G' -->
<ellipse cx="415.000000" cy="329.999759" rx="25.000000" ry="0.000241" fill="rgb(255, 165, 0)" style="fill-opacity:0.01" />
<ellipse cx="415.000000" cy="329.999759" rx="16.666667" ry="0.000161" fill="rgb(255, 255, 255)" style="fill-opacity:1.00" />
<rect height="0.000241" width="25.000000" x="415.000000" y="329.999639" fill="rgb(255, 255, 255)" style="fill-opacity:1.00" />
<rect height="0.000060" width="25.000000" x="415.000000" y="329.999819" fill="rgb(255, 165, 0)" style="fill-opacity:0.01" />
<rect height="0.000181" width="6.250000" x="433.750000" y="329.999819" fill="rgb(255, 165, 0)" style="fill-opacity:0.01" />
<!-- End 'G' -->
<!-- Begin 'T' -->
<rect height="15.999490" width="50.000000" x="390.000000" y="340.000000" fill="rgb(0, 100, 0)" style="fill-opacity:0.00" />
<rect height="99.996815" width="10.000000" x="410.000000" y="340.000000" fill="rgb(0, 100, 0)" style="fill-opacity:0.00" />
<!-- End 'T' -->
<!-- Begin 'G' -->
<ellipse cx="415.000000" cy="439.997671" rx="25.000000" ry="0.000856" fill="rgb(255, 165, 0)" style="fill-opacity:0.00" />
<ellipse cx="415.000000" cy="439.997671" rx="16.666667" ry="0.000571" fill="rgb(255, 255, 255)" style="fill-opacity:1.00" />
<rect height="0.000856" width="25.000000" x="415.000000" y="439.997243" fill="rgb(255, 255, 255)" style="fill-opacity:1.00" />
<rect height="0.000214" width="25.000000" x="415.000000" y="439.997886" fill="rgb(255, 165, 0)" style="fill-opacity:0.00" />
<rect height="0.000642" width="6.250000" x="433.750000" y="439.997886" fill="rgb(255, 165, 0)" style="fill-opacity:0.00" />
<!-- End 'G' -->
<!-- Begin 'A' -->
<polygon points=" 390.000000, 439.999349, 411.000000, 439.998528, 419.000000, 439.998528, 440.000000, 439.999349, 432.500000, 439.999349, 426.250000, 439.999144, 403.750000, 439.999144, 397.500000, 439.999349" fill="rgb(178, 34, 34)" style="fill-opacity:0.00" />
<!-- End 'A' -->
<!-- Begin 'C' -->
<ellipse cx="415.000000" cy="439.999674" rx="25.000000" ry="0.000326" fill="rgb(0, 0, 128)" style="fill-opacity:0.00" />
<ellipse cx="415.000000" cy="439.999674" rx="16.666667" ry="0.000217" fill="rgb(255, 255, 255)" style="fill-opacity:1.00" />
<rect height="0.000326" width="25.000000" x="415.000000" y="439.999512" fill="rgb(255, 255, 255)" style="fill-opacity:1.00" />
<!-- End 'C' -->
<!-- Begin 'T' -->
<rect height="15.284111" width="50.000000" x="450.000000" y="10.000000" fill="rgb(0, 100, 0)" style="fill-opacity:0.00" />
<rect height="95.525694" width="10.000000" x="470.000000" y="10.000000" fill="rgb(0, 100, 0)" style="fill-opacity:0.00" />
<!-- End 'T' -->
<!-- Begin 'G' -->
<ellipse cx="475.000000" cy="107.002631" rx="25.000000" ry="1.476936" fill="rgb(255, 165, 0)" style="fill-opacity:0.00" />
<ellipse cx="475.000000" cy="107.002631" rx="16.666667" ry="0.984624" fill="rgb(255, 255, 255)" style="fill-opacity:1.00" />
<rect height="1.476936" width="25.000000" x="475.000000" y="106.264163" fill="rgb(255, 255, 255)" style="fill-opacity:1.00" />
<rect height="0.369234" width="25.000000" x="475.000000" y="107.371865" fill="rgb(255, 165, 0)" style="fill-opacity:0.00" />
<rect height="1.107702" width="6.250000" x="493.750000" y="107.371865" fill="rgb(255, 165, 0)" style="fill-opacity:0.00" />
<!-- End 'G' -->
<!-- Begin 'C' -->
<ellipse cx="475.000000" cy="109.067364" rx="25.000000" ry="0.587797" fill="rgb(0, 0, 128)" style="fill-opacity:0.00" />
<ellipse cx="475.000000" cy="109.067364" rx="16.666667" ry="0.391865" fill="rgb(255, 255, 255)" style="fill-opacity:1.00" />
<rect height="0.587797" width="25.000000" x="475.000000" y="108.773466" fill="rgb(255, 255, 255)" style="fill-opacity:1.00" />
<!-- End 'C' -->
<!-- Begin 'A' -->
<polygon points=" 450.000000, 110.000000, 471.000000, 109.655161, 479.000000, 109.655161, 500.000000, 110.000000, 492.500000, 110.000000, 486.250000, 109.913790, 463.750000, 109.913790, 457.500000, 110.000000" fill="rgb(178, 34, 34)" style="fill-opacity:0.00" />
<!-- End 'A' -->
<!-- Begin 'T' -->
<rect height="13.262234" width="50.000000" x="450.000000" y="120.000000" fill="rgb(0, 100, 0)" style="fill-opacity:0.00" />
<rect height="82.888966" width="10.000000" x="470.000000" y="120.000000" fill="rgb(0, 100, 0)" style="fill-opacity:0.00" />
<!-- End 'T' -->
<!-- Begin 'G' -->
<ellipse cx="475.000000" cy="209.834674" rx="25.000000" ry="6.945709" fill="rgb(255, 165, 0)" style="fill-opacity:0.00" />
<ellipse cx="475.000000" cy="209.834674" rx="16.666667" ry="4.630473" fill="rgb(255, 255, 255)" style="fill-opacity:1.00" />
<rect height="6.945709" width="25.000000" x="475.000000" y="206.361820" fill="rgb(255, 255, 255)" style="fill-opacity:1.00" />
<rect height="1.736427" width="25.000000" x="475.000000" y="211.571102" fill="rgb(255, 165, 0)" style="fill-opacity:0.00" />
<rect height="5.209282" width="6.250000" x="493.750000" y="211.571102" fill="rgb(255, 165, 0)" style="fill-opacity:0.00" />
<!-- End 'G' -->
<!-- Begin 'C' -->
<ellipse cx="475.000000" cy="218.071600" rx="25.000000" ry="1.291217" fill="rgb(0, 0, 128)" style="fill-opacity:0.00" />
<ellipse cx="475.000000" cy="218.071600" rx="16.666667" ry="0.860812" fill="rgb(255, 255, 255)" style="fill-opacity:1.00" />
<rect height="1.291217" width="25.000000" x="475.000000" y="217.425992" fill="rgb(255, 255, 255)" style="fill-opacity:1.00" />
<!-- End 'C' -->
<!-- Begin 'A' -->
<polygon points=" 450.000000, 220.000000, 471.000000, 219.362818, 479.000000, 219.362818, 500.000000, 220.000000, 492.500000, 220.000000, 486.250000, 219.840704, 463.750000, 219.840704, 457.500000, 220.000000" fill="rgb(178, 34, 34)" style="fill-opacity:0.00" />
<!-- End 'A' -->
<!-- Begin 'T' -->
<rect height="14.688861" width="50.000000" x="450.000000" y="230.000000" fill="rgb(0, 100, 0)" style="fill-opacity:0.00" />
<rect height="91.805383" width="10.000000" x="470.000000" y="230.000000" fill="rgb(0, 100, 0)" style="fill-opacity:0.00" />
<!-- End 'T' -->
<!-- Begin 'G' -->
<ellipse cx="475.000000" cy="324.492697" rx="25.000000" ry="2.687314" fill="rgb(255, 165, 0)" style="fill-opacity:0.00" />
<ellipse cx="475.000000" cy="324.492697" rx="16.666667" ry="1.791543" fill="rgb(255, 255, 255)" style="fill-opacity:1.00" />
<rect height="2.687314" width="25.000000" x="475.000000" y="323.149040" fill="rgb(255, 255, 255)" style="fill-opacity:1.00" />
<rect height="0.671828" width="25.000000" x="475.000000" y="325.164526" fill="rgb(255, 165, 0)" style="fill-opacity:0.00" />
<rect height="2.015485" width="6.250000" x="493.750000" y="325.164526" fill="rgb(255, 165, 0)" style="fill-opacity:0.00" />
<!-- End 'G' -->
<!-- Begin 'C' -->
<ellipse cx="475.000000" cy="328.190455" rx="25.000000" ry="1.010444" fill="rgb(0, 0, 128)" style="fill-opacity:0.00" />
<ellipse cx="475.000000" cy="328.190455" rx="16.666667" ry="0.673630" fill="rgb(255, 255, 255)" style="fill-opacity:1.00" />
<rect height="1.010444" width="25.000000" x="475.000000" y="327.685233" fill="rgb(255, 255, 255)" style="fill-opacity:1.00" />
<!-- End 'C' -->
<!-- Begin 'A' -->
<polygon points=" 450.000000, 330.000000, 471.000000, 329.200900, 479.000000, 329.200900, 500.000000, 330.000000, 492.500000, 330.000000, 486.250000, 329.800225, 463.750000, 329.800225, 457.500000, 330.000000" fill="rgb(178, 34, 34)" style="fill-opacity:0.00" />
<!-- End 'A' -->
<!-- Begin 'T' -->
<rect height="10.565832" width="50.000000" x="450.000000" y="340.000000" fill="rgb(0, 100, 0)" style="fill-opacity:1.00" />
<rect height="66.036452" width="10.000000" x="470.000000" y="340.000000" fill="rgb(0, 100, 0)" style="fill-opacity:1.00" />
<!-- End 'T' -->
<!-- Begin 'G' -->
<ellipse cx="475.000000" cy="417.962495" rx="25.000000" ry="11.926044" fill="rgb(255, 165, 0)" style="fill-opacity:1.00" />
<ellipse cx="475.000000" cy="417.962495" rx="16.666667" ry="7.950696" fill="rgb(255, 255, 255)" style="fill-opacity:1.00" />
<rect height="11.926044" width="25.000000" x="475.000000" y="411.999473" fill="rgb(255, 255, 255)" style="fill-opacity:1.00" />
<rect height="2.981511" width="25.000000" x="475.000000" y="420.944006" fill="rgb(255, 165, 0)" style="fill-opacity:1.00" />
<rect height="8.944533" width="6.250000" x="493.750000" y="420.944006" fill="rgb(255, 165, 0)" style="fill-opacity:1.00" />
<!-- End 'G' -->
<!-- Begin 'C' -->
<ellipse cx="475.000000" cy="432.705678" rx="25.000000" ry="2.817139" fill="rgb(0, 0, 128)" style="fill-opacity:1.00" />
<ellipse cx="475.000000" cy="432.705678" rx="16.666667" ry="1.878093" fill="rgb(255, 255, 255)" style="fill-opacity:1.00" />
<rect height="2.817139" width="25.000000" x="475.000000" y="431.297108" fill="rgb(255, 255, 255)" style="fill-opacity:1.00" />
<!-- End 'C' -->
<!-- Begin 'A' -->
<polygon points=" 450.000000, 440.000000, 471.000000, 435.522817, 479.000000, 435.522817, 500.000000, 440.000000, 492.500000, 440.000000, 486.250000, 438.880704, 463.750000, 438.880704, 457.500000, 440.000000" fill="rgb(178, 34, 34)" style="fill-opacity:1.00" />
<!-- End 'A' -->
<!-- Begin 'A' -->
<polygon points=" 510.000000, 96.036788, 531.000000, 10.000000, 539.000000, 10.000000, 560.000000, 96.036788, 552.500000, 96.036788, 546.250000, 74.527591, 523.750000, 74.527591, 517.500000, 96.036788" fill="rgb(178, 34, 34)" style="fill-opacity:0.04" />
<polygon points=" 535.000000, 27.207358, 527.000000, 60.622073, 542.000000, 60.622073" fill="rgb(255, 255, 255)" style="fill-opacity:1.00" />
<!-- End 'A' -->
<!-- Begin 'G' -->
<ellipse cx="535.000000" cy="102.615266" rx="25.000000" ry="6.578478" fill="rgb(255, 165, 0)" style="fill-opacity:0.04" />
<ellipse cx="535.000000" cy="102.615266" rx="16.666667" ry="4.385652" fill="rgb(255, 255, 255)" style="fill-opacity:1.00" />
<rect height="6.578478" width="25.000000" x="535.000000" y="99.326027" fill="rgb(255, 255, 255)" style="fill-opacity:1.00" />
<rect height="1.644619" width="25.000000" x="535.000000" y="104.259885" fill="rgb(255, 165, 0)" style="fill-opacity:0.04" />
<rect height="4.933858" width="6.250000" x="553.750000" y="104.259885" fill="rgb(255, 165, 0)" style="fill-opacity:0.04" />
<!-- End 'G' -->
<!-- Begin 'T' -->
<rect height="0.122148" width="50.000000" x="510.000000" y="109.193744" fill="rgb(0, 100, 0)" style="fill-opacity:0.04" />
<rect height="0.763425" width="10.000000" x="530.000000" y="109.193744" fill="rgb(0, 100, 0)" style="fill-opacity:0.04" />
<!-- End 'T' -->
<!-- Begin 'C' -->
<ellipse cx="535.000000" cy="109.978585" rx="25.000000" ry="0.021415" fill="rgb(0, 0, 128)" style="fill-opacity:0.04" />
<ellipse cx="535.000000" cy="109.978585" rx="16.666667" ry="0.014277" fill="rgb(255, 255, 255)" style="fill-opacity:1.00" />
<rect height="0.021415" width="25.000000" x="535.000000" y="109.967877" fill="rgb(255, 255, 255)" style="fill-opacity:1.00" />
<!-- End 'C' -->
<!-- Begin 'A' -->
<polygon points=" 510.000000, 214.098340, 531.000000, 120.000000, 539.000000, 120.000000, 560.000000, 214.098340, 552.500000, 214.098340, 546.250000, 190.573755, 523.750000, 190.573755, 517.500000, 214.098340" fill="rgb(178, 34, 34)" style="fill-opacity:0.06" />
<polygon points=" 535.000000, 138.819668, 527.000000, 175.459004, 542.000000, 175.459004" fill="rgb(255, 255, 255)" style="fill-opacity:1.00" />
<!-- End 'A' -->
<!-- Begin 'T' -->
<rect height="0.641486" width="50.000000" x="510.000000" y="214.098340" fill="rgb(0, 100, 0)" style="fill-opacity:0.06" />
<rect height="4.009288" width="10.000000" x="530.000000" y="214.098340" fill="rgb(0, 100, 0)" style="fill-opacity:0.06" />
<!-- End 'T' -->
<!-- Begin 'G' -->
<ellipse cx="535.000000" cy="218.868256" rx="25.000000" ry="0.760628" fill="rgb(255, 165, 0)" style="fill-opacity:0.06" />
<ellipse cx="535.000000" cy="218.868256" rx="16.666667" ry="0.507085" fill="rgb(255, 255, 255)" style="fill-opacity:1.00" />
<rect height="0.760628" width="25.000000" x="535.000000" y="218.487942" fill="rgb(255, 255, 255)" style="fill-opacity:1.00" />
<rect height="0.190157" width="25.000000" x="535.000000" y="219.058413" fill="rgb(255, 165, 0)" style="fill-opacity:0.06" />
<rect height="0.570471" width="6.250000" x="553.750000" y="219.058413" fill="rgb(255, 165, 0)" style="fill-opacity:0.06" />
<!-- End 'G' -->
<!-- Begin 'C' -->
<ellipse cx="535.000000" cy="219.814442" rx="25.000000" ry="0.185558" fill="rgb(0, 0, 128)" style="fill-opacity:0.06" />
<ellipse cx="535.000000" cy="219.814442" rx="16.666667" ry="0.123705" fill="rgb(255, 255, 255)" style="fill-opacity:1.00" />
<rect height="0.185558" width="25.000000" x="535.000000" y="219.721663" fill="rgb(255, 255, 255)" style="fill-opacity:1.00" />
<!-- End 'C' -->
<!-- Begin 'A' -->
<polygon points=" 510.000000, 319.284307, 531.000000, 230.000000, 539.000000, 230.000000, 560.000000, 319.284307, 552.500000, 319.284307, 546.250000, 296.963231, 523.750000, 296.963231, 517.500000, 319.284307" fill="rgb(178, 34, 34)" style="fill-opacity:0.24" />
<polygon points=" 535.000000, 247.856861, 527.000000, 282.570584, 542.000000, 282.570584" fill="rgb(255, 255, 255)" style="fill-opacity:1.00" />
<!-- End 'A' -->
<!-- Begin 'G' -->
<ellipse cx="535.000000" cy="323.834043" rx="25.000000" ry="4.549735" fill="rgb(255, 165, 0)" style="fill-opacity:0.24" />
<ellipse cx="535.000000" cy="323.834043" rx="16.666667" ry="3.033157" fill="rgb(255, 255, 255)" style="fill-opacity:1.00" />
<rect height="4.549735" width="25.000000" x="535.000000" y="321.559175" fill="rgb(255, 255, 255)" style="fill-opacity:1.00" />
<rect height="1.137434" width="25.000000" x="535.000000" y="324.971477" fill="rgb(255, 165, 0)" style="fill-opacity:0.24" />
<rect height="3.412302" width="6.250000" x="553.750000" y="324.971477" fill="rgb(255, 165, 0)" style="fill-opacity:0.24" />
<!-- End 'G' -->
<!-- Begin 'T' -->
<rect height="0.247947" width="50.000000" x="510.000000" y="328.383778" fill="rgb(0, 100, 0)" style="fill-opacity:0.24" />
<rect height="1.549671" width="10.000000" x="530.000000" y="328.383778" fill="rgb(0, 100, 0)" style="fill-opacity:0.24" />
<!-- End 'T' -->
<!-- Begin 'C' -->
<ellipse cx="535.000000" cy="329.966725" rx="25.000000" ry="0.033275" fill="rgb(0, 0, 128)" style="fill-opacity:0.24" />
<ellipse cx="535.000000" cy="329.966725" rx="16.666667" ry="0.022184" fill="rgb(255, 255, 255)" style="fill-opacity:1.00" />
<rect height="0.033275" width="25.000000" x="535.000000" y="329.950087" fill="rgb(255, 255, 255)" style="fill-opacity:1.00" />
<!-- End 'C' -->
<!-- Begin 'A' -->
<polygon points=" 510.000000, 412.794550, 531.000000, 340.000000, 539.000000, 340.000000, 560.000000, 412.794550, 552.500000, 412.794550, 546.250000, 394.595912, 523.750000, 394.595912, 517.500000, 412.794550" fill="rgb(178, 34, 34)" style="fill-opacity:0.66" />
<polygon points=" 535.000000, 354.558910, 527.000000, 382.676730, 542.000000, 382.676730" fill="rgb(255, 255, 255)" style="fill-opacity:1.00" />
<!-- End 'A' -->
<!-- Begin 'G' -->
<ellipse cx="535.000000" cy="421.721281" rx="25.000000" ry="8.926732" fill="rgb(255, 165, 0)" style="fill-opacity:0.66" />
<ellipse cx="535.000000" cy="421.721281" rx="16.666667" ry="5.951154" fill="rgb(255, 255, 255)" style="fill-opacity:1.00" />
<rect height="8.926732" width="25.000000" x="535.000000" y="417.257916" fill="rgb(255, 255, 255)" style="fill-opacity:1.00" />
<rect height="2.231683" width="25.000000" x="535.000000" y="423.952964" fill="rgb(255, 165, 0)" style="fill-opacity:0.66" />
<rect height="6.695049" width="6.250000" x="553.750000" y="423.952964" fill="rgb(255, 165, 0)" style="fill-opacity:0.66" />
<!-- End 'G' -->
<!-- Begin 'T' -->
<rect height="1.407376" width="50.000000" x="510.000000" y="430.648013" fill="rgb(0, 100, 0)" style="fill-opacity:0.66" />
<rect height="8.796101" width="10.000000" x="530.000000" y="430.648013" fill="rgb(0, 100, 0)" style="fill-opacity:0.66" />
<!-- End 'T' -->
<!-- Begin 'C' -->
<ellipse cx="535.000000" cy="439.722057" rx="25.000000" ry="0.277943" fill="rgb(0, 0, 128)" style="fill-opacity:0.66" />
<ellipse cx="535.000000" cy="439.722057" rx="16.666667" ry="0.185295" fill="rgb(255, 255, 255)" style="fill-opacity:1.00" />
<rect height="0.277943" width="25.000000" x="535.000000" y="439.583086" fill="rgb(255, 255, 255)" style="fill-opacity:1.00" />
<!-- End 'C' -->
<!-- Begin 'G' -->
<ellipse cx="595.000000" cy="27.478026" rx="25.000000" ry="17.478026" fill="rgb(255, 165, 0)" style="fill-opacity:0.79" />
<ellipse cx="595.000000" cy="27.478026" rx="16.666667" ry="11.652017" fill="rgb(255, 255, 255)" style="fill-opacity:1.00" />
<rect height="17.478026" width="25.000000" x="595.000000" y="18.739013" fill="rgb(255, 255, 255)" style="fill-opacity:1.00" />
<rect height="4.369507" width="25.000000" x="595.000000" y="31.847533" fill="rgb(255, 165, 0)" style="fill-opacity:0.79" />
<rect height="13.108520" width="6.250000" x="613.750000" y="31.847533" fill="rgb(255, 165, 0)" style="fill-opacity:0.79" />
<!-- End 'G' -->
<!-- Begin 'A' -->
<polygon points=" 570.000000, 74.820501, 591.000000, 44.956052, 599.000000, 44.956052, 620.000000, 74.820501, 612.500000, 74.820501, 606.250000, 67.354389, 583.750000, 67.354389, 577.500000, 74.820501" fill="rgb(178, 34, 34)" style="fill-opacity:0.79" />
<polygon points=" 595.000000, 50.928942, 587.000000, 61.874721, 602.000000, 61.874721" fill="rgb(255, 255, 255)" style="fill-opacity:1.00" />
<!-- End 'A' -->
<!-- Begin 'T' -->
<rect height="2.946121" width="50.000000" x="570.000000" y="74.820501" fill="rgb(0, 100, 0)" style="fill-opacity:0.79" />
<rect height="18.413255" width="10.000000" x="590.000000" y="74.820501" fill="rgb(0, 100, 0)" style="fill-opacity:0.79" />
<!-- End 'T' -->
<!-- Begin 'C' -->
<ellipse cx="595.000000" cy="101.616878" rx="25.000000" ry="8.383122" fill="rgb(0, 0, 128)" style="fill-opacity:0.79" />
<ellipse cx="595.000000" cy="101.616878" rx="16.666667" ry="5.588748" fill="rgb(255, 255, 255)" style="fill-opacity:1.00" />
<rect height="8.383122" width="25.000000" x="595.000000" y="97.425317" fill="rgb(255, 255, 255)" style="fill-opacity:1.00" />
<!-- End 'C' -->
<!-- Begin 'A' -->
<polygon points=" 570.000000, 158.817182, 591.000000, 120.000000, 599.000000, 120.000000, 620.000000, 158.817182, 612.500000, 158.817182, 606.250000, 149.112886, 583.750000, 149.112886, 577.500000, 158.817182" fill="rgb(178, 34, 34)" style="fill-opacity:0.00" />
<polygon points=" 595.000000, 127.763436, 587.000000, 142.290309, 602.000000, 142.290309" fill="rgb(255, 255, 255)" style="fill-opacity:1.00" />
<!-- End 'A' -->
<!-- Begin 'C' -->
<ellipse cx="595.000000" cy="177.460079" rx="25.000000" ry="18.642897" fill="rgb(0, 0, 128)" style="fill-opacity:0.00" />
<ellipse cx="595.000000" cy="177.460079" rx="16.666667" ry="12.428598" fill="rgb(255, 255, 255)" style="fill-opacity:1.00" />
<rect height="18.642897" width="25.000000" x="595.000000" y="168.138630" fill="rgb(255, 255, 255)" style="fill-opacity:1.00" />
<!-- End 'C' -->
<!-- Begin 'T' -->
<rect height="3.476654" width="50.000000" x="570.000000" y="196.102976" fill="rgb(0, 100, 0)" style="fill-opacity:0.00" />
<rect height="21.729085" width="10.000000" x="590.000000" y="196.102976" fill="rgb(0, 100, 0)" style="fill-opacity:0.00" />
<!-- End 'T' -->
<!-- Begin 'G' -->
<ellipse cx="595.000000" cy="218.916030" rx="25.000000" ry="1.083970" fill="rgb(255, 165, 0)" style="fill-opacity:0.00" />
<ellipse cx="595.000000" cy="218.916030" rx="16.666667" ry="0.722647" fill="rgb(255, 255, 255)" style="fill-opacity:1.00" />
<rect height="1.083970" width="25.000000" x="595.000000" y="218.374045" fill="rgb(255, 255, 255)" style="fill-opacity:1.00" />
<rect height="0.270992" width="25.000000" x="595.000000" y="219.187023" fill="rgb(255, 165, 0)" style="fill-opacity:0.00" />
<rect height="0.812977" width="6.250000" x="613.750000" y="219.187023" fill="rgb(255, 165, 0)" style="fill-opacity:0.00" />
<!-- End 'G' -->
<!-- Begin 'G' -->
<ellipse cx="595.000000" cy="246.461536" rx="25.000000" ry="16.461536" fill="rgb(255, 165, 0)" style="fill-opacity:0.15" />
<ellipse cx="595.000000" cy="246.461536" rx="16.666667" ry="10.974357" fill="rgb(255, 255, 255)" style="fill-opacity:1.00" />
<rect height="16.461536" width="25.000000" x="595.000000" y="238.230768" fill="rgb(255, 255, 255)" style="fill-opacity:1.00" />
<rect height="4.115384" width="25.000000" x="595.000000" y="250.576920" fill="rgb(255, 165, 0)" style="fill-opacity:0.15" />
<rect height="12.346152" width="6.250000" x="613.750000" y="250.576920" fill="rgb(255, 165, 0)" style="fill-opacity:0.15" />
<!-- End 'G' -->
<!-- Begin 'C' -->
<ellipse cx="595.000000" cy="277.888668" rx="25.000000" ry="14.965596" fill="rgb(0, 0, 128)" style="fill-opacity:0.15" />
<ellipse cx="595.000000" cy="277.888668" rx="16.666667" ry="9.977064" fill="rgb(255, 255, 255)" style="fill-opacity:1.00" />
<rect height="14.965596" width="25.000000" x="595.000000" y="270.405869" fill="rgb(255, 255, 255)" style="fill-opacity:1.00" />
<!-- End 'C' -->
<!-- Begin 'T' -->
<rect height="3.234740" width="50.000000" x="570.000000" y="292.854264" fill="rgb(0, 100, 0)" style="fill-opacity:0.15" />
<rect height="20.217122" width="10.000000" x="590.000000" y="292.854264" fill="rgb(0, 100, 0)" style="fill-opacity:0.15" />
<!-- End 'T' -->
<!-- Begin 'A' -->
<polygon points=" 570.000000, 330.000000, 591.000000, 313.071386, 599.000000, 313.071386, 620.000000, 330.000000, 612.500000, 330.000000, 606.250000, 325.767846, 583.750000, 325.767846, 577.500000, 330.000000" fill="rgb(178, 34, 34)" style="fill-opacity:0.15" />
<polygon points=" 595.000000, 316.457109, 587.000000, 322.228554, 602.000000, 322.228554" fill="rgb(255, 255, 255)" style="fill-opacity:1.00" />
<!-- End 'A' -->
<!-- Begin 'A' -->
<polygon points=" 570.000000, 371.887922, 591.000000, 340.000000, 599.000000, 340.000000, 620.000000, 371.887922, 612.500000, 371.887922, 606.250000, 363.915941, 583.750000, 363.915941, 577.500000, 371.887922" fill="rgb(178, 34, 34)" style="fill-opacity:0.06" />
<polygon points=" 595.000000, 346.377584, 587.000000, 358.132753, 602.000000, 358.132753" fill="rgb(255, 255, 255)" style="fill-opacity:1.00" />
<!-- End 'A' -->
<!-- Begin 'G' -->
<ellipse cx="595.000000" cy="384.891229" rx="25.000000" ry="13.003308" fill="rgb(255, 165, 0)" style="fill-opacity:0.06" />
<ellipse cx="595.000000" cy="384.891229" rx="16.666667" ry="8.668872" fill="rgb(255, 255, 255)" style="fill-opacity:1.00" />
<rect height="13.003308" width="25.000000" x="595.000000" y="378.389576" fill="rgb(255, 255, 255)" style="fill-opacity:1.00" />
<rect height="3.250827" width="25.000000" x="595.000000" y="388.142056" fill="rgb(255, 165, 0)" style="fill-opacity:0.06" />
<rect height="9.752481" width="6.250000" x="613.750000" y="388.142056" fill="rgb(255, 165, 0)" style="fill-opacity:0.06" />
<!-- End 'G' -->
<!-- Begin 'C' -->
<ellipse cx="595.000000" cy="409.481909" rx="25.000000" ry="11.587372" fill="rgb(0, 0, 128)" style="fill-opacity:0.06" />
<ellipse cx="595.000000" cy="409.481909" rx="16.666667" ry="7.724915" fill="rgb(255, 255, 255)" style="fill-opacity:1.00" />
<rect height="11.587372" width="25.000000" x="595.000000" y="403.688223" fill="rgb(255, 255, 255)" style="fill-opacity:1.00" />
<!-- End 'C' -->
<!-- Begin 'T' -->
<rect height="3.028915" width="50.000000" x="570.000000" y="421.069281" fill="rgb(0, 100, 0)" style="fill-opacity:0.06" />
<rect height="18.930719" width="10.000000" x="590.000000" y="421.069281" fill="rgb(0, 100, 0)" style="fill-opacity:0.06" />
<!-- End 'T' -->
<!-- Begin 'A' -->
<polygon points=" 630.000000, 42.470201, 651.000000, 10.000000, 659.000000, 10.000000, 680.000000, 42.470201, 672.500000, 42.470201, 666.250000, 34.352651, 643.750000, 34.352651, 637.500000, 42.470201" fill="rgb(178, 34, 34)" style="fill-opacity:0.28" />
<polygon points=" 655.000000, 16.494040, 647.000000, 28.482121, 662.000000, 28.482121" fill="rgb(255, 255, 255)" style="fill-opacity:1.00" />
<!-- End 'A' -->
<!-- Begin 'T' -->
<rect height="3.758472" width="50.000000" x="630.000000" y="42.470201" fill="rgb(0, 100, 0)" style="fill-opacity:0.28" />
<rect height="23.490448" width="10.000000" x="650.000000" y="42.470201" fill="rgb(0, 100, 0)" style="fill-opacity:0.28" />
<!-- End 'T' -->
<!-- Begin 'G' -->
<ellipse cx="655.000000" cy="77.201076" rx="25.000000" ry="11.240428" fill="rgb(255, 165, 0)" style="fill-opacity:0.28" />
<ellipse cx="655.000000" cy="77.201076" rx="16.666667" ry="7.493618" fill="rgb(255, 255, 255)" style="fill-opacity:1.00" />
<rect height="11.240428" width="25.000000" x="655.000000" y="71.580863" fill="rgb(255, 255, 255)" style="fill-opacity:1.00" />
<rect height="2.810107" width="25.000000" x="655.000000" y="80.011183" fill="rgb(255, 165, 0)" style="fill-opacity:0.28" />
<rect height="8.430321" width="6.250000" x="673.750000" y="80.011183" fill="rgb(255, 165, 0)" style="fill-opacity:0.28" />
<!-- End 'G' -->
<!-- Begin 'C' -->
<ellipse cx="655.000000" cy="99.220752" rx="25.000000" ry="10.779248" fill="rgb(0, 0, 128)" style="fill-opacity:0.28" />
<ellipse cx="655.000000" cy="99.220752" rx="16.666667" ry="7.186165" fill="rgb(255, 255, 255)" style="fill-opacity:1.00" />
<rect height="10.779248" width="25.000000" x="655.000000" y="93.831128" fill="rgb(255, 255, 255)" style="fill-opacity:1.00" />
<!-- End 'C' -->
<!-- Begin 'T' -->
<rect height="8.015181" width="50.000000" x="630.000000" y="120.000000" fill="rgb(0, 100, 0)" style="fill-opacity:0.19" />
<rect height="50.094881" width="10.000000" x="650.000000" y="120.000000" fill="rgb(0, 100, 0)" style="fill-opacity:0.19" />
<!-- End 'T' -->
<!-- Begin 'C' -->
<ellipse cx="655.000000" cy="182.263200" rx="25.000000" ry="12.168319" fill="rgb(0, 0, 128)" style="fill-opacity:0.19" />
<ellipse cx="655.000000" cy="182.263200" rx="16.666667" ry="8.112213" fill="rgb(255, 255, 255)" style="fill-opacity:1.00" />
<rect height="12.168319" width="25.000000" x="655.000000" y="176.179041" fill="rgb(255, 255, 255)" style="fill-opacity:1.00" />
<!-- End 'C' -->
<!-- Begin 'A' -->
<polygon points=" 630.000000, 217.513125, 651.000000, 194.431520, 659.000000, 194.431520, 680.000000, 217.513125, 672.500000, 217.513125, 666.250000, 211.742724, 643.750000, 211.742724, 637.500000, 217.513125" fill="rgb(178, 34, 34)" style="fill-opacity:0.19" />
<polygon points=" 655.000000, 199.047841, 647.000000, 207.280483, 662.000000, 207.280483" fill="rgb(255, 255, 255)" style="fill-opacity:1.00" />
<!-- End 'A' -->
<!-- Begin 'G' -->
<ellipse cx="655.000000" cy="218.756563" rx="25.000000" ry="1.243437" fill="rgb(255, 165, 0)" style="fill-opacity:0.19" />
<ellipse cx="655.000000" cy="218.756563" rx="16.666667" ry="0.828958" fill="rgb(255, 255, 255)" style="fill-opacity:1.00" />
<rect height="1.243437" width="25.000000" x="655.000000" y="218.134844" fill="rgb(255, 255, 255)" style="fill-opacity:1.00" />
<rect height="0.310859" width="25.000000" x="655.000000" y="219.067422" fill="rgb(255, 165, 0)" style="fill-opacity:0.19" />
<rect height="0.932578" width="6.250000" x="673.750000" y="219.067422" fill="rgb(255, 165, 0)" style="fill-opacity:0.19" />
<!-- End 'G' -->
<!-- Begin 'T' -->
<rect height="4.986712" width="50.000000" x="630.000000" y="230.000000" fill="rgb(0, 100, 0)" style="fill-opacity:0.34" />
<rect height="31.166951" width="10.000000" x="650.000000" y="230.000000" fill="rgb(0, 100, 0)" style="fill-opacity:0.34" />
<!-- End 'T' -->
<!-- Begin 'C' -->
<ellipse cx="655.000000" cy="273.966299" rx="25.000000" ry="12.799349" fill="rgb(0, 0, 128)" style="fill-opacity:0.34" />
<ellipse cx="655.000000" cy="273.966299" rx="16.666667" ry="8.532899" fill="rgb(255, 255, 255)" style="fill-opacity:1.00" />
<rect height="12.799349" width="25.000000" x="655.000000" y="267.566625" fill="rgb(255, 255, 255)" style="fill-opacity:1.00" />
<!-- End 'C' -->
<!-- Begin 'A' -->
<polygon points=" 630.000000, 309.540170, 651.000000, 286.765648, 659.000000, 286.765648, 680.000000, 309.540170, 672.500000, 309.540170, 666.250000, 303.846540, 643.750000, 303.846540, 637.500000, 309.540170" fill="rgb(178, 34, 34)" style="fill-opacity:0.34" />
<polygon points=" 655.000000, 291.320552, 647.000000, 299.430361, 662.000000, 299.430361" fill="rgb(255, 255, 255)" style="fill-opacity:1.00" />
<!-- End 'A' -->
<!-- Begin 'G' -->
<ellipse cx="655.000000" cy="319.770085" rx="25.000000" ry="10.229915" fill="rgb(255, 165, 0)" style="fill-opacity:0.34" />
<ellipse cx="655.000000" cy="319.770085" rx="16.666667" ry="6.819943" fill="rgb(255, 255, 255)" style="fill-opacity:1.00" />
<rect height="10.229915" width="25.000000" x="655.000000" y="314.655128" fill="rgb(255, 255, 255)" style="fill-opacity:1.00" />
<rect height="2.557479" width="25.000000" x="655.000000" y="322.327564" fill="rgb(255, 165, 0)" style="fill-opacity:0.34" />
<rect height="7.672436" width="6.250000" x="673.750000" y="322.327564" fill="rgb(255, 165, 0)" style="fill-opacity:0.34" />
<!-- End 'G' -->
<!-- Begin 'T' -->
<rect height="5.140510" width="50.000000" x="630.000000" y="340.000000" fill="rgb(0, 100, 0)" style="fill-opacity:0.19" />
<rect height="32.128186" width="10.000000" x="650.000000" y="340.000000" fill="rgb(0, 100, 0)" style="fill-opacity:0.19" />
<!-- End 'T' -->
<!-- Begin 'G' -->
<ellipse cx="655.000000" cy="383.865214" rx="25.000000" ry="11.737028" fill="rgb(255, 165, 0)" style="fill-opacity:0.19" />
<ellipse cx="655.000000" cy="383.865214" rx="16.666667" ry="7.824686" fill="rgb(255, 255, 255)" style="fill-opacity:1.00" />
<rect height="11.737028" width="25.000000" x="655.000000" y="377.996700" fill="rgb(255, 255, 255)" style="fill-opacity:1.00" />
<rect height="2.934257" width="25.000000" x="655.000000" y="386.799471" fill="rgb(255, 165, 0)" style="fill-opacity:0.19" />
<rect height="8.802771" width="6.250000" x="673.750000" y="386.799471" fill="rgb(255, 165, 0)" style="fill-opacity:0.19" />
<!-- End 'G' -->
<!-- Begin 'A' -->
<polygon points=" 630.000000, 418.723080, 651.000000, 395.602242, 659.000000, 395.602242, 680.000000, 418.723080, 672.500000, 418.723080, 666.250000, 412.942871, 643.750000, 412.942871, 637.500000, 418.723080" fill="rgb(178, 34, 34)" style="fill-opacity:0.19" />
<polygon points=" 655.000000, 400.226410, 647.000000, 408.474745, 662.000000, 408.474745" fill="rgb(255, 255, 255)" style="fill-opacity:1.00" />
<!-- End 'A' -->
<!-- Begin 'C' -->
<ellipse cx="655.000000" cy="429.361540" rx="25.000000" ry="10.638460" fill="rgb(0, 0, 128)" style="fill-opacity:0.19" />
<ellipse cx="655.000000" cy="429.361540" rx="16.666667" ry="7.092307" fill="rgb(255, 255, 255)" style="fill-opacity:1.00" />
<rect height="10.638460" width="25.000000" x="655.000000" y="424.042310" fill="rgb(255, 255, 255)" style="fill-opacity:1.00" />
<!-- End 'C' -->
<text x="370.000000" y="495">
IC = 7.57
</text>

</svg>
