<?xml version="1.0" encoding="UTF-8" standalone="yes"?>
                 <!DOCTYPE svg PUBLIC "-//W3C//DTD SVG 1.0//EN" "http://www.w3.org/TR/2001/REC-SVG-20010904/DTD/svg10.dtd">
                 <svg height="500" width="780" xmlns="http://www.w3.org/2000/svg" xmlns:xlink="http://www.w3.org/1999/xlink">
                 <line x1="85" y1="450" x2="747" y2="450" style="stroke:rgb(99,99,99);stroke-width:2" />
<rect height="7.000000" width="2.000000" x="85.000000" y="450.000000" fill="rgb(0, 0, 0)" style="fill-opacity:1.00" />
<text x="107.000000" y="470">
1
</text>
<rect height="7.000000" width="2.000000" x="145.000000" y="450.000000" fill="rgb(0, 0, 0)" style="fill-opacity:1.00" />
<text x="167.000000" y="470">
2
</text>
<rect height="7.000000" width="2.000000" x="205.000000" y="450.000000" fill="rgb(0, 0, 0)" style="fill-opacity:1.00" />
<text x="227.000000" y="470">
3
</text>
<rect height="7.000000" width="2.000000" x="265.000000" y="450.000000" fill="rgb(0, 0, 0)" style="fill-opacity:1.00" />
<text x="287.000000" y="470">
4
</text>
<rect height="7.000000" width="2.000000" x="325.000000" y="450.000000" fill="rgb(0, 0, 0)" style="fill-opacity:1.00" />
<text x="347.000000" y="470">
5
</text>
<rect height="7.000000" width="2.000000" x="385.000000" y="450.000000" fill="rgb(0, 0, 0)" style="fill-opacity:1.00" />
<text x="407.000000" y="470">
6
</text>
<rect height="7.000000" width="2.000000" x="445.000000" y="450.000000" fill="rgb(0, 0, 0)" style="fill-opacity:1.00" />
<text x="467.000000" y="470">
7
</text>
<rect height="7.000000" width="2.000000" x="505.000000" y="450.000000" fill="rgb(0, 0, 0)" style="fill-opacity:1.00" />
<text x="527.000000" y="470">
8
</text>
<rect height="7.000000" width="2.000000" x="565.000000" y="450.000000" fill="rgb(0, 0, 0)" style="fill-opacity:1.00" />
<text x="587.000000" y="470">
9
</text>
<rect height="7.000000" width="2.000000" x="625.000000" y="450.000000" fill="rgb(0, 0, 0)" style="fill-opacity:1.00" />
<text x="647.000000" y="470">
10
</text>
<rect height="7.000000" width="2.000000" x="685.000000" y="450.000000" fill="rgb(0, 0, 0)" style="fill-opacity:1.00" />
<text x="707.000000" y="470">
11
</text>
<rect height="7.000000" width="2.000000" x="745.000000" y="450.000000" fill="rgb(0, 0, 0)" style="fill-opacity:1.00" />
<!-- Begin 'A' -->
<polygon points=" 10.000000, 110.000000, 35.200000, 10.000000, 44.800000, 10.000000, 70.000000, 110.000000, 61.000000, 110.000000, 53.500000, 85.000000, 26.500000, 85.000000, 19.000000, 110.000000" fill="rgb(178, 34, 34)" style="fill-opacity:1.00" />
<polygon points=" 40.000000, 30.000000, 30.400000, 69.000000, 48.400000, 69.000000" fill="rgb(255, 255, 255)" style="fill-opacity:1.00" />
<!-- End 'A' -->
<!-- Begin 'C' -->
<ellipse cx="40.000000" cy="170.000000" rx="30.000000" ry="50.000000" fill="rgb(0, 0, 128)" style="fill-opacity:1.00" />
<ellipse cx="40.000000" cy="170.000000" rx="20.000000" ry="33.333333" fill="rgb(255, 255, 255)" style="fill-opacity:1.00" />
<rect height="50.000000" width="30.000000" x="40.000000" y="145.000000" fill="rgb(255, 255, 255)" style="fill-opacity:1.00" />
<!-- End 'C' -->
<!-- Begin 'G' -->
<ellipse cx="40.000000" cy="280.000000" rx="30.000000" ry="50.000000" fill="rgb(255, 165, 0)" style="fill-opacity:1.00" />
<ellipse cx="40.000000" cy="280.000000" rx="20.000000" ry="33.333333" fill="rgb(255, 255, 255)" style="fill-opacity:1.00" />
<rect height="50.000000" width="30.000000" x="40.000000" y="255.000000" fill="rgb(255, 255, 255)" style="fill-opacity:1.00" />
<rect height="12.500000" width="30.000000" x="40.000000" y="292.500000" fill="rgb(255, 165, 0)" style="fill-opacity:1.00" />
<rect height="37.500000" width="7.500000" x="62.500000" y="292.500000" fill="rgb(255, 165, 0)" style="fill-opacity:1.00" />
<!-- End 'G' -->
<!-- Begin 'T' -->
<rect height="16.000000" width="60.000000" x="10.000000" y="340.000000" fill="rgb(0, 100, 0)" style="fill-opacity:1.00" />
<rect height="100.000000" width="12.000000" x="34.000000" y="340.000000" fill="rgb(0, 100, 0)" style="fill-opacity:1.00" />
<!-- End 'T' -->
<!-- Begin 'A' -->
<polygon points=" 90.000000, 85.885389, 111.000000, 10.000000, 119.000000, 10.000000, 140.000000, 85.885389, 132.500000, 85.885389, 126.250000, 66.914042, 103.750000, 66.914042, 97.500000, 85.885389" fill="rgb(178, 34, 34)" style="fill-opacity:0.37" />
<polygon points=" 115.000000, 25.177078, 107.000000, 54.531234, 122.000000, 54.531234" fill="rgb(255, 255, 255)" style="fill-opacity:1.00" />
<!-- End 'A' -->
<!-- Begin 'T' -->
<rect height="2.894293" width="50.000000" x="90.000000" y="85.885389" fill="rgb(0, 100, 0)" style="fill-opacity:0.37" />
<rect height="18.089329" width="10.000000" x="110.000000" y="85.885389" fill="rgb(0, 100, 0)" style="fill-opacity:0.37" />
<!-- End 'T' -->
<!-- Begin 'G' -->
<ellipse cx="115.000000" cy="106.102225" rx="25.000000" ry="2.127508" fill="rgb(255, 165, 0)" style="fill-opacity:0.37" />
<ellipse cx="115.000000" cy="106.102225" rx="16.666667" ry="1.418338" fill="rgb(255, 255, 255)" style="fill-opacity:1.00" />
<rect height="2.127508" width="25.000000" x="115.000000" y="105.038472" fill="rgb(255, 255, 255)" style="fill-opacity:1.00" />
<rect height="0.531877" width="25.000000" x="115.000000" y="106.634102" fill="rgb(255, 165, 0)" style="fill-opacity:0.37" />
<rect height="1.595631" width="6.250000" x="133.750000" y="106.634102" fill="rgb(255, 165, 0)" style="fill-opacity:0.37" />
<!-- End 'G' -->
<!-- Begin 'C' -->
<ellipse cx="115.000000" cy="109.114866" rx="25.000000" ry="0.885134" fill="rgb(0, 0, 128)" style="fill-opacity:0.37" />
<ellipse cx="115.000000" cy="109.114866" rx="16.666667" ry="0.590089" fill="rgb(255, 255, 255)" style="fill-opacity:1.00" />
<rect height="0.885134" width="25.000000" x="115.000000" y="108.672300" fill="rgb(255, 255, 255)" style="fill-opacity:1.00" />
<!-- End 'C' -->
<!-- Begin 'A' -->
<polygon points=" 90.000000, 188.973769, 111.000000, 120.000000, 119.000000, 120.000000, 140.000000, 188.973769, 132.500000, 188.973769, 126.250000, 171.730327, 103.750000, 171.730327, 97.500000, 188.973769" fill="rgb(178, 34, 34)" style="fill-opacity:0.14" />
<polygon points=" 115.000000, 133.794754, 107.000000, 160.384261, 122.000000, 160.384261" fill="rgb(255, 255, 255)" style="fill-opacity:1.00" />
<!-- End 'A' -->
<!-- Begin 'T' -->
<rect height="2.395226" width="50.000000" x="90.000000" y="188.973769" fill="rgb(0, 100, 0)" style="fill-opacity:0.14" />
<rect height="14.970162" width="10.000000" x="110.000000" y="188.973769" fill="rgb(0, 100, 0)" style="fill-opacity:0.14" />
<!-- End 'T' -->
<!-- Begin 'G' -->
<ellipse cx="115.000000" cy="209.879170" rx="25.000000" ry="5.935239" fill="rgb(255, 165, 0)" style="fill-opacity:0.14" />
<ellipse cx="115.000000" cy="209.879170" rx="16.666667" ry="3.956826" fill="rgb(255, 255, 255)" style="fill-opacity:1.00" />
<rect height="5.935239" width="25.000000" x="115.000000" y="206.911551" fill="rgb(255, 255, 255)" style="fill-opacity:1.00" />
<rect height="1.483810" width="25.000000" x="115.000000" y="211.362980" fill="rgb(255, 165, 0)" style="fill-opacity:0.14" />
<rect height="4.451429" width="6.250000" x="133.750000" y="211.362980" fill="rgb(255, 165, 0)" style="fill-opacity:0.14" />
<!-- End 'G' -->
<!-- Begin 'C' -->
<ellipse cx="115.000000" cy="217.907205" rx="25.000000" ry="2.092795" fill="rgb(0, 0, 128)" style="fill-opacity:0.14" />
<ellipse cx="115.000000" cy="217.907205" rx="16.666667" ry="1.395197" fill="rgb(255, 255, 255)" style="fill-opacity:1.00" />
<rect height="2.092795" width="25.000000" x="115.000000" y="216.860807" fill="rgb(255, 255, 255)" style="fill-opacity:1.00" />
<!-- End 'C' -->
<!-- Begin 'A' -->
<polygon points=" 90.000000, 303.848369, 111.000000, 230.000000, 119.000000, 230.000000, 140.000000, 303.848369, 132.500000, 303.848369, 126.250000, 285.386276, 103.750000, 285.386276, 97.500000, 303.848369" fill="rgb(178, 34, 34)" style="fill-opacity:0.14" />
<polygon points=" 115.000000, 244.769674, 107.000000, 273.309021, 122.000000, 273.309021" fill="rgb(255, 255, 255)" style="fill-opacity:1.00" />
<!-- End 'A' -->
<!-- Begin 'T' -->
<rect height="2.713952" width="50.000000" x="90.000000" y="303.848369" fill="rgb(0, 100, 0)" style="fill-opacity:0.14" />
<rect height="16.962202" width="10.000000" x="110.000000" y="303.848369" fill="rgb(0, 100, 0)" style="fill-opacity:0.14" />
<!-- End 'T' -->
<!-- Begin 'G' -->
<ellipse cx="115.000000" cy="323.800028" rx="25.000000" ry="2.989458" fill="rgb(255, 165, 0)" style="fill-opacity:0.14" />
<ellipse cx="115.000000" cy="323.800028" rx="16.666667" ry="1.992972" fill="rgb(255, 255, 255)" style="fill-opacity:1.00" />
<rect height="2.989458" width="25.000000" x="115.000000" y="322.305299" fill="rgb(255, 255, 255)" style="fill-opacity:1.00" />
<rect height="0.747364" width="25.000000" x="115.000000" y="324.547393" fill="rgb(255, 165, 0)" style="fill-opacity:0.14" />
<rect height="2.242093" width="6.250000" x="133.750000" y="324.547393" fill="rgb(255, 165, 0)" style="fill-opacity:0.14" />
<!-- End 'G' -->
<!-- Begin 'C' -->
<ellipse cx="115.000000" cy="328.394743" rx="25.000000" ry="1.605257" fill="rgb(0, 0, 128)" style="fill-opacity:0.14" />
<ellipse cx="115.000000" cy="328.394743" rx="16.666667" ry="1.070171" fill="rgb(255, 255, 255)" style="fill-opacity:1.00" />
<rect height="1.605257" width="25.000000" x="115.000000" y="327.592114" fill="rgb(255, 255, 255)" style="fill-opacity:1.00" />
<!-- End 'C' -->
<!-- Begin 'A' -->
<polygon points=" 90.000000, 406.514023, 111.000000, 340.000000, 119.000000, 340.000000, 140.000000, 406.514023, 132.500000, 406.514023, 126.250000, 389.885517, 103.750000, 389.885517, 97.500000, 406.514023" fill="rgb(178, 34, 34)" style="fill-opacity:0.35" />
<polygon points=" 115.000000, 353.302805, 107.000000, 378.908414, 122.000000, 378.908414" fill="rgb(255, 255, 255)" style="fill-opacity:1.00" />
<!-- End 'A' -->
<!-- Begin 'T' -->
<rect height="3.207795" width="50.000000" x="90.000000" y="406.514023" fill="rgb(0, 100, 0)" style="fill-opacity:0.35" />
<rect height="20.048719" width="10.000000" x="110.000000" y="406.514023" fill="rgb(0, 100, 0)" style="fill-opacity:0.35" />
<!-- End 'T' -->
<!-- Begin 'G' -->
<ellipse cx="115.000000" cy="432.280264" rx="25.000000" ry="5.717523" fill="rgb(255, 165, 0)" style="fill-opacity:0.35" />
<ellipse cx="115.000000" cy="432.280264" rx="16.666667" ry="3.811682" fill="rgb(255, 255, 255)" style="fill-opacity:1.00" />
<rect height="5.717523" width="25.000000" x="115.000000" y="429.421503" fill="rgb(255, 255, 255)" style="fill-opacity:1.00" />
<rect height="1.429381" width="25.000000" x="115.000000" y="433.709645" fill="rgb(255, 165, 0)" style="fill-opacity:0.35" />
<rect height="4.288142" width="6.250000" x="133.750000" y="433.709645" fill="rgb(255, 165, 0)" style="fill-opacity:0.35" />
<!-- End 'G' -->
<!-- Begin 'C' -->
<ellipse cx="115.000000" cy="438.998894" rx="25.000000" ry="1.001106" fill="rgb(0, 0, 128)" style="fill-opacity:0.35" />
<ellipse cx="115.000000" cy="438.998894" rx="16.666667" ry="0.667404" fill="rgb(255, 255, 255)" style="fill-opacity:1.00" />
<rect height="1.001106" width="25.000000" x="115.000000" y="438.498340" fill="rgb(255, 255, 255)" style="fill-opacity:1.00" />
<!-- End 'C' -->
<!-- Begin 'G' -->
<ellipse cx="175.000000" cy="33.025024" rx="25.000000" ry="23.025024" fill="rgb(255, 165, 0)" style="fill-opacity:0.71" />
<ellipse cx="175.000000" cy="33.025024" rx="16.666667" ry="15.350016" fill="rgb(255, 255, 255)" style="fill-opacity:1.00" />
<rect height="23.025024" width="25.000000" x="175.000000" y="21.512512" fill="rgb(255, 255, 255)" style="fill-opacity:1.00" />
<rect height="5.756256" width="25.000000" x="175.000000" y="38.781280" fill="rgb(255, 165, 0)" style="fill-opacity:0.71" />
<rect height="17.268768" width="6.250000" x="193.750000" y="38.781280" fill="rgb(255, 165, 0)" style="fill-opacity:0.71" />
<!-- End 'G' -->
<!-- Begin 'A' -->
<polygon points=" 150.000000, 100.022667, 171.000000, 56.050048, 179.000000, 56.050048, 200.000000, 100.022667, 192.500000, 100.022667, 186.250000, 89.029512, 163.750000, 89.029512, 157.500000, 100.022667" fill="rgb(178, 34, 34)" style="fill-opacity:0.71" />
<polygon points=" 175.000000, 64.844572, 167.000000, 81.433619, 182.000000, 81.433619" fill="rgb(255, 255, 255)" style="fill-opacity:1.00" />
<!-- End 'A' -->
<!-- Begin 'T' -->
<rect height="1.349100" width="50.000000" x="150.000000" y="100.022667" fill="rgb(0, 100, 0)" style="fill-opacity:0.71" />
<rect height="8.431873" width="10.000000" x="170.000000" y="100.022667" fill="rgb(0, 100, 0)" style="fill-opacity:0.71" />
<!-- End 'T' -->
<!-- Begin 'C' -->
<ellipse cx="175.000000" cy="109.227270" rx="25.000000" ry="0.772730" fill="rgb(0, 0, 128)" style="fill-opacity:0.71" />
<ellipse cx="175.000000" cy="109.227270" rx="16.666667" ry="0.515153" fill="rgb(255, 255, 255)" style="fill-opacity:1.00" />
<rect height="0.772730" width="25.000000" x="175.000000" y="108.840905" fill="rgb(255, 255, 255)" style="fill-opacity:1.00" />
<!-- End 'C' -->
<!-- Begin 'G' -->
<ellipse cx="175.000000" cy="155.577339" rx="25.000000" ry="35.577339" fill="rgb(255, 165, 0)" style="fill-opacity:0.02" />
<ellipse cx="175.000000" cy="155.577339" rx="16.666667" ry="23.718226" fill="rgb(255, 255, 255)" style="fill-opacity:1.00" />
<rect height="35.577339" width="25.000000" x="175.000000" y="137.788670" fill="rgb(255, 255, 255)" style="fill-opacity:1.00" />
<rect height="8.894335" width="25.000000" x="175.000000" y="164.471674" fill="rgb(255, 165, 0)" style="fill-opacity:0.02" />
<rect height="26.683004" width="6.250000" x="193.750000" y="164.471674" fill="rgb(255, 165, 0)" style="fill-opacity:0.02" />
<!-- End 'G' -->
<!-- Begin 'A' -->
<polygon points=" 150.000000, 205.893696, 171.000000, 191.154678, 179.000000, 191.154678, 200.000000, 205.893696, 192.500000, 205.893696, 186.250000, 202.208941, 163.750000, 202.208941, 157.500000, 205.893696" fill="rgb(178, 34, 34)" style="fill-opacity:0.02" />
<polygon points=" 175.000000, 194.102482, 167.000000, 198.998089, 182.000000, 198.998089" fill="rgb(255, 255, 255)" style="fill-opacity:1.00" />
<!-- End 'A' -->
<!-- Begin 'T' -->
<rect height="1.876471" width="50.000000" x="150.000000" y="205.893696" fill="rgb(0, 100, 0)" style="fill-opacity:0.02" />
<rect height="11.727945" width="10.000000" x="170.000000" y="205.893696" fill="rgb(0, 100, 0)" style="fill-opacity:0.02" />
<!-- End 'T' -->
<!-- Begin 'C' -->
<ellipse cx="175.000000" cy="218.810820" rx="25.000000" ry="1.189180" fill="rgb(0, 0, 128)" style="fill-opacity:0.02" />
<ellipse cx="175.000000" cy="218.810820" rx="16.666667" ry="0.792787" fill="rgb(255, 255, 255)" style="fill-opacity:1.00" />
<rect height="1.189180" width="25.000000" x="175.000000" y="218.216230" fill="rgb(255, 255, 255)" style="fill-opacity:1.00" />
<!-- End 'C' -->
<!-- Begin 'G' -->
<ellipse cx="175.000000" cy="267.079958" rx="25.000000" ry="37.079958" fill="rgb(255, 165, 0)" style="fill-opacity:0.08" />
<ellipse cx="175.000000" cy="267.079958" rx="16.666667" ry="24.719972" fill="rgb(255, 255, 255)" style="fill-opacity:1.00" />
<rect height="37.079958" width="25.000000" x="175.000000" y="248.539979" fill="rgb(255, 255, 255)" style="fill-opacity:1.00" />
<rect height="9.269989" width="25.000000" x="175.000000" y="276.349947" fill="rgb(255, 165, 0)" style="fill-opacity:0.08" />
<rect height="27.809968" width="6.250000" x="193.750000" y="276.349947" fill="rgb(255, 165, 0)" style="fill-opacity:0.08" />
<!-- End 'G' -->
<!-- Begin 'A' -->
<polygon points=" 150.000000, 316.540835, 171.000000, 304.159915, 179.000000, 304.159915, 200.000000, 316.540835, 192.500000, 316.540835, 186.250000, 313.445605, 163.750000, 313.445605, 157.500000, 316.540835" fill="rgb(178, 34, 34)" style="fill-opacity:0.08" />
<polygon points=" 175.000000, 306.636099, 167.000000, 310.588467, 182.000000, 310.588467" fill="rgb(255, 255, 255)" style="fill-opacity:1.00" />
<!-- End 'A' -->
<!-- Begin 'T' -->
<rect height="1.664024" width="50.000000" x="150.000000" y="316.540835" fill="rgb(0, 100, 0)" style="fill-opacity:0.08" />
<rect height="10.400150" width="10.000000" x="170.000000" y="316.540835" fill="rgb(0, 100, 0)" style="fill-opacity:0.08" />
<!-- End 'T' -->
<!-- Begin 'C' -->
<ellipse cx="175.000000" cy="328.470493" rx="25.000000" ry="1.529507" fill="rgb(0, 0, 128)" style="fill-opacity:0.08" />
<ellipse cx="175.000000" cy="328.470493" rx="16.666667" ry="1.019672" fill="rgb(255, 255, 255)" style="fill-opacity:1.00" />
<rect height="1.529507" width="25.000000" x="175.000000" y="327.705739" fill="rgb(255, 255, 255)" style="fill-opacity:1.00" />
<!-- End 'C' -->
<!-- Begin 'G' -->
<ellipse cx="175.000000" cy="368.456083" rx="25.000000" ry="28.456083" fill="rgb(255, 165, 0)" style="fill-opacity:0.18" />
<ellipse cx="175.000000" cy="368.456083" rx="16.666667" ry="18.970722" fill="rgb(255, 255, 255)" style="fill-opacity:1.00" />
<rect height="28.456083" width="25.000000" x="175.000000" y="354.228042" fill="rgb(255, 255, 255)" style="fill-opacity:1.00" />
<rect height="7.114021" width="25.000000" x="175.000000" y="375.570104" fill="rgb(255, 165, 0)" style="fill-opacity:0.18" />
<rect height="21.342063" width="6.250000" x="193.750000" y="375.570104" fill="rgb(255, 165, 0)" style="fill-opacity:0.18" />
<!-- End 'G' -->
<!-- Begin 'A' -->
<polygon points=" 150.000000, 431.689223, 171.000000, 396.912167, 179.000000, 396.912167, 200.000000, 431.689223, 192.500000, 431.689223, 186.250000, 422.994959, 163.750000, 422.994959, 157.500000, 431.689223" fill="rgb(178, 34, 34)" style="fill-opacity:0.18" />
<polygon points=" 175.000000, 403.867578, 167.000000, 416.778401, 182.000000, 416.778401" fill="rgb(255, 255, 255)" style="fill-opacity:1.00" />
<!-- End 'A' -->
<!-- Begin 'C' -->
<ellipse cx="175.000000" cy="433.873530" rx="25.000000" ry="2.184307" fill="rgb(0, 0, 128)" style="fill-opacity:0.18" />
<ellipse cx="175.000000" cy="433.873530" rx="16.666667" ry="1.456205" fill="rgb(255, 255, 255)" style="fill-opacity:1.00" />
<rect height="2.184307" width="25.000000" x="175.000000" y="432.781376" fill="rgb(255, 255, 255)" style="fill-opacity:1.00" />
<!-- End 'C' -->
<!-- Begin 'T' -->
<rect height="0.630746" width="50.000000" x="150.000000" y="436.057837" fill="rgb(0, 100, 0)" style="fill-opacity:0.18" />
<rect height="3.942163" width="10.000000" x="170.000000" y="436.057837" fill="rgb(0, 100, 0)" style="fill-opacity:0.18" />
<!-- End 'T' -->
<!-- Begin 'A' -->
<polygon points=" 210.000000, 109.878922, 231.000000, 10.000000, 239.000000, 10.000000, 260.000000, 109.878922, 252.500000, 109.878922, 246.250000, 84.909192, 223.750000, 84.909192, 217.500000, 109.878922" fill="rgb(178, 34, 34)" style="fill-opacity:0.39" />
<polygon points=" 235.000000, 29.975784, 227.000000, 68.927353, 242.000000, 68.927353" fill="rgb(255, 255, 255)" style="fill-opacity:1.00" />
<!-- End 'A' -->
<!-- Begin 'G' -->
<ellipse cx="235.000000" cy="109.910295" rx="25.000000" ry="0.031373" fill="rgb(255, 165, 0)" style="fill-opacity:0.39" />
<ellipse cx="235.000000" cy="109.910295" rx="16.666667" ry="0.020915" fill="rgb(255, 255, 255)" style="fill-opacity:1.00" />
<rect height="0.031373" width="25.000000" x="235.000000" y="109.894609" fill="rgb(255, 255, 255)" style="fill-opacity:1.00" />
<rect height="0.007843" width="25.000000" x="235.000000" y="109.918138" fill="rgb(255, 165, 0)" style="fill-opacity:0.39" />
<rect height="0.023529" width="6.250000" x="253.750000" y="109.918138" fill="rgb(255, 165, 0)" style="fill-opacity:0.39" />
<!-- End 'G' -->
<!-- Begin 'C' -->
<ellipse cx="235.000000" cy="109.969989" rx="25.000000" ry="0.028322" fill="rgb(0, 0, 128)" style="fill-opacity:0.39" />
<ellipse cx="235.000000" cy="109.969989" rx="16.666667" ry="0.018881" fill="rgb(255, 255, 255)" style="fill-opacity:1.00" />
<rect height="0.028322" width="25.000000" x="235.000000" y="109.955828" fill="rgb(255, 255, 255)" style="fill-opacity:1.00" />
<!-- End 'C' -->
<!-- Begin 'T' -->
<rect height="0.000270" width="50.000000" x="210.000000" y="109.998311" fill="rgb(0, 100, 0)" style="fill-opacity:0.39" />
<rect height="0.001689" width="10.000000" x="230.000000" y="109.998311" fill="rgb(0, 100, 0)" style="fill-opacity:0.39" />
<!-- End 'T' -->
<!-- Begin 'A' -->
<polygon points=" 210.000000, 219.952123, 231.000000, 120.000000, 239.000000, 120.000000, 260.000000, 219.952123, 252.500000, 219.952123, 246.250000, 194.964092, 223.750000, 194.964092, 217.500000, 219.952123" fill="rgb(178, 34, 34)" style="fill-opacity:0.02" />
<polygon points=" 235.000000, 139.990425, 227.000000, 178.971274, 242.000000, 178.971274" fill="rgb(255, 255, 255)" style="fill-opacity:1.00" />
<!-- End 'A' -->
<!-- Begin 'T' -->
<rect height="0.007334" width="50.000000" x="210.000000" y="219.952123" fill="rgb(0, 100, 0)" style="fill-opacity:0.02" />
<rect height="0.045838" width="10.000000" x="230.000000" y="219.952123" fill="rgb(0, 100, 0)" style="fill-opacity:0.02" />
<!-- End 'T' -->
<!-- Begin 'C' -->
<ellipse cx="235.000000" cy="219.998682" rx="25.000000" ry="0.000721" fill="rgb(0, 0, 128)" style="fill-opacity:0.02" />
<ellipse cx="235.000000" cy="219.998682" rx="16.666667" ry="0.000481" fill="rgb(255, 255, 255)" style="fill-opacity:1.00" />
<rect height="0.000721" width="25.000000" x="235.000000" y="219.998321" fill="rgb(255, 255, 255)" style="fill-opacity:1.00" />
<!-- End 'C' -->
<!-- Begin 'G' -->
<ellipse cx="235.000000" cy="219.999701" rx="25.000000" ry="0.000299" fill="rgb(255, 165, 0)" style="fill-opacity:0.02" />
<ellipse cx="235.000000" cy="219.999701" rx="16.666667" ry="0.000199" fill="rgb(255, 255, 255)" style="fill-opacity:1.00" />
<rect height="0.000299" width="25.000000" x="235.000000" y="219.999552" fill="rgb(255, 255, 255)" style="fill-opacity:1.00" />
<rect height="0.000075" width="25.000000" x="235.000000" y="219.999776" fill="rgb(255, 165, 0)" style="fill-opacity:0.02" />
<rect height="0.000224" width="6.250000" x="253.750000" y="219.999776" fill="rgb(255, 165, 0)" style="fill-opacity:0.02" />
<!-- End 'G' -->
<!-- Begin 'A' -->
<polygon points=" 210.000000, 329.537034, 231.000000, 230.000000, 239.000000, 230.000000, 260.000000, 329.537034, 252.500000, 329.537034, 246.250000, 304.652776, 223.750000, 304.652776, 217.500000, 329.537034" fill="rgb(178, 34, 34)" style="fill-opacity:0.51" />
<polygon points=" 235.000000, 249.907407, 227.000000, 288.722221, 242.000000, 288.722221" fill="rgb(255, 255, 255)" style="fill-opacity:1.00" />
<!-- End 'A' -->
<!-- Begin 'T' -->
<rect height="0.039343" width="50.000000" x="210.000000" y="329.537034" fill="rgb(0, 100, 0)" style="fill-opacity:0.51" />
<rect height="0.245893" width="10.000000" x="230.000000" y="329.537034" fill="rgb(0, 100, 0)" style="fill-opacity:0.51" />
<!-- End 'T' -->
<!-- Begin 'G' -->
<ellipse cx="235.000000" cy="329.868060" rx="25.000000" ry="0.085133" fill="rgb(255, 165, 0)" style="fill-opacity:0.51" />
<ellipse cx="235.000000" cy="329.868060" rx="16.666667" ry="0.056756" fill="rgb(255, 255, 255)" style="fill-opacity:1.00" />
<rect height="0.085133" width="25.000000" x="235.000000" y="329.825493" fill="rgb(255, 255, 255)" style="fill-opacity:1.00" />
<rect height="0.021283" width="25.000000" x="235.000000" y="329.889344" fill="rgb(255, 165, 0)" style="fill-opacity:0.51" />
<rect height="0.063850" width="6.250000" x="253.750000" y="329.889344" fill="rgb(255, 165, 0)" style="fill-opacity:0.51" />
<!-- End 'G' -->
<!-- Begin 'C' -->
<ellipse cx="235.000000" cy="329.976597" rx="25.000000" ry="0.023403" fill="rgb(0, 0, 128)" style="fill-opacity:0.51" />
<ellipse cx="235.000000" cy="329.976597" rx="16.666667" ry="0.015602" fill="rgb(255, 255, 255)" style="fill-opacity:1.00" />
<rect height="0.023403" width="25.000000" x="235.000000" y="329.964895" fill="rgb(255, 255, 255)" style="fill-opacity:1.00" />
<!-- End 'C' -->
<!-- Begin 'A' -->
<polygon points=" 210.000000, 423.654457, 231.000000, 340.000000, 239.000000, 340.000000, 260.000000, 423.654457, 252.500000, 423.654457, 246.250000, 402.740842, 223.750000, 402.740842, 217.500000, 423.654457" fill="rgb(178, 34, 34)" style="fill-opacity:0.08" />
<polygon points=" 235.000000, 356.730891, 227.000000, 389.192674, 242.000000, 389.192674" fill="rgb(255, 255, 255)" style="fill-opacity:1.00" />
<!-- End 'A' -->
<!-- Begin 'C' -->
<ellipse cx="235.000000" cy="430.938282" rx="25.000000" ry="7.283826" fill="rgb(0, 0, 128)" style="fill-opacity:0.08" />
<ellipse cx="235.000000" cy="430.938282" rx="16.666667" ry="4.855884" fill="rgb(255, 255, 255)" style="fill-opacity:1.00" />
<rect height="7.283826" width="25.000000" x="235.000000" y="427.296370" fill="rgb(255, 255, 255)" style="fill-opacity:1.00" />
<!-- End 'C' -->
<!-- Begin 'T' -->
<rect height="0.277556" width="50.000000" x="210.000000" y="438.222108" fill="rgb(0, 100, 0)" style="fill-opacity:0.08" />
<rect height="1.734726" width="10.000000" x="230.000000" y="438.222108" fill="rgb(0, 100, 0)" style="fill-opacity:0.08" />
<!-- End 'T' -->
<!-- Begin 'G' -->
<ellipse cx="235.000000" cy="439.978417" rx="25.000000" ry="0.021583" fill="rgb(255, 165, 0)" style="fill-opacity:0.08" />
<ellipse cx="235.000000" cy="439.978417" rx="16.666667" ry="0.014389" fill="rgb(255, 255, 255)" style="fill-opacity:1.00" />
<rect height="0.021583" width="25.000000" x="235.000000" y="439.967626" fill="rgb(255, 255, 255)" style="fill-opacity:1.00" />
<rect height="0.005396" width="25.000000" x="235.000000" y="439.983813" fill="rgb(255, 165, 0)" style="fill-opacity:0.08" />
<rect height="0.016187" width="6.250000" x="253.750000" y="439.983813" fill="rgb(255, 165, 0)" style="fill-opacity:0.08" />
<!-- End 'G' -->
<!-- Begin 'T' -->
<rect height="15.599537" width="50.000000" x="270.000000" y="10.000000" fill="rgb(0, 100, 0)" style="fill-opacity:0.98" />
<rect height="97.497105" width="10.000000" x="290.000000" y="10.000000" fill="rgb(0, 100, 0)" style="fill-opacity:0.98" />
<!-- End 'T' -->
<!-- Begin 'G' -->
<ellipse cx="295.000000" cy="108.709847" rx="25.000000" ry="1.212742" fill="rgb(255, 165, 0)" style="fill-opacity:0.98" />
<ellipse cx="295.000000" cy="108.709847" rx="16.666667" ry="0.808495" fill="rgb(255, 255, 255)" style="fill-opacity:1.00" />
<rect height="1.212742" width="25.000000" x="295.000000" y="108.103476" fill="rgb(255, 255, 255)" style="fill-opacity:1.00" />
<rect height="0.303186" width="25.000000" x="295.000000" y="109.013033" fill="rgb(255, 165, 0)" style="fill-opacity:0.98" />
<rect height="0.909557" width="6.250000" x="313.750000" y="109.013033" fill="rgb(255, 165, 0)" style="fill-opacity:0.98" />
<!-- End 'G' -->
<!-- Begin 'A' -->
<polygon points=" 270.000000, 109.999033, 291.000000, 109.922589, 299.000000, 109.922589, 320.000000, 109.999033, 312.500000, 109.999033, 306.250000, 109.979922, 283.750000, 109.979922, 277.500000, 109.999033" fill="rgb(178, 34, 34)" style="fill-opacity:0.98" />
<!-- End 'A' -->
<!-- Begin 'C' -->
<ellipse cx="295.000000" cy="109.999516" rx="25.000000" ry="0.000484" fill="rgb(0, 0, 128)" style="fill-opacity:0.98" />
<ellipse cx="295.000000" cy="109.999516" rx="16.666667" ry="0.000322" fill="rgb(255, 255, 255)" style="fill-opacity:1.00" />
<rect height="0.000484" width="25.000000" x="295.000000" y="109.999275" fill="rgb(255, 255, 255)" style="fill-opacity:1.00" />
<!-- End 'C' -->
<!-- Begin 'T' -->
<rect height="15.997948" width="50.000000" x="270.000000" y="120.000000" fill="rgb(0, 100, 0)" style="fill-opacity:0.01" />
<rect height="99.987175" width="10.000000" x="290.000000" y="120.000000" fill="rgb(0, 100, 0)" style="fill-opacity:0.01" />
<!-- End 'T' -->
<!-- Begin 'C' -->
<ellipse cx="295.000000" cy="219.992784" rx="25.000000" ry="0.005609" fill="rgb(0, 0, 128)" style="fill-opacity:0.01" />
<ellipse cx="295.000000" cy="219.992784" rx="16.666667" ry="0.003739" fill="rgb(255, 255, 255)" style="fill-opacity:1.00" />
<rect height="0.005609" width="25.000000" x="295.000000" y="219.989980" fill="rgb(255, 255, 255)" style="fill-opacity:1.00" />
<!-- End 'C' -->
<!-- Begin 'G' -->
<ellipse cx="295.000000" cy="219.998960" rx="25.000000" ry="0.000567" fill="rgb(255, 165, 0)" style="fill-opacity:0.01" />
<ellipse cx="295.000000" cy="219.998960" rx="16.666667" ry="0.000378" fill="rgb(255, 255, 255)" style="fill-opacity:1.00" />
<rect height="0.000567" width="25.000000" x="295.000000" y="219.998677" fill="rgb(255, 255, 255)" style="fill-opacity:1.00" />
<rect height="0.000142" width="25.000000" x="295.000000" y="219.999102" fill="rgb(255, 165, 0)" style="fill-opacity:0.01" />
<rect height="0.000425" width="6.250000" x="313.750000" y="219.999102" fill="rgb(255, 165, 0)" style="fill-opacity:0.01" />
<!-- End 'G' -->
<!-- Begin 'A' -->
<polygon points=" 270.000000, 220.000000, 291.000000, 219.999527, 299.000000, 219.999527, 320.000000, 220.000000, 312.500000, 220.000000, 306.250000, 219.999882, 283.750000, 219.999882, 277.500000, 220.000000" fill="rgb(178, 34, 34)" style="fill-opacity:0.01" />
<!-- End 'A' -->
<!-- Begin 'T' -->
<rect height="15.981200" width="50.000000" x="270.000000" y="230.000000" fill="rgb(0, 100, 0)" style="fill-opacity:0.00" />
<rect height="99.882498" width="10.000000" x="290.000000" y="230.000000" fill="rgb(0, 100, 0)" style="fill-opacity:0.00" />
<!-- End 'T' -->
<!-- Begin 'G' -->
<ellipse cx="295.000000" cy="329.930073" rx="25.000000" ry="0.047575" fill="rgb(255, 165, 0)" style="fill-opacity:0.00" />
<ellipse cx="295.000000" cy="329.930073" rx="16.666667" ry="0.031717" fill="rgb(255, 255, 255)" style="fill-opacity:1.00" />
<rect height="0.047575" width="25.000000" x="295.000000" y="329.906285" fill="rgb(255, 255, 255)" style="fill-opacity:1.00" />
<rect height="0.011894" width="25.000000" x="295.000000" y="329.941967" fill="rgb(255, 165, 0)" style="fill-opacity:0.00" />
<rect height="0.035681" width="6.250000" x="313.750000" y="329.941967" fill="rgb(255, 165, 0)" style="fill-opacity:0.00" />
<!-- End 'G' -->
<!-- Begin 'C' -->
<ellipse cx="295.000000" cy="329.988436" rx="25.000000" ry="0.010789" fill="rgb(0, 0, 128)" style="fill-opacity:0.00" />
<ellipse cx="295.000000" cy="329.988436" rx="16.666667" ry="0.007193" fill="rgb(255, 255, 255)" style="fill-opacity:1.00" />
<rect height="0.010789" width="25.000000" x="295.000000" y="329.983042" fill="rgb(255, 255, 255)" style="fill-opacity:1.00" />
<!-- End 'C' -->
<!-- Begin 'A' -->
<polygon points=" 270.000000, 330.000000, 291.000000, 329.999225, 299.000000, 329.999225, 320.000000, 330.000000, 312.500000, 330.000000, 306.250000, 329.999806, 283.750000, 329.999806, 277.500000, 330.000000" fill="rgb(178, 34, 34)" style="fill-opacity:0.00" />
<!-- End 'A' -->
<!-- Begin 'T' -->
<rect height="15.993986" width="50.000000" x="270.000000" y="340.000000" fill="rgb(0, 100, 0)" style="fill-opacity:0.00" />
<rect height="99.962412" width="10.000000" x="290.000000" y="340.000000" fill="rgb(0, 100, 0)" style="fill-opacity:0.00" />
<!-- End 'T' -->
<!-- Begin 'G' -->
<ellipse cx="295.000000" cy="439.980004" rx="25.000000" ry="0.017592" fill="rgb(255, 165, 0)" style="fill-opacity:0.00" />
<ellipse cx="295.000000" cy="439.980004" rx="16.666667" ry="0.011728" fill="rgb(255, 255, 255)" style="fill-opacity:1.00" />
<rect height="0.017592" width="25.000000" x="295.000000" y="439.971208" fill="rgb(255, 255, 255)" style="fill-opacity:1.00" />
<rect height="0.004398" width="25.000000" x="295.000000" y="439.984402" fill="rgb(255, 165, 0)" style="fill-opacity:0.00" />
<rect height="0.013194" width="6.250000" x="313.750000" y="439.984402" fill="rgb(255, 165, 0)" style="fill-opacity:0.00" />
<!-- End 'G' -->
<!-- Begin 'C' -->
<ellipse cx="295.000000" cy="439.998570" rx="25.000000" ry="0.000974" fill="rgb(0, 0, 128)" style="fill-opacity:0.00" />
<ellipse cx="295.000000" cy="439.998570" rx="16.666667" ry="0.000649" fill="rgb(255, 255, 255)" style="fill-opacity:1.00" />
<rect height="0.000974" width="25.000000" x="295.000000" y="439.998083" fill="rgb(255, 255, 255)" style="fill-opacity:1.00" />
<!-- End 'C' -->
<!-- Begin 'A' -->
<polygon points=" 270.000000, 440.000000, 291.000000, 439.999544, 299.000000, 439.999544, 320.000000, 440.000000, 312.500000, 440.000000, 306.250000, 439.999886, 283.750000, 439.999886, 277.500000, 440.000000" fill="rgb(178, 34, 34)" style="fill-opacity:0.00" />
<!-- End 'A' -->
<!-- Begin 'A' -->
<polygon points=" 330.000000, 109.873677, 351.000000, 10.000000, 359.000000, 10.000000, 380.000000, 109.873677, 372.500000, 109.873677, 366.250000, 84.905258, 343.750000, 84.905258, 337.500000, 109.873677" fill="rgb(178, 34, 34)" style="fill-opacity:0.00" />
<polygon points=" 355.000000, 29.974735, 347.000000, 68.924206, 362.000000, 68.924206" fill="rgb(255, 255, 255)" style="fill-opacity:1.00" />
<!-- End 'A' -->
<!-- Begin 'T' -->
<rect height="0.015035" width="50.000000" x="330.000000" y="109.873677" fill="rgb(0, 100, 0)" style="fill-opacity:0.00" />
<rect height="0.093970" width="10.000000" x="350.000000" y="109.873677" fill="rgb(0, 100, 0)" style="fill-opacity:0.00" />
<!-- End 'T' -->
<!-- Begin 'G' -->
<ellipse cx="355.000000" cy="109.981087" rx="25.000000" ry="0.013440" fill="rgb(255, 165, 0)" style="fill-opacity:0.00" />
<ellipse cx="355.000000" cy="109.981087" rx="16.666667" ry="0.008960" fill="rgb(255, 255, 255)" style="fill-opacity:1.00" />
<rect height="0.013440" width="25.000000" x="355.000000" y="109.974367" fill="rgb(255, 255, 255)" style="fill-opacity:1.00" />
<rect height="0.003360" width="25.000000" x="355.000000" y="109.984447" fill="rgb(255, 165, 0)" style="fill-opacity:0.00" />
<rect height="0.010080" width="6.250000" x="373.750000" y="109.984447" fill="rgb(255, 165, 0)" style="fill-opacity:0.00" />
<!-- End 'G' -->
<!-- Begin 'C' -->
<ellipse cx="355.000000" cy="109.997263" rx="25.000000" ry="0.002737" fill="rgb(0, 0, 128)" style="fill-opacity:0.00" />
<ellipse cx="355.000000" cy="109.997263" rx="16.666667" ry="0.001825" fill="rgb(255, 255, 255)" style="fill-opacity:1.00" />
<rect height="0.002737" width="25.000000" x="355.000000" y="109.995895" fill="rgb(255, 255, 255)" style="fill-opacity:1.00" />
<!-- End 'C' -->
<!-- Begin 'A' -->
<polygon points=" 330.000000, 176.771989, 351.000000, 120.000000, 359.000000, 120.000000, 380.000000, 176.771989, 372.500000, 176.771989, 366.250000, 162.578992, 343.750000, 162.578992, 337.500000, 176.771989" fill="rgb(178, 34, 34)" style="fill-opacity:0.00" />
<polygon points=" 355.000000, 131.354398, 347.000000, 153.063193, 362.000000, 153.063193" fill="rgb(255, 255, 255)" style="fill-opacity:1.00" />
<!-- End 'A' -->
<!-- Begin 'T' -->
<rect height="6.877201" width="50.000000" x="330.000000" y="176.771989" fill="rgb(0, 100, 0)" style="fill-opacity:0.00" />
<rect height="42.982507" width="10.000000" x="350.000000" y="176.771989" fill="rgb(0, 100, 0)" style="fill-opacity:0.00" />
<!-- End 'T' -->
<!-- Begin 'G' -->
<ellipse cx="355.000000" cy="219.842944" rx="25.000000" ry="0.088449" fill="rgb(255, 165, 0)" style="fill-opacity:0.00" />
<ellipse cx="355.000000" cy="219.842944" rx="16.666667" ry="0.058966" fill="rgb(255, 255, 255)" style="fill-opacity:1.00" />
<rect height="0.088449" width="25.000000" x="355.000000" y="219.798720" fill="rgb(255, 255, 255)" style="fill-opacity:1.00" />
<rect height="0.022112" width="25.000000" x="355.000000" y="219.865057" fill="rgb(255, 165, 0)" style="fill-opacity:0.00" />
<rect height="0.066337" width="6.250000" x="373.750000" y="219.865057" fill="rgb(255, 165, 0)" style="fill-opacity:0.00" />
<!-- End 'G' -->
<!-- Begin 'C' -->
<ellipse cx="355.000000" cy="219.965697" rx="25.000000" ry="0.034303" fill="rgb(0, 0, 128)" style="fill-opacity:0.00" />
<ellipse cx="355.000000" cy="219.965697" rx="16.666667" ry="0.022869" fill="rgb(255, 255, 255)" style="fill-opacity:1.00" />
<rect height="0.034303" width="25.000000" x="355.000000" y="219.948545" fill="rgb(255, 255, 255)" style="fill-opacity:1.00" />
<!-- End 'C' -->
<!-- Begin 'A' -->
<polygon points=" 330.000000, 328.696476, 351.000000, 230.000000, 359.000000, 230.000000, 380.000000, 328.696476, 372.500000, 328.696476, 366.250000, 304.022357, 343.750000, 304.022357, 337.500000, 328.696476" fill="rgb(178, 34, 34)" style="fill-opacity:0.02" />
<polygon points=" 355.000000, 249.739295, 347.000000, 288.217885, 362.000000, 288.217885" fill="rgb(255, 255, 255)" style="fill-opacity:1.00" />
<!-- End 'A' -->
<!-- Begin 'T' -->
<rect height="0.208325" width="50.000000" x="330.000000" y="328.696476" fill="rgb(0, 100, 0)" style="fill-opacity:0.02" />
<rect height="1.302033" width="10.000000" x="350.000000" y="328.696476" fill="rgb(0, 100, 0)" style="fill-opacity:0.02" />
<!-- End 'T' -->
<!-- Begin 'C' -->
<ellipse cx="355.000000" cy="329.998987" rx="25.000000" ry="0.000478" fill="rgb(0, 0, 128)" style="fill-opacity:0.02" />
<ellipse cx="355.000000" cy="329.998987" rx="16.666667" ry="0.000318" fill="rgb(255, 255, 255)" style="fill-opacity:1.00" />
<rect height="0.000478" width="25.000000" x="355.000000" y="329.998748" fill="rgb(255, 255, 255)" style="fill-opacity:1.00" />
<!-- End 'C' -->
<!-- Begin 'G' -->
<ellipse cx="355.000000" cy="329.999732" rx="25.000000" ry="0.000268" fill="rgb(255, 165, 0)" style="fill-opacity:0.02" />
<ellipse cx="355.000000" cy="329.999732" rx="16.666667" ry="0.000179" fill="rgb(255, 255, 255)" style="fill-opacity:1.00" />
<rect height="0.000268" width="25.000000" x="355.000000" y="329.999598" fill="rgb(255, 255, 255)" style="fill-opacity:1.00" />
<rect height="0.000067" width="25.000000" x="355.000000" y="329.999799" fill="rgb(255, 165, 0)" style="fill-opacity:0.02" />
<rect height="0.000201" width="6.250000" x="373.750000" y="329.999799" fill="rgb(255, 165, 0)" style="fill-opacity:0.02" />
<!-- End 'G' -->
<!-- Begin 'A' -->
<polygon points=" 330.000000, 422.518891, 351.000000, 340.000000, 359.000000, 340.000000, 380.000000, 422.518891, 372.500000, 422.518891, 366.250000, 401.889168, 343.750000, 401.889168, 337.500000, 422.518891" fill="rgb(178, 34, 34)" style="fill-opacity:0.98" />
<polygon points=" 355.000000, 356.503778, 347.000000, 388.511335, 362.000000, 388.511335" fill="rgb(255, 255, 255)" style="fill-opacity:1.00" />
<!-- End 'A' -->
<!-- Begin 'T' -->
<rect height="1.790279" width="50.000000" x="330.000000" y="422.518891" fill="rgb(0, 100, 0)" style="fill-opacity:0.98" />
<rect height="11.189241" width="10.000000" x="350.000000" y="422.518891" fill="rgb(0, 100, 0)" style="fill-opacity:0.98" />
<!-- End 'T' -->
<!-- Begin 'C' -->
<ellipse cx="355.000000" cy="436.827082" rx="25.000000" ry="3.118950" fill="rgb(0, 0, 128)" style="fill-opacity:0.98" />
<ellipse cx="355.000000" cy="436.827082" rx="16.666667" ry="2.079300" fill="rgb(255, 255, 255)" style="fill-opacity:1.00" />
<rect height="3.118950" width="25.000000" x="355.000000" y="435.267607" fill="rgb(255, 255, 255)" style="fill-opacity:1.00" />
<!-- End 'C' -->
<!-- Begin 'G' -->
<ellipse cx="355.000000" cy="439.973016" rx="25.000000" ry="0.026984" fill="rgb(255, 165, 0)" style="fill-opacity:0.98" />
<ellipse cx="355.000000" cy="439.973016" rx="16.666667" ry="0.017990" fill="rgb(255, 255, 255)" style="fill-opacity:1.00" />
<rect height="0.026984" width="25.000000" x="355.000000" y="439.959523" fill="rgb(255, 255, 255)" style="fill-opacity:1.00" />
<rect height="0.006746" width="25.000000" x="355.000000" y="439.979762" fill="rgb(255, 165, 0)" style="fill-opacity:0.98" />
<rect height="0.020238" width="6.250000" x="373.750000" y="439.979762" fill="rgb(255, 165, 0)" style="fill-opacity:0.98" />
<!-- End 'G' -->
<!-- Begin 'T' -->
<rect height="15.400750" width="50.000000" x="390.000000" y="10.000000" fill="rgb(0, 100, 0)" style="fill-opacity:0.83" />
<rect height="96.254688" width="10.000000" x="410.000000" y="10.000000" fill="rgb(0, 100, 0)" style="fill-opacity:0.83" />
<!-- End 'T' -->
<!-- Begin 'A' -->
<polygon points=" 390.000000, 107.896173, 411.000000, 106.254688, 419.000000, 106.254688, 440.000000, 107.896173, 432.500000, 107.896173, 426.250000, 107.485802, 403.750000, 107.485802, 397.500000, 107.896173" fill="rgb(178, 34, 34)" style="fill-opacity:0.83" />
<!-- End 'A' -->
<!-- Begin 'C' -->
<ellipse cx="415.000000" cy="108.623959" rx="25.000000" ry="0.727787" fill="rgb(0, 0, 128)" style="fill-opacity:0.83" />
<ellipse cx="415.000000" cy="108.623959" rx="16.666667" ry="0.485191" fill="rgb(255, 255, 255)" style="fill-opacity:1.00" />
<rect height="0.727787" width="25.000000" x="415.000000" y="108.260066" fill="rgb(255, 255, 255)" style="fill-opacity:1.00" />
<!-- End 'C' -->
<!-- Begin 'G' -->
<ellipse cx="415.000000" cy="109.675873" rx="25.000000" ry="0.324127" fill="rgb(255, 165, 0)" style="fill-opacity:0.83" />
<ellipse cx="415.000000" cy="109.675873" rx="16.666667" ry="0.216085" fill="rgb(255, 255, 255)" style="fill-opacity:1.00" />
<rect height="0.324127" width="25.000000" x="415.000000" y="109.513809" fill="rgb(255, 255, 255)" style="fill-opacity:1.00" />
<rect height="0.081032" width="25.000000" x="415.000000" y="109.756905" fill="rgb(255, 165, 0)" style="fill-opacity:0.83" />
<rect height="0.243095" width="6.250000" x="433.750000" y="109.756905" fill="rgb(255, 165, 0)" style="fill-opacity:0.83" />
<!-- End 'G' -->
<!-- Begin 'T' -->
<rect height="15.999903" width="50.000000" x="390.000000" y="120.000000" fill="rgb(0, 100, 0)" style="fill-opacity:0.06" />
<rect height="99.999393" width="10.000000" x="410.000000" y="120.000000" fill="rgb(0, 100, 0)" style="fill-opacity:0.06" />
<!-- End 'T' -->
<!-- Begin 'A' -->
<polygon points=" 390.000000, 219.999799, 411.000000, 219.999393, 419.000000, 219.999393, 440.000000, 219.999799, 432.500000, 219.999799, 426.250000, 219.999697, 403.750000, 219.999697, 397.500000, 219.999799" fill="rgb(178, 34, 34)" style="fill-opacity:0.06" />
<!-- End 'A' -->
<!-- Begin 'G' -->
<ellipse cx="415.000000" cy="219.999888" rx="25.000000" ry="0.000089" fill="rgb(255, 165, 0)" style="fill-opacity:0.06" />
<ellipse cx="415.000000" cy="219.999888" rx="16.666667" ry="0.000059" fill="rgb(255, 255, 255)" style="fill-opacity:1.00" />
<rect height="0.000089" width="25.000000" x="415.000000" y="219.999843" fill="rgb(255, 255, 255)" style="fill-opacity:1.00" />
<rect height="0.000022" width="25.000000" x="415.000000" y="219.999910" fill="rgb(255, 165, 0)" style="fill-opacity:0.06" />
<rect height="0.000067" width="6.250000" x="433.750000" y="219.999910" fill="rgb(255, 165, 0)" style="fill-opacity:0.06" />
<!-- End 'G' -->
<!-- Begin 'C' -->
<ellipse cx="415.000000" cy="219.999988" rx="25.000000" ry="0.000012" fill="rgb(0, 0, 128)" style="fill-opacity:0.06" />
<ellipse cx="415.000000" cy="219.999988" rx="16.666667" ry="0.000008" fill="rgb(255, 255, 255)" style="fill-opacity:1.00" />
<rect height="0.000012" width="25.000000" x="415.000000" y="219.999982" fill="rgb(255, 255, 255)" style="fill-opacity:1.00" />
<!-- End 'C' -->
<!-- Begin 'T' -->
<rect height="13.815698" width="50.000000" x="390.000000" y="230.000000" fill="rgb(0, 100, 0)" style="fill-opacity:0.00" />
<rect height="86.348113" width="10.000000" x="410.000000" y="230.000000" fill="rgb(0, 100, 0)" style="fill-opacity:0.00" />
<!-- End 'T' -->
<!-- Begin 'A' -->
<polygon points=" 390.000000, 329.985922, 411.000000, 316.348113, 419.000000, 316.348113, 440.000000, 329.985922, 432.500000, 329.985922, 426.250000, 326.576470, 403.750000, 326.576470, 397.500000, 329.985922" fill="rgb(178, 34, 34)" style="fill-opacity:0.00" />
<polygon points=" 415.000000, 319.075675, 407.000000, 323.530798, 422.000000, 323.530798" fill="rgb(255, 255, 255)" style="fill-opacity:1.00" />
<!-- End 'A' -->
<!-- Begin 'G' -->
<ellipse cx="415.000000" cy="329.992420" rx="25.000000" ry="0.006498" fill="rgb(255, 165, 0)" style="fill-opacity:0.00" />
<ellipse cx="415.000000" cy="329.992420" rx="16.666667" ry="0.004332" fill="rgb(255, 255, 255)" style="fill-opacity:1.00" />
<rect height="0.006498" width="25.000000" x="415.000000" y="329.989171" fill="rgb(255, 255, 255)" style="fill-opacity:1.00" />
<rect height="0.001625" width="25.000000" x="415.000000" y="329.994045" fill="rgb(255, 165, 0)" style="fill-opacity:0.00" />
<rect height="0.004874" width="6.250000" x="433.750000" y="329.994045" fill="rgb(255, 165, 0)" style="fill-opacity:0.00" />
<!-- End 'G' -->
<!-- Begin 'C' -->
<ellipse cx="415.000000" cy="329.999459" rx="25.000000" ry="0.000541" fill="rgb(0, 0, 128)" style="fill-opacity:0.00" />
<ellipse cx="415.000000" cy="329.999459" rx="16.666667" ry="0.000360" fill="rgb(255, 255, 255)" style="fill-opacity:1.00" />
<rect height="0.000541" width="25.000000" x="415.000000" y="329.999189" fill="rgb(255, 255, 255)" style="fill-opacity:1.00" />
<!-- End 'C' -->
<!-- Begin 'T' -->
<rect height="14.620002" width="50.000000" x="390.000000" y="340.000000" fill="rgb(0, 100, 0)" style="fill-opacity:0.11" />
<rect height="91.375012" width="10.000000" x="410.000000" y="340.000000" fill="rgb(0, 100, 0)" style="fill-opacity:0.11" />
<!-- End 'T' -->
<!-- Begin 'C' -->
<ellipse cx="415.000000" cy="435.326456" rx="25.000000" ry="3.951443" fill="rgb(0, 0, 128)" style="fill-opacity:0.11" />
<ellipse cx="415.000000" cy="435.326456" rx="16.666667" ry="2.634296" fill="rgb(255, 255, 255)" style="fill-opacity:1.00" />
<rect height="3.951443" width="25.000000" x="415.000000" y="433.350734" fill="rgb(255, 255, 255)" style="fill-opacity:1.00" />
<!-- End 'C' -->
<!-- Begin 'A' -->
<polygon points=" 390.000000, 439.976364, 411.000000, 439.277899, 419.000000, 439.277899, 440.000000, 439.976364, 432.500000, 439.976364, 426.250000, 439.801748, 403.750000, 439.801748, 397.500000, 439.976364" fill="rgb(178, 34, 34)" style="fill-opacity:0.11" />
<!-- End 'A' -->
<!-- Begin 'G' -->
<ellipse cx="415.000000" cy="439.988182" rx="25.000000" ry="0.011818" fill="rgb(255, 165, 0)" style="fill-opacity:0.11" />
<ellipse cx="415.000000" cy="439.988182" rx="16.666667" ry="0.007879" fill="rgb(255, 255, 255)" style="fill-opacity:1.00" />
<rect height="0.011818" width="25.000000" x="415.000000" y="439.982273" fill="rgb(255, 255, 255)" style="fill-opacity:1.00" />
<rect height="0.002955" width="25.000000" x="415.000000" y="439.991136" fill="rgb(255, 165, 0)" style="fill-opacity:0.11" />
<rect height="0.008864" width="6.250000" x="433.750000" y="439.991136" fill="rgb(255, 165, 0)" style="fill-opacity:0.11" />
<!-- End 'G' -->
<!-- Begin 'T' -->
<rect height="15.987250" width="50.000000" x="450.000000" y="10.000000" fill="rgb(0, 100, 0)" style="fill-opacity:0.01" />
<rect height="99.920316" width="10.000000" x="470.000000" y="10.000000" fill="rgb(0, 100, 0)" style="fill-opacity:0.01" />
<!-- End 'T' -->
<!-- Begin 'A' -->
<polygon points=" 450.000000, 109.994191, 471.000000, 109.920316, 479.000000, 109.920316, 500.000000, 109.994191, 492.500000, 109.994191, 486.250000, 109.975722, 463.750000, 109.975722, 457.500000, 109.994191" fill="rgb(178, 34, 34)" style="fill-opacity:0.01" />
<!-- End 'A' -->
<!-- Begin 'C' -->
<ellipse cx="475.000000" cy="109.996682" rx="25.000000" ry="0.002491" fill="rgb(0, 0, 128)" style="fill-opacity:0.01" />
<ellipse cx="475.000000" cy="109.996682" rx="16.666667" ry="0.001660" fill="rgb(255, 255, 255)" style="fill-opacity:1.00" />
<rect height="0.002491" width="25.000000" x="475.000000" y="109.995436" fill="rgb(255, 255, 255)" style="fill-opacity:1.00" />
<!-- End 'C' -->
<!-- Begin 'G' -->
<ellipse cx="475.000000" cy="109.999586" rx="25.000000" ry="0.000414" fill="rgb(255, 165, 0)" style="fill-opacity:0.01" />
<ellipse cx="475.000000" cy="109.999586" rx="16.666667" ry="0.000276" fill="rgb(255, 255, 255)" style="fill-opacity:1.00" />
<rect height="0.000414" width="25.000000" x="475.000000" y="109.999379" fill="rgb(255, 255, 255)" style="fill-opacity:1.00" />
<rect height="0.000103" width="25.000000" x="475.000000" y="109.999690" fill="rgb(255, 165, 0)" style="fill-opacity:0.01" />
<rect height="0.000310" width="6.250000" x="493.750000" y="109.999690" fill="rgb(255, 165, 0)" style="fill-opacity:0.01" />
<!-- End 'G' -->
<!-- Begin 'T' -->
<rect height="13.029485" width="50.000000" x="450.000000" y="120.000000" fill="rgb(0, 100, 0)" style="fill-opacity:0.02" />
<rect height="81.434282" width="10.000000" x="470.000000" y="120.000000" fill="rgb(0, 100, 0)" style="fill-opacity:0.02" />
<!-- End 'T' -->
<!-- Begin 'G' -->
<ellipse cx="475.000000" cy="208.151357" rx="25.000000" ry="6.717075" fill="rgb(255, 165, 0)" style="fill-opacity:0.02" />
<ellipse cx="475.000000" cy="208.151357" rx="16.666667" ry="4.478050" fill="rgb(255, 255, 255)" style="fill-opacity:1.00" />
<rect height="6.717075" width="25.000000" x="475.000000" y="204.792819" fill="rgb(255, 255, 255)" style="fill-opacity:1.00" />
<rect height="1.679269" width="25.000000" x="475.000000" y="209.830625" fill="rgb(255, 165, 0)" style="fill-opacity:0.02" />
<rect height="5.037806" width="6.250000" x="493.750000" y="209.830625" fill="rgb(255, 165, 0)" style="fill-opacity:0.02" />
<!-- End 'G' -->
<!-- Begin 'A' -->
<polygon points=" 450.000000, 219.965767, 471.000000, 214.868432, 479.000000, 214.868432, 500.000000, 219.965767, 492.500000, 219.965767, 486.250000, 218.691433, 463.750000, 218.691433, 457.500000, 219.965767" fill="rgb(178, 34, 34)" style="fill-opacity:0.02" />
<!-- End 'A' -->
<!-- Begin 'C' -->
<ellipse cx="475.000000" cy="219.982883" rx="25.000000" ry="0.017117" fill="rgb(0, 0, 128)" style="fill-opacity:0.02" />
<ellipse cx="475.000000" cy="219.982883" rx="16.666667" ry="0.011411" fill="rgb(255, 255, 255)" style="fill-opacity:1.00" />
<rect height="0.017117" width="25.000000" x="475.000000" y="219.974325" fill="rgb(255, 255, 255)" style="fill-opacity:1.00" />
<!-- End 'C' -->
<!-- Begin 'T' -->
<rect height="15.716642" width="50.000000" x="450.000000" y="230.000000" fill="rgb(0, 100, 0)" style="fill-opacity:0.01" />
<rect height="98.229013" width="10.000000" x="470.000000" y="230.000000" fill="rgb(0, 100, 0)" style="fill-opacity:0.01" />
<!-- End 'T' -->
<!-- Begin 'A' -->
<polygon points=" 450.000000, 329.885057, 471.000000, 328.229013, 479.000000, 328.229013, 500.000000, 329.885057, 492.500000, 329.885057, 486.250000, 329.471046, 463.750000, 329.471046, 457.500000, 329.885057" fill="rgb(178, 34, 34)" style="fill-opacity:0.01" />
<!-- End 'A' -->
<!-- Begin 'C' -->
<ellipse cx="475.000000" cy="329.939468" rx="25.000000" ry="0.054411" fill="rgb(0, 0, 128)" style="fill-opacity:0.01" />
<ellipse cx="475.000000" cy="329.939468" rx="16.666667" ry="0.036274" fill="rgb(255, 255, 255)" style="fill-opacity:1.00" />
<rect height="0.054411" width="25.000000" x="475.000000" y="329.912262" fill="rgb(255, 255, 255)" style="fill-opacity:1.00" />
<!-- End 'C' -->
<!-- Begin 'G' -->
<ellipse cx="475.000000" cy="329.996940" rx="25.000000" ry="0.003060" fill="rgb(255, 165, 0)" style="fill-opacity:0.01" />
<ellipse cx="475.000000" cy="329.996940" rx="16.666667" ry="0.002040" fill="rgb(255, 255, 255)" style="fill-opacity:1.00" />
<rect height="0.003060" width="25.000000" x="475.000000" y="329.995409" fill="rgb(255, 255, 255)" style="fill-opacity:1.00" />
<rect height="0.000765" width="25.000000" x="475.000000" y="329.997705" fill="rgb(255, 165, 0)" style="fill-opacity:0.01" />
<rect height="0.002295" width="6.250000" x="493.750000" y="329.997705" fill="rgb(255, 165, 0)" style="fill-opacity:0.01" />
<!-- End 'G' -->
<!-- Begin 'T' -->
<rect height="8.764921" width="50.000000" x="450.000000" y="340.000000" fill="rgb(0, 100, 0)" style="fill-opacity:0.96" />
<rect height="54.780754" width="10.000000" x="470.000000" y="340.000000" fill="rgb(0, 100, 0)" style="fill-opacity:0.96" />
<!-- End 'T' -->
<!-- Begin 'C' -->
<ellipse cx="475.000000" cy="413.216446" rx="25.000000" ry="18.435692" fill="rgb(0, 0, 128)" style="fill-opacity:0.96" />
<ellipse cx="475.000000" cy="413.216446" rx="16.666667" ry="12.290462" fill="rgb(255, 255, 255)" style="fill-opacity:1.00" />
<rect height="18.435692" width="25.000000" x="475.000000" y="403.998600" fill="rgb(255, 255, 255)" style="fill-opacity:1.00" />
<!-- End 'C' -->
<!-- Begin 'A' -->
<polygon points=" 450.000000, 436.939840, 471.000000, 431.652138, 479.000000, 431.652138, 500.000000, 436.939840, 492.500000, 436.939840, 486.250000, 435.617915, 463.750000, 435.617915, 457.500000, 436.939840" fill="rgb(178, 34, 34)" style="fill-opacity:0.96" />
<!-- End 'A' -->
<!-- Begin 'G' -->
<ellipse cx="475.000000" cy="438.469920" rx="25.000000" ry="1.530080" fill="rgb(255, 165, 0)" style="fill-opacity:0.96" />
<ellipse cx="475.000000" cy="438.469920" rx="16.666667" ry="1.020053" fill="rgb(255, 255, 255)" style="fill-opacity:1.00" />
<rect height="1.530080" width="25.000000" x="475.000000" y="437.704880" fill="rgb(255, 255, 255)" style="fill-opacity:1.00" />
<rect height="0.382520" width="25.000000" x="475.000000" y="438.852440" fill="rgb(255, 165, 0)" style="fill-opacity:0.96" />
<rect height="1.147560" width="6.250000" x="493.750000" y="438.852440" fill="rgb(255, 165, 0)" style="fill-opacity:0.96" />
<!-- End 'G' -->
<!-- Begin 'T' -->
<rect height="10.156177" width="50.000000" x="510.000000" y="10.000000" fill="rgb(0, 100, 0)" style="fill-opacity:0.05" />
<rect height="63.476105" width="10.000000" x="530.000000" y="10.000000" fill="rgb(0, 100, 0)" style="fill-opacity:0.05" />
<!-- End 'T' -->
<!-- Begin 'A' -->
<polygon points=" 510.000000, 86.557949, 531.000000, 73.476105, 539.000000, 73.476105, 560.000000, 86.557949, 552.500000, 86.557949, 546.250000, 83.287488, 523.750000, 83.287488, 517.500000, 86.557949" fill="rgb(178, 34, 34)" style="fill-opacity:0.05" />
<polygon points=" 535.000000, 76.092474, 527.000000, 80.325212, 542.000000, 80.325212" fill="rgb(255, 255, 255)" style="fill-opacity:1.00" />
<!-- End 'A' -->
<!-- Begin 'G' -->
<ellipse cx="535.000000" cy="92.609182" rx="25.000000" ry="6.051233" fill="rgb(255, 165, 0)" style="fill-opacity:0.05" />
<ellipse cx="535.000000" cy="92.609182" rx="16.666667" ry="4.034155" fill="rgb(255, 255, 255)" style="fill-opacity:1.00" />
<rect height="6.051233" width="25.000000" x="535.000000" y="89.583565" fill="rgb(255, 255, 255)" style="fill-opacity:1.00" />
<rect height="1.512808" width="25.000000" x="535.000000" y="94.121990" fill="rgb(255, 165, 0)" style="fill-opacity:0.05" />
<rect height="4.538424" width="6.250000" x="553.750000" y="94.121990" fill="rgb(255, 165, 0)" style="fill-opacity:0.05" />
<!-- End 'G' -->
<!-- Begin 'C' -->
<ellipse cx="535.000000" cy="104.330207" rx="25.000000" ry="5.669793" fill="rgb(0, 0, 128)" style="fill-opacity:0.05" />
<ellipse cx="535.000000" cy="104.330207" rx="16.666667" ry="3.779862" fill="rgb(255, 255, 255)" style="fill-opacity:1.00" />
<rect height="5.669793" width="25.000000" x="535.000000" y="101.495311" fill="rgb(255, 255, 255)" style="fill-opacity:1.00" />
<!-- End 'C' -->
<!-- Begin 'T' -->
<rect height="10.591065" width="50.000000" x="510.000000" y="120.000000" fill="rgb(0, 100, 0)" style="fill-opacity:0.35" />
<rect height="66.194155" width="10.000000" x="530.000000" y="120.000000" fill="rgb(0, 100, 0)" style="fill-opacity:0.35" />
<!-- End 'T' -->
<!-- Begin 'A' -->
<polygon points=" 510.000000, 205.908406, 531.000000, 186.194155, 539.000000, 186.194155, 560.000000, 205.908406, 552.500000, 205.908406, 546.250000, 200.979843, 523.750000, 200.979843, 517.500000, 205.908406" fill="rgb(178, 34, 34)" style="fill-opacity:0.35" />
<polygon points=" 535.000000, 190.137005, 527.000000, 197.022706, 542.000000, 197.022706" fill="rgb(255, 255, 255)" style="fill-opacity:1.00" />
<!-- End 'A' -->
<!-- Begin 'C' -->
<ellipse cx="535.000000" cy="211.096356" rx="25.000000" ry="5.187950" fill="rgb(0, 0, 128)" style="fill-opacity:0.35" />
<ellipse cx="535.000000" cy="211.096356" rx="16.666667" ry="3.458633" fill="rgb(255, 255, 255)" style="fill-opacity:1.00" />
<rect height="5.187950" width="25.000000" x="535.000000" y="208.502381" fill="rgb(255, 255, 255)" style="fill-opacity:1.00" />
<!-- End 'C' -->
<!-- Begin 'G' -->
<ellipse cx="535.000000" cy="218.142153" rx="25.000000" ry="1.857847" fill="rgb(255, 165, 0)" style="fill-opacity:0.35" />
<ellipse cx="535.000000" cy="218.142153" rx="16.666667" ry="1.238565" fill="rgb(255, 255, 255)" style="fill-opacity:1.00" />
<rect height="1.857847" width="25.000000" x="535.000000" y="217.213229" fill="rgb(255, 255, 255)" style="fill-opacity:1.00" />
<rect height="0.464462" width="25.000000" x="535.000000" y="218.606615" fill="rgb(255, 165, 0)" style="fill-opacity:0.35" />
<rect height="1.393385" width="6.250000" x="553.750000" y="218.606615" fill="rgb(255, 165, 0)" style="fill-opacity:0.35" />
<!-- End 'G' -->
<!-- Begin 'T' -->
<rect height="7.577192" width="50.000000" x="510.000000" y="230.000000" fill="rgb(0, 100, 0)" style="fill-opacity:0.03" />
<rect height="47.357448" width="10.000000" x="530.000000" y="230.000000" fill="rgb(0, 100, 0)" style="fill-opacity:0.03" />
<!-- End 'T' -->
<!-- Begin 'A' -->
<polygon points=" 510.000000, 311.778247, 531.000000, 277.357448, 539.000000, 277.357448, 560.000000, 311.778247, 552.500000, 311.778247, 546.250000, 303.173047, 523.750000, 303.173047, 517.500000, 311.778247" fill="rgb(178, 34, 34)" style="fill-opacity:0.03" />
<polygon points=" 535.000000, 284.241608, 527.000000, 297.009927, 542.000000, 297.009927" fill="rgb(255, 255, 255)" style="fill-opacity:1.00" />
<!-- End 'A' -->
<!-- Begin 'G' -->
<ellipse cx="535.000000" cy="317.316863" rx="25.000000" ry="5.538616" fill="rgb(255, 165, 0)" style="fill-opacity:0.03" />
<ellipse cx="535.000000" cy="317.316863" rx="16.666667" ry="3.692411" fill="rgb(255, 255, 255)" style="fill-opacity:1.00" />
<rect height="5.538616" width="25.000000" x="535.000000" y="314.547555" fill="rgb(255, 255, 255)" style="fill-opacity:1.00" />
<rect height="1.384654" width="25.000000" x="535.000000" y="318.701517" fill="rgb(255, 165, 0)" style="fill-opacity:0.03" />
<rect height="4.153962" width="6.250000" x="553.750000" y="318.701517" fill="rgb(255, 165, 0)" style="fill-opacity:0.03" />
<!-- End 'G' -->
<!-- Begin 'C' -->
<ellipse cx="535.000000" cy="326.427739" rx="25.000000" ry="3.572261" fill="rgb(0, 0, 128)" style="fill-opacity:0.03" />
<ellipse cx="535.000000" cy="326.427739" rx="16.666667" ry="2.381507" fill="rgb(255, 255, 255)" style="fill-opacity:1.00" />
<rect height="3.572261" width="25.000000" x="535.000000" y="324.641609" fill="rgb(255, 255, 255)" style="fill-opacity:1.00" />
<!-- End 'C' -->
<!-- Begin 'T' -->
<rect height="11.733053" width="50.000000" x="510.000000" y="340.000000" fill="rgb(0, 100, 0)" style="fill-opacity:0.56" />
<rect height="73.331584" width="10.000000" x="530.000000" y="340.000000" fill="rgb(0, 100, 0)" style="fill-opacity:0.56" />
<!-- End 'T' -->
<!-- Begin 'A' -->
<polygon points=" 510.000000, 430.217137, 531.000000, 413.331584, 539.000000, 413.331584, 560.000000, 430.217137, 552.500000, 430.217137, 546.250000, 425.995748, 523.750000, 425.995748, 517.500000, 430.217137" fill="rgb(178, 34, 34)" style="fill-opacity:0.56" />
<polygon points=" 535.000000, 416.708694, 527.000000, 422.462915, 542.000000, 422.462915" fill="rgb(255, 255, 255)" style="fill-opacity:1.00" />
<!-- End 'A' -->
<!-- Begin 'G' -->
<ellipse cx="535.000000" cy="432.667728" rx="25.000000" ry="2.450591" fill="rgb(255, 165, 0)" style="fill-opacity:0.56" />
<ellipse cx="535.000000" cy="432.667728" rx="16.666667" ry="1.633728" fill="rgb(255, 255, 255)" style="fill-opacity:1.00" />
<rect height="2.450591" width="25.000000" x="535.000000" y="431.442432" fill="rgb(255, 255, 255)" style="fill-opacity:1.00" />
<rect height="0.612648" width="25.000000" x="535.000000" y="433.280376" fill="rgb(255, 165, 0)" style="fill-opacity:0.56" />
<rect height="1.837944" width="6.250000" x="553.750000" y="433.280376" fill="rgb(255, 165, 0)" style="fill-opacity:0.56" />
<!-- End 'G' -->
<!-- Begin 'C' -->
<ellipse cx="535.000000" cy="437.559160" rx="25.000000" ry="2.440840" fill="rgb(0, 0, 128)" style="fill-opacity:0.56" />
<ellipse cx="535.000000" cy="437.559160" rx="16.666667" ry="1.627227" fill="rgb(255, 255, 255)" style="fill-opacity:1.00" />
<rect height="2.440840" width="25.000000" x="535.000000" y="436.338740" fill="rgb(255, 255, 255)" style="fill-opacity:1.00" />
<!-- End 'C' -->
<!-- Begin 'T' -->
<rect height="7.534940" width="50.000000" x="570.000000" y="10.000000" fill="rgb(0, 100, 0)" style="fill-opacity:0.18" />
<rect height="47.093373" width="10.000000" x="590.000000" y="10.000000" fill="rgb(0, 100, 0)" style="fill-opacity:0.18" />
<!-- End 'T' -->
<!-- Begin 'A' -->
<polygon points=" 570.000000, 91.219586, 591.000000, 57.093373, 599.000000, 57.093373, 620.000000, 91.219586, 612.500000, 91.219586, 606.250000, 82.688033, 583.750000, 82.688033, 577.500000, 91.219586" fill="rgb(178, 34, 34)" style="fill-opacity:0.18" />
<polygon points=" 595.000000, 63.918616, 587.000000, 76.569101, 602.000000, 76.569101" fill="rgb(255, 255, 255)" style="fill-opacity:1.00" />
<!-- End 'A' -->
<!-- Begin 'G' -->
<ellipse cx="595.000000" cy="96.325541" rx="25.000000" ry="5.105955" fill="rgb(255, 165, 0)" style="fill-opacity:0.18" />
<ellipse cx="595.000000" cy="96.325541" rx="16.666667" ry="3.403970" fill="rgb(255, 255, 255)" style="fill-opacity:1.00" />
<rect height="5.105955" width="25.000000" x="595.000000" y="93.772563" fill="rgb(255, 255, 255)" style="fill-opacity:1.00" />
<rect height="1.276489" width="25.000000" x="595.000000" y="97.602029" fill="rgb(255, 165, 0)" style="fill-opacity:0.18" />
<rect height="3.829466" width="6.250000" x="613.750000" y="97.602029" fill="rgb(255, 165, 0)" style="fill-opacity:0.18" />
<!-- End 'G' -->
<!-- Begin 'C' -->
<ellipse cx="595.000000" cy="105.715748" rx="25.000000" ry="4.284252" fill="rgb(0, 0, 128)" style="fill-opacity:0.18" />
<ellipse cx="595.000000" cy="105.715748" rx="16.666667" ry="2.856168" fill="rgb(255, 255, 255)" style="fill-opacity:1.00" />
<rect height="4.284252" width="25.000000" x="595.000000" y="103.573622" fill="rgb(255, 255, 255)" style="fill-opacity:1.00" />
<!-- End 'C' -->
<!-- Begin 'T' -->
<rect height="6.052765" width="50.000000" x="570.000000" y="120.000000" fill="rgb(0, 100, 0)" style="fill-opacity:0.07" />
<rect height="37.829783" width="10.000000" x="590.000000" y="120.000000" fill="rgb(0, 100, 0)" style="fill-opacity:0.07" />
<!-- End 'T' -->
<!-- Begin 'A' -->
<polygon points=" 570.000000, 195.294950, 591.000000, 157.829783, 599.000000, 157.829783, 620.000000, 195.294950, 612.500000, 195.294950, 606.250000, 185.928658, 583.750000, 185.928658, 577.500000, 195.294950" fill="rgb(178, 34, 34)" style="fill-opacity:0.07" />
<polygon points=" 595.000000, 165.322816, 587.000000, 179.308883, 602.000000, 179.308883" fill="rgb(255, 255, 255)" style="fill-opacity:1.00" />
<!-- End 'A' -->
<!-- Begin 'G' -->
<ellipse cx="595.000000" cy="204.232713" rx="25.000000" ry="8.937763" fill="rgb(255, 165, 0)" style="fill-opacity:0.07" />
<ellipse cx="595.000000" cy="204.232713" rx="16.666667" ry="5.958509" fill="rgb(255, 255, 255)" style="fill-opacity:1.00" />
<rect height="8.937763" width="25.000000" x="595.000000" y="199.763831" fill="rgb(255, 255, 255)" style="fill-opacity:1.00" />
<rect height="2.234441" width="25.000000" x="595.000000" y="206.467154" fill="rgb(255, 165, 0)" style="fill-opacity:0.07" />
<rect height="6.703322" width="6.250000" x="613.750000" y="206.467154" fill="rgb(255, 165, 0)" style="fill-opacity:0.07" />
<!-- End 'G' -->
<!-- Begin 'C' -->
<ellipse cx="595.000000" cy="216.585238" rx="25.000000" ry="3.414762" fill="rgb(0, 0, 128)" style="fill-opacity:0.07" />
<ellipse cx="595.000000" cy="216.585238" rx="16.666667" ry="2.276508" fill="rgb(255, 255, 255)" style="fill-opacity:1.00" />
<rect height="3.414762" width="25.000000" x="595.000000" y="214.877857" fill="rgb(255, 255, 255)" style="fill-opacity:1.00" />
<!-- End 'C' -->
<!-- Begin 'T' -->
<rect height="7.272039" width="50.000000" x="570.000000" y="230.000000" fill="rgb(0, 100, 0)" style="fill-opacity:0.05" />
<rect height="45.450246" width="10.000000" x="590.000000" y="230.000000" fill="rgb(0, 100, 0)" style="fill-opacity:0.05" />
<!-- End 'T' -->
<!-- Begin 'A' -->
<polygon points=" 570.000000, 306.044100, 591.000000, 275.450246, 599.000000, 275.450246, 620.000000, 306.044100, 612.500000, 306.044100, 606.250000, 298.395637, 583.750000, 298.395637, 577.500000, 306.044100" fill="rgb(178, 34, 34)" style="fill-opacity:0.05" />
<polygon points=" 595.000000, 281.569017, 587.000000, 292.806559, 602.000000, 292.806559" fill="rgb(255, 255, 255)" style="fill-opacity:1.00" />
<!-- End 'A' -->
<!-- Begin 'G' -->
<ellipse cx="595.000000" cy="315.049821" rx="25.000000" ry="9.005720" fill="rgb(255, 165, 0)" style="fill-opacity:0.05" />
<ellipse cx="595.000000" cy="315.049821" rx="16.666667" ry="6.003814" fill="rgb(255, 255, 255)" style="fill-opacity:1.00" />
<rect height="9.005720" width="25.000000" x="595.000000" y="310.546960" fill="rgb(255, 255, 255)" style="fill-opacity:1.00" />
<rect height="2.251430" width="25.000000" x="595.000000" y="317.301251" fill="rgb(255, 165, 0)" style="fill-opacity:0.05" />
<rect height="6.754290" width="6.250000" x="613.750000" y="317.301251" fill="rgb(255, 165, 0)" style="fill-opacity:0.05" />
<!-- End 'G' -->
<!-- Begin 'C' -->
<ellipse cx="595.000000" cy="327.027770" rx="25.000000" ry="2.972230" fill="rgb(0, 0, 128)" style="fill-opacity:0.05" />
<ellipse cx="595.000000" cy="327.027770" rx="16.666667" ry="1.981486" fill="rgb(255, 255, 255)" style="fill-opacity:1.00" />
<rect height="2.972230" width="25.000000" x="595.000000" y="325.541656" fill="rgb(255, 255, 255)" style="fill-opacity:1.00" />
<!-- End 'C' -->
<!-- Begin 'T' -->
<rect height="7.988963" width="50.000000" x="570.000000" y="340.000000" fill="rgb(0, 100, 0)" style="fill-opacity:0.69" />
<rect height="49.931018" width="10.000000" x="590.000000" y="340.000000" fill="rgb(0, 100, 0)" style="fill-opacity:0.69" />
<!-- End 'T' -->
<!-- Begin 'A' -->
<polygon points=" 570.000000, 419.169254, 591.000000, 389.931018, 599.000000, 389.931018, 620.000000, 419.169254, 612.500000, 419.169254, 606.250000, 411.859695, 583.750000, 411.859695, 577.500000, 419.169254" fill="rgb(178, 34, 34)" style="fill-opacity:0.69" />
<polygon points=" 595.000000, 395.778665, 587.000000, 406.473959, 602.000000, 406.473959" fill="rgb(255, 255, 255)" style="fill-opacity:1.00" />
<!-- End 'A' -->
<!-- Begin 'C' -->
<ellipse cx="595.000000" cy="424.683459" rx="25.000000" ry="5.514206" fill="rgb(0, 0, 128)" style="fill-opacity:0.69" />
<ellipse cx="595.000000" cy="424.683459" rx="16.666667" ry="3.676137" fill="rgb(255, 255, 255)" style="fill-opacity:1.00" />
<rect height="5.514206" width="25.000000" x="595.000000" y="421.926356" fill="rgb(255, 255, 255)" style="fill-opacity:1.00" />
<!-- End 'C' -->
<!-- Begin 'G' -->
<ellipse cx="595.000000" cy="435.098833" rx="25.000000" ry="4.901167" fill="rgb(255, 165, 0)" style="fill-opacity:0.69" />
<ellipse cx="595.000000" cy="435.098833" rx="16.666667" ry="3.267445" fill="rgb(255, 255, 255)" style="fill-opacity:1.00" />
<rect height="4.901167" width="25.000000" x="595.000000" y="432.648249" fill="rgb(255, 255, 255)" style="fill-opacity:1.00" />
<rect height="1.225292" width="25.000000" x="595.000000" y="436.324124" fill="rgb(255, 165, 0)" style="fill-opacity:0.69" />
<rect height="3.675876" width="6.250000" x="613.750000" y="436.324124" fill="rgb(255, 165, 0)" style="fill-opacity:0.69" />
<!-- End 'G' -->
<!-- Begin 'T' -->
<rect height="6.390626" width="50.000000" x="630.000000" y="10.000000" fill="rgb(0, 100, 0)" style="fill-opacity:0.31" />
<rect height="39.941412" width="10.000000" x="650.000000" y="10.000000" fill="rgb(0, 100, 0)" style="fill-opacity:0.31" />
<!-- End 'T' -->
<!-- Begin 'A' -->
<polygon points=" 630.000000, 86.834640, 651.000000, 49.941412, 659.000000, 49.941412, 680.000000, 86.834640, 672.500000, 86.834640, 666.250000, 77.611333, 643.750000, 77.611333, 637.500000, 86.834640" fill="rgb(178, 34, 34)" style="fill-opacity:0.31" />
<polygon points=" 655.000000, 57.320058, 647.000000, 71.077349, 662.000000, 71.077349" fill="rgb(255, 255, 255)" style="fill-opacity:1.00" />
<!-- End 'A' -->
<!-- Begin 'C' -->
<ellipse cx="655.000000" cy="92.867628" rx="25.000000" ry="6.032988" fill="rgb(0, 0, 128)" style="fill-opacity:0.31" />
<ellipse cx="655.000000" cy="92.867628" rx="16.666667" ry="4.021992" fill="rgb(255, 255, 255)" style="fill-opacity:1.00" />
<rect height="6.032988" width="25.000000" x="655.000000" y="89.851134" fill="rgb(255, 255, 255)" style="fill-opacity:1.00" />
<!-- End 'C' -->
<!-- Begin 'G' -->
<ellipse cx="655.000000" cy="104.450308" rx="25.000000" ry="5.549692" fill="rgb(255, 165, 0)" style="fill-opacity:0.31" />
<ellipse cx="655.000000" cy="104.450308" rx="16.666667" ry="3.699795" fill="rgb(255, 255, 255)" style="fill-opacity:1.00" />
<rect height="5.549692" width="25.000000" x="655.000000" y="101.675462" fill="rgb(255, 255, 255)" style="fill-opacity:1.00" />
<rect height="1.387423" width="25.000000" x="655.000000" y="105.837731" fill="rgb(255, 165, 0)" style="fill-opacity:0.31" />
<rect height="4.162269" width="6.250000" x="673.750000" y="105.837731" fill="rgb(255, 165, 0)" style="fill-opacity:0.31" />
<!-- End 'G' -->
<!-- Begin 'A' -->
<polygon points=" 630.000000, 158.892537, 651.000000, 120.000000, 659.000000, 120.000000, 680.000000, 158.892537, 672.500000, 158.892537, 666.250000, 149.169403, 643.750000, 149.169403, 637.500000, 158.892537" fill="rgb(178, 34, 34)" style="fill-opacity:0.10" />
<polygon points=" 655.000000, 127.778507, 647.000000, 142.335522, 662.000000, 142.335522" fill="rgb(255, 255, 255)" style="fill-opacity:1.00" />
<!-- End 'A' -->
<!-- Begin 'T' -->
<rect height="5.635894" width="50.000000" x="630.000000" y="158.892537" fill="rgb(0, 100, 0)" style="fill-opacity:0.10" />
<rect height="35.224335" width="10.000000" x="650.000000" y="158.892537" fill="rgb(0, 100, 0)" style="fill-opacity:0.10" />
<!-- End 'T' -->
<!-- Begin 'C' -->
<ellipse cx="655.000000" cy="201.829749" rx="25.000000" ry="7.712877" fill="rgb(0, 0, 128)" style="fill-opacity:0.10" />
<ellipse cx="655.000000" cy="201.829749" rx="16.666667" ry="5.141918" fill="rgb(255, 255, 255)" style="fill-opacity:1.00" />
<rect height="7.712877" width="25.000000" x="655.000000" y="197.973310" fill="rgb(255, 255, 255)" style="fill-opacity:1.00" />
<!-- End 'C' -->
<!-- Begin 'G' -->
<ellipse cx="655.000000" cy="214.771313" rx="25.000000" ry="5.228687" fill="rgb(255, 165, 0)" style="fill-opacity:0.10" />
<ellipse cx="655.000000" cy="214.771313" rx="16.666667" ry="3.485791" fill="rgb(255, 255, 255)" style="fill-opacity:1.00" />
<rect height="5.228687" width="25.000000" x="655.000000" y="212.156970" fill="rgb(255, 255, 255)" style="fill-opacity:1.00" />
<rect height="1.307172" width="25.000000" x="655.000000" y="216.078485" fill="rgb(255, 165, 0)" style="fill-opacity:0.10" />
<rect height="3.921515" width="6.250000" x="673.750000" y="216.078485" fill="rgb(255, 165, 0)" style="fill-opacity:0.10" />
<!-- End 'G' -->
<!-- Begin 'T' -->
<rect height="6.175549" width="50.000000" x="630.000000" y="230.000000" fill="rgb(0, 100, 0)" style="fill-opacity:0.11" />
<rect height="38.597182" width="10.000000" x="650.000000" y="230.000000" fill="rgb(0, 100, 0)" style="fill-opacity:0.11" />
<!-- End 'T' -->
<!-- Begin 'A' -->
<polygon points=" 630.000000, 305.077572, 651.000000, 268.597182, 659.000000, 268.597182, 680.000000, 305.077572, 672.500000, 305.077572, 666.250000, 295.957475, 643.750000, 295.957475, 637.500000, 305.077572" fill="rgb(178, 34, 34)" style="fill-opacity:0.11" />
<polygon points=" 655.000000, 275.893260, 647.000000, 289.485416, 662.000000, 289.485416" fill="rgb(255, 255, 255)" style="fill-opacity:1.00" />
<!-- End 'A' -->
<!-- Begin 'G' -->
<ellipse cx="655.000000" cy="312.588153" rx="25.000000" ry="7.510581" fill="rgb(255, 165, 0)" style="fill-opacity:0.11" />
<ellipse cx="655.000000" cy="312.588153" rx="16.666667" ry="5.007054" fill="rgb(255, 255, 255)" style="fill-opacity:1.00" />
<rect height="7.510581" width="25.000000" x="655.000000" y="308.832863" fill="rgb(255, 255, 255)" style="fill-opacity:1.00" />
<rect height="1.877645" width="25.000000" x="655.000000" y="314.465798" fill="rgb(255, 165, 0)" style="fill-opacity:0.11" />
<rect height="5.632936" width="6.250000" x="673.750000" y="314.465798" fill="rgb(255, 165, 0)" style="fill-opacity:0.11" />
<!-- End 'G' -->
<!-- Begin 'C' -->
<ellipse cx="655.000000" cy="325.049367" rx="25.000000" ry="4.950633" fill="rgb(0, 0, 128)" style="fill-opacity:0.11" />
<ellipse cx="655.000000" cy="325.049367" rx="16.666667" ry="3.300422" fill="rgb(255, 255, 255)" style="fill-opacity:1.00" />
<rect height="4.950633" width="25.000000" x="655.000000" y="322.574051" fill="rgb(255, 255, 255)" style="fill-opacity:1.00" />
<!-- End 'C' -->
<!-- Begin 'T' -->
<rect height="6.801858" width="50.000000" x="630.000000" y="340.000000" fill="rgb(0, 100, 0)" style="fill-opacity:0.48" />
<rect height="42.511612" width="10.000000" x="650.000000" y="340.000000" fill="rgb(0, 100, 0)" style="fill-opacity:0.48" />
<!-- End 'T' -->
<!-- Begin 'A' -->
<polygon points=" 630.000000, 406.711240, 651.000000, 382.511612, 659.000000, 382.511612, 680.000000, 406.711240, 672.500000, 406.711240, 666.250000, 400.661333, 643.750000, 400.661333, 637.500000, 406.711240" fill="rgb(178, 34, 34)" style="fill-opacity:0.48" />
<polygon points=" 655.000000, 387.351538, 647.000000, 396.031389, 662.000000, 396.031389" fill="rgb(255, 255, 255)" style="fill-opacity:1.00" />
<!-- End 'A' -->
<!-- Begin 'C' -->
<ellipse cx="655.000000" cy="415.965780" rx="25.000000" ry="9.254539" fill="rgb(0, 0, 128)" style="fill-opacity:0.48" />
<ellipse cx="655.000000" cy="415.965780" rx="16.666667" ry="6.169693" fill="rgb(255, 255, 255)" style="fill-opacity:1.00" />
<rect height="9.254539" width="25.000000" x="655.000000" y="411.338510" fill="rgb(255, 255, 255)" style="fill-opacity:1.00" />
<!-- End 'C' -->
<!-- Begin 'G' -->
<ellipse cx="655.000000" cy="432.610159" rx="25.000000" ry="7.389841" fill="rgb(255, 165, 0)" style="fill-opacity:0.48" />
<ellipse cx="655.000000" cy="432.610159" rx="16.666667" ry="4.926560" fill="rgb(255, 255, 255)" style="fill-opacity:1.00" />
<rect height="7.389841" width="25.000000" x="655.000000" y="428.915239" fill="rgb(255, 255, 255)" style="fill-opacity:1.00" />
<rect height="1.847460" width="25.000000" x="655.000000" y="434.457620" fill="rgb(255, 165, 0)" style="fill-opacity:0.48" />
<rect height="5.542380" width="6.250000" x="673.750000" y="434.457620" fill="rgb(255, 165, 0)" style="fill-opacity:0.48" />
<!-- End 'G' -->
<!-- Begin 'A' -->
<polygon points=" 690.000000, 51.807486, 711.000000, 10.000000, 719.000000, 10.000000, 740.000000, 51.807486, 732.500000, 51.807486, 726.250000, 41.355615, 703.750000, 41.355615, 697.500000, 51.807486" fill="rgb(178, 34, 34)" style="fill-opacity:0.31" />
<polygon points=" 715.000000, 18.361497, 707.000000, 34.084492, 722.000000, 34.084492" fill="rgb(255, 255, 255)" style="fill-opacity:1.00" />
<!-- End 'A' -->
<!-- Begin 'T' -->
<rect height="5.011917" width="50.000000" x="690.000000" y="51.807486" fill="rgb(0, 100, 0)" style="fill-opacity:0.31" />
<rect height="31.324484" width="10.000000" x="710.000000" y="51.807486" fill="rgb(0, 100, 0)" style="fill-opacity:0.31" />
<!-- End 'T' -->
<!-- Begin 'G' -->
<ellipse cx="715.000000" cy="89.981532" rx="25.000000" ry="6.849562" fill="rgb(255, 165, 0)" style="fill-opacity:0.31" />
<ellipse cx="715.000000" cy="89.981532" rx="16.666667" ry="4.566375" fill="rgb(255, 255, 255)" style="fill-opacity:1.00" />
<rect height="6.849562" width="25.000000" x="715.000000" y="86.556751" fill="rgb(255, 255, 255)" style="fill-opacity:1.00" />
<rect height="1.712391" width="25.000000" x="715.000000" y="91.693923" fill="rgb(255, 165, 0)" style="fill-opacity:0.31" />
<rect height="5.137172" width="6.250000" x="733.750000" y="91.693923" fill="rgb(255, 165, 0)" style="fill-opacity:0.31" />
<!-- End 'G' -->
<!-- Begin 'C' -->
<ellipse cx="715.000000" cy="103.415547" rx="25.000000" ry="6.584453" fill="rgb(0, 0, 128)" style="fill-opacity:0.31" />
<ellipse cx="715.000000" cy="103.415547" rx="16.666667" ry="4.389635" fill="rgb(255, 255, 255)" style="fill-opacity:1.00" />
<rect height="6.584453" width="25.000000" x="715.000000" y="100.123321" fill="rgb(255, 255, 255)" style="fill-opacity:1.00" />
<!-- End 'C' -->
<!-- Begin 'T' -->
<rect height="6.014778" width="50.000000" x="690.000000" y="120.000000" fill="rgb(0, 100, 0)" style="fill-opacity:0.15" />
<rect height="37.592360" width="10.000000" x="710.000000" y="120.000000" fill="rgb(0, 100, 0)" style="fill-opacity:0.15" />
<!-- End 'T' -->
<!-- Begin 'A' -->
<polygon points=" 690.000000, 190.843069, 711.000000, 157.592360, 719.000000, 157.592360, 740.000000, 190.843069, 732.500000, 190.843069, 726.250000, 182.530391, 703.750000, 182.530391, 697.500000, 190.843069" fill="rgb(178, 34, 34)" style="fill-opacity:0.15" />
<polygon points=" 715.000000, 164.242501, 707.000000, 176.542785, 722.000000, 176.542785" fill="rgb(255, 255, 255)" style="fill-opacity:1.00" />
<!-- End 'A' -->
<!-- Begin 'C' -->
<ellipse cx="715.000000" cy="198.758604" rx="25.000000" ry="7.915536" fill="rgb(0, 0, 128)" style="fill-opacity:0.15" />
<ellipse cx="715.000000" cy="198.758604" rx="16.666667" ry="5.277024" fill="rgb(255, 255, 255)" style="fill-opacity:1.00" />
<rect height="7.915536" width="25.000000" x="715.000000" y="194.800836" fill="rgb(255, 255, 255)" style="fill-opacity:1.00" />
<!-- End 'C' -->
<!-- Begin 'G' -->
<ellipse cx="715.000000" cy="213.337070" rx="25.000000" ry="6.662930" fill="rgb(255, 165, 0)" style="fill-opacity:0.15" />
<ellipse cx="715.000000" cy="213.337070" rx="16.666667" ry="4.441953" fill="rgb(255, 255, 255)" style="fill-opacity:1.00" />
<rect height="6.662930" width="25.000000" x="715.000000" y="210.005605" fill="rgb(255, 255, 255)" style="fill-opacity:1.00" />
<rect height="1.665733" width="25.000000" x="715.000000" y="215.002802" fill="rgb(255, 165, 0)" style="fill-opacity:0.15" />
<rect height="4.997198" width="6.250000" x="733.750000" y="215.002802" fill="rgb(255, 165, 0)" style="fill-opacity:0.15" />
<!-- End 'G' -->
<!-- Begin 'A' -->
<polygon points=" 690.000000, 268.600817, 711.000000, 230.000000, 719.000000, 230.000000, 740.000000, 268.600817, 732.500000, 268.600817, 726.250000, 258.950613, 703.750000, 258.950613, 697.500000, 268.600817" fill="rgb(178, 34, 34)" style="fill-opacity:0.13" />
<polygon points=" 715.000000, 237.720163, 707.000000, 252.160490, 722.000000, 252.160490" fill="rgb(255, 255, 255)" style="fill-opacity:1.00" />
<!-- End 'A' -->
<!-- Begin 'T' -->
<rect height="5.100688" width="50.000000" x="690.000000" y="268.600817" fill="rgb(0, 100, 0)" style="fill-opacity:0.13" />
<rect height="31.879299" width="10.000000" x="710.000000" y="268.600817" fill="rgb(0, 100, 0)" style="fill-opacity:0.13" />
<!-- End 'T' -->
<!-- Begin 'G' -->
<ellipse cx="715.000000" cy="309.010741" rx="25.000000" ry="8.530624" fill="rgb(255, 165, 0)" style="fill-opacity:0.13" />
<ellipse cx="715.000000" cy="309.010741" rx="16.666667" ry="5.687083" fill="rgb(255, 255, 255)" style="fill-opacity:1.00" />
<rect height="8.530624" width="25.000000" x="715.000000" y="304.745429" fill="rgb(255, 255, 255)" style="fill-opacity:1.00" />
<rect height="2.132656" width="25.000000" x="715.000000" y="311.143397" fill="rgb(255, 165, 0)" style="fill-opacity:0.13" />
<rect height="6.397968" width="6.250000" x="733.750000" y="311.143397" fill="rgb(255, 165, 0)" style="fill-opacity:0.13" />
<!-- End 'G' -->
<!-- Begin 'C' -->
<ellipse cx="715.000000" cy="323.770683" rx="25.000000" ry="6.229317" fill="rgb(0, 0, 128)" style="fill-opacity:0.13" />
<ellipse cx="715.000000" cy="323.770683" rx="16.666667" ry="4.152878" fill="rgb(255, 255, 255)" style="fill-opacity:1.00" />
<rect height="6.229317" width="25.000000" x="715.000000" y="320.656024" fill="rgb(255, 255, 255)" style="fill-opacity:1.00" />
<!-- End 'C' -->
<!-- Begin 'T' -->
<rect height="6.507294" width="50.000000" x="690.000000" y="340.000000" fill="rgb(0, 100, 0)" style="fill-opacity:0.41" />
<rect height="40.670585" width="10.000000" x="710.000000" y="340.000000" fill="rgb(0, 100, 0)" style="fill-opacity:0.41" />
<!-- End 'T' -->
<!-- Begin 'A' -->
<polygon points=" 690.000000, 410.538064, 711.000000, 380.670585, 719.000000, 380.670585, 740.000000, 410.538064, 732.500000, 410.538064, 726.250000, 403.071194, 703.750000, 403.071194, 697.500000, 410.538064" fill="rgb(178, 34, 34)" style="fill-opacity:0.41" />
<polygon points=" 715.000000, 386.644081, 707.000000, 397.591073, 722.000000, 397.591073" fill="rgb(255, 255, 255)" style="fill-opacity:1.00" />
<!-- End 'A' -->
<!-- Begin 'G' -->
<ellipse cx="715.000000" cy="418.668243" rx="25.000000" ry="8.130179" fill="rgb(255, 165, 0)" style="fill-opacity:0.41" />
<ellipse cx="715.000000" cy="418.668243" rx="16.666667" ry="5.420119" fill="rgb(255, 255, 255)" style="fill-opacity:1.00" />
<rect height="8.130179" width="25.000000" x="715.000000" y="414.603154" fill="rgb(255, 255, 255)" style="fill-opacity:1.00" />
<rect height="2.032545" width="25.000000" x="715.000000" y="420.700787" fill="rgb(255, 165, 0)" style="fill-opacity:0.41" />
<rect height="6.097634" width="6.250000" x="733.750000" y="420.700787" fill="rgb(255, 165, 0)" style="fill-opacity:0.41" />
<!-- End 'G' -->
<!-- Begin 'C' -->
<ellipse cx="715.000000" cy="433.399211" rx="25.000000" ry="6.600789" fill="rgb(0, 0, 128)" style="fill-opacity:0.41" />
<ellipse cx="715.000000" cy="433.399211" rx="16.666667" ry="4.400526" fill="rgb(255, 255, 255)" style="fill-opacity:1.00" />
<rect height="6.600789" width="25.000000" x="715.000000" y="430.098816" fill="rgb(255, 255, 255)" style="fill-opacity:1.00" />
<!-- End 'C' -->
<text x="400.000000" y="495">
IC = 9.81
</text>

</svg>
