<?xml version="1.0" encoding="UTF-8" standalone="yes"?>
                 <!DOCTYPE svg PUBLIC "-//W3C//DTD SVG 1.0//EN" "http://www.w3.org/TR/2001/REC-SVG-20010904/DTD/svg10.dtd">
                 <svg height="500" width="720" xmlns="http://www.w3.org/2000/svg" xmlns:xlink="http://www.w3.org/1999/xlink">
                 <line x1="85" y1="450" x2="687" y2="450" style="stroke:rgb(99,99,99);stroke-width:2" />
<rect height="7.000000" width="2.000000" x="85.000000" y="450.000000" fill="rgb(0, 0, 0)" style="fill-opacity:1.00" />
<text x="107.000000" y="470">
1
</text>
<rect height="7.000000" width="2.000000" x="145.000000" y="450.000000" fill="rgb(0, 0, 0)" style="fill-opacity:1.00" />
<text x="167.000000" y="470">
2
</text>
<rect height="7.000000" width="2.000000" x="205.000000" y="450.000000" fill="rgb(0, 0, 0)" style="fill-opacity:1.00" />
<text x="227.000000" y="470">
3
</text>
<rect height="7.000000" width="2.000000" x="265.000000" y="450.000000" fill="rgb(0, 0, 0)" style="fill-opacity:1.00" />
<text x="287.000000" y="470">
4
</text>
<rect height="7.000000" width="2.000000" x="325.000000" y="450.000000" fill="rgb(0, 0, 0)" style="fill-opacity:1.00" />
<text x="347.000000" y="470">
5
</text>
<rect height="7.000000" width="2.000000" x="385.000000" y="450.000000" fill="rgb(0, 0, 0)" style="fill-opacity:1.00" />
<text x="407.000000" y="470">
6
</text>
<rect height="7.000000" width="2.000000" x="445.000000" y="450.000000" fill="rgb(0, 0, 0)" style="fill-opacity:1.00" />
<text x="467.000000" y="470">
7
</text>
<rect height="7.000000" width="2.000000" x="505.000000" y="450.000000" fill="rgb(0, 0, 0)" style="fill-opacity:1.00" />
<text x="527.000000" y="470">
8
</text>
<rect height="7.000000" width="2.000000" x="565.000000" y="450.000000" fill="rgb(0, 0, 0)" style="fill-opacity:1.00" />
<text x="587.000000" y="470">
9
</text>
<rect height="7.000000" width="2.000000" x="625.000000" y="450.000000" fill="rgb(0, 0, 0)" style="fill-opacity:1.00" />
<text x="647.000000" y="470">
10
</text>
<rect height="7.000000" width="2.000000" x="685.000000" y="450.000000" fill="rgb(0, 0, 0)" style="fill-opacity:1.00" />
<!-- Begin 'A' -->
<polygon points=" 10.000000, 110.000000, 35.200000, 10.000000, 44.800000, 10.000000, 70.000000, 110.000000, 61.000000, 110.000000, 53.500000, 85.000000, 26.500000, 85.000000, 19.000000, 110.000000" fill="rgb(178, 34, 34)" style="fill-opacity:1.00" />
<polygon points=" 40.000000, 30.000000, 30.400000, 69.000000, 48.400000, 69.000000" fill="rgb(255, 255, 255)" style="fill-opacity:1.00" />
<!-- End 'A' -->
<!-- Begin 'C' -->
<ellipse cx="40.000000" cy="170.000000" rx="30.000000" ry="50.000000" fill="rgb(0, 0, 128)" style="fill-opacity:1.00" />
<ellipse cx="40.000000" cy="170.000000" rx="20.000000" ry="33.333333" fill="rgb(255, 255, 255)" style="fill-opacity:1.00" />
<rect height="50.000000" width="30.000000" x="40.000000" y="145.000000" fill="rgb(255, 255, 255)" style="fill-opacity:1.00" />
<!-- End 'C' -->
<!-- Begin 'G' -->
<ellipse cx="40.000000" cy="280.000000" rx="30.000000" ry="50.000000" fill="rgb(255, 165, 0)" style="fill-opacity:1.00" />
<ellipse cx="40.000000" cy="280.000000" rx="20.000000" ry="33.333333" fill="rgb(255, 255, 255)" style="fill-opacity:1.00" />
<rect height="50.000000" width="30.000000" x="40.000000" y="255.000000" fill="rgb(255, 255, 255)" style="fill-opacity:1.00" />
<rect height="12.500000" width="30.000000" x="40.000000" y="292.500000" fill="rgb(255, 165, 0)" style="fill-opacity:1.00" />
<rect height="37.500000" width="7.500000" x="62.500000" y="292.500000" fill="rgb(255, 165, 0)" style="fill-opacity:1.00" />
<!-- End 'G' -->
<!-- Begin 'T' -->
<rect height="16.000000" width="60.000000" x="10.000000" y="340.000000" fill="rgb(0, 100, 0)" style="fill-opacity:1.00" />
<rect height="100.000000" width="12.000000" x="34.000000" y="340.000000" fill="rgb(0, 100, 0)" style="fill-opacity:1.00" />
<!-- End 'T' -->
<!-- Begin 'A' -->
<polygon points=" 90.000000, 67.605146, 111.000000, 10.000000, 119.000000, 10.000000, 140.000000, 67.605146, 132.500000, 67.605146, 126.250000, 53.203860, 103.750000, 53.203860, 97.500000, 67.605146" fill="rgb(178, 34, 34)" style="fill-opacity:0.31" />
<polygon points=" 115.000000, 21.521029, 107.000000, 43.563088, 122.000000, 43.563088" fill="rgb(255, 255, 255)" style="fill-opacity:1.00" />
<!-- End 'A' -->
<!-- Begin 'T' -->
<rect height="2.962731" width="50.000000" x="90.000000" y="67.605146" fill="rgb(0, 100, 0)" style="fill-opacity:0.31" />
<rect height="18.517070" width="10.000000" x="110.000000" y="67.605146" fill="rgb(0, 100, 0)" style="fill-opacity:0.31" />
<!-- End 'T' -->
<!-- Begin 'G' -->
<ellipse cx="115.000000" cy="92.222092" rx="25.000000" ry="6.099876" fill="rgb(255, 165, 0)" style="fill-opacity:0.31" />
<ellipse cx="115.000000" cy="92.222092" rx="16.666667" ry="4.066584" fill="rgb(255, 255, 255)" style="fill-opacity:1.00" />
<rect height="6.099876" width="25.000000" x="115.000000" y="89.172154" fill="rgb(255, 255, 255)" style="fill-opacity:1.00" />
<rect height="1.524969" width="25.000000" x="115.000000" y="93.747061" fill="rgb(255, 165, 0)" style="fill-opacity:0.31" />
<rect height="4.574907" width="6.250000" x="133.750000" y="93.747061" fill="rgb(255, 165, 0)" style="fill-opacity:0.31" />
<!-- End 'G' -->
<!-- Begin 'C' -->
<ellipse cx="115.000000" cy="104.160984" rx="25.000000" ry="5.839016" fill="rgb(0, 0, 128)" style="fill-opacity:0.31" />
<ellipse cx="115.000000" cy="104.160984" rx="16.666667" ry="3.892677" fill="rgb(255, 255, 255)" style="fill-opacity:1.00" />
<rect height="5.839016" width="25.000000" x="115.000000" y="101.241476" fill="rgb(255, 255, 255)" style="fill-opacity:1.00" />
<!-- End 'C' -->
<!-- Begin 'A' -->
<polygon points=" 90.000000, 164.294144, 111.000000, 120.000000, 119.000000, 120.000000, 140.000000, 164.294144, 132.500000, 164.294144, 126.250000, 153.220608, 103.750000, 153.220608, 97.500000, 164.294144" fill="rgb(178, 34, 34)" style="fill-opacity:0.18" />
<polygon points=" 115.000000, 128.858829, 107.000000, 145.576487, 122.000000, 145.576487" fill="rgb(255, 255, 255)" style="fill-opacity:1.00" />
<!-- End 'A' -->
<!-- Begin 'T' -->
<rect height="3.438859" width="50.000000" x="90.000000" y="164.294144" fill="rgb(0, 100, 0)" style="fill-opacity:0.18" />
<rect height="21.492869" width="10.000000" x="110.000000" y="164.294144" fill="rgb(0, 100, 0)" style="fill-opacity:0.18" />
<!-- End 'T' -->
<!-- Begin 'G' -->
<ellipse cx="115.000000" cy="196.481634" rx="25.000000" ry="10.694621" fill="rgb(255, 165, 0)" style="fill-opacity:0.18" />
<ellipse cx="115.000000" cy="196.481634" rx="16.666667" ry="7.129747" fill="rgb(255, 255, 255)" style="fill-opacity:1.00" />
<rect height="10.694621" width="25.000000" x="115.000000" y="191.134324" fill="rgb(255, 255, 255)" style="fill-opacity:1.00" />
<rect height="2.673655" width="25.000000" x="115.000000" y="199.155289" fill="rgb(255, 165, 0)" style="fill-opacity:0.18" />
<rect height="8.020965" width="6.250000" x="133.750000" y="199.155289" fill="rgb(255, 165, 0)" style="fill-opacity:0.18" />
<!-- End 'G' -->
<!-- Begin 'C' -->
<ellipse cx="115.000000" cy="213.588127" rx="25.000000" ry="6.411873" fill="rgb(0, 0, 128)" style="fill-opacity:0.18" />
<ellipse cx="115.000000" cy="213.588127" rx="16.666667" ry="4.274582" fill="rgb(255, 255, 255)" style="fill-opacity:1.00" />
<rect height="6.411873" width="25.000000" x="115.000000" y="210.382191" fill="rgb(255, 255, 255)" style="fill-opacity:1.00" />
<!-- End 'C' -->
<!-- Begin 'A' -->
<polygon points=" 90.000000, 280.908889, 111.000000, 230.000000, 119.000000, 230.000000, 140.000000, 280.908889, 132.500000, 280.908889, 126.250000, 268.181667, 103.750000, 268.181667, 97.500000, 280.908889" fill="rgb(178, 34, 34)" style="fill-opacity:0.17" />
<polygon points=" 115.000000, 240.181778, 107.000000, 259.545333, 122.000000, 259.545333" fill="rgb(255, 255, 255)" style="fill-opacity:1.00" />
<!-- End 'A' -->
<!-- Begin 'T' -->
<rect height="4.577852" width="50.000000" x="90.000000" y="280.908889" fill="rgb(0, 100, 0)" style="fill-opacity:0.17" />
<rect height="28.611574" width="10.000000" x="110.000000" y="280.908889" fill="rgb(0, 100, 0)" style="fill-opacity:0.17" />
<!-- End 'T' -->
<!-- Begin 'G' -->
<ellipse cx="115.000000" cy="316.882103" rx="25.000000" ry="7.361640" fill="rgb(255, 165, 0)" style="fill-opacity:0.17" />
<ellipse cx="115.000000" cy="316.882103" rx="16.666667" ry="4.907760" fill="rgb(255, 255, 255)" style="fill-opacity:1.00" />
<rect height="7.361640" width="25.000000" x="115.000000" y="313.201283" fill="rgb(255, 255, 255)" style="fill-opacity:1.00" />
<rect height="1.840410" width="25.000000" x="115.000000" y="318.722513" fill="rgb(255, 165, 0)" style="fill-opacity:0.17" />
<rect height="5.521230" width="6.250000" x="133.750000" y="318.722513" fill="rgb(255, 165, 0)" style="fill-opacity:0.17" />
<!-- End 'G' -->
<!-- Begin 'C' -->
<ellipse cx="115.000000" cy="327.121872" rx="25.000000" ry="2.878128" fill="rgb(0, 0, 128)" style="fill-opacity:0.17" />
<ellipse cx="115.000000" cy="327.121872" rx="16.666667" ry="1.918752" fill="rgb(255, 255, 255)" style="fill-opacity:1.00" />
<rect height="2.878128" width="25.000000" x="115.000000" y="325.682807" fill="rgb(255, 255, 255)" style="fill-opacity:1.00" />
<!-- End 'C' -->
<!-- Begin 'T' -->
<rect height="5.751496" width="50.000000" x="90.000000" y="340.000000" fill="rgb(0, 100, 0)" style="fill-opacity:0.33" />
<rect height="35.946851" width="10.000000" x="110.000000" y="340.000000" fill="rgb(0, 100, 0)" style="fill-opacity:0.33" />
<!-- End 'T' -->
<!-- Begin 'A' -->
<polygon points=" 90.000000, 408.174026, 111.000000, 375.946851, 119.000000, 375.946851, 140.000000, 408.174026, 132.500000, 408.174026, 126.250000, 400.117232, 103.750000, 400.117232, 97.500000, 408.174026" fill="rgb(178, 34, 34)" style="fill-opacity:0.33" />
<polygon points=" 115.000000, 382.392286, 107.000000, 394.283156, 122.000000, 394.283156" fill="rgb(255, 255, 255)" style="fill-opacity:1.00" />
<!-- End 'A' -->
<!-- Begin 'G' -->
<ellipse cx="115.000000" cy="418.071963" rx="25.000000" ry="9.897936" fill="rgb(255, 165, 0)" style="fill-opacity:0.33" />
<ellipse cx="115.000000" cy="418.071963" rx="16.666667" ry="6.598624" fill="rgb(255, 255, 255)" style="fill-opacity:1.00" />
<rect height="9.897936" width="25.000000" x="115.000000" y="413.122995" fill="rgb(255, 255, 255)" style="fill-opacity:1.00" />
<rect height="2.474484" width="25.000000" x="115.000000" y="420.546447" fill="rgb(255, 165, 0)" style="fill-opacity:0.33" />
<rect height="7.423452" width="6.250000" x="133.750000" y="420.546447" fill="rgb(255, 165, 0)" style="fill-opacity:0.33" />
<!-- End 'G' -->
<!-- Begin 'C' -->
<ellipse cx="115.000000" cy="433.984949" rx="25.000000" ry="6.015051" fill="rgb(0, 0, 128)" style="fill-opacity:0.33" />
<ellipse cx="115.000000" cy="433.984949" rx="16.666667" ry="4.010034" fill="rgb(255, 255, 255)" style="fill-opacity:1.00" />
<rect height="6.015051" width="25.000000" x="115.000000" y="430.977424" fill="rgb(255, 255, 255)" style="fill-opacity:1.00" />
<!-- End 'C' -->
<!-- Begin 'A' -->
<polygon points=" 150.000000, 71.725829, 171.000000, 10.000000, 179.000000, 10.000000, 200.000000, 71.725829, 192.500000, 71.725829, 186.250000, 56.294372, 163.750000, 56.294372, 157.500000, 71.725829" fill="rgb(178, 34, 34)" style="fill-opacity:0.46" />
<polygon points=" 175.000000, 22.345166, 167.000000, 46.035498, 182.000000, 46.035498" fill="rgb(255, 255, 255)" style="fill-opacity:1.00" />
<!-- End 'A' -->
<!-- Begin 'T' -->
<rect height="2.537792" width="50.000000" x="150.000000" y="71.725829" fill="rgb(0, 100, 0)" style="fill-opacity:0.46" />
<rect height="15.861203" width="10.000000" x="170.000000" y="71.725829" fill="rgb(0, 100, 0)" style="fill-opacity:0.46" />
<!-- End 'T' -->
<!-- Begin 'G' -->
<ellipse cx="175.000000" cy="95.044154" rx="25.000000" ry="7.457121" fill="rgb(255, 165, 0)" style="fill-opacity:0.46" />
<ellipse cx="175.000000" cy="95.044154" rx="16.666667" ry="4.971414" fill="rgb(255, 255, 255)" style="fill-opacity:1.00" />
<rect height="7.457121" width="25.000000" x="175.000000" y="91.315593" fill="rgb(255, 255, 255)" style="fill-opacity:1.00" />
<rect height="1.864280" width="25.000000" x="175.000000" y="96.908434" fill="rgb(255, 165, 0)" style="fill-opacity:0.46" />
<rect height="5.592841" width="6.250000" x="193.750000" y="96.908434" fill="rgb(255, 165, 0)" style="fill-opacity:0.46" />
<!-- End 'G' -->
<!-- Begin 'C' -->
<ellipse cx="175.000000" cy="106.250638" rx="25.000000" ry="3.749362" fill="rgb(0, 0, 128)" style="fill-opacity:0.46" />
<ellipse cx="175.000000" cy="106.250638" rx="16.666667" ry="2.499575" fill="rgb(255, 255, 255)" style="fill-opacity:1.00" />
<rect height="3.749362" width="25.000000" x="175.000000" y="104.375956" fill="rgb(255, 255, 255)" style="fill-opacity:1.00" />
<!-- End 'C' -->
<!-- Begin 'T' -->
<rect height="5.444671" width="50.000000" x="150.000000" y="120.000000" fill="rgb(0, 100, 0)" style="fill-opacity:0.11" />
<rect height="34.029195" width="10.000000" x="170.000000" y="120.000000" fill="rgb(0, 100, 0)" style="fill-opacity:0.11" />
<!-- End 'T' -->
<!-- Begin 'A' -->
<polygon points=" 150.000000, 183.991213, 171.000000, 154.029195, 179.000000, 154.029195, 200.000000, 183.991213, 192.500000, 183.991213, 186.250000, 176.500709, 163.750000, 176.500709, 157.500000, 183.991213" fill="rgb(178, 34, 34)" style="fill-opacity:0.11" />
<polygon points=" 175.000000, 160.021599, 167.000000, 171.006406, 182.000000, 171.006406" fill="rgb(255, 255, 255)" style="fill-opacity:1.00" />
<!-- End 'A' -->
<!-- Begin 'G' -->
<ellipse cx="175.000000" cy="194.068901" rx="25.000000" ry="10.077688" fill="rgb(255, 165, 0)" style="fill-opacity:0.11" />
<ellipse cx="175.000000" cy="194.068901" rx="16.666667" ry="6.718459" fill="rgb(255, 255, 255)" style="fill-opacity:1.00" />
<rect height="10.077688" width="25.000000" x="175.000000" y="189.030057" fill="rgb(255, 255, 255)" style="fill-opacity:1.00" />
<rect height="2.519422" width="25.000000" x="175.000000" y="196.588323" fill="rgb(255, 165, 0)" style="fill-opacity:0.11" />
<rect height="7.558266" width="6.250000" x="193.750000" y="196.588323" fill="rgb(255, 165, 0)" style="fill-opacity:0.11" />
<!-- End 'G' -->
<!-- Begin 'C' -->
<ellipse cx="175.000000" cy="212.073294" rx="25.000000" ry="7.926706" fill="rgb(0, 0, 128)" style="fill-opacity:0.11" />
<ellipse cx="175.000000" cy="212.073294" rx="16.666667" ry="5.284470" fill="rgb(255, 255, 255)" style="fill-opacity:1.00" />
<rect height="7.926706" width="25.000000" x="175.000000" y="208.109942" fill="rgb(255, 255, 255)" style="fill-opacity:1.00" />
<!-- End 'C' -->
<!-- Begin 'A' -->
<polygon points=" 150.000000, 263.349272, 171.000000, 230.000000, 179.000000, 230.000000, 200.000000, 263.349272, 192.500000, 263.349272, 186.250000, 255.011954, 163.750000, 255.011954, 157.500000, 263.349272" fill="rgb(178, 34, 34)" style="fill-opacity:0.17" />
<polygon points=" 175.000000, 236.669854, 167.000000, 249.009563, 182.000000, 249.009563" fill="rgb(255, 255, 255)" style="fill-opacity:1.00" />
<!-- End 'A' -->
<!-- Begin 'G' -->
<ellipse cx="175.000000" cy="277.161168" rx="25.000000" ry="13.811896" fill="rgb(255, 165, 0)" style="fill-opacity:0.17" />
<ellipse cx="175.000000" cy="277.161168" rx="16.666667" ry="9.207931" fill="rgb(255, 255, 255)" style="fill-opacity:1.00" />
<rect height="13.811896" width="25.000000" x="175.000000" y="270.255220" fill="rgb(255, 255, 255)" style="fill-opacity:1.00" />
<rect height="3.452974" width="25.000000" x="175.000000" y="280.614142" fill="rgb(255, 165, 0)" style="fill-opacity:0.17" />
<rect height="10.358922" width="6.250000" x="193.750000" y="280.614142" fill="rgb(255, 165, 0)" style="fill-opacity:0.17" />
<!-- End 'G' -->
<!-- Begin 'T' -->
<rect height="4.253169" width="50.000000" x="150.000000" y="290.973064" fill="rgb(0, 100, 0)" style="fill-opacity:0.17" />
<rect height="26.582304" width="10.000000" x="170.000000" y="290.973064" fill="rgb(0, 100, 0)" style="fill-opacity:0.17" />
<!-- End 'T' -->
<!-- Begin 'C' -->
<ellipse cx="175.000000" cy="323.777684" rx="25.000000" ry="6.222316" fill="rgb(0, 0, 128)" style="fill-opacity:0.17" />
<ellipse cx="175.000000" cy="323.777684" rx="16.666667" ry="4.148211" fill="rgb(255, 255, 255)" style="fill-opacity:1.00" />
<rect height="6.222316" width="25.000000" x="175.000000" y="320.666526" fill="rgb(255, 255, 255)" style="fill-opacity:1.00" />
<!-- End 'C' -->
<!-- Begin 'T' -->
<rect height="6.785550" width="50.000000" x="150.000000" y="340.000000" fill="rgb(0, 100, 0)" style="fill-opacity:0.27" />
<rect height="42.409691" width="10.000000" x="170.000000" y="340.000000" fill="rgb(0, 100, 0)" style="fill-opacity:0.27" />
<!-- End 'T' -->
<!-- Begin 'A' -->
<polygon points=" 150.000000, 405.464899, 171.000000, 382.409691, 179.000000, 382.409691, 200.000000, 405.464899, 192.500000, 405.464899, 186.250000, 399.701097, 163.750000, 399.701097, 157.500000, 405.464899" fill="rgb(178, 34, 34)" style="fill-opacity:0.27" />
<polygon points=" 175.000000, 387.020732, 167.000000, 395.242815, 182.000000, 395.242815" fill="rgb(255, 255, 255)" style="fill-opacity:1.00" />
<!-- End 'A' -->
<!-- Begin 'G' -->
<ellipse cx="175.000000" cy="414.331873" rx="25.000000" ry="8.866975" fill="rgb(255, 165, 0)" style="fill-opacity:0.27" />
<ellipse cx="175.000000" cy="414.331873" rx="16.666667" ry="5.911316" fill="rgb(255, 255, 255)" style="fill-opacity:1.00" />
<rect height="8.866975" width="25.000000" x="175.000000" y="409.898386" fill="rgb(255, 255, 255)" style="fill-opacity:1.00" />
<rect height="2.216744" width="25.000000" x="175.000000" y="416.548617" fill="rgb(255, 165, 0)" style="fill-opacity:0.27" />
<rect height="6.650231" width="6.250000" x="193.750000" y="416.548617" fill="rgb(255, 165, 0)" style="fill-opacity:0.27" />
<!-- End 'G' -->
<!-- Begin 'C' -->
<ellipse cx="175.000000" cy="431.599424" rx="25.000000" ry="8.400576" fill="rgb(0, 0, 128)" style="fill-opacity:0.27" />
<ellipse cx="175.000000" cy="431.599424" rx="16.666667" ry="5.600384" fill="rgb(255, 255, 255)" style="fill-opacity:1.00" />
<rect height="8.400576" width="25.000000" x="175.000000" y="427.399136" fill="rgb(255, 255, 255)" style="fill-opacity:1.00" />
<!-- End 'C' -->
<!-- Begin 'A' -->
<polygon points=" 210.000000, 79.001396, 231.000000, 10.000000, 239.000000, 10.000000, 260.000000, 79.001396, 252.500000, 79.001396, 246.250000, 61.751047, 223.750000, 61.751047, 217.500000, 79.001396" fill="rgb(178, 34, 34)" style="fill-opacity:0.43" />
<polygon points=" 235.000000, 23.800279, 227.000000, 50.400838, 242.000000, 50.400838" fill="rgb(255, 255, 255)" style="fill-opacity:1.00" />
<!-- End 'A' -->
<!-- Begin 'C' -->
<ellipse cx="235.000000" cy="85.123446" rx="25.000000" ry="6.122049" fill="rgb(0, 0, 128)" style="fill-opacity:0.43" />
<ellipse cx="235.000000" cy="85.123446" rx="16.666667" ry="4.081366" fill="rgb(255, 255, 255)" style="fill-opacity:1.00" />
<rect height="6.122049" width="25.000000" x="235.000000" y="82.062421" fill="rgb(255, 255, 255)" style="fill-opacity:1.00" />
<!-- End 'C' -->
<!-- Begin 'G' -->
<ellipse cx="235.000000" cy="96.931233" rx="25.000000" ry="5.685738" fill="rgb(255, 165, 0)" style="fill-opacity:0.43" />
<ellipse cx="235.000000" cy="96.931233" rx="16.666667" ry="3.790492" fill="rgb(255, 255, 255)" style="fill-opacity:1.00" />
<rect height="5.685738" width="25.000000" x="235.000000" y="94.088364" fill="rgb(255, 255, 255)" style="fill-opacity:1.00" />
<rect height="1.421434" width="25.000000" x="235.000000" y="98.352667" fill="rgb(255, 165, 0)" style="fill-opacity:0.43" />
<rect height="4.264303" width="6.250000" x="253.750000" y="98.352667" fill="rgb(255, 165, 0)" style="fill-opacity:0.43" />
<!-- End 'G' -->
<!-- Begin 'T' -->
<rect height="1.181285" width="50.000000" x="210.000000" y="102.616970" fill="rgb(0, 100, 0)" style="fill-opacity:0.43" />
<rect height="7.383030" width="10.000000" x="230.000000" y="102.616970" fill="rgb(0, 100, 0)" style="fill-opacity:0.43" />
<!-- End 'T' -->
<!-- Begin 'C' -->
<ellipse cx="235.000000" cy="146.004917" rx="25.000000" ry="26.004917" fill="rgb(0, 0, 128)" style="fill-opacity:0.12" />
<ellipse cx="235.000000" cy="146.004917" rx="16.666667" ry="17.336611" fill="rgb(255, 255, 255)" style="fill-opacity:1.00" />
<rect height="26.004917" width="25.000000" x="235.000000" y="133.002459" fill="rgb(255, 255, 255)" style="fill-opacity:1.00" />
<!-- End 'C' -->
<!-- Begin 'G' -->
<ellipse cx="235.000000" cy="182.371007" rx="25.000000" ry="10.361173" fill="rgb(255, 165, 0)" style="fill-opacity:0.12" />
<ellipse cx="235.000000" cy="182.371007" rx="16.666667" ry="6.907449" fill="rgb(255, 255, 255)" style="fill-opacity:1.00" />
<rect height="10.361173" width="25.000000" x="235.000000" y="177.190421" fill="rgb(255, 255, 255)" style="fill-opacity:1.00" />
<rect height="2.590293" width="25.000000" x="235.000000" y="184.961301" fill="rgb(255, 165, 0)" style="fill-opacity:0.12" />
<rect height="7.770880" width="6.250000" x="253.750000" y="184.961301" fill="rgb(255, 165, 0)" style="fill-opacity:0.12" />
<!-- End 'G' -->
<!-- Begin 'A' -->
<polygon points=" 210.000000, 213.291324, 231.000000, 192.732181, 239.000000, 192.732181, 260.000000, 213.291324, 252.500000, 213.291324, 246.250000, 208.151538, 223.750000, 208.151538, 217.500000, 213.291324" fill="rgb(178, 34, 34)" style="fill-opacity:0.12" />
<polygon points=" 235.000000, 196.844009, 227.000000, 204.067667, 242.000000, 204.067667" fill="rgb(255, 255, 255)" style="fill-opacity:1.00" />
<!-- End 'A' -->
<!-- Begin 'T' -->
<rect height="1.073388" width="50.000000" x="210.000000" y="213.291324" fill="rgb(0, 100, 0)" style="fill-opacity:0.12" />
<rect height="6.708676" width="10.000000" x="230.000000" y="213.291324" fill="rgb(0, 100, 0)" style="fill-opacity:0.12" />
<!-- End 'T' -->
<!-- Begin 'C' -->
<ellipse cx="235.000000" cy="247.715113" rx="25.000000" ry="17.715113" fill="rgb(0, 0, 128)" style="fill-opacity:0.18" />
<ellipse cx="235.000000" cy="247.715113" rx="16.666667" ry="11.810075" fill="rgb(255, 255, 255)" style="fill-opacity:1.00" />
<rect height="17.715113" width="25.000000" x="235.000000" y="238.857556" fill="rgb(255, 255, 255)" style="fill-opacity:1.00" />
<!-- End 'C' -->
<!-- Begin 'A' -->
<polygon points=" 210.000000, 297.727939, 231.000000, 265.430226, 239.000000, 265.430226, 260.000000, 297.727939, 252.500000, 297.727939, 246.250000, 289.653511, 223.750000, 289.653511, 217.500000, 297.727939" fill="rgb(178, 34, 34)" style="fill-opacity:0.18" />
<polygon points=" 235.000000, 271.889768, 227.000000, 283.808854, 242.000000, 283.808854" fill="rgb(255, 255, 255)" style="fill-opacity:1.00" />
<!-- End 'A' -->
<!-- Begin 'G' -->
<ellipse cx="235.000000" cy="306.673595" rx="25.000000" ry="8.945656" fill="rgb(255, 165, 0)" style="fill-opacity:0.18" />
<ellipse cx="235.000000" cy="306.673595" rx="16.666667" ry="5.963771" fill="rgb(255, 255, 255)" style="fill-opacity:1.00" />
<rect height="8.945656" width="25.000000" x="235.000000" y="302.200767" fill="rgb(255, 255, 255)" style="fill-opacity:1.00" />
<rect height="2.236414" width="25.000000" x="235.000000" y="308.910009" fill="rgb(255, 165, 0)" style="fill-opacity:0.18" />
<rect height="6.709242" width="6.250000" x="253.750000" y="308.910009" fill="rgb(255, 165, 0)" style="fill-opacity:0.18" />
<!-- End 'G' -->
<!-- Begin 'T' -->
<rect height="2.300920" width="50.000000" x="210.000000" y="315.619251" fill="rgb(0, 100, 0)" style="fill-opacity:0.18" />
<rect height="14.380749" width="10.000000" x="230.000000" y="315.619251" fill="rgb(0, 100, 0)" style="fill-opacity:0.18" />
<!-- End 'T' -->
<!-- Begin 'G' -->
<ellipse cx="235.000000" cy="355.389263" rx="25.000000" ry="15.389263" fill="rgb(255, 165, 0)" style="fill-opacity:0.27" />
<ellipse cx="235.000000" cy="355.389263" rx="16.666667" ry="10.259509" fill="rgb(255, 255, 255)" style="fill-opacity:1.00" />
<rect height="15.389263" width="25.000000" x="235.000000" y="347.694632" fill="rgb(255, 255, 255)" style="fill-opacity:1.00" />
<rect height="3.847316" width="25.000000" x="235.000000" y="359.236579" fill="rgb(255, 165, 0)" style="fill-opacity:0.27" />
<rect height="11.541948" width="6.250000" x="253.750000" y="359.236579" fill="rgb(255, 165, 0)" style="fill-opacity:0.27" />
<!-- End 'G' -->
<!-- Begin 'C' -->
<ellipse cx="235.000000" cy="384.375852" rx="25.000000" ry="13.597325" fill="rgb(0, 0, 128)" style="fill-opacity:0.27" />
<ellipse cx="235.000000" cy="384.375852" rx="16.666667" ry="9.064883" fill="rgb(255, 255, 255)" style="fill-opacity:1.00" />
<rect height="13.597325" width="25.000000" x="235.000000" y="377.577189" fill="rgb(255, 255, 255)" style="fill-opacity:1.00" />
<!-- End 'C' -->
<!-- Begin 'A' -->
<polygon points=" 210.000000, 423.465897, 231.000000, 397.973176, 239.000000, 397.973176, 260.000000, 423.465897, 252.500000, 423.465897, 246.250000, 417.092717, 223.750000, 417.092717, 217.500000, 423.465897" fill="rgb(178, 34, 34)" style="fill-opacity:0.27" />
<polygon points=" 235.000000, 403.071720, 227.000000, 412.268809, 242.000000, 412.268809" fill="rgb(255, 255, 255)" style="fill-opacity:1.00" />
<!-- End 'A' -->
<!-- Begin 'T' -->
<rect height="2.645456" width="50.000000" x="210.000000" y="423.465897" fill="rgb(0, 100, 0)" style="fill-opacity:0.27" />
<rect height="16.534103" width="10.000000" x="230.000000" y="423.465897" fill="rgb(0, 100, 0)" style="fill-opacity:0.27" />
<!-- End 'T' -->
<!-- Begin 'G' -->
<ellipse cx="295.000000" cy="57.603061" rx="25.000000" ry="47.603061" fill="rgb(255, 165, 0)" style="fill-opacity:0.45" />
<ellipse cx="295.000000" cy="57.603061" rx="16.666667" ry="31.735374" fill="rgb(255, 255, 255)" style="fill-opacity:1.00" />
<rect height="47.603061" width="25.000000" x="295.000000" y="33.801530" fill="rgb(255, 255, 255)" style="fill-opacity:1.00" />
<rect height="11.900765" width="25.000000" x="295.000000" y="69.503826" fill="rgb(255, 165, 0)" style="fill-opacity:0.45" />
<rect height="35.702296" width="6.250000" x="313.750000" y="69.503826" fill="rgb(255, 165, 0)" style="fill-opacity:0.45" />
<!-- End 'G' -->
<!-- Begin 'T' -->
<rect height="0.556980" width="50.000000" x="270.000000" y="105.206121" fill="rgb(0, 100, 0)" style="fill-opacity:0.45" />
<rect height="3.481127" width="10.000000" x="290.000000" y="105.206121" fill="rgb(0, 100, 0)" style="fill-opacity:0.45" />
<!-- End 'T' -->
<!-- Begin 'A' -->
<polygon points=" 270.000000, 109.998937, 291.000000, 108.687248, 299.000000, 108.687248, 320.000000, 109.998937, 312.500000, 109.998937, 306.250000, 109.671015, 283.750000, 109.671015, 277.500000, 109.998937" fill="rgb(178, 34, 34)" style="fill-opacity:0.45" />
<!-- End 'A' -->
<!-- Begin 'C' -->
<ellipse cx="295.000000" cy="109.999469" rx="25.000000" ry="0.000531" fill="rgb(0, 0, 128)" style="fill-opacity:0.45" />
<ellipse cx="295.000000" cy="109.999469" rx="16.666667" ry="0.000354" fill="rgb(255, 255, 255)" style="fill-opacity:1.00" />
<rect height="0.000531" width="25.000000" x="295.000000" y="109.999203" fill="rgb(255, 255, 255)" style="fill-opacity:1.00" />
<!-- End 'C' -->
<!-- Begin 'G' -->
<ellipse cx="295.000000" cy="155.756583" rx="25.000000" ry="35.756583" fill="rgb(255, 165, 0)" style="fill-opacity:0.25" />
<ellipse cx="295.000000" cy="155.756583" rx="16.666667" ry="23.837722" fill="rgb(255, 255, 255)" style="fill-opacity:1.00" />
<rect height="35.756583" width="25.000000" x="295.000000" y="137.878291" fill="rgb(255, 255, 255)" style="fill-opacity:1.00" />
<rect height="8.939146" width="25.000000" x="295.000000" y="164.695728" fill="rgb(255, 165, 0)" style="fill-opacity:0.25" />
<rect height="26.817437" width="6.250000" x="313.750000" y="164.695728" fill="rgb(255, 165, 0)" style="fill-opacity:0.25" />
<!-- End 'G' -->
<!-- Begin 'T' -->
<rect height="2.430232" width="50.000000" x="270.000000" y="191.513165" fill="rgb(0, 100, 0)" style="fill-opacity:0.25" />
<rect height="15.188949" width="10.000000" x="290.000000" y="191.513165" fill="rgb(0, 100, 0)" style="fill-opacity:0.25" />
<!-- End 'T' -->
<!-- Begin 'A' -->
<polygon points=" 270.000000, 219.908028, 291.000000, 206.702115, 299.000000, 206.702115, 320.000000, 219.908028, 312.500000, 219.908028, 306.250000, 216.606550, 283.750000, 216.606550, 277.500000, 219.908028" fill="rgb(178, 34, 34)" style="fill-opacity:0.25" />
<polygon points=" 295.000000, 209.343297, 287.000000, 213.625663, 302.000000, 213.625663" fill="rgb(255, 255, 255)" style="fill-opacity:1.00" />
<!-- End 'A' -->
<!-- Begin 'C' -->
<ellipse cx="295.000000" cy="219.954014" rx="25.000000" ry="0.045986" fill="rgb(0, 0, 128)" style="fill-opacity:0.25" />
<ellipse cx="295.000000" cy="219.954014" rx="16.666667" ry="0.030657" fill="rgb(255, 255, 255)" style="fill-opacity:1.00" />
<rect height="0.045986" width="25.000000" x="295.000000" y="219.931021" fill="rgb(255, 255, 255)" style="fill-opacity:1.00" />
<!-- End 'C' -->
<!-- Begin 'G' -->
<ellipse cx="295.000000" cy="266.636971" rx="25.000000" ry="36.636971" fill="rgb(255, 165, 0)" style="fill-opacity:0.19" />
<ellipse cx="295.000000" cy="266.636971" rx="16.666667" ry="24.424647" fill="rgb(255, 255, 255)" style="fill-opacity:1.00" />
<rect height="36.636971" width="25.000000" x="295.000000" y="248.318486" fill="rgb(255, 255, 255)" style="fill-opacity:1.00" />
<rect height="9.159243" width="25.000000" x="295.000000" y="275.796214" fill="rgb(255, 165, 0)" style="fill-opacity:0.19" />
<rect height="27.477728" width="6.250000" x="313.750000" y="275.796214" fill="rgb(255, 165, 0)" style="fill-opacity:0.19" />
<!-- End 'G' -->
<!-- Begin 'T' -->
<rect height="3.273553" width="50.000000" x="270.000000" y="303.273942" fill="rgb(0, 100, 0)" style="fill-opacity:0.19" />
<rect height="20.459706" width="10.000000" x="290.000000" y="303.273942" fill="rgb(0, 100, 0)" style="fill-opacity:0.19" />
<!-- End 'T' -->
<!-- Begin 'A' -->
<polygon points=" 270.000000, 328.924852, 291.000000, 323.733648, 299.000000, 323.733648, 320.000000, 328.924852, 312.500000, 328.924852, 306.250000, 327.627051, 283.750000, 327.627051, 277.500000, 328.924852" fill="rgb(178, 34, 34)" style="fill-opacity:0.19" />
<!-- End 'A' -->
<!-- Begin 'C' -->
<ellipse cx="295.000000" cy="329.462426" rx="25.000000" ry="0.537574" fill="rgb(0, 0, 128)" style="fill-opacity:0.19" />
<ellipse cx="295.000000" cy="329.462426" rx="16.666667" ry="0.358383" fill="rgb(255, 255, 255)" style="fill-opacity:1.00" />
<rect height="0.537574" width="25.000000" x="295.000000" y="329.193639" fill="rgb(255, 255, 255)" style="fill-opacity:1.00" />
<!-- End 'C' -->
<!-- Begin 'G' -->
<ellipse cx="295.000000" cy="373.823835" rx="25.000000" ry="33.823835" fill="rgb(255, 165, 0)" style="fill-opacity:0.11" />
<ellipse cx="295.000000" cy="373.823835" rx="16.666667" ry="22.549223" fill="rgb(255, 255, 255)" style="fill-opacity:1.00" />
<rect height="33.823835" width="25.000000" x="295.000000" y="356.911917" fill="rgb(255, 255, 255)" style="fill-opacity:1.00" />
<rect height="8.455959" width="25.000000" x="295.000000" y="382.279793" fill="rgb(255, 165, 0)" style="fill-opacity:0.11" />
<rect height="25.367876" width="6.250000" x="313.750000" y="382.279793" fill="rgb(255, 165, 0)" style="fill-opacity:0.11" />
<!-- End 'G' -->
<!-- Begin 'T' -->
<rect height="3.113640" width="50.000000" x="270.000000" y="407.647670" fill="rgb(0, 100, 0)" style="fill-opacity:0.11" />
<rect height="19.460252" width="10.000000" x="290.000000" y="407.647670" fill="rgb(0, 100, 0)" style="fill-opacity:0.11" />
<!-- End 'T' -->
<!-- Begin 'A' -->
<polygon points=" 270.000000, 435.435098, 291.000000, 427.107921, 299.000000, 427.107921, 320.000000, 435.435098, 312.500000, 435.435098, 306.250000, 433.353304, 283.750000, 433.353304, 277.500000, 435.435098" fill="rgb(178, 34, 34)" style="fill-opacity:0.11" />
<polygon points=" 295.000000, 428.773356, 287.000000, 431.104227, 302.000000, 431.104227" fill="rgb(255, 255, 255)" style="fill-opacity:1.00" />
<!-- End 'A' -->
<!-- Begin 'C' -->
<ellipse cx="295.000000" cy="437.717549" rx="25.000000" ry="2.282451" fill="rgb(0, 0, 128)" style="fill-opacity:0.11" />
<ellipse cx="295.000000" cy="437.717549" rx="16.666667" ry="1.521634" fill="rgb(255, 255, 255)" style="fill-opacity:1.00" />
<rect height="2.282451" width="25.000000" x="295.000000" y="436.576323" fill="rgb(255, 255, 255)" style="fill-opacity:1.00" />
<!-- End 'C' -->
<!-- Begin 'T' -->
<rect height="13.007552" width="50.000000" x="330.000000" y="10.000000" fill="rgb(0, 100, 0)" style="fill-opacity:0.06" />
<rect height="81.297202" width="10.000000" x="350.000000" y="10.000000" fill="rgb(0, 100, 0)" style="fill-opacity:0.06" />
<!-- End 'T' -->
<!-- Begin 'C' -->
<ellipse cx="355.000000" cy="98.849385" rx="25.000000" ry="7.552183" fill="rgb(0, 0, 128)" style="fill-opacity:0.06" />
<ellipse cx="355.000000" cy="98.849385" rx="16.666667" ry="5.034789" fill="rgb(255, 255, 255)" style="fill-opacity:1.00" />
<rect height="7.552183" width="25.000000" x="355.000000" y="95.073293" fill="rgb(255, 255, 255)" style="fill-opacity:1.00" />
<!-- End 'C' -->
<!-- Begin 'A' -->
<polygon points=" 330.000000, 109.223556, 351.000000, 106.401568, 359.000000, 106.401568, 380.000000, 109.223556, 372.500000, 109.223556, 366.250000, 108.518059, 343.750000, 108.518059, 337.500000, 109.223556" fill="rgb(178, 34, 34)" style="fill-opacity:0.06" />
<!-- End 'A' -->
<!-- Begin 'G' -->
<ellipse cx="355.000000" cy="109.611778" rx="25.000000" ry="0.388222" fill="rgb(255, 165, 0)" style="fill-opacity:0.06" />
<ellipse cx="355.000000" cy="109.611778" rx="16.666667" ry="0.258815" fill="rgb(255, 255, 255)" style="fill-opacity:1.00" />
<rect height="0.388222" width="25.000000" x="355.000000" y="109.417667" fill="rgb(255, 255, 255)" style="fill-opacity:1.00" />
<rect height="0.097055" width="25.000000" x="355.000000" y="109.708834" fill="rgb(255, 165, 0)" style="fill-opacity:0.06" />
<rect height="0.291166" width="6.250000" x="373.750000" y="109.708834" fill="rgb(255, 165, 0)" style="fill-opacity:0.06" />
<!-- End 'G' -->
<!-- Begin 'T' -->
<rect height="15.289244" width="50.000000" x="330.000000" y="120.000000" fill="rgb(0, 100, 0)" style="fill-opacity:0.01" />
<rect height="95.557774" width="10.000000" x="350.000000" y="120.000000" fill="rgb(0, 100, 0)" style="fill-opacity:0.01" />
<!-- End 'T' -->
<!-- Begin 'C' -->
<ellipse cx="355.000000" cy="216.870368" rx="25.000000" ry="1.312593" fill="rgb(0, 0, 128)" style="fill-opacity:0.01" />
<ellipse cx="355.000000" cy="216.870368" rx="16.666667" ry="0.875062" fill="rgb(255, 255, 255)" style="fill-opacity:1.00" />
<rect height="1.312593" width="25.000000" x="355.000000" y="216.214071" fill="rgb(255, 255, 255)" style="fill-opacity:1.00" />
<!-- End 'C' -->
<!-- Begin 'A' -->
<polygon points=" 330.000000, 219.999985, 351.000000, 218.182961, 359.000000, 218.182961, 380.000000, 219.999985, 372.500000, 219.999985, 366.250000, 219.545729, 343.750000, 219.545729, 337.500000, 219.999985" fill="rgb(178, 34, 34)" style="fill-opacity:0.01" />
<!-- End 'A' -->
<!-- Begin 'G' -->
<ellipse cx="355.000000" cy="219.999992" rx="25.000000" ry="0.000008" fill="rgb(255, 165, 0)" style="fill-opacity:0.01" />
<ellipse cx="355.000000" cy="219.999992" rx="16.666667" ry="0.000005" fill="rgb(255, 255, 255)" style="fill-opacity:1.00" />
<rect height="0.000008" width="25.000000" x="355.000000" y="219.999988" fill="rgb(255, 255, 255)" style="fill-opacity:1.00" />
<rect height="0.000002" width="25.000000" x="355.000000" y="219.999994" fill="rgb(255, 165, 0)" style="fill-opacity:0.01" />
<rect height="0.000006" width="6.250000" x="373.750000" y="219.999994" fill="rgb(255, 165, 0)" style="fill-opacity:0.01" />
<!-- End 'G' -->
<!-- Begin 'T' -->
<rect height="15.848246" width="50.000000" x="330.000000" y="230.000000" fill="rgb(0, 100, 0)" style="fill-opacity:0.82" />
<rect height="99.051536" width="10.000000" x="350.000000" y="230.000000" fill="rgb(0, 100, 0)" style="fill-opacity:0.82" />
<!-- End 'T' -->
<!-- Begin 'C' -->
<ellipse cx="355.000000" cy="329.451275" rx="25.000000" ry="0.399739" fill="rgb(0, 0, 128)" style="fill-opacity:0.82" />
<ellipse cx="355.000000" cy="329.451275" rx="16.666667" ry="0.266493" fill="rgb(255, 255, 255)" style="fill-opacity:1.00" />
<rect height="0.399739" width="25.000000" x="355.000000" y="329.251405" fill="rgb(255, 255, 255)" style="fill-opacity:1.00" />
<!-- End 'C' -->
<!-- Begin 'A' -->
<polygon points=" 330.000000, 329.933598, 351.000000, 329.851013, 359.000000, 329.851013, 380.000000, 329.933598, 372.500000, 329.933598, 366.250000, 329.912952, 343.750000, 329.912952, 337.500000, 329.933598" fill="rgb(178, 34, 34)" style="fill-opacity:0.82" />
<!-- End 'A' -->
<!-- Begin 'G' -->
<ellipse cx="355.000000" cy="329.966799" rx="25.000000" ry="0.033201" fill="rgb(255, 165, 0)" style="fill-opacity:0.82" />
<ellipse cx="355.000000" cy="329.966799" rx="16.666667" ry="0.022134" fill="rgb(255, 255, 255)" style="fill-opacity:1.00" />
<rect height="0.033201" width="25.000000" x="355.000000" y="329.950199" fill="rgb(255, 255, 255)" style="fill-opacity:1.00" />
<rect height="0.008300" width="25.000000" x="355.000000" y="329.975099" fill="rgb(255, 165, 0)" style="fill-opacity:0.82" />
<rect height="0.024901" width="6.250000" x="373.750000" y="329.975099" fill="rgb(255, 165, 0)" style="fill-opacity:0.82" />
<!-- End 'G' -->
<!-- Begin 'T' -->
<rect height="15.644473" width="50.000000" x="330.000000" y="340.000000" fill="rgb(0, 100, 0)" style="fill-opacity:0.11" />
<rect height="97.777955" width="10.000000" x="350.000000" y="340.000000" fill="rgb(0, 100, 0)" style="fill-opacity:0.11" />
<!-- End 'T' -->
<!-- Begin 'C' -->
<ellipse cx="355.000000" cy="438.722735" rx="25.000000" ry="0.944780" fill="rgb(0, 0, 128)" style="fill-opacity:0.11" />
<ellipse cx="355.000000" cy="438.722735" rx="16.666667" ry="0.629853" fill="rgb(255, 255, 255)" style="fill-opacity:1.00" />
<rect height="0.944780" width="25.000000" x="355.000000" y="438.250345" fill="rgb(255, 255, 255)" style="fill-opacity:1.00" />
<!-- End 'C' -->
<!-- Begin 'A' -->
<polygon points=" 330.000000, 439.999986, 351.000000, 439.667514, 359.000000, 439.667514, 380.000000, 439.999986, 372.500000, 439.999986, 366.250000, 439.916868, 343.750000, 439.916868, 337.500000, 439.999986" fill="rgb(178, 34, 34)" style="fill-opacity:0.11" />
<!-- End 'A' -->
<!-- Begin 'G' -->
<ellipse cx="355.000000" cy="439.999993" rx="25.000000" ry="0.000007" fill="rgb(255, 165, 0)" style="fill-opacity:0.11" />
<ellipse cx="355.000000" cy="439.999993" rx="16.666667" ry="0.000005" fill="rgb(255, 255, 255)" style="fill-opacity:1.00" />
<rect height="0.000007" width="25.000000" x="355.000000" y="439.999989" fill="rgb(255, 255, 255)" style="fill-opacity:1.00" />
<rect height="0.000002" width="25.000000" x="355.000000" y="439.999995" fill="rgb(255, 165, 0)" style="fill-opacity:0.11" />
<rect height="0.000005" width="6.250000" x="373.750000" y="439.999995" fill="rgb(255, 165, 0)" style="fill-opacity:0.11" />
<!-- End 'G' -->
<!-- Begin 'C' -->
<ellipse cx="415.000000" cy="44.432403" rx="25.000000" ry="34.432403" fill="rgb(0, 0, 128)" style="fill-opacity:0.00" />
<ellipse cx="415.000000" cy="44.432403" rx="16.666667" ry="22.954935" fill="rgb(255, 255, 255)" style="fill-opacity:1.00" />
<rect height="34.432403" width="25.000000" x="415.000000" y="27.216201" fill="rgb(255, 255, 255)" style="fill-opacity:1.00" />
<!-- End 'C' -->
<!-- Begin 'A' -->
<polygon points=" 390.000000, 106.889999, 411.000000, 78.864806, 419.000000, 78.864806, 440.000000, 106.889999, 432.500000, 106.889999, 426.250000, 99.883701, 403.750000, 99.883701, 397.500000, 106.889999" fill="rgb(178, 34, 34)" style="fill-opacity:0.00" />
<polygon points=" 415.000000, 84.469844, 407.000000, 94.679922, 422.000000, 94.679922" fill="rgb(255, 255, 255)" style="fill-opacity:1.00" />
<!-- End 'A' -->
<!-- Begin 'G' -->
<ellipse cx="415.000000" cy="107.707812" rx="25.000000" ry="0.817813" fill="rgb(255, 165, 0)" style="fill-opacity:0.00" />
<ellipse cx="415.000000" cy="107.707812" rx="16.666667" ry="0.545209" fill="rgb(255, 255, 255)" style="fill-opacity:1.00" />
<rect height="0.817813" width="25.000000" x="415.000000" y="107.298906" fill="rgb(255, 255, 255)" style="fill-opacity:1.00" />
<rect height="0.204453" width="25.000000" x="415.000000" y="107.912265" fill="rgb(255, 165, 0)" style="fill-opacity:0.00" />
<rect height="0.613360" width="6.250000" x="433.750000" y="107.912265" fill="rgb(255, 165, 0)" style="fill-opacity:0.00" />
<!-- End 'G' -->
<!-- Begin 'T' -->
<rect height="0.235900" width="50.000000" x="390.000000" y="108.525625" fill="rgb(0, 100, 0)" style="fill-opacity:0.00" />
<rect height="1.474375" width="10.000000" x="410.000000" y="108.525625" fill="rgb(0, 100, 0)" style="fill-opacity:0.00" />
<!-- End 'T' -->
<!-- Begin 'C' -->
<ellipse cx="415.000000" cy="169.261188" rx="25.000000" ry="49.261188" fill="rgb(0, 0, 128)" style="fill-opacity:0.02" />
<ellipse cx="415.000000" cy="169.261188" rx="16.666667" ry="32.840792" fill="rgb(255, 255, 255)" style="fill-opacity:1.00" />
<rect height="49.261188" width="25.000000" x="415.000000" y="144.630594" fill="rgb(255, 255, 255)" style="fill-opacity:1.00" />
<!-- End 'C' -->
<!-- Begin 'T' -->
<rect height="0.236308" width="50.000000" x="390.000000" y="218.522375" fill="rgb(0, 100, 0)" style="fill-opacity:0.02" />
<rect height="1.476926" width="10.000000" x="410.000000" y="218.522375" fill="rgb(0, 100, 0)" style="fill-opacity:0.02" />
<!-- End 'T' -->
<!-- Begin 'A' -->
<polygon points=" 390.000000, 219.999990, 411.000000, 219.999301, 419.000000, 219.999301, 440.000000, 219.999990, 432.500000, 219.999990, 426.250000, 219.999818, 403.750000, 219.999818, 397.500000, 219.999990" fill="rgb(178, 34, 34)" style="fill-opacity:0.02" />
<!-- End 'A' -->
<!-- Begin 'G' -->
<ellipse cx="415.000000" cy="219.999995" rx="25.000000" ry="0.000005" fill="rgb(255, 165, 0)" style="fill-opacity:0.02" />
<ellipse cx="415.000000" cy="219.999995" rx="16.666667" ry="0.000003" fill="rgb(255, 255, 255)" style="fill-opacity:1.00" />
<rect height="0.000005" width="25.000000" x="415.000000" y="219.999992" fill="rgb(255, 255, 255)" style="fill-opacity:1.00" />
<rect height="0.000001" width="25.000000" x="415.000000" y="219.999996" fill="rgb(255, 165, 0)" style="fill-opacity:0.02" />
<rect height="0.000004" width="6.250000" x="433.750000" y="219.999996" fill="rgb(255, 165, 0)" style="fill-opacity:0.02" />
<!-- End 'G' -->
<!-- Begin 'C' -->
<ellipse cx="415.000000" cy="279.320152" rx="25.000000" ry="49.320152" fill="rgb(0, 0, 128)" style="fill-opacity:0.00" />
<ellipse cx="415.000000" cy="279.320152" rx="16.666667" ry="32.880101" fill="rgb(255, 255, 255)" style="fill-opacity:1.00" />
<rect height="49.320152" width="25.000000" x="415.000000" y="254.660076" fill="rgb(255, 255, 255)" style="fill-opacity:1.00" />
<!-- End 'C' -->
<!-- Begin 'T' -->
<rect height="0.184185" width="50.000000" x="390.000000" y="328.640304" fill="rgb(0, 100, 0)" style="fill-opacity:0.00" />
<rect height="1.151154" width="10.000000" x="410.000000" y="328.640304" fill="rgb(0, 100, 0)" style="fill-opacity:0.00" />
<!-- End 'T' -->
<!-- Begin 'A' -->
<polygon points=" 390.000000, 329.999938, 411.000000, 329.791458, 419.000000, 329.791458, 440.000000, 329.999938, 432.500000, 329.999938, 426.250000, 329.947818, 403.750000, 329.947818, 397.500000, 329.999938" fill="rgb(178, 34, 34)" style="fill-opacity:0.00" />
<!-- End 'A' -->
<!-- Begin 'G' -->
<ellipse cx="415.000000" cy="329.999969" rx="25.000000" ry="0.000031" fill="rgb(255, 165, 0)" style="fill-opacity:0.00" />
<ellipse cx="415.000000" cy="329.999969" rx="16.666667" ry="0.000021" fill="rgb(255, 255, 255)" style="fill-opacity:1.00" />
<rect height="0.000031" width="25.000000" x="415.000000" y="329.999953" fill="rgb(255, 255, 255)" style="fill-opacity:1.00" />
<rect height="0.000008" width="25.000000" x="415.000000" y="329.999977" fill="rgb(255, 165, 0)" style="fill-opacity:0.00" />
<rect height="0.000023" width="6.250000" x="433.750000" y="329.999977" fill="rgb(255, 165, 0)" style="fill-opacity:0.00" />
<!-- End 'G' -->
<!-- Begin 'C' -->
<ellipse cx="415.000000" cy="366.599356" rx="25.000000" ry="26.599356" fill="rgb(0, 0, 128)" style="fill-opacity:0.98" />
<ellipse cx="415.000000" cy="366.599356" rx="16.666667" ry="17.732904" fill="rgb(255, 255, 255)" style="fill-opacity:1.00" />
<rect height="26.599356" width="25.000000" x="415.000000" y="353.299678" fill="rgb(255, 255, 255)" style="fill-opacity:1.00" />
<!-- End 'C' -->
<!-- Begin 'T' -->
<rect height="7.431317" width="50.000000" x="390.000000" y="393.198712" fill="rgb(0, 100, 0)" style="fill-opacity:0.98" />
<rect height="46.445734" width="10.000000" x="410.000000" y="393.198712" fill="rgb(0, 100, 0)" style="fill-opacity:0.98" />
<!-- End 'T' -->
<!-- Begin 'A' -->
<polygon points=" 390.000000, 439.973725, 411.000000, 439.644446, 419.000000, 439.644446, 440.000000, 439.973725, 432.500000, 439.973725, 426.250000, 439.891406, 403.750000, 439.891406, 397.500000, 439.973725" fill="rgb(178, 34, 34)" style="fill-opacity:0.98" />
<!-- End 'A' -->
<!-- Begin 'G' -->
<ellipse cx="415.000000" cy="439.986863" rx="25.000000" ry="0.013137" fill="rgb(255, 165, 0)" style="fill-opacity:0.98" />
<ellipse cx="415.000000" cy="439.986863" rx="16.666667" ry="0.008758" fill="rgb(255, 255, 255)" style="fill-opacity:1.00" />
<rect height="0.013137" width="25.000000" x="415.000000" y="439.980294" fill="rgb(255, 255, 255)" style="fill-opacity:1.00" />
<rect height="0.003284" width="25.000000" x="415.000000" y="439.990147" fill="rgb(255, 165, 0)" style="fill-opacity:0.98" />
<rect height="0.009853" width="6.250000" x="433.750000" y="439.990147" fill="rgb(255, 165, 0)" style="fill-opacity:0.98" />
<!-- End 'G' -->
<!-- Begin 'A' -->
<polygon points=" 450.000000, 109.364792, 471.000000, 10.000000, 479.000000, 10.000000, 500.000000, 109.364792, 492.500000, 109.364792, 486.250000, 84.523594, 463.750000, 84.523594, 457.500000, 109.364792" fill="rgb(178, 34, 34)" style="fill-opacity:0.00" />
<polygon points=" 475.000000, 29.872958, 467.000000, 68.618875, 482.000000, 68.618875" fill="rgb(255, 255, 255)" style="fill-opacity:1.00" />
<!-- End 'A' -->
<!-- Begin 'G' -->
<ellipse cx="475.000000" cy="109.540835" rx="25.000000" ry="0.176042" fill="rgb(255, 165, 0)" style="fill-opacity:0.00" />
<ellipse cx="475.000000" cy="109.540835" rx="16.666667" ry="0.117362" fill="rgb(255, 255, 255)" style="fill-opacity:1.00" />
<rect height="0.176042" width="25.000000" x="475.000000" y="109.452813" fill="rgb(255, 255, 255)" style="fill-opacity:1.00" />
<rect height="0.044011" width="25.000000" x="475.000000" y="109.584845" fill="rgb(255, 165, 0)" style="fill-opacity:0.00" />
<rect height="0.132032" width="6.250000" x="493.750000" y="109.584845" fill="rgb(255, 165, 0)" style="fill-opacity:0.00" />
<!-- End 'G' -->
<!-- Begin 'T' -->
<rect height="0.045129" width="50.000000" x="450.000000" y="109.716877" fill="rgb(0, 100, 0)" style="fill-opacity:0.00" />
<rect height="0.282055" width="10.000000" x="470.000000" y="109.716877" fill="rgb(0, 100, 0)" style="fill-opacity:0.00" />
<!-- End 'T' -->
<!-- Begin 'C' -->
<ellipse cx="475.000000" cy="109.999466" rx="25.000000" ry="0.000534" fill="rgb(0, 0, 128)" style="fill-opacity:0.00" />
<ellipse cx="475.000000" cy="109.999466" rx="16.666667" ry="0.000356" fill="rgb(255, 255, 255)" style="fill-opacity:1.00" />
<rect height="0.000534" width="25.000000" x="475.000000" y="109.999199" fill="rgb(255, 255, 255)" style="fill-opacity:1.00" />
<!-- End 'C' -->
<!-- Begin 'A' -->
<polygon points=" 450.000000, 214.976683, 471.000000, 120.000000, 479.000000, 120.000000, 500.000000, 214.976683, 492.500000, 214.976683, 486.250000, 191.232512, 463.750000, 191.232512, 457.500000, 214.976683" fill="rgb(178, 34, 34)" style="fill-opacity:0.54" />
<polygon points=" 475.000000, 138.995337, 467.000000, 175.986010, 482.000000, 175.986010" fill="rgb(255, 255, 255)" style="fill-opacity:1.00" />
<!-- End 'A' -->
<!-- Begin 'T' -->
<rect height="0.530057" width="50.000000" x="450.000000" y="214.976683" fill="rgb(0, 100, 0)" style="fill-opacity:0.54" />
<rect height="3.312853" width="10.000000" x="470.000000" y="214.976683" fill="rgb(0, 100, 0)" style="fill-opacity:0.54" />
<!-- End 'T' -->
<!-- Begin 'C' -->
<ellipse cx="475.000000" cy="219.092069" rx="25.000000" ry="0.802533" fill="rgb(0, 0, 128)" style="fill-opacity:0.54" />
<ellipse cx="475.000000" cy="219.092069" rx="16.666667" ry="0.535022" fill="rgb(255, 255, 255)" style="fill-opacity:1.00" />
<rect height="0.802533" width="25.000000" x="475.000000" y="218.690802" fill="rgb(255, 255, 255)" style="fill-opacity:1.00" />
<!-- End 'C' -->
<!-- Begin 'G' -->
<ellipse cx="475.000000" cy="219.947301" rx="25.000000" ry="0.052699" fill="rgb(255, 165, 0)" style="fill-opacity:0.54" />
<ellipse cx="475.000000" cy="219.947301" rx="16.666667" ry="0.035133" fill="rgb(255, 255, 255)" style="fill-opacity:1.00" />
<rect height="0.052699" width="25.000000" x="475.000000" y="219.920951" fill="rgb(255, 255, 255)" style="fill-opacity:1.00" />
<rect height="0.013175" width="25.000000" x="475.000000" y="219.960475" fill="rgb(255, 165, 0)" style="fill-opacity:0.54" />
<rect height="0.039525" width="6.250000" x="493.750000" y="219.960475" fill="rgb(255, 165, 0)" style="fill-opacity:0.54" />
<!-- End 'G' -->
<!-- Begin 'A' -->
<polygon points=" 450.000000, 319.526755, 471.000000, 230.000000, 479.000000, 230.000000, 500.000000, 319.526755, 492.500000, 319.526755, 486.250000, 297.145067, 463.750000, 297.145067, 457.500000, 319.526755" fill="rgb(178, 34, 34)" style="fill-opacity:0.00" />
<polygon points=" 475.000000, 247.905351, 467.000000, 282.716053, 482.000000, 282.716053" fill="rgb(255, 255, 255)" style="fill-opacity:1.00" />
<!-- End 'A' -->
<!-- Begin 'G' -->
<ellipse cx="475.000000" cy="324.642241" rx="25.000000" ry="5.115485" fill="rgb(255, 165, 0)" style="fill-opacity:0.00" />
<ellipse cx="475.000000" cy="324.642241" rx="16.666667" ry="3.410324" fill="rgb(255, 255, 255)" style="fill-opacity:1.00" />
<rect height="5.115485" width="25.000000" x="475.000000" y="322.084498" fill="rgb(255, 255, 255)" style="fill-opacity:1.00" />
<rect height="1.278871" width="25.000000" x="475.000000" y="325.921112" fill="rgb(255, 165, 0)" style="fill-opacity:0.00" />
<rect height="3.836614" width="6.250000" x="493.750000" y="325.921112" fill="rgb(255, 165, 0)" style="fill-opacity:0.00" />
<!-- End 'G' -->
<!-- Begin 'T' -->
<rect height="0.035109" width="50.000000" x="450.000000" y="329.757726" fill="rgb(0, 100, 0)" style="fill-opacity:0.00" />
<rect height="0.219430" width="10.000000" x="470.000000" y="329.757726" fill="rgb(0, 100, 0)" style="fill-opacity:0.00" />
<!-- End 'T' -->
<!-- Begin 'C' -->
<ellipse cx="475.000000" cy="329.988578" rx="25.000000" ry="0.011422" fill="rgb(0, 0, 128)" style="fill-opacity:0.00" />
<ellipse cx="475.000000" cy="329.988578" rx="16.666667" ry="0.007615" fill="rgb(255, 255, 255)" style="fill-opacity:1.00" />
<rect height="0.011422" width="25.000000" x="475.000000" y="329.982867" fill="rgb(255, 255, 255)" style="fill-opacity:1.00" />
<!-- End 'C' -->
<!-- Begin 'G' -->
<ellipse cx="475.000000" cy="389.850513" rx="25.000000" ry="49.850513" fill="rgb(255, 165, 0)" style="fill-opacity:0.45" />
<ellipse cx="475.000000" cy="389.850513" rx="16.666667" ry="33.233676" fill="rgb(255, 255, 255)" style="fill-opacity:1.00" />
<rect height="49.850513" width="25.000000" x="475.000000" y="364.925257" fill="rgb(255, 255, 255)" style="fill-opacity:1.00" />
<rect height="12.462628" width="25.000000" x="475.000000" y="402.313142" fill="rgb(255, 165, 0)" style="fill-opacity:0.45" />
<rect height="37.387885" width="6.250000" x="493.750000" y="402.313142" fill="rgb(255, 165, 0)" style="fill-opacity:0.45" />
<!-- End 'G' -->
<!-- Begin 'C' -->
<ellipse cx="475.000000" cy="439.847222" rx="25.000000" ry="0.146195" fill="rgb(0, 0, 128)" style="fill-opacity:0.45" />
<ellipse cx="475.000000" cy="439.847222" rx="16.666667" ry="0.097463" fill="rgb(255, 255, 255)" style="fill-opacity:1.00" />
<rect height="0.146195" width="25.000000" x="475.000000" y="439.774124" fill="rgb(255, 255, 255)" style="fill-opacity:1.00" />
<!-- End 'C' -->
<!-- Begin 'T' -->
<rect height="0.000724" width="50.000000" x="450.000000" y="439.993416" fill="rgb(0, 100, 0)" style="fill-opacity:0.45" />
<rect height="0.004525" width="10.000000" x="470.000000" y="439.993416" fill="rgb(0, 100, 0)" style="fill-opacity:0.45" />
<!-- End 'T' -->
<!-- Begin 'A' -->
<polygon points=" 450.000000, 440.000000, 471.000000, 439.997941, 479.000000, 439.997941, 500.000000, 440.000000, 492.500000, 440.000000, 486.250000, 439.999485, 463.750000, 439.999485, 457.500000, 440.000000" fill="rgb(178, 34, 34)" style="fill-opacity:0.45" />
<!-- End 'A' -->
<!-- Begin 'A' -->
<polygon points=" 510.000000, 105.539016, 531.000000, 10.000000, 539.000000, 10.000000, 560.000000, 105.539016, 552.500000, 105.539016, 546.250000, 81.654262, 523.750000, 81.654262, 517.500000, 105.539016" fill="rgb(178, 34, 34)" style="fill-opacity:0.52" />
<polygon points=" 535.000000, 29.107803, 527.000000, 66.323409, 542.000000, 66.323409" fill="rgb(255, 255, 255)" style="fill-opacity:1.00" />
<!-- End 'A' -->
<!-- Begin 'G' -->
<ellipse cx="535.000000" cy="106.774504" rx="25.000000" ry="1.235489" fill="rgb(255, 165, 0)" style="fill-opacity:0.52" />
<ellipse cx="535.000000" cy="106.774504" rx="16.666667" ry="0.823659" fill="rgb(255, 255, 255)" style="fill-opacity:1.00" />
<rect height="1.235489" width="25.000000" x="535.000000" y="106.156760" fill="rgb(255, 255, 255)" style="fill-opacity:1.00" />
<rect height="0.308872" width="25.000000" x="535.000000" y="107.083376" fill="rgb(255, 165, 0)" style="fill-opacity:0.52" />
<rect height="0.926616" width="6.250000" x="553.750000" y="107.083376" fill="rgb(255, 165, 0)" style="fill-opacity:0.52" />
<!-- End 'G' -->
<!-- Begin 'T' -->
<rect height="0.272995" width="50.000000" x="510.000000" y="108.009993" fill="rgb(0, 100, 0)" style="fill-opacity:0.52" />
<rect height="1.706221" width="10.000000" x="530.000000" y="108.009993" fill="rgb(0, 100, 0)" style="fill-opacity:0.52" />
<!-- End 'T' -->
<!-- Begin 'C' -->
<ellipse cx="535.000000" cy="109.858107" rx="25.000000" ry="0.141893" fill="rgb(0, 0, 128)" style="fill-opacity:0.52" />
<ellipse cx="535.000000" cy="109.858107" rx="16.666667" ry="0.094595" fill="rgb(255, 255, 255)" style="fill-opacity:1.00" />
<rect height="0.141893" width="25.000000" x="535.000000" y="109.787160" fill="rgb(255, 255, 255)" style="fill-opacity:1.00" />
<!-- End 'C' -->
<!-- Begin 'A' -->
<polygon points=" 510.000000, 219.287290, 531.000000, 120.000000, 539.000000, 120.000000, 560.000000, 219.287290, 552.500000, 219.287290, 546.250000, 194.465467, 523.750000, 194.465467, 517.500000, 219.287290" fill="rgb(178, 34, 34)" style="fill-opacity:0.01" />
<polygon points=" 535.000000, 139.857458, 527.000000, 178.572374, 542.000000, 178.572374" fill="rgb(255, 255, 255)" style="fill-opacity:1.00" />
<!-- End 'A' -->
<!-- Begin 'T' -->
<rect height="0.106798" width="50.000000" x="510.000000" y="219.287290" fill="rgb(0, 100, 0)" style="fill-opacity:0.01" />
<rect height="0.667490" width="10.000000" x="530.000000" y="219.287290" fill="rgb(0, 100, 0)" style="fill-opacity:0.01" />
<!-- End 'T' -->
<!-- Begin 'G' -->
<ellipse cx="535.000000" cy="219.970084" rx="25.000000" ry="0.015304" fill="rgb(255, 165, 0)" style="fill-opacity:0.01" />
<ellipse cx="535.000000" cy="219.970084" rx="16.666667" ry="0.010203" fill="rgb(255, 255, 255)" style="fill-opacity:1.00" />
<rect height="0.015304" width="25.000000" x="535.000000" y="219.962432" fill="rgb(255, 255, 255)" style="fill-opacity:1.00" />
<rect height="0.003826" width="25.000000" x="535.000000" y="219.973909" fill="rgb(255, 165, 0)" style="fill-opacity:0.01" />
<rect height="0.011478" width="6.250000" x="553.750000" y="219.973909" fill="rgb(255, 165, 0)" style="fill-opacity:0.01" />
<!-- End 'G' -->
<!-- Begin 'C' -->
<ellipse cx="535.000000" cy="219.992694" rx="25.000000" ry="0.007306" fill="rgb(0, 0, 128)" style="fill-opacity:0.01" />
<ellipse cx="535.000000" cy="219.992694" rx="16.666667" ry="0.004871" fill="rgb(255, 255, 255)" style="fill-opacity:1.00" />
<rect height="0.007306" width="25.000000" x="535.000000" y="219.989041" fill="rgb(255, 255, 255)" style="fill-opacity:1.00" />
<!-- End 'C' -->
<!-- Begin 'A' -->
<polygon points=" 510.000000, 329.522922, 531.000000, 230.000000, 539.000000, 230.000000, 560.000000, 329.522922, 552.500000, 329.522922, 546.250000, 304.642191, 523.750000, 304.642191, 517.500000, 329.522922" fill="rgb(178, 34, 34)" style="fill-opacity:0.45" />
<polygon points=" 535.000000, 249.904584, 527.000000, 288.713753, 542.000000, 288.713753" fill="rgb(255, 255, 255)" style="fill-opacity:1.00" />
<!-- End 'A' -->
<!-- Begin 'T' -->
<rect height="0.067016" width="50.000000" x="510.000000" y="329.522922" fill="rgb(0, 100, 0)" style="fill-opacity:0.45" />
<rect height="0.418852" width="10.000000" x="530.000000" y="329.522922" fill="rgb(0, 100, 0)" style="fill-opacity:0.45" />
<!-- End 'T' -->
<!-- Begin 'C' -->
<ellipse cx="535.000000" cy="329.969429" rx="25.000000" ry="0.027655" fill="rgb(0, 0, 128)" style="fill-opacity:0.45" />
<ellipse cx="535.000000" cy="329.969429" rx="16.666667" ry="0.018437" fill="rgb(255, 255, 255)" style="fill-opacity:1.00" />
<rect height="0.027655" width="25.000000" x="535.000000" y="329.955602" fill="rgb(255, 255, 255)" style="fill-opacity:1.00" />
<!-- End 'C' -->
<!-- Begin 'G' -->
<ellipse cx="535.000000" cy="329.998542" rx="25.000000" ry="0.001458" fill="rgb(255, 165, 0)" style="fill-opacity:0.45" />
<ellipse cx="535.000000" cy="329.998542" rx="16.666667" ry="0.000972" fill="rgb(255, 255, 255)" style="fill-opacity:1.00" />
<rect height="0.001458" width="25.000000" x="535.000000" y="329.997813" fill="rgb(255, 255, 255)" style="fill-opacity:1.00" />
<rect height="0.000364" width="25.000000" x="535.000000" y="329.998907" fill="rgb(255, 165, 0)" style="fill-opacity:0.45" />
<rect height="0.001093" width="6.250000" x="553.750000" y="329.998907" fill="rgb(255, 165, 0)" style="fill-opacity:0.45" />
<!-- End 'G' -->
<!-- Begin 'T' -->
<rect height="8.373037" width="50.000000" x="510.000000" y="340.000000" fill="rgb(0, 100, 0)" style="fill-opacity:0.02" />
<rect height="52.331480" width="10.000000" x="530.000000" y="340.000000" fill="rgb(0, 100, 0)" style="fill-opacity:0.02" />
<!-- End 'T' -->
<!-- Begin 'C' -->
<ellipse cx="535.000000" cy="411.593130" rx="25.000000" ry="19.261650" fill="rgb(0, 0, 128)" style="fill-opacity:0.02" />
<ellipse cx="535.000000" cy="411.593130" rx="16.666667" ry="12.841100" fill="rgb(255, 255, 255)" style="fill-opacity:1.00" />
<rect height="19.261650" width="25.000000" x="535.000000" y="401.962305" fill="rgb(255, 255, 255)" style="fill-opacity:1.00" />
<!-- End 'C' -->
<!-- Begin 'A' -->
<polygon points=" 510.000000, 437.886406, 531.000000, 430.854780, 539.000000, 430.854780, 560.000000, 437.886406, 552.500000, 437.886406, 546.250000, 436.128500, 523.750000, 436.128500, 517.500000, 437.886406" fill="rgb(178, 34, 34)" style="fill-opacity:0.02" />
<!-- End 'A' -->
<!-- Begin 'G' -->
<ellipse cx="535.000000" cy="438.943203" rx="25.000000" ry="1.056797" fill="rgb(255, 165, 0)" style="fill-opacity:0.02" />
<ellipse cx="535.000000" cy="438.943203" rx="16.666667" ry="0.704531" fill="rgb(255, 255, 255)" style="fill-opacity:1.00" />
<rect height="1.056797" width="25.000000" x="535.000000" y="438.414805" fill="rgb(255, 255, 255)" style="fill-opacity:1.00" />
<rect height="0.264199" width="25.000000" x="535.000000" y="439.207402" fill="rgb(255, 165, 0)" style="fill-opacity:0.02" />
<rect height="0.792598" width="6.250000" x="553.750000" y="439.207402" fill="rgb(255, 165, 0)" style="fill-opacity:0.02" />
<!-- End 'G' -->
<!-- Begin 'C' -->
<ellipse cx="595.000000" cy="50.164366" rx="25.000000" ry="40.164366" fill="rgb(0, 0, 128)" style="fill-opacity:0.96" />
<ellipse cx="595.000000" cy="50.164366" rx="16.666667" ry="26.776244" fill="rgb(255, 255, 255)" style="fill-opacity:1.00" />
<rect height="40.164366" width="25.000000" x="595.000000" y="30.082183" fill="rgb(255, 255, 255)" style="fill-opacity:1.00" />
<!-- End 'C' -->
<!-- Begin 'A' -->
<polygon points=" 570.000000, 104.558261, 591.000000, 90.328731, 599.000000, 90.328731, 620.000000, 104.558261, 612.500000, 104.558261, 606.250000, 101.000879, 583.750000, 101.000879, 577.500000, 104.558261" fill="rgb(178, 34, 34)" style="fill-opacity:0.96" />
<polygon points=" 595.000000, 93.174637, 587.000000, 97.866449, 602.000000, 97.866449" fill="rgb(255, 255, 255)" style="fill-opacity:1.00" />
<!-- End 'A' -->
<!-- Begin 'T' -->
<rect height="0.764384" width="50.000000" x="570.000000" y="104.558261" fill="rgb(0, 100, 0)" style="fill-opacity:0.96" />
<rect height="4.777397" width="10.000000" x="590.000000" y="104.558261" fill="rgb(0, 100, 0)" style="fill-opacity:0.96" />
<!-- End 'T' -->
<!-- Begin 'G' -->
<ellipse cx="595.000000" cy="109.667829" rx="25.000000" ry="0.332171" fill="rgb(255, 165, 0)" style="fill-opacity:0.96" />
<ellipse cx="595.000000" cy="109.667829" rx="16.666667" ry="0.221447" fill="rgb(255, 255, 255)" style="fill-opacity:1.00" />
<rect height="0.332171" width="25.000000" x="595.000000" y="109.501744" fill="rgb(255, 255, 255)" style="fill-opacity:1.00" />
<rect height="0.083043" width="25.000000" x="595.000000" y="109.750872" fill="rgb(255, 165, 0)" style="fill-opacity:0.96" />
<rect height="0.249128" width="6.250000" x="613.750000" y="109.750872" fill="rgb(255, 165, 0)" style="fill-opacity:0.96" />
<!-- End 'G' -->
<!-- Begin 'C' -->
<ellipse cx="595.000000" cy="146.716276" rx="25.000000" ry="26.716276" fill="rgb(0, 0, 128)" style="fill-opacity:0.01" />
<ellipse cx="595.000000" cy="146.716276" rx="16.666667" ry="17.810850" fill="rgb(255, 255, 255)" style="fill-opacity:1.00" />
<rect height="26.716276" width="25.000000" x="595.000000" y="133.358138" fill="rgb(255, 255, 255)" style="fill-opacity:1.00" />
<!-- End 'C' -->
<!-- Begin 'T' -->
<rect height="3.579381" width="50.000000" x="570.000000" y="173.432551" fill="rgb(0, 100, 0)" style="fill-opacity:0.01" />
<rect height="22.371133" width="10.000000" x="590.000000" y="173.432551" fill="rgb(0, 100, 0)" style="fill-opacity:0.01" />
<!-- End 'T' -->
<!-- Begin 'G' -->
<ellipse cx="595.000000" cy="203.380901" rx="25.000000" ry="7.577217" fill="rgb(255, 165, 0)" style="fill-opacity:0.01" />
<ellipse cx="595.000000" cy="203.380901" rx="16.666667" ry="5.051478" fill="rgb(255, 255, 255)" style="fill-opacity:1.00" />
<rect height="7.577217" width="25.000000" x="595.000000" y="199.592292" fill="rgb(255, 255, 255)" style="fill-opacity:1.00" />
<rect height="1.894304" width="25.000000" x="595.000000" y="205.275205" fill="rgb(255, 165, 0)" style="fill-opacity:0.01" />
<rect height="5.682912" width="6.250000" x="613.750000" y="205.275205" fill="rgb(255, 165, 0)" style="fill-opacity:0.01" />
<!-- End 'G' -->
<!-- Begin 'A' -->
<polygon points=" 570.000000, 220.000000, 591.000000, 210.958117, 599.000000, 210.958117, 620.000000, 220.000000, 612.500000, 220.000000, 606.250000, 217.739529, 583.750000, 217.739529, 577.500000, 220.000000" fill="rgb(178, 34, 34)" style="fill-opacity:0.01" />
<polygon points=" 595.000000, 212.766494, 587.000000, 215.383247, 602.000000, 215.383247" fill="rgb(255, 255, 255)" style="fill-opacity:1.00" />
<!-- End 'A' -->
<!-- Begin 'C' -->
<ellipse cx="595.000000" cy="255.116867" rx="25.000000" ry="25.116867" fill="rgb(0, 0, 128)" style="fill-opacity:0.01" />
<ellipse cx="595.000000" cy="255.116867" rx="16.666667" ry="16.744578" fill="rgb(255, 255, 255)" style="fill-opacity:1.00" />
<rect height="25.116867" width="25.000000" x="595.000000" y="242.558433" fill="rgb(255, 255, 255)" style="fill-opacity:1.00" />
<!-- End 'C' -->
<!-- Begin 'A' -->
<polygon points=" 570.000000, 329.033485, 591.000000, 280.233734, 599.000000, 280.233734, 620.000000, 329.033485, 612.500000, 329.033485, 606.250000, 316.833547, 583.750000, 316.833547, 577.500000, 329.033485" fill="rgb(178, 34, 34)" style="fill-opacity:0.01" />
<polygon points=" 595.000000, 289.993684, 587.000000, 308.513584, 602.000000, 308.513584" fill="rgb(255, 255, 255)" style="fill-opacity:1.00" />
<!-- End 'A' -->
<!-- Begin 'G' -->
<ellipse cx="595.000000" cy="329.299071" rx="25.000000" ry="0.265587" fill="rgb(255, 165, 0)" style="fill-opacity:0.01" />
<ellipse cx="595.000000" cy="329.299071" rx="16.666667" ry="0.177058" fill="rgb(255, 255, 255)" style="fill-opacity:1.00" />
<rect height="0.265587" width="25.000000" x="595.000000" y="329.166278" fill="rgb(255, 255, 255)" style="fill-opacity:1.00" />
<rect height="0.066397" width="25.000000" x="595.000000" y="329.365468" fill="rgb(255, 165, 0)" style="fill-opacity:0.01" />
<rect height="0.199190" width="6.250000" x="613.750000" y="329.365468" fill="rgb(255, 165, 0)" style="fill-opacity:0.01" />
<!-- End 'G' -->
<!-- Begin 'T' -->
<rect height="0.069655" width="50.000000" x="570.000000" y="329.564658" fill="rgb(0, 100, 0)" style="fill-opacity:0.01" />
<rect height="0.435342" width="10.000000" x="590.000000" y="329.564658" fill="rgb(0, 100, 0)" style="fill-opacity:0.01" />
<!-- End 'T' -->
<!-- Begin 'C' -->
<ellipse cx="595.000000" cy="365.800703" rx="25.000000" ry="25.800703" fill="rgb(0, 0, 128)" style="fill-opacity:0.02" />
<ellipse cx="595.000000" cy="365.800703" rx="16.666667" ry="17.200469" fill="rgb(255, 255, 255)" style="fill-opacity:1.00" />
<rect height="25.800703" width="25.000000" x="595.000000" y="352.900352" fill="rgb(255, 255, 255)" style="fill-opacity:1.00" />
<!-- End 'C' -->
<!-- Begin 'A' -->
<polygon points=" 570.000000, 426.290002, 591.000000, 391.601406, 599.000000, 391.601406, 620.000000, 426.290002, 612.500000, 426.290002, 606.250000, 417.617853, 583.750000, 417.617853, 577.500000, 426.290002" fill="rgb(178, 34, 34)" style="fill-opacity:0.02" />
<polygon points=" 595.000000, 398.539126, 587.000000, 411.414564, 602.000000, 411.414564" fill="rgb(255, 255, 255)" style="fill-opacity:1.00" />
<!-- End 'A' -->
<!-- Begin 'T' -->
<rect height="1.939850" width="50.000000" x="570.000000" y="426.290002" fill="rgb(0, 100, 0)" style="fill-opacity:0.02" />
<rect height="12.124062" width="10.000000" x="590.000000" y="426.290002" fill="rgb(0, 100, 0)" style="fill-opacity:0.02" />
<!-- End 'T' -->
<!-- Begin 'G' -->
<ellipse cx="595.000000" cy="439.207032" rx="25.000000" ry="0.792968" fill="rgb(255, 165, 0)" style="fill-opacity:0.02" />
<ellipse cx="595.000000" cy="439.207032" rx="16.666667" ry="0.528645" fill="rgb(255, 255, 255)" style="fill-opacity:1.00" />
<rect height="0.792968" width="25.000000" x="595.000000" y="438.810548" fill="rgb(255, 255, 255)" style="fill-opacity:1.00" />
<rect height="0.198242" width="25.000000" x="595.000000" y="439.405274" fill="rgb(255, 165, 0)" style="fill-opacity:0.02" />
<rect height="0.594726" width="6.250000" x="613.750000" y="439.405274" fill="rgb(255, 165, 0)" style="fill-opacity:0.02" />
<!-- End 'G' -->
<!-- Begin 'G' -->
<ellipse cx="655.000000" cy="26.782526" rx="25.000000" ry="16.782526" fill="rgb(255, 165, 0)" style="fill-opacity:0.15" />
<ellipse cx="655.000000" cy="26.782526" rx="16.666667" ry="11.188351" fill="rgb(255, 255, 255)" style="fill-opacity:1.00" />
<rect height="16.782526" width="25.000000" x="655.000000" y="18.391263" fill="rgb(255, 255, 255)" style="fill-opacity:1.00" />
<rect height="4.195631" width="25.000000" x="655.000000" y="30.978157" fill="rgb(255, 165, 0)" style="fill-opacity:0.15" />
<rect height="12.586894" width="6.250000" x="673.750000" y="30.978157" fill="rgb(255, 165, 0)" style="fill-opacity:0.15" />
<!-- End 'G' -->
<!-- Begin 'C' -->
<ellipse cx="655.000000" cy="58.345311" rx="25.000000" ry="14.780260" fill="rgb(0, 0, 128)" style="fill-opacity:0.15" />
<ellipse cx="655.000000" cy="58.345311" rx="16.666667" ry="9.853506" fill="rgb(255, 255, 255)" style="fill-opacity:1.00" />
<rect height="14.780260" width="25.000000" x="655.000000" y="50.955182" fill="rgb(255, 255, 255)" style="fill-opacity:1.00" />
<!-- End 'C' -->
<!-- Begin 'A' -->
<polygon points=" 630.000000, 98.243618, 651.000000, 73.125571, 659.000000, 73.125571, 680.000000, 98.243618, 672.500000, 98.243618, 666.250000, 91.964107, 643.750000, 91.964107, 637.500000, 98.243618" fill="rgb(178, 34, 34)" style="fill-opacity:0.15" />
<polygon points=" 655.000000, 78.149181, 647.000000, 87.196399, 662.000000, 87.196399" fill="rgb(255, 255, 255)" style="fill-opacity:1.00" />
<!-- End 'A' -->
<!-- Begin 'T' -->
<rect height="1.881021" width="50.000000" x="630.000000" y="98.243618" fill="rgb(0, 100, 0)" style="fill-opacity:0.15" />
<rect height="11.756382" width="10.000000" x="650.000000" y="98.243618" fill="rgb(0, 100, 0)" style="fill-opacity:0.15" />
<!-- End 'T' -->
<!-- Begin 'T' -->
<rect height="8.505991" width="50.000000" x="630.000000" y="120.000000" fill="rgb(0, 100, 0)" style="fill-opacity:0.79" />
<rect height="53.162442" width="10.000000" x="650.000000" y="120.000000" fill="rgb(0, 100, 0)" style="fill-opacity:0.79" />
<!-- End 'T' -->
<!-- Begin 'G' -->
<ellipse cx="655.000000" cy="184.987534" rx="25.000000" ry="11.825092" fill="rgb(255, 165, 0)" style="fill-opacity:0.79" />
<ellipse cx="655.000000" cy="184.987534" rx="16.666667" ry="7.883395" fill="rgb(255, 255, 255)" style="fill-opacity:1.00" />
<rect height="11.825092" width="25.000000" x="655.000000" y="179.074988" fill="rgb(255, 255, 255)" style="fill-opacity:1.00" />
<rect height="2.956273" width="25.000000" x="655.000000" y="187.943807" fill="rgb(255, 165, 0)" style="fill-opacity:0.79" />
<rect height="8.868819" width="6.250000" x="673.750000" y="187.943807" fill="rgb(255, 165, 0)" style="fill-opacity:0.79" />
<!-- End 'G' -->
<!-- Begin 'C' -->
<ellipse cx="655.000000" cy="204.182310" rx="25.000000" ry="7.369684" fill="rgb(0, 0, 128)" style="fill-opacity:0.79" />
<ellipse cx="655.000000" cy="204.182310" rx="16.666667" ry="4.913123" fill="rgb(255, 255, 255)" style="fill-opacity:1.00" />
<rect height="7.369684" width="25.000000" x="655.000000" y="200.497468" fill="rgb(255, 255, 255)" style="fill-opacity:1.00" />
<!-- End 'C' -->
<!-- Begin 'A' -->
<polygon points=" 630.000000, 220.000000, 651.000000, 211.551994, 659.000000, 211.551994, 680.000000, 220.000000, 672.500000, 220.000000, 666.250000, 217.887998, 643.750000, 217.887998, 637.500000, 220.000000" fill="rgb(178, 34, 34)" style="fill-opacity:0.79" />
<polygon points=" 655.000000, 213.241595, 647.000000, 215.620798, 662.000000, 215.620798" fill="rgb(255, 255, 255)" style="fill-opacity:1.00" />
<!-- End 'A' -->
<!-- Begin 'T' -->
<rect height="7.567499" width="50.000000" x="630.000000" y="230.000000" fill="rgb(0, 100, 0)" style="fill-opacity:0.01" />
<rect height="47.296867" width="10.000000" x="650.000000" y="230.000000" fill="rgb(0, 100, 0)" style="fill-opacity:0.01" />
<!-- End 'T' -->
<!-- Begin 'A' -->
<polygon points=" 630.000000, 304.502757, 651.000000, 277.296867, 659.000000, 277.296867, 680.000000, 304.502757, 672.500000, 304.502757, 666.250000, 297.701285, 643.750000, 297.701285, 637.500000, 304.502757" fill="rgb(178, 34, 34)" style="fill-opacity:0.01" />
<polygon points=" 655.000000, 282.738045, 647.000000, 292.620401, 662.000000, 292.620401" fill="rgb(255, 255, 255)" style="fill-opacity:1.00" />
<!-- End 'A' -->
<!-- Begin 'C' -->
<ellipse cx="655.000000" cy="316.296762" rx="25.000000" ry="11.794005" fill="rgb(0, 0, 128)" style="fill-opacity:0.01" />
<ellipse cx="655.000000" cy="316.296762" rx="16.666667" ry="7.862670" fill="rgb(255, 255, 255)" style="fill-opacity:1.00" />
<rect height="11.794005" width="25.000000" x="655.000000" y="310.399760" fill="rgb(255, 255, 255)" style="fill-opacity:1.00" />
<!-- End 'C' -->
<!-- Begin 'G' -->
<ellipse cx="655.000000" cy="329.045384" rx="25.000000" ry="0.954616" fill="rgb(255, 165, 0)" style="fill-opacity:0.01" />
<ellipse cx="655.000000" cy="329.045384" rx="16.666667" ry="0.636411" fill="rgb(255, 255, 255)" style="fill-opacity:1.00" />
<rect height="0.954616" width="25.000000" x="655.000000" y="328.568075" fill="rgb(255, 255, 255)" style="fill-opacity:1.00" />
<rect height="0.238654" width="25.000000" x="655.000000" y="329.284038" fill="rgb(255, 165, 0)" style="fill-opacity:0.01" />
<rect height="0.715962" width="6.250000" x="673.750000" y="329.284038" fill="rgb(255, 165, 0)" style="fill-opacity:0.01" />
<!-- End 'G' -->
<!-- Begin 'G' -->
<ellipse cx="655.000000" cy="363.469077" rx="25.000000" ry="23.469077" fill="rgb(255, 165, 0)" style="fill-opacity:0.05" />
<ellipse cx="655.000000" cy="363.469077" rx="16.666667" ry="15.646051" fill="rgb(255, 255, 255)" style="fill-opacity:1.00" />
<rect height="23.469077" width="25.000000" x="655.000000" y="351.734538" fill="rgb(255, 255, 255)" style="fill-opacity:1.00" />
<rect height="5.867269" width="25.000000" x="655.000000" y="369.336346" fill="rgb(255, 165, 0)" style="fill-opacity:0.05" />
<rect height="17.601808" width="6.250000" x="673.750000" y="369.336346" fill="rgb(255, 165, 0)" style="fill-opacity:0.05" />
<!-- End 'G' -->
<!-- Begin 'T' -->
<rect height="3.713351" width="50.000000" x="630.000000" y="386.938154" fill="rgb(0, 100, 0)" style="fill-opacity:0.05" />
<rect height="23.208443" width="10.000000" x="650.000000" y="386.938154" fill="rgb(0, 100, 0)" style="fill-opacity:0.05" />
<!-- End 'T' -->
<!-- Begin 'A' -->
<polygon points=" 630.000000, 431.227533, 651.000000, 410.146597, 659.000000, 410.146597, 680.000000, 431.227533, 672.500000, 431.227533, 666.250000, 425.957299, 643.750000, 425.957299, 637.500000, 431.227533" fill="rgb(178, 34, 34)" style="fill-opacity:0.05" />
<polygon points=" 655.000000, 414.362784, 647.000000, 421.795159, 662.000000, 421.795159" fill="rgb(255, 255, 255)" style="fill-opacity:1.00" />
<!-- End 'A' -->
<!-- Begin 'C' -->
<ellipse cx="655.000000" cy="435.613767" rx="25.000000" ry="4.386233" fill="rgb(0, 0, 128)" style="fill-opacity:0.05" />
<ellipse cx="655.000000" cy="435.613767" rx="16.666667" ry="2.924156" fill="rgb(255, 255, 255)" style="fill-opacity:1.00" />
<rect height="4.386233" width="25.000000" x="655.000000" y="433.420650" fill="rgb(255, 255, 255)" style="fill-opacity:1.00" />
<!-- End 'C' -->
<text x="370.000000" y="495">
IC = 8.18
</text>

</svg>
