<?xml version="1.0" encoding="UTF-8" standalone="yes"?>
                 <!DOCTYPE svg PUBLIC "-//W3C//DTD SVG 1.0//EN" "http://www.w3.org/TR/2001/REC-SVG-20010904/DTD/svg10.dtd">
                 <svg height="170" width="840" xmlns="http://www.w3.org/2000/svg" xmlns:xlink="http://www.w3.org/1999/xlink">
                 <line x1="85" y1="120" x2="807" y2="120" style="stroke:rgb(99,99,99);stroke-width:2" />
<rect height="7.000000" width="2.000000" x="85.000000" y="120.000000" fill="rgb(0, 0, 0)" style="fill-opacity:1.00" />
<text x="107.000000" y="140">
1
</text>
<rect height="7.000000" width="2.000000" x="145.000000" y="120.000000" fill="rgb(0, 0, 0)" style="fill-opacity:1.00" />
<text x="167.000000" y="140">
2
</text>
<rect height="7.000000" width="2.000000" x="205.000000" y="120.000000" fill="rgb(0, 0, 0)" style="fill-opacity:1.00" />
<text x="227.000000" y="140">
3
</text>
<rect height="7.000000" width="2.000000" x="265.000000" y="120.000000" fill="rgb(0, 0, 0)" style="fill-opacity:1.00" />
<text x="287.000000" y="140">
4
</text>
<rect height="7.000000" width="2.000000" x="325.000000" y="120.000000" fill="rgb(0, 0, 0)" style="fill-opacity:1.00" />
<text x="347.000000" y="140">
5
</text>
<rect height="7.000000" width="2.000000" x="385.000000" y="120.000000" fill="rgb(0, 0, 0)" style="fill-opacity:1.00" />
<text x="407.000000" y="140">
6
</text>
<rect height="7.000000" width="2.000000" x="445.000000" y="120.000000" fill="rgb(0, 0, 0)" style="fill-opacity:1.00" />
<text x="467.000000" y="140">
7
</text>
<rect height="7.000000" width="2.000000" x="505.000000" y="120.000000" fill="rgb(0, 0, 0)" style="fill-opacity:1.00" />
<text x="527.000000" y="140">
8
</text>
<rect height="7.000000" width="2.000000" x="565.000000" y="120.000000" fill="rgb(0, 0, 0)" style="fill-opacity:1.00" />
<text x="587.000000" y="140">
9
</text>
<rect height="7.000000" width="2.000000" x="625.000000" y="120.000000" fill="rgb(0, 0, 0)" style="fill-opacity:1.00" />
<text x="647.000000" y="140">
10
</text>
<rect height="7.000000" width="2.000000" x="685.000000" y="120.000000" fill="rgb(0, 0, 0)" style="fill-opacity:1.00" />
<text x="707.000000" y="140">
11
</text>
<rect height="7.000000" width="2.000000" x="745.000000" y="120.000000" fill="rgb(0, 0, 0)" style="fill-opacity:1.00" />
<text x="767.000000" y="140">
12
</text>
<rect height="7.000000" width="2.000000" x="805.000000" y="120.000000" fill="rgb(0, 0, 0)" style="fill-opacity:1.00" />
<line x1="80" y1="112" x2="80" y2="10" style="stroke:rgb(99,99,99);stroke-width:2" />
<rect height="2.000000" width="7.000000" x="73.000000" y="110.000000" fill="rgb(0, 0, 0)" style="fill-opacity:1.00" />
<text x="63" y="115">
0
</text>
<rect height="2.000000" width="7.000000" x="73.000000" y="60.000000" fill="rgb(0, 0, 0)" style="fill-opacity:1.00" />
<text x="63" y="65">
1
</text>
<rect height="2.000000" width="7.000000" x="73.000000" y="10.000000" fill="rgb(0, 0, 0)" style="fill-opacity:1.00" />
<text x="63" y="15">
2
</text>
<text x="50" y="65"
transform="rotate(-90, 50, 70)">
bits
</text>
<!-- Begin 'A' -->
<polygon points=" 90.000000, 107.192096, 111.000000, 105.464592, 119.000000, 105.464592, 140.000000, 107.192096, 132.500000, 107.192096, 126.250000, 106.760220, 103.750000, 106.760220, 97.500000, 107.192096" fill="rgb(178, 34, 34)" style="fill-opacity:1.00" />
<!-- End 'A' -->
<!-- Begin 'T' -->
<rect height="0.196573" width="50.000000" x="90.000000" y="107.192096" fill="rgb(0, 100, 0)" style="fill-opacity:1.00" />
<rect height="1.228581" width="10.000000" x="110.000000" y="107.192096" fill="rgb(0, 100, 0)" style="fill-opacity:1.00" />
<!-- End 'T' -->
<!-- Begin 'G' -->
<ellipse cx="115.000000" cy="108.892924" rx="25.000000" ry="0.472247" fill="rgb(255, 165, 0)" style="fill-opacity:1.00" />
<ellipse cx="115.000000" cy="108.892924" rx="16.666667" ry="0.314831" fill="rgb(255, 255, 255)" style="fill-opacity:1.00" />
<rect height="0.472247" width="25.000000" x="115.000000" y="108.656800" fill="rgb(255, 255, 255)" style="fill-opacity:1.00" />
<rect height="0.118062" width="25.000000" x="115.000000" y="109.010985" fill="rgb(255, 165, 0)" style="fill-opacity:1.00" />
<rect height="0.354185" width="6.250000" x="133.750000" y="109.010985" fill="rgb(255, 165, 0)" style="fill-opacity:1.00" />
<!-- End 'G' -->
<!-- Begin 'C' -->
<ellipse cx="115.000000" cy="109.682585" rx="25.000000" ry="0.317415" fill="rgb(0, 0, 128)" style="fill-opacity:1.00" />
<ellipse cx="115.000000" cy="109.682585" rx="16.666667" ry="0.211610" fill="rgb(255, 255, 255)" style="fill-opacity:1.00" />
<rect height="0.317415" width="25.000000" x="115.000000" y="109.523878" fill="rgb(255, 255, 255)" style="fill-opacity:1.00" />
<!-- End 'C' -->
<!-- Begin 'A' -->
<polygon points=" 150.000000, 105.624272, 171.000000, 102.285425, 179.000000, 102.285425, 200.000000, 105.624272, 192.500000, 105.624272, 186.250000, 104.789560, 163.750000, 104.789560, 157.500000, 105.624272" fill="rgb(178, 34, 34)" style="fill-opacity:1.00" />
<!-- End 'A' -->
<!-- Begin 'T' -->
<rect height="0.339773" width="50.000000" x="150.000000" y="105.624272" fill="rgb(0, 100, 0)" style="fill-opacity:1.00" />
<rect height="2.123582" width="10.000000" x="170.000000" y="105.624272" fill="rgb(0, 100, 0)" style="fill-opacity:1.00" />
<!-- End 'T' -->
<!-- Begin 'C' -->
<ellipse cx="175.000000" cy="108.313448" rx="25.000000" ry="0.565594" fill="rgb(0, 0, 128)" style="fill-opacity:1.00" />
<ellipse cx="175.000000" cy="108.313448" rx="16.666667" ry="0.377063" fill="rgb(255, 255, 255)" style="fill-opacity:1.00" />
<rect height="0.565594" width="25.000000" x="175.000000" y="108.030651" fill="rgb(255, 255, 255)" style="fill-opacity:1.00" />
<!-- End 'C' -->
<!-- Begin 'G' -->
<ellipse cx="175.000000" cy="109.439521" rx="25.000000" ry="0.560479" fill="rgb(255, 165, 0)" style="fill-opacity:1.00" />
<ellipse cx="175.000000" cy="109.439521" rx="16.666667" ry="0.373652" fill="rgb(255, 255, 255)" style="fill-opacity:1.00" />
<rect height="0.560479" width="25.000000" x="175.000000" y="109.159282" fill="rgb(255, 255, 255)" style="fill-opacity:1.00" />
<rect height="0.140120" width="25.000000" x="175.000000" y="109.579641" fill="rgb(255, 165, 0)" style="fill-opacity:1.00" />
<rect height="0.420359" width="6.250000" x="193.750000" y="109.579641" fill="rgb(255, 165, 0)" style="fill-opacity:1.00" />
<!-- End 'G' -->
<!-- Begin 'A' -->
<polygon points=" 210.000000, 105.434049, 231.000000, 102.694901, 239.000000, 102.694901, 260.000000, 105.434049, 252.500000, 105.434049, 246.250000, 104.749262, 223.750000, 104.749262, 217.500000, 105.434049" fill="rgb(178, 34, 34)" style="fill-opacity:1.00" />
<!-- End 'A' -->
<!-- Begin 'T' -->
<rect height="0.403247" width="50.000000" x="210.000000" y="105.434049" fill="rgb(0, 100, 0)" style="fill-opacity:1.00" />
<rect height="2.520297" width="10.000000" x="230.000000" y="105.434049" fill="rgb(0, 100, 0)" style="fill-opacity:1.00" />
<!-- End 'T' -->
<!-- Begin 'G' -->
<ellipse cx="235.000000" cy="108.495760" rx="25.000000" ry="0.541415" fill="rgb(255, 165, 0)" style="fill-opacity:1.00" />
<ellipse cx="235.000000" cy="108.495760" rx="16.666667" ry="0.360943" fill="rgb(255, 255, 255)" style="fill-opacity:1.00" />
<rect height="0.541415" width="25.000000" x="235.000000" y="108.225053" fill="rgb(255, 255, 255)" style="fill-opacity:1.00" />
<rect height="0.135354" width="25.000000" x="235.000000" y="108.631114" fill="rgb(255, 165, 0)" style="fill-opacity:1.00" />
<rect height="0.406061" width="6.250000" x="253.750000" y="108.631114" fill="rgb(255, 165, 0)" style="fill-opacity:1.00" />
<!-- End 'G' -->
<!-- Begin 'C' -->
<ellipse cx="235.000000" cy="109.518588" rx="25.000000" ry="0.481412" fill="rgb(0, 0, 128)" style="fill-opacity:1.00" />
<ellipse cx="235.000000" cy="109.518588" rx="16.666667" ry="0.320942" fill="rgb(255, 255, 255)" style="fill-opacity:1.00" />
<rect height="0.481412" width="25.000000" x="235.000000" y="109.277881" fill="rgb(255, 255, 255)" style="fill-opacity:1.00" />
<!-- End 'C' -->
<!-- Begin 'C' -->
<ellipse cx="295.000000" cy="108.918336" rx="25.000000" ry="0.211044" fill="rgb(0, 0, 128)" style="fill-opacity:1.00" />
<ellipse cx="295.000000" cy="108.918336" rx="16.666667" ry="0.140696" fill="rgb(255, 255, 255)" style="fill-opacity:1.00" />
<rect height="0.211044" width="25.000000" x="295.000000" y="108.812814" fill="rgb(255, 255, 255)" style="fill-opacity:1.00" />
<!-- End 'C' -->
<!-- Begin 'T' -->
<rect height="0.051881" width="50.000000" x="270.000000" y="109.129381" fill="rgb(0, 100, 0)" style="fill-opacity:1.00" />
<rect height="0.324254" width="10.000000" x="290.000000" y="109.129381" fill="rgb(0, 100, 0)" style="fill-opacity:1.00" />
<!-- End 'T' -->
<!-- Begin 'A' -->
<polygon points=" 270.000000, 109.744956, 291.000000, 109.453635, 299.000000, 109.453635, 320.000000, 109.744956, 312.500000, 109.744956, 306.250000, 109.672125, 283.750000, 109.672125, 277.500000, 109.744956" fill="rgb(178, 34, 34)" style="fill-opacity:1.00" />
<!-- End 'A' -->
<!-- Begin 'G' -->
<ellipse cx="295.000000" cy="109.872478" rx="25.000000" ry="0.127522" fill="rgb(255, 165, 0)" style="fill-opacity:1.00" />
<ellipse cx="295.000000" cy="109.872478" rx="16.666667" ry="0.085015" fill="rgb(255, 255, 255)" style="fill-opacity:1.00" />
<rect height="0.127522" width="25.000000" x="295.000000" y="109.808717" fill="rgb(255, 255, 255)" style="fill-opacity:1.00" />
<rect height="0.031881" width="25.000000" x="295.000000" y="109.904358" fill="rgb(255, 165, 0)" style="fill-opacity:1.00" />
<rect height="0.095642" width="6.250000" x="313.750000" y="109.904358" fill="rgb(255, 165, 0)" style="fill-opacity:1.00" />
<!-- End 'G' -->
<!-- Begin 'T' -->
<rect height="3.787059" width="50.000000" x="330.000000" y="75.722067" fill="rgb(0, 100, 0)" style="fill-opacity:1.00" />
<rect height="23.669117" width="10.000000" x="350.000000" y="75.722067" fill="rgb(0, 100, 0)" style="fill-opacity:1.00" />
<!-- End 'T' -->
<!-- Begin 'A' -->
<polygon points=" 330.000000, 105.706023, 351.000000, 99.391184, 359.000000, 99.391184, 380.000000, 105.706023, 372.500000, 105.706023, 366.250000, 104.127313, 343.750000, 104.127313, 337.500000, 105.706023" fill="rgb(178, 34, 34)" style="fill-opacity:1.00" />
<!-- End 'A' -->
<!-- Begin 'C' -->
<ellipse cx="355.000000" cy="107.024812" rx="25.000000" ry="1.318788" fill="rgb(0, 0, 128)" style="fill-opacity:1.00" />
<ellipse cx="355.000000" cy="107.024812" rx="16.666667" ry="0.879192" fill="rgb(255, 255, 255)" style="fill-opacity:1.00" />
<rect height="1.318788" width="25.000000" x="355.000000" y="106.365417" fill="rgb(255, 255, 255)" style="fill-opacity:1.00" />
<!-- End 'C' -->
<!-- Begin 'G' -->
<ellipse cx="355.000000" cy="109.171800" rx="25.000000" ry="0.828200" fill="rgb(255, 165, 0)" style="fill-opacity:1.00" />
<ellipse cx="355.000000" cy="109.171800" rx="16.666667" ry="0.552133" fill="rgb(255, 255, 255)" style="fill-opacity:1.00" />
<rect height="0.828200" width="25.000000" x="355.000000" y="108.757700" fill="rgb(255, 255, 255)" style="fill-opacity:1.00" />
<rect height="0.207050" width="25.000000" x="355.000000" y="109.378850" fill="rgb(255, 165, 0)" style="fill-opacity:1.00" />
<rect height="0.621150" width="6.250000" x="373.750000" y="109.378850" fill="rgb(255, 165, 0)" style="fill-opacity:1.00" />
<!-- End 'G' -->
<!-- Begin 'G' -->
<ellipse cx="415.000000" cy="73.821684" rx="25.000000" ry="28.406533" fill="rgb(255, 165, 0)" style="fill-opacity:1.00" />
<ellipse cx="415.000000" cy="73.821684" rx="16.666667" ry="18.937689" fill="rgb(255, 255, 255)" style="fill-opacity:1.00" />
<rect height="28.406533" width="25.000000" x="415.000000" y="59.618417" fill="rgb(255, 255, 255)" style="fill-opacity:1.00" />
<rect height="7.101633" width="25.000000" x="415.000000" y="80.923317" fill="rgb(255, 165, 0)" style="fill-opacity:1.00" />
<rect height="21.304900" width="6.250000" x="433.750000" y="80.923317" fill="rgb(255, 165, 0)" style="fill-opacity:1.00" />
<!-- End 'G' -->
<!-- Begin 'C' -->
<ellipse cx="415.000000" cy="104.199367" rx="25.000000" ry="1.971151" fill="rgb(0, 0, 128)" style="fill-opacity:1.00" />
<ellipse cx="415.000000" cy="104.199367" rx="16.666667" ry="1.314100" fill="rgb(255, 255, 255)" style="fill-opacity:1.00" />
<rect height="1.971151" width="25.000000" x="415.000000" y="103.213792" fill="rgb(255, 255, 255)" style="fill-opacity:1.00" />
<!-- End 'C' -->
<!-- Begin 'A' -->
<polygon points=" 390.000000, 108.457684, 411.000000, 106.170518, 419.000000, 106.170518, 440.000000, 108.457684, 432.500000, 108.457684, 426.250000, 107.885893, 403.750000, 107.885893, 397.500000, 108.457684" fill="rgb(178, 34, 34)" style="fill-opacity:1.00" />
<!-- End 'A' -->
<!-- Begin 'T' -->
<rect height="0.246770" width="50.000000" x="390.000000" y="108.457684" fill="rgb(0, 100, 0)" style="fill-opacity:1.00" />
<rect height="1.542316" width="10.000000" x="410.000000" y="108.457684" fill="rgb(0, 100, 0)" style="fill-opacity:1.00" />
<!-- End 'T' -->
<!-- Begin 'C' -->
<ellipse cx="475.000000" cy="74.445622" rx="25.000000" ry="26.327645" fill="rgb(0, 0, 128)" style="fill-opacity:1.00" />
<ellipse cx="475.000000" cy="74.445622" rx="16.666667" ry="17.551763" fill="rgb(255, 255, 255)" style="fill-opacity:1.00" />
<rect height="26.327645" width="25.000000" x="475.000000" y="61.281799" fill="rgb(255, 255, 255)" style="fill-opacity:1.00" />
<!-- End 'C' -->
<!-- Begin 'A' -->
<polygon points=" 450.000000, 107.744322, 471.000000, 100.773267, 479.000000, 100.773267, 500.000000, 107.744322, 492.500000, 107.744322, 486.250000, 106.001558, 463.750000, 106.001558, 457.500000, 107.744322" fill="rgb(178, 34, 34)" style="fill-opacity:1.00" />
<!-- End 'A' -->
<!-- Begin 'T' -->
<rect height="0.220707" width="50.000000" x="450.000000" y="107.744322" fill="rgb(0, 100, 0)" style="fill-opacity:1.00" />
<rect height="1.379421" width="10.000000" x="470.000000" y="107.744322" fill="rgb(0, 100, 0)" style="fill-opacity:1.00" />
<!-- End 'T' -->
<!-- Begin 'G' -->
<ellipse cx="475.000000" cy="109.561871" rx="25.000000" ry="0.438129" fill="rgb(255, 165, 0)" style="fill-opacity:1.00" />
<ellipse cx="475.000000" cy="109.561871" rx="16.666667" ry="0.292086" fill="rgb(255, 255, 255)" style="fill-opacity:1.00" />
<rect height="0.438129" width="25.000000" x="475.000000" y="109.342807" fill="rgb(255, 255, 255)" style="fill-opacity:1.00" />
<rect height="0.109532" width="25.000000" x="475.000000" y="109.671403" fill="rgb(255, 165, 0)" style="fill-opacity:1.00" />
<rect height="0.328597" width="6.250000" x="493.750000" y="109.671403" fill="rgb(255, 165, 0)" style="fill-opacity:1.00" />
<!-- End 'G' -->
<!-- Begin 'T' -->
<rect height="10.047258" width="50.000000" x="510.000000" y="39.460979" fill="rgb(0, 100, 0)" style="fill-opacity:1.00" />
<rect height="62.795362" width="10.000000" x="530.000000" y="39.460979" fill="rgb(0, 100, 0)" style="fill-opacity:1.00" />
<!-- End 'T' -->
<!-- Begin 'A' -->
<polygon points=" 510.000000, 108.420278, 531.000000, 102.256341, 539.000000, 102.256341, 560.000000, 108.420278, 552.500000, 108.420278, 546.250000, 106.879294, 523.750000, 106.879294, 517.500000, 108.420278" fill="rgb(178, 34, 34)" style="fill-opacity:1.00" />
<!-- End 'A' -->
<!-- Begin 'C' -->
<ellipse cx="535.000000" cy="109.138258" rx="25.000000" ry="0.717980" fill="rgb(0, 0, 128)" style="fill-opacity:1.00" />
<ellipse cx="535.000000" cy="109.138258" rx="16.666667" ry="0.478653" fill="rgb(255, 255, 255)" style="fill-opacity:1.00" />
<rect height="0.717980" width="25.000000" x="535.000000" y="108.779268" fill="rgb(255, 255, 255)" style="fill-opacity:1.00" />
<!-- End 'C' -->
<!-- Begin 'G' -->
<ellipse cx="535.000000" cy="109.928119" rx="25.000000" ry="0.071881" fill="rgb(255, 165, 0)" style="fill-opacity:1.00" />
<ellipse cx="535.000000" cy="109.928119" rx="16.666667" ry="0.047921" fill="rgb(255, 255, 255)" style="fill-opacity:1.00" />
<rect height="0.071881" width="25.000000" x="535.000000" y="109.892179" fill="rgb(255, 255, 255)" style="fill-opacity:1.00" />
<rect height="0.017970" width="25.000000" x="535.000000" y="109.946089" fill="rgb(255, 165, 0)" style="fill-opacity:1.00" />
<rect height="0.053911" width="6.250000" x="553.750000" y="109.946089" fill="rgb(255, 165, 0)" style="fill-opacity:1.00" />
<!-- End 'G' -->
<!-- Begin 'G' -->
<ellipse cx="595.000000" cy="75.851593" rx="25.000000" ry="25.038917" fill="rgb(255, 165, 0)" style="fill-opacity:1.00" />
<ellipse cx="595.000000" cy="75.851593" rx="16.666667" ry="16.692611" fill="rgb(255, 255, 255)" style="fill-opacity:1.00" />
<rect height="25.038917" width="25.000000" x="595.000000" y="63.332135" fill="rgb(255, 255, 255)" style="fill-opacity:1.00" />
<rect height="6.259729" width="25.000000" x="595.000000" y="82.111323" fill="rgb(255, 165, 0)" style="fill-opacity:1.00" />
<rect height="18.779188" width="6.250000" x="613.750000" y="82.111323" fill="rgb(255, 165, 0)" style="fill-opacity:1.00" />
<!-- End 'G' -->
<!-- Begin 'T' -->
<rect height="0.941960" width="50.000000" x="570.000000" y="100.890511" fill="rgb(0, 100, 0)" style="fill-opacity:1.00" />
<rect height="5.887248" width="10.000000" x="590.000000" y="100.890511" fill="rgb(0, 100, 0)" style="fill-opacity:1.00" />
<!-- End 'T' -->
<!-- Begin 'A' -->
<polygon points=" 570.000000, 108.750261, 591.000000, 106.777759, 599.000000, 106.777759, 620.000000, 108.750261, 612.500000, 108.750261, 606.250000, 108.257136, 583.750000, 108.257136, 577.500000, 108.750261" fill="rgb(178, 34, 34)" style="fill-opacity:1.00" />
<!-- End 'A' -->
<!-- Begin 'C' -->
<ellipse cx="595.000000" cy="109.375131" rx="25.000000" ry="0.624869" fill="rgb(0, 0, 128)" style="fill-opacity:1.00" />
<ellipse cx="595.000000" cy="109.375131" rx="16.666667" ry="0.416580" fill="rgb(255, 255, 255)" style="fill-opacity:1.00" />
<rect height="0.624869" width="25.000000" x="595.000000" y="109.062696" fill="rgb(255, 255, 255)" style="fill-opacity:1.00" />
<!-- End 'C' -->
<!-- Begin 'A' -->
<polygon points=" 630.000000, 99.939281, 651.000000, 64.391886, 659.000000, 64.391886, 680.000000, 99.939281, 672.500000, 99.939281, 666.250000, 91.052432, 643.750000, 91.052432, 637.500000, 99.939281" fill="rgb(178, 34, 34)" style="fill-opacity:1.00" />
<polygon points=" 655.000000, 71.501365, 647.000000, 84.720323, 662.000000, 84.720323" fill="rgb(255, 255, 255)" style="fill-opacity:1.00" />
<!-- End 'A' -->
<!-- Begin 'T' -->
<rect height="0.834506" width="50.000000" x="630.000000" y="99.939281" fill="rgb(0, 100, 0)" style="fill-opacity:1.00" />
<rect height="5.215660" width="10.000000" x="650.000000" y="99.939281" fill="rgb(0, 100, 0)" style="fill-opacity:1.00" />
<!-- End 'T' -->
<!-- Begin 'G' -->
<ellipse cx="655.000000" cy="106.382345" rx="25.000000" ry="1.227403" fill="rgb(255, 165, 0)" style="fill-opacity:1.00" />
<ellipse cx="655.000000" cy="106.382345" rx="16.666667" ry="0.818269" fill="rgb(255, 255, 255)" style="fill-opacity:1.00" />
<rect height="1.227403" width="25.000000" x="655.000000" y="105.768643" fill="rgb(255, 255, 255)" style="fill-opacity:1.00" />
<rect height="0.306851" width="25.000000" x="655.000000" y="106.689195" fill="rgb(255, 165, 0)" style="fill-opacity:1.00" />
<rect height="0.920553" width="6.250000" x="673.750000" y="106.689195" fill="rgb(255, 165, 0)" style="fill-opacity:1.00" />
<!-- End 'G' -->
<!-- Begin 'C' -->
<ellipse cx="655.000000" cy="108.804874" rx="25.000000" ry="1.195126" fill="rgb(0, 0, 128)" style="fill-opacity:1.00" />
<ellipse cx="655.000000" cy="108.804874" rx="16.666667" ry="0.796751" fill="rgb(255, 255, 255)" style="fill-opacity:1.00" />
<rect height="1.195126" width="25.000000" x="655.000000" y="108.207311" fill="rgb(255, 255, 255)" style="fill-opacity:1.00" />
<!-- End 'C' -->
<!-- Begin 'C' -->
<ellipse cx="715.000000" cy="101.726607" rx="25.000000" ry="2.255773" fill="rgb(0, 0, 128)" style="fill-opacity:1.00" />
<ellipse cx="715.000000" cy="101.726607" rx="16.666667" ry="1.503848" fill="rgb(255, 255, 255)" style="fill-opacity:1.00" />
<rect height="2.255773" width="25.000000" x="715.000000" y="100.598721" fill="rgb(255, 255, 255)" style="fill-opacity:1.00" />
<!-- End 'C' -->
<!-- Begin 'G' -->
<ellipse cx="715.000000" cy="105.672481" rx="25.000000" ry="1.690101" fill="rgb(255, 165, 0)" style="fill-opacity:1.00" />
<ellipse cx="715.000000" cy="105.672481" rx="16.666667" ry="1.126734" fill="rgb(255, 255, 255)" style="fill-opacity:1.00" />
<rect height="1.690101" width="25.000000" x="715.000000" y="104.827430" fill="rgb(255, 255, 255)" style="fill-opacity:1.00" />
<rect height="0.422525" width="25.000000" x="715.000000" y="106.095006" fill="rgb(255, 165, 0)" style="fill-opacity:1.00" />
<rect height="1.267576" width="6.250000" x="733.750000" y="106.095006" fill="rgb(255, 165, 0)" style="fill-opacity:1.00" />
<!-- End 'G' -->
<!-- Begin 'T' -->
<rect height="0.263899" width="50.000000" x="690.000000" y="107.362581" fill="rgb(0, 100, 0)" style="fill-opacity:1.00" />
<rect height="1.649370" width="10.000000" x="710.000000" y="107.362581" fill="rgb(0, 100, 0)" style="fill-opacity:1.00" />
<!-- End 'T' -->
<!-- Begin 'A' -->
<polygon points=" 690.000000, 110.000000, 711.000000, 109.011951, 719.000000, 109.011951, 740.000000, 110.000000, 732.500000, 110.000000, 726.250000, 109.752988, 703.750000, 109.752988, 697.500000, 110.000000" fill="rgb(178, 34, 34)" style="fill-opacity:1.00" />
<!-- End 'A' -->
<!-- Begin 'T' -->
<rect height="0.573333" width="50.000000" x="750.000000" y="102.158271" fill="rgb(0, 100, 0)" style="fill-opacity:1.00" />
<rect height="3.583333" width="10.000000" x="770.000000" y="102.158271" fill="rgb(0, 100, 0)" style="fill-opacity:1.00" />
<!-- End 'T' -->
<!-- Begin 'A' -->
<polygon points=" 750.000000, 107.521060, 771.000000, 105.741604, 779.000000, 105.741604, 800.000000, 107.521060, 792.500000, 107.521060, 786.250000, 107.076196, 763.750000, 107.076196, 757.500000, 107.521060" fill="rgb(178, 34, 34)" style="fill-opacity:1.00" />
<!-- End 'A' -->
<!-- Begin 'C' -->
<ellipse cx="775.000000" cy="108.147847" rx="25.000000" ry="0.626786" fill="rgb(0, 0, 128)" style="fill-opacity:1.00" />
<ellipse cx="775.000000" cy="108.147847" rx="16.666667" ry="0.417858" fill="rgb(255, 255, 255)" style="fill-opacity:1.00" />
<rect height="0.626786" width="25.000000" x="775.000000" y="107.834454" fill="rgb(255, 255, 255)" style="fill-opacity:1.00" />
<!-- End 'C' -->
<!-- Begin 'G' -->
<ellipse cx="775.000000" cy="109.387317" rx="25.000000" ry="0.612683" fill="rgb(255, 165, 0)" style="fill-opacity:1.00" />
<ellipse cx="775.000000" cy="109.387317" rx="16.666667" ry="0.408456" fill="rgb(255, 255, 255)" style="fill-opacity:1.00" />
<rect height="0.612683" width="25.000000" x="775.000000" y="109.080975" fill="rgb(255, 255, 255)" style="fill-opacity:1.00" />
<rect height="0.153171" width="25.000000" x="775.000000" y="109.540487" fill="rgb(255, 165, 0)" style="fill-opacity:1.00" />
<rect height="0.459513" width="6.250000" x="793.750000" y="109.540487" fill="rgb(255, 165, 0)" style="fill-opacity:1.00" />
<!-- End 'G' -->
<text x="430.000000" y="165">
IC = 7.51
</text>

</svg>
