<?xml version="1.0" encoding="UTF-8" standalone="yes"?>
                 <!DOCTYPE svg PUBLIC "-//W3C//DTD SVG 1.0//EN" "http://www.w3.org/TR/2001/REC-SVG-20010904/DTD/svg10.dtd">
                 <svg height="170" width="600" xmlns="http://www.w3.org/2000/svg" xmlns:xlink="http://www.w3.org/1999/xlink">
                 <line x1="85" y1="120" x2="567" y2="120" style="stroke:rgb(99,99,99);stroke-width:2" />
<rect height="7.000000" width="2.000000" x="85.000000" y="120.000000" fill="rgb(0, 0, 0)" style="fill-opacity:1.00" />
<text x="107.000000" y="140">
1
</text>
<rect height="7.000000" width="2.000000" x="145.000000" y="120.000000" fill="rgb(0, 0, 0)" style="fill-opacity:1.00" />
<text x="167.000000" y="140">
2
</text>
<rect height="7.000000" width="2.000000" x="205.000000" y="120.000000" fill="rgb(0, 0, 0)" style="fill-opacity:1.00" />
<text x="227.000000" y="140">
3
</text>
<rect height="7.000000" width="2.000000" x="265.000000" y="120.000000" fill="rgb(0, 0, 0)" style="fill-opacity:1.00" />
<text x="287.000000" y="140">
4
</text>
<rect height="7.000000" width="2.000000" x="325.000000" y="120.000000" fill="rgb(0, 0, 0)" style="fill-opacity:1.00" />
<text x="347.000000" y="140">
5
</text>
<rect height="7.000000" width="2.000000" x="385.000000" y="120.000000" fill="rgb(0, 0, 0)" style="fill-opacity:1.00" />
<text x="407.000000" y="140">
6
</text>
<rect height="7.000000" width="2.000000" x="445.000000" y="120.000000" fill="rgb(0, 0, 0)" style="fill-opacity:1.00" />
<text x="467.000000" y="140">
7
</text>
<rect height="7.000000" width="2.000000" x="505.000000" y="120.000000" fill="rgb(0, 0, 0)" style="fill-opacity:1.00" />
<text x="527.000000" y="140">
8
</text>
<rect height="7.000000" width="2.000000" x="565.000000" y="120.000000" fill="rgb(0, 0, 0)" style="fill-opacity:1.00" />
<line x1="80" y1="112" x2="80" y2="10" style="stroke:rgb(99,99,99);stroke-width:2" />
<rect height="2.000000" width="7.000000" x="73.000000" y="110.000000" fill="rgb(0, 0, 0)" style="fill-opacity:1.00" />
<text x="63" y="115">
0
</text>
<rect height="2.000000" width="7.000000" x="73.000000" y="60.000000" fill="rgb(0, 0, 0)" style="fill-opacity:1.00" />
<text x="63" y="65">
1
</text>
<rect height="2.000000" width="7.000000" x="73.000000" y="10.000000" fill="rgb(0, 0, 0)" style="fill-opacity:1.00" />
<text x="63" y="15">
2
</text>
<text x="50" y="65"
transform="rotate(-90, 50, 70)">
bits
</text>
<!-- Begin 'A' -->
<polygon points=" 90.000000, 98.989699, 111.000000, 68.692012, 119.000000, 68.692012, 140.000000, 98.989699, 132.500000, 98.989699, 126.250000, 91.415278, 103.750000, 91.415278, 97.500000, 98.989699" fill="rgb(178, 34, 34)" style="fill-opacity:1.00" />
<polygon points=" 115.000000, 74.751549, 107.000000, 85.870624, 122.000000, 85.870624" fill="rgb(255, 255, 255)" style="fill-opacity:1.00" />
<!-- End 'A' -->
<!-- Begin 'T' -->
<rect height="0.883371" width="50.000000" x="90.000000" y="98.989699" fill="rgb(0, 100, 0)" style="fill-opacity:1.00" />
<rect height="5.521066" width="10.000000" x="110.000000" y="98.989699" fill="rgb(0, 100, 0)" style="fill-opacity:1.00" />
<!-- End 'T' -->
<!-- Begin 'C' -->
<ellipse cx="115.000000" cy="106.922443" rx="25.000000" ry="2.411678" fill="rgb(0, 0, 128)" style="fill-opacity:1.00" />
<ellipse cx="115.000000" cy="106.922443" rx="16.666667" ry="1.607785" fill="rgb(255, 255, 255)" style="fill-opacity:1.00" />
<rect height="2.411678" width="25.000000" x="115.000000" y="105.716604" fill="rgb(255, 255, 255)" style="fill-opacity:1.00" />
<!-- End 'C' -->
<!-- Begin 'G' -->
<ellipse cx="115.000000" cy="109.667060" rx="25.000000" ry="0.332940" fill="rgb(255, 165, 0)" style="fill-opacity:1.00" />
<ellipse cx="115.000000" cy="109.667060" rx="16.666667" ry="0.221960" fill="rgb(255, 255, 255)" style="fill-opacity:1.00" />
<rect height="0.332940" width="25.000000" x="115.000000" y="109.500590" fill="rgb(255, 255, 255)" style="fill-opacity:1.00" />
<rect height="0.083235" width="25.000000" x="115.000000" y="109.750295" fill="rgb(255, 165, 0)" style="fill-opacity:1.00" />
<rect height="0.249705" width="6.250000" x="133.750000" y="109.750295" fill="rgb(255, 165, 0)" style="fill-opacity:1.00" />
<!-- End 'G' -->
<!-- Begin 'A' -->
<polygon points=" 150.000000, 108.095051, 171.000000, 18.644045, 179.000000, 18.644045, 200.000000, 108.095051, 192.500000, 108.095051, 186.250000, 85.732300, 163.750000, 85.732300, 157.500000, 108.095051" fill="rgb(178, 34, 34)" style="fill-opacity:1.00" />
<polygon points=" 175.000000, 36.534246, 167.000000, 71.314649, 182.000000, 71.314649" fill="rgb(255, 255, 255)" style="fill-opacity:1.00" />
<!-- End 'A' -->
<!-- Begin 'T' -->
<rect height="0.198819" width="50.000000" x="150.000000" y="108.095051" fill="rgb(0, 100, 0)" style="fill-opacity:1.00" />
<rect height="1.242619" width="10.000000" x="170.000000" y="108.095051" fill="rgb(0, 100, 0)" style="fill-opacity:1.00" />
<!-- End 'T' -->
<!-- Begin 'C' -->
<ellipse cx="175.000000" cy="109.504706" rx="25.000000" ry="0.167036" fill="rgb(0, 0, 128)" style="fill-opacity:1.00" />
<ellipse cx="175.000000" cy="109.504706" rx="16.666667" ry="0.111357" fill="rgb(255, 255, 255)" style="fill-opacity:1.00" />
<rect height="0.167036" width="25.000000" x="175.000000" y="109.421188" fill="rgb(255, 255, 255)" style="fill-opacity:1.00" />
<!-- End 'C' -->
<!-- Begin 'G' -->
<ellipse cx="175.000000" cy="109.835871" rx="25.000000" ry="0.164129" fill="rgb(255, 165, 0)" style="fill-opacity:1.00" />
<ellipse cx="175.000000" cy="109.835871" rx="16.666667" ry="0.109420" fill="rgb(255, 255, 255)" style="fill-opacity:1.00" />
<rect height="0.164129" width="25.000000" x="175.000000" y="109.753806" fill="rgb(255, 255, 255)" style="fill-opacity:1.00" />
<rect height="0.041032" width="25.000000" x="175.000000" y="109.876903" fill="rgb(255, 165, 0)" style="fill-opacity:1.00" />
<rect height="0.123097" width="6.250000" x="193.750000" y="109.876903" fill="rgb(255, 165, 0)" style="fill-opacity:1.00" />
<!-- End 'G' -->
<!-- Begin 'T' -->
<rect height="14.914113" width="50.000000" x="210.000000" y="15.607917" fill="rgb(0, 100, 0)" style="fill-opacity:1.00" />
<rect height="93.213204" width="10.000000" x="230.000000" y="15.607917" fill="rgb(0, 100, 0)" style="fill-opacity:1.00" />
<!-- End 'T' -->
<!-- Begin 'A' -->
<polygon points=" 210.000000, 109.480434, 231.000000, 108.821122, 239.000000, 108.821122, 260.000000, 109.480434, 252.500000, 109.480434, 246.250000, 109.315606, 223.750000, 109.315606, 217.500000, 109.480434" fill="rgb(178, 34, 34)" style="fill-opacity:1.00" />
<!-- End 'A' -->
<!-- Begin 'C' -->
<ellipse cx="235.000000" cy="109.708945" rx="25.000000" ry="0.228511" fill="rgb(0, 0, 128)" style="fill-opacity:1.00" />
<ellipse cx="235.000000" cy="109.708945" rx="16.666667" ry="0.152341" fill="rgb(255, 255, 255)" style="fill-opacity:1.00" />
<rect height="0.228511" width="25.000000" x="235.000000" y="109.594689" fill="rgb(255, 255, 255)" style="fill-opacity:1.00" />
<!-- End 'C' -->
<!-- Begin 'G' -->
<ellipse cx="235.000000" cy="109.968728" rx="25.000000" ry="0.031272" fill="rgb(255, 165, 0)" style="fill-opacity:1.00" />
<ellipse cx="235.000000" cy="109.968728" rx="16.666667" ry="0.020848" fill="rgb(255, 255, 255)" style="fill-opacity:1.00" />
<rect height="0.031272" width="25.000000" x="235.000000" y="109.953092" fill="rgb(255, 255, 255)" style="fill-opacity:1.00" />
<rect height="0.007818" width="25.000000" x="235.000000" y="109.976546" fill="rgb(255, 165, 0)" style="fill-opacity:1.00" />
<rect height="0.023454" width="6.250000" x="253.750000" y="109.976546" fill="rgb(255, 165, 0)" style="fill-opacity:1.00" />
<!-- End 'G' -->
<!-- Begin 'T' -->
<rect height="3.575061" width="50.000000" x="270.000000" y="65.952267" fill="rgb(0, 100, 0)" style="fill-opacity:1.00" />
<rect height="22.344133" width="10.000000" x="290.000000" y="65.952267" fill="rgb(0, 100, 0)" style="fill-opacity:1.00" />
<!-- End 'T' -->
<!-- Begin 'A' -->
<polygon points=" 270.000000, 109.284382, 291.000000, 88.296399, 299.000000, 88.296399, 320.000000, 109.284382, 312.500000, 109.284382, 306.250000, 104.037386, 283.750000, 104.037386, 277.500000, 109.284382" fill="rgb(178, 34, 34)" style="fill-opacity:1.00" />
<polygon points=" 295.000000, 92.493996, 287.000000, 99.889189, 302.000000, 99.889189" fill="rgb(255, 255, 255)" style="fill-opacity:1.00" />
<!-- End 'A' -->
<!-- Begin 'C' -->
<ellipse cx="295.000000" cy="109.477216" rx="25.000000" ry="0.192834" fill="rgb(0, 0, 128)" style="fill-opacity:1.00" />
<ellipse cx="295.000000" cy="109.477216" rx="16.666667" ry="0.128556" fill="rgb(255, 255, 255)" style="fill-opacity:1.00" />
<rect height="0.192834" width="25.000000" x="295.000000" y="109.380799" fill="rgb(255, 255, 255)" style="fill-opacity:1.00" />
<!-- End 'C' -->
<!-- Begin 'G' -->
<ellipse cx="295.000000" cy="109.835025" rx="25.000000" ry="0.164975" fill="rgb(255, 165, 0)" style="fill-opacity:1.00" />
<ellipse cx="295.000000" cy="109.835025" rx="16.666667" ry="0.109983" fill="rgb(255, 255, 255)" style="fill-opacity:1.00" />
<rect height="0.164975" width="25.000000" x="295.000000" y="109.752537" fill="rgb(255, 255, 255)" style="fill-opacity:1.00" />
<rect height="0.041244" width="25.000000" x="295.000000" y="109.876269" fill="rgb(255, 165, 0)" style="fill-opacity:1.00" />
<rect height="0.123731" width="6.250000" x="313.750000" y="109.876269" fill="rgb(255, 165, 0)" style="fill-opacity:1.00" />
<!-- End 'G' -->
<!-- Begin 'A' -->
<polygon points=" 330.000000, 108.521526, 351.000000, 16.686340, 359.000000, 16.686340, 380.000000, 108.521526, 372.500000, 108.521526, 366.250000, 85.562730, 343.750000, 85.562730, 337.500000, 108.521526" fill="rgb(178, 34, 34)" style="fill-opacity:1.00" />
<polygon points=" 355.000000, 35.053378, 347.000000, 70.787452, 362.000000, 70.787452" fill="rgb(255, 255, 255)" style="fill-opacity:1.00" />
<!-- End 'A' -->
<!-- Begin 'T' -->
<rect height="0.172128" width="50.000000" x="330.000000" y="108.521526" fill="rgb(0, 100, 0)" style="fill-opacity:1.00" />
<rect height="1.075800" width="10.000000" x="350.000000" y="108.521526" fill="rgb(0, 100, 0)" style="fill-opacity:1.00" />
<!-- End 'T' -->
<!-- Begin 'G' -->
<ellipse cx="355.000000" cy="109.762765" rx="25.000000" ry="0.165439" fill="rgb(255, 165, 0)" style="fill-opacity:1.00" />
<ellipse cx="355.000000" cy="109.762765" rx="16.666667" ry="0.110293" fill="rgb(255, 255, 255)" style="fill-opacity:1.00" />
<rect height="0.165439" width="25.000000" x="355.000000" y="109.680045" fill="rgb(255, 255, 255)" style="fill-opacity:1.00" />
<rect height="0.041360" width="25.000000" x="355.000000" y="109.804125" fill="rgb(255, 165, 0)" style="fill-opacity:1.00" />
<rect height="0.124079" width="6.250000" x="373.750000" y="109.804125" fill="rgb(255, 165, 0)" style="fill-opacity:1.00" />
<!-- End 'G' -->
<!-- Begin 'C' -->
<ellipse cx="355.000000" cy="109.964102" rx="25.000000" ry="0.035898" fill="rgb(0, 0, 128)" style="fill-opacity:1.00" />
<ellipse cx="355.000000" cy="109.964102" rx="16.666667" ry="0.023932" fill="rgb(255, 255, 255)" style="fill-opacity:1.00" />
<rect height="0.035898" width="25.000000" x="355.000000" y="109.946153" fill="rgb(255, 255, 255)" style="fill-opacity:1.00" />
<!-- End 'C' -->
<!-- Begin 'T' -->
<rect height="14.225112" width="50.000000" x="390.000000" y="19.029292" fill="rgb(0, 100, 0)" style="fill-opacity:1.00" />
<rect height="88.906952" width="10.000000" x="410.000000" y="19.029292" fill="rgb(0, 100, 0)" style="fill-opacity:1.00" />
<!-- End 'T' -->
<!-- Begin 'A' -->
<polygon points=" 390.000000, 109.430431, 411.000000, 107.936244, 419.000000, 107.936244, 440.000000, 109.430431, 432.500000, 109.430431, 426.250000, 109.056884, 403.750000, 109.056884, 397.500000, 109.430431" fill="rgb(178, 34, 34)" style="fill-opacity:1.00" />
<!-- End 'A' -->
<!-- Begin 'G' -->
<ellipse cx="415.000000" cy="109.645202" rx="25.000000" ry="0.214771" fill="rgb(255, 165, 0)" style="fill-opacity:1.00" />
<ellipse cx="415.000000" cy="109.645202" rx="16.666667" ry="0.143181" fill="rgb(255, 255, 255)" style="fill-opacity:1.00" />
<rect height="0.214771" width="25.000000" x="415.000000" y="109.537816" fill="rgb(255, 255, 255)" style="fill-opacity:1.00" />
<rect height="0.053693" width="25.000000" x="415.000000" y="109.698895" fill="rgb(255, 165, 0)" style="fill-opacity:1.00" />
<rect height="0.161078" width="6.250000" x="433.750000" y="109.698895" fill="rgb(255, 165, 0)" style="fill-opacity:1.00" />
<!-- End 'G' -->
<!-- Begin 'C' -->
<ellipse cx="415.000000" cy="109.929986" rx="25.000000" ry="0.070014" fill="rgb(0, 0, 128)" style="fill-opacity:1.00" />
<ellipse cx="415.000000" cy="109.929986" rx="16.666667" ry="0.046676" fill="rgb(255, 255, 255)" style="fill-opacity:1.00" />
<rect height="0.070014" width="25.000000" x="415.000000" y="109.894979" fill="rgb(255, 255, 255)" style="fill-opacity:1.00" />
<!-- End 'C' -->
<!-- Begin 'T' -->
<rect height="6.604221" width="50.000000" x="450.000000" y="58.531636" fill="rgb(0, 100, 0)" style="fill-opacity:1.00" />
<rect height="41.276382" width="10.000000" x="470.000000" y="58.531636" fill="rgb(0, 100, 0)" style="fill-opacity:1.00" />
<!-- End 'T' -->
<!-- Begin 'G' -->
<ellipse cx="475.000000" cy="102.238567" rx="25.000000" ry="2.430549" fill="rgb(255, 165, 0)" style="fill-opacity:1.00" />
<ellipse cx="475.000000" cy="102.238567" rx="16.666667" ry="1.620366" fill="rgb(255, 255, 255)" style="fill-opacity:1.00" />
<rect height="2.430549" width="25.000000" x="475.000000" y="101.023292" fill="rgb(255, 255, 255)" style="fill-opacity:1.00" />
<rect height="0.607637" width="25.000000" x="475.000000" y="102.846204" fill="rgb(255, 165, 0)" style="fill-opacity:1.00" />
<rect height="1.822912" width="6.250000" x="493.750000" y="102.846204" fill="rgb(255, 165, 0)" style="fill-opacity:1.00" />
<!-- End 'G' -->
<!-- Begin 'A' -->
<polygon points=" 450.000000, 109.358068, 471.000000, 104.669116, 479.000000, 104.669116, 500.000000, 109.358068, 492.500000, 109.358068, 486.250000, 108.185830, 463.750000, 108.185830, 457.500000, 109.358068" fill="rgb(178, 34, 34)" style="fill-opacity:1.00" />
<!-- End 'A' -->
<!-- Begin 'C' -->
<ellipse cx="475.000000" cy="109.679034" rx="25.000000" ry="0.320966" fill="rgb(0, 0, 128)" style="fill-opacity:1.00" />
<ellipse cx="475.000000" cy="109.679034" rx="16.666667" ry="0.213977" fill="rgb(255, 255, 255)" style="fill-opacity:1.00" />
<rect height="0.320966" width="25.000000" x="475.000000" y="109.518551" fill="rgb(255, 255, 255)" style="fill-opacity:1.00" />
<!-- End 'C' -->
<!-- Begin 'G' -->
<ellipse cx="535.000000" cy="105.047695" rx="25.000000" ry="1.097734" fill="rgb(255, 165, 0)" style="fill-opacity:1.00" />
<ellipse cx="535.000000" cy="105.047695" rx="16.666667" ry="0.731822" fill="rgb(255, 255, 255)" style="fill-opacity:1.00" />
<rect height="1.097734" width="25.000000" x="535.000000" y="104.498828" fill="rgb(255, 255, 255)" style="fill-opacity:1.00" />
<rect height="0.274433" width="25.000000" x="535.000000" y="105.322129" fill="rgb(255, 165, 0)" style="fill-opacity:1.00" />
<rect height="0.823300" width="6.250000" x="553.750000" y="105.322129" fill="rgb(255, 165, 0)" style="fill-opacity:1.00" />
<!-- End 'G' -->
<!-- Begin 'T' -->
<rect height="0.264701" width="50.000000" x="510.000000" y="106.145429" fill="rgb(0, 100, 0)" style="fill-opacity:1.00" />
<rect height="1.654383" width="10.000000" x="530.000000" y="106.145429" fill="rgb(0, 100, 0)" style="fill-opacity:1.00" />
<!-- End 'T' -->
<!-- Begin 'A' -->
<polygon points=" 510.000000, 109.405668, 531.000000, 107.799811, 539.000000, 107.799811, 560.000000, 109.405668, 552.500000, 109.405668, 546.250000, 109.004204, 523.750000, 109.004204, 517.500000, 109.405668" fill="rgb(178, 34, 34)" style="fill-opacity:1.00" />
<!-- End 'A' -->
<!-- Begin 'C' -->
<ellipse cx="535.000000" cy="109.702834" rx="25.000000" ry="0.297166" fill="rgb(0, 0, 128)" style="fill-opacity:1.00" />
<ellipse cx="535.000000" cy="109.702834" rx="16.666667" ry="0.198111" fill="rgb(255, 255, 255)" style="fill-opacity:1.00" />
<rect height="0.297166" width="25.000000" x="535.000000" y="109.554251" fill="rgb(255, 255, 255)" style="fill-opacity:1.00" />
<!-- End 'C' -->
<text x="310.000000" y="165">
IC = 10.26
</text>

</svg>
