<?xml version="1.0" encoding="UTF-8" standalone="yes"?>
                 <!DOCTYPE svg PUBLIC "-//W3C//DTD SVG 1.0//EN" "http://www.w3.org/TR/2001/REC-SVG-20010904/DTD/svg10.dtd">
                 <svg height="500" width="900" xmlns="http://www.w3.org/2000/svg" xmlns:xlink="http://www.w3.org/1999/xlink">
                 <line x1="85" y1="450" x2="867" y2="450" style="stroke:rgb(99,99,99);stroke-width:2" />
<rect height="7.000000" width="2.000000" x="85.000000" y="450.000000" fill="rgb(0, 0, 0)" style="fill-opacity:1.00" />
<text x="107.000000" y="470">
1
</text>
<rect height="7.000000" width="2.000000" x="145.000000" y="450.000000" fill="rgb(0, 0, 0)" style="fill-opacity:1.00" />
<text x="167.000000" y="470">
2
</text>
<rect height="7.000000" width="2.000000" x="205.000000" y="450.000000" fill="rgb(0, 0, 0)" style="fill-opacity:1.00" />
<text x="227.000000" y="470">
3
</text>
<rect height="7.000000" width="2.000000" x="265.000000" y="450.000000" fill="rgb(0, 0, 0)" style="fill-opacity:1.00" />
<text x="287.000000" y="470">
4
</text>
<rect height="7.000000" width="2.000000" x="325.000000" y="450.000000" fill="rgb(0, 0, 0)" style="fill-opacity:1.00" />
<text x="347.000000" y="470">
5
</text>
<rect height="7.000000" width="2.000000" x="385.000000" y="450.000000" fill="rgb(0, 0, 0)" style="fill-opacity:1.00" />
<text x="407.000000" y="470">
6
</text>
<rect height="7.000000" width="2.000000" x="445.000000" y="450.000000" fill="rgb(0, 0, 0)" style="fill-opacity:1.00" />
<text x="467.000000" y="470">
7
</text>
<rect height="7.000000" width="2.000000" x="505.000000" y="450.000000" fill="rgb(0, 0, 0)" style="fill-opacity:1.00" />
<text x="527.000000" y="470">
8
</text>
<rect height="7.000000" width="2.000000" x="565.000000" y="450.000000" fill="rgb(0, 0, 0)" style="fill-opacity:1.00" />
<text x="587.000000" y="470">
9
</text>
<rect height="7.000000" width="2.000000" x="625.000000" y="450.000000" fill="rgb(0, 0, 0)" style="fill-opacity:1.00" />
<text x="647.000000" y="470">
10
</text>
<rect height="7.000000" width="2.000000" x="685.000000" y="450.000000" fill="rgb(0, 0, 0)" style="fill-opacity:1.00" />
<text x="707.000000" y="470">
11
</text>
<rect height="7.000000" width="2.000000" x="745.000000" y="450.000000" fill="rgb(0, 0, 0)" style="fill-opacity:1.00" />
<text x="767.000000" y="470">
12
</text>
<rect height="7.000000" width="2.000000" x="805.000000" y="450.000000" fill="rgb(0, 0, 0)" style="fill-opacity:1.00" />
<text x="827.000000" y="470">
13
</text>
<rect height="7.000000" width="2.000000" x="865.000000" y="450.000000" fill="rgb(0, 0, 0)" style="fill-opacity:1.00" />
<!-- Begin 'A' -->
<polygon points=" 10.000000, 110.000000, 35.200000, 10.000000, 44.800000, 10.000000, 70.000000, 110.000000, 61.000000, 110.000000, 53.500000, 85.000000, 26.500000, 85.000000, 19.000000, 110.000000" fill="rgb(178, 34, 34)" style="fill-opacity:1.00" />
<polygon points=" 40.000000, 30.000000, 30.400000, 69.000000, 48.400000, 69.000000" fill="rgb(255, 255, 255)" style="fill-opacity:1.00" />
<!-- End 'A' -->
<!-- Begin 'C' -->
<ellipse cx="40.000000" cy="170.000000" rx="30.000000" ry="50.000000" fill="rgb(0, 0, 128)" style="fill-opacity:1.00" />
<ellipse cx="40.000000" cy="170.000000" rx="20.000000" ry="33.333333" fill="rgb(255, 255, 255)" style="fill-opacity:1.00" />
<rect height="50.000000" width="30.000000" x="40.000000" y="145.000000" fill="rgb(255, 255, 255)" style="fill-opacity:1.00" />
<!-- End 'C' -->
<!-- Begin 'G' -->
<ellipse cx="40.000000" cy="280.000000" rx="30.000000" ry="50.000000" fill="rgb(255, 165, 0)" style="fill-opacity:1.00" />
<ellipse cx="40.000000" cy="280.000000" rx="20.000000" ry="33.333333" fill="rgb(255, 255, 255)" style="fill-opacity:1.00" />
<rect height="50.000000" width="30.000000" x="40.000000" y="255.000000" fill="rgb(255, 255, 255)" style="fill-opacity:1.00" />
<rect height="12.500000" width="30.000000" x="40.000000" y="292.500000" fill="rgb(255, 165, 0)" style="fill-opacity:1.00" />
<rect height="37.500000" width="7.500000" x="62.500000" y="292.500000" fill="rgb(255, 165, 0)" style="fill-opacity:1.00" />
<!-- End 'G' -->
<!-- Begin 'T' -->
<rect height="16.000000" width="60.000000" x="10.000000" y="340.000000" fill="rgb(0, 100, 0)" style="fill-opacity:1.00" />
<rect height="100.000000" width="12.000000" x="34.000000" y="340.000000" fill="rgb(0, 100, 0)" style="fill-opacity:1.00" />
<!-- End 'T' -->
<!-- Begin 'A' -->
<polygon points=" 90.000000, 49.235229, 111.000000, 10.000000, 119.000000, 10.000000, 140.000000, 49.235229, 132.500000, 49.235229, 126.250000, 39.426421, 103.750000, 39.426421, 97.500000, 49.235229" fill="rgb(178, 34, 34)" style="fill-opacity:0.32" />
<polygon points=" 115.000000, 17.847046, 107.000000, 32.541137, 122.000000, 32.541137" fill="rgb(255, 255, 255)" style="fill-opacity:1.00" />
<!-- End 'A' -->
<!-- Begin 'T' -->
<rect height="4.296295" width="50.000000" x="90.000000" y="49.235229" fill="rgb(0, 100, 0)" style="fill-opacity:0.32" />
<rect height="26.851846" width="10.000000" x="110.000000" y="49.235229" fill="rgb(0, 100, 0)" style="fill-opacity:0.32" />
<!-- End 'T' -->
<!-- Begin 'C' -->
<ellipse cx="115.000000" cy="85.156256" rx="25.000000" ry="9.069181" fill="rgb(0, 0, 128)" style="fill-opacity:0.32" />
<ellipse cx="115.000000" cy="85.156256" rx="16.666667" ry="6.046121" fill="rgb(255, 255, 255)" style="fill-opacity:1.00" />
<rect height="9.069181" width="25.000000" x="115.000000" y="80.621665" fill="rgb(255, 255, 255)" style="fill-opacity:1.00" />
<!-- End 'C' -->
<!-- Begin 'G' -->
<ellipse cx="115.000000" cy="102.112719" rx="25.000000" ry="7.887281" fill="rgb(255, 165, 0)" style="fill-opacity:0.32" />
<ellipse cx="115.000000" cy="102.112719" rx="16.666667" ry="5.258188" fill="rgb(255, 255, 255)" style="fill-opacity:1.00" />
<rect height="7.887281" width="25.000000" x="115.000000" y="98.169078" fill="rgb(255, 255, 255)" style="fill-opacity:1.00" />
<rect height="1.971820" width="25.000000" x="115.000000" y="104.084539" fill="rgb(255, 165, 0)" style="fill-opacity:0.32" />
<rect height="5.915461" width="6.250000" x="133.750000" y="104.084539" fill="rgb(255, 165, 0)" style="fill-opacity:0.32" />
<!-- End 'G' -->
<!-- Begin 'A' -->
<polygon points=" 90.000000, 155.721961, 111.000000, 120.000000, 119.000000, 120.000000, 140.000000, 155.721961, 132.500000, 155.721961, 126.250000, 146.791471, 103.750000, 146.791471, 97.500000, 155.721961" fill="rgb(178, 34, 34)" style="fill-opacity:0.19" />
<polygon points=" 115.000000, 127.144392, 107.000000, 140.433177, 122.000000, 140.433177" fill="rgb(255, 255, 255)" style="fill-opacity:1.00" />
<!-- End 'A' -->
<!-- Begin 'T' -->
<rect height="4.244153" width="50.000000" x="90.000000" y="155.721961" fill="rgb(0, 100, 0)" style="fill-opacity:0.19" />
<rect height="26.525954" width="10.000000" x="110.000000" y="155.721961" fill="rgb(0, 100, 0)" style="fill-opacity:0.19" />
<!-- End 'T' -->
<!-- Begin 'G' -->
<ellipse cx="115.000000" cy="194.582886" rx="25.000000" ry="12.334971" fill="rgb(255, 165, 0)" style="fill-opacity:0.19" />
<ellipse cx="115.000000" cy="194.582886" rx="16.666667" ry="8.223314" fill="rgb(255, 255, 255)" style="fill-opacity:1.00" />
<rect height="12.334971" width="25.000000" x="115.000000" y="188.415400" fill="rgb(255, 255, 255)" style="fill-opacity:1.00" />
<rect height="3.083743" width="25.000000" x="115.000000" y="197.666628" fill="rgb(255, 165, 0)" style="fill-opacity:0.19" />
<rect height="9.251228" width="6.250000" x="133.750000" y="197.666628" fill="rgb(255, 165, 0)" style="fill-opacity:0.19" />
<!-- End 'G' -->
<!-- Begin 'C' -->
<ellipse cx="115.000000" cy="213.458928" rx="25.000000" ry="6.541072" fill="rgb(0, 0, 128)" style="fill-opacity:0.19" />
<ellipse cx="115.000000" cy="213.458928" rx="16.666667" ry="4.360714" fill="rgb(255, 255, 255)" style="fill-opacity:1.00" />
<rect height="6.541072" width="25.000000" x="115.000000" y="210.188392" fill="rgb(255, 255, 255)" style="fill-opacity:1.00" />
<!-- End 'C' -->
<!-- Begin 'A' -->
<polygon points=" 90.000000, 281.163762, 111.000000, 230.000000, 119.000000, 230.000000, 140.000000, 281.163762, 132.500000, 281.163762, 126.250000, 268.372821, 103.750000, 268.372821, 97.500000, 281.163762" fill="rgb(178, 34, 34)" style="fill-opacity:0.19" />
<polygon points=" 115.000000, 240.232752, 107.000000, 259.698257, 122.000000, 259.698257" fill="rgb(255, 255, 255)" style="fill-opacity:1.00" />
<!-- End 'A' -->
<!-- Begin 'T' -->
<rect height="3.869272" width="50.000000" x="90.000000" y="281.163762" fill="rgb(0, 100, 0)" style="fill-opacity:0.19" />
<rect height="24.182950" width="10.000000" x="110.000000" y="281.163762" fill="rgb(0, 100, 0)" style="fill-opacity:0.19" />
<!-- End 'T' -->
<!-- Begin 'G' -->
<ellipse cx="115.000000" cy="313.816414" rx="25.000000" ry="8.469703" fill="rgb(255, 165, 0)" style="fill-opacity:0.19" />
<ellipse cx="115.000000" cy="313.816414" rx="16.666667" ry="5.646468" fill="rgb(255, 255, 255)" style="fill-opacity:1.00" />
<rect height="8.469703" width="25.000000" x="115.000000" y="309.581563" fill="rgb(255, 255, 255)" style="fill-opacity:1.00" />
<rect height="2.117426" width="25.000000" x="115.000000" y="315.933840" fill="rgb(255, 165, 0)" style="fill-opacity:0.19" />
<rect height="6.352277" width="6.250000" x="133.750000" y="315.933840" fill="rgb(255, 165, 0)" style="fill-opacity:0.19" />
<!-- End 'G' -->
<!-- Begin 'C' -->
<ellipse cx="115.000000" cy="326.143058" rx="25.000000" ry="3.856942" fill="rgb(0, 0, 128)" style="fill-opacity:0.19" />
<ellipse cx="115.000000" cy="326.143058" rx="16.666667" ry="2.571295" fill="rgb(255, 255, 255)" style="fill-opacity:1.00" />
<rect height="3.856942" width="25.000000" x="115.000000" y="324.214587" fill="rgb(255, 255, 255)" style="fill-opacity:1.00" />
<!-- End 'C' -->
<!-- Begin 'T' -->
<rect height="5.890746" width="50.000000" x="90.000000" y="340.000000" fill="rgb(0, 100, 0)" style="fill-opacity:0.30" />
<rect height="36.817161" width="10.000000" x="110.000000" y="340.000000" fill="rgb(0, 100, 0)" style="fill-opacity:0.30" />
<!-- End 'T' -->
<!-- Begin 'A' -->
<polygon points=" 90.000000, 403.109870, 111.000000, 376.817161, 119.000000, 376.817161, 140.000000, 403.109870, 132.500000, 403.109870, 126.250000, 396.536692, 103.750000, 396.536692, 97.500000, 403.109870" fill="rgb(178, 34, 34)" style="fill-opacity:0.30" />
<polygon points=" 115.000000, 382.075703, 107.000000, 391.592786, 122.000000, 391.592786" fill="rgb(255, 255, 255)" style="fill-opacity:1.00" />
<!-- End 'A' -->
<!-- Begin 'G' -->
<ellipse cx="115.000000" cy="415.319969" rx="25.000000" ry="12.210099" fill="rgb(255, 165, 0)" style="fill-opacity:0.30" />
<ellipse cx="115.000000" cy="415.319969" rx="16.666667" ry="8.140066" fill="rgb(255, 255, 255)" style="fill-opacity:1.00" />
<rect height="12.210099" width="25.000000" x="115.000000" y="409.214919" fill="rgb(255, 255, 255)" style="fill-opacity:1.00" />
<rect height="3.052525" width="25.000000" x="115.000000" y="418.372494" fill="rgb(255, 165, 0)" style="fill-opacity:0.30" />
<rect height="9.157574" width="6.250000" x="133.750000" y="418.372494" fill="rgb(255, 165, 0)" style="fill-opacity:0.30" />
<!-- End 'G' -->
<!-- Begin 'C' -->
<ellipse cx="115.000000" cy="433.765034" rx="25.000000" ry="6.234966" fill="rgb(0, 0, 128)" style="fill-opacity:0.30" />
<ellipse cx="115.000000" cy="433.765034" rx="16.666667" ry="4.156644" fill="rgb(255, 255, 255)" style="fill-opacity:1.00" />
<rect height="6.234966" width="25.000000" x="115.000000" y="430.647551" fill="rgb(255, 255, 255)" style="fill-opacity:1.00" />
<!-- End 'C' -->
<!-- Begin 'A' -->
<polygon points=" 150.000000, 42.905006, 171.000000, 10.000000, 179.000000, 10.000000, 200.000000, 42.905006, 192.500000, 42.905006, 186.250000, 34.678754, 163.750000, 34.678754, 157.500000, 42.905006" fill="rgb(178, 34, 34)" style="fill-opacity:0.37" />
<polygon points=" 175.000000, 16.581001, 167.000000, 28.743004, 182.000000, 28.743004" fill="rgb(255, 255, 255)" style="fill-opacity:1.00" />
<!-- End 'A' -->
<!-- Begin 'T' -->
<rect height="3.950438" width="50.000000" x="150.000000" y="42.905006" fill="rgb(0, 100, 0)" style="fill-opacity:0.37" />
<rect height="24.690239" width="10.000000" x="170.000000" y="42.905006" fill="rgb(0, 100, 0)" style="fill-opacity:0.37" />
<!-- End 'T' -->
<!-- Begin 'G' -->
<ellipse cx="175.000000" cy="79.810091" rx="25.000000" ry="12.214846" fill="rgb(255, 165, 0)" style="fill-opacity:0.37" />
<ellipse cx="175.000000" cy="79.810091" rx="16.666667" ry="8.143231" fill="rgb(255, 255, 255)" style="fill-opacity:1.00" />
<rect height="12.214846" width="25.000000" x="175.000000" y="73.702668" fill="rgb(255, 255, 255)" style="fill-opacity:1.00" />
<rect height="3.053712" width="25.000000" x="175.000000" y="82.863803" fill="rgb(255, 165, 0)" style="fill-opacity:0.37" />
<rect height="9.161135" width="6.250000" x="193.750000" y="82.863803" fill="rgb(255, 165, 0)" style="fill-opacity:0.37" />
<!-- End 'G' -->
<!-- Begin 'C' -->
<ellipse cx="175.000000" cy="101.012469" rx="25.000000" ry="8.987531" fill="rgb(0, 0, 128)" style="fill-opacity:0.37" />
<ellipse cx="175.000000" cy="101.012469" rx="16.666667" ry="5.991687" fill="rgb(255, 255, 255)" style="fill-opacity:1.00" />
<rect height="8.987531" width="25.000000" x="175.000000" y="96.518703" fill="rgb(255, 255, 255)" style="fill-opacity:1.00" />
<!-- End 'C' -->
<!-- Begin 'T' -->
<rect height="5.537432" width="50.000000" x="150.000000" y="120.000000" fill="rgb(0, 100, 0)" style="fill-opacity:0.14" />
<rect height="34.608951" width="10.000000" x="170.000000" y="120.000000" fill="rgb(0, 100, 0)" style="fill-opacity:0.14" />
<!-- End 'T' -->
<!-- Begin 'G' -->
<ellipse cx="175.000000" cy="166.263871" rx="25.000000" ry="11.654920" fill="rgb(255, 165, 0)" style="fill-opacity:0.14" />
<ellipse cx="175.000000" cy="166.263871" rx="16.666667" ry="7.769947" fill="rgb(255, 255, 255)" style="fill-opacity:1.00" />
<rect height="11.654920" width="25.000000" x="175.000000" y="160.436411" fill="rgb(255, 255, 255)" style="fill-opacity:1.00" />
<rect height="2.913730" width="25.000000" x="175.000000" y="169.177601" fill="rgb(255, 165, 0)" style="fill-opacity:0.14" />
<rect height="8.741190" width="6.250000" x="193.750000" y="169.177601" fill="rgb(255, 165, 0)" style="fill-opacity:0.14" />
<!-- End 'G' -->
<!-- Begin 'A' -->
<polygon points=" 150.000000, 201.074314, 171.000000, 177.918791, 179.000000, 177.918791, 200.000000, 201.074314, 192.500000, 201.074314, 186.250000, 195.285433, 163.750000, 195.285433, 157.500000, 201.074314" fill="rgb(178, 34, 34)" style="fill-opacity:0.14" />
<polygon points=" 175.000000, 182.549896, 167.000000, 190.812105, 182.000000, 190.812105" fill="rgb(255, 255, 255)" style="fill-opacity:1.00" />
<!-- End 'A' -->
<!-- Begin 'C' -->
<ellipse cx="175.000000" cy="210.537157" rx="25.000000" ry="9.462843" fill="rgb(0, 0, 128)" style="fill-opacity:0.14" />
<ellipse cx="175.000000" cy="210.537157" rx="16.666667" ry="6.308562" fill="rgb(255, 255, 255)" style="fill-opacity:1.00" />
<rect height="9.462843" width="25.000000" x="175.000000" y="205.805735" fill="rgb(255, 255, 255)" style="fill-opacity:1.00" />
<!-- End 'C' -->
<!-- Begin 'A' -->
<polygon points=" 150.000000, 267.737419, 171.000000, 230.000000, 179.000000, 230.000000, 200.000000, 267.737419, 192.500000, 267.737419, 186.250000, 258.303065, 163.750000, 258.303065, 157.500000, 267.737419" fill="rgb(178, 34, 34)" style="fill-opacity:0.20" />
<polygon points=" 175.000000, 237.547484, 167.000000, 251.642452, 182.000000, 251.642452" fill="rgb(255, 255, 255)" style="fill-opacity:1.00" />
<!-- End 'A' -->
<!-- Begin 'T' -->
<rect height="4.034740" width="50.000000" x="150.000000" y="267.737419" fill="rgb(0, 100, 0)" style="fill-opacity:0.20" />
<rect height="25.217127" width="10.000000" x="170.000000" y="267.737419" fill="rgb(0, 100, 0)" style="fill-opacity:0.20" />
<!-- End 'T' -->
<!-- Begin 'G' -->
<ellipse cx="175.000000" cy="305.274353" rx="25.000000" ry="12.319807" fill="rgb(255, 165, 0)" style="fill-opacity:0.20" />
<ellipse cx="175.000000" cy="305.274353" rx="16.666667" ry="8.213204" fill="rgb(255, 255, 255)" style="fill-opacity:1.00" />
<rect height="12.319807" width="25.000000" x="175.000000" y="299.114450" fill="rgb(255, 255, 255)" style="fill-opacity:1.00" />
<rect height="3.079952" width="25.000000" x="175.000000" y="308.354304" fill="rgb(255, 165, 0)" style="fill-opacity:0.20" />
<rect height="9.239855" width="6.250000" x="193.750000" y="308.354304" fill="rgb(255, 165, 0)" style="fill-opacity:0.20" />
<!-- End 'G' -->
<!-- Begin 'C' -->
<ellipse cx="175.000000" cy="323.797080" rx="25.000000" ry="6.202920" fill="rgb(0, 0, 128)" style="fill-opacity:0.20" />
<ellipse cx="175.000000" cy="323.797080" rx="16.666667" ry="4.135280" fill="rgb(255, 255, 255)" style="fill-opacity:1.00" />
<rect height="6.202920" width="25.000000" x="175.000000" y="320.695620" fill="rgb(255, 255, 255)" style="fill-opacity:1.00" />
<!-- End 'C' -->
<!-- Begin 'T' -->
<rect height="4.960851" width="50.000000" x="150.000000" y="340.000000" fill="rgb(0, 100, 0)" style="fill-opacity:0.29" />
<rect height="31.005321" width="10.000000" x="170.000000" y="340.000000" fill="rgb(0, 100, 0)" style="fill-opacity:0.29" />
<!-- End 'T' -->
<!-- Begin 'G' -->
<ellipse cx="175.000000" cy="382.924718" rx="25.000000" ry="11.919396" fill="rgb(255, 165, 0)" style="fill-opacity:0.29" />
<ellipse cx="175.000000" cy="382.924718" rx="16.666667" ry="7.946264" fill="rgb(255, 255, 255)" style="fill-opacity:1.00" />
<rect height="11.919396" width="25.000000" x="175.000000" y="376.965019" fill="rgb(255, 255, 255)" style="fill-opacity:1.00" />
<rect height="2.979849" width="25.000000" x="175.000000" y="385.904567" fill="rgb(255, 165, 0)" style="fill-opacity:0.29" />
<rect height="8.939547" width="6.250000" x="193.750000" y="385.904567" fill="rgb(255, 165, 0)" style="fill-opacity:0.29" />
<!-- End 'G' -->
<!-- Begin 'A' -->
<polygon points=" 150.000000, 417.791727, 171.000000, 394.844114, 179.000000, 394.844114, 200.000000, 417.791727, 192.500000, 417.791727, 186.250000, 412.054824, 163.750000, 412.054824, 157.500000, 417.791727" fill="rgb(178, 34, 34)" style="fill-opacity:0.29" />
<polygon points=" 175.000000, 399.433637, 167.000000, 407.612682, 182.000000, 407.612682" fill="rgb(255, 255, 255)" style="fill-opacity:1.00" />
<!-- End 'A' -->
<!-- Begin 'C' -->
<ellipse cx="175.000000" cy="428.895864" rx="25.000000" ry="11.104136" fill="rgb(0, 0, 128)" style="fill-opacity:0.29" />
<ellipse cx="175.000000" cy="428.895864" rx="16.666667" ry="7.402758" fill="rgb(255, 255, 255)" style="fill-opacity:1.00" />
<rect height="11.104136" width="25.000000" x="175.000000" y="423.343795" fill="rgb(255, 255, 255)" style="fill-opacity:1.00" />
<!-- End 'C' -->
<!-- Begin 'C' -->
<ellipse cx="235.000000" cy="32.006295" rx="25.000000" ry="22.006295" fill="rgb(0, 0, 128)" style="fill-opacity:0.30" />
<ellipse cx="235.000000" cy="32.006295" rx="16.666667" ry="14.670863" fill="rgb(255, 255, 255)" style="fill-opacity:1.00" />
<rect height="22.006295" width="25.000000" x="235.000000" y="21.003148" fill="rgb(255, 255, 255)" style="fill-opacity:1.00" />
<!-- End 'C' -->
<!-- Begin 'T' -->
<rect height="4.497884" width="50.000000" x="210.000000" y="54.012590" fill="rgb(0, 100, 0)" style="fill-opacity:0.30" />
<rect height="28.111774" width="10.000000" x="230.000000" y="54.012590" fill="rgb(0, 100, 0)" style="fill-opacity:0.30" />
<!-- End 'T' -->
<!-- Begin 'G' -->
<ellipse cx="235.000000" cy="90.602379" rx="25.000000" ry="8.478014" fill="rgb(255, 165, 0)" style="fill-opacity:0.30" />
<ellipse cx="235.000000" cy="90.602379" rx="16.666667" ry="5.652009" fill="rgb(255, 255, 255)" style="fill-opacity:1.00" />
<rect height="8.478014" width="25.000000" x="235.000000" y="86.363372" fill="rgb(255, 255, 255)" style="fill-opacity:1.00" />
<rect height="2.119504" width="25.000000" x="235.000000" y="92.721882" fill="rgb(255, 165, 0)" style="fill-opacity:0.30" />
<rect height="6.358511" width="6.250000" x="253.750000" y="92.721882" fill="rgb(255, 165, 0)" style="fill-opacity:0.30" />
<!-- End 'G' -->
<!-- Begin 'A' -->
<polygon points=" 210.000000, 110.000000, 231.000000, 99.080393, 239.000000, 99.080393, 260.000000, 110.000000, 252.500000, 110.000000, 246.250000, 107.270098, 223.750000, 107.270098, 217.500000, 110.000000" fill="rgb(178, 34, 34)" style="fill-opacity:0.30" />
<polygon points=" 235.000000, 101.264314, 227.000000, 104.632157, 242.000000, 104.632157" fill="rgb(255, 255, 255)" style="fill-opacity:1.00" />
<!-- End 'A' -->
<!-- Begin 'C' -->
<ellipse cx="235.000000" cy="147.442731" rx="25.000000" ry="27.442731" fill="rgb(0, 0, 128)" style="fill-opacity:0.18" />
<ellipse cx="235.000000" cy="147.442731" rx="16.666667" ry="18.295154" fill="rgb(255, 255, 255)" style="fill-opacity:1.00" />
<rect height="27.442731" width="25.000000" x="235.000000" y="133.721366" fill="rgb(255, 255, 255)" style="fill-opacity:1.00" />
<!-- End 'C' -->
<!-- Begin 'T' -->
<rect height="3.202720" width="50.000000" x="210.000000" y="174.885463" fill="rgb(0, 100, 0)" style="fill-opacity:0.18" />
<rect height="20.017003" width="10.000000" x="230.000000" y="174.885463" fill="rgb(0, 100, 0)" style="fill-opacity:0.18" />
<!-- End 'T' -->
<!-- Begin 'A' -->
<polygon points=" 210.000000, 209.441247, 231.000000, 194.902466, 239.000000, 194.902466, 260.000000, 209.441247, 252.500000, 209.441247, 246.250000, 205.806552, 223.750000, 205.806552, 217.500000, 209.441247" fill="rgb(178, 34, 34)" style="fill-opacity:0.18" />
<polygon points=" 235.000000, 197.810222, 227.000000, 202.625734, 242.000000, 202.625734" fill="rgb(255, 255, 255)" style="fill-opacity:1.00" />
<!-- End 'A' -->
<!-- Begin 'G' -->
<ellipse cx="235.000000" cy="214.720623" rx="25.000000" ry="5.279377" fill="rgb(255, 165, 0)" style="fill-opacity:0.18" />
<ellipse cx="235.000000" cy="214.720623" rx="16.666667" ry="3.519584" fill="rgb(255, 255, 255)" style="fill-opacity:1.00" />
<rect height="5.279377" width="25.000000" x="235.000000" y="212.080935" fill="rgb(255, 255, 255)" style="fill-opacity:1.00" />
<rect height="1.319844" width="25.000000" x="235.000000" y="216.040468" fill="rgb(255, 165, 0)" style="fill-opacity:0.18" />
<rect height="3.959532" width="6.250000" x="253.750000" y="216.040468" fill="rgb(255, 165, 0)" style="fill-opacity:0.18" />
<!-- End 'G' -->
<!-- Begin 'C' -->
<ellipse cx="235.000000" cy="250.134110" rx="25.000000" ry="20.134110" fill="rgb(0, 0, 128)" style="fill-opacity:0.24" />
<ellipse cx="235.000000" cy="250.134110" rx="16.666667" ry="13.422740" fill="rgb(255, 255, 255)" style="fill-opacity:1.00" />
<rect height="20.134110" width="25.000000" x="235.000000" y="240.067055" fill="rgb(255, 255, 255)" style="fill-opacity:1.00" />
<!-- End 'C' -->
<!-- Begin 'T' -->
<rect height="3.944660" width="50.000000" x="210.000000" y="270.268220" fill="rgb(0, 100, 0)" style="fill-opacity:0.24" />
<rect height="24.654123" width="10.000000" x="230.000000" y="270.268220" fill="rgb(0, 100, 0)" style="fill-opacity:0.24" />
<!-- End 'T' -->
<!-- Begin 'G' -->
<ellipse cx="235.000000" cy="304.407377" rx="25.000000" ry="9.485035" fill="rgb(255, 165, 0)" style="fill-opacity:0.24" />
<ellipse cx="235.000000" cy="304.407377" rx="16.666667" ry="6.323357" fill="rgb(255, 255, 255)" style="fill-opacity:1.00" />
<rect height="9.485035" width="25.000000" x="235.000000" y="299.664860" fill="rgb(255, 255, 255)" style="fill-opacity:1.00" />
<rect height="2.371259" width="25.000000" x="235.000000" y="306.778636" fill="rgb(255, 165, 0)" style="fill-opacity:0.24" />
<rect height="7.113776" width="6.250000" x="253.750000" y="306.778636" fill="rgb(255, 165, 0)" style="fill-opacity:0.24" />
<!-- End 'G' -->
<!-- Begin 'A' -->
<polygon points=" 210.000000, 330.000000, 231.000000, 313.892412, 239.000000, 313.892412, 260.000000, 330.000000, 252.500000, 330.000000, 246.250000, 325.973103, 223.750000, 325.973103, 217.500000, 330.000000" fill="rgb(178, 34, 34)" style="fill-opacity:0.24" />
<polygon points=" 235.000000, 317.113930, 227.000000, 322.556965, 242.000000, 322.556965" fill="rgb(255, 255, 255)" style="fill-opacity:1.00" />
<!-- End 'A' -->
<!-- Begin 'C' -->
<ellipse cx="235.000000" cy="360.351652" rx="25.000000" ry="20.351652" fill="rgb(0, 0, 128)" style="fill-opacity:0.28" />
<ellipse cx="235.000000" cy="360.351652" rx="16.666667" ry="13.567768" fill="rgb(255, 255, 255)" style="fill-opacity:1.00" />
<rect height="20.351652" width="25.000000" x="235.000000" y="350.175826" fill="rgb(255, 255, 255)" style="fill-opacity:1.00" />
<!-- End 'C' -->
<!-- Begin 'T' -->
<rect height="3.742263" width="50.000000" x="210.000000" y="380.703303" fill="rgb(0, 100, 0)" style="fill-opacity:0.28" />
<rect height="23.389142" width="10.000000" x="230.000000" y="380.703303" fill="rgb(0, 100, 0)" style="fill-opacity:0.28" />
<!-- End 'T' -->
<!-- Begin 'G' -->
<ellipse cx="235.000000" cy="414.847683" rx="25.000000" ry="10.755238" fill="rgb(255, 165, 0)" style="fill-opacity:0.28" />
<ellipse cx="235.000000" cy="414.847683" rx="16.666667" ry="7.170158" fill="rgb(255, 255, 255)" style="fill-opacity:1.00" />
<rect height="10.755238" width="25.000000" x="235.000000" y="409.470064" fill="rgb(255, 255, 255)" style="fill-opacity:1.00" />
<rect height="2.688809" width="25.000000" x="235.000000" y="417.536492" fill="rgb(255, 165, 0)" style="fill-opacity:0.28" />
<rect height="8.066428" width="6.250000" x="253.750000" y="417.536492" fill="rgb(255, 165, 0)" style="fill-opacity:0.28" />
<!-- End 'G' -->
<!-- Begin 'A' -->
<polygon points=" 210.000000, 440.000000, 231.000000, 425.602921, 239.000000, 425.602921, 260.000000, 440.000000, 252.500000, 440.000000, 246.250000, 436.400730, 223.750000, 436.400730, 217.500000, 440.000000" fill="rgb(178, 34, 34)" style="fill-opacity:0.28" />
<polygon points=" 235.000000, 428.482336, 227.000000, 433.241168, 242.000000, 433.241168" fill="rgb(255, 255, 255)" style="fill-opacity:1.00" />
<!-- End 'A' -->
<!-- Begin 'G' -->
<ellipse cx="295.000000" cy="34.238326" rx="25.000000" ry="24.238326" fill="rgb(255, 165, 0)" style="fill-opacity:0.14" />
<ellipse cx="295.000000" cy="34.238326" rx="16.666667" ry="16.158884" fill="rgb(255, 255, 255)" style="fill-opacity:1.00" />
<rect height="24.238326" width="25.000000" x="295.000000" y="22.119163" fill="rgb(255, 255, 255)" style="fill-opacity:1.00" />
<rect height="6.059582" width="25.000000" x="295.000000" y="40.297908" fill="rgb(255, 165, 0)" style="fill-opacity:0.14" />
<rect height="18.178745" width="6.250000" x="313.750000" y="40.297908" fill="rgb(255, 165, 0)" style="fill-opacity:0.14" />
<!-- End 'G' -->
<!-- Begin 'T' -->
<rect height="6.520255" width="50.000000" x="270.000000" y="58.476653" fill="rgb(0, 100, 0)" style="fill-opacity:0.14" />
<rect height="40.751593" width="10.000000" x="290.000000" y="58.476653" fill="rgb(0, 100, 0)" style="fill-opacity:0.14" />
<!-- End 'T' -->
<!-- Begin 'C' -->
<ellipse cx="295.000000" cy="102.848680" rx="25.000000" ry="3.620435" fill="rgb(0, 0, 128)" style="fill-opacity:0.14" />
<ellipse cx="295.000000" cy="102.848680" rx="16.666667" ry="2.413623" fill="rgb(255, 255, 255)" style="fill-opacity:1.00" />
<rect height="3.620435" width="25.000000" x="295.000000" y="101.038463" fill="rgb(255, 255, 255)" style="fill-opacity:1.00" />
<!-- End 'C' -->
<!-- Begin 'A' -->
<polygon points=" 270.000000, 110.000000, 291.000000, 106.469115, 299.000000, 106.469115, 320.000000, 110.000000, 312.500000, 110.000000, 306.250000, 109.117279, 283.750000, 109.117279, 277.500000, 110.000000" fill="rgb(178, 34, 34)" style="fill-opacity:0.14" />
<!-- End 'A' -->
<!-- Begin 'G' -->
<ellipse cx="295.000000" cy="146.496454" rx="25.000000" ry="26.496454" fill="rgb(255, 165, 0)" style="fill-opacity:0.44" />
<ellipse cx="295.000000" cy="146.496454" rx="16.666667" ry="17.664303" fill="rgb(255, 255, 255)" style="fill-opacity:1.00" />
<rect height="26.496454" width="25.000000" x="295.000000" y="133.248227" fill="rgb(255, 255, 255)" style="fill-opacity:1.00" />
<rect height="6.624114" width="25.000000" x="295.000000" y="153.120568" fill="rgb(255, 165, 0)" style="fill-opacity:0.44" />
<rect height="19.872341" width="6.250000" x="313.750000" y="153.120568" fill="rgb(255, 165, 0)" style="fill-opacity:0.44" />
<!-- End 'G' -->
<!-- Begin 'T' -->
<rect height="5.043274" width="50.000000" x="270.000000" y="172.992909" fill="rgb(0, 100, 0)" style="fill-opacity:0.44" />
<rect height="31.520461" width="10.000000" x="290.000000" y="172.992909" fill="rgb(0, 100, 0)" style="fill-opacity:0.44" />
<!-- End 'T' -->
<!-- Begin 'A' -->
<polygon points=" 270.000000, 217.673409, 291.000000, 204.513369, 299.000000, 204.513369, 320.000000, 217.673409, 312.500000, 217.673409, 306.250000, 214.383399, 283.750000, 214.383399, 277.500000, 217.673409" fill="rgb(178, 34, 34)" style="fill-opacity:0.44" />
<polygon points=" 295.000000, 207.145377, 287.000000, 211.409393, 302.000000, 211.409393" fill="rgb(255, 255, 255)" style="fill-opacity:1.00" />
<!-- End 'A' -->
<!-- Begin 'C' -->
<ellipse cx="295.000000" cy="218.836705" rx="25.000000" ry="1.163295" fill="rgb(0, 0, 128)" style="fill-opacity:0.44" />
<ellipse cx="295.000000" cy="218.836705" rx="16.666667" ry="0.775530" fill="rgb(255, 255, 255)" style="fill-opacity:1.00" />
<rect height="1.163295" width="25.000000" x="295.000000" y="218.255057" fill="rgb(255, 255, 255)" style="fill-opacity:1.00" />
<!-- End 'C' -->
<!-- Begin 'T' -->
<rect height="10.855519" width="50.000000" x="270.000000" y="230.000000" fill="rgb(0, 100, 0)" style="fill-opacity:0.18" />
<rect height="67.846997" width="10.000000" x="290.000000" y="230.000000" fill="rgb(0, 100, 0)" style="fill-opacity:0.18" />
<!-- End 'T' -->
<!-- Begin 'G' -->
<ellipse cx="295.000000" cy="311.285545" rx="25.000000" ry="13.438548" fill="rgb(255, 165, 0)" style="fill-opacity:0.18" />
<ellipse cx="295.000000" cy="311.285545" rx="16.666667" ry="8.959032" fill="rgb(255, 255, 255)" style="fill-opacity:1.00" />
<rect height="13.438548" width="25.000000" x="295.000000" y="304.566271" fill="rgb(255, 255, 255)" style="fill-opacity:1.00" />
<rect height="3.359637" width="25.000000" x="295.000000" y="314.645182" fill="rgb(255, 165, 0)" style="fill-opacity:0.18" />
<rect height="10.078911" width="6.250000" x="313.750000" y="314.645182" fill="rgb(255, 165, 0)" style="fill-opacity:0.18" />
<!-- End 'G' -->
<!-- Begin 'A' -->
<polygon points=" 270.000000, 328.041514, 291.000000, 324.724093, 299.000000, 324.724093, 320.000000, 328.041514, 312.500000, 328.041514, 306.250000, 327.212159, 283.750000, 327.212159, 277.500000, 328.041514" fill="rgb(178, 34, 34)" style="fill-opacity:0.18" />
<!-- End 'A' -->
<!-- Begin 'C' -->
<ellipse cx="295.000000" cy="329.020757" rx="25.000000" ry="0.979243" fill="rgb(0, 0, 128)" style="fill-opacity:0.18" />
<ellipse cx="295.000000" cy="329.020757" rx="16.666667" ry="0.652829" fill="rgb(255, 255, 255)" style="fill-opacity:1.00" />
<rect height="0.979243" width="25.000000" x="295.000000" y="328.531136" fill="rgb(255, 255, 255)" style="fill-opacity:1.00" />
<!-- End 'C' -->
<!-- Begin 'G' -->
<ellipse cx="295.000000" cy="364.011355" rx="25.000000" ry="24.011355" fill="rgb(255, 165, 0)" style="fill-opacity:0.24" />
<ellipse cx="295.000000" cy="364.011355" rx="16.666667" ry="16.007570" fill="rgb(255, 255, 255)" style="fill-opacity:1.00" />
<rect height="24.011355" width="25.000000" x="295.000000" y="352.005677" fill="rgb(255, 255, 255)" style="fill-opacity:1.00" />
<rect height="6.002839" width="25.000000" x="295.000000" y="370.014193" fill="rgb(255, 165, 0)" style="fill-opacity:0.24" />
<rect height="18.008516" width="6.250000" x="313.750000" y="370.014193" fill="rgb(255, 165, 0)" style="fill-opacity:0.24" />
<!-- End 'G' -->
<!-- Begin 'T' -->
<rect height="5.640308" width="50.000000" x="270.000000" y="388.022709" fill="rgb(0, 100, 0)" style="fill-opacity:0.24" />
<rect height="35.251922" width="10.000000" x="290.000000" y="388.022709" fill="rgb(0, 100, 0)" style="fill-opacity:0.24" />
<!-- End 'T' -->
<!-- Begin 'A' -->
<polygon points=" 270.000000, 434.418524, 291.000000, 423.274631, 299.000000, 423.274631, 320.000000, 434.418524, 312.500000, 434.418524, 306.250000, 431.632551, 283.750000, 431.632551, 277.500000, 434.418524" fill="rgb(178, 34, 34)" style="fill-opacity:0.24" />
<polygon points=" 295.000000, 425.503410, 287.000000, 428.960967, 302.000000, 428.960967" fill="rgb(255, 255, 255)" style="fill-opacity:1.00" />
<!-- End 'A' -->
<!-- Begin 'C' -->
<ellipse cx="295.000000" cy="437.209262" rx="25.000000" ry="2.790738" fill="rgb(0, 0, 128)" style="fill-opacity:0.24" />
<ellipse cx="295.000000" cy="437.209262" rx="16.666667" ry="1.860492" fill="rgb(255, 255, 255)" style="fill-opacity:1.00" />
<rect height="2.790738" width="25.000000" x="295.000000" y="435.813893" fill="rgb(255, 255, 255)" style="fill-opacity:1.00" />
<!-- End 'C' -->
<!-- Begin 'T' -->
<rect height="15.442321" width="50.000000" x="330.000000" y="10.000000" fill="rgb(0, 100, 0)" style="fill-opacity:0.10" />
<rect height="96.514504" width="10.000000" x="350.000000" y="10.000000" fill="rgb(0, 100, 0)" style="fill-opacity:0.10" />
<!-- End 'T' -->
<!-- Begin 'A' -->
<polygon points=" 330.000000, 109.883084, 351.000000, 106.514504, 359.000000, 106.514504, 380.000000, 109.883084, 372.500000, 109.883084, 366.250000, 109.040939, 343.750000, 109.040939, 337.500000, 109.883084" fill="rgb(178, 34, 34)" style="fill-opacity:0.10" />
<!-- End 'A' -->
<!-- Begin 'G' -->
<ellipse cx="355.000000" cy="109.920106" rx="25.000000" ry="0.037022" fill="rgb(255, 165, 0)" style="fill-opacity:0.10" />
<ellipse cx="355.000000" cy="109.920106" rx="16.666667" ry="0.024682" fill="rgb(255, 255, 255)" style="fill-opacity:1.00" />
<rect height="0.037022" width="25.000000" x="355.000000" y="109.901595" fill="rgb(255, 255, 255)" style="fill-opacity:1.00" />
<rect height="0.009256" width="25.000000" x="355.000000" y="109.929362" fill="rgb(255, 165, 0)" style="fill-opacity:0.10" />
<rect height="0.027767" width="6.250000" x="373.750000" y="109.929362" fill="rgb(255, 165, 0)" style="fill-opacity:0.10" />
<!-- End 'G' -->
<!-- Begin 'C' -->
<ellipse cx="355.000000" cy="109.978564" rx="25.000000" ry="0.021436" fill="rgb(0, 0, 128)" style="fill-opacity:0.10" />
<ellipse cx="355.000000" cy="109.978564" rx="16.666667" ry="0.014290" fill="rgb(255, 255, 255)" style="fill-opacity:1.00" />
<rect height="0.021436" width="25.000000" x="355.000000" y="109.967847" fill="rgb(255, 255, 255)" style="fill-opacity:1.00" />
<!-- End 'C' -->
<!-- Begin 'T' -->
<rect height="15.880620" width="50.000000" x="330.000000" y="120.000000" fill="rgb(0, 100, 0)" style="fill-opacity:0.04" />
<rect height="99.253874" width="10.000000" x="350.000000" y="120.000000" fill="rgb(0, 100, 0)" style="fill-opacity:0.04" />
<!-- End 'T' -->
<!-- Begin 'G' -->
<ellipse cx="355.000000" cy="219.601717" rx="25.000000" ry="0.347843" fill="rgb(255, 165, 0)" style="fill-opacity:0.04" />
<ellipse cx="355.000000" cy="219.601717" rx="16.666667" ry="0.231895" fill="rgb(255, 255, 255)" style="fill-opacity:1.00" />
<rect height="0.347843" width="25.000000" x="355.000000" y="219.427795" fill="rgb(255, 255, 255)" style="fill-opacity:1.00" />
<rect height="0.086961" width="25.000000" x="355.000000" y="219.688678" fill="rgb(255, 165, 0)" style="fill-opacity:0.04" />
<rect height="0.260882" width="6.250000" x="373.750000" y="219.688678" fill="rgb(255, 165, 0)" style="fill-opacity:0.04" />
<!-- End 'G' -->
<!-- Begin 'A' -->
<polygon points=" 330.000000, 219.993721, 351.000000, 219.949560, 359.000000, 219.949560, 380.000000, 219.993721, 372.500000, 219.993721, 366.250000, 219.982681, 343.750000, 219.982681, 337.500000, 219.993721" fill="rgb(178, 34, 34)" style="fill-opacity:0.04" />
<!-- End 'A' -->
<!-- Begin 'C' -->
<ellipse cx="355.000000" cy="219.996860" rx="25.000000" ry="0.003140" fill="rgb(0, 0, 128)" style="fill-opacity:0.04" />
<ellipse cx="355.000000" cy="219.996860" rx="16.666667" ry="0.002093" fill="rgb(255, 255, 255)" style="fill-opacity:1.00" />
<rect height="0.003140" width="25.000000" x="355.000000" y="219.995291" fill="rgb(255, 255, 255)" style="fill-opacity:1.00" />
<!-- End 'C' -->
<!-- Begin 'T' -->
<rect height="15.256197" width="50.000000" x="330.000000" y="230.000000" fill="rgb(0, 100, 0)" style="fill-opacity:0.47" />
<rect height="95.351232" width="10.000000" x="350.000000" y="230.000000" fill="rgb(0, 100, 0)" style="fill-opacity:0.47" />
<!-- End 'T' -->
<!-- Begin 'A' -->
<polygon points=" 330.000000, 327.772875, 351.000000, 325.351232, 359.000000, 325.351232, 380.000000, 327.772875, 372.500000, 327.772875, 366.250000, 327.167464, 343.750000, 327.167464, 337.500000, 327.772875" fill="rgb(178, 34, 34)" style="fill-opacity:0.47" />
<!-- End 'A' -->
<!-- Begin 'C' -->
<ellipse cx="355.000000" cy="328.694614" rx="25.000000" ry="0.921739" fill="rgb(0, 0, 128)" style="fill-opacity:0.47" />
<ellipse cx="355.000000" cy="328.694614" rx="16.666667" ry="0.614493" fill="rgb(255, 255, 255)" style="fill-opacity:1.00" />
<rect height="0.921739" width="25.000000" x="355.000000" y="328.233745" fill="rgb(255, 255, 255)" style="fill-opacity:1.00" />
<!-- End 'C' -->
<!-- Begin 'G' -->
<ellipse cx="355.000000" cy="329.808177" rx="25.000000" ry="0.191823" fill="rgb(255, 165, 0)" style="fill-opacity:0.47" />
<ellipse cx="355.000000" cy="329.808177" rx="16.666667" ry="0.127882" fill="rgb(255, 255, 255)" style="fill-opacity:1.00" />
<rect height="0.191823" width="25.000000" x="355.000000" y="329.712265" fill="rgb(255, 255, 255)" style="fill-opacity:1.00" />
<rect height="0.047956" width="25.000000" x="355.000000" y="329.856132" fill="rgb(255, 165, 0)" style="fill-opacity:0.47" />
<rect height="0.143868" width="6.250000" x="373.750000" y="329.856132" fill="rgb(255, 165, 0)" style="fill-opacity:0.47" />
<!-- End 'G' -->
<!-- Begin 'T' -->
<rect height="15.565333" width="50.000000" x="330.000000" y="340.000000" fill="rgb(0, 100, 0)" style="fill-opacity:0.40" />
<rect height="97.283332" width="10.000000" x="350.000000" y="340.000000" fill="rgb(0, 100, 0)" style="fill-opacity:0.40" />
<!-- End 'T' -->
<!-- Begin 'C' -->
<ellipse cx="355.000000" cy="438.265936" rx="25.000000" ry="0.982604" fill="rgb(0, 0, 128)" style="fill-opacity:0.40" />
<ellipse cx="355.000000" cy="438.265936" rx="16.666667" ry="0.655069" fill="rgb(255, 255, 255)" style="fill-opacity:1.00" />
<rect height="0.982604" width="25.000000" x="355.000000" y="437.774634" fill="rgb(255, 255, 255)" style="fill-opacity:1.00" />
<!-- End 'C' -->
<!-- Begin 'A' -->
<polygon points=" 330.000000, 439.946723, 351.000000, 439.248540, 359.000000, 439.248540, 380.000000, 439.946723, 372.500000, 439.946723, 366.250000, 439.772177, 343.750000, 439.772177, 337.500000, 439.946723" fill="rgb(178, 34, 34)" style="fill-opacity:0.40" />
<!-- End 'A' -->
<!-- Begin 'G' -->
<ellipse cx="355.000000" cy="439.973362" rx="25.000000" ry="0.026638" fill="rgb(255, 165, 0)" style="fill-opacity:0.40" />
<ellipse cx="355.000000" cy="439.973362" rx="16.666667" ry="0.017759" fill="rgb(255, 255, 255)" style="fill-opacity:1.00" />
<rect height="0.026638" width="25.000000" x="355.000000" y="439.960042" fill="rgb(255, 255, 255)" style="fill-opacity:1.00" />
<rect height="0.006660" width="25.000000" x="355.000000" y="439.980021" fill="rgb(255, 165, 0)" style="fill-opacity:0.40" />
<rect height="0.019979" width="6.250000" x="373.750000" y="439.980021" fill="rgb(255, 165, 0)" style="fill-opacity:0.40" />
<!-- End 'G' -->
<!-- Begin 'T' -->
<rect height="15.506470" width="50.000000" x="390.000000" y="10.000000" fill="rgb(0, 100, 0)" style="fill-opacity:0.02" />
<rect height="96.915440" width="10.000000" x="410.000000" y="10.000000" fill="rgb(0, 100, 0)" style="fill-opacity:0.02" />
<!-- End 'T' -->
<!-- Begin 'C' -->
<ellipse cx="415.000000" cy="107.901587" rx="25.000000" ry="0.986147" fill="rgb(0, 0, 128)" style="fill-opacity:0.02" />
<ellipse cx="415.000000" cy="107.901587" rx="16.666667" ry="0.657431" fill="rgb(255, 255, 255)" style="fill-opacity:1.00" />
<rect height="0.986147" width="25.000000" x="415.000000" y="107.408513" fill="rgb(255, 255, 255)" style="fill-opacity:1.00" />
<!-- End 'C' -->
<!-- Begin 'A' -->
<polygon points=" 390.000000, 109.982276, 411.000000, 108.887734, 419.000000, 108.887734, 440.000000, 109.982276, 432.500000, 109.982276, 426.250000, 109.708641, 403.750000, 109.708641, 397.500000, 109.982276" fill="rgb(178, 34, 34)" style="fill-opacity:0.02" />
<!-- End 'A' -->
<!-- Begin 'G' -->
<ellipse cx="415.000000" cy="109.991138" rx="25.000000" ry="0.008862" fill="rgb(255, 165, 0)" style="fill-opacity:0.02" />
<ellipse cx="415.000000" cy="109.991138" rx="16.666667" ry="0.005908" fill="rgb(255, 255, 255)" style="fill-opacity:1.00" />
<rect height="0.008862" width="25.000000" x="415.000000" y="109.986707" fill="rgb(255, 255, 255)" style="fill-opacity:1.00" />
<rect height="0.002215" width="25.000000" x="415.000000" y="109.993354" fill="rgb(255, 165, 0)" style="fill-opacity:0.02" />
<rect height="0.006646" width="6.250000" x="433.750000" y="109.993354" fill="rgb(255, 165, 0)" style="fill-opacity:0.02" />
<!-- End 'G' -->
<!-- Begin 'T' -->
<rect height="15.976918" width="50.000000" x="390.000000" y="120.000000" fill="rgb(0, 100, 0)" style="fill-opacity:0.02" />
<rect height="99.855735" width="10.000000" x="410.000000" y="120.000000" fill="rgb(0, 100, 0)" style="fill-opacity:0.02" />
<!-- End 'T' -->
<!-- Begin 'C' -->
<ellipse cx="415.000000" cy="219.922630" rx="25.000000" ry="0.066895" fill="rgb(0, 0, 128)" style="fill-opacity:0.02" />
<ellipse cx="415.000000" cy="219.922630" rx="16.666667" ry="0.044597" fill="rgb(255, 255, 255)" style="fill-opacity:1.00" />
<rect height="0.066895" width="25.000000" x="415.000000" y="219.889183" fill="rgb(255, 255, 255)" style="fill-opacity:1.00" />
<!-- End 'C' -->
<!-- Begin 'A' -->
<polygon points=" 390.000000, 219.998467, 411.000000, 219.989525, 419.000000, 219.989525, 440.000000, 219.998467, 432.500000, 219.998467, 426.250000, 219.996232, 403.750000, 219.996232, 397.500000, 219.998467" fill="rgb(178, 34, 34)" style="fill-opacity:0.02" />
<!-- End 'A' -->
<!-- Begin 'G' -->
<ellipse cx="415.000000" cy="219.999234" rx="25.000000" ry="0.000766" fill="rgb(255, 165, 0)" style="fill-opacity:0.02" />
<ellipse cx="415.000000" cy="219.999234" rx="16.666667" ry="0.000511" fill="rgb(255, 255, 255)" style="fill-opacity:1.00" />
<rect height="0.000766" width="25.000000" x="415.000000" y="219.998850" fill="rgb(255, 255, 255)" style="fill-opacity:1.00" />
<rect height="0.000192" width="25.000000" x="415.000000" y="219.999425" fill="rgb(255, 165, 0)" style="fill-opacity:0.02" />
<rect height="0.000575" width="6.250000" x="433.750000" y="219.999425" fill="rgb(255, 165, 0)" style="fill-opacity:0.02" />
<!-- End 'G' -->
<!-- Begin 'T' -->
<rect height="15.933114" width="50.000000" x="390.000000" y="230.000000" fill="rgb(0, 100, 0)" style="fill-opacity:0.00" />
<rect height="99.581965" width="10.000000" x="410.000000" y="230.000000" fill="rgb(0, 100, 0)" style="fill-opacity:0.00" />
<!-- End 'T' -->
<!-- Begin 'A' -->
<polygon points=" 390.000000, 329.789347, 411.000000, 329.581965, 419.000000, 329.581965, 440.000000, 329.789347, 432.500000, 329.789347, 426.250000, 329.737502, 403.750000, 329.737502, 397.500000, 329.789347" fill="rgb(178, 34, 34)" style="fill-opacity:0.00" />
<!-- End 'A' -->
<!-- Begin 'C' -->
<ellipse cx="415.000000" cy="329.888331" rx="25.000000" ry="0.098984" fill="rgb(0, 0, 128)" style="fill-opacity:0.00" />
<ellipse cx="415.000000" cy="329.888331" rx="16.666667" ry="0.065989" fill="rgb(255, 255, 255)" style="fill-opacity:1.00" />
<rect height="0.098984" width="25.000000" x="415.000000" y="329.838839" fill="rgb(255, 255, 255)" style="fill-opacity:1.00" />
<!-- End 'C' -->
<!-- Begin 'G' -->
<ellipse cx="415.000000" cy="329.993657" rx="25.000000" ry="0.006343" fill="rgb(255, 165, 0)" style="fill-opacity:0.00" />
<ellipse cx="415.000000" cy="329.993657" rx="16.666667" ry="0.004228" fill="rgb(255, 255, 255)" style="fill-opacity:1.00" />
<rect height="0.006343" width="25.000000" x="415.000000" y="329.990486" fill="rgb(255, 255, 255)" style="fill-opacity:1.00" />
<rect height="0.001586" width="25.000000" x="415.000000" y="329.995243" fill="rgb(255, 165, 0)" style="fill-opacity:0.00" />
<rect height="0.004757" width="6.250000" x="433.750000" y="329.995243" fill="rgb(255, 165, 0)" style="fill-opacity:0.00" />
<!-- End 'G' -->
<!-- Begin 'T' -->
<rect height="15.794727" width="50.000000" x="390.000000" y="340.000000" fill="rgb(0, 100, 0)" style="fill-opacity:0.96" />
<rect height="98.717041" width="10.000000" x="410.000000" y="340.000000" fill="rgb(0, 100, 0)" style="fill-opacity:0.96" />
<!-- End 'T' -->
<!-- Begin 'G' -->
<ellipse cx="415.000000" cy="439.196711" rx="25.000000" ry="0.479670" fill="rgb(255, 165, 0)" style="fill-opacity:0.96" />
<ellipse cx="415.000000" cy="439.196711" rx="16.666667" ry="0.319780" fill="rgb(255, 255, 255)" style="fill-opacity:1.00" />
<rect height="0.479670" width="25.000000" x="415.000000" y="438.956876" fill="rgb(255, 255, 255)" style="fill-opacity:1.00" />
<rect height="0.119917" width="25.000000" x="415.000000" y="439.316629" fill="rgb(255, 165, 0)" style="fill-opacity:0.96" />
<rect height="0.359752" width="6.250000" x="433.750000" y="439.316629" fill="rgb(255, 165, 0)" style="fill-opacity:0.96" />
<!-- End 'G' -->
<!-- Begin 'A' -->
<polygon points=" 390.000000, 439.911979, 411.000000, 439.676381, 419.000000, 439.676381, 440.000000, 439.911979, 432.500000, 439.911979, 426.250000, 439.853080, 403.750000, 439.853080, 397.500000, 439.911979" fill="rgb(178, 34, 34)" style="fill-opacity:0.96" />
<!-- End 'A' -->
<!-- Begin 'C' -->
<ellipse cx="415.000000" cy="439.955990" rx="25.000000" ry="0.044010" fill="rgb(0, 0, 128)" style="fill-opacity:0.96" />
<ellipse cx="415.000000" cy="439.955990" rx="16.666667" ry="0.029340" fill="rgb(255, 255, 255)" style="fill-opacity:1.00" />
<rect height="0.044010" width="25.000000" x="415.000000" y="439.933984" fill="rgb(255, 255, 255)" style="fill-opacity:1.00" />
<!-- End 'C' -->
<!-- Begin 'G' -->
<ellipse cx="475.000000" cy="59.720064" rx="25.000000" ry="49.720064" fill="rgb(255, 165, 0)" style="fill-opacity:0.00" />
<ellipse cx="475.000000" cy="59.720064" rx="16.666667" ry="33.146709" fill="rgb(255, 255, 255)" style="fill-opacity:1.00" />
<rect height="49.720064" width="25.000000" x="475.000000" y="34.860032" fill="rgb(255, 255, 255)" style="fill-opacity:1.00" />
<rect height="12.430016" width="25.000000" x="475.000000" y="72.150080" fill="rgb(255, 165, 0)" style="fill-opacity:0.00" />
<rect height="37.290048" width="6.250000" x="493.750000" y="72.150080" fill="rgb(255, 165, 0)" style="fill-opacity:0.00" />
<!-- End 'G' -->
<!-- Begin 'T' -->
<rect height="0.039057" width="50.000000" x="450.000000" y="109.440128" fill="rgb(0, 100, 0)" style="fill-opacity:0.00" />
<rect height="0.244104" width="10.000000" x="470.000000" y="109.440128" fill="rgb(0, 100, 0)" style="fill-opacity:0.00" />
<!-- End 'T' -->
<!-- Begin 'C' -->
<ellipse cx="475.000000" cy="109.773083" rx="25.000000" ry="0.088852" fill="rgb(0, 0, 128)" style="fill-opacity:0.00" />
<ellipse cx="475.000000" cy="109.773083" rx="16.666667" ry="0.059235" fill="rgb(255, 255, 255)" style="fill-opacity:1.00" />
<rect height="0.088852" width="25.000000" x="475.000000" y="109.728657" fill="rgb(255, 255, 255)" style="fill-opacity:1.00" />
<!-- End 'C' -->
<!-- Begin 'A' -->
<polygon points=" 450.000000, 110.000000, 471.000000, 109.861935, 479.000000, 109.861935, 500.000000, 110.000000, 492.500000, 110.000000, 486.250000, 109.965484, 463.750000, 109.965484, 457.500000, 110.000000" fill="rgb(178, 34, 34)" style="fill-opacity:0.00" />
<!-- End 'A' -->
<!-- Begin 'G' -->
<ellipse cx="475.000000" cy="146.318708" rx="25.000000" ry="26.318708" fill="rgb(255, 165, 0)" style="fill-opacity:0.00" />
<ellipse cx="475.000000" cy="146.318708" rx="16.666667" ry="17.545805" fill="rgb(255, 255, 255)" style="fill-opacity:1.00" />
<rect height="26.318708" width="25.000000" x="475.000000" y="133.159354" fill="rgb(255, 255, 255)" style="fill-opacity:1.00" />
<rect height="6.579677" width="25.000000" x="475.000000" y="152.898385" fill="rgb(255, 165, 0)" style="fill-opacity:0.00" />
<rect height="19.739031" width="6.250000" x="493.750000" y="152.898385" fill="rgb(255, 165, 0)" style="fill-opacity:0.00" />
<!-- End 'G' -->
<!-- Begin 'A' -->
<polygon points=" 450.000000, 218.669324, 471.000000, 172.637415, 479.000000, 172.637415, 500.000000, 218.669324, 492.500000, 218.669324, 486.250000, 207.161347, 463.750000, 207.161347, 457.500000, 218.669324" fill="rgb(178, 34, 34)" style="fill-opacity:0.00" />
<polygon points=" 475.000000, 181.843797, 467.000000, 199.256561, 482.000000, 199.256561" fill="rgb(255, 255, 255)" style="fill-opacity:1.00" />
<!-- End 'A' -->
<!-- Begin 'T' -->
<rect height="0.164546" width="50.000000" x="450.000000" y="218.669324" fill="rgb(0, 100, 0)" style="fill-opacity:0.00" />
<rect height="1.028413" width="10.000000" x="470.000000" y="218.669324" fill="rgb(0, 100, 0)" style="fill-opacity:0.00" />
<!-- End 'T' -->
<!-- Begin 'C' -->
<ellipse cx="475.000000" cy="219.848869" rx="25.000000" ry="0.151131" fill="rgb(0, 0, 128)" style="fill-opacity:0.00" />
<ellipse cx="475.000000" cy="219.848869" rx="16.666667" ry="0.100754" fill="rgb(255, 255, 255)" style="fill-opacity:1.00" />
<rect height="0.151131" width="25.000000" x="475.000000" y="219.773303" fill="rgb(255, 255, 255)" style="fill-opacity:1.00" />
<!-- End 'C' -->
<!-- Begin 'G' -->
<ellipse cx="475.000000" cy="279.972268" rx="25.000000" ry="49.972268" fill="rgb(255, 165, 0)" style="fill-opacity:0.01" />
<ellipse cx="475.000000" cy="279.972268" rx="16.666667" ry="33.314846" fill="rgb(255, 255, 255)" style="fill-opacity:1.00" />
<rect height="49.972268" width="25.000000" x="475.000000" y="254.986134" fill="rgb(255, 255, 255)" style="fill-opacity:1.00" />
<rect height="12.493067" width="25.000000" x="475.000000" y="292.465335" fill="rgb(255, 165, 0)" style="fill-opacity:0.01" />
<rect height="37.479201" width="6.250000" x="493.750000" y="292.465335" fill="rgb(255, 165, 0)" style="fill-opacity:0.01" />
<!-- End 'G' -->
<!-- Begin 'A' -->
<polygon points=" 450.000000, 329.972569, 471.000000, 329.944537, 479.000000, 329.944537, 500.000000, 329.972569, 492.500000, 329.972569, 486.250000, 329.965561, 463.750000, 329.965561, 457.500000, 329.972569" fill="rgb(178, 34, 34)" style="fill-opacity:0.01" />
<!-- End 'A' -->
<!-- Begin 'C' -->
<ellipse cx="475.000000" cy="329.985325" rx="25.000000" ry="0.012756" fill="rgb(0, 0, 128)" style="fill-opacity:0.01" />
<ellipse cx="475.000000" cy="329.985325" rx="16.666667" ry="0.008504" fill="rgb(255, 255, 255)" style="fill-opacity:1.00" />
<rect height="0.012756" width="25.000000" x="475.000000" y="329.978947" fill="rgb(255, 255, 255)" style="fill-opacity:1.00" />
<!-- End 'C' -->
<!-- Begin 'T' -->
<rect height="0.000307" width="50.000000" x="450.000000" y="329.998081" fill="rgb(0, 100, 0)" style="fill-opacity:0.01" />
<rect height="0.001919" width="10.000000" x="470.000000" y="329.998081" fill="rgb(0, 100, 0)" style="fill-opacity:0.01" />
<!-- End 'T' -->
<!-- Begin 'G' -->
<ellipse cx="475.000000" cy="389.600515" rx="25.000000" ry="49.600515" fill="rgb(255, 165, 0)" style="fill-opacity:0.99" />
<ellipse cx="475.000000" cy="389.600515" rx="16.666667" ry="33.067010" fill="rgb(255, 255, 255)" style="fill-opacity:1.00" />
<rect height="49.600515" width="25.000000" x="475.000000" y="364.800257" fill="rgb(255, 255, 255)" style="fill-opacity:1.00" />
<rect height="12.400129" width="25.000000" x="475.000000" y="402.000644" fill="rgb(255, 165, 0)" style="fill-opacity:0.99" />
<rect height="37.200386" width="6.250000" x="493.750000" y="402.000644" fill="rgb(255, 165, 0)" style="fill-opacity:0.99" />
<!-- End 'G' -->
<!-- Begin 'T' -->
<rect height="0.091401" width="50.000000" x="450.000000" y="439.201030" fill="rgb(0, 100, 0)" style="fill-opacity:0.99" />
<rect height="0.571259" width="10.000000" x="470.000000" y="439.201030" fill="rgb(0, 100, 0)" style="fill-opacity:0.99" />
<!-- End 'T' -->
<!-- Begin 'A' -->
<polygon points=" 450.000000, 439.926343, 471.000000, 439.772289, 479.000000, 439.772289, 500.000000, 439.926343, 492.500000, 439.926343, 486.250000, 439.887829, 463.750000, 439.887829, 457.500000, 439.926343" fill="rgb(178, 34, 34)" style="fill-opacity:0.99" />
<!-- End 'A' -->
<!-- Begin 'C' -->
<ellipse cx="475.000000" cy="439.963171" rx="25.000000" ry="0.036829" fill="rgb(0, 0, 128)" style="fill-opacity:0.99" />
<ellipse cx="475.000000" cy="439.963171" rx="16.666667" ry="0.024552" fill="rgb(255, 255, 255)" style="fill-opacity:1.00" />
<rect height="0.036829" width="25.000000" x="475.000000" y="439.944757" fill="rgb(255, 255, 255)" style="fill-opacity:1.00" />
<!-- End 'C' -->
<!-- Begin 'A' -->
<polygon points=" 510.000000, 109.636899, 531.000000, 10.000000, 539.000000, 10.000000, 560.000000, 109.636899, 552.500000, 109.636899, 546.250000, 84.727674, 523.750000, 84.727674, 517.500000, 109.636899" fill="rgb(178, 34, 34)" style="fill-opacity:0.00" />
<polygon points=" 535.000000, 29.927380, 527.000000, 68.782139, 542.000000, 68.782139" fill="rgb(255, 255, 255)" style="fill-opacity:1.00" />
<!-- End 'A' -->
<!-- Begin 'G' -->
<ellipse cx="535.000000" cy="109.752429" rx="25.000000" ry="0.115530" fill="rgb(255, 165, 0)" style="fill-opacity:0.00" />
<ellipse cx="535.000000" cy="109.752429" rx="16.666667" ry="0.077020" fill="rgb(255, 255, 255)" style="fill-opacity:1.00" />
<rect height="0.115530" width="25.000000" x="535.000000" y="109.694664" fill="rgb(255, 255, 255)" style="fill-opacity:1.00" />
<rect height="0.028882" width="25.000000" x="535.000000" y="109.781311" fill="rgb(255, 165, 0)" style="fill-opacity:0.00" />
<rect height="0.086647" width="6.250000" x="553.750000" y="109.781311" fill="rgb(255, 165, 0)" style="fill-opacity:0.00" />
<!-- End 'G' -->
<!-- Begin 'T' -->
<rect height="0.012363" width="50.000000" x="510.000000" y="109.867958" fill="rgb(0, 100, 0)" style="fill-opacity:0.00" />
<rect height="0.077268" width="10.000000" x="530.000000" y="109.867958" fill="rgb(0, 100, 0)" style="fill-opacity:0.00" />
<!-- End 'T' -->
<!-- Begin 'C' -->
<ellipse cx="535.000000" cy="109.972613" rx="25.000000" ry="0.027387" fill="rgb(0, 0, 128)" style="fill-opacity:0.00" />
<ellipse cx="535.000000" cy="109.972613" rx="16.666667" ry="0.018258" fill="rgb(255, 255, 255)" style="fill-opacity:1.00" />
<rect height="0.027387" width="25.000000" x="535.000000" y="109.958920" fill="rgb(255, 255, 255)" style="fill-opacity:1.00" />
<!-- End 'C' -->
<!-- Begin 'A' -->
<polygon points=" 510.000000, 218.781508, 531.000000, 120.000000, 539.000000, 120.000000, 560.000000, 218.781508, 552.500000, 218.781508, 546.250000, 194.086131, 523.750000, 194.086131, 517.500000, 218.781508" fill="rgb(178, 34, 34)" style="fill-opacity:0.00" />
<polygon points=" 535.000000, 139.756302, 527.000000, 178.268905, 542.000000, 178.268905" fill="rgb(255, 255, 255)" style="fill-opacity:1.00" />
<!-- End 'A' -->
<!-- Begin 'C' -->
<ellipse cx="535.000000" cy="219.172241" rx="25.000000" ry="0.390733" fill="rgb(0, 0, 128)" style="fill-opacity:0.00" />
<ellipse cx="535.000000" cy="219.172241" rx="16.666667" ry="0.260489" fill="rgb(255, 255, 255)" style="fill-opacity:1.00" />
<rect height="0.390733" width="25.000000" x="535.000000" y="218.976874" fill="rgb(255, 255, 255)" style="fill-opacity:1.00" />
<!-- End 'C' -->
<!-- Begin 'T' -->
<rect height="0.062874" width="50.000000" x="510.000000" y="219.562974" fill="rgb(0, 100, 0)" style="fill-opacity:0.00" />
<rect height="0.392961" width="10.000000" x="530.000000" y="219.562974" fill="rgb(0, 100, 0)" style="fill-opacity:0.00" />
<!-- End 'T' -->
<!-- Begin 'G' -->
<ellipse cx="535.000000" cy="219.977967" rx="25.000000" ry="0.022033" fill="rgb(255, 165, 0)" style="fill-opacity:0.00" />
<ellipse cx="535.000000" cy="219.977967" rx="16.666667" ry="0.014688" fill="rgb(255, 255, 255)" style="fill-opacity:1.00" />
<rect height="0.022033" width="25.000000" x="535.000000" y="219.966951" fill="rgb(255, 255, 255)" style="fill-opacity:1.00" />
<rect height="0.005508" width="25.000000" x="535.000000" y="219.983476" fill="rgb(255, 165, 0)" style="fill-opacity:0.00" />
<rect height="0.016524" width="6.250000" x="553.750000" y="219.983476" fill="rgb(255, 165, 0)" style="fill-opacity:0.00" />
<!-- End 'G' -->
<!-- Begin 'A' -->
<polygon points=" 510.000000, 329.293982, 531.000000, 230.000000, 539.000000, 230.000000, 560.000000, 329.293982, 552.500000, 329.293982, 546.250000, 304.470487, 523.750000, 304.470487, 517.500000, 329.293982" fill="rgb(178, 34, 34)" style="fill-opacity:0.99" />
<polygon points=" 535.000000, 249.858796, 527.000000, 288.576389, 542.000000, 288.576389" fill="rgb(255, 255, 255)" style="fill-opacity:1.00" />
<!-- End 'A' -->
<!-- Begin 'G' -->
<ellipse cx="535.000000" cy="329.504803" rx="25.000000" ry="0.210820" fill="rgb(255, 165, 0)" style="fill-opacity:0.99" />
<ellipse cx="535.000000" cy="329.504803" rx="16.666667" ry="0.140547" fill="rgb(255, 255, 255)" style="fill-opacity:1.00" />
<rect height="0.210820" width="25.000000" x="535.000000" y="329.399393" fill="rgb(255, 255, 255)" style="fill-opacity:1.00" />
<rect height="0.052705" width="25.000000" x="535.000000" y="329.557508" fill="rgb(255, 165, 0)" style="fill-opacity:0.99" />
<rect height="0.158115" width="6.250000" x="553.750000" y="329.557508" fill="rgb(255, 165, 0)" style="fill-opacity:0.99" />
<!-- End 'G' -->
<!-- Begin 'C' -->
<ellipse cx="535.000000" cy="329.829818" rx="25.000000" ry="0.114195" fill="rgb(0, 0, 128)" style="fill-opacity:0.99" />
<ellipse cx="535.000000" cy="329.829818" rx="16.666667" ry="0.076130" fill="rgb(255, 255, 255)" style="fill-opacity:1.00" />
<rect height="0.114195" width="25.000000" x="535.000000" y="329.772721" fill="rgb(255, 255, 255)" style="fill-opacity:1.00" />
<!-- End 'C' -->
<!-- Begin 'T' -->
<rect height="0.008958" width="50.000000" x="510.000000" y="329.944014" fill="rgb(0, 100, 0)" style="fill-opacity:0.99" />
<rect height="0.055986" width="10.000000" x="530.000000" y="329.944014" fill="rgb(0, 100, 0)" style="fill-opacity:0.99" />
<!-- End 'T' -->
<!-- Begin 'A' -->
<polygon points=" 510.000000, 439.275831, 531.000000, 340.000000, 539.000000, 340.000000, 560.000000, 439.275831, 552.500000, 439.275831, 546.250000, 414.456873, 523.750000, 414.456873, 517.500000, 439.275831" fill="rgb(178, 34, 34)" style="fill-opacity:0.01" />
<polygon points=" 535.000000, 359.855166, 527.000000, 398.565499, 542.000000, 398.565499" fill="rgb(255, 255, 255)" style="fill-opacity:1.00" />
<!-- End 'A' -->
<!-- Begin 'T' -->
<rect height="0.087831" width="50.000000" x="510.000000" y="439.275831" fill="rgb(0, 100, 0)" style="fill-opacity:0.01" />
<rect height="0.548944" width="10.000000" x="530.000000" y="439.275831" fill="rgb(0, 100, 0)" style="fill-opacity:0.01" />
<!-- End 'T' -->
<!-- Begin 'C' -->
<ellipse cx="535.000000" cy="439.873282" rx="25.000000" ry="0.048507" fill="rgb(0, 0, 128)" style="fill-opacity:0.01" />
<ellipse cx="535.000000" cy="439.873282" rx="16.666667" ry="0.032338" fill="rgb(255, 255, 255)" style="fill-opacity:1.00" />
<rect height="0.048507" width="25.000000" x="535.000000" y="439.849029" fill="rgb(255, 255, 255)" style="fill-opacity:1.00" />
<!-- End 'C' -->
<!-- Begin 'G' -->
<ellipse cx="535.000000" cy="439.960894" rx="25.000000" ry="0.039106" fill="rgb(255, 165, 0)" style="fill-opacity:0.01" />
<ellipse cx="535.000000" cy="439.960894" rx="16.666667" ry="0.026070" fill="rgb(255, 255, 255)" style="fill-opacity:1.00" />
<rect height="0.039106" width="25.000000" x="535.000000" y="439.941342" fill="rgb(255, 255, 255)" style="fill-opacity:1.00" />
<rect height="0.009776" width="25.000000" x="535.000000" y="439.970671" fill="rgb(255, 165, 0)" style="fill-opacity:0.01" />
<rect height="0.029329" width="6.250000" x="553.750000" y="439.970671" fill="rgb(255, 165, 0)" style="fill-opacity:0.01" />
<!-- End 'G' -->
<!-- Begin 'C' -->
<ellipse cx="595.000000" cy="59.160688" rx="25.000000" ry="49.160688" fill="rgb(0, 0, 128)" style="fill-opacity:0.99" />
<ellipse cx="595.000000" cy="59.160688" rx="16.666667" ry="32.773792" fill="rgb(255, 255, 255)" style="fill-opacity:1.00" />
<rect height="49.160688" width="25.000000" x="595.000000" y="34.580344" fill="rgb(255, 255, 255)" style="fill-opacity:1.00" />
<!-- End 'C' -->
<!-- Begin 'T' -->
<rect height="0.153992" width="50.000000" x="570.000000" y="108.321375" fill="rgb(0, 100, 0)" style="fill-opacity:0.99" />
<rect height="0.962449" width="10.000000" x="590.000000" y="108.321375" fill="rgb(0, 100, 0)" style="fill-opacity:0.99" />
<!-- End 'T' -->
<!-- Begin 'A' -->
<polygon points=" 570.000000, 109.774034, 591.000000, 109.283824, 599.000000, 109.283824, 620.000000, 109.774034, 612.500000, 109.774034, 606.250000, 109.651481, 583.750000, 109.651481, 577.500000, 109.774034" fill="rgb(178, 34, 34)" style="fill-opacity:0.99" />
<!-- End 'A' -->
<!-- Begin 'G' -->
<ellipse cx="595.000000" cy="109.887017" rx="25.000000" ry="0.112983" fill="rgb(255, 165, 0)" style="fill-opacity:0.99" />
<ellipse cx="595.000000" cy="109.887017" rx="16.666667" ry="0.075322" fill="rgb(255, 255, 255)" style="fill-opacity:1.00" />
<rect height="0.112983" width="25.000000" x="595.000000" y="109.830525" fill="rgb(255, 255, 255)" style="fill-opacity:1.00" />
<rect height="0.028246" width="25.000000" x="595.000000" y="109.915263" fill="rgb(255, 165, 0)" style="fill-opacity:0.99" />
<rect height="0.084737" width="6.250000" x="613.750000" y="109.915263" fill="rgb(255, 165, 0)" style="fill-opacity:0.99" />
<!-- End 'G' -->
<!-- Begin 'C' -->
<ellipse cx="595.000000" cy="169.869473" rx="25.000000" ry="49.869473" fill="rgb(0, 0, 128)" style="fill-opacity:0.00" />
<ellipse cx="595.000000" cy="169.869473" rx="16.666667" ry="33.246315" fill="rgb(255, 255, 255)" style="fill-opacity:1.00" />
<rect height="49.869473" width="25.000000" x="595.000000" y="144.934736" fill="rgb(255, 255, 255)" style="fill-opacity:1.00" />
<!-- End 'C' -->
<!-- Begin 'A' -->
<polygon points=" 570.000000, 219.862682, 591.000000, 219.738945, 599.000000, 219.738945, 620.000000, 219.862682, 612.500000, 219.862682, 606.250000, 219.831748, 583.750000, 219.831748, 577.500000, 219.862682" fill="rgb(178, 34, 34)" style="fill-opacity:0.00" />
<!-- End 'A' -->
<!-- Begin 'T' -->
<rect height="0.014666" width="50.000000" x="570.000000" y="219.862682" fill="rgb(0, 100, 0)" style="fill-opacity:0.00" />
<rect height="0.091663" width="10.000000" x="590.000000" y="219.862682" fill="rgb(0, 100, 0)" style="fill-opacity:0.00" />
<!-- End 'T' -->
<!-- Begin 'G' -->
<ellipse cx="595.000000" cy="219.977173" rx="25.000000" ry="0.022827" fill="rgb(255, 165, 0)" style="fill-opacity:0.00" />
<ellipse cx="595.000000" cy="219.977173" rx="16.666667" ry="0.015218" fill="rgb(255, 255, 255)" style="fill-opacity:1.00" />
<rect height="0.022827" width="25.000000" x="595.000000" y="219.965759" fill="rgb(255, 255, 255)" style="fill-opacity:1.00" />
<rect height="0.005707" width="25.000000" x="595.000000" y="219.982879" fill="rgb(255, 165, 0)" style="fill-opacity:0.00" />
<rect height="0.017121" width="6.250000" x="613.750000" y="219.982879" fill="rgb(255, 165, 0)" style="fill-opacity:0.00" />
<!-- End 'G' -->
<!-- Begin 'C' -->
<ellipse cx="595.000000" cy="257.682182" rx="25.000000" ry="27.682182" fill="rgb(0, 0, 128)" style="fill-opacity:0.00" />
<ellipse cx="595.000000" cy="257.682182" rx="16.666667" ry="18.454788" fill="rgb(255, 255, 255)" style="fill-opacity:1.00" />
<rect height="27.682182" width="25.000000" x="595.000000" y="243.841091" fill="rgb(255, 255, 255)" style="fill-opacity:1.00" />
<!-- End 'C' -->
<!-- Begin 'T' -->
<rect height="6.737744" width="50.000000" x="570.000000" y="285.364365" fill="rgb(0, 100, 0)" style="fill-opacity:0.00" />
<rect height="42.110903" width="10.000000" x="590.000000" y="285.364365" fill="rgb(0, 100, 0)" style="fill-opacity:0.00" />
<!-- End 'T' -->
<!-- Begin 'A' -->
<polygon points=" 570.000000, 329.957445, 591.000000, 327.475267, 599.000000, 327.475267, 620.000000, 329.957445, 612.500000, 329.957445, 606.250000, 329.336901, 583.750000, 329.336901, 577.500000, 329.957445" fill="rgb(178, 34, 34)" style="fill-opacity:0.00" />
<!-- End 'A' -->
<!-- Begin 'G' -->
<ellipse cx="595.000000" cy="329.978722" rx="25.000000" ry="0.021278" fill="rgb(255, 165, 0)" style="fill-opacity:0.00" />
<ellipse cx="595.000000" cy="329.978722" rx="16.666667" ry="0.014185" fill="rgb(255, 255, 255)" style="fill-opacity:1.00" />
<rect height="0.021278" width="25.000000" x="595.000000" y="329.968084" fill="rgb(255, 255, 255)" style="fill-opacity:1.00" />
<rect height="0.005319" width="25.000000" x="595.000000" y="329.984042" fill="rgb(255, 165, 0)" style="fill-opacity:0.00" />
<rect height="0.015958" width="6.250000" x="613.750000" y="329.984042" fill="rgb(255, 165, 0)" style="fill-opacity:0.00" />
<!-- End 'G' -->
<!-- Begin 'C' -->
<ellipse cx="595.000000" cy="387.715246" rx="25.000000" ry="47.715246" fill="rgb(0, 0, 128)" style="fill-opacity:0.00" />
<ellipse cx="595.000000" cy="387.715246" rx="16.666667" ry="31.810164" fill="rgb(255, 255, 255)" style="fill-opacity:1.00" />
<rect height="47.715246" width="25.000000" x="595.000000" y="363.857623" fill="rgb(255, 255, 255)" style="fill-opacity:1.00" />
<!-- End 'C' -->
<!-- Begin 'T' -->
<rect height="0.484660" width="50.000000" x="570.000000" y="435.430493" fill="rgb(0, 100, 0)" style="fill-opacity:0.00" />
<rect height="3.029127" width="10.000000" x="590.000000" y="435.430493" fill="rgb(0, 100, 0)" style="fill-opacity:0.00" />
<!-- End 'T' -->
<!-- Begin 'G' -->
<ellipse cx="595.000000" cy="438.849660" rx="25.000000" ry="0.390041" fill="rgb(255, 165, 0)" style="fill-opacity:0.00" />
<ellipse cx="595.000000" cy="438.849660" rx="16.666667" ry="0.260027" fill="rgb(255, 255, 255)" style="fill-opacity:1.00" />
<rect height="0.390041" width="25.000000" x="595.000000" y="438.654640" fill="rgb(255, 255, 255)" style="fill-opacity:1.00" />
<rect height="0.097510" width="25.000000" x="595.000000" y="438.947170" fill="rgb(255, 165, 0)" style="fill-opacity:0.00" />
<rect height="0.292531" width="6.250000" x="613.750000" y="438.947170" fill="rgb(255, 165, 0)" style="fill-opacity:0.00" />
<!-- End 'G' -->
<!-- Begin 'A' -->
<polygon points=" 570.000000, 440.000000, 591.000000, 439.239701, 599.000000, 439.239701, 620.000000, 440.000000, 612.500000, 440.000000, 606.250000, 439.809925, 583.750000, 439.809925, 577.500000, 440.000000" fill="rgb(178, 34, 34)" style="fill-opacity:0.00" />
<!-- End 'A' -->
<!-- Begin 'T' -->
<rect height="10.995303" width="50.000000" x="630.000000" y="10.000000" fill="rgb(0, 100, 0)" style="fill-opacity:0.00" />
<rect height="68.720645" width="10.000000" x="650.000000" y="10.000000" fill="rgb(0, 100, 0)" style="fill-opacity:0.00" />
<!-- End 'T' -->
<!-- Begin 'C' -->
<ellipse cx="655.000000" cy="91.796305" rx="25.000000" ry="13.075660" fill="rgb(0, 0, 128)" style="fill-opacity:0.00" />
<ellipse cx="655.000000" cy="91.796305" rx="16.666667" ry="8.717107" fill="rgb(255, 255, 255)" style="fill-opacity:1.00" />
<rect height="13.075660" width="25.000000" x="655.000000" y="85.258475" fill="rgb(255, 255, 255)" style="fill-opacity:1.00" />
<!-- End 'C' -->
<!-- Begin 'G' -->
<ellipse cx="655.000000" cy="107.142937" rx="25.000000" ry="2.270972" fill="rgb(255, 165, 0)" style="fill-opacity:0.00" />
<ellipse cx="655.000000" cy="107.142937" rx="16.666667" ry="1.513981" fill="rgb(255, 255, 255)" style="fill-opacity:1.00" />
<rect height="2.270972" width="25.000000" x="655.000000" y="106.007452" fill="rgb(255, 255, 255)" style="fill-opacity:1.00" />
<rect height="0.567743" width="25.000000" x="655.000000" y="107.710680" fill="rgb(255, 165, 0)" style="fill-opacity:0.00" />
<rect height="1.703229" width="6.250000" x="673.750000" y="107.710680" fill="rgb(255, 165, 0)" style="fill-opacity:0.00" />
<!-- End 'G' -->
<!-- Begin 'A' -->
<polygon points=" 630.000000, 110.000000, 651.000000, 109.413909, 659.000000, 109.413909, 680.000000, 110.000000, 672.500000, 110.000000, 666.250000, 109.853477, 643.750000, 109.853477, 637.500000, 110.000000" fill="rgb(178, 34, 34)" style="fill-opacity:0.00" />
<!-- End 'A' -->
<!-- Begin 'T' -->
<rect height="9.176228" width="50.000000" x="630.000000" y="120.000000" fill="rgb(0, 100, 0)" style="fill-opacity:0.98" />
<rect height="57.351424" width="10.000000" x="650.000000" y="120.000000" fill="rgb(0, 100, 0)" style="fill-opacity:0.98" />
<!-- End 'T' -->
<!-- Begin 'C' -->
<ellipse cx="655.000000" cy="197.218064" rx="25.000000" ry="19.866640" fill="rgb(0, 0, 128)" style="fill-opacity:0.98" />
<ellipse cx="655.000000" cy="197.218064" rx="16.666667" ry="13.244427" fill="rgb(255, 255, 255)" style="fill-opacity:1.00" />
<rect height="19.866640" width="25.000000" x="655.000000" y="187.284744" fill="rgb(255, 255, 255)" style="fill-opacity:1.00" />
<!-- End 'C' -->
<!-- Begin 'G' -->
<ellipse cx="655.000000" cy="217.907982" rx="25.000000" ry="0.823277" fill="rgb(255, 165, 0)" style="fill-opacity:0.98" />
<ellipse cx="655.000000" cy="217.907982" rx="16.666667" ry="0.548851" fill="rgb(255, 255, 255)" style="fill-opacity:1.00" />
<rect height="0.823277" width="25.000000" x="655.000000" y="217.496343" fill="rgb(255, 255, 255)" style="fill-opacity:1.00" />
<rect height="0.205819" width="25.000000" x="655.000000" y="218.113801" fill="rgb(255, 165, 0)" style="fill-opacity:0.98" />
<rect height="0.617458" width="6.250000" x="673.750000" y="218.113801" fill="rgb(255, 165, 0)" style="fill-opacity:0.98" />
<!-- End 'G' -->
<!-- Begin 'A' -->
<polygon points=" 630.000000, 220.000000, 651.000000, 218.731259, 659.000000, 218.731259, 680.000000, 220.000000, 672.500000, 220.000000, 666.250000, 219.682815, 643.750000, 219.682815, 637.500000, 220.000000" fill="rgb(178, 34, 34)" style="fill-opacity:0.98" />
<!-- End 'A' -->
<!-- Begin 'T' -->
<rect height="13.655018" width="50.000000" x="630.000000" y="230.000000" fill="rgb(0, 100, 0)" style="fill-opacity:0.00" />
<rect height="85.343864" width="10.000000" x="650.000000" y="230.000000" fill="rgb(0, 100, 0)" style="fill-opacity:0.00" />
<!-- End 'T' -->
<!-- Begin 'C' -->
<ellipse cx="655.000000" cy="322.173912" rx="25.000000" ry="6.830048" fill="rgb(0, 0, 128)" style="fill-opacity:0.00" />
<ellipse cx="655.000000" cy="322.173912" rx="16.666667" ry="4.553365" fill="rgb(255, 255, 255)" style="fill-opacity:1.00" />
<rect height="6.830048" width="25.000000" x="655.000000" y="318.758888" fill="rgb(255, 255, 255)" style="fill-opacity:1.00" />
<!-- End 'C' -->
<!-- Begin 'A' -->
<polygon points=" 630.000000, 329.805751, 651.000000, 329.003960, 659.000000, 329.003960, 680.000000, 329.805751, 672.500000, 329.805751, 666.250000, 329.605303, 643.750000, 329.605303, 637.500000, 329.805751" fill="rgb(178, 34, 34)" style="fill-opacity:0.00" />
<!-- End 'A' -->
<!-- Begin 'G' -->
<ellipse cx="655.000000" cy="329.902875" rx="25.000000" ry="0.097125" fill="rgb(255, 165, 0)" style="fill-opacity:0.00" />
<ellipse cx="655.000000" cy="329.902875" rx="16.666667" ry="0.064750" fill="rgb(255, 255, 255)" style="fill-opacity:1.00" />
<rect height="0.097125" width="25.000000" x="655.000000" y="329.854313" fill="rgb(255, 255, 255)" style="fill-opacity:1.00" />
<rect height="0.024281" width="25.000000" x="655.000000" y="329.927157" fill="rgb(255, 165, 0)" style="fill-opacity:0.00" />
<rect height="0.072843" width="6.250000" x="673.750000" y="329.927157" fill="rgb(255, 165, 0)" style="fill-opacity:0.00" />
<!-- End 'G' -->
<!-- Begin 'T' -->
<rect height="12.121481" width="50.000000" x="630.000000" y="340.000000" fill="rgb(0, 100, 0)" style="fill-opacity:0.01" />
<rect height="75.759254" width="10.000000" x="650.000000" y="340.000000" fill="rgb(0, 100, 0)" style="fill-opacity:0.01" />
<!-- End 'T' -->
<!-- Begin 'C' -->
<ellipse cx="655.000000" cy="427.630180" rx="25.000000" ry="11.870926" fill="rgb(0, 0, 128)" style="fill-opacity:0.01" />
<ellipse cx="655.000000" cy="427.630180" rx="16.666667" ry="7.913951" fill="rgb(255, 255, 255)" style="fill-opacity:1.00" />
<rect height="11.870926" width="25.000000" x="655.000000" y="421.694717" fill="rgb(255, 255, 255)" style="fill-opacity:1.00" />
<!-- End 'C' -->
<!-- Begin 'A' -->
<polygon points=" 630.000000, 439.769334, 651.000000, 439.501107, 659.000000, 439.501107, 680.000000, 439.769334, 672.500000, 439.769334, 666.250000, 439.702277, 643.750000, 439.702277, 637.500000, 439.769334" fill="rgb(178, 34, 34)" style="fill-opacity:0.01" />
<!-- End 'A' -->
<!-- Begin 'G' -->
<ellipse cx="655.000000" cy="439.884667" rx="25.000000" ry="0.115333" fill="rgb(255, 165, 0)" style="fill-opacity:0.01" />
<ellipse cx="655.000000" cy="439.884667" rx="16.666667" ry="0.076889" fill="rgb(255, 255, 255)" style="fill-opacity:1.00" />
<rect height="0.115333" width="25.000000" x="655.000000" y="439.827000" fill="rgb(255, 255, 255)" style="fill-opacity:1.00" />
<rect height="0.028833" width="25.000000" x="655.000000" y="439.913500" fill="rgb(255, 165, 0)" style="fill-opacity:0.01" />
<rect height="0.086500" width="6.250000" x="673.750000" y="439.913500" fill="rgb(255, 165, 0)" style="fill-opacity:0.01" />
<!-- End 'G' -->
<!-- Begin 'A' -->
<polygon points=" 690.000000, 59.298264, 711.000000, 10.000000, 719.000000, 10.000000, 740.000000, 59.298264, 732.500000, 59.298264, 726.250000, 46.973698, 703.750000, 46.973698, 697.500000, 59.298264" fill="rgb(178, 34, 34)" style="fill-opacity:0.01" />
<polygon points=" 715.000000, 19.859653, 707.000000, 38.578959, 722.000000, 38.578959" fill="rgb(255, 255, 255)" style="fill-opacity:1.00" />
<!-- End 'A' -->
<!-- Begin 'T' -->
<rect height="6.611593" width="50.000000" x="690.000000" y="59.298264" fill="rgb(0, 100, 0)" style="fill-opacity:0.01" />
<rect height="41.322457" width="10.000000" x="710.000000" y="59.298264" fill="rgb(0, 100, 0)" style="fill-opacity:0.01" />
<!-- End 'T' -->
<!-- Begin 'G' -->
<ellipse cx="715.000000" cy="104.335684" rx="25.000000" ry="3.714962" fill="rgb(255, 165, 0)" style="fill-opacity:0.01" />
<ellipse cx="715.000000" cy="104.335684" rx="16.666667" ry="2.476641" fill="rgb(255, 255, 255)" style="fill-opacity:1.00" />
<rect height="3.714962" width="25.000000" x="715.000000" y="102.478203" fill="rgb(255, 255, 255)" style="fill-opacity:1.00" />
<rect height="0.928741" width="25.000000" x="715.000000" y="105.264424" fill="rgb(255, 165, 0)" style="fill-opacity:0.01" />
<rect height="2.786222" width="6.250000" x="733.750000" y="105.264424" fill="rgb(255, 165, 0)" style="fill-opacity:0.01" />
<!-- End 'G' -->
<!-- Begin 'C' -->
<ellipse cx="715.000000" cy="109.025323" rx="25.000000" ry="0.974677" fill="rgb(0, 0, 128)" style="fill-opacity:0.01" />
<ellipse cx="715.000000" cy="109.025323" rx="16.666667" ry="0.649785" fill="rgb(255, 255, 255)" style="fill-opacity:1.00" />
<rect height="0.974677" width="25.000000" x="715.000000" y="108.537984" fill="rgb(255, 255, 255)" style="fill-opacity:1.00" />
<!-- End 'C' -->
<!-- Begin 'A' -->
<polygon points=" 690.000000, 180.490135, 711.000000, 120.000000, 719.000000, 120.000000, 740.000000, 180.490135, 732.500000, 180.490135, 726.250000, 165.367601, 703.750000, 165.367601, 697.500000, 180.490135" fill="rgb(178, 34, 34)" style="fill-opacity:0.39" />
<polygon points=" 715.000000, 132.098027, 707.000000, 155.294081, 722.000000, 155.294081" fill="rgb(255, 255, 255)" style="fill-opacity:1.00" />
<!-- End 'A' -->
<!-- Begin 'G' -->
<ellipse cx="715.000000" cy="188.969488" rx="25.000000" ry="8.479353" fill="rgb(255, 165, 0)" style="fill-opacity:0.39" />
<ellipse cx="715.000000" cy="188.969488" rx="16.666667" ry="5.652902" fill="rgb(255, 255, 255)" style="fill-opacity:1.00" />
<rect height="8.479353" width="25.000000" x="715.000000" y="184.729811" fill="rgb(255, 255, 255)" style="fill-opacity:1.00" />
<rect height="2.119838" width="25.000000" x="715.000000" y="191.089326" fill="rgb(255, 165, 0)" style="fill-opacity:0.39" />
<rect height="6.359515" width="6.250000" x="733.750000" y="191.089326" fill="rgb(255, 165, 0)" style="fill-opacity:0.39" />
<!-- End 'G' -->
<!-- Begin 'T' -->
<rect height="2.134301" width="50.000000" x="690.000000" y="197.448841" fill="rgb(0, 100, 0)" style="fill-opacity:0.39" />
<rect height="13.339384" width="10.000000" x="710.000000" y="197.448841" fill="rgb(0, 100, 0)" style="fill-opacity:0.39" />
<!-- End 'T' -->
<!-- Begin 'C' -->
<ellipse cx="715.000000" cy="215.394112" rx="25.000000" ry="4.605888" fill="rgb(0, 0, 128)" style="fill-opacity:0.39" />
<ellipse cx="715.000000" cy="215.394112" rx="16.666667" ry="3.070592" fill="rgb(255, 255, 255)" style="fill-opacity:1.00" />
<rect height="4.605888" width="25.000000" x="715.000000" y="213.091168" fill="rgb(255, 255, 255)" style="fill-opacity:1.00" />
<!-- End 'C' -->
<!-- Begin 'A' -->
<polygon points=" 690.000000, 289.227948, 711.000000, 230.000000, 719.000000, 230.000000, 740.000000, 289.227948, 732.500000, 289.227948, 726.250000, 274.420961, 703.750000, 274.420961, 697.500000, 289.227948" fill="rgb(178, 34, 34)" style="fill-opacity:0.02" />
<polygon points=" 715.000000, 241.845590, 707.000000, 264.536769, 722.000000, 264.536769" fill="rgb(255, 255, 255)" style="fill-opacity:1.00" />
<!-- End 'A' -->
<!-- Begin 'T' -->
<rect height="3.654354" width="50.000000" x="690.000000" y="289.227948" fill="rgb(0, 100, 0)" style="fill-opacity:0.02" />
<rect height="22.839710" width="10.000000" x="710.000000" y="289.227948" fill="rgb(0, 100, 0)" style="fill-opacity:0.02" />
<!-- End 'T' -->
<!-- Begin 'G' -->
<ellipse cx="715.000000" cy="317.105015" rx="25.000000" ry="5.037357" fill="rgb(255, 165, 0)" style="fill-opacity:0.02" />
<ellipse cx="715.000000" cy="317.105015" rx="16.666667" ry="3.358238" fill="rgb(255, 255, 255)" style="fill-opacity:1.00" />
<rect height="5.037357" width="25.000000" x="715.000000" y="314.586337" fill="rgb(255, 255, 255)" style="fill-opacity:1.00" />
<rect height="1.259339" width="25.000000" x="715.000000" y="318.364355" fill="rgb(255, 165, 0)" style="fill-opacity:0.02" />
<rect height="3.778018" width="6.250000" x="733.750000" y="318.364355" fill="rgb(255, 165, 0)" style="fill-opacity:0.02" />
<!-- End 'G' -->
<!-- Begin 'C' -->
<ellipse cx="715.000000" cy="326.071186" rx="25.000000" ry="3.928814" fill="rgb(0, 0, 128)" style="fill-opacity:0.02" />
<ellipse cx="715.000000" cy="326.071186" rx="16.666667" ry="2.619209" fill="rgb(255, 255, 255)" style="fill-opacity:1.00" />
<rect height="3.928814" width="25.000000" x="715.000000" y="324.106779" fill="rgb(255, 255, 255)" style="fill-opacity:1.00" />
<!-- End 'C' -->
<!-- Begin 'T' -->
<rect height="8.707805" width="50.000000" x="690.000000" y="340.000000" fill="rgb(0, 100, 0)" style="fill-opacity:0.58" />
<rect height="54.423781" width="10.000000" x="710.000000" y="340.000000" fill="rgb(0, 100, 0)" style="fill-opacity:0.58" />
<!-- End 'T' -->
<!-- Begin 'A' -->
<polygon points=" 690.000000, 415.457157, 711.000000, 394.423781, 719.000000, 394.423781, 740.000000, 415.457157, 732.500000, 415.457157, 726.250000, 410.198813, 703.750000, 410.198813, 697.500000, 415.457157" fill="rgb(178, 34, 34)" style="fill-opacity:0.58" />
<polygon points=" 715.000000, 398.630456, 707.000000, 406.043807, 722.000000, 406.043807" fill="rgb(255, 255, 255)" style="fill-opacity:1.00" />
<!-- End 'A' -->
<!-- Begin 'G' -->
<ellipse cx="715.000000" cy="422.349790" rx="25.000000" ry="6.892633" fill="rgb(255, 165, 0)" style="fill-opacity:0.58" />
<ellipse cx="715.000000" cy="422.349790" rx="16.666667" ry="4.595089" fill="rgb(255, 255, 255)" style="fill-opacity:1.00" />
<rect height="6.892633" width="25.000000" x="715.000000" y="418.903474" fill="rgb(255, 255, 255)" style="fill-opacity:1.00" />
<rect height="1.723158" width="25.000000" x="715.000000" y="424.072949" fill="rgb(255, 165, 0)" style="fill-opacity:0.58" />
<rect height="5.169475" width="6.250000" x="733.750000" y="424.072949" fill="rgb(255, 165, 0)" style="fill-opacity:0.58" />
<!-- End 'G' -->
<!-- Begin 'C' -->
<ellipse cx="715.000000" cy="434.621212" rx="25.000000" ry="5.378788" fill="rgb(0, 0, 128)" style="fill-opacity:0.58" />
<ellipse cx="715.000000" cy="434.621212" rx="16.666667" ry="3.585859" fill="rgb(255, 255, 255)" style="fill-opacity:1.00" />
<rect height="5.378788" width="25.000000" x="715.000000" y="431.931818" fill="rgb(255, 255, 255)" style="fill-opacity:1.00" />
<!-- End 'C' -->
<!-- Begin 'A' -->
<polygon points=" 750.000000, 58.149544, 771.000000, 10.000000, 779.000000, 10.000000, 800.000000, 58.149544, 792.500000, 58.149544, 786.250000, 46.112158, 763.750000, 46.112158, 757.500000, 58.149544" fill="rgb(178, 34, 34)" style="fill-opacity:0.38" />
<polygon points=" 775.000000, 19.629909, 767.000000, 37.889726, 782.000000, 37.889726" fill="rgb(255, 255, 255)" style="fill-opacity:1.00" />
<!-- End 'A' -->
<!-- Begin 'T' -->
<rect height="3.694671" width="50.000000" x="750.000000" y="58.149544" fill="rgb(0, 100, 0)" style="fill-opacity:0.38" />
<rect height="23.091691" width="10.000000" x="770.000000" y="58.149544" fill="rgb(0, 100, 0)" style="fill-opacity:0.38" />
<!-- End 'T' -->
<!-- Begin 'G' -->
<ellipse cx="775.000000" cy="90.442060" rx="25.000000" ry="9.200826" fill="rgb(255, 165, 0)" style="fill-opacity:0.38" />
<ellipse cx="775.000000" cy="90.442060" rx="16.666667" ry="6.133884" fill="rgb(255, 255, 255)" style="fill-opacity:1.00" />
<rect height="9.200826" width="25.000000" x="775.000000" y="85.841648" fill="rgb(255, 255, 255)" style="fill-opacity:1.00" />
<rect height="2.300206" width="25.000000" x="775.000000" y="92.742267" fill="rgb(255, 165, 0)" style="fill-opacity:0.38" />
<rect height="6.900619" width="6.250000" x="793.750000" y="92.742267" fill="rgb(255, 165, 0)" style="fill-opacity:0.38" />
<!-- End 'G' -->
<!-- Begin 'C' -->
<ellipse cx="775.000000" cy="104.821443" rx="25.000000" ry="5.178557" fill="rgb(0, 0, 128)" style="fill-opacity:0.38" />
<ellipse cx="775.000000" cy="104.821443" rx="16.666667" ry="3.452371" fill="rgb(255, 255, 255)" style="fill-opacity:1.00" />
<rect height="5.178557" width="25.000000" x="775.000000" y="102.232165" fill="rgb(255, 255, 255)" style="fill-opacity:1.00" />
<!-- End 'C' -->
<!-- Begin 'A' -->
<polygon points=" 750.000000, 158.247162, 771.000000, 120.000000, 779.000000, 120.000000, 800.000000, 158.247162, 792.500000, 158.247162, 786.250000, 148.685372, 763.750000, 148.685372, 757.500000, 158.247162" fill="rgb(178, 34, 34)" style="fill-opacity:0.10" />
<polygon points=" 775.000000, 127.649432, 767.000000, 141.948297, 782.000000, 141.948297" fill="rgb(255, 255, 255)" style="fill-opacity:1.00" />
<!-- End 'A' -->
<!-- Begin 'T' -->
<rect height="4.180679" width="50.000000" x="750.000000" y="158.247162" fill="rgb(0, 100, 0)" style="fill-opacity:0.10" />
<rect height="26.129243" width="10.000000" x="770.000000" y="158.247162" fill="rgb(0, 100, 0)" style="fill-opacity:0.10" />
<!-- End 'T' -->
<!-- Begin 'G' -->
<ellipse cx="775.000000" cy="195.376971" rx="25.000000" ry="11.000566" fill="rgb(255, 165, 0)" style="fill-opacity:0.10" />
<ellipse cx="775.000000" cy="195.376971" rx="16.666667" ry="7.333710" fill="rgb(255, 255, 255)" style="fill-opacity:1.00" />
<rect height="11.000566" width="25.000000" x="775.000000" y="189.876688" fill="rgb(255, 255, 255)" style="fill-opacity:1.00" />
<rect height="2.750141" width="25.000000" x="775.000000" y="198.127113" fill="rgb(255, 165, 0)" style="fill-opacity:0.10" />
<rect height="8.250424" width="6.250000" x="793.750000" y="198.127113" fill="rgb(255, 165, 0)" style="fill-opacity:0.10" />
<!-- End 'G' -->
<!-- Begin 'C' -->
<ellipse cx="775.000000" cy="213.188768" rx="25.000000" ry="6.811232" fill="rgb(0, 0, 128)" style="fill-opacity:0.10" />
<ellipse cx="775.000000" cy="213.188768" rx="16.666667" ry="4.540821" fill="rgb(255, 255, 255)" style="fill-opacity:1.00" />
<rect height="6.811232" width="25.000000" x="775.000000" y="209.783153" fill="rgb(255, 255, 255)" style="fill-opacity:1.00" />
<!-- End 'C' -->
<!-- Begin 'G' -->
<ellipse cx="775.000000" cy="247.510552" rx="25.000000" ry="17.510552" fill="rgb(255, 165, 0)" style="fill-opacity:0.15" />
<ellipse cx="775.000000" cy="247.510552" rx="16.666667" ry="11.673701" fill="rgb(255, 255, 255)" style="fill-opacity:1.00" />
<rect height="17.510552" width="25.000000" x="775.000000" y="238.755276" fill="rgb(255, 255, 255)" style="fill-opacity:1.00" />
<rect height="4.377638" width="25.000000" x="775.000000" y="251.888190" fill="rgb(255, 165, 0)" style="fill-opacity:0.15" />
<rect height="13.132914" width="6.250000" x="793.750000" y="251.888190" fill="rgb(255, 165, 0)" style="fill-opacity:0.15" />
<!-- End 'G' -->
<!-- Begin 'A' -->
<polygon points=" 750.000000, 291.686224, 771.000000, 265.021103, 779.000000, 265.021103, 800.000000, 291.686224, 792.500000, 291.686224, 786.250000, 285.019944, 763.750000, 285.019944, 757.500000, 291.686224" fill="rgb(178, 34, 34)" style="fill-opacity:0.15" />
<polygon points=" 775.000000, 270.354127, 767.000000, 280.020176, 782.000000, 280.020176" fill="rgb(255, 255, 255)" style="fill-opacity:1.00" />
<!-- End 'A' -->
<!-- Begin 'T' -->
<rect height="3.997362" width="50.000000" x="750.000000" y="291.686224" fill="rgb(0, 100, 0)" style="fill-opacity:0.15" />
<rect height="24.983514" width="10.000000" x="770.000000" y="291.686224" fill="rgb(0, 100, 0)" style="fill-opacity:0.15" />
<!-- End 'T' -->
<!-- Begin 'C' -->
<ellipse cx="775.000000" cy="323.334869" rx="25.000000" ry="6.665131" fill="rgb(0, 0, 128)" style="fill-opacity:0.15" />
<ellipse cx="775.000000" cy="323.334869" rx="16.666667" ry="4.443421" fill="rgb(255, 255, 255)" style="fill-opacity:1.00" />
<rect height="6.665131" width="25.000000" x="775.000000" y="320.002303" fill="rgb(255, 255, 255)" style="fill-opacity:1.00" />
<!-- End 'C' -->
<!-- Begin 'T' -->
<rect height="10.550002" width="50.000000" x="750.000000" y="340.000000" fill="rgb(0, 100, 0)" style="fill-opacity:0.38" />
<rect height="65.937511" width="10.000000" x="770.000000" y="340.000000" fill="rgb(0, 100, 0)" style="fill-opacity:0.38" />
<!-- End 'T' -->
<!-- Begin 'G' -->
<ellipse cx="775.000000" cy="412.744453" rx="25.000000" ry="6.806941" fill="rgb(255, 165, 0)" style="fill-opacity:0.38" />
<ellipse cx="775.000000" cy="412.744453" rx="16.666667" ry="4.537961" fill="rgb(255, 255, 255)" style="fill-opacity:1.00" />
<rect height="6.806941" width="25.000000" x="775.000000" y="409.340982" fill="rgb(255, 255, 255)" style="fill-opacity:1.00" />
<rect height="1.701735" width="25.000000" x="775.000000" y="414.446188" fill="rgb(255, 165, 0)" style="fill-opacity:0.38" />
<rect height="5.105206" width="6.250000" x="793.750000" y="414.446188" fill="rgb(255, 165, 0)" style="fill-opacity:0.38" />
<!-- End 'G' -->
<!-- Begin 'C' -->
<ellipse cx="775.000000" cy="425.310613" rx="25.000000" ry="5.759220" fill="rgb(0, 0, 128)" style="fill-opacity:0.38" />
<ellipse cx="775.000000" cy="425.310613" rx="16.666667" ry="3.839480" fill="rgb(255, 255, 255)" style="fill-opacity:1.00" />
<rect height="5.759220" width="25.000000" x="775.000000" y="422.431004" fill="rgb(255, 255, 255)" style="fill-opacity:1.00" />
<!-- End 'C' -->
<!-- Begin 'A' -->
<polygon points=" 750.000000, 440.000000, 771.000000, 431.069833, 779.000000, 431.069833, 800.000000, 440.000000, 792.500000, 440.000000, 786.250000, 437.767458, 763.750000, 437.767458, 757.500000, 440.000000" fill="rgb(178, 34, 34)" style="fill-opacity:0.38" />
<polygon points=" 775.000000, 432.855867, 767.000000, 435.427933, 782.000000, 435.427933" fill="rgb(255, 255, 255)" style="fill-opacity:1.00" />
<!-- End 'A' -->
<!-- Begin 'A' -->
<polygon points=" 810.000000, 49.202908, 831.000000, 10.000000, 839.000000, 10.000000, 860.000000, 49.202908, 852.500000, 49.202908, 846.250000, 39.402181, 823.750000, 39.402181, 817.500000, 49.202908" fill="rgb(178, 34, 34)" style="fill-opacity:0.29" />
<polygon points=" 835.000000, 17.840582, 827.000000, 32.521745, 842.000000, 32.521745" fill="rgb(255, 255, 255)" style="fill-opacity:1.00" />
<!-- End 'A' -->
<!-- Begin 'T' -->
<rect height="4.195369" width="50.000000" x="810.000000" y="49.202908" fill="rgb(0, 100, 0)" style="fill-opacity:0.29" />
<rect height="26.221055" width="10.000000" x="830.000000" y="49.202908" fill="rgb(0, 100, 0)" style="fill-opacity:0.29" />
<!-- End 'T' -->
<!-- Begin 'G' -->
<ellipse cx="835.000000" cy="84.979118" rx="25.000000" ry="9.555155" fill="rgb(255, 165, 0)" style="fill-opacity:0.29" />
<ellipse cx="835.000000" cy="84.979118" rx="16.666667" ry="6.370103" fill="rgb(255, 255, 255)" style="fill-opacity:1.00" />
<rect height="9.555155" width="25.000000" x="835.000000" y="80.201540" fill="rgb(255, 255, 255)" style="fill-opacity:1.00" />
<rect height="2.388789" width="25.000000" x="835.000000" y="87.367906" fill="rgb(255, 165, 0)" style="fill-opacity:0.29" />
<rect height="7.166366" width="6.250000" x="853.750000" y="87.367906" fill="rgb(255, 165, 0)" style="fill-opacity:0.29" />
<!-- End 'G' -->
<!-- Begin 'C' -->
<ellipse cx="835.000000" cy="102.267136" rx="25.000000" ry="7.732864" fill="rgb(0, 0, 128)" style="fill-opacity:0.29" />
<ellipse cx="835.000000" cy="102.267136" rx="16.666667" ry="5.155242" fill="rgb(255, 255, 255)" style="fill-opacity:1.00" />
<rect height="7.732864" width="25.000000" x="835.000000" y="98.400704" fill="rgb(255, 255, 255)" style="fill-opacity:1.00" />
<!-- End 'C' -->
<!-- Begin 'T' -->
<rect height="5.488306" width="50.000000" x="810.000000" y="120.000000" fill="rgb(0, 100, 0)" style="fill-opacity:0.12" />
<rect height="34.301914" width="10.000000" x="830.000000" y="120.000000" fill="rgb(0, 100, 0)" style="fill-opacity:0.12" />
<!-- End 'T' -->
<!-- Begin 'A' -->
<polygon points=" 810.000000, 182.768458, 831.000000, 154.301914, 839.000000, 154.301914, 860.000000, 182.768458, 852.500000, 182.768458, 846.250000, 175.651822, 823.750000, 175.651822, 817.500000, 182.768458" fill="rgb(178, 34, 34)" style="fill-opacity:0.12" />
<polygon points=" 835.000000, 159.995223, 827.000000, 170.381840, 842.000000, 170.381840" fill="rgb(255, 255, 255)" style="fill-opacity:1.00" />
<!-- End 'A' -->
<!-- Begin 'C' -->
<ellipse cx="835.000000" cy="192.909437" rx="25.000000" ry="10.140979" fill="rgb(0, 0, 128)" style="fill-opacity:0.12" />
<ellipse cx="835.000000" cy="192.909437" rx="16.666667" ry="6.760653" fill="rgb(255, 255, 255)" style="fill-opacity:1.00" />
<rect height="10.140979" width="25.000000" x="835.000000" y="187.838947" fill="rgb(255, 255, 255)" style="fill-opacity:1.00" />
<!-- End 'C' -->
<!-- Begin 'G' -->
<ellipse cx="835.000000" cy="211.525208" rx="25.000000" ry="8.474792" fill="rgb(255, 165, 0)" style="fill-opacity:0.12" />
<ellipse cx="835.000000" cy="211.525208" rx="16.666667" ry="5.649861" fill="rgb(255, 255, 255)" style="fill-opacity:1.00" />
<rect height="8.474792" width="25.000000" x="835.000000" y="207.287812" fill="rgb(255, 255, 255)" style="fill-opacity:1.00" />
<rect height="2.118698" width="25.000000" x="835.000000" y="213.643906" fill="rgb(255, 165, 0)" style="fill-opacity:0.12" />
<rect height="6.356094" width="6.250000" x="853.750000" y="213.643906" fill="rgb(255, 165, 0)" style="fill-opacity:0.12" />
<!-- End 'G' -->
<!-- Begin 'T' -->
<rect height="6.598259" width="50.000000" x="810.000000" y="230.000000" fill="rgb(0, 100, 0)" style="fill-opacity:0.19" />
<rect height="41.239122" width="10.000000" x="830.000000" y="230.000000" fill="rgb(0, 100, 0)" style="fill-opacity:0.19" />
<!-- End 'T' -->
<!-- Begin 'A' -->
<polygon points=" 810.000000, 302.397310, 831.000000, 271.239122, 839.000000, 271.239122, 860.000000, 302.397310, 852.500000, 302.397310, 846.250000, 294.607763, 823.750000, 294.607763, 817.500000, 302.397310" fill="rgb(178, 34, 34)" style="fill-opacity:0.19" />
<polygon points=" 835.000000, 277.470759, 827.000000, 288.934034, 842.000000, 288.934034" fill="rgb(255, 255, 255)" style="fill-opacity:1.00" />
<!-- End 'A' -->
<!-- Begin 'G' -->
<ellipse cx="835.000000" cy="310.975584" rx="25.000000" ry="8.578274" fill="rgb(255, 165, 0)" style="fill-opacity:0.19" />
<ellipse cx="835.000000" cy="310.975584" rx="16.666667" ry="5.718850" fill="rgb(255, 255, 255)" style="fill-opacity:1.00" />
<rect height="8.578274" width="25.000000" x="835.000000" y="306.686447" fill="rgb(255, 255, 255)" style="fill-opacity:1.00" />
<rect height="2.144569" width="25.000000" x="835.000000" y="313.120152" fill="rgb(255, 165, 0)" style="fill-opacity:0.19" />
<rect height="6.433706" width="6.250000" x="853.750000" y="313.120152" fill="rgb(255, 165, 0)" style="fill-opacity:0.19" />
<!-- End 'G' -->
<!-- Begin 'C' -->
<ellipse cx="835.000000" cy="324.776929" rx="25.000000" ry="5.223071" fill="rgb(0, 0, 128)" style="fill-opacity:0.19" />
<ellipse cx="835.000000" cy="324.776929" rx="16.666667" ry="3.482047" fill="rgb(255, 255, 255)" style="fill-opacity:1.00" />
<rect height="5.223071" width="25.000000" x="835.000000" y="322.165394" fill="rgb(255, 255, 255)" style="fill-opacity:1.00" />
<!-- End 'C' -->
<!-- Begin 'T' -->
<rect height="8.459409" width="50.000000" x="810.000000" y="340.000000" fill="rgb(0, 100, 0)" style="fill-opacity:0.40" />
<rect height="52.871306" width="10.000000" x="830.000000" y="340.000000" fill="rgb(0, 100, 0)" style="fill-opacity:0.40" />
<!-- End 'T' -->
<!-- Begin 'G' -->
<ellipse cx="835.000000" cy="402.435338" rx="25.000000" ry="9.564032" fill="rgb(255, 165, 0)" style="fill-opacity:0.40" />
<ellipse cx="835.000000" cy="402.435338" rx="16.666667" ry="6.376022" fill="rgb(255, 255, 255)" style="fill-opacity:1.00" />
<rect height="9.564032" width="25.000000" x="835.000000" y="397.653322" fill="rgb(255, 255, 255)" style="fill-opacity:1.00" />
<rect height="2.391008" width="25.000000" x="835.000000" y="404.826346" fill="rgb(255, 165, 0)" style="fill-opacity:0.40" />
<rect height="7.173024" width="6.250000" x="853.750000" y="404.826346" fill="rgb(255, 165, 0)" style="fill-opacity:0.40" />
<!-- End 'G' -->
<!-- Begin 'A' -->
<polygon points=" 810.000000, 428.568723, 831.000000, 411.999370, 839.000000, 411.999370, 860.000000, 428.568723, 852.500000, 428.568723, 846.250000, 424.426385, 823.750000, 424.426385, 817.500000, 428.568723" fill="rgb(178, 34, 34)" style="fill-opacity:0.40" />
<polygon points=" 835.000000, 415.313241, 827.000000, 420.940982, 842.000000, 420.940982" fill="rgb(255, 255, 255)" style="fill-opacity:1.00" />
<!-- End 'A' -->
<!-- Begin 'C' -->
<ellipse cx="835.000000" cy="434.284361" rx="25.000000" ry="5.715639" fill="rgb(0, 0, 128)" style="fill-opacity:0.40" />
<ellipse cx="835.000000" cy="434.284361" rx="16.666667" ry="3.810426" fill="rgb(255, 255, 255)" style="fill-opacity:1.00" />
<rect height="5.715639" width="25.000000" x="835.000000" y="431.426542" fill="rgb(255, 255, 255)" style="fill-opacity:1.00" />
<!-- End 'C' -->
<text x="460.000000" y="495">
IC = 11.31
</text>

</svg>
