<?xml version="1.0" encoding="UTF-8" standalone="yes"?>
                 <!DOCTYPE svg PUBLIC "-//W3C//DTD SVG 1.0//EN" "http://www.w3.org/TR/2001/REC-SVG-20010904/DTD/svg10.dtd">
                 <svg height="170" width="720" xmlns="http://www.w3.org/2000/svg" xmlns:xlink="http://www.w3.org/1999/xlink">
                 <line x1="85" y1="120" x2="687" y2="120" style="stroke:rgb(99,99,99);stroke-width:2" />
<rect height="7.000000" width="2.000000" x="85.000000" y="120.000000" fill="rgb(0, 0, 0)" style="fill-opacity:1.00" />
<text x="107.000000" y="140">
1
</text>
<rect height="7.000000" width="2.000000" x="145.000000" y="120.000000" fill="rgb(0, 0, 0)" style="fill-opacity:1.00" />
<text x="167.000000" y="140">
2
</text>
<rect height="7.000000" width="2.000000" x="205.000000" y="120.000000" fill="rgb(0, 0, 0)" style="fill-opacity:1.00" />
<text x="227.000000" y="140">
3
</text>
<rect height="7.000000" width="2.000000" x="265.000000" y="120.000000" fill="rgb(0, 0, 0)" style="fill-opacity:1.00" />
<text x="287.000000" y="140">
4
</text>
<rect height="7.000000" width="2.000000" x="325.000000" y="120.000000" fill="rgb(0, 0, 0)" style="fill-opacity:1.00" />
<text x="347.000000" y="140">
5
</text>
<rect height="7.000000" width="2.000000" x="385.000000" y="120.000000" fill="rgb(0, 0, 0)" style="fill-opacity:1.00" />
<text x="407.000000" y="140">
6
</text>
<rect height="7.000000" width="2.000000" x="445.000000" y="120.000000" fill="rgb(0, 0, 0)" style="fill-opacity:1.00" />
<text x="467.000000" y="140">
7
</text>
<rect height="7.000000" width="2.000000" x="505.000000" y="120.000000" fill="rgb(0, 0, 0)" style="fill-opacity:1.00" />
<text x="527.000000" y="140">
8
</text>
<rect height="7.000000" width="2.000000" x="565.000000" y="120.000000" fill="rgb(0, 0, 0)" style="fill-opacity:1.00" />
<text x="587.000000" y="140">
9
</text>
<rect height="7.000000" width="2.000000" x="625.000000" y="120.000000" fill="rgb(0, 0, 0)" style="fill-opacity:1.00" />
<text x="647.000000" y="140">
10
</text>
<rect height="7.000000" width="2.000000" x="685.000000" y="120.000000" fill="rgb(0, 0, 0)" style="fill-opacity:1.00" />
<line x1="80" y1="112" x2="80" y2="10" style="stroke:rgb(99,99,99);stroke-width:2" />
<rect height="2.000000" width="7.000000" x="73.000000" y="110.000000" fill="rgb(0, 0, 0)" style="fill-opacity:1.00" />
<text x="63" y="115">
0
</text>
<rect height="2.000000" width="7.000000" x="73.000000" y="60.000000" fill="rgb(0, 0, 0)" style="fill-opacity:1.00" />
<text x="63" y="65">
1
</text>
<rect height="2.000000" width="7.000000" x="73.000000" y="10.000000" fill="rgb(0, 0, 0)" style="fill-opacity:1.00" />
<text x="63" y="15">
2
</text>
<text x="50" y="65"
transform="rotate(-90, 50, 70)">
bits
</text>
<!-- Begin 'A' -->
<polygon points=" 90.000000, 101.601481, 111.000000, 94.284658, 119.000000, 94.284658, 140.000000, 101.601481, 132.500000, 101.601481, 126.250000, 99.772276, 103.750000, 99.772276, 97.500000, 101.601481" fill="rgb(178, 34, 34)" style="fill-opacity:1.00" />
<!-- End 'A' -->
<!-- Begin 'G' -->
<ellipse cx="115.000000" cy="103.772821" rx="25.000000" ry="2.171340" fill="rgb(255, 165, 0)" style="fill-opacity:1.00" />
<ellipse cx="115.000000" cy="103.772821" rx="16.666667" ry="1.447560" fill="rgb(255, 255, 255)" style="fill-opacity:1.00" />
<rect height="2.171340" width="25.000000" x="115.000000" y="102.687151" fill="rgb(255, 255, 255)" style="fill-opacity:1.00" />
<rect height="0.542835" width="25.000000" x="115.000000" y="104.315656" fill="rgb(255, 165, 0)" style="fill-opacity:1.00" />
<rect height="1.628505" width="6.250000" x="133.750000" y="104.315656" fill="rgb(255, 165, 0)" style="fill-opacity:1.00" />
<!-- End 'G' -->
<!-- Begin 'C' -->
<ellipse cx="115.000000" cy="107.674873" rx="25.000000" ry="1.730713" fill="rgb(0, 0, 128)" style="fill-opacity:1.00" />
<ellipse cx="115.000000" cy="107.674873" rx="16.666667" ry="1.153809" fill="rgb(255, 255, 255)" style="fill-opacity:1.00" />
<rect height="1.730713" width="25.000000" x="115.000000" y="106.809517" fill="rgb(255, 255, 255)" style="fill-opacity:1.00" />
<!-- End 'C' -->
<!-- Begin 'T' -->
<rect height="0.095106" width="50.000000" x="90.000000" y="109.405586" fill="rgb(0, 100, 0)" style="fill-opacity:1.00" />
<rect height="0.594414" width="10.000000" x="110.000000" y="109.405586" fill="rgb(0, 100, 0)" style="fill-opacity:1.00" />
<!-- End 'T' -->
<!-- Begin 'T' -->
<rect height="15.644520" width="50.000000" x="150.000000" y="11.886261" fill="rgb(0, 100, 0)" style="fill-opacity:1.00" />
<rect height="97.778248" width="10.000000" x="170.000000" y="11.886261" fill="rgb(0, 100, 0)" style="fill-opacity:1.00" />
<!-- End 'T' -->
<!-- Begin 'C' -->
<ellipse cx="175.000000" cy="109.739780" rx="25.000000" ry="0.075270" fill="rgb(0, 0, 128)" style="fill-opacity:1.00" />
<ellipse cx="175.000000" cy="109.739780" rx="16.666667" ry="0.050180" fill="rgb(255, 255, 255)" style="fill-opacity:1.00" />
<rect height="0.075270" width="25.000000" x="175.000000" y="109.702145" fill="rgb(255, 255, 255)" style="fill-opacity:1.00" />
<!-- End 'C' -->
<!-- Begin 'A' -->
<polygon points=" 150.000000, 109.961290, 171.000000, 109.815050, 179.000000, 109.815050, 200.000000, 109.961290, 192.500000, 109.961290, 186.250000, 109.924730, 163.750000, 109.924730, 157.500000, 109.961290" fill="rgb(178, 34, 34)" style="fill-opacity:1.00" />
<!-- End 'A' -->
<!-- Begin 'G' -->
<ellipse cx="175.000000" cy="109.980645" rx="25.000000" ry="0.019355" fill="rgb(255, 165, 0)" style="fill-opacity:1.00" />
<ellipse cx="175.000000" cy="109.980645" rx="16.666667" ry="0.012903" fill="rgb(255, 255, 255)" style="fill-opacity:1.00" />
<rect height="0.019355" width="25.000000" x="175.000000" y="109.970967" fill="rgb(255, 255, 255)" style="fill-opacity:1.00" />
<rect height="0.004839" width="25.000000" x="175.000000" y="109.985484" fill="rgb(255, 165, 0)" style="fill-opacity:1.00" />
<rect height="0.014516" width="6.250000" x="193.750000" y="109.985484" fill="rgb(255, 165, 0)" style="fill-opacity:1.00" />
<!-- End 'G' -->
<!-- Begin 'T' -->
<rect height="11.218580" width="50.000000" x="210.000000" y="32.759064" fill="rgb(0, 100, 0)" style="fill-opacity:1.00" />
<rect height="70.116128" width="10.000000" x="230.000000" y="32.759064" fill="rgb(0, 100, 0)" style="fill-opacity:1.00" />
<!-- End 'T' -->
<!-- Begin 'G' -->
<ellipse cx="235.000000" cy="106.386705" rx="25.000000" ry="3.511512" fill="rgb(255, 165, 0)" style="fill-opacity:1.00" />
<ellipse cx="235.000000" cy="106.386705" rx="16.666667" ry="2.341008" fill="rgb(255, 255, 255)" style="fill-opacity:1.00" />
<rect height="3.511512" width="25.000000" x="235.000000" y="104.630948" fill="rgb(255, 255, 255)" style="fill-opacity:1.00" />
<rect height="0.877878" width="25.000000" x="235.000000" y="107.264583" fill="rgb(255, 165, 0)" style="fill-opacity:1.00" />
<rect height="2.633634" width="6.250000" x="253.750000" y="107.264583" fill="rgb(255, 165, 0)" style="fill-opacity:1.00" />
<!-- End 'G' -->
<!-- Begin 'A' -->
<polygon points=" 210.000000, 109.953735, 231.000000, 109.898217, 239.000000, 109.898217, 260.000000, 109.953735, 252.500000, 109.953735, 246.250000, 109.939856, 223.750000, 109.939856, 217.500000, 109.953735" fill="rgb(178, 34, 34)" style="fill-opacity:1.00" />
<!-- End 'A' -->
<!-- Begin 'C' -->
<ellipse cx="235.000000" cy="109.976868" rx="25.000000" ry="0.023132" fill="rgb(0, 0, 128)" style="fill-opacity:1.00" />
<ellipse cx="235.000000" cy="109.976868" rx="16.666667" ry="0.015422" fill="rgb(255, 255, 255)" style="fill-opacity:1.00" />
<rect height="0.023132" width="25.000000" x="235.000000" y="109.965301" fill="rgb(255, 255, 255)" style="fill-opacity:1.00" />
<!-- End 'C' -->
<!-- Begin 'G' -->
<ellipse cx="295.000000" cy="85.476082" rx="25.000000" ry="7.575639" fill="rgb(255, 165, 0)" style="fill-opacity:1.00" />
<ellipse cx="295.000000" cy="85.476082" rx="16.666667" ry="5.050426" fill="rgb(255, 255, 255)" style="fill-opacity:1.00" />
<rect height="7.575639" width="25.000000" x="295.000000" y="81.688262" fill="rgb(255, 255, 255)" style="fill-opacity:1.00" />
<rect height="1.893910" width="25.000000" x="295.000000" y="87.369992" fill="rgb(255, 165, 0)" style="fill-opacity:1.00" />
<rect height="5.681729" width="6.250000" x="313.750000" y="87.369992" fill="rgb(255, 165, 0)" style="fill-opacity:1.00" />
<!-- End 'G' -->
<!-- Begin 'A' -->
<polygon points=" 270.000000, 107.082442, 291.000000, 93.051721, 299.000000, 93.051721, 320.000000, 107.082442, 312.500000, 107.082442, 306.250000, 103.574762, 283.750000, 103.574762, 277.500000, 107.082442" fill="rgb(178, 34, 34)" style="fill-opacity:1.00" />
<polygon points=" 295.000000, 95.857865, 287.000000, 100.470154, 302.000000, 100.470154" fill="rgb(255, 255, 255)" style="fill-opacity:1.00" />
<!-- End 'A' -->
<!-- Begin 'T' -->
<rect height="0.459621" width="50.000000" x="270.000000" y="107.082442" fill="rgb(0, 100, 0)" style="fill-opacity:1.00" />
<rect height="2.872633" width="10.000000" x="290.000000" y="107.082442" fill="rgb(0, 100, 0)" style="fill-opacity:1.00" />
<!-- End 'T' -->
<!-- Begin 'C' -->
<ellipse cx="295.000000" cy="109.977537" rx="25.000000" ry="0.022463" fill="rgb(0, 0, 128)" style="fill-opacity:1.00" />
<ellipse cx="295.000000" cy="109.977537" rx="16.666667" ry="0.014975" fill="rgb(255, 255, 255)" style="fill-opacity:1.00" />
<rect height="0.022463" width="25.000000" x="295.000000" y="109.966306" fill="rgb(255, 255, 255)" style="fill-opacity:1.00" />
<!-- End 'C' -->
<!-- Begin 'C' -->
<ellipse cx="355.000000" cy="71.367746" rx="25.000000" ry="30.922398" fill="rgb(0, 0, 128)" style="fill-opacity:1.00" />
<ellipse cx="355.000000" cy="71.367746" rx="16.666667" ry="20.614932" fill="rgb(255, 255, 255)" style="fill-opacity:1.00" />
<rect height="30.922398" width="25.000000" x="355.000000" y="55.906547" fill="rgb(255, 255, 255)" style="fill-opacity:1.00" />
<!-- End 'C' -->
<!-- Begin 'T' -->
<rect height="0.965446" width="50.000000" x="330.000000" y="102.290144" fill="rgb(0, 100, 0)" style="fill-opacity:1.00" />
<rect height="6.034037" width="10.000000" x="350.000000" y="102.290144" fill="rgb(0, 100, 0)" style="fill-opacity:1.00" />
<!-- End 'T' -->
<!-- Begin 'A' -->
<polygon points=" 330.000000, 109.396052, 351.000000, 108.324181, 359.000000, 108.324181, 380.000000, 109.396052, 372.500000, 109.396052, 366.250000, 109.128084, 343.750000, 109.128084, 337.500000, 109.396052" fill="rgb(178, 34, 34)" style="fill-opacity:1.00" />
<!-- End 'A' -->
<!-- Begin 'G' -->
<ellipse cx="355.000000" cy="109.698026" rx="25.000000" ry="0.301974" fill="rgb(255, 165, 0)" style="fill-opacity:1.00" />
<ellipse cx="355.000000" cy="109.698026" rx="16.666667" ry="0.201316" fill="rgb(255, 255, 255)" style="fill-opacity:1.00" />
<rect height="0.301974" width="25.000000" x="355.000000" y="109.547039" fill="rgb(255, 255, 255)" style="fill-opacity:1.00" />
<rect height="0.075493" width="25.000000" x="355.000000" y="109.773520" fill="rgb(255, 165, 0)" style="fill-opacity:1.00" />
<rect height="0.226480" width="6.250000" x="373.750000" y="109.773520" fill="rgb(255, 165, 0)" style="fill-opacity:1.00" />
<!-- End 'G' -->
<!-- Begin 'G' -->
<ellipse cx="415.000000" cy="75.539695" rx="25.000000" ry="24.586075" fill="rgb(255, 165, 0)" style="fill-opacity:1.00" />
<ellipse cx="415.000000" cy="75.539695" rx="16.666667" ry="16.390717" fill="rgb(255, 255, 255)" style="fill-opacity:1.00" />
<rect height="24.586075" width="25.000000" x="415.000000" y="63.246657" fill="rgb(255, 255, 255)" style="fill-opacity:1.00" />
<rect height="6.146519" width="25.000000" x="415.000000" y="81.686214" fill="rgb(255, 165, 0)" style="fill-opacity:1.00" />
<rect height="18.439556" width="6.250000" x="433.750000" y="81.686214" fill="rgb(255, 165, 0)" style="fill-opacity:1.00" />
<!-- End 'G' -->
<!-- Begin 'A' -->
<polygon points=" 390.000000, 107.743960, 411.000000, 100.125770, 419.000000, 100.125770, 440.000000, 107.743960, 432.500000, 107.743960, 426.250000, 105.839413, 403.750000, 105.839413, 397.500000, 107.743960" fill="rgb(178, 34, 34)" style="fill-opacity:1.00" />
<!-- End 'A' -->
<!-- Begin 'C' -->
<ellipse cx="415.000000" cy="108.345282" rx="25.000000" ry="0.601322" fill="rgb(0, 0, 128)" style="fill-opacity:1.00" />
<ellipse cx="415.000000" cy="108.345282" rx="16.666667" ry="0.400881" fill="rgb(255, 255, 255)" style="fill-opacity:1.00" />
<rect height="0.601322" width="25.000000" x="415.000000" y="108.044621" fill="rgb(255, 255, 255)" style="fill-opacity:1.00" />
<!-- End 'C' -->
<!-- Begin 'T' -->
<rect height="0.168543" width="50.000000" x="390.000000" y="108.946605" fill="rgb(0, 100, 0)" style="fill-opacity:1.00" />
<rect height="1.053395" width="10.000000" x="410.000000" y="108.946605" fill="rgb(0, 100, 0)" style="fill-opacity:1.00" />
<!-- End 'T' -->
<!-- Begin 'C' -->
<ellipse cx="475.000000" cy="75.754338" rx="25.000000" ry="24.275987" fill="rgb(0, 0, 128)" style="fill-opacity:1.00" />
<ellipse cx="475.000000" cy="75.754338" rx="16.666667" ry="16.183991" fill="rgb(255, 255, 255)" style="fill-opacity:1.00" />
<rect height="24.275987" width="25.000000" x="475.000000" y="63.616345" fill="rgb(255, 255, 255)" style="fill-opacity:1.00" />
<!-- End 'C' -->
<!-- Begin 'A' -->
<polygon points=" 450.000000, 105.429498, 471.000000, 100.030325, 479.000000, 100.030325, 500.000000, 105.429498, 492.500000, 105.429498, 486.250000, 104.079705, 463.750000, 104.079705, 457.500000, 105.429498" fill="rgb(178, 34, 34)" style="fill-opacity:1.00" />
<!-- End 'A' -->
<!-- Begin 'T' -->
<rect height="0.729913" width="50.000000" x="450.000000" y="105.429498" fill="rgb(0, 100, 0)" style="fill-opacity:1.00" />
<rect height="4.561959" width="10.000000" x="470.000000" y="105.429498" fill="rgb(0, 100, 0)" style="fill-opacity:1.00" />
<!-- End 'T' -->
<!-- Begin 'G' -->
<ellipse cx="475.000000" cy="109.995729" rx="25.000000" ry="0.004271" fill="rgb(255, 165, 0)" style="fill-opacity:1.00" />
<ellipse cx="475.000000" cy="109.995729" rx="16.666667" ry="0.002848" fill="rgb(255, 255, 255)" style="fill-opacity:1.00" />
<rect height="0.004271" width="25.000000" x="475.000000" y="109.993593" fill="rgb(255, 255, 255)" style="fill-opacity:1.00" />
<rect height="0.001068" width="25.000000" x="475.000000" y="109.996796" fill="rgb(255, 165, 0)" style="fill-opacity:1.00" />
<rect height="0.003204" width="6.250000" x="493.750000" y="109.996796" fill="rgb(255, 165, 0)" style="fill-opacity:1.00" />
<!-- End 'G' -->
<!-- Begin 'A' -->
<polygon points=" 510.000000, 107.486884, 531.000000, 19.322263, 539.000000, 19.322263, 560.000000, 107.486884, 552.500000, 107.486884, 546.250000, 85.445728, 523.750000, 85.445728, 517.500000, 107.486884" fill="rgb(178, 34, 34)" style="fill-opacity:1.00" />
<polygon points=" 535.000000, 36.955187, 527.000000, 71.221035, 542.000000, 71.221035" fill="rgb(255, 255, 255)" style="fill-opacity:1.00" />
<!-- End 'A' -->
<!-- Begin 'C' -->
<ellipse cx="535.000000" cy="108.722111" rx="25.000000" ry="1.235228" fill="rgb(0, 0, 128)" style="fill-opacity:1.00" />
<ellipse cx="535.000000" cy="108.722111" rx="16.666667" ry="0.823485" fill="rgb(255, 255, 255)" style="fill-opacity:1.00" />
<rect height="1.235228" width="25.000000" x="535.000000" y="108.104497" fill="rgb(255, 255, 255)" style="fill-opacity:1.00" />
<!-- End 'C' -->
<!-- Begin 'G' -->
<ellipse cx="535.000000" cy="109.976730" rx="25.000000" ry="0.019391" fill="rgb(255, 165, 0)" style="fill-opacity:1.00" />
<ellipse cx="535.000000" cy="109.976730" rx="16.666667" ry="0.012928" fill="rgb(255, 255, 255)" style="fill-opacity:1.00" />
<rect height="0.019391" width="25.000000" x="535.000000" y="109.967035" fill="rgb(255, 255, 255)" style="fill-opacity:1.00" />
<rect height="0.004848" width="25.000000" x="535.000000" y="109.981578" fill="rgb(255, 165, 0)" style="fill-opacity:1.00" />
<rect height="0.014543" width="6.250000" x="553.750000" y="109.981578" fill="rgb(255, 165, 0)" style="fill-opacity:1.00" />
<!-- End 'G' -->
<!-- Begin 'T' -->
<rect height="0.000621" width="50.000000" x="510.000000" y="109.996122" fill="rgb(0, 100, 0)" style="fill-opacity:1.00" />
<rect height="0.003878" width="10.000000" x="530.000000" y="109.996122" fill="rgb(0, 100, 0)" style="fill-opacity:1.00" />
<!-- End 'T' -->
<!-- Begin 'A' -->
<polygon points=" 570.000000, 109.908252, 591.000000, 10.588456, 599.000000, 10.588456, 620.000000, 109.908252, 612.500000, 109.908252, 606.250000, 85.078303, 583.750000, 85.078303, 577.500000, 109.908252" fill="rgb(178, 34, 34)" style="fill-opacity:1.00" />
<polygon points=" 595.000000, 30.452415, 587.000000, 69.180333, 602.000000, 69.180333" fill="rgb(255, 255, 255)" style="fill-opacity:1.00" />
<!-- End 'A' -->
<!-- Begin 'T' -->
<rect height="0.006990" width="50.000000" x="570.000000" y="109.908252" fill="rgb(0, 100, 0)" style="fill-opacity:1.00" />
<rect height="0.043690" width="10.000000" x="590.000000" y="109.908252" fill="rgb(0, 100, 0)" style="fill-opacity:1.00" />
<!-- End 'T' -->
<!-- Begin 'C' -->
<ellipse cx="595.000000" cy="109.973786" rx="25.000000" ry="0.021845" fill="rgb(0, 0, 128)" style="fill-opacity:1.00" />
<ellipse cx="595.000000" cy="109.973786" rx="16.666667" ry="0.014563" fill="rgb(255, 255, 255)" style="fill-opacity:1.00" />
<rect height="0.021845" width="25.000000" x="595.000000" y="109.962864" fill="rgb(255, 255, 255)" style="fill-opacity:1.00" />
<!-- End 'C' -->
<!-- Begin 'G' -->
<ellipse cx="595.000000" cy="109.997816" rx="25.000000" ry="0.002184" fill="rgb(255, 165, 0)" style="fill-opacity:1.00" />
<ellipse cx="595.000000" cy="109.997816" rx="16.666667" ry="0.001456" fill="rgb(255, 255, 255)" style="fill-opacity:1.00" />
<rect height="0.002184" width="25.000000" x="595.000000" y="109.996723" fill="rgb(255, 255, 255)" style="fill-opacity:1.00" />
<rect height="0.000546" width="25.000000" x="595.000000" y="109.998362" fill="rgb(255, 165, 0)" style="fill-opacity:1.00" />
<rect height="0.001638" width="6.250000" x="613.750000" y="109.998362" fill="rgb(255, 165, 0)" style="fill-opacity:1.00" />
<!-- End 'G' -->
<!-- Begin 'T' -->
<rect height="3.061087" width="50.000000" x="630.000000" y="72.371133" fill="rgb(0, 100, 0)" style="fill-opacity:1.00" />
<rect height="19.131797" width="10.000000" x="650.000000" y="72.371133" fill="rgb(0, 100, 0)" style="fill-opacity:1.00" />
<!-- End 'T' -->
<!-- Begin 'C' -->
<ellipse cx="655.000000" cy="99.885426" rx="25.000000" ry="8.382496" fill="rgb(0, 0, 128)" style="fill-opacity:1.00" />
<ellipse cx="655.000000" cy="99.885426" rx="16.666667" ry="5.588331" fill="rgb(255, 255, 255)" style="fill-opacity:1.00" />
<rect height="8.382496" width="25.000000" x="655.000000" y="95.694178" fill="rgb(255, 255, 255)" style="fill-opacity:1.00" />
<!-- End 'C' -->
<!-- Begin 'G' -->
<ellipse cx="655.000000" cy="109.010805" rx="25.000000" ry="0.742883" fill="rgb(255, 165, 0)" style="fill-opacity:1.00" />
<ellipse cx="655.000000" cy="109.010805" rx="16.666667" ry="0.495255" fill="rgb(255, 255, 255)" style="fill-opacity:1.00" />
<rect height="0.742883" width="25.000000" x="655.000000" y="108.639364" fill="rgb(255, 255, 255)" style="fill-opacity:1.00" />
<rect height="0.185721" width="25.000000" x="655.000000" y="109.196526" fill="rgb(255, 165, 0)" style="fill-opacity:1.00" />
<rect height="0.557162" width="6.250000" x="673.750000" y="109.196526" fill="rgb(255, 165, 0)" style="fill-opacity:1.00" />
<!-- End 'G' -->
<!-- Begin 'A' -->
<polygon points=" 630.000000, 110.000000, 651.000000, 109.753688, 659.000000, 109.753688, 680.000000, 110.000000, 672.500000, 110.000000, 666.250000, 109.938422, 643.750000, 109.938422, 637.500000, 110.000000" fill="rgb(178, 34, 34)" style="fill-opacity:1.00" />
<!-- End 'A' -->
<text x="370.000000" y="165">
IC = 12.76
</text>

</svg>
