<?xml version="1.0" encoding="UTF-8" standalone="yes"?>
                 <!DOCTYPE svg PUBLIC "-//W3C//DTD SVG 1.0//EN" "http://www.w3.org/TR/2001/REC-SVG-20010904/DTD/svg10.dtd">
                 <svg height="500" width="720" xmlns="http://www.w3.org/2000/svg" xmlns:xlink="http://www.w3.org/1999/xlink">
                 <line x1="85" y1="450" x2="687" y2="450" style="stroke:rgb(99,99,99);stroke-width:2" />
<rect height="7.000000" width="2.000000" x="85.000000" y="450.000000" fill="rgb(0, 0, 0)" style="fill-opacity:1.00" />
<text x="107.000000" y="470">
1
</text>
<rect height="7.000000" width="2.000000" x="145.000000" y="450.000000" fill="rgb(0, 0, 0)" style="fill-opacity:1.00" />
<text x="167.000000" y="470">
2
</text>
<rect height="7.000000" width="2.000000" x="205.000000" y="450.000000" fill="rgb(0, 0, 0)" style="fill-opacity:1.00" />
<text x="227.000000" y="470">
3
</text>
<rect height="7.000000" width="2.000000" x="265.000000" y="450.000000" fill="rgb(0, 0, 0)" style="fill-opacity:1.00" />
<text x="287.000000" y="470">
4
</text>
<rect height="7.000000" width="2.000000" x="325.000000" y="450.000000" fill="rgb(0, 0, 0)" style="fill-opacity:1.00" />
<text x="347.000000" y="470">
5
</text>
<rect height="7.000000" width="2.000000" x="385.000000" y="450.000000" fill="rgb(0, 0, 0)" style="fill-opacity:1.00" />
<text x="407.000000" y="470">
6
</text>
<rect height="7.000000" width="2.000000" x="445.000000" y="450.000000" fill="rgb(0, 0, 0)" style="fill-opacity:1.00" />
<text x="467.000000" y="470">
7
</text>
<rect height="7.000000" width="2.000000" x="505.000000" y="450.000000" fill="rgb(0, 0, 0)" style="fill-opacity:1.00" />
<text x="527.000000" y="470">
8
</text>
<rect height="7.000000" width="2.000000" x="565.000000" y="450.000000" fill="rgb(0, 0, 0)" style="fill-opacity:1.00" />
<text x="587.000000" y="470">
9
</text>
<rect height="7.000000" width="2.000000" x="625.000000" y="450.000000" fill="rgb(0, 0, 0)" style="fill-opacity:1.00" />
<text x="647.000000" y="470">
10
</text>
<rect height="7.000000" width="2.000000" x="685.000000" y="450.000000" fill="rgb(0, 0, 0)" style="fill-opacity:1.00" />
<!-- Begin 'A' -->
<polygon points=" 10.000000, 110.000000, 35.200000, 10.000000, 44.800000, 10.000000, 70.000000, 110.000000, 61.000000, 110.000000, 53.500000, 85.000000, 26.500000, 85.000000, 19.000000, 110.000000" fill="rgb(178, 34, 34)" style="fill-opacity:1.00" />
<polygon points=" 40.000000, 30.000000, 30.400000, 69.000000, 48.400000, 69.000000" fill="rgb(255, 255, 255)" style="fill-opacity:1.00" />
<!-- End 'A' -->
<!-- Begin 'C' -->
<ellipse cx="40.000000" cy="170.000000" rx="30.000000" ry="50.000000" fill="rgb(0, 0, 128)" style="fill-opacity:1.00" />
<ellipse cx="40.000000" cy="170.000000" rx="20.000000" ry="33.333333" fill="rgb(255, 255, 255)" style="fill-opacity:1.00" />
<rect height="50.000000" width="30.000000" x="40.000000" y="145.000000" fill="rgb(255, 255, 255)" style="fill-opacity:1.00" />
<!-- End 'C' -->
<!-- Begin 'G' -->
<ellipse cx="40.000000" cy="280.000000" rx="30.000000" ry="50.000000" fill="rgb(255, 165, 0)" style="fill-opacity:1.00" />
<ellipse cx="40.000000" cy="280.000000" rx="20.000000" ry="33.333333" fill="rgb(255, 255, 255)" style="fill-opacity:1.00" />
<rect height="50.000000" width="30.000000" x="40.000000" y="255.000000" fill="rgb(255, 255, 255)" style="fill-opacity:1.00" />
<rect height="12.500000" width="30.000000" x="40.000000" y="292.500000" fill="rgb(255, 165, 0)" style="fill-opacity:1.00" />
<rect height="37.500000" width="7.500000" x="62.500000" y="292.500000" fill="rgb(255, 165, 0)" style="fill-opacity:1.00" />
<!-- End 'G' -->
<!-- Begin 'T' -->
<rect height="16.000000" width="60.000000" x="10.000000" y="340.000000" fill="rgb(0, 100, 0)" style="fill-opacity:1.00" />
<rect height="100.000000" width="12.000000" x="34.000000" y="340.000000" fill="rgb(0, 100, 0)" style="fill-opacity:1.00" />
<!-- End 'T' -->
<!-- Begin 'G' -->
<ellipse cx="115.000000" cy="36.335236" rx="25.000000" ry="26.335236" fill="rgb(255, 165, 0)" style="fill-opacity:0.25" />
<ellipse cx="115.000000" cy="36.335236" rx="16.666667" ry="17.556824" fill="rgb(255, 255, 255)" style="fill-opacity:1.00" />
<rect height="26.335236" width="25.000000" x="115.000000" y="23.167618" fill="rgb(255, 255, 255)" style="fill-opacity:1.00" />
<rect height="6.583809" width="25.000000" x="115.000000" y="42.919045" fill="rgb(255, 165, 0)" style="fill-opacity:0.25" />
<rect height="19.751427" width="6.250000" x="133.750000" y="42.919045" fill="rgb(255, 165, 0)" style="fill-opacity:0.25" />
<!-- End 'G' -->
<!-- Begin 'C' -->
<ellipse cx="115.000000" cy="76.114609" rx="25.000000" ry="13.444137" fill="rgb(0, 0, 128)" style="fill-opacity:0.25" />
<ellipse cx="115.000000" cy="76.114609" rx="16.666667" ry="8.962758" fill="rgb(255, 255, 255)" style="fill-opacity:1.00" />
<rect height="13.444137" width="25.000000" x="115.000000" y="69.392540" fill="rgb(255, 255, 255)" style="fill-opacity:1.00" />
<!-- End 'C' -->
<!-- Begin 'A' -->
<polygon points=" 90.000000, 102.100545, 111.000000, 89.558745, 119.000000, 89.558745, 140.000000, 102.100545, 132.500000, 102.100545, 126.250000, 98.965095, 103.750000, 98.965095, 97.500000, 102.100545" fill="rgb(178, 34, 34)" style="fill-opacity:0.25" />
<polygon points=" 115.000000, 92.067105, 107.000000, 96.083825, 122.000000, 96.083825" fill="rgb(255, 255, 255)" style="fill-opacity:1.00" />
<!-- End 'A' -->
<!-- Begin 'T' -->
<rect height="1.263913" width="50.000000" x="90.000000" y="102.100545" fill="rgb(0, 100, 0)" style="fill-opacity:0.25" />
<rect height="7.899455" width="10.000000" x="110.000000" y="102.100545" fill="rgb(0, 100, 0)" style="fill-opacity:0.25" />
<!-- End 'T' -->
<!-- Begin 'G' -->
<ellipse cx="115.000000" cy="138.220841" rx="25.000000" ry="18.220841" fill="rgb(255, 165, 0)" style="fill-opacity:0.25" />
<ellipse cx="115.000000" cy="138.220841" rx="16.666667" ry="12.147227" fill="rgb(255, 255, 255)" style="fill-opacity:1.00" />
<rect height="18.220841" width="25.000000" x="115.000000" y="129.110421" fill="rgb(255, 255, 255)" style="fill-opacity:1.00" />
<rect height="4.555210" width="25.000000" x="115.000000" y="142.776051" fill="rgb(255, 165, 0)" style="fill-opacity:0.25" />
<rect height="13.665631" width="6.250000" x="133.750000" y="142.776051" fill="rgb(255, 165, 0)" style="fill-opacity:0.25" />
<!-- End 'G' -->
<!-- Begin 'C' -->
<ellipse cx="115.000000" cy="172.719972" rx="25.000000" ry="16.278290" fill="rgb(0, 0, 128)" style="fill-opacity:0.25" />
<ellipse cx="115.000000" cy="172.719972" rx="16.666667" ry="10.852193" fill="rgb(255, 255, 255)" style="fill-opacity:1.00" />
<rect height="16.278290" width="25.000000" x="115.000000" y="164.580827" fill="rgb(255, 255, 255)" style="fill-opacity:1.00" />
<!-- End 'C' -->
<!-- Begin 'A' -->
<polygon points=" 90.000000, 205.694142, 111.000000, 188.998261, 119.000000, 188.998261, 140.000000, 205.694142, 132.500000, 205.694142, 126.250000, 201.520172, 103.750000, 201.520172, 97.500000, 205.694142" fill="rgb(178, 34, 34)" style="fill-opacity:0.25" />
<polygon points=" 115.000000, 192.337437, 107.000000, 198.015790, 122.000000, 198.015790" fill="rgb(255, 255, 255)" style="fill-opacity:1.00" />
<!-- End 'A' -->
<!-- Begin 'T' -->
<rect height="2.288937" width="50.000000" x="90.000000" y="205.694142" fill="rgb(0, 100, 0)" style="fill-opacity:0.25" />
<rect height="14.305858" width="10.000000" x="110.000000" y="205.694142" fill="rgb(0, 100, 0)" style="fill-opacity:0.25" />
<!-- End 'T' -->
<!-- Begin 'C' -->
<ellipse cx="115.000000" cy="248.790848" rx="25.000000" ry="18.790848" fill="rgb(0, 0, 128)" style="fill-opacity:0.25" />
<ellipse cx="115.000000" cy="248.790848" rx="16.666667" ry="12.527232" fill="rgb(255, 255, 255)" style="fill-opacity:1.00" />
<rect height="18.790848" width="25.000000" x="115.000000" y="239.395424" fill="rgb(255, 255, 255)" style="fill-opacity:1.00" />
<!-- End 'C' -->
<!-- Begin 'G' -->
<ellipse cx="115.000000" cy="283.085039" rx="25.000000" ry="15.503342" fill="rgb(255, 165, 0)" style="fill-opacity:0.25" />
<ellipse cx="115.000000" cy="283.085039" rx="16.666667" ry="10.335562" fill="rgb(255, 255, 255)" style="fill-opacity:1.00" />
<rect height="15.503342" width="25.000000" x="115.000000" y="275.333368" fill="rgb(255, 255, 255)" style="fill-opacity:1.00" />
<rect height="3.875836" width="25.000000" x="115.000000" y="286.960875" fill="rgb(255, 165, 0)" style="fill-opacity:0.25" />
<rect height="11.627507" width="6.250000" x="133.750000" y="286.960875" fill="rgb(255, 165, 0)" style="fill-opacity:0.25" />
<!-- End 'G' -->
<!-- Begin 'A' -->
<polygon points=" 90.000000, 315.556084, 111.000000, 298.588381, 119.000000, 298.588381, 140.000000, 315.556084, 132.500000, 315.556084, 126.250000, 311.314158, 103.750000, 311.314158, 97.500000, 315.556084" fill="rgb(178, 34, 34)" style="fill-opacity:0.25" />
<polygon points=" 115.000000, 301.981922, 107.000000, 307.769003, 122.000000, 307.769003" fill="rgb(255, 255, 255)" style="fill-opacity:1.00" />
<!-- End 'A' -->
<!-- Begin 'T' -->
<rect height="2.311027" width="50.000000" x="90.000000" y="315.556084" fill="rgb(0, 100, 0)" style="fill-opacity:0.25" />
<rect height="14.443916" width="10.000000" x="110.000000" y="315.556084" fill="rgb(0, 100, 0)" style="fill-opacity:0.25" />
<!-- End 'T' -->
<!-- Begin 'G' -->
<ellipse cx="115.000000" cy="367.618478" rx="25.000000" ry="27.618478" fill="rgb(255, 165, 0)" style="fill-opacity:0.25" />
<ellipse cx="115.000000" cy="367.618478" rx="16.666667" ry="18.412319" fill="rgb(255, 255, 255)" style="fill-opacity:1.00" />
<rect height="27.618478" width="25.000000" x="115.000000" y="353.809239" fill="rgb(255, 255, 255)" style="fill-opacity:1.00" />
<rect height="6.904620" width="25.000000" x="115.000000" y="374.523098" fill="rgb(255, 165, 0)" style="fill-opacity:0.25" />
<rect height="20.713859" width="6.250000" x="133.750000" y="374.523098" fill="rgb(255, 165, 0)" style="fill-opacity:0.25" />
<!-- End 'G' -->
<!-- Begin 'C' -->
<ellipse cx="115.000000" cy="414.401148" rx="25.000000" ry="19.164191" fill="rgb(0, 0, 128)" style="fill-opacity:0.25" />
<ellipse cx="115.000000" cy="414.401148" rx="16.666667" ry="12.776128" fill="rgb(255, 255, 255)" style="fill-opacity:1.00" />
<rect height="19.164191" width="25.000000" x="115.000000" y="404.819052" fill="rgb(255, 255, 255)" style="fill-opacity:1.00" />
<!-- End 'C' -->
<!-- Begin 'T' -->
<rect height="0.568521" width="50.000000" x="90.000000" y="433.565339" fill="rgb(0, 100, 0)" style="fill-opacity:0.25" />
<rect height="3.553254" width="10.000000" x="110.000000" y="433.565339" fill="rgb(0, 100, 0)" style="fill-opacity:0.25" />
<!-- End 'T' -->
<!-- Begin 'A' -->
<polygon points=" 90.000000, 440.000000, 111.000000, 437.118594, 119.000000, 437.118594, 140.000000, 440.000000, 132.500000, 440.000000, 126.250000, 439.279648, 103.750000, 439.279648, 97.500000, 440.000000" fill="rgb(178, 34, 34)" style="fill-opacity:0.25" />
<!-- End 'A' -->
<!-- Begin 'C' -->
<ellipse cx="175.000000" cy="31.931592" rx="25.000000" ry="21.931592" fill="rgb(0, 0, 128)" style="fill-opacity:0.14" />
<ellipse cx="175.000000" cy="31.931592" rx="16.666667" ry="14.621062" fill="rgb(255, 255, 255)" style="fill-opacity:1.00" />
<rect height="21.931592" width="25.000000" x="175.000000" y="20.965796" fill="rgb(255, 255, 255)" style="fill-opacity:1.00" />
<!-- End 'C' -->
<!-- Begin 'G' -->
<ellipse cx="175.000000" cy="73.696831" rx="25.000000" ry="19.833646" fill="rgb(255, 165, 0)" style="fill-opacity:0.14" />
<ellipse cx="175.000000" cy="73.696831" rx="16.666667" ry="13.222431" fill="rgb(255, 255, 255)" style="fill-opacity:1.00" />
<rect height="19.833646" width="25.000000" x="175.000000" y="63.780008" fill="rgb(255, 255, 255)" style="fill-opacity:1.00" />
<rect height="4.958412" width="25.000000" x="175.000000" y="78.655242" fill="rgb(255, 165, 0)" style="fill-opacity:0.14" />
<rect height="14.875235" width="6.250000" x="193.750000" y="78.655242" fill="rgb(255, 165, 0)" style="fill-opacity:0.14" />
<!-- End 'G' -->
<!-- Begin 'A' -->
<polygon points=" 150.000000, 106.950999, 171.000000, 93.530477, 179.000000, 93.530477, 200.000000, 106.950999, 192.500000, 106.950999, 186.250000, 103.595868, 163.750000, 103.595868, 157.500000, 106.950999" fill="rgb(178, 34, 34)" style="fill-opacity:0.14" />
<polygon points=" 175.000000, 96.214581, 167.000000, 100.582790, 182.000000, 100.582790" fill="rgb(255, 255, 255)" style="fill-opacity:1.00" />
<!-- End 'A' -->
<!-- Begin 'T' -->
<rect height="0.487840" width="50.000000" x="150.000000" y="106.950999" fill="rgb(0, 100, 0)" style="fill-opacity:0.14" />
<rect height="3.049001" width="10.000000" x="170.000000" y="106.950999" fill="rgb(0, 100, 0)" style="fill-opacity:0.14" />
<!-- End 'T' -->
<!-- Begin 'C' -->
<ellipse cx="175.000000" cy="139.306473" rx="25.000000" ry="19.306473" fill="rgb(0, 0, 128)" style="fill-opacity:0.34" />
<ellipse cx="175.000000" cy="139.306473" rx="16.666667" ry="12.870982" fill="rgb(255, 255, 255)" style="fill-opacity:1.00" />
<rect height="19.306473" width="25.000000" x="175.000000" y="129.653237" fill="rgb(255, 255, 255)" style="fill-opacity:1.00" />
<!-- End 'C' -->
<!-- Begin 'G' -->
<ellipse cx="175.000000" cy="174.048929" rx="25.000000" ry="15.435983" fill="rgb(255, 165, 0)" style="fill-opacity:0.34" />
<ellipse cx="175.000000" cy="174.048929" rx="16.666667" ry="10.290655" fill="rgb(255, 255, 255)" style="fill-opacity:1.00" />
<rect height="15.435983" width="25.000000" x="175.000000" y="166.330938" fill="rgb(255, 255, 255)" style="fill-opacity:1.00" />
<rect height="3.858996" width="25.000000" x="175.000000" y="177.907925" fill="rgb(255, 165, 0)" style="fill-opacity:0.34" />
<rect height="11.576987" width="6.250000" x="193.750000" y="177.907925" fill="rgb(255, 165, 0)" style="fill-opacity:0.34" />
<!-- End 'G' -->
<!-- Begin 'T' -->
<rect height="4.019493" width="50.000000" x="150.000000" y="189.484912" fill="rgb(0, 100, 0)" style="fill-opacity:0.34" />
<rect height="25.121828" width="10.000000" x="170.000000" y="189.484912" fill="rgb(0, 100, 0)" style="fill-opacity:0.34" />
<!-- End 'T' -->
<!-- Begin 'A' -->
<polygon points=" 150.000000, 220.000000, 171.000000, 214.606740, 179.000000, 214.606740, 200.000000, 220.000000, 192.500000, 220.000000, 186.250000, 218.651685, 163.750000, 218.651685, 157.500000, 220.000000" fill="rgb(178, 34, 34)" style="fill-opacity:0.34" />
<!-- End 'A' -->
<!-- Begin 'C' -->
<ellipse cx="175.000000" cy="251.978527" rx="25.000000" ry="21.978527" fill="rgb(0, 0, 128)" style="fill-opacity:0.40" />
<ellipse cx="175.000000" cy="251.978527" rx="16.666667" ry="14.652351" fill="rgb(255, 255, 255)" style="fill-opacity:1.00" />
<rect height="21.978527" width="25.000000" x="175.000000" y="240.989263" fill="rgb(255, 255, 255)" style="fill-opacity:1.00" />
<!-- End 'C' -->
<!-- Begin 'G' -->
<ellipse cx="175.000000" cy="289.826562" rx="25.000000" ry="15.869509" fill="rgb(255, 165, 0)" style="fill-opacity:0.40" />
<ellipse cx="175.000000" cy="289.826562" rx="16.666667" ry="10.579672" fill="rgb(255, 255, 255)" style="fill-opacity:1.00" />
<rect height="15.869509" width="25.000000" x="175.000000" y="281.891808" fill="rgb(255, 255, 255)" style="fill-opacity:1.00" />
<rect height="3.967377" width="25.000000" x="175.000000" y="293.793939" fill="rgb(255, 165, 0)" style="fill-opacity:0.40" />
<rect height="11.902131" width="6.250000" x="193.750000" y="293.793939" fill="rgb(255, 165, 0)" style="fill-opacity:0.40" />
<!-- End 'G' -->
<!-- Begin 'T' -->
<rect height="2.537576" width="50.000000" x="150.000000" y="305.696070" fill="rgb(0, 100, 0)" style="fill-opacity:0.40" />
<rect height="15.859849" width="10.000000" x="170.000000" y="305.696070" fill="rgb(0, 100, 0)" style="fill-opacity:0.40" />
<!-- End 'T' -->
<!-- Begin 'A' -->
<polygon points=" 150.000000, 330.000000, 171.000000, 321.555919, 179.000000, 321.555919, 200.000000, 330.000000, 192.500000, 330.000000, 186.250000, 327.888980, 163.750000, 327.888980, 157.500000, 330.000000" fill="rgb(178, 34, 34)" style="fill-opacity:0.40" />
<polygon points=" 175.000000, 323.244735, 167.000000, 325.622368, 182.000000, 325.622368" fill="rgb(255, 255, 255)" style="fill-opacity:1.00" />
<!-- End 'A' -->
<!-- Begin 'C' -->
<ellipse cx="175.000000" cy="371.501294" rx="25.000000" ry="31.501294" fill="rgb(0, 0, 128)" style="fill-opacity:0.12" />
<ellipse cx="175.000000" cy="371.501294" rx="16.666667" ry="21.000862" fill="rgb(255, 255, 255)" style="fill-opacity:1.00" />
<rect height="31.501294" width="25.000000" x="175.000000" y="355.750647" fill="rgb(255, 255, 255)" style="fill-opacity:1.00" />
<!-- End 'C' -->
<!-- Begin 'G' -->
<ellipse cx="175.000000" cy="413.904279" rx="25.000000" ry="10.901692" fill="rgb(255, 165, 0)" style="fill-opacity:0.12" />
<ellipse cx="175.000000" cy="413.904279" rx="16.666667" ry="7.267795" fill="rgb(255, 255, 255)" style="fill-opacity:1.00" />
<rect height="10.901692" width="25.000000" x="175.000000" y="408.453433" fill="rgb(255, 255, 255)" style="fill-opacity:1.00" />
<rect height="2.725423" width="25.000000" x="175.000000" y="416.629702" fill="rgb(255, 165, 0)" style="fill-opacity:0.12" />
<rect height="8.176269" width="6.250000" x="193.750000" y="416.629702" fill="rgb(255, 165, 0)" style="fill-opacity:0.12" />
<!-- End 'G' -->
<!-- Begin 'T' -->
<rect height="2.167934" width="50.000000" x="150.000000" y="424.805971" fill="rgb(0, 100, 0)" style="fill-opacity:0.12" />
<rect height="13.549586" width="10.000000" x="170.000000" y="424.805971" fill="rgb(0, 100, 0)" style="fill-opacity:0.12" />
<!-- End 'T' -->
<!-- Begin 'A' -->
<polygon points=" 150.000000, 440.000000, 171.000000, 438.355557, 179.000000, 438.355557, 200.000000, 440.000000, 192.500000, 440.000000, 186.250000, 439.588889, 163.750000, 439.588889, 157.500000, 440.000000" fill="rgb(178, 34, 34)" style="fill-opacity:0.12" />
<!-- End 'A' -->
<!-- Begin 'G' -->
<ellipse cx="235.000000" cy="36.273180" rx="25.000000" ry="26.273180" fill="rgb(255, 165, 0)" style="fill-opacity:0.07" />
<ellipse cx="235.000000" cy="36.273180" rx="16.666667" ry="17.515453" fill="rgb(255, 255, 255)" style="fill-opacity:1.00" />
<rect height="26.273180" width="25.000000" x="235.000000" y="23.136590" fill="rgb(255, 255, 255)" style="fill-opacity:1.00" />
<rect height="6.568295" width="25.000000" x="235.000000" y="42.841475" fill="rgb(255, 165, 0)" style="fill-opacity:0.07" />
<rect height="19.704885" width="6.250000" x="253.750000" y="42.841475" fill="rgb(255, 165, 0)" style="fill-opacity:0.07" />
<!-- End 'G' -->
<!-- Begin 'A' -->
<polygon points=" 210.000000, 105.621090, 231.000000, 62.546360, 239.000000, 62.546360, 260.000000, 105.621090, 252.500000, 105.621090, 246.250000, 94.852407, 223.750000, 94.852407, 217.500000, 105.621090" fill="rgb(178, 34, 34)" style="fill-opacity:0.07" />
<polygon points=" 235.000000, 71.161306, 227.000000, 87.391198, 242.000000, 87.391198" fill="rgb(255, 255, 255)" style="fill-opacity:1.00" />
<!-- End 'A' -->
<!-- Begin 'C' -->
<ellipse cx="235.000000" cy="107.805120" rx="25.000000" ry="2.184031" fill="rgb(0, 0, 128)" style="fill-opacity:0.07" />
<ellipse cx="235.000000" cy="107.805120" rx="16.666667" ry="1.456020" fill="rgb(255, 255, 255)" style="fill-opacity:1.00" />
<rect height="2.184031" width="25.000000" x="235.000000" y="106.713105" fill="rgb(255, 255, 255)" style="fill-opacity:1.00" />
<!-- End 'C' -->
<!-- Begin 'T' -->
<rect height="0.001736" width="50.000000" x="210.000000" y="109.989151" fill="rgb(0, 100, 0)" style="fill-opacity:0.07" />
<rect height="0.010849" width="10.000000" x="230.000000" y="109.989151" fill="rgb(0, 100, 0)" style="fill-opacity:0.07" />
<!-- End 'T' -->
<!-- Begin 'A' -->
<polygon points=" 210.000000, 169.301036, 231.000000, 120.000000, 239.000000, 120.000000, 260.000000, 169.301036, 252.500000, 169.301036, 246.250000, 156.975777, 223.750000, 156.975777, 217.500000, 169.301036" fill="rgb(178, 34, 34)" style="fill-opacity:0.44" />
<polygon points=" 235.000000, 129.860207, 227.000000, 148.580622, 242.000000, 148.580622" fill="rgb(255, 255, 255)" style="fill-opacity:1.00" />
<!-- End 'A' -->
<!-- Begin 'G' -->
<ellipse cx="235.000000" cy="183.014906" rx="25.000000" ry="13.713870" fill="rgb(255, 165, 0)" style="fill-opacity:0.44" />
<ellipse cx="235.000000" cy="183.014906" rx="16.666667" ry="9.142580" fill="rgb(255, 255, 255)" style="fill-opacity:1.00" />
<rect height="13.713870" width="25.000000" x="235.000000" y="176.157971" fill="rgb(255, 255, 255)" style="fill-opacity:1.00" />
<rect height="3.428467" width="25.000000" x="235.000000" y="186.443374" fill="rgb(255, 165, 0)" style="fill-opacity:0.44" />
<rect height="10.285402" width="6.250000" x="253.750000" y="186.443374" fill="rgb(255, 165, 0)" style="fill-opacity:0.44" />
<!-- End 'G' -->
<!-- Begin 'C' -->
<ellipse cx="235.000000" cy="205.826492" rx="25.000000" ry="9.097716" fill="rgb(0, 0, 128)" style="fill-opacity:0.44" />
<ellipse cx="235.000000" cy="205.826492" rx="16.666667" ry="6.065144" fill="rgb(255, 255, 255)" style="fill-opacity:1.00" />
<rect height="9.097716" width="25.000000" x="235.000000" y="201.277634" fill="rgb(255, 255, 255)" style="fill-opacity:1.00" />
<!-- End 'C' -->
<!-- Begin 'T' -->
<rect height="0.812127" width="50.000000" x="210.000000" y="214.924208" fill="rgb(0, 100, 0)" style="fill-opacity:0.44" />
<rect height="5.075792" width="10.000000" x="230.000000" y="214.924208" fill="rgb(0, 100, 0)" style="fill-opacity:0.44" />
<!-- End 'T' -->
<!-- Begin 'G' -->
<ellipse cx="235.000000" cy="251.349303" rx="25.000000" ry="21.349303" fill="rgb(255, 165, 0)" style="fill-opacity:0.31" />
<ellipse cx="235.000000" cy="251.349303" rx="16.666667" ry="14.232869" fill="rgb(255, 255, 255)" style="fill-opacity:1.00" />
<rect height="21.349303" width="25.000000" x="235.000000" y="240.674652" fill="rgb(255, 255, 255)" style="fill-opacity:1.00" />
<rect height="5.337326" width="25.000000" x="235.000000" y="256.686629" fill="rgb(255, 165, 0)" style="fill-opacity:0.31" />
<rect height="16.011977" width="6.250000" x="253.750000" y="256.686629" fill="rgb(255, 165, 0)" style="fill-opacity:0.31" />
<!-- End 'G' -->
<!-- Begin 'C' -->
<ellipse cx="235.000000" cy="289.954230" rx="25.000000" ry="17.255624" fill="rgb(0, 0, 128)" style="fill-opacity:0.31" />
<ellipse cx="235.000000" cy="289.954230" rx="16.666667" ry="11.503749" fill="rgb(255, 255, 255)" style="fill-opacity:1.00" />
<rect height="17.255624" width="25.000000" x="235.000000" y="281.326418" fill="rgb(255, 255, 255)" style="fill-opacity:1.00" />
<!-- End 'C' -->
<!-- Begin 'A' -->
<polygon points=" 210.000000, 329.453845, 231.000000, 307.209854, 239.000000, 307.209854, 260.000000, 329.453845, 252.500000, 329.453845, 246.250000, 323.892847, 223.750000, 323.892847, 217.500000, 329.453845" fill="rgb(178, 34, 34)" style="fill-opacity:0.31" />
<polygon points=" 235.000000, 311.658652, 227.000000, 319.556249, 242.000000, 319.556249" fill="rgb(255, 255, 255)" style="fill-opacity:1.00" />
<!-- End 'A' -->
<!-- Begin 'T' -->
<rect height="0.087385" width="50.000000" x="210.000000" y="329.453845" fill="rgb(0, 100, 0)" style="fill-opacity:0.31" />
<rect height="0.546155" width="10.000000" x="230.000000" y="329.453845" fill="rgb(0, 100, 0)" style="fill-opacity:0.31" />
<!-- End 'T' -->
<!-- Begin 'G' -->
<ellipse cx="235.000000" cy="360.261531" rx="25.000000" ry="20.261531" fill="rgb(255, 165, 0)" style="fill-opacity:0.17" />
<ellipse cx="235.000000" cy="360.261531" rx="16.666667" ry="13.507687" fill="rgb(255, 255, 255)" style="fill-opacity:1.00" />
<rect height="20.261531" width="25.000000" x="235.000000" y="350.130766" fill="rgb(255, 255, 255)" style="fill-opacity:1.00" />
<rect height="5.065383" width="25.000000" x="235.000000" y="365.326914" fill="rgb(255, 165, 0)" style="fill-opacity:0.17" />
<rect height="15.196148" width="6.250000" x="253.750000" y="365.326914" fill="rgb(255, 165, 0)" style="fill-opacity:0.17" />
<!-- End 'G' -->
<!-- Begin 'C' -->
<ellipse cx="235.000000" cy="396.166624" rx="25.000000" ry="15.643562" fill="rgb(0, 0, 128)" style="fill-opacity:0.17" />
<ellipse cx="235.000000" cy="396.166624" rx="16.666667" ry="10.429041" fill="rgb(255, 255, 255)" style="fill-opacity:1.00" />
<rect height="15.643562" width="25.000000" x="235.000000" y="388.344843" fill="rgb(255, 255, 255)" style="fill-opacity:1.00" />
<!-- End 'C' -->
<!-- Begin 'A' -->
<polygon points=" 210.000000, 439.171931, 231.000000, 411.810185, 239.000000, 411.810185, 260.000000, 439.171931, 252.500000, 439.171931, 246.250000, 432.331494, 223.750000, 432.331494, 217.500000, 439.171931" fill="rgb(178, 34, 34)" style="fill-opacity:0.17" />
<polygon points=" 235.000000, 417.282534, 227.000000, 427.227232, 242.000000, 427.227232" fill="rgb(255, 255, 255)" style="fill-opacity:1.00" />
<!-- End 'A' -->
<!-- Begin 'T' -->
<rect height="0.132491" width="50.000000" x="210.000000" y="439.171931" fill="rgb(0, 100, 0)" style="fill-opacity:0.17" />
<rect height="0.828069" width="10.000000" x="230.000000" y="439.171931" fill="rgb(0, 100, 0)" style="fill-opacity:0.17" />
<!-- End 'T' -->
<!-- Begin 'C' -->
<ellipse cx="295.000000" cy="57.116944" rx="25.000000" ry="47.116944" fill="rgb(0, 0, 128)" style="fill-opacity:0.37" />
<ellipse cx="295.000000" cy="57.116944" rx="16.666667" ry="31.411296" fill="rgb(255, 255, 255)" style="fill-opacity:1.00" />
<rect height="47.116944" width="25.000000" x="295.000000" y="33.558472" fill="rgb(255, 255, 255)" style="fill-opacity:1.00" />
<!-- End 'C' -->
<!-- Begin 'T' -->
<rect height="0.510608" width="50.000000" x="270.000000" y="104.233889" fill="rgb(0, 100, 0)" style="fill-opacity:0.37" />
<rect height="3.191300" width="10.000000" x="290.000000" y="104.233889" fill="rgb(0, 100, 0)" style="fill-opacity:0.37" />
<!-- End 'T' -->
<!-- Begin 'G' -->
<ellipse cx="295.000000" cy="108.348195" rx="25.000000" ry="0.923007" fill="rgb(255, 165, 0)" style="fill-opacity:0.37" />
<ellipse cx="295.000000" cy="108.348195" rx="16.666667" ry="0.615338" fill="rgb(255, 255, 255)" style="fill-opacity:1.00" />
<rect height="0.923007" width="25.000000" x="295.000000" y="107.886692" fill="rgb(255, 255, 255)" style="fill-opacity:1.00" />
<rect height="0.230752" width="25.000000" x="295.000000" y="108.578947" fill="rgb(255, 165, 0)" style="fill-opacity:0.37" />
<rect height="0.692255" width="6.250000" x="313.750000" y="108.578947" fill="rgb(255, 165, 0)" style="fill-opacity:0.37" />
<!-- End 'G' -->
<!-- Begin 'A' -->
<polygon points=" 270.000000, 110.000000, 291.000000, 109.271202, 299.000000, 109.271202, 320.000000, 110.000000, 312.500000, 110.000000, 306.250000, 109.817801, 283.750000, 109.817801, 277.500000, 110.000000" fill="rgb(178, 34, 34)" style="fill-opacity:0.37" />
<!-- End 'A' -->
<!-- Begin 'C' -->
<ellipse cx="295.000000" cy="167.068108" rx="25.000000" ry="47.068108" fill="rgb(0, 0, 128)" style="fill-opacity:0.25" />
<ellipse cx="295.000000" cy="167.068108" rx="16.666667" ry="31.378739" fill="rgb(255, 255, 255)" style="fill-opacity:1.00" />
<rect height="47.068108" width="25.000000" x="295.000000" y="143.534054" fill="rgb(255, 255, 255)" style="fill-opacity:1.00" />
<!-- End 'C' -->
<!-- Begin 'G' -->
<ellipse cx="295.000000" cy="216.908168" rx="25.000000" ry="2.771951" fill="rgb(255, 165, 0)" style="fill-opacity:0.25" />
<ellipse cx="295.000000" cy="216.908168" rx="16.666667" ry="1.847968" fill="rgb(255, 255, 255)" style="fill-opacity:1.00" />
<rect height="2.771951" width="25.000000" x="295.000000" y="215.522192" fill="rgb(255, 255, 255)" style="fill-opacity:1.00" />
<rect height="0.692988" width="25.000000" x="295.000000" y="217.601156" fill="rgb(255, 165, 0)" style="fill-opacity:0.25" />
<rect height="2.078964" width="6.250000" x="313.750000" y="217.601156" fill="rgb(255, 165, 0)" style="fill-opacity:0.25" />
<!-- End 'G' -->
<!-- Begin 'T' -->
<rect height="0.036320" width="50.000000" x="270.000000" y="219.680120" fill="rgb(0, 100, 0)" style="fill-opacity:0.25" />
<rect height="0.227003" width="10.000000" x="290.000000" y="219.680120" fill="rgb(0, 100, 0)" style="fill-opacity:0.25" />
<!-- End 'T' -->
<!-- Begin 'A' -->
<polygon points=" 270.000000, 220.000000, 291.000000, 219.907123, 299.000000, 219.907123, 320.000000, 220.000000, 312.500000, 220.000000, 306.250000, 219.976781, 283.750000, 219.976781, 277.500000, 220.000000" fill="rgb(178, 34, 34)" style="fill-opacity:0.25" />
<!-- End 'A' -->
<!-- Begin 'C' -->
<ellipse cx="295.000000" cy="278.039359" rx="25.000000" ry="48.039359" fill="rgb(0, 0, 128)" style="fill-opacity:0.36" />
<ellipse cx="295.000000" cy="278.039359" rx="16.666667" ry="32.026239" fill="rgb(255, 255, 255)" style="fill-opacity:1.00" />
<rect height="48.039359" width="25.000000" x="295.000000" y="254.019679" fill="rgb(255, 255, 255)" style="fill-opacity:1.00" />
<!-- End 'C' -->
<!-- Begin 'T' -->
<rect height="0.584946" width="50.000000" x="270.000000" y="326.078718" fill="rgb(0, 100, 0)" style="fill-opacity:0.36" />
<rect height="3.655910" width="10.000000" x="290.000000" y="326.078718" fill="rgb(0, 100, 0)" style="fill-opacity:0.36" />
<!-- End 'T' -->
<!-- Begin 'G' -->
<ellipse cx="295.000000" cy="329.802328" rx="25.000000" ry="0.067701" fill="rgb(255, 165, 0)" style="fill-opacity:0.36" />
<ellipse cx="295.000000" cy="329.802328" rx="16.666667" ry="0.045134" fill="rgb(255, 255, 255)" style="fill-opacity:1.00" />
<rect height="0.067701" width="25.000000" x="295.000000" y="329.768478" fill="rgb(255, 255, 255)" style="fill-opacity:1.00" />
<rect height="0.016925" width="25.000000" x="295.000000" y="329.819254" fill="rgb(255, 165, 0)" style="fill-opacity:0.36" />
<rect height="0.050776" width="6.250000" x="313.750000" y="329.819254" fill="rgb(255, 165, 0)" style="fill-opacity:0.36" />
<!-- End 'G' -->
<!-- Begin 'A' -->
<polygon points=" 270.000000, 330.000000, 291.000000, 329.870029, 299.000000, 329.870029, 320.000000, 330.000000, 312.500000, 330.000000, 306.250000, 329.967507, 283.750000, 329.967507, 277.500000, 330.000000" fill="rgb(178, 34, 34)" style="fill-opacity:0.36" />
<!-- End 'A' -->
<!-- Begin 'C' -->
<ellipse cx="295.000000" cy="389.972907" rx="25.000000" ry="49.972907" fill="rgb(0, 0, 128)" style="fill-opacity:0.03" />
<ellipse cx="295.000000" cy="389.972907" rx="16.666667" ry="33.315272" fill="rgb(255, 255, 255)" style="fill-opacity:1.00" />
<rect height="49.972907" width="25.000000" x="295.000000" y="364.986454" fill="rgb(255, 255, 255)" style="fill-opacity:1.00" />
<!-- End 'C' -->
<!-- Begin 'G' -->
<ellipse cx="295.000000" cy="439.970302" rx="25.000000" ry="0.024487" fill="rgb(255, 165, 0)" style="fill-opacity:0.03" />
<ellipse cx="295.000000" cy="439.970302" rx="16.666667" ry="0.016325" fill="rgb(255, 255, 255)" style="fill-opacity:1.00" />
<rect height="0.024487" width="25.000000" x="295.000000" y="439.958058" fill="rgb(255, 255, 255)" style="fill-opacity:1.00" />
<rect height="0.006122" width="25.000000" x="295.000000" y="439.976424" fill="rgb(255, 165, 0)" style="fill-opacity:0.03" />
<rect height="0.018365" width="6.250000" x="313.750000" y="439.976424" fill="rgb(255, 165, 0)" style="fill-opacity:0.03" />
<!-- End 'G' -->
<!-- Begin 'T' -->
<rect height="0.000663" width="50.000000" x="270.000000" y="439.994789" fill="rgb(0, 100, 0)" style="fill-opacity:0.03" />
<rect height="0.004146" width="10.000000" x="290.000000" y="439.994789" fill="rgb(0, 100, 0)" style="fill-opacity:0.03" />
<!-- End 'T' -->
<!-- Begin 'A' -->
<polygon points=" 270.000000, 440.000000, 291.000000, 439.998935, 299.000000, 439.998935, 320.000000, 440.000000, 312.500000, 440.000000, 306.250000, 439.999734, 283.750000, 439.999734, 277.500000, 440.000000" fill="rgb(178, 34, 34)" style="fill-opacity:0.03" />
<!-- End 'A' -->
<!-- Begin 'G' -->
<ellipse cx="355.000000" cy="59.780403" rx="25.000000" ry="49.780403" fill="rgb(255, 165, 0)" style="fill-opacity:0.00" />
<ellipse cx="355.000000" cy="59.780403" rx="16.666667" ry="33.186935" fill="rgb(255, 255, 255)" style="fill-opacity:1.00" />
<rect height="49.780403" width="25.000000" x="355.000000" y="34.890201" fill="rgb(255, 255, 255)" style="fill-opacity:1.00" />
<rect height="12.445101" width="25.000000" x="355.000000" y="72.225503" fill="rgb(255, 165, 0)" style="fill-opacity:0.00" />
<rect height="37.335302" width="6.250000" x="373.750000" y="72.225503" fill="rgb(255, 165, 0)" style="fill-opacity:0.00" />
<!-- End 'G' -->
<!-- Begin 'A' -->
<polygon points=" 330.000000, 109.984988, 351.000000, 109.560805, 359.000000, 109.560805, 380.000000, 109.984988, 372.500000, 109.984988, 366.250000, 109.878942, 343.750000, 109.878942, 337.500000, 109.984988" fill="rgb(178, 34, 34)" style="fill-opacity:0.00" />
<!-- End 'A' -->
<!-- Begin 'C' -->
<ellipse cx="355.000000" cy="109.992224" rx="25.000000" ry="0.007236" fill="rgb(0, 0, 128)" style="fill-opacity:0.00" />
<ellipse cx="355.000000" cy="109.992224" rx="16.666667" ry="0.004824" fill="rgb(255, 255, 255)" style="fill-opacity:1.00" />
<rect height="0.007236" width="25.000000" x="355.000000" y="109.988606" fill="rgb(255, 255, 255)" style="fill-opacity:1.00" />
<!-- End 'C' -->
<!-- Begin 'T' -->
<rect height="0.000086" width="50.000000" x="330.000000" y="109.999460" fill="rgb(0, 100, 0)" style="fill-opacity:0.00" />
<rect height="0.000540" width="10.000000" x="350.000000" y="109.999460" fill="rgb(0, 100, 0)" style="fill-opacity:0.00" />
<!-- End 'T' -->
<!-- Begin 'G' -->
<ellipse cx="355.000000" cy="166.192338" rx="25.000000" ry="46.192338" fill="rgb(255, 165, 0)" style="fill-opacity:0.95" />
<ellipse cx="355.000000" cy="166.192338" rx="16.666667" ry="30.794892" fill="rgb(255, 255, 255)" style="fill-opacity:1.00" />
<rect height="46.192338" width="25.000000" x="355.000000" y="143.096169" fill="rgb(255, 255, 255)" style="fill-opacity:1.00" />
<rect height="11.548084" width="25.000000" x="355.000000" y="177.740422" fill="rgb(255, 165, 0)" style="fill-opacity:0.95" />
<rect height="34.644253" width="6.250000" x="373.750000" y="177.740422" fill="rgb(255, 165, 0)" style="fill-opacity:0.95" />
<!-- End 'G' -->
<!-- Begin 'A' -->
<polygon points=" 330.000000, 217.316284, 351.000000, 212.384675, 359.000000, 212.384675, 380.000000, 217.316284, 372.500000, 217.316284, 366.250000, 216.083382, 343.750000, 216.083382, 337.500000, 217.316284" fill="rgb(178, 34, 34)" style="fill-opacity:0.95" />
<!-- End 'A' -->
<!-- Begin 'C' -->
<ellipse cx="355.000000" cy="218.392687" rx="25.000000" ry="1.076403" fill="rgb(0, 0, 128)" style="fill-opacity:0.95" />
<ellipse cx="355.000000" cy="218.392687" rx="16.666667" ry="0.717602" fill="rgb(255, 255, 255)" style="fill-opacity:1.00" />
<rect height="1.076403" width="25.000000" x="355.000000" y="217.854485" fill="rgb(255, 255, 255)" style="fill-opacity:1.00" />
<!-- End 'C' -->
<!-- Begin 'T' -->
<rect height="0.084946" width="50.000000" x="330.000000" y="219.469090" fill="rgb(0, 100, 0)" style="fill-opacity:0.95" />
<rect height="0.530910" width="10.000000" x="350.000000" y="219.469090" fill="rgb(0, 100, 0)" style="fill-opacity:0.95" />
<!-- End 'T' -->
<!-- Begin 'G' -->
<ellipse cx="355.000000" cy="279.822502" rx="25.000000" ry="49.822502" fill="rgb(255, 165, 0)" style="fill-opacity:0.02" />
<ellipse cx="355.000000" cy="279.822502" rx="16.666667" ry="33.215002" fill="rgb(255, 255, 255)" style="fill-opacity:1.00" />
<rect height="49.822502" width="25.000000" x="355.000000" y="254.911251" fill="rgb(255, 255, 255)" style="fill-opacity:1.00" />
<rect height="12.455626" width="25.000000" x="355.000000" y="292.278128" fill="rgb(255, 165, 0)" style="fill-opacity:0.02" />
<rect height="37.366877" width="6.250000" x="373.750000" y="292.278128" fill="rgb(255, 165, 0)" style="fill-opacity:0.02" />
<!-- End 'G' -->
<!-- Begin 'C' -->
<ellipse cx="355.000000" cy="329.815387" rx="25.000000" ry="0.170382" fill="rgb(0, 0, 128)" style="fill-opacity:0.02" />
<ellipse cx="355.000000" cy="329.815387" rx="16.666667" ry="0.113588" fill="rgb(255, 255, 255)" style="fill-opacity:1.00" />
<rect height="0.170382" width="25.000000" x="355.000000" y="329.730196" fill="rgb(255, 255, 255)" style="fill-opacity:1.00" />
<!-- End 'C' -->
<!-- Begin 'A' -->
<polygon points=" 330.000000, 329.998352, 351.000000, 329.985769, 359.000000, 329.985769, 380.000000, 329.998352, 372.500000, 329.998352, 366.250000, 329.995206, 343.750000, 329.995206, 337.500000, 329.998352" fill="rgb(178, 34, 34)" style="fill-opacity:0.02" />
<!-- End 'A' -->
<!-- Begin 'T' -->
<rect height="0.000264" width="50.000000" x="330.000000" y="329.998352" fill="rgb(0, 100, 0)" style="fill-opacity:0.02" />
<rect height="0.001648" width="10.000000" x="350.000000" y="329.998352" fill="rgb(0, 100, 0)" style="fill-opacity:0.02" />
<!-- End 'T' -->
<!-- Begin 'G' -->
<ellipse cx="355.000000" cy="389.987994" rx="25.000000" ry="49.987994" fill="rgb(255, 165, 0)" style="fill-opacity:0.03" />
<ellipse cx="355.000000" cy="389.987994" rx="16.666667" ry="33.325329" fill="rgb(255, 255, 255)" style="fill-opacity:1.00" />
<rect height="49.987994" width="25.000000" x="355.000000" y="364.993997" fill="rgb(255, 255, 255)" style="fill-opacity:1.00" />
<rect height="12.496999" width="25.000000" x="355.000000" y="402.484993" fill="rgb(255, 165, 0)" style="fill-opacity:0.03" />
<rect height="37.490996" width="6.250000" x="373.750000" y="402.484993" fill="rgb(255, 165, 0)" style="fill-opacity:0.03" />
<!-- End 'G' -->
<!-- Begin 'T' -->
<rect height="0.001843" width="50.000000" x="330.000000" y="439.975988" fill="rgb(0, 100, 0)" style="fill-opacity:0.03" />
<rect height="0.011518" width="10.000000" x="350.000000" y="439.975988" fill="rgb(0, 100, 0)" style="fill-opacity:0.03" />
<!-- End 'T' -->
<!-- Begin 'A' -->
<polygon points=" 330.000000, 439.993755, 351.000000, 439.987507, 359.000000, 439.987507, 380.000000, 439.993755, 372.500000, 439.993755, 366.250000, 439.992193, 343.750000, 439.992193, 337.500000, 439.993755" fill="rgb(178, 34, 34)" style="fill-opacity:0.03" />
<!-- End 'A' -->
<!-- Begin 'C' -->
<ellipse cx="355.000000" cy="439.996877" rx="25.000000" ry="0.003123" fill="rgb(0, 0, 128)" style="fill-opacity:0.03" />
<ellipse cx="355.000000" cy="439.996877" rx="16.666667" ry="0.002082" fill="rgb(255, 255, 255)" style="fill-opacity:1.00" />
<rect height="0.003123" width="25.000000" x="355.000000" y="439.995316" fill="rgb(255, 255, 255)" style="fill-opacity:1.00" />
<!-- End 'C' -->
<!-- Begin 'C' -->
<ellipse cx="415.000000" cy="35.949466" rx="25.000000" ry="25.949466" fill="rgb(0, 0, 128)" style="fill-opacity:0.05" />
<ellipse cx="415.000000" cy="35.949466" rx="16.666667" ry="17.299644" fill="rgb(255, 255, 255)" style="fill-opacity:1.00" />
<rect height="25.949466" width="25.000000" x="415.000000" y="22.974733" fill="rgb(255, 255, 255)" style="fill-opacity:1.00" />
<!-- End 'C' -->
<!-- Begin 'T' -->
<rect height="5.814967" width="50.000000" x="390.000000" y="61.898932" fill="rgb(0, 100, 0)" style="fill-opacity:0.05" />
<rect height="36.343541" width="10.000000" x="410.000000" y="61.898932" fill="rgb(0, 100, 0)" style="fill-opacity:0.05" />
<!-- End 'T' -->
<!-- Begin 'G' -->
<ellipse cx="415.000000" cy="104.120937" rx="25.000000" ry="5.878464" fill="rgb(255, 165, 0)" style="fill-opacity:0.05" />
<ellipse cx="415.000000" cy="104.120937" rx="16.666667" ry="3.918976" fill="rgb(255, 255, 255)" style="fill-opacity:1.00" />
<rect height="5.878464" width="25.000000" x="415.000000" y="101.181705" fill="rgb(255, 255, 255)" style="fill-opacity:1.00" />
<rect height="1.469616" width="25.000000" x="415.000000" y="105.590553" fill="rgb(255, 165, 0)" style="fill-opacity:0.05" />
<rect height="4.408848" width="6.250000" x="433.750000" y="105.590553" fill="rgb(255, 165, 0)" style="fill-opacity:0.05" />
<!-- End 'G' -->
<!-- Begin 'A' -->
<polygon points=" 390.000000, 110.000000, 411.000000, 109.999401, 419.000000, 109.999401, 440.000000, 110.000000, 432.500000, 110.000000, 426.250000, 109.999850, 403.750000, 109.999850, 397.500000, 110.000000" fill="rgb(178, 34, 34)" style="fill-opacity:0.05" />
<!-- End 'A' -->
<!-- Begin 'T' -->
<rect height="8.268670" width="50.000000" x="390.000000" y="120.000000" fill="rgb(0, 100, 0)" style="fill-opacity:0.02" />
<rect height="51.679185" width="10.000000" x="410.000000" y="120.000000" fill="rgb(0, 100, 0)" style="fill-opacity:0.02" />
<!-- End 'T' -->
<!-- Begin 'G' -->
<ellipse cx="415.000000" cy="185.436520" rx="25.000000" ry="13.757335" fill="rgb(255, 165, 0)" style="fill-opacity:0.02" />
<ellipse cx="415.000000" cy="185.436520" rx="16.666667" ry="9.171557" fill="rgb(255, 255, 255)" style="fill-opacity:1.00" />
<rect height="13.757335" width="25.000000" x="415.000000" y="178.557853" fill="rgb(255, 255, 255)" style="fill-opacity:1.00" />
<rect height="3.439334" width="25.000000" x="415.000000" y="188.875854" fill="rgb(255, 165, 0)" style="fill-opacity:0.02" />
<rect height="10.318001" width="6.250000" x="433.750000" y="188.875854" fill="rgb(255, 165, 0)" style="fill-opacity:0.02" />
<!-- End 'G' -->
<!-- Begin 'C' -->
<ellipse cx="415.000000" cy="209.486613" rx="25.000000" ry="10.292758" fill="rgb(0, 0, 128)" style="fill-opacity:0.02" />
<ellipse cx="415.000000" cy="209.486613" rx="16.666667" ry="6.861839" fill="rgb(255, 255, 255)" style="fill-opacity:1.00" />
<rect height="10.292758" width="25.000000" x="415.000000" y="204.340234" fill="rgb(255, 255, 255)" style="fill-opacity:1.00" />
<!-- End 'C' -->
<!-- Begin 'A' -->
<polygon points=" 390.000000, 220.000000, 411.000000, 219.779371, 419.000000, 219.779371, 440.000000, 220.000000, 432.500000, 220.000000, 426.250000, 219.944843, 403.750000, 219.944843, 397.500000, 220.000000" fill="rgb(178, 34, 34)" style="fill-opacity:0.02" />
<!-- End 'A' -->
<!-- Begin 'T' -->
<rect height="5.801578" width="50.000000" x="390.000000" y="230.000000" fill="rgb(0, 100, 0)" style="fill-opacity:0.93" />
<rect height="36.259860" width="10.000000" x="410.000000" y="230.000000" fill="rgb(0, 100, 0)" style="fill-opacity:0.93" />
<!-- End 'T' -->
<!-- Begin 'C' -->
<ellipse cx="415.000000" cy="283.953434" rx="25.000000" ry="17.693574" fill="rgb(0, 0, 128)" style="fill-opacity:0.93" />
<ellipse cx="415.000000" cy="283.953434" rx="16.666667" ry="11.795716" fill="rgb(255, 255, 255)" style="fill-opacity:1.00" />
<rect height="17.693574" width="25.000000" x="415.000000" y="275.106647" fill="rgb(255, 255, 255)" style="fill-opacity:1.00" />
<!-- End 'C' -->
<!-- Begin 'G' -->
<ellipse cx="415.000000" cy="314.280061" rx="25.000000" ry="12.633053" fill="rgb(255, 165, 0)" style="fill-opacity:0.93" />
<ellipse cx="415.000000" cy="314.280061" rx="16.666667" ry="8.422036" fill="rgb(255, 255, 255)" style="fill-opacity:1.00" />
<rect height="12.633053" width="25.000000" x="415.000000" y="307.963534" fill="rgb(255, 255, 255)" style="fill-opacity:1.00" />
<rect height="3.158263" width="25.000000" x="415.000000" y="317.438324" fill="rgb(255, 165, 0)" style="fill-opacity:0.93" />
<rect height="9.474790" width="6.250000" x="433.750000" y="317.438324" fill="rgb(255, 165, 0)" style="fill-opacity:0.93" />
<!-- End 'G' -->
<!-- Begin 'A' -->
<polygon points=" 390.000000, 330.000000, 411.000000, 326.913114, 419.000000, 326.913114, 440.000000, 330.000000, 432.500000, 330.000000, 426.250000, 329.228279, 403.750000, 329.228279, 397.500000, 330.000000" fill="rgb(178, 34, 34)" style="fill-opacity:0.93" />
<!-- End 'A' -->
<!-- Begin 'T' -->
<rect height="8.760631" width="50.000000" x="390.000000" y="340.000000" fill="rgb(0, 100, 0)" style="fill-opacity:0.01" />
<rect height="54.753944" width="10.000000" x="410.000000" y="340.000000" fill="rgb(0, 100, 0)" style="fill-opacity:0.01" />
<!-- End 'T' -->
<!-- Begin 'C' -->
<ellipse cx="415.000000" cy="415.748252" rx="25.000000" ry="20.994308" fill="rgb(0, 0, 128)" style="fill-opacity:0.01" />
<ellipse cx="415.000000" cy="415.748252" rx="16.666667" ry="13.996206" fill="rgb(255, 255, 255)" style="fill-opacity:1.00" />
<rect height="20.994308" width="25.000000" x="415.000000" y="405.251098" fill="rgb(255, 255, 255)" style="fill-opacity:1.00" />
<!-- End 'C' -->
<!-- Begin 'G' -->
<ellipse cx="415.000000" cy="438.357066" rx="25.000000" ry="1.614505" fill="rgb(255, 165, 0)" style="fill-opacity:0.01" />
<ellipse cx="415.000000" cy="438.357066" rx="16.666667" ry="1.076337" fill="rgb(255, 255, 255)" style="fill-opacity:1.00" />
<rect height="1.614505" width="25.000000" x="415.000000" y="437.549813" fill="rgb(255, 255, 255)" style="fill-opacity:1.00" />
<rect height="0.403626" width="25.000000" x="415.000000" y="438.760692" fill="rgb(255, 165, 0)" style="fill-opacity:0.01" />
<rect height="1.210879" width="6.250000" x="433.750000" y="438.760692" fill="rgb(255, 165, 0)" style="fill-opacity:0.01" />
<!-- End 'G' -->
<!-- Begin 'A' -->
<polygon points=" 390.000000, 440.000000, 411.000000, 439.971571, 419.000000, 439.971571, 440.000000, 440.000000, 432.500000, 440.000000, 426.250000, 439.992893, 403.750000, 439.992893, 397.500000, 440.000000" fill="rgb(178, 34, 34)" style="fill-opacity:0.01" />
<!-- End 'A' -->
<!-- Begin 'G' -->
<ellipse cx="475.000000" cy="59.574461" rx="25.000000" ry="49.574461" fill="rgb(255, 165, 0)" style="fill-opacity:0.03" />
<ellipse cx="475.000000" cy="59.574461" rx="16.666667" ry="33.049641" fill="rgb(255, 255, 255)" style="fill-opacity:1.00" />
<rect height="49.574461" width="25.000000" x="475.000000" y="34.787230" fill="rgb(255, 255, 255)" style="fill-opacity:1.00" />
<rect height="12.393615" width="25.000000" x="475.000000" y="71.968076" fill="rgb(255, 165, 0)" style="fill-opacity:0.03" />
<rect height="37.180846" width="6.250000" x="493.750000" y="71.968076" fill="rgb(255, 165, 0)" style="fill-opacity:0.03" />
<!-- End 'G' -->
<!-- Begin 'A' -->
<polygon points=" 450.000000, 109.528973, 471.000000, 109.148922, 479.000000, 109.148922, 500.000000, 109.528973, 492.500000, 109.528973, 486.250000, 109.433960, 463.750000, 109.433960, 457.500000, 109.528973" fill="rgb(178, 34, 34)" style="fill-opacity:0.03" />
<!-- End 'A' -->
<!-- Begin 'C' -->
<ellipse cx="475.000000" cy="109.687531" rx="25.000000" ry="0.158559" fill="rgb(0, 0, 128)" style="fill-opacity:0.03" />
<ellipse cx="475.000000" cy="109.687531" rx="16.666667" ry="0.105706" fill="rgb(255, 255, 255)" style="fill-opacity:1.00" />
<rect height="0.158559" width="25.000000" x="475.000000" y="109.608252" fill="rgb(255, 255, 255)" style="fill-opacity:1.00" />
<!-- End 'C' -->
<!-- Begin 'T' -->
<rect height="0.024626" width="50.000000" x="450.000000" y="109.846090" fill="rgb(0, 100, 0)" style="fill-opacity:0.03" />
<rect height="0.153910" width="10.000000" x="470.000000" y="109.846090" fill="rgb(0, 100, 0)" style="fill-opacity:0.03" />
<!-- End 'T' -->
<!-- Begin 'C' -->
<ellipse cx="475.000000" cy="137.285237" rx="25.000000" ry="17.285237" fill="rgb(0, 0, 128)" style="fill-opacity:0.36" />
<ellipse cx="475.000000" cy="137.285237" rx="16.666667" ry="11.523492" fill="rgb(255, 255, 255)" style="fill-opacity:1.00" />
<rect height="17.285237" width="25.000000" x="475.000000" y="128.642619" fill="rgb(255, 255, 255)" style="fill-opacity:1.00" />
<!-- End 'C' -->
<!-- Begin 'G' -->
<ellipse cx="475.000000" cy="169.501850" rx="25.000000" ry="14.931375" fill="rgb(255, 165, 0)" style="fill-opacity:0.36" />
<ellipse cx="475.000000" cy="169.501850" rx="16.666667" ry="9.954250" fill="rgb(255, 255, 255)" style="fill-opacity:1.00" />
<rect height="14.931375" width="25.000000" x="475.000000" y="162.036162" fill="rgb(255, 255, 255)" style="fill-opacity:1.00" />
<rect height="3.732844" width="25.000000" x="475.000000" y="173.234694" fill="rgb(255, 165, 0)" style="fill-opacity:0.36" />
<rect height="11.198531" width="6.250000" x="493.750000" y="173.234694" fill="rgb(255, 165, 0)" style="fill-opacity:0.36" />
<!-- End 'G' -->
<!-- Begin 'A' -->
<polygon points=" 450.000000, 202.267319, 471.000000, 184.433225, 479.000000, 184.433225, 500.000000, 202.267319, 492.500000, 202.267319, 486.250000, 197.808795, 463.750000, 197.808795, 457.500000, 202.267319" fill="rgb(178, 34, 34)" style="fill-opacity:0.36" />
<polygon points=" 475.000000, 188.000044, 467.000000, 194.133681, 482.000000, 194.133681" fill="rgb(255, 255, 255)" style="fill-opacity:1.00" />
<!-- End 'A' -->
<!-- Begin 'T' -->
<rect height="2.837229" width="50.000000" x="450.000000" y="202.267319" fill="rgb(0, 100, 0)" style="fill-opacity:0.36" />
<rect height="17.732681" width="10.000000" x="470.000000" y="202.267319" fill="rgb(0, 100, 0)" style="fill-opacity:0.36" />
<!-- End 'T' -->
<!-- Begin 'C' -->
<ellipse cx="475.000000" cy="251.045987" rx="25.000000" ry="21.045987" fill="rgb(0, 0, 128)" style="fill-opacity:0.25" />
<ellipse cx="475.000000" cy="251.045987" rx="16.666667" ry="14.030658" fill="rgb(255, 255, 255)" style="fill-opacity:1.00" />
<rect height="21.045987" width="25.000000" x="475.000000" y="240.522994" fill="rgb(255, 255, 255)" style="fill-opacity:1.00" />
<!-- End 'C' -->
<!-- Begin 'G' -->
<ellipse cx="475.000000" cy="289.353852" rx="25.000000" ry="17.261877" fill="rgb(255, 165, 0)" style="fill-opacity:0.25" />
<ellipse cx="475.000000" cy="289.353852" rx="16.666667" ry="11.507918" fill="rgb(255, 255, 255)" style="fill-opacity:1.00" />
<rect height="17.261877" width="25.000000" x="475.000000" y="280.722913" fill="rgb(255, 255, 255)" style="fill-opacity:1.00" />
<rect height="4.315469" width="25.000000" x="475.000000" y="293.669321" fill="rgb(255, 165, 0)" style="fill-opacity:0.25" />
<rect height="12.946407" width="6.250000" x="493.750000" y="293.669321" fill="rgb(255, 165, 0)" style="fill-opacity:0.25" />
<!-- End 'G' -->
<!-- Begin 'A' -->
<polygon points=" 450.000000, 329.497790, 471.000000, 306.615728, 479.000000, 306.615728, 500.000000, 329.497790, 492.500000, 329.497790, 486.250000, 323.777274, 463.750000, 323.777274, 457.500000, 329.497790" fill="rgb(178, 34, 34)" style="fill-opacity:0.25" />
<polygon points=" 475.000000, 311.192140, 467.000000, 319.344965, 482.000000, 319.344965" fill="rgb(255, 255, 255)" style="fill-opacity:1.00" />
<!-- End 'A' -->
<!-- Begin 'T' -->
<rect height="0.080354" width="50.000000" x="450.000000" y="329.497790" fill="rgb(0, 100, 0)" style="fill-opacity:0.25" />
<rect height="0.502210" width="10.000000" x="470.000000" y="329.497790" fill="rgb(0, 100, 0)" style="fill-opacity:0.25" />
<!-- End 'T' -->
<!-- Begin 'G' -->
<ellipse cx="475.000000" cy="367.564319" rx="25.000000" ry="27.564319" fill="rgb(255, 165, 0)" style="fill-opacity:0.37" />
<ellipse cx="475.000000" cy="367.564319" rx="16.666667" ry="18.376213" fill="rgb(255, 255, 255)" style="fill-opacity:1.00" />
<rect height="27.564319" width="25.000000" x="475.000000" y="353.782159" fill="rgb(255, 255, 255)" style="fill-opacity:1.00" />
<rect height="6.891080" width="25.000000" x="475.000000" y="374.455398" fill="rgb(255, 165, 0)" style="fill-opacity:0.37" />
<rect height="20.673239" width="6.250000" x="493.750000" y="374.455398" fill="rgb(255, 165, 0)" style="fill-opacity:0.37" />
<!-- End 'G' -->
<!-- Begin 'C' -->
<ellipse cx="475.000000" cy="406.495406" rx="25.000000" ry="11.366768" fill="rgb(0, 0, 128)" style="fill-opacity:0.37" />
<ellipse cx="475.000000" cy="406.495406" rx="16.666667" ry="7.577846" fill="rgb(255, 255, 255)" style="fill-opacity:1.00" />
<rect height="11.366768" width="25.000000" x="475.000000" y="400.812022" fill="rgb(255, 255, 255)" style="fill-opacity:1.00" />
<!-- End 'C' -->
<!-- Begin 'A' -->
<polygon points=" 450.000000, 430.249390, 471.000000, 417.862174, 479.000000, 417.862174, 500.000000, 430.249390, 492.500000, 430.249390, 486.250000, 427.152586, 463.750000, 427.152586, 457.500000, 430.249390" fill="rgb(178, 34, 34)" style="fill-opacity:0.37" />
<polygon points=" 475.000000, 420.339617, 467.000000, 424.294503, 482.000000, 424.294503" fill="rgb(255, 255, 255)" style="fill-opacity:1.00" />
<!-- End 'A' -->
<!-- Begin 'T' -->
<rect height="1.560098" width="50.000000" x="450.000000" y="430.249390" fill="rgb(0, 100, 0)" style="fill-opacity:0.37" />
<rect height="9.750610" width="10.000000" x="470.000000" y="430.249390" fill="rgb(0, 100, 0)" style="fill-opacity:0.37" />
<!-- End 'T' -->
<!-- Begin 'G' -->
<ellipse cx="535.000000" cy="33.467228" rx="25.000000" ry="23.467228" fill="rgb(255, 165, 0)" style="fill-opacity:0.17" />
<ellipse cx="535.000000" cy="33.467228" rx="16.666667" ry="15.644818" fill="rgb(255, 255, 255)" style="fill-opacity:1.00" />
<rect height="23.467228" width="25.000000" x="535.000000" y="21.733614" fill="rgb(255, 255, 255)" style="fill-opacity:1.00" />
<rect height="5.866807" width="25.000000" x="535.000000" y="39.334035" fill="rgb(255, 165, 0)" style="fill-opacity:0.17" />
<rect height="17.600421" width="6.250000" x="553.750000" y="39.334035" fill="rgb(255, 165, 0)" style="fill-opacity:0.17" />
<!-- End 'G' -->
<!-- Begin 'C' -->
<ellipse cx="535.000000" cy="75.004946" rx="25.000000" ry="18.070491" fill="rgb(0, 0, 128)" style="fill-opacity:0.17" />
<ellipse cx="535.000000" cy="75.004946" rx="16.666667" ry="12.046994" fill="rgb(255, 255, 255)" style="fill-opacity:1.00" />
<rect height="18.070491" width="25.000000" x="535.000000" y="65.969701" fill="rgb(255, 255, 255)" style="fill-opacity:1.00" />
<!-- End 'C' -->
<!-- Begin 'A' -->
<polygon points=" 510.000000, 105.394639, 531.000000, 93.075437, 539.000000, 93.075437, 560.000000, 105.394639, 552.500000, 105.394639, 546.250000, 102.314839, 523.750000, 102.314839, 517.500000, 105.394639" fill="rgb(178, 34, 34)" style="fill-opacity:0.17" />
<polygon points=" 535.000000, 95.539277, 527.000000, 99.466958, 542.000000, 99.466958" fill="rgb(255, 255, 255)" style="fill-opacity:1.00" />
<!-- End 'A' -->
<!-- Begin 'T' -->
<rect height="0.736858" width="50.000000" x="510.000000" y="105.394639" fill="rgb(0, 100, 0)" style="fill-opacity:0.17" />
<rect height="4.605361" width="10.000000" x="530.000000" y="105.394639" fill="rgb(0, 100, 0)" style="fill-opacity:0.17" />
<!-- End 'T' -->
<!-- Begin 'C' -->
<ellipse cx="535.000000" cy="140.350865" rx="25.000000" ry="20.350865" fill="rgb(0, 0, 128)" style="fill-opacity:0.31" />
<ellipse cx="535.000000" cy="140.350865" rx="16.666667" ry="13.567243" fill="rgb(255, 255, 255)" style="fill-opacity:1.00" />
<rect height="20.350865" width="25.000000" x="535.000000" y="130.175432" fill="rgb(255, 255, 255)" style="fill-opacity:1.00" />
<!-- End 'C' -->
<!-- Begin 'G' -->
<ellipse cx="535.000000" cy="176.321301" rx="25.000000" ry="15.619571" fill="rgb(255, 165, 0)" style="fill-opacity:0.31" />
<ellipse cx="535.000000" cy="176.321301" rx="16.666667" ry="10.413047" fill="rgb(255, 255, 255)" style="fill-opacity:1.00" />
<rect height="15.619571" width="25.000000" x="535.000000" y="168.511516" fill="rgb(255, 255, 255)" style="fill-opacity:1.00" />
<rect height="3.904893" width="25.000000" x="535.000000" y="180.226194" fill="rgb(255, 165, 0)" style="fill-opacity:0.31" />
<rect height="11.714678" width="6.250000" x="553.750000" y="180.226194" fill="rgb(255, 165, 0)" style="fill-opacity:0.31" />
<!-- End 'G' -->
<!-- Begin 'T' -->
<rect height="2.674885" width="50.000000" x="510.000000" y="191.940872" fill="rgb(0, 100, 0)" style="fill-opacity:0.31" />
<rect height="16.718028" width="10.000000" x="530.000000" y="191.940872" fill="rgb(0, 100, 0)" style="fill-opacity:0.31" />
<!-- End 'T' -->
<!-- Begin 'A' -->
<polygon points=" 510.000000, 220.000000, 531.000000, 208.658901, 539.000000, 208.658901, 560.000000, 220.000000, 552.500000, 220.000000, 546.250000, 217.164725, 523.750000, 217.164725, 517.500000, 220.000000" fill="rgb(178, 34, 34)" style="fill-opacity:0.31" />
<polygon points=" 535.000000, 210.927120, 527.000000, 214.463560, 542.000000, 214.463560" fill="rgb(255, 255, 255)" style="fill-opacity:1.00" />
<!-- End 'A' -->
<!-- Begin 'C' -->
<ellipse cx="535.000000" cy="249.717881" rx="25.000000" ry="19.717881" fill="rgb(0, 0, 128)" style="fill-opacity:0.42" />
<ellipse cx="535.000000" cy="249.717881" rx="16.666667" ry="13.145254" fill="rgb(255, 255, 255)" style="fill-opacity:1.00" />
<rect height="19.717881" width="25.000000" x="535.000000" y="239.858940" fill="rgb(255, 255, 255)" style="fill-opacity:1.00" />
<!-- End 'C' -->
<!-- Begin 'G' -->
<ellipse cx="535.000000" cy="283.957813" rx="25.000000" ry="14.522051" fill="rgb(255, 165, 0)" style="fill-opacity:0.42" />
<ellipse cx="535.000000" cy="283.957813" rx="16.666667" ry="9.681368" fill="rgb(255, 255, 255)" style="fill-opacity:1.00" />
<rect height="14.522051" width="25.000000" x="535.000000" y="276.696787" fill="rgb(255, 255, 255)" style="fill-opacity:1.00" />
<rect height="3.630513" width="25.000000" x="535.000000" y="287.588326" fill="rgb(255, 165, 0)" style="fill-opacity:0.42" />
<rect height="10.891539" width="6.250000" x="553.750000" y="287.588326" fill="rgb(255, 165, 0)" style="fill-opacity:0.42" />
<!-- End 'G' -->
<!-- Begin 'A' -->
<polygon points=" 510.000000, 315.829465, 531.000000, 298.479865, 539.000000, 298.479865, 560.000000, 315.829465, 552.500000, 315.829465, 546.250000, 311.492065, 523.750000, 311.492065, 517.500000, 315.829465" fill="rgb(178, 34, 34)" style="fill-opacity:0.42" />
<polygon points=" 535.000000, 301.949785, 527.000000, 307.889625, 542.000000, 307.889625" fill="rgb(255, 255, 255)" style="fill-opacity:1.00" />
<!-- End 'A' -->
<!-- Begin 'T' -->
<rect height="2.267286" width="50.000000" x="510.000000" y="315.829465" fill="rgb(0, 100, 0)" style="fill-opacity:0.42" />
<rect height="14.170535" width="10.000000" x="530.000000" y="315.829465" fill="rgb(0, 100, 0)" style="fill-opacity:0.42" />
<!-- End 'T' -->
<!-- Begin 'C' -->
<ellipse cx="535.000000" cy="364.583156" rx="25.000000" ry="24.583156" fill="rgb(0, 0, 128)" style="fill-opacity:0.10" />
<ellipse cx="535.000000" cy="364.583156" rx="16.666667" ry="16.388771" fill="rgb(255, 255, 255)" style="fill-opacity:1.00" />
<rect height="24.583156" width="25.000000" x="535.000000" y="352.291578" fill="rgb(255, 255, 255)" style="fill-opacity:1.00" />
<!-- End 'C' -->
<!-- Begin 'G' -->
<ellipse cx="535.000000" cy="401.643801" rx="25.000000" ry="12.477489" fill="rgb(255, 165, 0)" style="fill-opacity:0.10" />
<ellipse cx="535.000000" cy="401.643801" rx="16.666667" ry="8.318326" fill="rgb(255, 255, 255)" style="fill-opacity:1.00" />
<rect height="12.477489" width="25.000000" x="535.000000" y="395.405056" fill="rgb(255, 255, 255)" style="fill-opacity:1.00" />
<rect height="3.119372" width="25.000000" x="535.000000" y="404.763173" fill="rgb(255, 165, 0)" style="fill-opacity:0.10" />
<rect height="9.358117" width="6.250000" x="553.750000" y="404.763173" fill="rgb(255, 165, 0)" style="fill-opacity:0.10" />
<!-- End 'G' -->
<!-- Begin 'T' -->
<rect height="3.219912" width="50.000000" x="510.000000" y="414.121290" fill="rgb(0, 100, 0)" style="fill-opacity:0.10" />
<rect height="20.124450" width="10.000000" x="530.000000" y="414.121290" fill="rgb(0, 100, 0)" style="fill-opacity:0.10" />
<!-- End 'T' -->
<!-- Begin 'A' -->
<polygon points=" 510.000000, 440.000000, 531.000000, 434.245739, 539.000000, 434.245739, 560.000000, 440.000000, 552.500000, 440.000000, 546.250000, 438.561435, 523.750000, 438.561435, 517.500000, 440.000000" fill="rgb(178, 34, 34)" style="fill-opacity:0.10" />
<!-- End 'A' -->
<!-- Begin 'C' -->
<ellipse cx="595.000000" cy="36.366196" rx="25.000000" ry="26.366196" fill="rgb(0, 0, 128)" style="fill-opacity:0.13" />
<ellipse cx="595.000000" cy="36.366196" rx="16.666667" ry="17.577464" fill="rgb(255, 255, 255)" style="fill-opacity:1.00" />
<rect height="26.366196" width="25.000000" x="595.000000" y="23.183098" fill="rgb(255, 255, 255)" style="fill-opacity:1.00" />
<!-- End 'C' -->
<!-- Begin 'G' -->
<ellipse cx="595.000000" cy="81.209956" rx="25.000000" ry="18.477565" fill="rgb(255, 165, 0)" style="fill-opacity:0.13" />
<ellipse cx="595.000000" cy="81.209956" rx="16.666667" ry="12.318377" fill="rgb(255, 255, 255)" style="fill-opacity:1.00" />
<rect height="18.477565" width="25.000000" x="595.000000" y="71.971174" fill="rgb(255, 255, 255)" style="fill-opacity:1.00" />
<rect height="4.619391" width="25.000000" x="595.000000" y="85.829348" fill="rgb(255, 165, 0)" style="fill-opacity:0.13" />
<rect height="13.858174" width="6.250000" x="613.750000" y="85.829348" fill="rgb(255, 165, 0)" style="fill-opacity:0.13" />
<!-- End 'G' -->
<!-- Begin 'T' -->
<rect height="0.843224" width="50.000000" x="570.000000" y="99.687521" fill="rgb(0, 100, 0)" style="fill-opacity:0.13" />
<rect height="5.270148" width="10.000000" x="590.000000" y="99.687521" fill="rgb(0, 100, 0)" style="fill-opacity:0.13" />
<!-- End 'T' -->
<!-- Begin 'A' -->
<polygon points=" 570.000000, 110.000000, 591.000000, 104.957669, 599.000000, 104.957669, 620.000000, 110.000000, 612.500000, 110.000000, 606.250000, 108.739417, 583.750000, 108.739417, 577.500000, 110.000000" fill="rgb(178, 34, 34)" style="fill-opacity:0.13" />
<!-- End 'A' -->
<!-- Begin 'C' -->
<ellipse cx="595.000000" cy="136.305909" rx="25.000000" ry="16.305909" fill="rgb(0, 0, 128)" style="fill-opacity:0.40" />
<ellipse cx="595.000000" cy="136.305909" rx="16.666667" ry="10.870606" fill="rgb(255, 255, 255)" style="fill-opacity:1.00" />
<rect height="16.305909" width="25.000000" x="595.000000" y="128.152954" fill="rgb(255, 255, 255)" style="fill-opacity:1.00" />
<!-- End 'C' -->
<!-- Begin 'G' -->
<ellipse cx="595.000000" cy="165.881734" rx="25.000000" ry="13.269916" fill="rgb(255, 165, 0)" style="fill-opacity:0.40" />
<ellipse cx="595.000000" cy="165.881734" rx="16.666667" ry="8.846611" fill="rgb(255, 255, 255)" style="fill-opacity:1.00" />
<rect height="13.269916" width="25.000000" x="595.000000" y="159.246776" fill="rgb(255, 255, 255)" style="fill-opacity:1.00" />
<rect height="3.317479" width="25.000000" x="595.000000" y="169.199213" fill="rgb(255, 165, 0)" style="fill-opacity:0.40" />
<rect height="9.952437" width="6.250000" x="613.750000" y="169.199213" fill="rgb(255, 165, 0)" style="fill-opacity:0.40" />
<!-- End 'G' -->
<!-- Begin 'T' -->
<rect height="3.530793" width="50.000000" x="570.000000" y="179.151650" fill="rgb(0, 100, 0)" style="fill-opacity:0.40" />
<rect height="22.067455" width="10.000000" x="590.000000" y="179.151650" fill="rgb(0, 100, 0)" style="fill-opacity:0.40" />
<!-- End 'T' -->
<!-- Begin 'A' -->
<polygon points=" 570.000000, 220.000000, 591.000000, 201.219105, 599.000000, 201.219105, 620.000000, 220.000000, 612.500000, 220.000000, 606.250000, 215.304776, 583.750000, 215.304776, 577.500000, 220.000000" fill="rgb(178, 34, 34)" style="fill-opacity:0.40" />
<polygon points=" 595.000000, 204.975284, 587.000000, 211.487642, 602.000000, 211.487642" fill="rgb(255, 255, 255)" style="fill-opacity:1.00" />
<!-- End 'A' -->
<!-- Begin 'C' -->
<ellipse cx="595.000000" cy="253.038804" rx="25.000000" ry="23.038804" fill="rgb(0, 0, 128)" style="fill-opacity:0.32" />
<ellipse cx="595.000000" cy="253.038804" rx="16.666667" ry="15.359203" fill="rgb(255, 255, 255)" style="fill-opacity:1.00" />
<rect height="23.038804" width="25.000000" x="595.000000" y="241.519402" fill="rgb(255, 255, 255)" style="fill-opacity:1.00" />
<!-- End 'C' -->
<!-- Begin 'G' -->
<ellipse cx="595.000000" cy="291.290407" rx="25.000000" ry="15.212800" fill="rgb(255, 165, 0)" style="fill-opacity:0.32" />
<ellipse cx="595.000000" cy="291.290407" rx="16.666667" ry="10.141866" fill="rgb(255, 255, 255)" style="fill-opacity:1.00" />
<rect height="15.212800" width="25.000000" x="595.000000" y="283.684008" fill="rgb(255, 255, 255)" style="fill-opacity:1.00" />
<rect height="3.803200" width="25.000000" x="595.000000" y="295.093607" fill="rgb(255, 165, 0)" style="fill-opacity:0.32" />
<rect height="11.409600" width="6.250000" x="613.750000" y="295.093607" fill="rgb(255, 165, 0)" style="fill-opacity:0.32" />
<!-- End 'G' -->
<!-- Begin 'A' -->
<polygon points=" 570.000000, 319.032254, 591.000000, 306.503207, 599.000000, 306.503207, 620.000000, 319.032254, 612.500000, 319.032254, 606.250000, 315.899992, 583.750000, 315.899992, 577.500000, 319.032254" fill="rgb(178, 34, 34)" style="fill-opacity:0.32" />
<polygon points=" 595.000000, 309.009016, 587.000000, 313.020635, 602.000000, 313.020635" fill="rgb(255, 255, 255)" style="fill-opacity:1.00" />
<!-- End 'A' -->
<!-- Begin 'T' -->
<rect height="1.754839" width="50.000000" x="570.000000" y="319.032254" fill="rgb(0, 100, 0)" style="fill-opacity:0.32" />
<rect height="10.967746" width="10.000000" x="590.000000" y="319.032254" fill="rgb(0, 100, 0)" style="fill-opacity:0.32" />
<!-- End 'T' -->
<!-- Begin 'G' -->
<ellipse cx="595.000000" cy="361.761661" rx="25.000000" ry="21.761661" fill="rgb(255, 165, 0)" style="fill-opacity:0.14" />
<ellipse cx="595.000000" cy="361.761661" rx="16.666667" ry="14.507774" fill="rgb(255, 255, 255)" style="fill-opacity:1.00" />
<rect height="21.761661" width="25.000000" x="595.000000" y="350.880831" fill="rgb(255, 255, 255)" style="fill-opacity:1.00" />
<rect height="5.440415" width="25.000000" x="595.000000" y="367.202076" fill="rgb(255, 165, 0)" style="fill-opacity:0.14" />
<rect height="16.321246" width="6.250000" x="613.750000" y="367.202076" fill="rgb(255, 165, 0)" style="fill-opacity:0.14" />
<!-- End 'G' -->
<!-- Begin 'C' -->
<ellipse cx="595.000000" cy="404.440670" rx="25.000000" ry="20.917347" fill="rgb(0, 0, 128)" style="fill-opacity:0.14" />
<ellipse cx="595.000000" cy="404.440670" rx="16.666667" ry="13.944898" fill="rgb(255, 255, 255)" style="fill-opacity:1.00" />
<rect height="20.917347" width="25.000000" x="595.000000" y="393.981996" fill="rgb(255, 255, 255)" style="fill-opacity:1.00" />
<!-- End 'C' -->
<!-- Begin 'T' -->
<rect height="1.913401" width="50.000000" x="570.000000" y="425.358017" fill="rgb(0, 100, 0)" style="fill-opacity:0.14" />
<rect height="11.958754" width="10.000000" x="590.000000" y="425.358017" fill="rgb(0, 100, 0)" style="fill-opacity:0.14" />
<!-- End 'T' -->
<!-- Begin 'A' -->
<polygon points=" 570.000000, 440.000000, 591.000000, 437.316771, 599.000000, 437.316771, 620.000000, 440.000000, 612.500000, 440.000000, 606.250000, 439.329193, 583.750000, 439.329193, 577.500000, 440.000000" fill="rgb(178, 34, 34)" style="fill-opacity:0.14" />
<!-- End 'A' -->
<!-- Begin 'C' -->
<ellipse cx="655.000000" cy="36.334812" rx="25.000000" ry="26.334812" fill="rgb(0, 0, 128)" style="fill-opacity:0.13" />
<ellipse cx="655.000000" cy="36.334812" rx="16.666667" ry="17.556541" fill="rgb(255, 255, 255)" style="fill-opacity:1.00" />
<rect height="26.334812" width="25.000000" x="655.000000" y="23.167406" fill="rgb(255, 255, 255)" style="fill-opacity:1.00" />
<!-- End 'C' -->
<!-- Begin 'G' -->
<ellipse cx="655.000000" cy="81.010789" rx="25.000000" ry="18.341165" fill="rgb(255, 165, 0)" style="fill-opacity:0.13" />
<ellipse cx="655.000000" cy="81.010789" rx="16.666667" ry="12.227443" fill="rgb(255, 255, 255)" style="fill-opacity:1.00" />
<rect height="18.341165" width="25.000000" x="655.000000" y="71.840207" fill="rgb(255, 255, 255)" style="fill-opacity:1.00" />
<rect height="4.585291" width="25.000000" x="655.000000" y="85.596081" fill="rgb(255, 165, 0)" style="fill-opacity:0.13" />
<rect height="13.755874" width="6.250000" x="673.750000" y="85.596081" fill="rgb(255, 165, 0)" style="fill-opacity:0.13" />
<!-- End 'G' -->
<!-- Begin 'A' -->
<polygon points=" 630.000000, 106.547601, 651.000000, 99.351955, 659.000000, 99.351955, 680.000000, 106.547601, 672.500000, 106.547601, 666.250000, 104.748689, 643.750000, 104.748689, 637.500000, 106.547601" fill="rgb(178, 34, 34)" style="fill-opacity:0.13" />
<!-- End 'A' -->
<!-- Begin 'T' -->
<rect height="0.552384" width="50.000000" x="630.000000" y="106.547601" fill="rgb(0, 100, 0)" style="fill-opacity:0.13" />
<rect height="3.452399" width="10.000000" x="650.000000" y="106.547601" fill="rgb(0, 100, 0)" style="fill-opacity:0.13" />
<!-- End 'T' -->
<!-- Begin 'C' -->
<ellipse cx="655.000000" cy="140.191112" rx="25.000000" ry="20.191112" fill="rgb(0, 0, 128)" style="fill-opacity:0.41" />
<ellipse cx="655.000000" cy="140.191112" rx="16.666667" ry="13.460741" fill="rgb(255, 255, 255)" style="fill-opacity:1.00" />
<rect height="20.191112" width="25.000000" x="655.000000" y="130.095556" fill="rgb(255, 255, 255)" style="fill-opacity:1.00" />
<!-- End 'C' -->
<!-- Begin 'G' -->
<ellipse cx="655.000000" cy="175.429800" rx="25.000000" ry="15.047576" fill="rgb(255, 165, 0)" style="fill-opacity:0.41" />
<ellipse cx="655.000000" cy="175.429800" rx="16.666667" ry="10.031717" fill="rgb(255, 255, 255)" style="fill-opacity:1.00" />
<rect height="15.047576" width="25.000000" x="655.000000" y="167.906012" fill="rgb(255, 255, 255)" style="fill-opacity:1.00" />
<rect height="3.761894" width="25.000000" x="655.000000" y="179.191694" fill="rgb(255, 165, 0)" style="fill-opacity:0.41" />
<rect height="11.285682" width="6.250000" x="673.750000" y="179.191694" fill="rgb(255, 165, 0)" style="fill-opacity:0.41" />
<!-- End 'G' -->
<!-- Begin 'T' -->
<rect height="2.874716" width="50.000000" x="630.000000" y="190.477376" fill="rgb(0, 100, 0)" style="fill-opacity:0.41" />
<rect height="17.966973" width="10.000000" x="650.000000" y="190.477376" fill="rgb(0, 100, 0)" style="fill-opacity:0.41" />
<!-- End 'T' -->
<!-- Begin 'A' -->
<polygon points=" 630.000000, 220.000000, 651.000000, 208.444349, 659.000000, 208.444349, 680.000000, 220.000000, 672.500000, 220.000000, 666.250000, 217.111087, 643.750000, 217.111087, 637.500000, 220.000000" fill="rgb(178, 34, 34)" style="fill-opacity:0.41" />
<polygon points=" 655.000000, 210.755479, 647.000000, 214.377740, 662.000000, 214.377740" fill="rgb(255, 255, 255)" style="fill-opacity:1.00" />
<!-- End 'A' -->
<!-- Begin 'C' -->
<ellipse cx="655.000000" cy="251.723884" rx="25.000000" ry="21.723884" fill="rgb(0, 0, 128)" style="fill-opacity:0.32" />
<ellipse cx="655.000000" cy="251.723884" rx="16.666667" ry="14.482589" fill="rgb(255, 255, 255)" style="fill-opacity:1.00" />
<rect height="21.723884" width="25.000000" x="655.000000" y="240.861942" fill="rgb(255, 255, 255)" style="fill-opacity:1.00" />
<!-- End 'C' -->
<!-- Begin 'G' -->
<ellipse cx="655.000000" cy="288.378802" rx="25.000000" ry="14.931033" fill="rgb(255, 165, 0)" style="fill-opacity:0.32" />
<ellipse cx="655.000000" cy="288.378802" rx="16.666667" ry="9.954022" fill="rgb(255, 255, 255)" style="fill-opacity:1.00" />
<rect height="14.931033" width="25.000000" x="655.000000" y="280.913285" fill="rgb(255, 255, 255)" style="fill-opacity:1.00" />
<rect height="3.732758" width="25.000000" x="655.000000" y="292.111560" fill="rgb(255, 165, 0)" style="fill-opacity:0.32" />
<rect height="11.198275" width="6.250000" x="673.750000" y="292.111560" fill="rgb(255, 165, 0)" style="fill-opacity:0.32" />
<!-- End 'G' -->
<!-- Begin 'T' -->
<rect height="2.638132" width="50.000000" x="630.000000" y="303.309835" fill="rgb(0, 100, 0)" style="fill-opacity:0.32" />
<rect height="16.488322" width="10.000000" x="650.000000" y="303.309835" fill="rgb(0, 100, 0)" style="fill-opacity:0.32" />
<!-- End 'T' -->
<!-- Begin 'A' -->
<polygon points=" 630.000000, 330.000000, 651.000000, 319.798157, 659.000000, 319.798157, 680.000000, 330.000000, 672.500000, 330.000000, 666.250000, 327.449539, 643.750000, 327.449539, 637.500000, 330.000000" fill="rgb(178, 34, 34)" style="fill-opacity:0.32" />
<polygon points=" 655.000000, 321.838526, 647.000000, 324.919263, 662.000000, 324.919263" fill="rgb(255, 255, 255)" style="fill-opacity:1.00" />
<!-- End 'A' -->
<!-- Begin 'C' -->
<ellipse cx="655.000000" cy="364.585635" rx="25.000000" ry="24.585635" fill="rgb(0, 0, 128)" style="fill-opacity:0.15" />
<ellipse cx="655.000000" cy="364.585635" rx="16.666667" ry="16.390423" fill="rgb(255, 255, 255)" style="fill-opacity:1.00" />
<rect height="24.585635" width="25.000000" x="655.000000" y="352.292817" fill="rgb(255, 255, 255)" style="fill-opacity:1.00" />
<!-- End 'C' -->
<!-- Begin 'G' -->
<ellipse cx="655.000000" cy="404.438815" rx="25.000000" ry="15.267546" fill="rgb(255, 165, 0)" style="fill-opacity:0.15" />
<ellipse cx="655.000000" cy="404.438815" rx="16.666667" ry="10.178364" fill="rgb(255, 255, 255)" style="fill-opacity:1.00" />
<rect height="15.267546" width="25.000000" x="655.000000" y="396.805042" fill="rgb(255, 255, 255)" style="fill-opacity:1.00" />
<rect height="3.816886" width="25.000000" x="655.000000" y="408.255702" fill="rgb(255, 165, 0)" style="fill-opacity:0.15" />
<rect height="11.450659" width="6.250000" x="673.750000" y="408.255702" fill="rgb(255, 165, 0)" style="fill-opacity:0.15" />
<!-- End 'G' -->
<!-- Begin 'T' -->
<rect height="2.604978" width="50.000000" x="630.000000" y="419.706361" fill="rgb(0, 100, 0)" style="fill-opacity:0.15" />
<rect height="16.281113" width="10.000000" x="650.000000" y="419.706361" fill="rgb(0, 100, 0)" style="fill-opacity:0.15" />
<!-- End 'T' -->
<!-- Begin 'A' -->
<polygon points=" 630.000000, 440.000000, 651.000000, 435.987474, 659.000000, 435.987474, 680.000000, 440.000000, 672.500000, 440.000000, 666.250000, 438.996868, 643.750000, 438.996868, 637.500000, 440.000000" fill="rgb(178, 34, 34)" style="fill-opacity:0.15" />
<!-- End 'A' -->
<text x="370.000000" y="495">
IC = 4.94
</text>

</svg>
