<?xml version="1.0" encoding="UTF-8" standalone="yes"?>
                 <!DOCTYPE svg PUBLIC "-//W3C//DTD SVG 1.0//EN" "http://www.w3.org/TR/2001/REC-SVG-20010904/DTD/svg10.dtd">
                 <svg height="500" width="780" xmlns="http://www.w3.org/2000/svg" xmlns:xlink="http://www.w3.org/1999/xlink">
                 <line x1="85" y1="450" x2="747" y2="450" style="stroke:rgb(99,99,99);stroke-width:2" />
<rect height="7.000000" width="2.000000" x="85.000000" y="450.000000" fill="rgb(0, 0, 0)" style="fill-opacity:1.00" />
<text x="107.000000" y="470">
1
</text>
<rect height="7.000000" width="2.000000" x="145.000000" y="450.000000" fill="rgb(0, 0, 0)" style="fill-opacity:1.00" />
<text x="167.000000" y="470">
2
</text>
<rect height="7.000000" width="2.000000" x="205.000000" y="450.000000" fill="rgb(0, 0, 0)" style="fill-opacity:1.00" />
<text x="227.000000" y="470">
3
</text>
<rect height="7.000000" width="2.000000" x="265.000000" y="450.000000" fill="rgb(0, 0, 0)" style="fill-opacity:1.00" />
<text x="287.000000" y="470">
4
</text>
<rect height="7.000000" width="2.000000" x="325.000000" y="450.000000" fill="rgb(0, 0, 0)" style="fill-opacity:1.00" />
<text x="347.000000" y="470">
5
</text>
<rect height="7.000000" width="2.000000" x="385.000000" y="450.000000" fill="rgb(0, 0, 0)" style="fill-opacity:1.00" />
<text x="407.000000" y="470">
6
</text>
<rect height="7.000000" width="2.000000" x="445.000000" y="450.000000" fill="rgb(0, 0, 0)" style="fill-opacity:1.00" />
<text x="467.000000" y="470">
7
</text>
<rect height="7.000000" width="2.000000" x="505.000000" y="450.000000" fill="rgb(0, 0, 0)" style="fill-opacity:1.00" />
<text x="527.000000" y="470">
8
</text>
<rect height="7.000000" width="2.000000" x="565.000000" y="450.000000" fill="rgb(0, 0, 0)" style="fill-opacity:1.00" />
<text x="587.000000" y="470">
9
</text>
<rect height="7.000000" width="2.000000" x="625.000000" y="450.000000" fill="rgb(0, 0, 0)" style="fill-opacity:1.00" />
<text x="647.000000" y="470">
10
</text>
<rect height="7.000000" width="2.000000" x="685.000000" y="450.000000" fill="rgb(0, 0, 0)" style="fill-opacity:1.00" />
<text x="707.000000" y="470">
11
</text>
<rect height="7.000000" width="2.000000" x="745.000000" y="450.000000" fill="rgb(0, 0, 0)" style="fill-opacity:1.00" />
<!-- Begin 'A' -->
<polygon points=" 10.000000, 110.000000, 35.200000, 10.000000, 44.800000, 10.000000, 70.000000, 110.000000, 61.000000, 110.000000, 53.500000, 85.000000, 26.500000, 85.000000, 19.000000, 110.000000" fill="rgb(178, 34, 34)" style="fill-opacity:1.00" />
<polygon points=" 40.000000, 30.000000, 30.400000, 69.000000, 48.400000, 69.000000" fill="rgb(255, 255, 255)" style="fill-opacity:1.00" />
<!-- End 'A' -->
<!-- Begin 'C' -->
<ellipse cx="40.000000" cy="170.000000" rx="30.000000" ry="50.000000" fill="rgb(0, 0, 128)" style="fill-opacity:1.00" />
<ellipse cx="40.000000" cy="170.000000" rx="20.000000" ry="33.333333" fill="rgb(255, 255, 255)" style="fill-opacity:1.00" />
<rect height="50.000000" width="30.000000" x="40.000000" y="145.000000" fill="rgb(255, 255, 255)" style="fill-opacity:1.00" />
<!-- End 'C' -->
<!-- Begin 'G' -->
<ellipse cx="40.000000" cy="280.000000" rx="30.000000" ry="50.000000" fill="rgb(255, 165, 0)" style="fill-opacity:1.00" />
<ellipse cx="40.000000" cy="280.000000" rx="20.000000" ry="33.333333" fill="rgb(255, 255, 255)" style="fill-opacity:1.00" />
<rect height="50.000000" width="30.000000" x="40.000000" y="255.000000" fill="rgb(255, 255, 255)" style="fill-opacity:1.00" />
<rect height="12.500000" width="30.000000" x="40.000000" y="292.500000" fill="rgb(255, 165, 0)" style="fill-opacity:1.00" />
<rect height="37.500000" width="7.500000" x="62.500000" y="292.500000" fill="rgb(255, 165, 0)" style="fill-opacity:1.00" />
<!-- End 'G' -->
<!-- Begin 'T' -->
<rect height="16.000000" width="60.000000" x="10.000000" y="340.000000" fill="rgb(0, 100, 0)" style="fill-opacity:1.00" />
<rect height="100.000000" width="12.000000" x="34.000000" y="340.000000" fill="rgb(0, 100, 0)" style="fill-opacity:1.00" />
<!-- End 'T' -->
<!-- Begin 'T' -->
<rect height="8.080628" width="50.000000" x="90.000000" y="10.000000" fill="rgb(0, 100, 0)" style="fill-opacity:0.25" />
<rect height="50.503926" width="10.000000" x="110.000000" y="10.000000" fill="rgb(0, 100, 0)" style="fill-opacity:0.25" />
<!-- End 'T' -->
<!-- Begin 'C' -->
<ellipse cx="115.000000" cy="72.536890" rx="25.000000" ry="12.032964" fill="rgb(0, 0, 128)" style="fill-opacity:0.25" />
<ellipse cx="115.000000" cy="72.536890" rx="16.666667" ry="8.021976" fill="rgb(255, 255, 255)" style="fill-opacity:1.00" />
<rect height="12.032964" width="25.000000" x="115.000000" y="66.520408" fill="rgb(255, 255, 255)" style="fill-opacity:1.00" />
<!-- End 'C' -->
<!-- Begin 'G' -->
<ellipse cx="115.000000" cy="91.616460" rx="25.000000" ry="7.046606" fill="rgb(255, 165, 0)" style="fill-opacity:0.25" />
<ellipse cx="115.000000" cy="91.616460" rx="16.666667" ry="4.697737" fill="rgb(255, 255, 255)" style="fill-opacity:1.00" />
<rect height="7.046606" width="25.000000" x="115.000000" y="88.093157" fill="rgb(255, 255, 255)" style="fill-opacity:1.00" />
<rect height="1.761652" width="25.000000" x="115.000000" y="93.378111" fill="rgb(255, 165, 0)" style="fill-opacity:0.25" />
<rect height="5.284955" width="6.250000" x="133.750000" y="93.378111" fill="rgb(255, 165, 0)" style="fill-opacity:0.25" />
<!-- End 'G' -->
<!-- Begin 'A' -->
<polygon points=" 90.000000, 110.000000, 111.000000, 98.663066, 119.000000, 98.663066, 140.000000, 110.000000, 132.500000, 110.000000, 126.250000, 107.165766, 103.750000, 107.165766, 97.500000, 110.000000" fill="rgb(178, 34, 34)" style="fill-opacity:0.25" />
<polygon points=" 115.000000, 100.930453, 107.000000, 104.465226, 122.000000, 104.465226" fill="rgb(255, 255, 255)" style="fill-opacity:1.00" />
<!-- End 'A' -->
<!-- Begin 'T' -->
<rect height="8.080628" width="50.000000" x="90.000000" y="120.000000" fill="rgb(0, 100, 0)" style="fill-opacity:0.25" />
<rect height="50.503926" width="10.000000" x="110.000000" y="120.000000" fill="rgb(0, 100, 0)" style="fill-opacity:0.25" />
<!-- End 'T' -->
<!-- Begin 'C' -->
<ellipse cx="115.000000" cy="182.536890" rx="25.000000" ry="12.032964" fill="rgb(0, 0, 128)" style="fill-opacity:0.25" />
<ellipse cx="115.000000" cy="182.536890" rx="16.666667" ry="8.021976" fill="rgb(255, 255, 255)" style="fill-opacity:1.00" />
<rect height="12.032964" width="25.000000" x="115.000000" y="176.520408" fill="rgb(255, 255, 255)" style="fill-opacity:1.00" />
<!-- End 'C' -->
<!-- Begin 'G' -->
<ellipse cx="115.000000" cy="201.616460" rx="25.000000" ry="7.046606" fill="rgb(255, 165, 0)" style="fill-opacity:0.25" />
<ellipse cx="115.000000" cy="201.616460" rx="16.666667" ry="4.697737" fill="rgb(255, 255, 255)" style="fill-opacity:1.00" />
<rect height="7.046606" width="25.000000" x="115.000000" y="198.093157" fill="rgb(255, 255, 255)" style="fill-opacity:1.00" />
<rect height="1.761652" width="25.000000" x="115.000000" y="203.378111" fill="rgb(255, 165, 0)" style="fill-opacity:0.25" />
<rect height="5.284955" width="6.250000" x="133.750000" y="203.378111" fill="rgb(255, 165, 0)" style="fill-opacity:0.25" />
<!-- End 'G' -->
<!-- Begin 'A' -->
<polygon points=" 90.000000, 220.000000, 111.000000, 208.663066, 119.000000, 208.663066, 140.000000, 220.000000, 132.500000, 220.000000, 126.250000, 217.165766, 103.750000, 217.165766, 97.500000, 220.000000" fill="rgb(178, 34, 34)" style="fill-opacity:0.25" />
<polygon points=" 115.000000, 210.930453, 107.000000, 214.465226, 122.000000, 214.465226" fill="rgb(255, 255, 255)" style="fill-opacity:1.00" />
<!-- End 'A' -->
<!-- Begin 'T' -->
<rect height="8.080628" width="50.000000" x="90.000000" y="230.000000" fill="rgb(0, 100, 0)" style="fill-opacity:0.25" />
<rect height="50.503926" width="10.000000" x="110.000000" y="230.000000" fill="rgb(0, 100, 0)" style="fill-opacity:0.25" />
<!-- End 'T' -->
<!-- Begin 'C' -->
<ellipse cx="115.000000" cy="292.536890" rx="25.000000" ry="12.032964" fill="rgb(0, 0, 128)" style="fill-opacity:0.25" />
<ellipse cx="115.000000" cy="292.536890" rx="16.666667" ry="8.021976" fill="rgb(255, 255, 255)" style="fill-opacity:1.00" />
<rect height="12.032964" width="25.000000" x="115.000000" y="286.520408" fill="rgb(255, 255, 255)" style="fill-opacity:1.00" />
<!-- End 'C' -->
<!-- Begin 'G' -->
<ellipse cx="115.000000" cy="311.616460" rx="25.000000" ry="7.046606" fill="rgb(255, 165, 0)" style="fill-opacity:0.25" />
<ellipse cx="115.000000" cy="311.616460" rx="16.666667" ry="4.697737" fill="rgb(255, 255, 255)" style="fill-opacity:1.00" />
<rect height="7.046606" width="25.000000" x="115.000000" y="308.093157" fill="rgb(255, 255, 255)" style="fill-opacity:1.00" />
<rect height="1.761652" width="25.000000" x="115.000000" y="313.378111" fill="rgb(255, 165, 0)" style="fill-opacity:0.25" />
<rect height="5.284955" width="6.250000" x="133.750000" y="313.378111" fill="rgb(255, 165, 0)" style="fill-opacity:0.25" />
<!-- End 'G' -->
<!-- Begin 'A' -->
<polygon points=" 90.000000, 330.000000, 111.000000, 318.663066, 119.000000, 318.663066, 140.000000, 330.000000, 132.500000, 330.000000, 126.250000, 327.165766, 103.750000, 327.165766, 97.500000, 330.000000" fill="rgb(178, 34, 34)" style="fill-opacity:0.25" />
<polygon points=" 115.000000, 320.930453, 107.000000, 324.465226, 122.000000, 324.465226" fill="rgb(255, 255, 255)" style="fill-opacity:1.00" />
<!-- End 'A' -->
<!-- Begin 'T' -->
<rect height="8.080628" width="50.000000" x="90.000000" y="340.000000" fill="rgb(0, 100, 0)" style="fill-opacity:0.25" />
<rect height="50.503926" width="10.000000" x="110.000000" y="340.000000" fill="rgb(0, 100, 0)" style="fill-opacity:0.25" />
<!-- End 'T' -->
<!-- Begin 'C' -->
<ellipse cx="115.000000" cy="402.536890" rx="25.000000" ry="12.032964" fill="rgb(0, 0, 128)" style="fill-opacity:0.25" />
<ellipse cx="115.000000" cy="402.536890" rx="16.666667" ry="8.021976" fill="rgb(255, 255, 255)" style="fill-opacity:1.00" />
<rect height="12.032964" width="25.000000" x="115.000000" y="396.520408" fill="rgb(255, 255, 255)" style="fill-opacity:1.00" />
<!-- End 'C' -->
<!-- Begin 'G' -->
<ellipse cx="115.000000" cy="421.616460" rx="25.000000" ry="7.046606" fill="rgb(255, 165, 0)" style="fill-opacity:0.25" />
<ellipse cx="115.000000" cy="421.616460" rx="16.666667" ry="4.697737" fill="rgb(255, 255, 255)" style="fill-opacity:1.00" />
<rect height="7.046606" width="25.000000" x="115.000000" y="418.093157" fill="rgb(255, 255, 255)" style="fill-opacity:1.00" />
<rect height="1.761652" width="25.000000" x="115.000000" y="423.378111" fill="rgb(255, 165, 0)" style="fill-opacity:0.25" />
<rect height="5.284955" width="6.250000" x="133.750000" y="423.378111" fill="rgb(255, 165, 0)" style="fill-opacity:0.25" />
<!-- End 'G' -->
<!-- Begin 'A' -->
<polygon points=" 90.000000, 440.000000, 111.000000, 428.663066, 119.000000, 428.663066, 140.000000, 440.000000, 132.500000, 440.000000, 126.250000, 437.165766, 103.750000, 437.165766, 97.500000, 440.000000" fill="rgb(178, 34, 34)" style="fill-opacity:0.25" />
<polygon points=" 115.000000, 430.930453, 107.000000, 434.465226, 122.000000, 434.465226" fill="rgb(255, 255, 255)" style="fill-opacity:1.00" />
<!-- End 'A' -->
<!-- Begin 'T' -->
<rect height="7.351857" width="50.000000" x="150.000000" y="10.000000" fill="rgb(0, 100, 0)" style="fill-opacity:0.11" />
<rect height="45.949106" width="10.000000" x="170.000000" y="10.000000" fill="rgb(0, 100, 0)" style="fill-opacity:0.11" />
<!-- End 'T' -->
<!-- Begin 'C' -->
<ellipse cx="175.000000" cy="73.786959" rx="25.000000" ry="17.837853" fill="rgb(0, 0, 128)" style="fill-opacity:0.11" />
<ellipse cx="175.000000" cy="73.786959" rx="16.666667" ry="11.891902" fill="rgb(255, 255, 255)" style="fill-opacity:1.00" />
<rect height="17.837853" width="25.000000" x="175.000000" y="64.868033" fill="rgb(255, 255, 255)" style="fill-opacity:1.00" />
<!-- End 'C' -->
<!-- Begin 'G' -->
<ellipse cx="175.000000" cy="99.400858" rx="25.000000" ry="7.776045" fill="rgb(255, 165, 0)" style="fill-opacity:0.11" />
<ellipse cx="175.000000" cy="99.400858" rx="16.666667" ry="5.184030" fill="rgb(255, 255, 255)" style="fill-opacity:1.00" />
<rect height="7.776045" width="25.000000" x="175.000000" y="95.512835" fill="rgb(255, 255, 255)" style="fill-opacity:1.00" />
<rect height="1.944011" width="25.000000" x="175.000000" y="101.344869" fill="rgb(255, 165, 0)" style="fill-opacity:0.11" />
<rect height="5.832034" width="6.250000" x="193.750000" y="101.344869" fill="rgb(255, 165, 0)" style="fill-opacity:0.11" />
<!-- End 'G' -->
<!-- Begin 'A' -->
<polygon points=" 150.000000, 110.000000, 171.000000, 107.176903, 179.000000, 107.176903, 200.000000, 110.000000, 192.500000, 110.000000, 186.250000, 109.294226, 163.750000, 109.294226, 157.500000, 110.000000" fill="rgb(178, 34, 34)" style="fill-opacity:0.11" />
<!-- End 'A' -->
<!-- Begin 'T' -->
<rect height="7.351857" width="50.000000" x="150.000000" y="120.000000" fill="rgb(0, 100, 0)" style="fill-opacity:0.24" />
<rect height="45.949106" width="10.000000" x="170.000000" y="120.000000" fill="rgb(0, 100, 0)" style="fill-opacity:0.24" />
<!-- End 'T' -->
<!-- Begin 'C' -->
<ellipse cx="175.000000" cy="183.786959" rx="25.000000" ry="17.837853" fill="rgb(0, 0, 128)" style="fill-opacity:0.24" />
<ellipse cx="175.000000" cy="183.786959" rx="16.666667" ry="11.891902" fill="rgb(255, 255, 255)" style="fill-opacity:1.00" />
<rect height="17.837853" width="25.000000" x="175.000000" y="174.868033" fill="rgb(255, 255, 255)" style="fill-opacity:1.00" />
<!-- End 'C' -->
<!-- Begin 'G' -->
<ellipse cx="175.000000" cy="209.400858" rx="25.000000" ry="7.776045" fill="rgb(255, 165, 0)" style="fill-opacity:0.24" />
<ellipse cx="175.000000" cy="209.400858" rx="16.666667" ry="5.184030" fill="rgb(255, 255, 255)" style="fill-opacity:1.00" />
<rect height="7.776045" width="25.000000" x="175.000000" y="205.512835" fill="rgb(255, 255, 255)" style="fill-opacity:1.00" />
<rect height="1.944011" width="25.000000" x="175.000000" y="211.344869" fill="rgb(255, 165, 0)" style="fill-opacity:0.24" />
<rect height="5.832034" width="6.250000" x="193.750000" y="211.344869" fill="rgb(255, 165, 0)" style="fill-opacity:0.24" />
<!-- End 'G' -->
<!-- Begin 'A' -->
<polygon points=" 150.000000, 220.000000, 171.000000, 217.176903, 179.000000, 217.176903, 200.000000, 220.000000, 192.500000, 220.000000, 186.250000, 219.294226, 163.750000, 219.294226, 157.500000, 220.000000" fill="rgb(178, 34, 34)" style="fill-opacity:0.24" />
<!-- End 'A' -->
<!-- Begin 'T' -->
<rect height="7.351857" width="50.000000" x="150.000000" y="230.000000" fill="rgb(0, 100, 0)" style="fill-opacity:0.14" />
<rect height="45.949106" width="10.000000" x="170.000000" y="230.000000" fill="rgb(0, 100, 0)" style="fill-opacity:0.14" />
<!-- End 'T' -->
<!-- Begin 'C' -->
<ellipse cx="175.000000" cy="293.786959" rx="25.000000" ry="17.837853" fill="rgb(0, 0, 128)" style="fill-opacity:0.14" />
<ellipse cx="175.000000" cy="293.786959" rx="16.666667" ry="11.891902" fill="rgb(255, 255, 255)" style="fill-opacity:1.00" />
<rect height="17.837853" width="25.000000" x="175.000000" y="284.868033" fill="rgb(255, 255, 255)" style="fill-opacity:1.00" />
<!-- End 'C' -->
<!-- Begin 'G' -->
<ellipse cx="175.000000" cy="319.400858" rx="25.000000" ry="7.776045" fill="rgb(255, 165, 0)" style="fill-opacity:0.14" />
<ellipse cx="175.000000" cy="319.400858" rx="16.666667" ry="5.184030" fill="rgb(255, 255, 255)" style="fill-opacity:1.00" />
<rect height="7.776045" width="25.000000" x="175.000000" y="315.512835" fill="rgb(255, 255, 255)" style="fill-opacity:1.00" />
<rect height="1.944011" width="25.000000" x="175.000000" y="321.344869" fill="rgb(255, 165, 0)" style="fill-opacity:0.14" />
<rect height="5.832034" width="6.250000" x="193.750000" y="321.344869" fill="rgb(255, 165, 0)" style="fill-opacity:0.14" />
<!-- End 'G' -->
<!-- Begin 'A' -->
<polygon points=" 150.000000, 330.000000, 171.000000, 327.176903, 179.000000, 327.176903, 200.000000, 330.000000, 192.500000, 330.000000, 186.250000, 329.294226, 163.750000, 329.294226, 157.500000, 330.000000" fill="rgb(178, 34, 34)" style="fill-opacity:0.14" />
<!-- End 'A' -->
<!-- Begin 'T' -->
<rect height="7.351857" width="50.000000" x="150.000000" y="340.000000" fill="rgb(0, 100, 0)" style="fill-opacity:0.51" />
<rect height="45.949106" width="10.000000" x="170.000000" y="340.000000" fill="rgb(0, 100, 0)" style="fill-opacity:0.51" />
<!-- End 'T' -->
<!-- Begin 'C' -->
<ellipse cx="175.000000" cy="403.786959" rx="25.000000" ry="17.837853" fill="rgb(0, 0, 128)" style="fill-opacity:0.51" />
<ellipse cx="175.000000" cy="403.786959" rx="16.666667" ry="11.891902" fill="rgb(255, 255, 255)" style="fill-opacity:1.00" />
<rect height="17.837853" width="25.000000" x="175.000000" y="394.868033" fill="rgb(255, 255, 255)" style="fill-opacity:1.00" />
<!-- End 'C' -->
<!-- Begin 'G' -->
<ellipse cx="175.000000" cy="429.400858" rx="25.000000" ry="7.776045" fill="rgb(255, 165, 0)" style="fill-opacity:0.51" />
<ellipse cx="175.000000" cy="429.400858" rx="16.666667" ry="5.184030" fill="rgb(255, 255, 255)" style="fill-opacity:1.00" />
<rect height="7.776045" width="25.000000" x="175.000000" y="425.512835" fill="rgb(255, 255, 255)" style="fill-opacity:1.00" />
<rect height="1.944011" width="25.000000" x="175.000000" y="431.344869" fill="rgb(255, 165, 0)" style="fill-opacity:0.51" />
<rect height="5.832034" width="6.250000" x="193.750000" y="431.344869" fill="rgb(255, 165, 0)" style="fill-opacity:0.51" />
<!-- End 'G' -->
<!-- Begin 'A' -->
<polygon points=" 150.000000, 440.000000, 171.000000, 437.176903, 179.000000, 437.176903, 200.000000, 440.000000, 192.500000, 440.000000, 186.250000, 439.294226, 163.750000, 439.294226, 157.500000, 440.000000" fill="rgb(178, 34, 34)" style="fill-opacity:0.51" />
<!-- End 'A' -->
<!-- Begin 'C' -->
<ellipse cx="235.000000" cy="51.399855" rx="25.000000" ry="41.399855" fill="rgb(0, 0, 128)" style="fill-opacity:0.03" />
<ellipse cx="235.000000" cy="51.399855" rx="16.666667" ry="27.599903" fill="rgb(255, 255, 255)" style="fill-opacity:1.00" />
<rect height="41.399855" width="25.000000" x="235.000000" y="30.699928" fill="rgb(255, 255, 255)" style="fill-opacity:1.00" />
<!-- End 'C' -->
<!-- Begin 'T' -->
<rect height="2.360933" width="50.000000" x="210.000000" y="92.799710" fill="rgb(0, 100, 0)" style="fill-opacity:0.03" />
<rect height="14.755833" width="10.000000" x="230.000000" y="92.799710" fill="rgb(0, 100, 0)" style="fill-opacity:0.03" />
<!-- End 'T' -->
<!-- Begin 'G' -->
<ellipse cx="235.000000" cy="108.774987" rx="25.000000" ry="1.219444" fill="rgb(255, 165, 0)" style="fill-opacity:0.03" />
<ellipse cx="235.000000" cy="108.774987" rx="16.666667" ry="0.812963" fill="rgb(255, 255, 255)" style="fill-opacity:1.00" />
<rect height="1.219444" width="25.000000" x="235.000000" y="108.165265" fill="rgb(255, 255, 255)" style="fill-opacity:1.00" />
<rect height="0.304861" width="25.000000" x="235.000000" y="109.079849" fill="rgb(255, 165, 0)" style="fill-opacity:0.03" />
<rect height="0.914583" width="6.250000" x="253.750000" y="109.079849" fill="rgb(255, 165, 0)" style="fill-opacity:0.03" />
<!-- End 'G' -->
<!-- Begin 'A' -->
<polygon points=" 210.000000, 110.000000, 231.000000, 109.994432, 239.000000, 109.994432, 260.000000, 110.000000, 252.500000, 110.000000, 246.250000, 109.998608, 223.750000, 109.998608, 217.500000, 110.000000" fill="rgb(178, 34, 34)" style="fill-opacity:0.03" />
<!-- End 'A' -->
<!-- Begin 'C' -->
<ellipse cx="235.000000" cy="161.399855" rx="25.000000" ry="41.399855" fill="rgb(0, 0, 128)" style="fill-opacity:0.36" />
<ellipse cx="235.000000" cy="161.399855" rx="16.666667" ry="27.599903" fill="rgb(255, 255, 255)" style="fill-opacity:1.00" />
<rect height="41.399855" width="25.000000" x="235.000000" y="140.699928" fill="rgb(255, 255, 255)" style="fill-opacity:1.00" />
<!-- End 'C' -->
<!-- Begin 'T' -->
<rect height="2.360933" width="50.000000" x="210.000000" y="202.799710" fill="rgb(0, 100, 0)" style="fill-opacity:0.36" />
<rect height="14.755833" width="10.000000" x="230.000000" y="202.799710" fill="rgb(0, 100, 0)" style="fill-opacity:0.36" />
<!-- End 'T' -->
<!-- Begin 'G' -->
<ellipse cx="235.000000" cy="218.774987" rx="25.000000" ry="1.219444" fill="rgb(255, 165, 0)" style="fill-opacity:0.36" />
<ellipse cx="235.000000" cy="218.774987" rx="16.666667" ry="0.812963" fill="rgb(255, 255, 255)" style="fill-opacity:1.00" />
<rect height="1.219444" width="25.000000" x="235.000000" y="218.165265" fill="rgb(255, 255, 255)" style="fill-opacity:1.00" />
<rect height="0.304861" width="25.000000" x="235.000000" y="219.079849" fill="rgb(255, 165, 0)" style="fill-opacity:0.36" />
<rect height="0.914583" width="6.250000" x="253.750000" y="219.079849" fill="rgb(255, 165, 0)" style="fill-opacity:0.36" />
<!-- End 'G' -->
<!-- Begin 'A' -->
<polygon points=" 210.000000, 220.000000, 231.000000, 219.994432, 239.000000, 219.994432, 260.000000, 220.000000, 252.500000, 220.000000, 246.250000, 219.998608, 223.750000, 219.998608, 217.500000, 220.000000" fill="rgb(178, 34, 34)" style="fill-opacity:0.36" />
<!-- End 'A' -->
<!-- Begin 'C' -->
<ellipse cx="235.000000" cy="271.399855" rx="25.000000" ry="41.399855" fill="rgb(0, 0, 128)" style="fill-opacity:0.16" />
<ellipse cx="235.000000" cy="271.399855" rx="16.666667" ry="27.599903" fill="rgb(255, 255, 255)" style="fill-opacity:1.00" />
<rect height="41.399855" width="25.000000" x="235.000000" y="250.699928" fill="rgb(255, 255, 255)" style="fill-opacity:1.00" />
<!-- End 'C' -->
<!-- Begin 'T' -->
<rect height="2.360933" width="50.000000" x="210.000000" y="312.799710" fill="rgb(0, 100, 0)" style="fill-opacity:0.16" />
<rect height="14.755833" width="10.000000" x="230.000000" y="312.799710" fill="rgb(0, 100, 0)" style="fill-opacity:0.16" />
<!-- End 'T' -->
<!-- Begin 'G' -->
<ellipse cx="235.000000" cy="328.774987" rx="25.000000" ry="1.219444" fill="rgb(255, 165, 0)" style="fill-opacity:0.16" />
<ellipse cx="235.000000" cy="328.774987" rx="16.666667" ry="0.812963" fill="rgb(255, 255, 255)" style="fill-opacity:1.00" />
<rect height="1.219444" width="25.000000" x="235.000000" y="328.165265" fill="rgb(255, 255, 255)" style="fill-opacity:1.00" />
<rect height="0.304861" width="25.000000" x="235.000000" y="329.079849" fill="rgb(255, 165, 0)" style="fill-opacity:0.16" />
<rect height="0.914583" width="6.250000" x="253.750000" y="329.079849" fill="rgb(255, 165, 0)" style="fill-opacity:0.16" />
<!-- End 'G' -->
<!-- Begin 'A' -->
<polygon points=" 210.000000, 330.000000, 231.000000, 329.994432, 239.000000, 329.994432, 260.000000, 330.000000, 252.500000, 330.000000, 246.250000, 329.998608, 223.750000, 329.998608, 217.500000, 330.000000" fill="rgb(178, 34, 34)" style="fill-opacity:0.16" />
<!-- End 'A' -->
<!-- Begin 'C' -->
<ellipse cx="235.000000" cy="381.399855" rx="25.000000" ry="41.399855" fill="rgb(0, 0, 128)" style="fill-opacity:0.46" />
<ellipse cx="235.000000" cy="381.399855" rx="16.666667" ry="27.599903" fill="rgb(255, 255, 255)" style="fill-opacity:1.00" />
<rect height="41.399855" width="25.000000" x="235.000000" y="360.699928" fill="rgb(255, 255, 255)" style="fill-opacity:1.00" />
<!-- End 'C' -->
<!-- Begin 'T' -->
<rect height="2.360933" width="50.000000" x="210.000000" y="422.799710" fill="rgb(0, 100, 0)" style="fill-opacity:0.46" />
<rect height="14.755833" width="10.000000" x="230.000000" y="422.799710" fill="rgb(0, 100, 0)" style="fill-opacity:0.46" />
<!-- End 'T' -->
<!-- Begin 'G' -->
<ellipse cx="235.000000" cy="438.774987" rx="25.000000" ry="1.219444" fill="rgb(255, 165, 0)" style="fill-opacity:0.46" />
<ellipse cx="235.000000" cy="438.774987" rx="16.666667" ry="0.812963" fill="rgb(255, 255, 255)" style="fill-opacity:1.00" />
<rect height="1.219444" width="25.000000" x="235.000000" y="438.165265" fill="rgb(255, 255, 255)" style="fill-opacity:1.00" />
<rect height="0.304861" width="25.000000" x="235.000000" y="439.079849" fill="rgb(255, 165, 0)" style="fill-opacity:0.46" />
<rect height="0.914583" width="6.250000" x="253.750000" y="439.079849" fill="rgb(255, 165, 0)" style="fill-opacity:0.46" />
<!-- End 'G' -->
<!-- Begin 'A' -->
<polygon points=" 210.000000, 440.000000, 231.000000, 439.994432, 239.000000, 439.994432, 260.000000, 440.000000, 252.500000, 440.000000, 246.250000, 439.998608, 223.750000, 439.998608, 217.500000, 440.000000" fill="rgb(178, 34, 34)" style="fill-opacity:0.46" />
<!-- End 'A' -->
<!-- Begin 'T' -->
<rect height="15.376357" width="50.000000" x="270.000000" y="10.000000" fill="rgb(0, 100, 0)" style="fill-opacity:0.00" />
<rect height="96.102233" width="10.000000" x="290.000000" y="10.000000" fill="rgb(0, 100, 0)" style="fill-opacity:0.00" />
<!-- End 'T' -->
<!-- Begin 'C' -->
<ellipse cx="295.000000" cy="108.045548" rx="25.000000" ry="1.943315" fill="rgb(0, 0, 128)" style="fill-opacity:0.00" />
<ellipse cx="295.000000" cy="108.045548" rx="16.666667" ry="1.295544" fill="rgb(255, 255, 255)" style="fill-opacity:1.00" />
<rect height="1.943315" width="25.000000" x="295.000000" y="107.073891" fill="rgb(255, 255, 255)" style="fill-opacity:1.00" />
<!-- End 'C' -->
<!-- Begin 'G' -->
<ellipse cx="295.000000" cy="109.991648" rx="25.000000" ry="0.002784" fill="rgb(255, 165, 0)" style="fill-opacity:0.00" />
<ellipse cx="295.000000" cy="109.991648" rx="16.666667" ry="0.001856" fill="rgb(255, 255, 255)" style="fill-opacity:1.00" />
<rect height="0.002784" width="25.000000" x="295.000000" y="109.990256" fill="rgb(255, 255, 255)" style="fill-opacity:1.00" />
<rect height="0.000696" width="25.000000" x="295.000000" y="109.992344" fill="rgb(255, 165, 0)" style="fill-opacity:0.00" />
<rect height="0.002088" width="6.250000" x="313.750000" y="109.992344" fill="rgb(255, 165, 0)" style="fill-opacity:0.00" />
<!-- End 'G' -->
<!-- Begin 'A' -->
<polygon points=" 270.000000, 110.000000, 291.000000, 109.994432, 299.000000, 109.994432, 320.000000, 110.000000, 312.500000, 110.000000, 306.250000, 109.998608, 283.750000, 109.998608, 277.500000, 110.000000" fill="rgb(178, 34, 34)" style="fill-opacity:0.00" />
<!-- End 'A' -->
<!-- Begin 'T' -->
<rect height="15.376357" width="50.000000" x="270.000000" y="120.000000" fill="rgb(0, 100, 0)" style="fill-opacity:0.83" />
<rect height="96.102233" width="10.000000" x="290.000000" y="120.000000" fill="rgb(0, 100, 0)" style="fill-opacity:0.83" />
<!-- End 'T' -->
<!-- Begin 'C' -->
<ellipse cx="295.000000" cy="218.045548" rx="25.000000" ry="1.943315" fill="rgb(0, 0, 128)" style="fill-opacity:0.83" />
<ellipse cx="295.000000" cy="218.045548" rx="16.666667" ry="1.295544" fill="rgb(255, 255, 255)" style="fill-opacity:1.00" />
<rect height="1.943315" width="25.000000" x="295.000000" y="217.073891" fill="rgb(255, 255, 255)" style="fill-opacity:1.00" />
<!-- End 'C' -->
<!-- Begin 'G' -->
<ellipse cx="295.000000" cy="219.991648" rx="25.000000" ry="0.002784" fill="rgb(255, 165, 0)" style="fill-opacity:0.83" />
<ellipse cx="295.000000" cy="219.991648" rx="16.666667" ry="0.001856" fill="rgb(255, 255, 255)" style="fill-opacity:1.00" />
<rect height="0.002784" width="25.000000" x="295.000000" y="219.990256" fill="rgb(255, 255, 255)" style="fill-opacity:1.00" />
<rect height="0.000696" width="25.000000" x="295.000000" y="219.992344" fill="rgb(255, 165, 0)" style="fill-opacity:0.83" />
<rect height="0.002088" width="6.250000" x="313.750000" y="219.992344" fill="rgb(255, 165, 0)" style="fill-opacity:0.83" />
<!-- End 'G' -->
<!-- Begin 'A' -->
<polygon points=" 270.000000, 220.000000, 291.000000, 219.994432, 299.000000, 219.994432, 320.000000, 220.000000, 312.500000, 220.000000, 306.250000, 219.998608, 283.750000, 219.998608, 277.500000, 220.000000" fill="rgb(178, 34, 34)" style="fill-opacity:0.83" />
<!-- End 'A' -->
<!-- Begin 'T' -->
<rect height="15.376357" width="50.000000" x="270.000000" y="230.000000" fill="rgb(0, 100, 0)" style="fill-opacity:0.02" />
<rect height="96.102233" width="10.000000" x="290.000000" y="230.000000" fill="rgb(0, 100, 0)" style="fill-opacity:0.02" />
<!-- End 'T' -->
<!-- Begin 'C' -->
<ellipse cx="295.000000" cy="328.045548" rx="25.000000" ry="1.943315" fill="rgb(0, 0, 128)" style="fill-opacity:0.02" />
<ellipse cx="295.000000" cy="328.045548" rx="16.666667" ry="1.295544" fill="rgb(255, 255, 255)" style="fill-opacity:1.00" />
<rect height="1.943315" width="25.000000" x="295.000000" y="327.073891" fill="rgb(255, 255, 255)" style="fill-opacity:1.00" />
<!-- End 'C' -->
<!-- Begin 'G' -->
<ellipse cx="295.000000" cy="329.991648" rx="25.000000" ry="0.002784" fill="rgb(255, 165, 0)" style="fill-opacity:0.02" />
<ellipse cx="295.000000" cy="329.991648" rx="16.666667" ry="0.001856" fill="rgb(255, 255, 255)" style="fill-opacity:1.00" />
<rect height="0.002784" width="25.000000" x="295.000000" y="329.990256" fill="rgb(255, 255, 255)" style="fill-opacity:1.00" />
<rect height="0.000696" width="25.000000" x="295.000000" y="329.992344" fill="rgb(255, 165, 0)" style="fill-opacity:0.02" />
<rect height="0.002088" width="6.250000" x="313.750000" y="329.992344" fill="rgb(255, 165, 0)" style="fill-opacity:0.02" />
<!-- End 'G' -->
<!-- Begin 'A' -->
<polygon points=" 270.000000, 330.000000, 291.000000, 329.994432, 299.000000, 329.994432, 320.000000, 330.000000, 312.500000, 330.000000, 306.250000, 329.998608, 283.750000, 329.998608, 277.500000, 330.000000" fill="rgb(178, 34, 34)" style="fill-opacity:0.02" />
<!-- End 'A' -->
<!-- Begin 'T' -->
<rect height="15.376357" width="50.000000" x="270.000000" y="340.000000" fill="rgb(0, 100, 0)" style="fill-opacity:0.15" />
<rect height="96.102233" width="10.000000" x="290.000000" y="340.000000" fill="rgb(0, 100, 0)" style="fill-opacity:0.15" />
<!-- End 'T' -->
<!-- Begin 'C' -->
<ellipse cx="295.000000" cy="438.045548" rx="25.000000" ry="1.943315" fill="rgb(0, 0, 128)" style="fill-opacity:0.15" />
<ellipse cx="295.000000" cy="438.045548" rx="16.666667" ry="1.295544" fill="rgb(255, 255, 255)" style="fill-opacity:1.00" />
<rect height="1.943315" width="25.000000" x="295.000000" y="437.073891" fill="rgb(255, 255, 255)" style="fill-opacity:1.00" />
<!-- End 'C' -->
<!-- Begin 'G' -->
<ellipse cx="295.000000" cy="439.991648" rx="25.000000" ry="0.002784" fill="rgb(255, 165, 0)" style="fill-opacity:0.15" />
<ellipse cx="295.000000" cy="439.991648" rx="16.666667" ry="0.001856" fill="rgb(255, 255, 255)" style="fill-opacity:1.00" />
<rect height="0.002784" width="25.000000" x="295.000000" y="439.990256" fill="rgb(255, 255, 255)" style="fill-opacity:1.00" />
<rect height="0.000696" width="25.000000" x="295.000000" y="439.992344" fill="rgb(255, 165, 0)" style="fill-opacity:0.15" />
<rect height="0.002088" width="6.250000" x="313.750000" y="439.992344" fill="rgb(255, 165, 0)" style="fill-opacity:0.15" />
<!-- End 'G' -->
<!-- Begin 'A' -->
<polygon points=" 270.000000, 440.000000, 291.000000, 439.994432, 299.000000, 439.994432, 320.000000, 440.000000, 312.500000, 440.000000, 306.250000, 439.998608, 283.750000, 439.998608, 277.500000, 440.000000" fill="rgb(178, 34, 34)" style="fill-opacity:0.15" />
<!-- End 'A' -->
<!-- Begin 'T' -->
<rect height="15.997327" width="50.000000" x="330.000000" y="10.000000" fill="rgb(0, 100, 0)" style="fill-opacity:0.00" />
<rect height="99.983295" width="10.000000" x="350.000000" y="10.000000" fill="rgb(0, 100, 0)" style="fill-opacity:0.00" />
<!-- End 'T' -->
<!-- Begin 'G' -->
<ellipse cx="355.000000" cy="109.986079" rx="25.000000" ry="0.002784" fill="rgb(255, 165, 0)" style="fill-opacity:0.00" />
<ellipse cx="355.000000" cy="109.986079" rx="16.666667" ry="0.001856" fill="rgb(255, 255, 255)" style="fill-opacity:1.00" />
<rect height="0.002784" width="25.000000" x="355.000000" y="109.984687" fill="rgb(255, 255, 255)" style="fill-opacity:1.00" />
<rect height="0.000696" width="25.000000" x="355.000000" y="109.986775" fill="rgb(255, 165, 0)" style="fill-opacity:0.00" />
<rect height="0.002088" width="6.250000" x="373.750000" y="109.986775" fill="rgb(255, 165, 0)" style="fill-opacity:0.00" />
<!-- End 'G' -->
<!-- Begin 'C' -->
<ellipse cx="355.000000" cy="109.991648" rx="25.000000" ry="0.002784" fill="rgb(0, 0, 128)" style="fill-opacity:0.00" />
<ellipse cx="355.000000" cy="109.991648" rx="16.666667" ry="0.001856" fill="rgb(255, 255, 255)" style="fill-opacity:1.00" />
<rect height="0.002784" width="25.000000" x="355.000000" y="109.990256" fill="rgb(255, 255, 255)" style="fill-opacity:1.00" />
<!-- End 'C' -->
<!-- Begin 'A' -->
<polygon points=" 330.000000, 110.000000, 351.000000, 109.994432, 359.000000, 109.994432, 380.000000, 110.000000, 372.500000, 110.000000, 366.250000, 109.998608, 343.750000, 109.998608, 337.500000, 110.000000" fill="rgb(178, 34, 34)" style="fill-opacity:0.00" />
<!-- End 'A' -->
<!-- Begin 'T' -->
<rect height="15.997327" width="50.000000" x="330.000000" y="120.000000" fill="rgb(0, 100, 0)" style="fill-opacity:0.04" />
<rect height="99.983295" width="10.000000" x="350.000000" y="120.000000" fill="rgb(0, 100, 0)" style="fill-opacity:0.04" />
<!-- End 'T' -->
<!-- Begin 'G' -->
<ellipse cx="355.000000" cy="219.986079" rx="25.000000" ry="0.002784" fill="rgb(255, 165, 0)" style="fill-opacity:0.04" />
<ellipse cx="355.000000" cy="219.986079" rx="16.666667" ry="0.001856" fill="rgb(255, 255, 255)" style="fill-opacity:1.00" />
<rect height="0.002784" width="25.000000" x="355.000000" y="219.984687" fill="rgb(255, 255, 255)" style="fill-opacity:1.00" />
<rect height="0.000696" width="25.000000" x="355.000000" y="219.986775" fill="rgb(255, 165, 0)" style="fill-opacity:0.04" />
<rect height="0.002088" width="6.250000" x="373.750000" y="219.986775" fill="rgb(255, 165, 0)" style="fill-opacity:0.04" />
<!-- End 'G' -->
<!-- Begin 'C' -->
<ellipse cx="355.000000" cy="219.991648" rx="25.000000" ry="0.002784" fill="rgb(0, 0, 128)" style="fill-opacity:0.04" />
<ellipse cx="355.000000" cy="219.991648" rx="16.666667" ry="0.001856" fill="rgb(255, 255, 255)" style="fill-opacity:1.00" />
<rect height="0.002784" width="25.000000" x="355.000000" y="219.990256" fill="rgb(255, 255, 255)" style="fill-opacity:1.00" />
<!-- End 'C' -->
<!-- Begin 'A' -->
<polygon points=" 330.000000, 220.000000, 351.000000, 219.994432, 359.000000, 219.994432, 380.000000, 220.000000, 372.500000, 220.000000, 366.250000, 219.998608, 343.750000, 219.998608, 337.500000, 220.000000" fill="rgb(178, 34, 34)" style="fill-opacity:0.04" />
<!-- End 'A' -->
<!-- Begin 'T' -->
<rect height="15.997327" width="50.000000" x="330.000000" y="230.000000" fill="rgb(0, 100, 0)" style="fill-opacity:0.00" />
<rect height="99.983295" width="10.000000" x="350.000000" y="230.000000" fill="rgb(0, 100, 0)" style="fill-opacity:0.00" />
<!-- End 'T' -->
<!-- Begin 'G' -->
<ellipse cx="355.000000" cy="329.986079" rx="25.000000" ry="0.002784" fill="rgb(255, 165, 0)" style="fill-opacity:0.00" />
<ellipse cx="355.000000" cy="329.986079" rx="16.666667" ry="0.001856" fill="rgb(255, 255, 255)" style="fill-opacity:1.00" />
<rect height="0.002784" width="25.000000" x="355.000000" y="329.984687" fill="rgb(255, 255, 255)" style="fill-opacity:1.00" />
<rect height="0.000696" width="25.000000" x="355.000000" y="329.986775" fill="rgb(255, 165, 0)" style="fill-opacity:0.00" />
<rect height="0.002088" width="6.250000" x="373.750000" y="329.986775" fill="rgb(255, 165, 0)" style="fill-opacity:0.00" />
<!-- End 'G' -->
<!-- Begin 'C' -->
<ellipse cx="355.000000" cy="329.991648" rx="25.000000" ry="0.002784" fill="rgb(0, 0, 128)" style="fill-opacity:0.00" />
<ellipse cx="355.000000" cy="329.991648" rx="16.666667" ry="0.001856" fill="rgb(255, 255, 255)" style="fill-opacity:1.00" />
<rect height="0.002784" width="25.000000" x="355.000000" y="329.990256" fill="rgb(255, 255, 255)" style="fill-opacity:1.00" />
<!-- End 'C' -->
<!-- Begin 'A' -->
<polygon points=" 330.000000, 330.000000, 351.000000, 329.994432, 359.000000, 329.994432, 380.000000, 330.000000, 372.500000, 330.000000, 366.250000, 329.998608, 343.750000, 329.998608, 337.500000, 330.000000" fill="rgb(178, 34, 34)" style="fill-opacity:0.00" />
<!-- End 'A' -->
<!-- Begin 'T' -->
<rect height="15.997327" width="50.000000" x="330.000000" y="340.000000" fill="rgb(0, 100, 0)" style="fill-opacity:0.96" />
<rect height="99.983295" width="10.000000" x="350.000000" y="340.000000" fill="rgb(0, 100, 0)" style="fill-opacity:0.96" />
<!-- End 'T' -->
<!-- Begin 'G' -->
<ellipse cx="355.000000" cy="439.986079" rx="25.000000" ry="0.002784" fill="rgb(255, 165, 0)" style="fill-opacity:0.96" />
<ellipse cx="355.000000" cy="439.986079" rx="16.666667" ry="0.001856" fill="rgb(255, 255, 255)" style="fill-opacity:1.00" />
<rect height="0.002784" width="25.000000" x="355.000000" y="439.984687" fill="rgb(255, 255, 255)" style="fill-opacity:1.00" />
<rect height="0.000696" width="25.000000" x="355.000000" y="439.986775" fill="rgb(255, 165, 0)" style="fill-opacity:0.96" />
<rect height="0.002088" width="6.250000" x="373.750000" y="439.986775" fill="rgb(255, 165, 0)" style="fill-opacity:0.96" />
<!-- End 'G' -->
<!-- Begin 'C' -->
<ellipse cx="355.000000" cy="439.991648" rx="25.000000" ry="0.002784" fill="rgb(0, 0, 128)" style="fill-opacity:0.96" />
<ellipse cx="355.000000" cy="439.991648" rx="16.666667" ry="0.001856" fill="rgb(255, 255, 255)" style="fill-opacity:1.00" />
<rect height="0.002784" width="25.000000" x="355.000000" y="439.990256" fill="rgb(255, 255, 255)" style="fill-opacity:1.00" />
<!-- End 'C' -->
<!-- Begin 'A' -->
<polygon points=" 330.000000, 440.000000, 351.000000, 439.994432, 359.000000, 439.994432, 380.000000, 440.000000, 372.500000, 440.000000, 366.250000, 439.998608, 343.750000, 439.998608, 337.500000, 440.000000" fill="rgb(178, 34, 34)" style="fill-opacity:0.96" />
<!-- End 'A' -->
<!-- Begin 'A' -->
<polygon points=" 390.000000, 109.983295, 411.000000, 10.000000, 419.000000, 10.000000, 440.000000, 109.983295, 432.500000, 109.983295, 426.250000, 84.987471, 403.750000, 84.987471, 397.500000, 109.983295" fill="rgb(178, 34, 34)" style="fill-opacity:0.00" />
<polygon points=" 415.000000, 29.996659, 407.000000, 68.989977, 422.000000, 68.989977" fill="rgb(255, 255, 255)" style="fill-opacity:1.00" />
<!-- End 'A' -->
<!-- Begin 'T' -->
<rect height="0.000891" width="50.000000" x="390.000000" y="109.983295" fill="rgb(0, 100, 0)" style="fill-opacity:0.00" />
<rect height="0.005568" width="10.000000" x="410.000000" y="109.983295" fill="rgb(0, 100, 0)" style="fill-opacity:0.00" />
<!-- End 'T' -->
<!-- Begin 'G' -->
<ellipse cx="415.000000" cy="109.991648" rx="25.000000" ry="0.002784" fill="rgb(255, 165, 0)" style="fill-opacity:0.00" />
<ellipse cx="415.000000" cy="109.991648" rx="16.666667" ry="0.001856" fill="rgb(255, 255, 255)" style="fill-opacity:1.00" />
<rect height="0.002784" width="25.000000" x="415.000000" y="109.990256" fill="rgb(255, 255, 255)" style="fill-opacity:1.00" />
<rect height="0.000696" width="25.000000" x="415.000000" y="109.992344" fill="rgb(255, 165, 0)" style="fill-opacity:0.00" />
<rect height="0.002088" width="6.250000" x="433.750000" y="109.992344" fill="rgb(255, 165, 0)" style="fill-opacity:0.00" />
<!-- End 'G' -->
<!-- Begin 'C' -->
<ellipse cx="415.000000" cy="109.997216" rx="25.000000" ry="0.002784" fill="rgb(0, 0, 128)" style="fill-opacity:0.00" />
<ellipse cx="415.000000" cy="109.997216" rx="16.666667" ry="0.001856" fill="rgb(255, 255, 255)" style="fill-opacity:1.00" />
<rect height="0.002784" width="25.000000" x="415.000000" y="109.995824" fill="rgb(255, 255, 255)" style="fill-opacity:1.00" />
<!-- End 'C' -->
<!-- Begin 'A' -->
<polygon points=" 390.000000, 219.983295, 411.000000, 120.000000, 419.000000, 120.000000, 440.000000, 219.983295, 432.500000, 219.983295, 426.250000, 194.987471, 403.750000, 194.987471, 397.500000, 219.983295" fill="rgb(178, 34, 34)" style="fill-opacity:0.00" />
<polygon points=" 415.000000, 139.996659, 407.000000, 178.989977, 422.000000, 178.989977" fill="rgb(255, 255, 255)" style="fill-opacity:1.00" />
<!-- End 'A' -->
<!-- Begin 'T' -->
<rect height="0.000891" width="50.000000" x="390.000000" y="219.983295" fill="rgb(0, 100, 0)" style="fill-opacity:0.00" />
<rect height="0.005568" width="10.000000" x="410.000000" y="219.983295" fill="rgb(0, 100, 0)" style="fill-opacity:0.00" />
<!-- End 'T' -->
<!-- Begin 'G' -->
<ellipse cx="415.000000" cy="219.991648" rx="25.000000" ry="0.002784" fill="rgb(255, 165, 0)" style="fill-opacity:0.00" />
<ellipse cx="415.000000" cy="219.991648" rx="16.666667" ry="0.001856" fill="rgb(255, 255, 255)" style="fill-opacity:1.00" />
<rect height="0.002784" width="25.000000" x="415.000000" y="219.990256" fill="rgb(255, 255, 255)" style="fill-opacity:1.00" />
<rect height="0.000696" width="25.000000" x="415.000000" y="219.992344" fill="rgb(255, 165, 0)" style="fill-opacity:0.00" />
<rect height="0.002088" width="6.250000" x="433.750000" y="219.992344" fill="rgb(255, 165, 0)" style="fill-opacity:0.00" />
<!-- End 'G' -->
<!-- Begin 'C' -->
<ellipse cx="415.000000" cy="219.997216" rx="25.000000" ry="0.002784" fill="rgb(0, 0, 128)" style="fill-opacity:0.00" />
<ellipse cx="415.000000" cy="219.997216" rx="16.666667" ry="0.001856" fill="rgb(255, 255, 255)" style="fill-opacity:1.00" />
<rect height="0.002784" width="25.000000" x="415.000000" y="219.995824" fill="rgb(255, 255, 255)" style="fill-opacity:1.00" />
<!-- End 'C' -->
<!-- Begin 'A' -->
<polygon points=" 390.000000, 329.983295, 411.000000, 230.000000, 419.000000, 230.000000, 440.000000, 329.983295, 432.500000, 329.983295, 426.250000, 304.987471, 403.750000, 304.987471, 397.500000, 329.983295" fill="rgb(178, 34, 34)" style="fill-opacity:0.00" />
<polygon points=" 415.000000, 249.996659, 407.000000, 288.989977, 422.000000, 288.989977" fill="rgb(255, 255, 255)" style="fill-opacity:1.00" />
<!-- End 'A' -->
<!-- Begin 'T' -->
<rect height="0.000891" width="50.000000" x="390.000000" y="329.983295" fill="rgb(0, 100, 0)" style="fill-opacity:0.00" />
<rect height="0.005568" width="10.000000" x="410.000000" y="329.983295" fill="rgb(0, 100, 0)" style="fill-opacity:0.00" />
<!-- End 'T' -->
<!-- Begin 'G' -->
<ellipse cx="415.000000" cy="329.991648" rx="25.000000" ry="0.002784" fill="rgb(255, 165, 0)" style="fill-opacity:0.00" />
<ellipse cx="415.000000" cy="329.991648" rx="16.666667" ry="0.001856" fill="rgb(255, 255, 255)" style="fill-opacity:1.00" />
<rect height="0.002784" width="25.000000" x="415.000000" y="329.990256" fill="rgb(255, 255, 255)" style="fill-opacity:1.00" />
<rect height="0.000696" width="25.000000" x="415.000000" y="329.992344" fill="rgb(255, 165, 0)" style="fill-opacity:0.00" />
<rect height="0.002088" width="6.250000" x="433.750000" y="329.992344" fill="rgb(255, 165, 0)" style="fill-opacity:0.00" />
<!-- End 'G' -->
<!-- Begin 'C' -->
<ellipse cx="415.000000" cy="329.997216" rx="25.000000" ry="0.002784" fill="rgb(0, 0, 128)" style="fill-opacity:0.00" />
<ellipse cx="415.000000" cy="329.997216" rx="16.666667" ry="0.001856" fill="rgb(255, 255, 255)" style="fill-opacity:1.00" />
<rect height="0.002784" width="25.000000" x="415.000000" y="329.995824" fill="rgb(255, 255, 255)" style="fill-opacity:1.00" />
<!-- End 'C' -->
<!-- Begin 'A' -->
<polygon points=" 390.000000, 439.983295, 411.000000, 340.000000, 419.000000, 340.000000, 440.000000, 439.983295, 432.500000, 439.983295, 426.250000, 414.987471, 403.750000, 414.987471, 397.500000, 439.983295" fill="rgb(178, 34, 34)" style="fill-opacity:1.00" />
<polygon points=" 415.000000, 359.996659, 407.000000, 398.989977, 422.000000, 398.989977" fill="rgb(255, 255, 255)" style="fill-opacity:1.00" />
<!-- End 'A' -->
<!-- Begin 'T' -->
<rect height="0.000891" width="50.000000" x="390.000000" y="439.983295" fill="rgb(0, 100, 0)" style="fill-opacity:1.00" />
<rect height="0.005568" width="10.000000" x="410.000000" y="439.983295" fill="rgb(0, 100, 0)" style="fill-opacity:1.00" />
<!-- End 'T' -->
<!-- Begin 'G' -->
<ellipse cx="415.000000" cy="439.991648" rx="25.000000" ry="0.002784" fill="rgb(255, 165, 0)" style="fill-opacity:1.00" />
<ellipse cx="415.000000" cy="439.991648" rx="16.666667" ry="0.001856" fill="rgb(255, 255, 255)" style="fill-opacity:1.00" />
<rect height="0.002784" width="25.000000" x="415.000000" y="439.990256" fill="rgb(255, 255, 255)" style="fill-opacity:1.00" />
<rect height="0.000696" width="25.000000" x="415.000000" y="439.992344" fill="rgb(255, 165, 0)" style="fill-opacity:1.00" />
<rect height="0.002088" width="6.250000" x="433.750000" y="439.992344" fill="rgb(255, 165, 0)" style="fill-opacity:1.00" />
<!-- End 'G' -->
<!-- Begin 'C' -->
<ellipse cx="415.000000" cy="439.997216" rx="25.000000" ry="0.002784" fill="rgb(0, 0, 128)" style="fill-opacity:1.00" />
<ellipse cx="415.000000" cy="439.997216" rx="16.666667" ry="0.001856" fill="rgb(255, 255, 255)" style="fill-opacity:1.00" />
<rect height="0.002784" width="25.000000" x="415.000000" y="439.995824" fill="rgb(255, 255, 255)" style="fill-opacity:1.00" />
<!-- End 'C' -->
<!-- Begin 'T' -->
<rect height="15.997327" width="50.000000" x="450.000000" y="10.000000" fill="rgb(0, 100, 0)" style="fill-opacity:1.00" />
<rect height="99.983295" width="10.000000" x="470.000000" y="10.000000" fill="rgb(0, 100, 0)" style="fill-opacity:1.00" />
<!-- End 'T' -->
<!-- Begin 'G' -->
<ellipse cx="475.000000" cy="109.986079" rx="25.000000" ry="0.002784" fill="rgb(255, 165, 0)" style="fill-opacity:1.00" />
<ellipse cx="475.000000" cy="109.986079" rx="16.666667" ry="0.001856" fill="rgb(255, 255, 255)" style="fill-opacity:1.00" />
<rect height="0.002784" width="25.000000" x="475.000000" y="109.984687" fill="rgb(255, 255, 255)" style="fill-opacity:1.00" />
<rect height="0.000696" width="25.000000" x="475.000000" y="109.986775" fill="rgb(255, 165, 0)" style="fill-opacity:1.00" />
<rect height="0.002088" width="6.250000" x="493.750000" y="109.986775" fill="rgb(255, 165, 0)" style="fill-opacity:1.00" />
<!-- End 'G' -->
<!-- Begin 'C' -->
<ellipse cx="475.000000" cy="109.991648" rx="25.000000" ry="0.002784" fill="rgb(0, 0, 128)" style="fill-opacity:1.00" />
<ellipse cx="475.000000" cy="109.991648" rx="16.666667" ry="0.001856" fill="rgb(255, 255, 255)" style="fill-opacity:1.00" />
<rect height="0.002784" width="25.000000" x="475.000000" y="109.990256" fill="rgb(255, 255, 255)" style="fill-opacity:1.00" />
<!-- End 'C' -->
<!-- Begin 'A' -->
<polygon points=" 450.000000, 110.000000, 471.000000, 109.994432, 479.000000, 109.994432, 500.000000, 110.000000, 492.500000, 110.000000, 486.250000, 109.998608, 463.750000, 109.998608, 457.500000, 110.000000" fill="rgb(178, 34, 34)" style="fill-opacity:1.00" />
<!-- End 'A' -->
<!-- Begin 'T' -->
<rect height="15.997327" width="50.000000" x="450.000000" y="120.000000" fill="rgb(0, 100, 0)" style="fill-opacity:0.00" />
<rect height="99.983295" width="10.000000" x="470.000000" y="120.000000" fill="rgb(0, 100, 0)" style="fill-opacity:0.00" />
<!-- End 'T' -->
<!-- Begin 'G' -->
<ellipse cx="475.000000" cy="219.986079" rx="25.000000" ry="0.002784" fill="rgb(255, 165, 0)" style="fill-opacity:0.00" />
<ellipse cx="475.000000" cy="219.986079" rx="16.666667" ry="0.001856" fill="rgb(255, 255, 255)" style="fill-opacity:1.00" />
<rect height="0.002784" width="25.000000" x="475.000000" y="219.984687" fill="rgb(255, 255, 255)" style="fill-opacity:1.00" />
<rect height="0.000696" width="25.000000" x="475.000000" y="219.986775" fill="rgb(255, 165, 0)" style="fill-opacity:0.00" />
<rect height="0.002088" width="6.250000" x="493.750000" y="219.986775" fill="rgb(255, 165, 0)" style="fill-opacity:0.00" />
<!-- End 'G' -->
<!-- Begin 'C' -->
<ellipse cx="475.000000" cy="219.991648" rx="25.000000" ry="0.002784" fill="rgb(0, 0, 128)" style="fill-opacity:0.00" />
<ellipse cx="475.000000" cy="219.991648" rx="16.666667" ry="0.001856" fill="rgb(255, 255, 255)" style="fill-opacity:1.00" />
<rect height="0.002784" width="25.000000" x="475.000000" y="219.990256" fill="rgb(255, 255, 255)" style="fill-opacity:1.00" />
<!-- End 'C' -->
<!-- Begin 'A' -->
<polygon points=" 450.000000, 220.000000, 471.000000, 219.994432, 479.000000, 219.994432, 500.000000, 220.000000, 492.500000, 220.000000, 486.250000, 219.998608, 463.750000, 219.998608, 457.500000, 220.000000" fill="rgb(178, 34, 34)" style="fill-opacity:0.00" />
<!-- End 'A' -->
<!-- Begin 'T' -->
<rect height="15.997327" width="50.000000" x="450.000000" y="230.000000" fill="rgb(0, 100, 0)" style="fill-opacity:0.00" />
<rect height="99.983295" width="10.000000" x="470.000000" y="230.000000" fill="rgb(0, 100, 0)" style="fill-opacity:0.00" />
<!-- End 'T' -->
<!-- Begin 'G' -->
<ellipse cx="475.000000" cy="329.986079" rx="25.000000" ry="0.002784" fill="rgb(255, 165, 0)" style="fill-opacity:0.00" />
<ellipse cx="475.000000" cy="329.986079" rx="16.666667" ry="0.001856" fill="rgb(255, 255, 255)" style="fill-opacity:1.00" />
<rect height="0.002784" width="25.000000" x="475.000000" y="329.984687" fill="rgb(255, 255, 255)" style="fill-opacity:1.00" />
<rect height="0.000696" width="25.000000" x="475.000000" y="329.986775" fill="rgb(255, 165, 0)" style="fill-opacity:0.00" />
<rect height="0.002088" width="6.250000" x="493.750000" y="329.986775" fill="rgb(255, 165, 0)" style="fill-opacity:0.00" />
<!-- End 'G' -->
<!-- Begin 'C' -->
<ellipse cx="475.000000" cy="329.991648" rx="25.000000" ry="0.002784" fill="rgb(0, 0, 128)" style="fill-opacity:0.00" />
<ellipse cx="475.000000" cy="329.991648" rx="16.666667" ry="0.001856" fill="rgb(255, 255, 255)" style="fill-opacity:1.00" />
<rect height="0.002784" width="25.000000" x="475.000000" y="329.990256" fill="rgb(255, 255, 255)" style="fill-opacity:1.00" />
<!-- End 'C' -->
<!-- Begin 'A' -->
<polygon points=" 450.000000, 330.000000, 471.000000, 329.994432, 479.000000, 329.994432, 500.000000, 330.000000, 492.500000, 330.000000, 486.250000, 329.998608, 463.750000, 329.998608, 457.500000, 330.000000" fill="rgb(178, 34, 34)" style="fill-opacity:0.00" />
<!-- End 'A' -->
<!-- Begin 'T' -->
<rect height="15.997327" width="50.000000" x="450.000000" y="340.000000" fill="rgb(0, 100, 0)" style="fill-opacity:0.00" />
<rect height="99.983295" width="10.000000" x="470.000000" y="340.000000" fill="rgb(0, 100, 0)" style="fill-opacity:0.00" />
<!-- End 'T' -->
<!-- Begin 'G' -->
<ellipse cx="475.000000" cy="439.986079" rx="25.000000" ry="0.002784" fill="rgb(255, 165, 0)" style="fill-opacity:0.00" />
<ellipse cx="475.000000" cy="439.986079" rx="16.666667" ry="0.001856" fill="rgb(255, 255, 255)" style="fill-opacity:1.00" />
<rect height="0.002784" width="25.000000" x="475.000000" y="439.984687" fill="rgb(255, 255, 255)" style="fill-opacity:1.00" />
<rect height="0.000696" width="25.000000" x="475.000000" y="439.986775" fill="rgb(255, 165, 0)" style="fill-opacity:0.00" />
<rect height="0.002088" width="6.250000" x="493.750000" y="439.986775" fill="rgb(255, 165, 0)" style="fill-opacity:0.00" />
<!-- End 'G' -->
<!-- Begin 'C' -->
<ellipse cx="475.000000" cy="439.991648" rx="25.000000" ry="0.002784" fill="rgb(0, 0, 128)" style="fill-opacity:0.00" />
<ellipse cx="475.000000" cy="439.991648" rx="16.666667" ry="0.001856" fill="rgb(255, 255, 255)" style="fill-opacity:1.00" />
<rect height="0.002784" width="25.000000" x="475.000000" y="439.990256" fill="rgb(255, 255, 255)" style="fill-opacity:1.00" />
<!-- End 'C' -->
<!-- Begin 'A' -->
<polygon points=" 450.000000, 440.000000, 471.000000, 439.994432, 479.000000, 439.994432, 500.000000, 440.000000, 492.500000, 440.000000, 486.250000, 439.998608, 463.750000, 439.998608, 457.500000, 440.000000" fill="rgb(178, 34, 34)" style="fill-opacity:0.00" />
<!-- End 'A' -->
<!-- Begin 'C' -->
<ellipse cx="535.000000" cy="59.991648" rx="25.000000" ry="49.991648" fill="rgb(0, 0, 128)" style="fill-opacity:0.00" />
<ellipse cx="535.000000" cy="59.991648" rx="16.666667" ry="33.327765" fill="rgb(255, 255, 255)" style="fill-opacity:1.00" />
<rect height="49.991648" width="25.000000" x="535.000000" y="34.995824" fill="rgb(255, 255, 255)" style="fill-opacity:1.00" />
<!-- End 'C' -->
<!-- Begin 'T' -->
<rect height="0.000891" width="50.000000" x="510.000000" y="109.983295" fill="rgb(0, 100, 0)" style="fill-opacity:0.00" />
<rect height="0.005568" width="10.000000" x="530.000000" y="109.983295" fill="rgb(0, 100, 0)" style="fill-opacity:0.00" />
<!-- End 'T' -->
<!-- Begin 'G' -->
<ellipse cx="535.000000" cy="109.991648" rx="25.000000" ry="0.002784" fill="rgb(255, 165, 0)" style="fill-opacity:0.00" />
<ellipse cx="535.000000" cy="109.991648" rx="16.666667" ry="0.001856" fill="rgb(255, 255, 255)" style="fill-opacity:1.00" />
<rect height="0.002784" width="25.000000" x="535.000000" y="109.990256" fill="rgb(255, 255, 255)" style="fill-opacity:1.00" />
<rect height="0.000696" width="25.000000" x="535.000000" y="109.992344" fill="rgb(255, 165, 0)" style="fill-opacity:0.00" />
<rect height="0.002088" width="6.250000" x="553.750000" y="109.992344" fill="rgb(255, 165, 0)" style="fill-opacity:0.00" />
<!-- End 'G' -->
<!-- Begin 'A' -->
<polygon points=" 510.000000, 110.000000, 531.000000, 109.994432, 539.000000, 109.994432, 560.000000, 110.000000, 552.500000, 110.000000, 546.250000, 109.998608, 523.750000, 109.998608, 517.500000, 110.000000" fill="rgb(178, 34, 34)" style="fill-opacity:0.00" />
<!-- End 'A' -->
<!-- Begin 'C' -->
<ellipse cx="535.000000" cy="169.991648" rx="25.000000" ry="49.991648" fill="rgb(0, 0, 128)" style="fill-opacity:0.00" />
<ellipse cx="535.000000" cy="169.991648" rx="16.666667" ry="33.327765" fill="rgb(255, 255, 255)" style="fill-opacity:1.00" />
<rect height="49.991648" width="25.000000" x="535.000000" y="144.995824" fill="rgb(255, 255, 255)" style="fill-opacity:1.00" />
<!-- End 'C' -->
<!-- Begin 'T' -->
<rect height="0.000891" width="50.000000" x="510.000000" y="219.983295" fill="rgb(0, 100, 0)" style="fill-opacity:0.00" />
<rect height="0.005568" width="10.000000" x="530.000000" y="219.983295" fill="rgb(0, 100, 0)" style="fill-opacity:0.00" />
<!-- End 'T' -->
<!-- Begin 'G' -->
<ellipse cx="535.000000" cy="219.991648" rx="25.000000" ry="0.002784" fill="rgb(255, 165, 0)" style="fill-opacity:0.00" />
<ellipse cx="535.000000" cy="219.991648" rx="16.666667" ry="0.001856" fill="rgb(255, 255, 255)" style="fill-opacity:1.00" />
<rect height="0.002784" width="25.000000" x="535.000000" y="219.990256" fill="rgb(255, 255, 255)" style="fill-opacity:1.00" />
<rect height="0.000696" width="25.000000" x="535.000000" y="219.992344" fill="rgb(255, 165, 0)" style="fill-opacity:0.00" />
<rect height="0.002088" width="6.250000" x="553.750000" y="219.992344" fill="rgb(255, 165, 0)" style="fill-opacity:0.00" />
<!-- End 'G' -->
<!-- Begin 'A' -->
<polygon points=" 510.000000, 220.000000, 531.000000, 219.994432, 539.000000, 219.994432, 560.000000, 220.000000, 552.500000, 220.000000, 546.250000, 219.998608, 523.750000, 219.998608, 517.500000, 220.000000" fill="rgb(178, 34, 34)" style="fill-opacity:0.00" />
<!-- End 'A' -->
<!-- Begin 'C' -->
<ellipse cx="535.000000" cy="279.991648" rx="25.000000" ry="49.991648" fill="rgb(0, 0, 128)" style="fill-opacity:0.00" />
<ellipse cx="535.000000" cy="279.991648" rx="16.666667" ry="33.327765" fill="rgb(255, 255, 255)" style="fill-opacity:1.00" />
<rect height="49.991648" width="25.000000" x="535.000000" y="254.995824" fill="rgb(255, 255, 255)" style="fill-opacity:1.00" />
<!-- End 'C' -->
<!-- Begin 'T' -->
<rect height="0.000891" width="50.000000" x="510.000000" y="329.983295" fill="rgb(0, 100, 0)" style="fill-opacity:0.00" />
<rect height="0.005568" width="10.000000" x="530.000000" y="329.983295" fill="rgb(0, 100, 0)" style="fill-opacity:0.00" />
<!-- End 'T' -->
<!-- Begin 'G' -->
<ellipse cx="535.000000" cy="329.991648" rx="25.000000" ry="0.002784" fill="rgb(255, 165, 0)" style="fill-opacity:0.00" />
<ellipse cx="535.000000" cy="329.991648" rx="16.666667" ry="0.001856" fill="rgb(255, 255, 255)" style="fill-opacity:1.00" />
<rect height="0.002784" width="25.000000" x="535.000000" y="329.990256" fill="rgb(255, 255, 255)" style="fill-opacity:1.00" />
<rect height="0.000696" width="25.000000" x="535.000000" y="329.992344" fill="rgb(255, 165, 0)" style="fill-opacity:0.00" />
<rect height="0.002088" width="6.250000" x="553.750000" y="329.992344" fill="rgb(255, 165, 0)" style="fill-opacity:0.00" />
<!-- End 'G' -->
<!-- Begin 'A' -->
<polygon points=" 510.000000, 330.000000, 531.000000, 329.994432, 539.000000, 329.994432, 560.000000, 330.000000, 552.500000, 330.000000, 546.250000, 329.998608, 523.750000, 329.998608, 517.500000, 330.000000" fill="rgb(178, 34, 34)" style="fill-opacity:0.00" />
<!-- End 'A' -->
<!-- Begin 'C' -->
<ellipse cx="535.000000" cy="389.991648" rx="25.000000" ry="49.991648" fill="rgb(0, 0, 128)" style="fill-opacity:1.00" />
<ellipse cx="535.000000" cy="389.991648" rx="16.666667" ry="33.327765" fill="rgb(255, 255, 255)" style="fill-opacity:1.00" />
<rect height="49.991648" width="25.000000" x="535.000000" y="364.995824" fill="rgb(255, 255, 255)" style="fill-opacity:1.00" />
<!-- End 'C' -->
<!-- Begin 'T' -->
<rect height="0.000891" width="50.000000" x="510.000000" y="439.983295" fill="rgb(0, 100, 0)" style="fill-opacity:1.00" />
<rect height="0.005568" width="10.000000" x="530.000000" y="439.983295" fill="rgb(0, 100, 0)" style="fill-opacity:1.00" />
<!-- End 'T' -->
<!-- Begin 'G' -->
<ellipse cx="535.000000" cy="439.991648" rx="25.000000" ry="0.002784" fill="rgb(255, 165, 0)" style="fill-opacity:1.00" />
<ellipse cx="535.000000" cy="439.991648" rx="16.666667" ry="0.001856" fill="rgb(255, 255, 255)" style="fill-opacity:1.00" />
<rect height="0.002784" width="25.000000" x="535.000000" y="439.990256" fill="rgb(255, 255, 255)" style="fill-opacity:1.00" />
<rect height="0.000696" width="25.000000" x="535.000000" y="439.992344" fill="rgb(255, 165, 0)" style="fill-opacity:1.00" />
<rect height="0.002088" width="6.250000" x="553.750000" y="439.992344" fill="rgb(255, 165, 0)" style="fill-opacity:1.00" />
<!-- End 'G' -->
<!-- Begin 'A' -->
<polygon points=" 510.000000, 440.000000, 531.000000, 439.994432, 539.000000, 439.994432, 560.000000, 440.000000, 552.500000, 440.000000, 546.250000, 439.998608, 523.750000, 439.998608, 517.500000, 440.000000" fill="rgb(178, 34, 34)" style="fill-opacity:1.00" />
<!-- End 'A' -->
<!-- Begin 'T' -->
<rect height="14.067598" width="50.000000" x="570.000000" y="10.000000" fill="rgb(0, 100, 0)" style="fill-opacity:0.00" />
<rect height="87.922490" width="10.000000" x="590.000000" y="10.000000" fill="rgb(0, 100, 0)" style="fill-opacity:0.00" />
<!-- End 'T' -->
<!-- Begin 'A' -->
<polygon points=" 570.000000, 109.988864, 591.000000, 97.922490, 599.000000, 97.922490, 620.000000, 109.988864, 612.500000, 109.988864, 606.250000, 106.972270, 583.750000, 106.972270, 577.500000, 109.988864" fill="rgb(178, 34, 34)" style="fill-opacity:0.00" />
<polygon points=" 595.000000, 100.335765, 587.000000, 104.162314, 602.000000, 104.162314" fill="rgb(255, 255, 255)" style="fill-opacity:1.00" />
<!-- End 'A' -->
<!-- Begin 'G' -->
<ellipse cx="595.000000" cy="109.991648" rx="25.000000" ry="0.002784" fill="rgb(255, 165, 0)" style="fill-opacity:0.00" />
<ellipse cx="595.000000" cy="109.991648" rx="16.666667" ry="0.001856" fill="rgb(255, 255, 255)" style="fill-opacity:1.00" />
<rect height="0.002784" width="25.000000" x="595.000000" y="109.990256" fill="rgb(255, 255, 255)" style="fill-opacity:1.00" />
<rect height="0.000696" width="25.000000" x="595.000000" y="109.992344" fill="rgb(255, 165, 0)" style="fill-opacity:0.00" />
<rect height="0.002088" width="6.250000" x="613.750000" y="109.992344" fill="rgb(255, 165, 0)" style="fill-opacity:0.00" />
<!-- End 'G' -->
<!-- Begin 'C' -->
<ellipse cx="595.000000" cy="109.997216" rx="25.000000" ry="0.002784" fill="rgb(0, 0, 128)" style="fill-opacity:0.00" />
<ellipse cx="595.000000" cy="109.997216" rx="16.666667" ry="0.001856" fill="rgb(255, 255, 255)" style="fill-opacity:1.00" />
<rect height="0.002784" width="25.000000" x="595.000000" y="109.995824" fill="rgb(255, 255, 255)" style="fill-opacity:1.00" />
<!-- End 'C' -->
<!-- Begin 'T' -->
<rect height="14.067598" width="50.000000" x="570.000000" y="120.000000" fill="rgb(0, 100, 0)" style="fill-opacity:1.00" />
<rect height="87.922490" width="10.000000" x="590.000000" y="120.000000" fill="rgb(0, 100, 0)" style="fill-opacity:1.00" />
<!-- End 'T' -->
<!-- Begin 'A' -->
<polygon points=" 570.000000, 219.988864, 591.000000, 207.922490, 599.000000, 207.922490, 620.000000, 219.988864, 612.500000, 219.988864, 606.250000, 216.972270, 583.750000, 216.972270, 577.500000, 219.988864" fill="rgb(178, 34, 34)" style="fill-opacity:1.00" />
<polygon points=" 595.000000, 210.335765, 587.000000, 214.162314, 602.000000, 214.162314" fill="rgb(255, 255, 255)" style="fill-opacity:1.00" />
<!-- End 'A' -->
<!-- Begin 'G' -->
<ellipse cx="595.000000" cy="219.991648" rx="25.000000" ry="0.002784" fill="rgb(255, 165, 0)" style="fill-opacity:1.00" />
<ellipse cx="595.000000" cy="219.991648" rx="16.666667" ry="0.001856" fill="rgb(255, 255, 255)" style="fill-opacity:1.00" />
<rect height="0.002784" width="25.000000" x="595.000000" y="219.990256" fill="rgb(255, 255, 255)" style="fill-opacity:1.00" />
<rect height="0.000696" width="25.000000" x="595.000000" y="219.992344" fill="rgb(255, 165, 0)" style="fill-opacity:1.00" />
<rect height="0.002088" width="6.250000" x="613.750000" y="219.992344" fill="rgb(255, 165, 0)" style="fill-opacity:1.00" />
<!-- End 'G' -->
<!-- Begin 'C' -->
<ellipse cx="595.000000" cy="219.997216" rx="25.000000" ry="0.002784" fill="rgb(0, 0, 128)" style="fill-opacity:1.00" />
<ellipse cx="595.000000" cy="219.997216" rx="16.666667" ry="0.001856" fill="rgb(255, 255, 255)" style="fill-opacity:1.00" />
<rect height="0.002784" width="25.000000" x="595.000000" y="219.995824" fill="rgb(255, 255, 255)" style="fill-opacity:1.00" />
<!-- End 'C' -->
<!-- Begin 'T' -->
<rect height="14.067598" width="50.000000" x="570.000000" y="230.000000" fill="rgb(0, 100, 0)" style="fill-opacity:0.00" />
<rect height="87.922490" width="10.000000" x="590.000000" y="230.000000" fill="rgb(0, 100, 0)" style="fill-opacity:0.00" />
<!-- End 'T' -->
<!-- Begin 'A' -->
<polygon points=" 570.000000, 329.988864, 591.000000, 317.922490, 599.000000, 317.922490, 620.000000, 329.988864, 612.500000, 329.988864, 606.250000, 326.972270, 583.750000, 326.972270, 577.500000, 329.988864" fill="rgb(178, 34, 34)" style="fill-opacity:0.00" />
<polygon points=" 595.000000, 320.335765, 587.000000, 324.162314, 602.000000, 324.162314" fill="rgb(255, 255, 255)" style="fill-opacity:1.00" />
<!-- End 'A' -->
<!-- Begin 'G' -->
<ellipse cx="595.000000" cy="329.991648" rx="25.000000" ry="0.002784" fill="rgb(255, 165, 0)" style="fill-opacity:0.00" />
<ellipse cx="595.000000" cy="329.991648" rx="16.666667" ry="0.001856" fill="rgb(255, 255, 255)" style="fill-opacity:1.00" />
<rect height="0.002784" width="25.000000" x="595.000000" y="329.990256" fill="rgb(255, 255, 255)" style="fill-opacity:1.00" />
<rect height="0.000696" width="25.000000" x="595.000000" y="329.992344" fill="rgb(255, 165, 0)" style="fill-opacity:0.00" />
<rect height="0.002088" width="6.250000" x="613.750000" y="329.992344" fill="rgb(255, 165, 0)" style="fill-opacity:0.00" />
<!-- End 'G' -->
<!-- Begin 'C' -->
<ellipse cx="595.000000" cy="329.997216" rx="25.000000" ry="0.002784" fill="rgb(0, 0, 128)" style="fill-opacity:0.00" />
<ellipse cx="595.000000" cy="329.997216" rx="16.666667" ry="0.001856" fill="rgb(255, 255, 255)" style="fill-opacity:1.00" />
<rect height="0.002784" width="25.000000" x="595.000000" y="329.995824" fill="rgb(255, 255, 255)" style="fill-opacity:1.00" />
<!-- End 'C' -->
<!-- Begin 'T' -->
<rect height="14.067598" width="50.000000" x="570.000000" y="340.000000" fill="rgb(0, 100, 0)" style="fill-opacity:0.00" />
<rect height="87.922490" width="10.000000" x="590.000000" y="340.000000" fill="rgb(0, 100, 0)" style="fill-opacity:0.00" />
<!-- End 'T' -->
<!-- Begin 'A' -->
<polygon points=" 570.000000, 439.988864, 591.000000, 427.922490, 599.000000, 427.922490, 620.000000, 439.988864, 612.500000, 439.988864, 606.250000, 436.972270, 583.750000, 436.972270, 577.500000, 439.988864" fill="rgb(178, 34, 34)" style="fill-opacity:0.00" />
<polygon points=" 595.000000, 430.335765, 587.000000, 434.162314, 602.000000, 434.162314" fill="rgb(255, 255, 255)" style="fill-opacity:1.00" />
<!-- End 'A' -->
<!-- Begin 'G' -->
<ellipse cx="595.000000" cy="439.991648" rx="25.000000" ry="0.002784" fill="rgb(255, 165, 0)" style="fill-opacity:0.00" />
<ellipse cx="595.000000" cy="439.991648" rx="16.666667" ry="0.001856" fill="rgb(255, 255, 255)" style="fill-opacity:1.00" />
<rect height="0.002784" width="25.000000" x="595.000000" y="439.990256" fill="rgb(255, 255, 255)" style="fill-opacity:1.00" />
<rect height="0.000696" width="25.000000" x="595.000000" y="439.992344" fill="rgb(255, 165, 0)" style="fill-opacity:0.00" />
<rect height="0.002088" width="6.250000" x="613.750000" y="439.992344" fill="rgb(255, 165, 0)" style="fill-opacity:0.00" />
<!-- End 'G' -->
<!-- Begin 'C' -->
<ellipse cx="595.000000" cy="439.997216" rx="25.000000" ry="0.002784" fill="rgb(0, 0, 128)" style="fill-opacity:0.00" />
<ellipse cx="595.000000" cy="439.997216" rx="16.666667" ry="0.001856" fill="rgb(255, 255, 255)" style="fill-opacity:1.00" />
<rect height="0.002784" width="25.000000" x="595.000000" y="439.995824" fill="rgb(255, 255, 255)" style="fill-opacity:1.00" />
<!-- End 'C' -->
<!-- Begin 'G' -->
<ellipse cx="655.000000" cy="28.620190" rx="25.000000" ry="18.620190" fill="rgb(255, 165, 0)" style="fill-opacity:0.12" />
<ellipse cx="655.000000" cy="28.620190" rx="16.666667" ry="12.413460" fill="rgb(255, 255, 255)" style="fill-opacity:1.00" />
<rect height="18.620190" width="25.000000" x="655.000000" y="19.310095" fill="rgb(255, 255, 255)" style="fill-opacity:1.00" />
<rect height="4.655048" width="25.000000" x="655.000000" y="33.275238" fill="rgb(255, 165, 0)" style="fill-opacity:0.12" />
<rect height="13.965143" width="6.250000" x="673.750000" y="33.275238" fill="rgb(255, 165, 0)" style="fill-opacity:0.12" />
<!-- End 'G' -->
<!-- Begin 'C' -->
<ellipse cx="655.000000" cy="64.410045" rx="25.000000" ry="17.169664" fill="rgb(0, 0, 128)" style="fill-opacity:0.12" />
<ellipse cx="655.000000" cy="64.410045" rx="16.666667" ry="11.446443" fill="rgb(255, 255, 255)" style="fill-opacity:1.00" />
<rect height="17.169664" width="25.000000" x="655.000000" y="55.825213" fill="rgb(255, 255, 255)" style="fill-opacity:1.00" />
<!-- End 'C' -->
<!-- Begin 'T' -->
<rect height="2.317278" width="50.000000" x="630.000000" y="81.579709" fill="rgb(0, 100, 0)" style="fill-opacity:0.12" />
<rect height="14.482989" width="10.000000" x="650.000000" y="81.579709" fill="rgb(0, 100, 0)" style="fill-opacity:0.12" />
<!-- End 'T' -->
<!-- Begin 'A' -->
<polygon points=" 630.000000, 110.000000, 651.000000, 96.062698, 659.000000, 96.062698, 680.000000, 110.000000, 672.500000, 110.000000, 666.250000, 106.515675, 643.750000, 106.515675, 637.500000, 110.000000" fill="rgb(178, 34, 34)" style="fill-opacity:0.12" />
<polygon points=" 655.000000, 98.850159, 647.000000, 103.425079, 662.000000, 103.425079" fill="rgb(255, 255, 255)" style="fill-opacity:1.00" />
<!-- End 'A' -->
<!-- Begin 'G' -->
<ellipse cx="655.000000" cy="138.620190" rx="25.000000" ry="18.620190" fill="rgb(255, 165, 0)" style="fill-opacity:0.00" />
<ellipse cx="655.000000" cy="138.620190" rx="16.666667" ry="12.413460" fill="rgb(255, 255, 255)" style="fill-opacity:1.00" />
<rect height="18.620190" width="25.000000" x="655.000000" y="129.310095" fill="rgb(255, 255, 255)" style="fill-opacity:1.00" />
<rect height="4.655048" width="25.000000" x="655.000000" y="143.275238" fill="rgb(255, 165, 0)" style="fill-opacity:0.00" />
<rect height="13.965143" width="6.250000" x="673.750000" y="143.275238" fill="rgb(255, 165, 0)" style="fill-opacity:0.00" />
<!-- End 'G' -->
<!-- Begin 'C' -->
<ellipse cx="655.000000" cy="174.410045" rx="25.000000" ry="17.169664" fill="rgb(0, 0, 128)" style="fill-opacity:0.00" />
<ellipse cx="655.000000" cy="174.410045" rx="16.666667" ry="11.446443" fill="rgb(255, 255, 255)" style="fill-opacity:1.00" />
<rect height="17.169664" width="25.000000" x="655.000000" y="165.825213" fill="rgb(255, 255, 255)" style="fill-opacity:1.00" />
<!-- End 'C' -->
<!-- Begin 'T' -->
<rect height="2.317278" width="50.000000" x="630.000000" y="191.579709" fill="rgb(0, 100, 0)" style="fill-opacity:0.00" />
<rect height="14.482989" width="10.000000" x="650.000000" y="191.579709" fill="rgb(0, 100, 0)" style="fill-opacity:0.00" />
<!-- End 'T' -->
<!-- Begin 'A' -->
<polygon points=" 630.000000, 220.000000, 651.000000, 206.062698, 659.000000, 206.062698, 680.000000, 220.000000, 672.500000, 220.000000, 666.250000, 216.515675, 643.750000, 216.515675, 637.500000, 220.000000" fill="rgb(178, 34, 34)" style="fill-opacity:0.00" />
<polygon points=" 655.000000, 208.850159, 647.000000, 213.425079, 662.000000, 213.425079" fill="rgb(255, 255, 255)" style="fill-opacity:1.00" />
<!-- End 'A' -->
<!-- Begin 'G' -->
<ellipse cx="655.000000" cy="248.620190" rx="25.000000" ry="18.620190" fill="rgb(255, 165, 0)" style="fill-opacity:0.00" />
<ellipse cx="655.000000" cy="248.620190" rx="16.666667" ry="12.413460" fill="rgb(255, 255, 255)" style="fill-opacity:1.00" />
<rect height="18.620190" width="25.000000" x="655.000000" y="239.310095" fill="rgb(255, 255, 255)" style="fill-opacity:1.00" />
<rect height="4.655048" width="25.000000" x="655.000000" y="253.275238" fill="rgb(255, 165, 0)" style="fill-opacity:0.00" />
<rect height="13.965143" width="6.250000" x="673.750000" y="253.275238" fill="rgb(255, 165, 0)" style="fill-opacity:0.00" />
<!-- End 'G' -->
<!-- Begin 'C' -->
<ellipse cx="655.000000" cy="284.410045" rx="25.000000" ry="17.169664" fill="rgb(0, 0, 128)" style="fill-opacity:0.00" />
<ellipse cx="655.000000" cy="284.410045" rx="16.666667" ry="11.446443" fill="rgb(255, 255, 255)" style="fill-opacity:1.00" />
<rect height="17.169664" width="25.000000" x="655.000000" y="275.825213" fill="rgb(255, 255, 255)" style="fill-opacity:1.00" />
<!-- End 'C' -->
<!-- Begin 'T' -->
<rect height="2.317278" width="50.000000" x="630.000000" y="301.579709" fill="rgb(0, 100, 0)" style="fill-opacity:0.00" />
<rect height="14.482989" width="10.000000" x="650.000000" y="301.579709" fill="rgb(0, 100, 0)" style="fill-opacity:0.00" />
<!-- End 'T' -->
<!-- Begin 'A' -->
<polygon points=" 630.000000, 330.000000, 651.000000, 316.062698, 659.000000, 316.062698, 680.000000, 330.000000, 672.500000, 330.000000, 666.250000, 326.515675, 643.750000, 326.515675, 637.500000, 330.000000" fill="rgb(178, 34, 34)" style="fill-opacity:0.00" />
<polygon points=" 655.000000, 318.850159, 647.000000, 323.425079, 662.000000, 323.425079" fill="rgb(255, 255, 255)" style="fill-opacity:1.00" />
<!-- End 'A' -->
<!-- Begin 'G' -->
<ellipse cx="655.000000" cy="358.620190" rx="25.000000" ry="18.620190" fill="rgb(255, 165, 0)" style="fill-opacity:0.88" />
<ellipse cx="655.000000" cy="358.620190" rx="16.666667" ry="12.413460" fill="rgb(255, 255, 255)" style="fill-opacity:1.00" />
<rect height="18.620190" width="25.000000" x="655.000000" y="349.310095" fill="rgb(255, 255, 255)" style="fill-opacity:1.00" />
<rect height="4.655048" width="25.000000" x="655.000000" y="363.275238" fill="rgb(255, 165, 0)" style="fill-opacity:0.88" />
<rect height="13.965143" width="6.250000" x="673.750000" y="363.275238" fill="rgb(255, 165, 0)" style="fill-opacity:0.88" />
<!-- End 'G' -->
<!-- Begin 'C' -->
<ellipse cx="655.000000" cy="394.410045" rx="25.000000" ry="17.169664" fill="rgb(0, 0, 128)" style="fill-opacity:0.88" />
<ellipse cx="655.000000" cy="394.410045" rx="16.666667" ry="11.446443" fill="rgb(255, 255, 255)" style="fill-opacity:1.00" />
<rect height="17.169664" width="25.000000" x="655.000000" y="385.825213" fill="rgb(255, 255, 255)" style="fill-opacity:1.00" />
<!-- End 'C' -->
<!-- Begin 'T' -->
<rect height="2.317278" width="50.000000" x="630.000000" y="411.579709" fill="rgb(0, 100, 0)" style="fill-opacity:0.88" />
<rect height="14.482989" width="10.000000" x="650.000000" y="411.579709" fill="rgb(0, 100, 0)" style="fill-opacity:0.88" />
<!-- End 'T' -->
<!-- Begin 'A' -->
<polygon points=" 630.000000, 440.000000, 651.000000, 426.062698, 659.000000, 426.062698, 680.000000, 440.000000, 672.500000, 440.000000, 666.250000, 436.515675, 643.750000, 436.515675, 637.500000, 440.000000" fill="rgb(178, 34, 34)" style="fill-opacity:0.88" />
<polygon points=" 655.000000, 428.850159, 647.000000, 433.425079, 662.000000, 433.425079" fill="rgb(255, 255, 255)" style="fill-opacity:1.00" />
<!-- End 'A' -->
<!-- Begin 'T' -->
<rect height="8.374631" width="50.000000" x="690.000000" y="10.000000" fill="rgb(0, 100, 0)" style="fill-opacity:0.14" />
<rect height="52.341444" width="10.000000" x="710.000000" y="10.000000" fill="rgb(0, 100, 0)" style="fill-opacity:0.14" />
<!-- End 'T' -->
<!-- Begin 'C' -->
<ellipse cx="715.000000" cy="76.465282" rx="25.000000" ry="14.123838" fill="rgb(0, 0, 128)" style="fill-opacity:0.14" />
<ellipse cx="715.000000" cy="76.465282" rx="16.666667" ry="9.415892" fill="rgb(255, 255, 255)" style="fill-opacity:1.00" />
<rect height="14.123838" width="25.000000" x="715.000000" y="69.403363" fill="rgb(255, 255, 255)" style="fill-opacity:1.00" />
<!-- End 'C' -->
<!-- Begin 'A' -->
<polygon points=" 690.000000, 101.096386, 711.000000, 90.589120, 719.000000, 90.589120, 740.000000, 101.096386, 732.500000, 101.096386, 726.250000, 98.469570, 703.750000, 98.469570, 697.500000, 101.096386" fill="rgb(178, 34, 34)" style="fill-opacity:0.14" />
<polygon points=" 715.000000, 92.690573, 707.000000, 95.893480, 722.000000, 95.893480" fill="rgb(255, 255, 255)" style="fill-opacity:1.00" />
<!-- End 'A' -->
<!-- Begin 'G' -->
<ellipse cx="715.000000" cy="105.548193" rx="25.000000" ry="4.451807" fill="rgb(255, 165, 0)" style="fill-opacity:0.14" />
<ellipse cx="715.000000" cy="105.548193" rx="16.666667" ry="2.967871" fill="rgb(255, 255, 255)" style="fill-opacity:1.00" />
<rect height="4.451807" width="25.000000" x="715.000000" y="103.322290" fill="rgb(255, 255, 255)" style="fill-opacity:1.00" />
<rect height="1.112952" width="25.000000" x="715.000000" y="106.661145" fill="rgb(255, 165, 0)" style="fill-opacity:0.14" />
<rect height="3.338855" width="6.250000" x="733.750000" y="106.661145" fill="rgb(255, 165, 0)" style="fill-opacity:0.14" />
<!-- End 'G' -->
<!-- Begin 'T' -->
<rect height="8.374631" width="50.000000" x="690.000000" y="120.000000" fill="rgb(0, 100, 0)" style="fill-opacity:0.34" />
<rect height="52.341444" width="10.000000" x="710.000000" y="120.000000" fill="rgb(0, 100, 0)" style="fill-opacity:0.34" />
<!-- End 'T' -->
<!-- Begin 'C' -->
<ellipse cx="715.000000" cy="186.465282" rx="25.000000" ry="14.123838" fill="rgb(0, 0, 128)" style="fill-opacity:0.34" />
<ellipse cx="715.000000" cy="186.465282" rx="16.666667" ry="9.415892" fill="rgb(255, 255, 255)" style="fill-opacity:1.00" />
<rect height="14.123838" width="25.000000" x="715.000000" y="179.403363" fill="rgb(255, 255, 255)" style="fill-opacity:1.00" />
<!-- End 'C' -->
<!-- Begin 'A' -->
<polygon points=" 690.000000, 211.096386, 711.000000, 200.589120, 719.000000, 200.589120, 740.000000, 211.096386, 732.500000, 211.096386, 726.250000, 208.469570, 703.750000, 208.469570, 697.500000, 211.096386" fill="rgb(178, 34, 34)" style="fill-opacity:0.34" />
<polygon points=" 715.000000, 202.690573, 707.000000, 205.893480, 722.000000, 205.893480" fill="rgb(255, 255, 255)" style="fill-opacity:1.00" />
<!-- End 'A' -->
<!-- Begin 'G' -->
<ellipse cx="715.000000" cy="215.548193" rx="25.000000" ry="4.451807" fill="rgb(255, 165, 0)" style="fill-opacity:0.34" />
<ellipse cx="715.000000" cy="215.548193" rx="16.666667" ry="2.967871" fill="rgb(255, 255, 255)" style="fill-opacity:1.00" />
<rect height="4.451807" width="25.000000" x="715.000000" y="213.322290" fill="rgb(255, 255, 255)" style="fill-opacity:1.00" />
<rect height="1.112952" width="25.000000" x="715.000000" y="216.661145" fill="rgb(255, 165, 0)" style="fill-opacity:0.34" />
<rect height="3.338855" width="6.250000" x="733.750000" y="216.661145" fill="rgb(255, 165, 0)" style="fill-opacity:0.34" />
<!-- End 'G' -->
<!-- Begin 'T' -->
<rect height="8.374631" width="50.000000" x="690.000000" y="230.000000" fill="rgb(0, 100, 0)" style="fill-opacity:0.37" />
<rect height="52.341444" width="10.000000" x="710.000000" y="230.000000" fill="rgb(0, 100, 0)" style="fill-opacity:0.37" />
<!-- End 'T' -->
<!-- Begin 'C' -->
<ellipse cx="715.000000" cy="296.465282" rx="25.000000" ry="14.123838" fill="rgb(0, 0, 128)" style="fill-opacity:0.37" />
<ellipse cx="715.000000" cy="296.465282" rx="16.666667" ry="9.415892" fill="rgb(255, 255, 255)" style="fill-opacity:1.00" />
<rect height="14.123838" width="25.000000" x="715.000000" y="289.403363" fill="rgb(255, 255, 255)" style="fill-opacity:1.00" />
<!-- End 'C' -->
<!-- Begin 'A' -->
<polygon points=" 690.000000, 321.096386, 711.000000, 310.589120, 719.000000, 310.589120, 740.000000, 321.096386, 732.500000, 321.096386, 726.250000, 318.469570, 703.750000, 318.469570, 697.500000, 321.096386" fill="rgb(178, 34, 34)" style="fill-opacity:0.37" />
<polygon points=" 715.000000, 312.690573, 707.000000, 315.893480, 722.000000, 315.893480" fill="rgb(255, 255, 255)" style="fill-opacity:1.00" />
<!-- End 'A' -->
<!-- Begin 'G' -->
<ellipse cx="715.000000" cy="325.548193" rx="25.000000" ry="4.451807" fill="rgb(255, 165, 0)" style="fill-opacity:0.37" />
<ellipse cx="715.000000" cy="325.548193" rx="16.666667" ry="2.967871" fill="rgb(255, 255, 255)" style="fill-opacity:1.00" />
<rect height="4.451807" width="25.000000" x="715.000000" y="323.322290" fill="rgb(255, 255, 255)" style="fill-opacity:1.00" />
<rect height="1.112952" width="25.000000" x="715.000000" y="326.661145" fill="rgb(255, 165, 0)" style="fill-opacity:0.37" />
<rect height="3.338855" width="6.250000" x="733.750000" y="326.661145" fill="rgb(255, 165, 0)" style="fill-opacity:0.37" />
<!-- End 'G' -->
<!-- Begin 'T' -->
<rect height="8.374631" width="50.000000" x="690.000000" y="340.000000" fill="rgb(0, 100, 0)" style="fill-opacity:0.14" />
<rect height="52.341444" width="10.000000" x="710.000000" y="340.000000" fill="rgb(0, 100, 0)" style="fill-opacity:0.14" />
<!-- End 'T' -->
<!-- Begin 'C' -->
<ellipse cx="715.000000" cy="406.465282" rx="25.000000" ry="14.123838" fill="rgb(0, 0, 128)" style="fill-opacity:0.14" />
<ellipse cx="715.000000" cy="406.465282" rx="16.666667" ry="9.415892" fill="rgb(255, 255, 255)" style="fill-opacity:1.00" />
<rect height="14.123838" width="25.000000" x="715.000000" y="399.403363" fill="rgb(255, 255, 255)" style="fill-opacity:1.00" />
<!-- End 'C' -->
<!-- Begin 'A' -->
<polygon points=" 690.000000, 431.096386, 711.000000, 420.589120, 719.000000, 420.589120, 740.000000, 431.096386, 732.500000, 431.096386, 726.250000, 428.469570, 703.750000, 428.469570, 697.500000, 431.096386" fill="rgb(178, 34, 34)" style="fill-opacity:0.14" />
<polygon points=" 715.000000, 422.690573, 707.000000, 425.893480, 722.000000, 425.893480" fill="rgb(255, 255, 255)" style="fill-opacity:1.00" />
<!-- End 'A' -->
<!-- Begin 'G' -->
<ellipse cx="715.000000" cy="435.548193" rx="25.000000" ry="4.451807" fill="rgb(255, 165, 0)" style="fill-opacity:0.14" />
<ellipse cx="715.000000" cy="435.548193" rx="16.666667" ry="2.967871" fill="rgb(255, 255, 255)" style="fill-opacity:1.00" />
<rect height="4.451807" width="25.000000" x="715.000000" y="433.322290" fill="rgb(255, 255, 255)" style="fill-opacity:1.00" />
<rect height="1.112952" width="25.000000" x="715.000000" y="436.661145" fill="rgb(255, 165, 0)" style="fill-opacity:0.14" />
<rect height="3.338855" width="6.250000" x="733.750000" y="436.661145" fill="rgb(255, 165, 0)" style="fill-opacity:0.14" />
<!-- End 'G' -->
<text x="400.000000" y="495">
IC = 13.58
</text>

</svg>
