<?xml version="1.0" encoding="UTF-8"?>
<svg xmlns="http://www.w3.org/2000/svg" xmlns:xlink="http://www.w3.org/1999/xlink" width="360pt" height="360pt" viewBox="0 0 360 360" version="1.1">
<defs>
<g>
<symbol overflow="visible" id="glyph0-0">
<path style="stroke:none;" d=""/>
</symbol>
<symbol overflow="visible" id="glyph0-1">
<path style="stroke:none;" d="M 1.0625 0 L 4.4375 0 C 6.640625 0 8 -1.65625 8 -4.375 C 8 -7.09375 6.65625 -8.75 4.4375 -8.75 L 1.0625 -8.75 Z M 2.1875 -0.984375 L 2.1875 -7.765625 L 4.25 -7.765625 C 5.96875 -7.765625 6.890625 -6.59375 6.890625 -4.375 C 6.890625 -2.15625 5.96875 -0.984375 4.25 -0.984375 Z M 2.1875 -0.984375 "/>
</symbol>
<symbol overflow="visible" id="glyph0-2">
<path style="stroke:none;" d="M 1.796875 -6.28125 L 0.796875 -6.28125 L 0.796875 0 L 1.796875 0 Z M 1.796875 -8.75 L 0.796875 -8.75 L 0.796875 -7.484375 L 1.796875 -7.484375 Z M 1.796875 -8.75 "/>
</symbol>
<symbol overflow="visible" id="glyph0-3">
<path style="stroke:none;" d="M 5.25 -4.53125 C 5.25 -5.765625 4.421875 -6.46875 2.96875 -6.46875 C 1.515625 -6.46875 0.5625 -5.71875 0.5625 -4.546875 C 0.5625 -3.5625 1.0625 -3.09375 2.5625 -2.734375 L 3.484375 -2.515625 C 4.1875 -2.34375 4.46875 -2.09375 4.46875 -1.625 C 4.46875 -1.046875 3.875 -0.640625 3 -0.640625 C 2.453125 -0.640625 2 -0.796875 1.75 -1.0625 C 1.59375 -1.25 1.53125 -1.421875 1.46875 -1.875 L 0.40625 -1.875 C 0.453125 -0.421875 1.265625 0.28125 2.921875 0.28125 C 4.5 0.28125 5.515625 -0.5 5.515625 -1.71875 C 5.515625 -2.65625 4.984375 -3.171875 3.734375 -3.46875 L 2.765625 -3.703125 C 1.953125 -3.890625 1.609375 -4.15625 1.609375 -4.59375 C 1.609375 -5.171875 2.125 -5.546875 2.9375 -5.546875 C 3.75 -5.546875 4.171875 -5.203125 4.203125 -4.53125 Z M 5.25 -4.53125 "/>
</symbol>
<symbol overflow="visible" id="glyph0-4">
<path style="stroke:none;" d="M 3.046875 -6.28125 L 2.015625 -6.28125 L 2.015625 -8.015625 L 1.015625 -8.015625 L 1.015625 -6.28125 L 0.171875 -6.28125 L 0.171875 -5.46875 L 1.015625 -5.46875 L 1.015625 -0.71875 C 1.015625 -0.078125 1.453125 0.28125 2.234375 0.28125 C 2.46875 0.28125 2.71875 0.25 3.046875 0.1875 L 3.046875 -0.640625 C 2.921875 -0.609375 2.765625 -0.59375 2.5625 -0.59375 C 2.140625 -0.59375 2.015625 -0.71875 2.015625 -1.15625 L 2.015625 -5.46875 L 3.046875 -5.46875 Z M 3.046875 -6.28125 "/>
</symbol>
<symbol overflow="visible" id="glyph0-5">
<path style="stroke:none;" d="M 6.421875 -0.59375 C 6.3125 -0.5625 6.265625 -0.5625 6.203125 -0.5625 C 5.859375 -0.5625 5.65625 -0.75 5.65625 -1.0625 L 5.65625 -4.75 C 5.65625 -5.875 4.84375 -6.46875 3.296875 -6.46875 C 2.390625 -6.46875 1.625 -6.203125 1.21875 -5.734375 C 0.921875 -5.40625 0.796875 -5.046875 0.78125 -4.421875 L 1.78125 -4.421875 C 1.875 -5.203125 2.328125 -5.546875 3.265625 -5.546875 C 4.15625 -5.546875 4.671875 -5.203125 4.671875 -4.609375 L 4.671875 -4.34375 C 4.671875 -3.921875 4.421875 -3.75 3.625 -3.640625 C 2.203125 -3.46875 1.984375 -3.421875 1.609375 -3.265625 C 0.875 -2.96875 0.5 -2.40625 0.5 -1.578125 C 0.5 -0.4375 1.296875 0.28125 2.5625 0.28125 C 3.359375 0.28125 4 0 4.703125 -0.640625 C 4.78125 -0.015625 5.09375 0.28125 5.734375 0.28125 C 5.9375 0.28125 6.09375 0.25 6.421875 0.171875 Z M 4.671875 -1.984375 C 4.671875 -1.640625 4.578125 -1.4375 4.265625 -1.15625 C 3.859375 -0.796875 3.375 -0.59375 2.78125 -0.59375 C 2 -0.59375 1.546875 -0.96875 1.546875 -1.609375 C 1.546875 -2.265625 1.984375 -2.609375 3.0625 -2.765625 C 4.109375 -2.90625 4.328125 -2.953125 4.671875 -3.109375 Z M 4.671875 -1.984375 "/>
</symbol>
<symbol overflow="visible" id="glyph0-6">
<path style="stroke:none;" d="M 0.84375 -6.28125 L 0.84375 0 L 1.84375 0 L 1.84375 -3.46875 C 1.84375 -4.75 2.515625 -5.59375 3.546875 -5.59375 C 4.34375 -5.59375 4.84375 -5.109375 4.84375 -4.359375 L 4.84375 0 L 5.84375 0 L 5.84375 -4.75 C 5.84375 -5.796875 5.0625 -6.46875 3.859375 -6.46875 C 2.921875 -6.46875 2.3125 -6.109375 1.765625 -5.234375 L 1.765625 -6.28125 Z M 0.84375 -6.28125 "/>
</symbol>
<symbol overflow="visible" id="glyph0-7">
<path style="stroke:none;" d="M 5.65625 -4.171875 C 5.609375 -4.78125 5.46875 -5.1875 5.234375 -5.53125 C 4.796875 -6.125 4.046875 -6.46875 3.171875 -6.46875 C 1.46875 -6.46875 0.375 -5.125 0.375 -3.03125 C 0.375 -1.015625 1.453125 0.28125 3.15625 0.28125 C 4.65625 0.28125 5.609375 -0.625 5.71875 -2.15625 L 4.71875 -2.15625 C 4.546875 -1.15625 4.03125 -0.640625 3.1875 -0.640625 C 2.078125 -0.640625 1.421875 -1.546875 1.421875 -3.03125 C 1.421875 -4.609375 2.0625 -5.546875 3.15625 -5.546875 C 4 -5.546875 4.53125 -5.046875 4.640625 -4.171875 Z M 5.65625 -4.171875 "/>
</symbol>
<symbol overflow="visible" id="glyph0-8">
<path style="stroke:none;" d="M 6.15625 -2.8125 C 6.15625 -3.765625 6.078125 -4.34375 5.90625 -4.8125 C 5.5 -5.84375 4.53125 -6.46875 3.359375 -6.46875 C 1.609375 -6.46875 0.484375 -5.125 0.484375 -3.0625 C 0.484375 -1 1.578125 0.28125 3.34375 0.28125 C 4.78125 0.28125 5.765625 -0.546875 6.03125 -1.90625 L 5.015625 -1.90625 C 4.734375 -1.078125 4.171875 -0.640625 3.375 -0.640625 C 2.734375 -0.640625 2.203125 -0.9375 1.859375 -1.46875 C 1.625 -1.828125 1.53125 -2.1875 1.53125 -2.8125 Z M 1.546875 -3.625 C 1.625 -4.78125 2.34375 -5.546875 3.34375 -5.546875 C 4.328125 -5.546875 5.09375 -4.734375 5.09375 -3.703125 C 5.09375 -3.671875 5.09375 -3.640625 5.078125 -3.625 Z M 1.546875 -3.625 "/>
</symbol>
<symbol overflow="visible" id="glyph0-9">
<path style="stroke:none;" d=""/>
</symbol>
<symbol overflow="visible" id="glyph0-10">
<path style="stroke:none;" d="M 3.265625 -6.46875 C 1.5 -6.46875 0.4375 -5.203125 0.4375 -3.09375 C 0.4375 -0.984375 1.484375 0.28125 3.28125 0.28125 C 5.046875 0.28125 6.125 -0.984375 6.125 -3.046875 C 6.125 -5.21875 5.078125 -6.46875 3.265625 -6.46875 Z M 3.28125 -5.546875 C 4.40625 -5.546875 5.078125 -4.625 5.078125 -3.0625 C 5.078125 -1.578125 4.375 -0.640625 3.28125 -0.640625 C 2.15625 -0.640625 1.46875 -1.578125 1.46875 -3.09375 C 1.46875 -4.609375 2.15625 -5.546875 3.28125 -5.546875 Z M 3.28125 -5.546875 "/>
</symbol>
<symbol overflow="visible" id="glyph0-11">
<path style="stroke:none;" d="M 0.640625 2.609375 L 1.65625 2.609375 L 1.65625 -0.65625 C 2.1875 -0.015625 2.765625 0.28125 3.59375 0.28125 C 5.203125 0.28125 6.28125 -1.03125 6.28125 -3.03125 C 6.28125 -5.140625 5.25 -6.46875 3.578125 -6.46875 C 2.71875 -6.46875 2.046875 -6.078125 1.578125 -5.34375 L 1.578125 -6.28125 L 0.640625 -6.28125 Z M 3.40625 -5.53125 C 4.515625 -5.53125 5.234375 -4.5625 5.234375 -3.0625 C 5.234375 -1.625 4.5 -0.65625 3.40625 -0.65625 C 2.359375 -0.65625 1.65625 -1.625 1.65625 -3.09375 C 1.65625 -4.578125 2.359375 -5.53125 3.40625 -5.53125 Z M 3.40625 -5.53125 "/>
</symbol>
<symbol overflow="visible" id="glyph0-12">
<path style="stroke:none;" d="M 1.6875 -8.75 L 0.703125 -8.75 L 0.703125 0 L 1.6875 0 L 1.6875 -2.453125 L 2.65625 -3.40625 L 4.78125 0 L 6.03125 0 L 3.453125 -4.109375 L 5.640625 -6.28125 L 4.359375 -6.28125 L 1.6875 -3.625 Z M 1.6875 -8.75 "/>
</symbol>
<symbol overflow="visible" id="glyph0-13">
<path style="stroke:none;" d="M 0.828125 -6.28125 L 0.828125 0 L 1.84375 0 L 1.84375 -3.265625 C 1.84375 -4.15625 2.0625 -4.75 2.546875 -5.09375 C 2.859375 -5.328125 3.15625 -5.40625 3.859375 -5.40625 L 3.859375 -6.4375 C 3.6875 -6.453125 3.59375 -6.46875 3.46875 -6.46875 C 2.8125 -6.46875 2.328125 -6.078125 1.75 -5.140625 L 1.75 -6.28125 Z M 0.828125 -6.28125 "/>
</symbol>
<symbol overflow="visible" id="glyph0-14">
<path style="stroke:none;" d="M 3.40625 -3.75 L 0.546875 -3.75 L 0.546875 -2.875 L 3.40625 -2.875 Z M 3.40625 -3.75 "/>
</symbol>
<symbol overflow="visible" id="glyph0-15">
<path style="stroke:none;" d="M 6.078125 -1.046875 L 1.59375 -1.046875 C 1.703125 -1.734375 2.09375 -2.1875 3.125 -2.796875 L 4.328125 -3.4375 C 5.515625 -4.09375 6.125 -4.96875 6.125 -6.015625 C 6.125 -6.71875 5.84375 -7.375 5.34375 -7.84375 C 4.84375 -8.296875 4.21875 -8.515625 3.40625 -8.515625 C 2.328125 -8.515625 1.53125 -8.125 1.0625 -7.40625 C 0.75 -6.953125 0.625 -6.421875 0.59375 -5.5625 L 1.65625 -5.5625 C 1.6875 -6.125 1.765625 -6.484375 1.90625 -6.75 C 2.1875 -7.265625 2.734375 -7.578125 3.375 -7.578125 C 4.328125 -7.578125 5.046875 -6.90625 5.046875 -5.984375 C 5.046875 -5.3125 4.65625 -4.734375 3.90625 -4.3125 L 2.796875 -3.6875 C 1.015625 -2.671875 0.5 -1.875 0.40625 0 L 6.078125 0 Z M 6.078125 -1.046875 "/>
</symbol>
<symbol overflow="visible" id="glyph0-16">
<path style="stroke:none;" d="M 3.296875 -8.515625 C 2.515625 -8.515625 1.78125 -8.15625 1.34375 -7.578125 C 0.796875 -6.828125 0.515625 -5.6875 0.515625 -4.109375 C 0.515625 -1.25 1.46875 0.28125 3.296875 0.28125 C 5.09375 0.28125 6.078125 -1.25 6.078125 -4.046875 C 6.078125 -5.703125 5.8125 -6.796875 5.25 -7.578125 C 4.8125 -8.171875 4.109375 -8.515625 3.296875 -8.515625 Z M 3.296875 -7.578125 C 4.4375 -7.578125 5 -6.421875 5 -4.140625 C 5 -1.734375 4.453125 -0.59375 3.28125 -0.59375 C 2.15625 -0.59375 1.59375 -1.78125 1.59375 -4.109375 C 1.59375 -6.4375 2.15625 -7.578125 3.296875 -7.578125 Z M 3.296875 -7.578125 "/>
</symbol>
<symbol overflow="visible" id="glyph0-17">
<path style="stroke:none;" d="M 3.109375 -6.0625 L 3.109375 0 L 4.15625 0 L 4.15625 -8.515625 L 3.46875 -8.515625 C 3.09375 -7.203125 2.859375 -7.015625 1.21875 -6.8125 L 1.21875 -6.0625 Z M 3.109375 -6.0625 "/>
</symbol>
<symbol overflow="visible" id="glyph1-0">
<path style="stroke:none;" d=""/>
</symbol>
<symbol overflow="visible" id="glyph1-1">
<path style="stroke:none;" d="M -8.75 -7.75 L -8.75 -6.703125 L -1.59375 -6.703125 L -8.75 -2.125 L -8.75 -0.90625 L 0 -0.90625 L 0 -1.96875 L -7.09375 -1.96875 L 0 -6.484375 L 0 -7.75 Z M -8.75 -7.75 "/>
</symbol>
<symbol overflow="visible" id="glyph1-2">
<path style="stroke:none;" d="M 0 -5.78125 L -6.28125 -5.78125 L -6.28125 -4.78125 L -2.71875 -4.78125 C -1.4375 -4.78125 -0.59375 -4.109375 -0.59375 -3.078125 C -0.59375 -2.28125 -1.078125 -1.78125 -1.84375 -1.78125 L -6.28125 -1.78125 L -6.28125 -0.78125 L -1.4375 -0.78125 C -0.390625 -0.78125 0.28125 -1.5625 0.28125 -2.78125 C 0.28125 -3.703125 -0.046875 -4.296875 -0.875 -4.890625 L 0 -4.890625 Z M 0 -5.78125 "/>
</symbol>
<symbol overflow="visible" id="glyph1-3">
<path style="stroke:none;" d="M -6.28125 -0.84375 L 0 -0.84375 L 0 -1.84375 L -3.953125 -1.84375 C -4.859375 -1.84375 -5.59375 -2.515625 -5.59375 -3.328125 C -5.59375 -4.0625 -5.140625 -4.484375 -4.328125 -4.484375 L 0 -4.484375 L 0 -5.5 L -3.953125 -5.5 C -4.859375 -5.5 -5.59375 -6.15625 -5.59375 -6.96875 C -5.59375 -7.703125 -5.125 -8.140625 -4.328125 -8.140625 L 0 -8.140625 L 0 -9.140625 L -4.71875 -9.140625 C -5.84375 -9.140625 -6.46875 -8.5 -6.46875 -7.3125 C -6.46875 -6.484375 -6.21875 -5.96875 -5.515625 -5.390625 C -6.1875 -5.015625 -6.46875 -4.515625 -6.46875 -3.703125 C -6.46875 -2.859375 -6.15625 -2.296875 -5.40625 -1.765625 L -6.28125 -1.765625 Z M -6.28125 -0.84375 "/>
</symbol>
<symbol overflow="visible" id="glyph1-4">
<path style="stroke:none;" d="M -8.75 -0.640625 L 0 -0.640625 L 0 -1.546875 L -0.796875 -1.546875 C -0.078125 -2.03125 0.28125 -2.65625 0.28125 -3.546875 C 0.28125 -5.203125 -1.078125 -6.28125 -3.171875 -6.28125 C -5.203125 -6.28125 -6.46875 -5.25 -6.46875 -3.59375 C -6.46875 -2.71875 -6.140625 -2.109375 -5.4375 -1.640625 L -8.75 -1.640625 Z M -5.53125 -3.390625 C -5.53125 -4.515625 -4.5625 -5.234375 -3.0625 -5.234375 C -1.625 -5.234375 -0.65625 -4.484375 -0.65625 -3.390625 C -0.65625 -2.34375 -1.625 -1.640625 -3.09375 -1.640625 C -4.578125 -1.640625 -5.53125 -2.34375 -5.53125 -3.390625 Z M -5.53125 -3.390625 "/>
</symbol>
<symbol overflow="visible" id="glyph1-5">
<path style="stroke:none;" d="M -2.8125 -6.15625 C -3.765625 -6.15625 -4.34375 -6.078125 -4.8125 -5.90625 C -5.84375 -5.5 -6.46875 -4.53125 -6.46875 -3.359375 C -6.46875 -1.609375 -5.125 -0.484375 -3.0625 -0.484375 C -1 -0.484375 0.28125 -1.578125 0.28125 -3.34375 C 0.28125 -4.78125 -0.546875 -5.765625 -1.90625 -6.03125 L -1.90625 -5.015625 C -1.078125 -4.734375 -0.640625 -4.171875 -0.640625 -3.375 C -0.640625 -2.734375 -0.9375 -2.203125 -1.46875 -1.859375 C -1.828125 -1.625 -2.1875 -1.53125 -2.8125 -1.53125 Z M -3.625 -1.546875 C -4.78125 -1.625 -5.546875 -2.34375 -5.546875 -3.34375 C -5.546875 -4.328125 -4.734375 -5.09375 -3.703125 -5.09375 C -3.671875 -5.09375 -3.640625 -5.09375 -3.625 -5.078125 Z M -3.625 -1.546875 "/>
</symbol>
<symbol overflow="visible" id="glyph1-6">
<path style="stroke:none;" d="M -6.28125 -0.828125 L 0 -0.828125 L 0 -1.84375 L -3.265625 -1.84375 C -4.15625 -1.84375 -4.75 -2.0625 -5.09375 -2.546875 C -5.328125 -2.859375 -5.40625 -3.15625 -5.40625 -3.859375 L -6.4375 -3.859375 C -6.453125 -3.6875 -6.46875 -3.59375 -6.46875 -3.46875 C -6.46875 -2.8125 -6.078125 -2.328125 -5.140625 -1.75 L -6.28125 -1.75 Z M -6.28125 -0.828125 "/>
</symbol>
<symbol overflow="visible" id="glyph1-7">
<path style="stroke:none;" d=""/>
</symbol>
<symbol overflow="visible" id="glyph1-8">
<path style="stroke:none;" d="M -6.46875 -3.265625 C -6.46875 -1.5 -5.203125 -0.4375 -3.09375 -0.4375 C -0.984375 -0.4375 0.28125 -1.484375 0.28125 -3.28125 C 0.28125 -5.046875 -0.984375 -6.125 -3.046875 -6.125 C -5.21875 -6.125 -6.46875 -5.078125 -6.46875 -3.265625 Z M -5.546875 -3.28125 C -5.546875 -4.40625 -4.625 -5.078125 -3.0625 -5.078125 C -1.578125 -5.078125 -0.640625 -4.375 -0.640625 -3.28125 C -0.640625 -2.15625 -1.578125 -1.46875 -3.09375 -1.46875 C -4.609375 -1.46875 -5.546875 -2.15625 -5.546875 -3.28125 Z M -5.546875 -3.28125 "/>
</symbol>
<symbol overflow="visible" id="glyph1-9">
<path style="stroke:none;" d="M -6.28125 -3.09375 L -6.28125 -2.046875 L -7.265625 -2.046875 C -7.6875 -2.046875 -7.90625 -2.296875 -7.90625 -2.75 C -7.90625 -2.828125 -7.90625 -2.875 -7.890625 -3.09375 L -8.71875 -3.09375 C -8.765625 -2.875 -8.78125 -2.734375 -8.78125 -2.53125 C -8.78125 -1.609375 -8.25 -1.0625 -7.359375 -1.0625 L -6.28125 -1.0625 L -6.28125 -0.21875 L -5.46875 -0.21875 L -5.46875 -1.0625 L 0 -1.0625 L 0 -2.046875 L -5.46875 -2.046875 L -5.46875 -3.09375 Z M -6.28125 -3.09375 "/>
</symbol>
<symbol overflow="visible" id="glyph1-10">
<path style="stroke:none;" d="M -6.28125 -3.046875 L -6.28125 -2.015625 L -8.015625 -2.015625 L -8.015625 -1.015625 L -6.28125 -1.015625 L -6.28125 -0.171875 L -5.46875 -0.171875 L -5.46875 -1.015625 L -0.71875 -1.015625 C -0.078125 -1.015625 0.28125 -1.453125 0.28125 -2.234375 C 0.28125 -2.46875 0.25 -2.71875 0.1875 -3.046875 L -0.640625 -3.046875 C -0.609375 -2.921875 -0.59375 -2.765625 -0.59375 -2.5625 C -0.59375 -2.140625 -0.71875 -2.015625 -1.15625 -2.015625 L -5.46875 -2.015625 L -5.46875 -3.046875 Z M -6.28125 -3.046875 "/>
</symbol>
<symbol overflow="visible" id="glyph1-11">
<path style="stroke:none;" d="M -6.28125 -1.796875 L -6.28125 -0.796875 L 0 -0.796875 L 0 -1.796875 Z M -8.75 -1.796875 L -8.75 -0.796875 L -7.484375 -0.796875 L -7.484375 -1.796875 Z M -8.75 -1.796875 "/>
</symbol>
<symbol overflow="visible" id="glyph1-12">
<path style="stroke:none;" d="M -4.171875 -5.65625 C -4.78125 -5.609375 -5.1875 -5.46875 -5.53125 -5.234375 C -6.125 -4.796875 -6.46875 -4.046875 -6.46875 -3.171875 C -6.46875 -1.46875 -5.125 -0.375 -3.03125 -0.375 C -1.015625 -0.375 0.28125 -1.453125 0.28125 -3.15625 C 0.28125 -4.65625 -0.625 -5.609375 -2.15625 -5.71875 L -2.15625 -4.71875 C -1.15625 -4.546875 -0.640625 -4.03125 -0.640625 -3.1875 C -0.640625 -2.078125 -1.546875 -1.421875 -3.03125 -1.421875 C -4.609375 -1.421875 -5.546875 -2.0625 -5.546875 -3.15625 C -5.546875 -4 -5.046875 -4.53125 -4.171875 -4.640625 Z M -4.171875 -5.65625 "/>
</symbol>
<symbol overflow="visible" id="glyph1-13">
<path style="stroke:none;" d="M -6.28125 -0.84375 L 0 -0.84375 L 0 -1.84375 L -3.46875 -1.84375 C -4.75 -1.84375 -5.59375 -2.515625 -5.59375 -3.546875 C -5.59375 -4.34375 -5.109375 -4.84375 -4.359375 -4.84375 L 0 -4.84375 L 0 -5.84375 L -4.75 -5.84375 C -5.796875 -5.84375 -6.46875 -5.0625 -6.46875 -3.859375 C -6.46875 -2.921875 -6.109375 -2.3125 -5.234375 -1.765625 L -6.28125 -1.765625 Z M -6.28125 -0.84375 "/>
</symbol>
<symbol overflow="visible" id="glyph1-14">
<path style="stroke:none;" d="M -4.53125 -5.25 C -5.765625 -5.25 -6.46875 -4.421875 -6.46875 -2.96875 C -6.46875 -1.515625 -5.71875 -0.5625 -4.546875 -0.5625 C -3.5625 -0.5625 -3.09375 -1.0625 -2.734375 -2.5625 L -2.515625 -3.484375 C -2.34375 -4.1875 -2.09375 -4.46875 -1.625 -4.46875 C -1.046875 -4.46875 -0.640625 -3.875 -0.640625 -3 C -0.640625 -2.453125 -0.796875 -2 -1.0625 -1.75 C -1.25 -1.59375 -1.421875 -1.53125 -1.875 -1.46875 L -1.875 -0.40625 C -0.421875 -0.453125 0.28125 -1.265625 0.28125 -2.921875 C 0.28125 -4.5 -0.5 -5.515625 -1.71875 -5.515625 C -2.65625 -5.515625 -3.171875 -4.984375 -3.46875 -3.734375 L -3.703125 -2.765625 C -3.890625 -1.953125 -4.15625 -1.609375 -4.59375 -1.609375 C -5.171875 -1.609375 -5.546875 -2.125 -5.546875 -2.9375 C -5.546875 -3.75 -5.203125 -4.171875 -4.53125 -4.203125 Z M -4.53125 -5.25 "/>
</symbol>
<symbol overflow="visible" id="glyph1-15">
<path style="stroke:none;" d="M -8.515625 -3.296875 C -8.515625 -2.515625 -8.15625 -1.78125 -7.578125 -1.34375 C -6.828125 -0.796875 -5.6875 -0.515625 -4.109375 -0.515625 C -1.25 -0.515625 0.28125 -1.46875 0.28125 -3.296875 C 0.28125 -5.09375 -1.25 -6.078125 -4.046875 -6.078125 C -5.703125 -6.078125 -6.796875 -5.8125 -7.578125 -5.25 C -8.171875 -4.8125 -8.515625 -4.109375 -8.515625 -3.296875 Z M -7.578125 -3.296875 C -7.578125 -4.4375 -6.421875 -5 -4.140625 -5 C -1.734375 -5 -0.59375 -4.453125 -0.59375 -3.28125 C -0.59375 -2.15625 -1.78125 -1.59375 -4.109375 -1.59375 C -6.4375 -1.59375 -7.578125 -2.15625 -7.578125 -3.296875 Z M -7.578125 -3.296875 "/>
</symbol>
<symbol overflow="visible" id="glyph1-16">
<path style="stroke:none;" d="M -1.046875 -6.078125 L -1.046875 -1.59375 C -1.734375 -1.703125 -2.1875 -2.09375 -2.796875 -3.125 L -3.4375 -4.328125 C -4.09375 -5.515625 -4.96875 -6.125 -6.015625 -6.125 C -6.71875 -6.125 -7.375 -5.84375 -7.84375 -5.34375 C -8.296875 -4.84375 -8.515625 -4.21875 -8.515625 -3.40625 C -8.515625 -2.328125 -8.125 -1.53125 -7.40625 -1.0625 C -6.953125 -0.75 -6.421875 -0.625 -5.5625 -0.59375 L -5.5625 -1.65625 C -6.125 -1.6875 -6.484375 -1.765625 -6.75 -1.90625 C -7.265625 -2.1875 -7.578125 -2.734375 -7.578125 -3.375 C -7.578125 -4.328125 -6.90625 -5.046875 -5.984375 -5.046875 C -5.3125 -5.046875 -4.734375 -4.65625 -4.3125 -3.90625 L -3.6875 -2.796875 C -2.671875 -1.015625 -1.875 -0.5 0 -0.40625 L 0 -6.078125 Z M -1.046875 -6.078125 "/>
</symbol>
<symbol overflow="visible" id="glyph1-17">
<path style="stroke:none;" d="M -2.046875 -3.921875 L 0 -3.921875 L 0 -4.984375 L -2.046875 -4.984375 L -2.046875 -6.234375 L -2.984375 -6.234375 L -2.984375 -4.984375 L -8.515625 -4.984375 L -8.515625 -4.203125 L -3.15625 -0.34375 L -2.046875 -0.34375 Z M -2.984375 -3.921875 L -2.984375 -1.265625 L -6.703125 -3.921875 Z M -2.984375 -3.921875 "/>
</symbol>
<symbol overflow="visible" id="glyph1-18">
<path style="stroke:none;" d="M -6.28125 -5.96875 C -7.6875 -5.765625 -8.515625 -4.859375 -8.515625 -3.5625 C -8.515625 -2.625 -8.046875 -1.78125 -7.296875 -1.28125 C -6.46875 -0.75 -5.421875 -0.515625 -3.875 -0.515625 C -2.453125 -0.515625 -1.53125 -0.734375 -0.78125 -1.234375 C -0.09375 -1.6875 0.28125 -2.4375 0.28125 -3.375 C 0.28125 -4.984375 -0.921875 -6.15625 -2.59375 -6.15625 C -4.171875 -6.15625 -5.296875 -5.078125 -5.296875 -3.546875 C -5.296875 -2.71875 -4.96875 -2.046875 -4.34375 -1.59375 C -6.421875 -1.609375 -7.578125 -2.28125 -7.578125 -3.484375 C -7.578125 -4.234375 -7.109375 -4.75 -6.28125 -4.921875 Z M -4.359375 -3.421875 C -4.359375 -4.4375 -3.640625 -5.078125 -2.515625 -5.078125 C -1.4375 -5.078125 -0.65625 -4.359375 -0.65625 -3.390625 C -0.65625 -2.40625 -1.46875 -1.65625 -2.5625 -1.65625 C -3.625 -1.65625 -4.359375 -2.375 -4.359375 -3.421875 Z M -4.359375 -3.421875 "/>
</symbol>
<symbol overflow="visible" id="glyph1-19">
<path style="stroke:none;" d="M -4.46875 -4.6875 C -5 -5.5625 -5.4375 -5.859375 -6.234375 -5.859375 C -7.578125 -5.859375 -8.515625 -4.8125 -8.515625 -3.296875 C -8.515625 -1.796875 -7.578125 -0.75 -6.234375 -0.75 C -5.453125 -0.75 -5.015625 -1.03125 -4.46875 -1.890625 C -4.015625 -0.921875 -3.296875 -0.4375 -2.359375 -0.4375 C -0.796875 -0.4375 0.28125 -1.625 0.28125 -3.296875 C 0.28125 -4.984375 -0.796875 -6.15625 -2.359375 -6.15625 C -3.296875 -6.15625 -4.015625 -5.671875 -4.46875 -4.6875 Z M -7.578125 -3.296875 C -7.578125 -4.203125 -7.046875 -4.78125 -6.21875 -4.78125 C -5.421875 -4.78125 -4.890625 -4.1875 -4.890625 -3.296875 C -4.890625 -2.40625 -5.421875 -1.828125 -6.234375 -1.828125 C -7.046875 -1.828125 -7.578125 -2.40625 -7.578125 -3.296875 Z M -4.015625 -3.296875 C -4.015625 -4.359375 -3.34375 -5.078125 -2.34375 -5.078125 C -1.328125 -5.078125 -0.65625 -4.359375 -0.65625 -3.28125 C -0.65625 -2.25 -1.34375 -1.53125 -2.34375 -1.53125 C -3.34375 -1.53125 -4.015625 -2.25 -4.015625 -3.296875 Z M -4.015625 -3.296875 "/>
</symbol>
<symbol overflow="visible" id="glyph1-20">
<path style="stroke:none;" d="M -6.0625 -3.109375 L 0 -3.109375 L 0 -4.15625 L -8.515625 -4.15625 L -8.515625 -3.46875 C -7.203125 -3.09375 -7.015625 -2.859375 -6.8125 -1.21875 L -6.0625 -1.21875 Z M -6.0625 -3.109375 "/>
</symbol>
</g>
</defs>
<g id="surface1">
<rect x="0" y="0" width="360" height="360" style="fill:rgb(100%,100%,100%);fill-opacity:1;stroke:none;"/>
<g style="fill:rgb(0%,0%,0%);fill-opacity:1;">
  <use xlink:href="#glyph0-1" x="130.898438" y="340.716797"/>
  <use xlink:href="#glyph0-2" x="139.5625" y="340.716797"/>
  <use xlink:href="#glyph0-3" x="142.226562" y="340.716797"/>
  <use xlink:href="#glyph0-4" x="148.226562" y="340.716797"/>
  <use xlink:href="#glyph0-5" x="151.5625" y="340.716797"/>
  <use xlink:href="#glyph0-6" x="158.234375" y="340.716797"/>
  <use xlink:href="#glyph0-7" x="164.90625" y="340.716797"/>
  <use xlink:href="#glyph0-8" x="170.90625" y="340.716797"/>
  <use xlink:href="#glyph0-9" x="177.578125" y="340.716797"/>
  <use xlink:href="#glyph0-4" x="180.914062" y="340.716797"/>
  <use xlink:href="#glyph0-10" x="184.25" y="340.716797"/>
  <use xlink:href="#glyph0-9" x="190.921875" y="340.716797"/>
  <use xlink:href="#glyph0-11" x="194.257812" y="340.716797"/>
  <use xlink:href="#glyph0-8" x="200.929688" y="340.716797"/>
  <use xlink:href="#glyph0-5" x="207.601562" y="340.716797"/>
  <use xlink:href="#glyph0-12" x="214.273438" y="340.716797"/>
  <use xlink:href="#glyph0-9" x="220.273438" y="340.716797"/>
  <use xlink:href="#glyph0-7" x="223.609375" y="340.716797"/>
  <use xlink:href="#glyph0-8" x="229.609375" y="340.716797"/>
  <use xlink:href="#glyph0-6" x="236.28125" y="340.716797"/>
  <use xlink:href="#glyph0-4" x="242.953125" y="340.716797"/>
  <use xlink:href="#glyph0-13" x="246.289062" y="340.716797"/>
  <use xlink:href="#glyph0-8" x="250.285156" y="340.716797"/>
</g>
<g style="fill:rgb(0%,0%,0%);fill-opacity:1;">
  <use xlink:href="#glyph1-1" x="12.396484" y="250.300781"/>
  <use xlink:href="#glyph1-2" x="12.396484" y="241.636719"/>
  <use xlink:href="#glyph1-3" x="12.396484" y="234.964844"/>
  <use xlink:href="#glyph1-4" x="12.396484" y="224.96875"/>
  <use xlink:href="#glyph1-5" x="12.396484" y="218.296875"/>
  <use xlink:href="#glyph1-6" x="12.396484" y="211.625"/>
  <use xlink:href="#glyph1-7" x="12.396484" y="207.628906"/>
  <use xlink:href="#glyph1-8" x="12.396484" y="204.292969"/>
  <use xlink:href="#glyph1-9" x="12.396484" y="197.621094"/>
  <use xlink:href="#glyph1-7" x="12.396484" y="194.285156"/>
  <use xlink:href="#glyph1-3" x="12.396484" y="190.949219"/>
  <use xlink:href="#glyph1-8" x="12.396484" y="180.953125"/>
  <use xlink:href="#glyph1-10" x="12.396484" y="174.28125"/>
  <use xlink:href="#glyph1-11" x="12.396484" y="170.945312"/>
  <use xlink:href="#glyph1-9" x="12.396484" y="168.28125"/>
  <use xlink:href="#glyph1-7" x="12.396484" y="164.945312"/>
  <use xlink:href="#glyph1-8" x="12.396484" y="161.609375"/>
  <use xlink:href="#glyph1-12" x="12.396484" y="154.9375"/>
  <use xlink:href="#glyph1-12" x="12.396484" y="148.9375"/>
  <use xlink:href="#glyph1-2" x="12.396484" y="142.9375"/>
  <use xlink:href="#glyph1-6" x="12.396484" y="136.265625"/>
  <use xlink:href="#glyph1-6" x="12.396484" y="132.269531"/>
  <use xlink:href="#glyph1-5" x="12.396484" y="128.273438"/>
  <use xlink:href="#glyph1-13" x="12.396484" y="121.601562"/>
  <use xlink:href="#glyph1-12" x="12.396484" y="114.929688"/>
  <use xlink:href="#glyph1-5" x="12.396484" y="108.929688"/>
  <use xlink:href="#glyph1-14" x="12.396484" y="102.257812"/>
</g>
<path style="fill:none;stroke-width:0.75;stroke-linecap:round;stroke-linejoin:round;stroke:rgb(0%,0%,0%);stroke-opacity:1;stroke-miterlimit:10;" d="M 88.996094 286.558594 L 298.757812 286.558594 "/>
<path style="fill:none;stroke-width:0.75;stroke-linecap:round;stroke-linejoin:round;stroke:rgb(0%,0%,0%);stroke-opacity:1;stroke-miterlimit:10;" d="M 88.996094 286.558594 L 88.996094 293.761719 "/>
<path style="fill:none;stroke-width:0.75;stroke-linecap:round;stroke-linejoin:round;stroke:rgb(0%,0%,0%);stroke-opacity:1;stroke-miterlimit:10;" d="M 141.433594 286.558594 L 141.433594 293.761719 "/>
<path style="fill:none;stroke-width:0.75;stroke-linecap:round;stroke-linejoin:round;stroke:rgb(0%,0%,0%);stroke-opacity:1;stroke-miterlimit:10;" d="M 193.875 286.558594 L 193.875 293.761719 "/>
<path style="fill:none;stroke-width:0.75;stroke-linecap:round;stroke-linejoin:round;stroke:rgb(0%,0%,0%);stroke-opacity:1;stroke-miterlimit:10;" d="M 246.316406 286.558594 L 246.316406 293.761719 "/>
<path style="fill:none;stroke-width:0.75;stroke-linecap:round;stroke-linejoin:round;stroke:rgb(0%,0%,0%);stroke-opacity:1;stroke-miterlimit:10;" d="M 298.757812 286.558594 L 298.757812 293.761719 "/>
<g style="fill:rgb(0%,0%,0%);fill-opacity:1;">
  <use xlink:href="#glyph0-14" x="76.496094" y="311.916016"/>
  <use xlink:href="#glyph0-15" x="80.492188" y="311.916016"/>
  <use xlink:href="#glyph0-16" x="87.164062" y="311.916016"/>
  <use xlink:href="#glyph0-16" x="93.835938" y="311.916016"/>
</g>
<g style="fill:rgb(0%,0%,0%);fill-opacity:1;">
  <use xlink:href="#glyph0-14" x="128.933594" y="311.916016"/>
  <use xlink:href="#glyph0-17" x="132.929688" y="311.916016"/>
  <use xlink:href="#glyph0-16" x="139.601562" y="311.916016"/>
  <use xlink:href="#glyph0-16" x="146.273438" y="311.916016"/>
</g>
<g style="fill:rgb(0%,0%,0%);fill-opacity:1;">
  <use xlink:href="#glyph0-16" x="190.375" y="311.916016"/>
</g>
<g style="fill:rgb(0%,0%,0%);fill-opacity:1;">
  <use xlink:href="#glyph0-17" x="235.816406" y="311.916016"/>
  <use xlink:href="#glyph0-16" x="242.488281" y="311.916016"/>
  <use xlink:href="#glyph0-16" x="249.160156" y="311.916016"/>
</g>
<g style="fill:rgb(0%,0%,0%);fill-opacity:1;">
  <use xlink:href="#glyph0-15" x="288.257812" y="311.916016"/>
  <use xlink:href="#glyph0-16" x="294.929688" y="311.916016"/>
  <use xlink:href="#glyph0-16" x="301.601562" y="311.916016"/>
</g>
<path style="fill:none;stroke-width:0.75;stroke-linecap:round;stroke-linejoin:round;stroke:rgb(0%,0%,0%);stroke-opacity:1;stroke-miterlimit:10;" d="M 59.039062 278.132812 L 59.039062 67.464844 "/>
<path style="fill:none;stroke-width:0.75;stroke-linecap:round;stroke-linejoin:round;stroke:rgb(0%,0%,0%);stroke-opacity:1;stroke-miterlimit:10;" d="M 59.039062 278.132812 L 51.839844 278.132812 "/>
<path style="fill:none;stroke-width:0.75;stroke-linecap:round;stroke-linejoin:round;stroke:rgb(0%,0%,0%);stroke-opacity:1;stroke-miterlimit:10;" d="M 59.039062 236 L 51.839844 236 "/>
<path style="fill:none;stroke-width:0.75;stroke-linecap:round;stroke-linejoin:round;stroke:rgb(0%,0%,0%);stroke-opacity:1;stroke-miterlimit:10;" d="M 59.039062 193.867188 L 51.839844 193.867188 "/>
<path style="fill:none;stroke-width:0.75;stroke-linecap:round;stroke-linejoin:round;stroke:rgb(0%,0%,0%);stroke-opacity:1;stroke-miterlimit:10;" d="M 59.039062 151.734375 L 51.839844 151.734375 "/>
<path style="fill:none;stroke-width:0.75;stroke-linecap:round;stroke-linejoin:round;stroke:rgb(0%,0%,0%);stroke-opacity:1;stroke-miterlimit:10;" d="M 59.039062 109.601562 L 51.839844 109.601562 "/>
<path style="fill:none;stroke-width:0.75;stroke-linecap:round;stroke-linejoin:round;stroke:rgb(0%,0%,0%);stroke-opacity:1;stroke-miterlimit:10;" d="M 59.039062 67.464844 L 51.839844 67.464844 "/>
<g style="fill:rgb(0%,0%,0%);fill-opacity:1;">
  <use xlink:href="#glyph1-15" x="41.197266" y="281.632812"/>
</g>
<g style="fill:rgb(0%,0%,0%);fill-opacity:1;">
  <use xlink:href="#glyph1-16" x="41.197266" y="243"/>
  <use xlink:href="#glyph1-15" x="41.197266" y="236.328125"/>
</g>
<g style="fill:rgb(0%,0%,0%);fill-opacity:1;">
  <use xlink:href="#glyph1-17" x="41.197266" y="200.867188"/>
  <use xlink:href="#glyph1-15" x="41.197266" y="194.195312"/>
</g>
<g style="fill:rgb(0%,0%,0%);fill-opacity:1;">
  <use xlink:href="#glyph1-18" x="41.197266" y="158.734375"/>
  <use xlink:href="#glyph1-15" x="41.197266" y="152.0625"/>
</g>
<g style="fill:rgb(0%,0%,0%);fill-opacity:1;">
  <use xlink:href="#glyph1-19" x="41.197266" y="116.601562"/>
  <use xlink:href="#glyph1-15" x="41.197266" y="109.929688"/>
</g>
<g style="fill:rgb(0%,0%,0%);fill-opacity:1;">
  <use xlink:href="#glyph1-20" x="41.197266" y="77.964844"/>
  <use xlink:href="#glyph1-15" x="41.197266" y="71.292969"/>
  <use xlink:href="#glyph1-15" x="41.197266" y="64.621094"/>
</g>
<path style="fill-rule:nonzero;fill:rgb(0.392157%,0.392157%,8.627451%);fill-opacity:1;stroke-width:0.75;stroke-linecap:round;stroke-linejoin:round;stroke:rgb(0%,0%,0%);stroke-opacity:1;stroke-miterlimit:10;" d="M 69.066406 278.132812 L 70.113281 278.132812 L 70.113281 276.027344 L 69.066406 276.027344 Z M 69.066406 278.132812 "/>
<path style="fill:none;stroke-width:0.75;stroke-linecap:round;stroke-linejoin:round;stroke:rgb(0%,0%,0%);stroke-opacity:1;stroke-miterlimit:10;" d="M 70.117188 278.132812 L 71.164062 278.132812 Z M 70.117188 278.132812 "/>
<path style="fill:none;stroke-width:0.75;stroke-linecap:round;stroke-linejoin:round;stroke:rgb(0%,0%,0%);stroke-opacity:1;stroke-miterlimit:10;" d="M 71.164062 278.132812 L 72.210938 278.132812 Z M 71.164062 278.132812 "/>
<path style="fill:none;stroke-width:0.75;stroke-linecap:round;stroke-linejoin:round;stroke:rgb(0%,0%,0%);stroke-opacity:1;stroke-miterlimit:10;" d="M 72.214844 278.132812 L 73.261719 278.132812 Z M 72.214844 278.132812 "/>
<path style="fill-rule:nonzero;fill:rgb(0.392157%,0.392157%,8.627451%);fill-opacity:1;stroke-width:0.75;stroke-linecap:round;stroke-linejoin:round;stroke:rgb(0%,0%,0%);stroke-opacity:1;stroke-miterlimit:10;" d="M 73.261719 278.132812 L 74.308594 278.132812 L 74.308594 273.917969 L 73.261719 273.917969 Z M 73.261719 278.132812 "/>
<path style="fill:none;stroke-width:0.75;stroke-linecap:round;stroke-linejoin:round;stroke:rgb(0%,0%,0%);stroke-opacity:1;stroke-miterlimit:10;" d="M 74.3125 278.132812 L 75.359375 278.132812 Z M 74.3125 278.132812 "/>
<path style="fill:none;stroke-width:0.75;stroke-linecap:round;stroke-linejoin:round;stroke:rgb(0%,0%,0%);stroke-opacity:1;stroke-miterlimit:10;" d="M 75.359375 278.132812 L 76.40625 278.132812 Z M 75.359375 278.132812 "/>
<path style="fill:none;stroke-width:0.75;stroke-linecap:round;stroke-linejoin:round;stroke:rgb(0%,0%,0%);stroke-opacity:1;stroke-miterlimit:10;" d="M 76.410156 278.132812 L 77.457031 278.132812 Z M 76.410156 278.132812 "/>
<path style="fill-rule:nonzero;fill:rgb(0.392157%,0.392157%,8.627451%);fill-opacity:1;stroke-width:0.75;stroke-linecap:round;stroke-linejoin:round;stroke:rgb(0%,0%,0%);stroke-opacity:1;stroke-miterlimit:10;" d="M 77.457031 278.132812 L 78.503906 278.132812 L 78.503906 276.027344 L 77.457031 276.027344 Z M 77.457031 278.132812 "/>
<path style="fill-rule:nonzero;fill:rgb(0.392157%,0.392157%,8.627451%);fill-opacity:1;stroke-width:0.75;stroke-linecap:round;stroke-linejoin:round;stroke:rgb(0%,0%,0%);stroke-opacity:1;stroke-miterlimit:10;" d="M 78.507812 278.132812 L 79.554688 278.132812 L 79.554688 267.597656 L 78.507812 267.597656 Z M 78.507812 278.132812 "/>
<path style="fill:none;stroke-width:0.75;stroke-linecap:round;stroke-linejoin:round;stroke:rgb(0%,0%,0%);stroke-opacity:1;stroke-miterlimit:10;" d="M 79.554688 278.132812 L 80.601562 278.132812 Z M 79.554688 278.132812 "/>
<path style="fill-rule:nonzero;fill:rgb(0.392157%,0.392157%,8.627451%);fill-opacity:1;stroke-width:0.75;stroke-linecap:round;stroke-linejoin:round;stroke:rgb(0%,0%,0%);stroke-opacity:1;stroke-miterlimit:10;" d="M 80.605469 278.132812 L 81.652344 278.132812 L 81.652344 276.027344 L 80.605469 276.027344 Z M 80.605469 278.132812 "/>
<path style="fill-rule:nonzero;fill:rgb(0.392157%,0.392157%,8.627451%);fill-opacity:1;stroke-width:0.75;stroke-linecap:round;stroke-linejoin:round;stroke:rgb(0%,0%,0%);stroke-opacity:1;stroke-miterlimit:10;" d="M 81.652344 278.132812 L 82.699219 278.132812 L 82.699219 276.027344 L 81.652344 276.027344 Z M 81.652344 278.132812 "/>
<path style="fill-rule:nonzero;fill:rgb(0.392157%,0.392157%,8.627451%);fill-opacity:1;stroke-width:0.75;stroke-linecap:round;stroke-linejoin:round;stroke:rgb(0%,0%,0%);stroke-opacity:1;stroke-miterlimit:10;" d="M 82.703125 278.132812 L 83.75 278.132812 L 83.75 276.027344 L 82.703125 276.027344 Z M 82.703125 278.132812 "/>
<path style="fill:none;stroke-width:0.75;stroke-linecap:round;stroke-linejoin:round;stroke:rgb(0%,0%,0%);stroke-opacity:1;stroke-miterlimit:10;" d="M 83.75 278.132812 L 84.796875 278.132812 Z M 83.75 278.132812 "/>
<path style="fill-rule:nonzero;fill:rgb(0.392157%,0.392157%,8.627451%);fill-opacity:1;stroke-width:0.75;stroke-linecap:round;stroke-linejoin:round;stroke:rgb(0%,0%,0%);stroke-opacity:1;stroke-miterlimit:10;" d="M 84.800781 278.132812 L 85.847656 278.132812 L 85.847656 276.027344 L 84.800781 276.027344 Z M 84.800781 278.132812 "/>
<path style="fill:none;stroke-width:0.75;stroke-linecap:round;stroke-linejoin:round;stroke:rgb(0%,0%,0%);stroke-opacity:1;stroke-miterlimit:10;" d="M 85.847656 278.132812 L 86.894531 278.132812 Z M 85.847656 278.132812 "/>
<path style="fill:none;stroke-width:0.75;stroke-linecap:round;stroke-linejoin:round;stroke:rgb(0%,0%,0%);stroke-opacity:1;stroke-miterlimit:10;" d="M 86.898438 278.132812 L 87.945312 278.132812 Z M 86.898438 278.132812 "/>
<path style="fill-rule:nonzero;fill:rgb(0.392157%,0.392157%,8.627451%);fill-opacity:1;stroke-width:0.75;stroke-linecap:round;stroke-linejoin:round;stroke:rgb(0%,0%,0%);stroke-opacity:1;stroke-miterlimit:10;" d="M 87.945312 278.132812 L 88.992188 278.132812 L 88.992188 276.027344 L 87.945312 276.027344 Z M 87.945312 278.132812 "/>
<path style="fill:none;stroke-width:0.75;stroke-linecap:round;stroke-linejoin:round;stroke:rgb(0%,0%,0%);stroke-opacity:1;stroke-miterlimit:10;" d="M 88.996094 278.132812 L 90.042969 278.132812 Z M 88.996094 278.132812 "/>
<path style="fill:none;stroke-width:0.75;stroke-linecap:round;stroke-linejoin:round;stroke:rgb(0%,0%,0%);stroke-opacity:1;stroke-miterlimit:10;" d="M 90.042969 278.132812 L 91.089844 278.132812 Z M 90.042969 278.132812 "/>
<path style="fill:none;stroke-width:0.75;stroke-linecap:round;stroke-linejoin:round;stroke:rgb(0%,0%,0%);stroke-opacity:1;stroke-miterlimit:10;" d="M 91.089844 278.132812 L 92.136719 278.132812 Z M 91.089844 278.132812 "/>
<path style="fill:none;stroke-width:0.75;stroke-linecap:round;stroke-linejoin:round;stroke:rgb(0%,0%,0%);stroke-opacity:1;stroke-miterlimit:10;" d="M 92.140625 278.132812 L 93.1875 278.132812 Z M 92.140625 278.132812 "/>
<path style="fill:none;stroke-width:0.75;stroke-linecap:round;stroke-linejoin:round;stroke:rgb(0%,0%,0%);stroke-opacity:1;stroke-miterlimit:10;" d="M 93.1875 278.132812 L 94.234375 278.132812 Z M 93.1875 278.132812 "/>
<path style="fill:none;stroke-width:0.75;stroke-linecap:round;stroke-linejoin:round;stroke:rgb(0%,0%,0%);stroke-opacity:1;stroke-miterlimit:10;" d="M 94.238281 278.132812 L 95.285156 278.132812 Z M 94.238281 278.132812 "/>
<path style="fill:none;stroke-width:0.75;stroke-linecap:round;stroke-linejoin:round;stroke:rgb(0%,0%,0%);stroke-opacity:1;stroke-miterlimit:10;" d="M 95.285156 278.132812 L 96.332031 278.132812 Z M 95.285156 278.132812 "/>
<path style="fill:none;stroke-width:0.75;stroke-linecap:round;stroke-linejoin:round;stroke:rgb(0%,0%,0%);stroke-opacity:1;stroke-miterlimit:10;" d="M 96.335938 278.132812 L 97.382812 278.132812 Z M 96.335938 278.132812 "/>
<path style="fill-rule:nonzero;fill:rgb(0.392157%,0.392157%,8.627451%);fill-opacity:1;stroke-width:0.75;stroke-linecap:round;stroke-linejoin:round;stroke:rgb(0%,0%,0%);stroke-opacity:1;stroke-miterlimit:10;" d="M 97.382812 278.132812 L 98.429688 278.132812 L 98.429688 276.027344 L 97.382812 276.027344 Z M 97.382812 278.132812 "/>
<path style="fill-rule:nonzero;fill:rgb(0.392157%,0.392157%,8.627451%);fill-opacity:1;stroke-width:0.75;stroke-linecap:round;stroke-linejoin:round;stroke:rgb(0%,0%,0%);stroke-opacity:1;stroke-miterlimit:10;" d="M 98.433594 278.132812 L 99.480469 278.132812 L 99.480469 273.917969 L 98.433594 273.917969 Z M 98.433594 278.132812 "/>
<path style="fill:none;stroke-width:0.75;stroke-linecap:round;stroke-linejoin:round;stroke:rgb(0%,0%,0%);stroke-opacity:1;stroke-miterlimit:10;" d="M 99.480469 278.132812 L 100.527344 278.132812 Z M 99.480469 278.132812 "/>
<path style="fill:none;stroke-width:0.75;stroke-linecap:round;stroke-linejoin:round;stroke:rgb(0%,0%,0%);stroke-opacity:1;stroke-miterlimit:10;" d="M 100.53125 278.132812 L 101.578125 278.132812 Z M 100.53125 278.132812 "/>
<path style="fill:none;stroke-width:0.75;stroke-linecap:round;stroke-linejoin:round;stroke:rgb(0%,0%,0%);stroke-opacity:1;stroke-miterlimit:10;" d="M 101.578125 278.132812 L 102.625 278.132812 Z M 101.578125 278.132812 "/>
<path style="fill:none;stroke-width:0.75;stroke-linecap:round;stroke-linejoin:round;stroke:rgb(0%,0%,0%);stroke-opacity:1;stroke-miterlimit:10;" d="M 102.628906 278.132812 L 103.675781 278.132812 Z M 102.628906 278.132812 "/>
<path style="fill:none;stroke-width:0.75;stroke-linecap:round;stroke-linejoin:round;stroke:rgb(0%,0%,0%);stroke-opacity:1;stroke-miterlimit:10;" d="M 103.675781 278.132812 L 104.722656 278.132812 Z M 103.675781 278.132812 "/>
<path style="fill:none;stroke-width:0.75;stroke-linecap:round;stroke-linejoin:round;stroke:rgb(0%,0%,0%);stroke-opacity:1;stroke-miterlimit:10;" d="M 104.726562 278.132812 L 105.773438 278.132812 Z M 104.726562 278.132812 "/>
<path style="fill-rule:nonzero;fill:rgb(0.392157%,0.392157%,8.627451%);fill-opacity:1;stroke-width:0.75;stroke-linecap:round;stroke-linejoin:round;stroke:rgb(0%,0%,0%);stroke-opacity:1;stroke-miterlimit:10;" d="M 105.773438 278.132812 L 106.820312 278.132812 L 106.820312 276.027344 L 105.773438 276.027344 Z M 105.773438 278.132812 "/>
<path style="fill-rule:nonzero;fill:rgb(0.392157%,0.392157%,8.627451%);fill-opacity:1;stroke-width:0.75;stroke-linecap:round;stroke-linejoin:round;stroke:rgb(0%,0%,0%);stroke-opacity:1;stroke-miterlimit:10;" d="M 106.824219 278.132812 L 107.871094 278.132812 L 107.871094 276.027344 L 106.824219 276.027344 Z M 106.824219 278.132812 "/>
<path style="fill-rule:nonzero;fill:rgb(0.392157%,0.392157%,8.627451%);fill-opacity:1;stroke-width:0.75;stroke-linecap:round;stroke-linejoin:round;stroke:rgb(0%,0%,0%);stroke-opacity:1;stroke-miterlimit:10;" d="M 107.871094 278.132812 L 108.917969 278.132812 L 108.917969 273.917969 L 107.871094 273.917969 Z M 107.871094 278.132812 "/>
<path style="fill-rule:nonzero;fill:rgb(0.392157%,0.392157%,8.627451%);fill-opacity:1;stroke-width:0.75;stroke-linecap:round;stroke-linejoin:round;stroke:rgb(0%,0%,0%);stroke-opacity:1;stroke-miterlimit:10;" d="M 108.921875 278.132812 L 109.96875 278.132812 L 109.96875 276.027344 L 108.921875 276.027344 Z M 108.921875 278.132812 "/>
<path style="fill:none;stroke-width:0.75;stroke-linecap:round;stroke-linejoin:round;stroke:rgb(0%,0%,0%);stroke-opacity:1;stroke-miterlimit:10;" d="M 109.96875 278.132812 L 111.015625 278.132812 Z M 109.96875 278.132812 "/>
<path style="fill-rule:nonzero;fill:rgb(0.392157%,0.392157%,8.627451%);fill-opacity:1;stroke-width:0.75;stroke-linecap:round;stroke-linejoin:round;stroke:rgb(0%,0%,0%);stroke-opacity:1;stroke-miterlimit:10;" d="M 111.019531 278.132812 L 112.066406 278.132812 L 112.066406 276.027344 L 111.019531 276.027344 Z M 111.019531 278.132812 "/>
<path style="fill-rule:nonzero;fill:rgb(0.392157%,0.392157%,8.627451%);fill-opacity:1;stroke-width:0.75;stroke-linecap:round;stroke-linejoin:round;stroke:rgb(0%,0%,0%);stroke-opacity:1;stroke-miterlimit:10;" d="M 112.066406 278.132812 L 113.113281 278.132812 L 113.113281 276.027344 L 112.066406 276.027344 Z M 112.066406 278.132812 "/>
<path style="fill:none;stroke-width:0.75;stroke-linecap:round;stroke-linejoin:round;stroke:rgb(0%,0%,0%);stroke-opacity:1;stroke-miterlimit:10;" d="M 113.117188 278.132812 L 114.164062 278.132812 Z M 113.117188 278.132812 "/>
<path style="fill-rule:nonzero;fill:rgb(0.392157%,0.392157%,8.627451%);fill-opacity:1;stroke-width:0.75;stroke-linecap:round;stroke-linejoin:round;stroke:rgb(0%,0%,0%);stroke-opacity:1;stroke-miterlimit:10;" d="M 114.164062 278.132812 L 115.210938 278.132812 L 115.210938 273.917969 L 114.164062 273.917969 Z M 114.164062 278.132812 "/>
<path style="fill-rule:nonzero;fill:rgb(0.392157%,0.392157%,8.627451%);fill-opacity:1;stroke-width:0.75;stroke-linecap:round;stroke-linejoin:round;stroke:rgb(0%,0%,0%);stroke-opacity:1;stroke-miterlimit:10;" d="M 115.214844 278.132812 L 116.261719 278.132812 L 116.261719 273.917969 L 115.214844 273.917969 Z M 115.214844 278.132812 "/>
<path style="fill-rule:nonzero;fill:rgb(0.392157%,0.392157%,8.627451%);fill-opacity:1;stroke-width:0.75;stroke-linecap:round;stroke-linejoin:round;stroke:rgb(0%,0%,0%);stroke-opacity:1;stroke-miterlimit:10;" d="M 116.261719 278.132812 L 117.308594 278.132812 L 117.308594 276.027344 L 116.261719 276.027344 Z M 116.261719 278.132812 "/>
<path style="fill:none;stroke-width:0.75;stroke-linecap:round;stroke-linejoin:round;stroke:rgb(0%,0%,0%);stroke-opacity:1;stroke-miterlimit:10;" d="M 117.3125 278.132812 L 118.359375 278.132812 Z M 117.3125 278.132812 "/>
<path style="fill:none;stroke-width:0.75;stroke-linecap:round;stroke-linejoin:round;stroke:rgb(0%,0%,0%);stroke-opacity:1;stroke-miterlimit:10;" d="M 118.359375 278.132812 L 119.40625 278.132812 Z M 118.359375 278.132812 "/>
<path style="fill:none;stroke-width:0.75;stroke-linecap:round;stroke-linejoin:round;stroke:rgb(0%,0%,0%);stroke-opacity:1;stroke-miterlimit:10;" d="M 119.410156 278.132812 L 120.457031 278.132812 Z M 119.410156 278.132812 "/>
<path style="fill:none;stroke-width:0.75;stroke-linecap:round;stroke-linejoin:round;stroke:rgb(0%,0%,0%);stroke-opacity:1;stroke-miterlimit:10;" d="M 120.457031 278.132812 L 121.503906 278.132812 Z M 120.457031 278.132812 "/>
<path style="fill:none;stroke-width:0.75;stroke-linecap:round;stroke-linejoin:round;stroke:rgb(0%,0%,0%);stroke-opacity:1;stroke-miterlimit:10;" d="M 121.507812 278.132812 L 122.554688 278.132812 Z M 121.507812 278.132812 "/>
<path style="fill:none;stroke-width:0.75;stroke-linecap:round;stroke-linejoin:round;stroke:rgb(0%,0%,0%);stroke-opacity:1;stroke-miterlimit:10;" d="M 122.554688 278.132812 L 123.601562 278.132812 Z M 122.554688 278.132812 "/>
<path style="fill-rule:nonzero;fill:rgb(0.392157%,0.392157%,8.627451%);fill-opacity:1;stroke-width:0.75;stroke-linecap:round;stroke-linejoin:round;stroke:rgb(0%,0%,0%);stroke-opacity:1;stroke-miterlimit:10;" d="M 123.605469 278.132812 L 124.652344 278.132812 L 124.652344 276.027344 L 123.605469 276.027344 Z M 123.605469 278.132812 "/>
<path style="fill-rule:nonzero;fill:rgb(0.392157%,0.392157%,8.627451%);fill-opacity:1;stroke-width:0.75;stroke-linecap:round;stroke-linejoin:round;stroke:rgb(0%,0%,0%);stroke-opacity:1;stroke-miterlimit:10;" d="M 124.652344 278.132812 L 125.699219 278.132812 L 125.699219 273.917969 L 124.652344 273.917969 Z M 124.652344 278.132812 "/>
<path style="fill-rule:nonzero;fill:rgb(0.392157%,0.392157%,8.627451%);fill-opacity:1;stroke-width:0.75;stroke-linecap:round;stroke-linejoin:round;stroke:rgb(0%,0%,0%);stroke-opacity:1;stroke-miterlimit:10;" d="M 125.703125 278.132812 L 126.75 278.132812 L 126.75 273.917969 L 125.703125 273.917969 Z M 125.703125 278.132812 "/>
<path style="fill:none;stroke-width:0.75;stroke-linecap:round;stroke-linejoin:round;stroke:rgb(0%,0%,0%);stroke-opacity:1;stroke-miterlimit:10;" d="M 126.75 278.132812 L 127.796875 278.132812 Z M 126.75 278.132812 "/>
<path style="fill-rule:nonzero;fill:rgb(0.392157%,0.392157%,8.627451%);fill-opacity:1;stroke-width:0.75;stroke-linecap:round;stroke-linejoin:round;stroke:rgb(0%,0%,0%);stroke-opacity:1;stroke-miterlimit:10;" d="M 127.800781 278.132812 L 128.847656 278.132812 L 128.847656 276.027344 L 127.800781 276.027344 Z M 127.800781 278.132812 "/>
<path style="fill-rule:nonzero;fill:rgb(0.392157%,0.392157%,8.627451%);fill-opacity:1;stroke-width:0.75;stroke-linecap:round;stroke-linejoin:round;stroke:rgb(0%,0%,0%);stroke-opacity:1;stroke-miterlimit:10;" d="M 128.847656 278.132812 L 129.894531 278.132812 L 129.894531 276.027344 L 128.847656 276.027344 Z M 128.847656 278.132812 "/>
<path style="fill:none;stroke-width:0.75;stroke-linecap:round;stroke-linejoin:round;stroke:rgb(0%,0%,0%);stroke-opacity:1;stroke-miterlimit:10;" d="M 129.898438 278.132812 L 130.945312 278.132812 Z M 129.898438 278.132812 "/>
<path style="fill-rule:nonzero;fill:rgb(0.392157%,0.392157%,8.627451%);fill-opacity:1;stroke-width:0.75;stroke-linecap:round;stroke-linejoin:round;stroke:rgb(0%,0%,0%);stroke-opacity:1;stroke-miterlimit:10;" d="M 130.945312 278.132812 L 131.992188 278.132812 L 131.992188 276.027344 L 130.945312 276.027344 Z M 130.945312 278.132812 "/>
<path style="fill:none;stroke-width:0.75;stroke-linecap:round;stroke-linejoin:round;stroke:rgb(0%,0%,0%);stroke-opacity:1;stroke-miterlimit:10;" d="M 131.996094 278.132812 L 133.042969 278.132812 Z M 131.996094 278.132812 "/>
<path style="fill-rule:nonzero;fill:rgb(0.392157%,0.392157%,8.627451%);fill-opacity:1;stroke-width:0.75;stroke-linecap:round;stroke-linejoin:round;stroke:rgb(0%,0%,0%);stroke-opacity:1;stroke-miterlimit:10;" d="M 133.042969 278.132812 L 134.089844 278.132812 L 134.089844 276.027344 L 133.042969 276.027344 Z M 133.042969 278.132812 "/>
<path style="fill-rule:nonzero;fill:rgb(0.392157%,0.392157%,8.627451%);fill-opacity:1;stroke-width:0.75;stroke-linecap:round;stroke-linejoin:round;stroke:rgb(0%,0%,0%);stroke-opacity:1;stroke-miterlimit:10;" d="M 134.09375 278.132812 L 135.140625 278.132812 L 135.140625 273.917969 L 134.09375 273.917969 Z M 134.09375 278.132812 "/>
<path style="fill:none;stroke-width:0.75;stroke-linecap:round;stroke-linejoin:round;stroke:rgb(0%,0%,0%);stroke-opacity:1;stroke-miterlimit:10;" d="M 135.140625 278.132812 L 136.1875 278.132812 Z M 135.140625 278.132812 "/>
<path style="fill-rule:nonzero;fill:rgb(0.392157%,0.392157%,8.627451%);fill-opacity:1;stroke-width:0.75;stroke-linecap:round;stroke-linejoin:round;stroke:rgb(0%,0%,0%);stroke-opacity:1;stroke-miterlimit:10;" d="M 136.191406 278.132812 L 137.238281 278.132812 L 137.238281 276.027344 L 136.191406 276.027344 Z M 136.191406 278.132812 "/>
<path style="fill-rule:nonzero;fill:rgb(0.392157%,0.392157%,8.627451%);fill-opacity:1;stroke-width:0.75;stroke-linecap:round;stroke-linejoin:round;stroke:rgb(0%,0%,0%);stroke-opacity:1;stroke-miterlimit:10;" d="M 137.238281 278.132812 L 138.285156 278.132812 L 138.285156 276.027344 L 137.238281 276.027344 Z M 137.238281 278.132812 "/>
<path style="fill-rule:nonzero;fill:rgb(0.392157%,0.392157%,8.627451%);fill-opacity:1;stroke-width:0.75;stroke-linecap:round;stroke-linejoin:round;stroke:rgb(0%,0%,0%);stroke-opacity:1;stroke-miterlimit:10;" d="M 138.289062 278.132812 L 139.335938 278.132812 L 139.335938 271.8125 L 138.289062 271.8125 Z M 138.289062 278.132812 "/>
<path style="fill:none;stroke-width:0.75;stroke-linecap:round;stroke-linejoin:round;stroke:rgb(0%,0%,0%);stroke-opacity:1;stroke-miterlimit:10;" d="M 139.335938 278.132812 L 140.382812 278.132812 Z M 139.335938 278.132812 "/>
<path style="fill:none;stroke-width:0.75;stroke-linecap:round;stroke-linejoin:round;stroke:rgb(0%,0%,0%);stroke-opacity:1;stroke-miterlimit:10;" d="M 140.386719 278.132812 L 141.433594 278.132812 Z M 140.386719 278.132812 "/>
<path style="fill:none;stroke-width:0.75;stroke-linecap:round;stroke-linejoin:round;stroke:rgb(0%,0%,0%);stroke-opacity:1;stroke-miterlimit:10;" d="M 141.433594 278.132812 L 142.480469 278.132812 Z M 141.433594 278.132812 "/>
<path style="fill:none;stroke-width:0.75;stroke-linecap:round;stroke-linejoin:round;stroke:rgb(0%,0%,0%);stroke-opacity:1;stroke-miterlimit:10;" d="M 142.484375 278.132812 L 143.53125 278.132812 Z M 142.484375 278.132812 "/>
<path style="fill:none;stroke-width:0.75;stroke-linecap:round;stroke-linejoin:round;stroke:rgb(0%,0%,0%);stroke-opacity:1;stroke-miterlimit:10;" d="M 143.53125 278.132812 L 144.578125 278.132812 Z M 143.53125 278.132812 "/>
<path style="fill-rule:nonzero;fill:rgb(0.392157%,0.392157%,8.627451%);fill-opacity:1;stroke-width:0.75;stroke-linecap:round;stroke-linejoin:round;stroke:rgb(0%,0%,0%);stroke-opacity:1;stroke-miterlimit:10;" d="M 144.582031 278.132812 L 145.628906 278.132812 L 145.628906 276.027344 L 144.582031 276.027344 Z M 144.582031 278.132812 "/>
<path style="fill:none;stroke-width:0.75;stroke-linecap:round;stroke-linejoin:round;stroke:rgb(0%,0%,0%);stroke-opacity:1;stroke-miterlimit:10;" d="M 145.628906 278.132812 L 146.675781 278.132812 Z M 145.628906 278.132812 "/>
<path style="fill:none;stroke-width:0.75;stroke-linecap:round;stroke-linejoin:round;stroke:rgb(0%,0%,0%);stroke-opacity:1;stroke-miterlimit:10;" d="M 146.679688 278.132812 L 147.726562 278.132812 Z M 146.679688 278.132812 "/>
<path style="fill:none;stroke-width:0.75;stroke-linecap:round;stroke-linejoin:round;stroke:rgb(0%,0%,0%);stroke-opacity:1;stroke-miterlimit:10;" d="M 147.726562 278.132812 L 148.773438 278.132812 Z M 147.726562 278.132812 "/>
<path style="fill-rule:nonzero;fill:rgb(0.392157%,0.392157%,8.627451%);fill-opacity:1;stroke-width:0.75;stroke-linecap:round;stroke-linejoin:round;stroke:rgb(0%,0%,0%);stroke-opacity:1;stroke-miterlimit:10;" d="M 148.777344 278.132812 L 149.824219 278.132812 L 149.824219 276.027344 L 148.777344 276.027344 Z M 148.777344 278.132812 "/>
<path style="fill-rule:nonzero;fill:rgb(0.392157%,0.392157%,8.627451%);fill-opacity:1;stroke-width:0.75;stroke-linecap:round;stroke-linejoin:round;stroke:rgb(0%,0%,0%);stroke-opacity:1;stroke-miterlimit:10;" d="M 149.824219 278.132812 L 150.871094 278.132812 L 150.871094 273.917969 L 149.824219 273.917969 Z M 149.824219 278.132812 "/>
<path style="fill-rule:nonzero;fill:rgb(0.392157%,0.392157%,8.627451%);fill-opacity:1;stroke-width:0.75;stroke-linecap:round;stroke-linejoin:round;stroke:rgb(0%,0%,0%);stroke-opacity:1;stroke-miterlimit:10;" d="M 150.875 278.132812 L 151.921875 278.132812 L 151.921875 273.917969 L 150.875 273.917969 Z M 150.875 278.132812 "/>
<path style="fill:none;stroke-width:0.75;stroke-linecap:round;stroke-linejoin:round;stroke:rgb(0%,0%,0%);stroke-opacity:1;stroke-miterlimit:10;" d="M 151.921875 278.132812 L 152.96875 278.132812 Z M 151.921875 278.132812 "/>
<path style="fill-rule:nonzero;fill:rgb(0.392157%,0.392157%,8.627451%);fill-opacity:1;stroke-width:0.75;stroke-linecap:round;stroke-linejoin:round;stroke:rgb(0%,0%,0%);stroke-opacity:1;stroke-miterlimit:10;" d="M 152.972656 278.132812 L 154.019531 278.132812 L 154.019531 276.027344 L 152.972656 276.027344 Z M 152.972656 278.132812 "/>
<path style="fill-rule:nonzero;fill:rgb(0.392157%,0.392157%,8.627451%);fill-opacity:1;stroke-width:0.75;stroke-linecap:round;stroke-linejoin:round;stroke:rgb(0%,0%,0%);stroke-opacity:1;stroke-miterlimit:10;" d="M 154.019531 278.132812 L 155.066406 278.132812 L 155.066406 273.917969 L 154.019531 273.917969 Z M 154.019531 278.132812 "/>
<path style="fill-rule:nonzero;fill:rgb(0.392157%,0.392157%,8.627451%);fill-opacity:1;stroke-width:0.75;stroke-linecap:round;stroke-linejoin:round;stroke:rgb(0%,0%,0%);stroke-opacity:1;stroke-miterlimit:10;" d="M 155.070312 278.132812 L 156.117188 278.132812 L 156.117188 276.027344 L 155.070312 276.027344 Z M 155.070312 278.132812 "/>
<path style="fill-rule:nonzero;fill:rgb(0.392157%,0.392157%,8.627451%);fill-opacity:1;stroke-width:0.75;stroke-linecap:round;stroke-linejoin:round;stroke:rgb(0%,0%,0%);stroke-opacity:1;stroke-miterlimit:10;" d="M 156.117188 278.132812 L 157.164062 278.132812 L 157.164062 276.027344 L 156.117188 276.027344 Z M 156.117188 278.132812 "/>
<path style="fill-rule:nonzero;fill:rgb(0.392157%,0.392157%,8.627451%);fill-opacity:1;stroke-width:0.75;stroke-linecap:round;stroke-linejoin:round;stroke:rgb(0%,0%,0%);stroke-opacity:1;stroke-miterlimit:10;" d="M 157.167969 278.132812 L 158.214844 278.132812 L 158.214844 276.027344 L 157.167969 276.027344 Z M 157.167969 278.132812 "/>
<path style="fill-rule:nonzero;fill:rgb(0.392157%,0.392157%,8.627451%);fill-opacity:1;stroke-width:0.75;stroke-linecap:round;stroke-linejoin:round;stroke:rgb(0%,0%,0%);stroke-opacity:1;stroke-miterlimit:10;" d="M 158.214844 278.132812 L 159.261719 278.132812 L 159.261719 276.027344 L 158.214844 276.027344 Z M 158.214844 278.132812 "/>
<path style="fill-rule:nonzero;fill:rgb(0.392157%,0.392157%,8.627451%);fill-opacity:1;stroke-width:0.75;stroke-linecap:round;stroke-linejoin:round;stroke:rgb(0%,0%,0%);stroke-opacity:1;stroke-miterlimit:10;" d="M 159.265625 278.132812 L 160.3125 278.132812 L 160.3125 273.917969 L 159.265625 273.917969 Z M 159.265625 278.132812 "/>
<path style="fill-rule:nonzero;fill:rgb(0.392157%,0.392157%,8.627451%);fill-opacity:1;stroke-width:0.75;stroke-linecap:round;stroke-linejoin:round;stroke:rgb(0%,0%,0%);stroke-opacity:1;stroke-miterlimit:10;" d="M 160.3125 278.132812 L 161.359375 278.132812 L 161.359375 271.8125 L 160.3125 271.8125 Z M 160.3125 278.132812 "/>
<path style="fill-rule:nonzero;fill:rgb(0.392157%,0.392157%,8.627451%);fill-opacity:1;stroke-width:0.75;stroke-linecap:round;stroke-linejoin:round;stroke:rgb(0%,0%,0%);stroke-opacity:1;stroke-miterlimit:10;" d="M 161.363281 278.132812 L 162.410156 278.132812 L 162.410156 271.8125 L 161.363281 271.8125 Z M 161.363281 278.132812 "/>
<path style="fill-rule:nonzero;fill:rgb(0.392157%,0.392157%,8.627451%);fill-opacity:1;stroke-width:0.75;stroke-linecap:round;stroke-linejoin:round;stroke:rgb(0%,0%,0%);stroke-opacity:1;stroke-miterlimit:10;" d="M 162.410156 278.132812 L 163.457031 278.132812 L 163.457031 273.917969 L 162.410156 273.917969 Z M 162.410156 278.132812 "/>
<path style="fill-rule:nonzero;fill:rgb(0.392157%,0.392157%,8.627451%);fill-opacity:1;stroke-width:0.75;stroke-linecap:round;stroke-linejoin:round;stroke:rgb(0%,0%,0%);stroke-opacity:1;stroke-miterlimit:10;" d="M 163.460938 278.132812 L 164.507812 278.132812 L 164.507812 273.917969 L 163.460938 273.917969 Z M 163.460938 278.132812 "/>
<path style="fill-rule:nonzero;fill:rgb(0.392157%,0.392157%,8.627451%);fill-opacity:1;stroke-width:0.75;stroke-linecap:round;stroke-linejoin:round;stroke:rgb(0%,0%,0%);stroke-opacity:1;stroke-miterlimit:10;" d="M 164.507812 278.132812 L 165.554688 278.132812 L 165.554688 271.8125 L 164.507812 271.8125 Z M 164.507812 278.132812 "/>
<path style="fill-rule:nonzero;fill:rgb(0.392157%,0.392157%,8.627451%);fill-opacity:1;stroke-width:0.75;stroke-linecap:round;stroke-linejoin:round;stroke:rgb(0%,0%,0%);stroke-opacity:1;stroke-miterlimit:10;" d="M 165.558594 278.132812 L 166.605469 278.132812 L 166.605469 271.8125 L 165.558594 271.8125 Z M 165.558594 278.132812 "/>
<path style="fill-rule:nonzero;fill:rgb(0.392157%,0.392157%,8.627451%);fill-opacity:1;stroke-width:0.75;stroke-linecap:round;stroke-linejoin:round;stroke:rgb(0%,0%,0%);stroke-opacity:1;stroke-miterlimit:10;" d="M 166.605469 278.132812 L 167.652344 278.132812 L 167.652344 276.027344 L 166.605469 276.027344 Z M 166.605469 278.132812 "/>
<path style="fill:none;stroke-width:0.75;stroke-linecap:round;stroke-linejoin:round;stroke:rgb(0%,0%,0%);stroke-opacity:1;stroke-miterlimit:10;" d="M 167.65625 278.132812 L 168.703125 278.132812 Z M 167.65625 278.132812 "/>
<path style="fill-rule:nonzero;fill:rgb(0.392157%,0.392157%,8.627451%);fill-opacity:1;stroke-width:0.75;stroke-linecap:round;stroke-linejoin:round;stroke:rgb(0%,0%,0%);stroke-opacity:1;stroke-miterlimit:10;" d="M 168.703125 278.132812 L 169.75 278.132812 L 169.75 273.917969 L 168.703125 273.917969 Z M 168.703125 278.132812 "/>
<path style="fill-rule:nonzero;fill:rgb(0.392157%,0.392157%,8.627451%);fill-opacity:1;stroke-width:0.75;stroke-linecap:round;stroke-linejoin:round;stroke:rgb(0%,0%,0%);stroke-opacity:1;stroke-miterlimit:10;" d="M 169.753906 278.132812 L 170.800781 278.132812 L 170.800781 276.027344 L 169.753906 276.027344 Z M 169.753906 278.132812 "/>
<path style="fill-rule:nonzero;fill:rgb(0.392157%,0.392157%,8.627451%);fill-opacity:1;stroke-width:0.75;stroke-linecap:round;stroke-linejoin:round;stroke:rgb(0%,0%,0%);stroke-opacity:1;stroke-miterlimit:10;" d="M 170.800781 278.132812 L 171.847656 278.132812 L 171.847656 276.027344 L 170.800781 276.027344 Z M 170.800781 278.132812 "/>
<path style="fill-rule:nonzero;fill:rgb(0.392157%,0.392157%,8.627451%);fill-opacity:1;stroke-width:0.75;stroke-linecap:round;stroke-linejoin:round;stroke:rgb(0%,0%,0%);stroke-opacity:1;stroke-miterlimit:10;" d="M 171.851562 278.132812 L 172.898438 278.132812 L 172.898438 273.917969 L 171.851562 273.917969 Z M 171.851562 278.132812 "/>
<path style="fill-rule:nonzero;fill:rgb(0.392157%,0.392157%,8.627451%);fill-opacity:1;stroke-width:0.75;stroke-linecap:round;stroke-linejoin:round;stroke:rgb(0%,0%,0%);stroke-opacity:1;stroke-miterlimit:10;" d="M 172.898438 278.132812 L 173.945312 278.132812 L 173.945312 273.917969 L 172.898438 273.917969 Z M 172.898438 278.132812 "/>
<path style="fill-rule:nonzero;fill:rgb(0.392157%,0.392157%,8.627451%);fill-opacity:1;stroke-width:0.75;stroke-linecap:round;stroke-linejoin:round;stroke:rgb(0%,0%,0%);stroke-opacity:1;stroke-miterlimit:10;" d="M 173.949219 278.132812 L 174.996094 278.132812 L 174.996094 273.917969 L 173.949219 273.917969 Z M 173.949219 278.132812 "/>
<path style="fill-rule:nonzero;fill:rgb(0.392157%,0.392157%,8.627451%);fill-opacity:1;stroke-width:0.75;stroke-linecap:round;stroke-linejoin:round;stroke:rgb(0%,0%,0%);stroke-opacity:1;stroke-miterlimit:10;" d="M 174.996094 278.132812 L 176.042969 278.132812 L 176.042969 273.917969 L 174.996094 273.917969 Z M 174.996094 278.132812 "/>
<path style="fill-rule:nonzero;fill:rgb(0.392157%,0.392157%,8.627451%);fill-opacity:1;stroke-width:0.75;stroke-linecap:round;stroke-linejoin:round;stroke:rgb(0%,0%,0%);stroke-opacity:1;stroke-miterlimit:10;" d="M 176.046875 278.132812 L 177.09375 278.132812 L 177.09375 269.707031 L 176.046875 269.707031 Z M 176.046875 278.132812 "/>
<path style="fill-rule:nonzero;fill:rgb(0.392157%,0.392157%,8.627451%);fill-opacity:1;stroke-width:0.75;stroke-linecap:round;stroke-linejoin:round;stroke:rgb(0%,0%,0%);stroke-opacity:1;stroke-miterlimit:10;" d="M 177.09375 278.132812 L 178.140625 278.132812 L 178.140625 267.597656 L 177.09375 267.597656 Z M 177.09375 278.132812 "/>
<path style="fill-rule:nonzero;fill:rgb(0.392157%,0.392157%,8.627451%);fill-opacity:1;stroke-width:0.75;stroke-linecap:round;stroke-linejoin:round;stroke:rgb(0%,0%,0%);stroke-opacity:1;stroke-miterlimit:10;" d="M 178.144531 278.132812 L 179.191406 278.132812 L 179.191406 271.8125 L 178.144531 271.8125 Z M 178.144531 278.132812 "/>
<path style="fill-rule:nonzero;fill:rgb(0.392157%,0.392157%,8.627451%);fill-opacity:1;stroke-width:0.75;stroke-linecap:round;stroke-linejoin:round;stroke:rgb(0%,0%,0%);stroke-opacity:1;stroke-miterlimit:10;" d="M 179.191406 278.132812 L 180.238281 278.132812 L 180.238281 261.28125 L 179.191406 261.28125 Z M 179.191406 278.132812 "/>
<path style="fill-rule:nonzero;fill:rgb(0.392157%,0.392157%,8.627451%);fill-opacity:1;stroke-width:0.75;stroke-linecap:round;stroke-linejoin:round;stroke:rgb(0%,0%,0%);stroke-opacity:1;stroke-miterlimit:10;" d="M 180.242188 278.132812 L 181.289062 278.132812 L 181.289062 276.027344 L 180.242188 276.027344 Z M 180.242188 278.132812 "/>
<path style="fill-rule:nonzero;fill:rgb(0.392157%,0.392157%,8.627451%);fill-opacity:1;stroke-width:0.75;stroke-linecap:round;stroke-linejoin:round;stroke:rgb(0%,0%,0%);stroke-opacity:1;stroke-miterlimit:10;" d="M 181.289062 278.132812 L 182.335938 278.132812 L 182.335938 259.171875 L 181.289062 259.171875 Z M 181.289062 278.132812 "/>
<path style="fill-rule:nonzero;fill:rgb(0.392157%,0.392157%,8.627451%);fill-opacity:1;stroke-width:0.75;stroke-linecap:round;stroke-linejoin:round;stroke:rgb(0%,0%,0%);stroke-opacity:1;stroke-miterlimit:10;" d="M 182.339844 278.132812 L 183.386719 278.132812 L 183.386719 261.28125 L 182.339844 261.28125 Z M 182.339844 278.132812 "/>
<path style="fill-rule:nonzero;fill:rgb(0.392157%,0.392157%,8.627451%);fill-opacity:1;stroke-width:0.75;stroke-linecap:round;stroke-linejoin:round;stroke:rgb(0%,0%,0%);stroke-opacity:1;stroke-miterlimit:10;" d="M 183.386719 278.132812 L 184.433594 278.132812 L 184.433594 265.492188 L 183.386719 265.492188 Z M 183.386719 278.132812 "/>
<path style="fill-rule:nonzero;fill:rgb(0.392157%,0.392157%,8.627451%);fill-opacity:1;stroke-width:0.75;stroke-linecap:round;stroke-linejoin:round;stroke:rgb(0%,0%,0%);stroke-opacity:1;stroke-miterlimit:10;" d="M 184.4375 278.132812 L 185.484375 278.132812 L 185.484375 269.707031 L 184.4375 269.707031 Z M 184.4375 278.132812 "/>
<path style="fill-rule:nonzero;fill:rgb(0.392157%,0.392157%,8.627451%);fill-opacity:1;stroke-width:0.75;stroke-linecap:round;stroke-linejoin:round;stroke:rgb(0%,0%,0%);stroke-opacity:1;stroke-miterlimit:10;" d="M 185.484375 278.132812 L 186.53125 278.132812 L 186.53125 271.8125 L 185.484375 271.8125 Z M 185.484375 278.132812 "/>
<path style="fill-rule:nonzero;fill:rgb(0.392157%,0.392157%,8.627451%);fill-opacity:1;stroke-width:0.75;stroke-linecap:round;stroke-linejoin:round;stroke:rgb(0%,0%,0%);stroke-opacity:1;stroke-miterlimit:10;" d="M 186.535156 278.132812 L 187.582031 278.132812 L 187.582031 269.707031 L 186.535156 269.707031 Z M 186.535156 278.132812 "/>
<path style="fill-rule:nonzero;fill:rgb(0.392157%,0.392157%,8.627451%);fill-opacity:1;stroke-width:0.75;stroke-linecap:round;stroke-linejoin:round;stroke:rgb(0%,0%,0%);stroke-opacity:1;stroke-miterlimit:10;" d="M 187.582031 278.132812 L 188.628906 278.132812 L 188.628906 267.597656 L 187.582031 267.597656 Z M 187.582031 278.132812 "/>
<path style="fill-rule:nonzero;fill:rgb(0.392157%,0.392157%,8.627451%);fill-opacity:1;stroke-width:0.75;stroke-linecap:round;stroke-linejoin:round;stroke:rgb(0%,0%,0%);stroke-opacity:1;stroke-miterlimit:10;" d="M 188.632812 278.132812 L 189.679688 278.132812 L 189.679688 269.707031 L 188.632812 269.707031 Z M 188.632812 278.132812 "/>
<path style="fill-rule:nonzero;fill:rgb(0.392157%,0.392157%,8.627451%);fill-opacity:1;stroke-width:0.75;stroke-linecap:round;stroke-linejoin:round;stroke:rgb(0%,0%,0%);stroke-opacity:1;stroke-miterlimit:10;" d="M 189.679688 278.132812 L 190.726562 278.132812 L 190.726562 271.8125 L 189.679688 271.8125 Z M 189.679688 278.132812 "/>
<path style="fill-rule:nonzero;fill:rgb(0.392157%,0.392157%,8.627451%);fill-opacity:1;stroke-width:0.75;stroke-linecap:round;stroke-linejoin:round;stroke:rgb(0%,0%,0%);stroke-opacity:1;stroke-miterlimit:10;" d="M 190.730469 278.132812 L 191.777344 278.132812 L 191.777344 271.8125 L 190.730469 271.8125 Z M 190.730469 278.132812 "/>
<path style="fill:none;stroke-width:0.75;stroke-linecap:round;stroke-linejoin:round;stroke:rgb(0%,0%,0%);stroke-opacity:1;stroke-miterlimit:10;" d="M 191.777344 278.132812 L 192.824219 278.132812 Z M 191.777344 278.132812 "/>
<path style="fill-rule:nonzero;fill:rgb(0.392157%,0.392157%,8.627451%);fill-opacity:1;stroke-width:0.75;stroke-linecap:round;stroke-linejoin:round;stroke:rgb(0%,0%,0%);stroke-opacity:1;stroke-miterlimit:10;" d="M 192.828125 278.132812 L 193.875 278.132812 L 193.875 92.746094 L 192.828125 92.746094 Z M 192.828125 278.132812 "/>
<path style="fill-rule:nonzero;fill:rgb(0.392157%,0.392157%,8.627451%);fill-opacity:1;stroke-width:0.75;stroke-linecap:round;stroke-linejoin:round;stroke:rgb(0%,0%,0%);stroke-opacity:1;stroke-miterlimit:10;" d="M 193.875 278.132812 L 194.921875 278.132812 L 194.921875 276.027344 L 193.875 276.027344 Z M 193.875 278.132812 "/>
<path style="fill-rule:nonzero;fill:rgb(0.392157%,0.392157%,8.627451%);fill-opacity:1;stroke-width:0.75;stroke-linecap:round;stroke-linejoin:round;stroke:rgb(0%,0%,0%);stroke-opacity:1;stroke-miterlimit:10;" d="M 194.925781 278.132812 L 195.972656 278.132812 L 195.972656 86.425781 L 194.925781 86.425781 Z M 194.925781 278.132812 "/>
<path style="fill-rule:nonzero;fill:rgb(0.392157%,0.392157%,8.627451%);fill-opacity:1;stroke-width:0.75;stroke-linecap:round;stroke-linejoin:round;stroke:rgb(0%,0%,0%);stroke-opacity:1;stroke-miterlimit:10;" d="M 195.972656 278.132812 L 197.019531 278.132812 L 197.019531 269.707031 L 195.972656 269.707031 Z M 195.972656 278.132812 "/>
<path style="fill-rule:nonzero;fill:rgb(0.392157%,0.392157%,8.627451%);fill-opacity:1;stroke-width:0.75;stroke-linecap:round;stroke-linejoin:round;stroke:rgb(0%,0%,0%);stroke-opacity:1;stroke-miterlimit:10;" d="M 197.023438 278.132812 L 198.070312 278.132812 L 198.070312 269.707031 L 197.023438 269.707031 Z M 197.023438 278.132812 "/>
<path style="fill-rule:nonzero;fill:rgb(0.392157%,0.392157%,8.627451%);fill-opacity:1;stroke-width:0.75;stroke-linecap:round;stroke-linejoin:round;stroke:rgb(0%,0%,0%);stroke-opacity:1;stroke-miterlimit:10;" d="M 198.070312 278.132812 L 199.117188 278.132812 L 199.117188 269.707031 L 198.070312 269.707031 Z M 198.070312 278.132812 "/>
<path style="fill-rule:nonzero;fill:rgb(0.392157%,0.392157%,8.627451%);fill-opacity:1;stroke-width:0.75;stroke-linecap:round;stroke-linejoin:round;stroke:rgb(0%,0%,0%);stroke-opacity:1;stroke-miterlimit:10;" d="M 199.121094 278.132812 L 200.167969 278.132812 L 200.167969 276.027344 L 199.121094 276.027344 Z M 199.121094 278.132812 "/>
<path style="fill-rule:nonzero;fill:rgb(0.392157%,0.392157%,8.627451%);fill-opacity:1;stroke-width:0.75;stroke-linecap:round;stroke-linejoin:round;stroke:rgb(0%,0%,0%);stroke-opacity:1;stroke-miterlimit:10;" d="M 200.167969 278.132812 L 201.214844 278.132812 L 201.214844 269.707031 L 200.167969 269.707031 Z M 200.167969 278.132812 "/>
<path style="fill-rule:nonzero;fill:rgb(0.392157%,0.392157%,8.627451%);fill-opacity:1;stroke-width:0.75;stroke-linecap:round;stroke-linejoin:round;stroke:rgb(0%,0%,0%);stroke-opacity:1;stroke-miterlimit:10;" d="M 201.21875 278.132812 L 202.265625 278.132812 L 202.265625 269.707031 L 201.21875 269.707031 Z M 201.21875 278.132812 "/>
<path style="fill-rule:nonzero;fill:rgb(0.392157%,0.392157%,8.627451%);fill-opacity:1;stroke-width:0.75;stroke-linecap:round;stroke-linejoin:round;stroke:rgb(0%,0%,0%);stroke-opacity:1;stroke-miterlimit:10;" d="M 202.265625 278.132812 L 203.3125 278.132812 L 203.3125 265.492188 L 202.265625 265.492188 Z M 202.265625 278.132812 "/>
<path style="fill-rule:nonzero;fill:rgb(0.392157%,0.392157%,8.627451%);fill-opacity:1;stroke-width:0.75;stroke-linecap:round;stroke-linejoin:round;stroke:rgb(0%,0%,0%);stroke-opacity:1;stroke-miterlimit:10;" d="M 203.316406 278.132812 L 204.363281 278.132812 L 204.363281 271.8125 L 203.316406 271.8125 Z M 203.316406 278.132812 "/>
<path style="fill-rule:nonzero;fill:rgb(0.392157%,0.392157%,8.627451%);fill-opacity:1;stroke-width:0.75;stroke-linecap:round;stroke-linejoin:round;stroke:rgb(0%,0%,0%);stroke-opacity:1;stroke-miterlimit:10;" d="M 204.363281 278.132812 L 205.410156 278.132812 L 205.410156 263.386719 L 204.363281 263.386719 Z M 204.363281 278.132812 "/>
<path style="fill-rule:nonzero;fill:rgb(0.392157%,0.392157%,8.627451%);fill-opacity:1;stroke-width:0.75;stroke-linecap:round;stroke-linejoin:round;stroke:rgb(0%,0%,0%);stroke-opacity:1;stroke-miterlimit:10;" d="M 205.414062 278.132812 L 206.460938 278.132812 L 206.460938 276.027344 L 205.414062 276.027344 Z M 205.414062 278.132812 "/>
<path style="fill-rule:nonzero;fill:rgb(0.392157%,0.392157%,8.627451%);fill-opacity:1;stroke-width:0.75;stroke-linecap:round;stroke-linejoin:round;stroke:rgb(0%,0%,0%);stroke-opacity:1;stroke-miterlimit:10;" d="M 206.460938 278.132812 L 207.507812 278.132812 L 207.507812 269.707031 L 206.460938 269.707031 Z M 206.460938 278.132812 "/>
<path style="fill-rule:nonzero;fill:rgb(0.392157%,0.392157%,8.627451%);fill-opacity:1;stroke-width:0.75;stroke-linecap:round;stroke-linejoin:round;stroke:rgb(0%,0%,0%);stroke-opacity:1;stroke-miterlimit:10;" d="M 207.511719 278.132812 L 208.558594 278.132812 L 208.558594 273.917969 L 207.511719 273.917969 Z M 207.511719 278.132812 "/>
<path style="fill-rule:nonzero;fill:rgb(0.392157%,0.392157%,8.627451%);fill-opacity:1;stroke-width:0.75;stroke-linecap:round;stroke-linejoin:round;stroke:rgb(0%,0%,0%);stroke-opacity:1;stroke-miterlimit:10;" d="M 208.558594 278.132812 L 209.605469 278.132812 L 209.605469 269.707031 L 208.558594 269.707031 Z M 208.558594 278.132812 "/>
<path style="fill-rule:nonzero;fill:rgb(0.392157%,0.392157%,8.627451%);fill-opacity:1;stroke-width:0.75;stroke-linecap:round;stroke-linejoin:round;stroke:rgb(0%,0%,0%);stroke-opacity:1;stroke-miterlimit:10;" d="M 209.609375 278.132812 L 210.65625 278.132812 L 210.65625 269.707031 L 209.609375 269.707031 Z M 209.609375 278.132812 "/>
<path style="fill-rule:nonzero;fill:rgb(0.392157%,0.392157%,8.627451%);fill-opacity:1;stroke-width:0.75;stroke-linecap:round;stroke-linejoin:round;stroke:rgb(0%,0%,0%);stroke-opacity:1;stroke-miterlimit:10;" d="M 210.65625 278.132812 L 211.703125 278.132812 L 211.703125 273.917969 L 210.65625 273.917969 Z M 210.65625 278.132812 "/>
<path style="fill-rule:nonzero;fill:rgb(0.392157%,0.392157%,8.627451%);fill-opacity:1;stroke-width:0.75;stroke-linecap:round;stroke-linejoin:round;stroke:rgb(0%,0%,0%);stroke-opacity:1;stroke-miterlimit:10;" d="M 211.707031 278.132812 L 212.753906 278.132812 L 212.753906 273.917969 L 211.707031 273.917969 Z M 211.707031 278.132812 "/>
<path style="fill-rule:nonzero;fill:rgb(0.392157%,0.392157%,8.627451%);fill-opacity:1;stroke-width:0.75;stroke-linecap:round;stroke-linejoin:round;stroke:rgb(0%,0%,0%);stroke-opacity:1;stroke-miterlimit:10;" d="M 212.753906 278.132812 L 213.800781 278.132812 L 213.800781 273.917969 L 212.753906 273.917969 Z M 212.753906 278.132812 "/>
<path style="fill-rule:nonzero;fill:rgb(0.392157%,0.392157%,8.627451%);fill-opacity:1;stroke-width:0.75;stroke-linecap:round;stroke-linejoin:round;stroke:rgb(0%,0%,0%);stroke-opacity:1;stroke-miterlimit:10;" d="M 213.804688 278.132812 L 214.851562 278.132812 L 214.851562 271.8125 L 213.804688 271.8125 Z M 213.804688 278.132812 "/>
<path style="fill-rule:nonzero;fill:rgb(0.392157%,0.392157%,8.627451%);fill-opacity:1;stroke-width:0.75;stroke-linecap:round;stroke-linejoin:round;stroke:rgb(0%,0%,0%);stroke-opacity:1;stroke-miterlimit:10;" d="M 214.851562 278.132812 L 215.898438 278.132812 L 215.898438 271.8125 L 214.851562 271.8125 Z M 214.851562 278.132812 "/>
<path style="fill-rule:nonzero;fill:rgb(0.392157%,0.392157%,8.627451%);fill-opacity:1;stroke-width:0.75;stroke-linecap:round;stroke-linejoin:round;stroke:rgb(0%,0%,0%);stroke-opacity:1;stroke-miterlimit:10;" d="M 215.902344 278.132812 L 216.949219 278.132812 L 216.949219 257.066406 L 215.902344 257.066406 Z M 215.902344 278.132812 "/>
<path style="fill-rule:nonzero;fill:rgb(0.392157%,0.392157%,8.627451%);fill-opacity:1;stroke-width:0.75;stroke-linecap:round;stroke-linejoin:round;stroke:rgb(0%,0%,0%);stroke-opacity:1;stroke-miterlimit:10;" d="M 216.949219 278.132812 L 217.996094 278.132812 L 217.996094 269.707031 L 216.949219 269.707031 Z M 216.949219 278.132812 "/>
<path style="fill-rule:nonzero;fill:rgb(0.392157%,0.392157%,8.627451%);fill-opacity:1;stroke-width:0.75;stroke-linecap:round;stroke-linejoin:round;stroke:rgb(0%,0%,0%);stroke-opacity:1;stroke-miterlimit:10;" d="M 218 278.132812 L 219.046875 278.132812 L 219.046875 273.917969 L 218 273.917969 Z M 218 278.132812 "/>
<path style="fill-rule:nonzero;fill:rgb(0.392157%,0.392157%,8.627451%);fill-opacity:1;stroke-width:0.75;stroke-linecap:round;stroke-linejoin:round;stroke:rgb(0%,0%,0%);stroke-opacity:1;stroke-miterlimit:10;" d="M 219.046875 278.132812 L 220.09375 278.132812 L 220.09375 276.027344 L 219.046875 276.027344 Z M 219.046875 278.132812 "/>
<path style="fill-rule:nonzero;fill:rgb(0.392157%,0.392157%,8.627451%);fill-opacity:1;stroke-width:0.75;stroke-linecap:round;stroke-linejoin:round;stroke:rgb(0%,0%,0%);stroke-opacity:1;stroke-miterlimit:10;" d="M 220.097656 278.132812 L 221.144531 278.132812 L 221.144531 273.917969 L 220.097656 273.917969 Z M 220.097656 278.132812 "/>
<path style="fill-rule:nonzero;fill:rgb(0.392157%,0.392157%,8.627451%);fill-opacity:1;stroke-width:0.75;stroke-linecap:round;stroke-linejoin:round;stroke:rgb(0%,0%,0%);stroke-opacity:1;stroke-miterlimit:10;" d="M 221.144531 278.132812 L 222.191406 278.132812 L 222.191406 269.707031 L 221.144531 269.707031 Z M 221.144531 278.132812 "/>
<path style="fill:none;stroke-width:0.75;stroke-linecap:round;stroke-linejoin:round;stroke:rgb(0%,0%,0%);stroke-opacity:1;stroke-miterlimit:10;" d="M 222.195312 278.132812 L 223.242188 278.132812 Z M 222.195312 278.132812 "/>
<path style="fill-rule:nonzero;fill:rgb(0.392157%,0.392157%,8.627451%);fill-opacity:1;stroke-width:0.75;stroke-linecap:round;stroke-linejoin:round;stroke:rgb(0%,0%,0%);stroke-opacity:1;stroke-miterlimit:10;" d="M 223.242188 278.132812 L 224.289062 278.132812 L 224.289062 273.917969 L 223.242188 273.917969 Z M 223.242188 278.132812 "/>
<path style="fill:none;stroke-width:0.75;stroke-linecap:round;stroke-linejoin:round;stroke:rgb(0%,0%,0%);stroke-opacity:1;stroke-miterlimit:10;" d="M 224.292969 278.132812 L 225.339844 278.132812 Z M 224.292969 278.132812 "/>
<path style="fill-rule:nonzero;fill:rgb(0.392157%,0.392157%,8.627451%);fill-opacity:1;stroke-width:0.75;stroke-linecap:round;stroke-linejoin:round;stroke:rgb(0%,0%,0%);stroke-opacity:1;stroke-miterlimit:10;" d="M 225.339844 278.132812 L 226.386719 278.132812 L 226.386719 271.8125 L 225.339844 271.8125 Z M 225.339844 278.132812 "/>
<path style="fill-rule:nonzero;fill:rgb(0.392157%,0.392157%,8.627451%);fill-opacity:1;stroke-width:0.75;stroke-linecap:round;stroke-linejoin:round;stroke:rgb(0%,0%,0%);stroke-opacity:1;stroke-miterlimit:10;" d="M 226.390625 278.132812 L 227.4375 278.132812 L 227.4375 273.917969 L 226.390625 273.917969 Z M 226.390625 278.132812 "/>
<path style="fill-rule:nonzero;fill:rgb(0.392157%,0.392157%,8.627451%);fill-opacity:1;stroke-width:0.75;stroke-linecap:round;stroke-linejoin:round;stroke:rgb(0%,0%,0%);stroke-opacity:1;stroke-miterlimit:10;" d="M 227.4375 278.132812 L 228.484375 278.132812 L 228.484375 276.027344 L 227.4375 276.027344 Z M 227.4375 278.132812 "/>
<path style="fill-rule:nonzero;fill:rgb(0.392157%,0.392157%,8.627451%);fill-opacity:1;stroke-width:0.75;stroke-linecap:round;stroke-linejoin:round;stroke:rgb(0%,0%,0%);stroke-opacity:1;stroke-miterlimit:10;" d="M 228.488281 278.132812 L 229.535156 278.132812 L 229.535156 271.8125 L 228.488281 271.8125 Z M 228.488281 278.132812 "/>
<path style="fill:none;stroke-width:0.75;stroke-linecap:round;stroke-linejoin:round;stroke:rgb(0%,0%,0%);stroke-opacity:1;stroke-miterlimit:10;" d="M 229.535156 278.132812 L 230.582031 278.132812 Z M 229.535156 278.132812 "/>
<path style="fill-rule:nonzero;fill:rgb(0.392157%,0.392157%,8.627451%);fill-opacity:1;stroke-width:0.75;stroke-linecap:round;stroke-linejoin:round;stroke:rgb(0%,0%,0%);stroke-opacity:1;stroke-miterlimit:10;" d="M 230.585938 278.132812 L 231.632812 278.132812 L 231.632812 273.917969 L 230.585938 273.917969 Z M 230.585938 278.132812 "/>
<path style="fill:none;stroke-width:0.75;stroke-linecap:round;stroke-linejoin:round;stroke:rgb(0%,0%,0%);stroke-opacity:1;stroke-miterlimit:10;" d="M 231.632812 278.132812 L 232.679688 278.132812 Z M 231.632812 278.132812 "/>
<path style="fill-rule:nonzero;fill:rgb(0.392157%,0.392157%,8.627451%);fill-opacity:1;stroke-width:0.75;stroke-linecap:round;stroke-linejoin:round;stroke:rgb(0%,0%,0%);stroke-opacity:1;stroke-miterlimit:10;" d="M 232.683594 278.132812 L 233.730469 278.132812 L 233.730469 269.707031 L 232.683594 269.707031 Z M 232.683594 278.132812 "/>
<path style="fill-rule:nonzero;fill:rgb(0.392157%,0.392157%,8.627451%);fill-opacity:1;stroke-width:0.75;stroke-linecap:round;stroke-linejoin:round;stroke:rgb(0%,0%,0%);stroke-opacity:1;stroke-miterlimit:10;" d="M 233.730469 278.132812 L 234.777344 278.132812 L 234.777344 273.917969 L 233.730469 273.917969 Z M 233.730469 278.132812 "/>
<path style="fill-rule:nonzero;fill:rgb(0.392157%,0.392157%,8.627451%);fill-opacity:1;stroke-width:0.75;stroke-linecap:round;stroke-linejoin:round;stroke:rgb(0%,0%,0%);stroke-opacity:1;stroke-miterlimit:10;" d="M 234.78125 278.132812 L 235.828125 278.132812 L 235.828125 273.917969 L 234.78125 273.917969 Z M 234.78125 278.132812 "/>
<path style="fill-rule:nonzero;fill:rgb(0.392157%,0.392157%,8.627451%);fill-opacity:1;stroke-width:0.75;stroke-linecap:round;stroke-linejoin:round;stroke:rgb(0%,0%,0%);stroke-opacity:1;stroke-miterlimit:10;" d="M 235.828125 278.132812 L 236.875 278.132812 L 236.875 276.027344 L 235.828125 276.027344 Z M 235.828125 278.132812 "/>
<path style="fill:none;stroke-width:0.75;stroke-linecap:round;stroke-linejoin:round;stroke:rgb(0%,0%,0%);stroke-opacity:1;stroke-miterlimit:10;" d="M 236.878906 278.132812 L 237.925781 278.132812 Z M 236.878906 278.132812 "/>
<path style="fill-rule:nonzero;fill:rgb(0.392157%,0.392157%,8.627451%);fill-opacity:1;stroke-width:0.75;stroke-linecap:round;stroke-linejoin:round;stroke:rgb(0%,0%,0%);stroke-opacity:1;stroke-miterlimit:10;" d="M 237.925781 278.132812 L 238.972656 278.132812 L 238.972656 271.8125 L 237.925781 271.8125 Z M 237.925781 278.132812 "/>
<path style="fill:none;stroke-width:0.75;stroke-linecap:round;stroke-linejoin:round;stroke:rgb(0%,0%,0%);stroke-opacity:1;stroke-miterlimit:10;" d="M 238.976562 278.132812 L 240.023438 278.132812 Z M 238.976562 278.132812 "/>
<path style="fill:none;stroke-width:0.75;stroke-linecap:round;stroke-linejoin:round;stroke:rgb(0%,0%,0%);stroke-opacity:1;stroke-miterlimit:10;" d="M 240.023438 278.132812 L 241.070312 278.132812 Z M 240.023438 278.132812 "/>
<path style="fill-rule:nonzero;fill:rgb(0.392157%,0.392157%,8.627451%);fill-opacity:1;stroke-width:0.75;stroke-linecap:round;stroke-linejoin:round;stroke:rgb(0%,0%,0%);stroke-opacity:1;stroke-miterlimit:10;" d="M 241.070312 278.132812 L 242.117188 278.132812 L 242.117188 276.027344 L 241.070312 276.027344 Z M 241.070312 278.132812 "/>
<path style="fill-rule:nonzero;fill:rgb(0.392157%,0.392157%,8.627451%);fill-opacity:1;stroke-width:0.75;stroke-linecap:round;stroke-linejoin:round;stroke:rgb(0%,0%,0%);stroke-opacity:1;stroke-miterlimit:10;" d="M 242.121094 278.132812 L 243.167969 278.132812 L 243.167969 276.027344 L 242.121094 276.027344 Z M 242.121094 278.132812 "/>
<path style="fill-rule:nonzero;fill:rgb(0.392157%,0.392157%,8.627451%);fill-opacity:1;stroke-width:0.75;stroke-linecap:round;stroke-linejoin:round;stroke:rgb(0%,0%,0%);stroke-opacity:1;stroke-miterlimit:10;" d="M 243.167969 278.132812 L 244.214844 278.132812 L 244.214844 269.707031 L 243.167969 269.707031 Z M 243.167969 278.132812 "/>
<path style="fill-rule:nonzero;fill:rgb(0.392157%,0.392157%,8.627451%);fill-opacity:1;stroke-width:0.75;stroke-linecap:round;stroke-linejoin:round;stroke:rgb(0%,0%,0%);stroke-opacity:1;stroke-miterlimit:10;" d="M 244.21875 278.132812 L 245.265625 278.132812 L 245.265625 276.027344 L 244.21875 276.027344 Z M 244.21875 278.132812 "/>
<path style="fill:none;stroke-width:0.75;stroke-linecap:round;stroke-linejoin:round;stroke:rgb(0%,0%,0%);stroke-opacity:1;stroke-miterlimit:10;" d="M 245.265625 278.132812 L 246.3125 278.132812 Z M 245.265625 278.132812 "/>
<path style="fill:none;stroke-width:0.75;stroke-linecap:round;stroke-linejoin:round;stroke:rgb(0%,0%,0%);stroke-opacity:1;stroke-miterlimit:10;" d="M 246.316406 278.132812 L 247.363281 278.132812 Z M 246.316406 278.132812 "/>
<path style="fill:none;stroke-width:0.75;stroke-linecap:round;stroke-linejoin:round;stroke:rgb(0%,0%,0%);stroke-opacity:1;stroke-miterlimit:10;" d="M 247.363281 278.132812 L 248.410156 278.132812 Z M 247.363281 278.132812 "/>
<path style="fill:none;stroke-width:0.75;stroke-linecap:round;stroke-linejoin:round;stroke:rgb(0%,0%,0%);stroke-opacity:1;stroke-miterlimit:10;" d="M 248.414062 278.132812 L 249.460938 278.132812 Z M 248.414062 278.132812 "/>
<path style="fill-rule:nonzero;fill:rgb(0.392157%,0.392157%,8.627451%);fill-opacity:1;stroke-width:0.75;stroke-linecap:round;stroke-linejoin:round;stroke:rgb(0%,0%,0%);stroke-opacity:1;stroke-miterlimit:10;" d="M 249.460938 278.132812 L 250.507812 278.132812 L 250.507812 276.027344 L 249.460938 276.027344 Z M 249.460938 278.132812 "/>
<path style="fill:none;stroke-width:0.75;stroke-linecap:round;stroke-linejoin:round;stroke:rgb(0%,0%,0%);stroke-opacity:1;stroke-miterlimit:10;" d="M 250.511719 278.132812 L 251.558594 278.132812 Z M 250.511719 278.132812 "/>
<path style="fill:none;stroke-width:0.75;stroke-linecap:round;stroke-linejoin:round;stroke:rgb(0%,0%,0%);stroke-opacity:1;stroke-miterlimit:10;" d="M 251.558594 278.132812 L 252.605469 278.132812 Z M 251.558594 278.132812 "/>
<path style="fill:none;stroke-width:0.75;stroke-linecap:round;stroke-linejoin:round;stroke:rgb(0%,0%,0%);stroke-opacity:1;stroke-miterlimit:10;" d="M 252.609375 278.132812 L 253.65625 278.132812 Z M 252.609375 278.132812 "/>
<path style="fill-rule:nonzero;fill:rgb(0.392157%,0.392157%,8.627451%);fill-opacity:1;stroke-width:0.75;stroke-linecap:round;stroke-linejoin:round;stroke:rgb(0%,0%,0%);stroke-opacity:1;stroke-miterlimit:10;" d="M 253.65625 278.132812 L 254.703125 278.132812 L 254.703125 276.027344 L 253.65625 276.027344 Z M 253.65625 278.132812 "/>
<path style="fill:none;stroke-width:0.75;stroke-linecap:round;stroke-linejoin:round;stroke:rgb(0%,0%,0%);stroke-opacity:1;stroke-miterlimit:10;" d="M 254.707031 278.132812 L 255.753906 278.132812 Z M 254.707031 278.132812 "/>
<path style="fill-rule:nonzero;fill:rgb(0.392157%,0.392157%,8.627451%);fill-opacity:1;stroke-width:0.75;stroke-linecap:round;stroke-linejoin:round;stroke:rgb(0%,0%,0%);stroke-opacity:1;stroke-miterlimit:10;" d="M 255.753906 278.132812 L 256.800781 278.132812 L 256.800781 276.027344 L 255.753906 276.027344 Z M 255.753906 278.132812 "/>
<path style="fill:none;stroke-width:0.75;stroke-linecap:round;stroke-linejoin:round;stroke:rgb(0%,0%,0%);stroke-opacity:1;stroke-miterlimit:10;" d="M 256.804688 278.132812 L 257.851562 278.132812 Z M 256.804688 278.132812 "/>
<path style="fill-rule:nonzero;fill:rgb(0.392157%,0.392157%,8.627451%);fill-opacity:1;stroke-width:0.75;stroke-linecap:round;stroke-linejoin:round;stroke:rgb(0%,0%,0%);stroke-opacity:1;stroke-miterlimit:10;" d="M 257.851562 278.132812 L 258.898438 278.132812 L 258.898438 276.027344 L 257.851562 276.027344 Z M 257.851562 278.132812 "/>
<path style="fill:none;stroke-width:0.75;stroke-linecap:round;stroke-linejoin:round;stroke:rgb(0%,0%,0%);stroke-opacity:1;stroke-miterlimit:10;" d="M 258.902344 278.132812 L 259.949219 278.132812 Z M 258.902344 278.132812 "/>
<path style="fill-rule:nonzero;fill:rgb(0.392157%,0.392157%,8.627451%);fill-opacity:1;stroke-width:0.75;stroke-linecap:round;stroke-linejoin:round;stroke:rgb(0%,0%,0%);stroke-opacity:1;stroke-miterlimit:10;" d="M 259.949219 278.132812 L 260.996094 278.132812 L 260.996094 276.027344 L 259.949219 276.027344 Z M 259.949219 278.132812 "/>
<path style="fill:none;stroke-width:0.75;stroke-linecap:round;stroke-linejoin:round;stroke:rgb(0%,0%,0%);stroke-opacity:1;stroke-miterlimit:10;" d="M 261 278.132812 L 262.046875 278.132812 Z M 261 278.132812 "/>
<path style="fill-rule:nonzero;fill:rgb(0.392157%,0.392157%,8.627451%);fill-opacity:1;stroke-width:0.75;stroke-linecap:round;stroke-linejoin:round;stroke:rgb(0%,0%,0%);stroke-opacity:1;stroke-miterlimit:10;" d="M 262.046875 278.132812 L 263.09375 278.132812 L 263.09375 276.027344 L 262.046875 276.027344 Z M 262.046875 278.132812 "/>
<path style="fill:none;stroke-width:0.75;stroke-linecap:round;stroke-linejoin:round;stroke:rgb(0%,0%,0%);stroke-opacity:1;stroke-miterlimit:10;" d="M 263.097656 278.132812 L 264.144531 278.132812 Z M 263.097656 278.132812 "/>
<path style="fill:none;stroke-width:0.75;stroke-linecap:round;stroke-linejoin:round;stroke:rgb(0%,0%,0%);stroke-opacity:1;stroke-miterlimit:10;" d="M 264.144531 278.132812 L 265.191406 278.132812 Z M 264.144531 278.132812 "/>
<path style="fill:none;stroke-width:0.75;stroke-linecap:round;stroke-linejoin:round;stroke:rgb(0%,0%,0%);stroke-opacity:1;stroke-miterlimit:10;" d="M 265.195312 278.132812 L 266.242188 278.132812 Z M 265.195312 278.132812 "/>
<path style="fill-rule:nonzero;fill:rgb(0.392157%,0.392157%,8.627451%);fill-opacity:1;stroke-width:0.75;stroke-linecap:round;stroke-linejoin:round;stroke:rgb(0%,0%,0%);stroke-opacity:1;stroke-miterlimit:10;" d="M 266.242188 278.132812 L 267.289062 278.132812 L 267.289062 276.027344 L 266.242188 276.027344 Z M 266.242188 278.132812 "/>
<path style="fill-rule:nonzero;fill:rgb(0.392157%,0.392157%,8.627451%);fill-opacity:1;stroke-width:0.75;stroke-linecap:round;stroke-linejoin:round;stroke:rgb(0%,0%,0%);stroke-opacity:1;stroke-miterlimit:10;" d="M 267.292969 278.132812 L 268.339844 278.132812 L 268.339844 276.027344 L 267.292969 276.027344 Z M 267.292969 278.132812 "/>
<path style="fill:none;stroke-width:0.75;stroke-linecap:round;stroke-linejoin:round;stroke:rgb(0%,0%,0%);stroke-opacity:1;stroke-miterlimit:10;" d="M 268.339844 278.132812 L 269.386719 278.132812 Z M 268.339844 278.132812 "/>
<path style="fill:none;stroke-width:0.75;stroke-linecap:round;stroke-linejoin:round;stroke:rgb(0%,0%,0%);stroke-opacity:1;stroke-miterlimit:10;" d="M 269.390625 278.132812 L 270.4375 278.132812 Z M 269.390625 278.132812 "/>
<path style="fill:none;stroke-width:0.75;stroke-linecap:round;stroke-linejoin:round;stroke:rgb(0%,0%,0%);stroke-opacity:1;stroke-miterlimit:10;" d="M 270.4375 278.132812 L 271.484375 278.132812 Z M 270.4375 278.132812 "/>
<path style="fill-rule:nonzero;fill:rgb(0.392157%,0.392157%,8.627451%);fill-opacity:1;stroke-width:0.75;stroke-linecap:round;stroke-linejoin:round;stroke:rgb(0%,0%,0%);stroke-opacity:1;stroke-miterlimit:10;" d="M 271.488281 278.132812 L 272.535156 278.132812 L 272.535156 273.917969 L 271.488281 273.917969 Z M 271.488281 278.132812 "/>
<path style="fill:none;stroke-width:0.75;stroke-linecap:round;stroke-linejoin:round;stroke:rgb(0%,0%,0%);stroke-opacity:1;stroke-miterlimit:10;" d="M 272.535156 278.132812 L 273.582031 278.132812 Z M 272.535156 278.132812 "/>
<path style="fill-rule:nonzero;fill:rgb(0.392157%,0.392157%,8.627451%);fill-opacity:1;stroke-width:0.75;stroke-linecap:round;stroke-linejoin:round;stroke:rgb(0%,0%,0%);stroke-opacity:1;stroke-miterlimit:10;" d="M 273.585938 278.132812 L 274.632812 278.132812 L 274.632812 276.027344 L 273.585938 276.027344 Z M 273.585938 278.132812 "/>
<path style="fill-rule:nonzero;fill:rgb(0.392157%,0.392157%,8.627451%);fill-opacity:1;stroke-width:0.75;stroke-linecap:round;stroke-linejoin:round;stroke:rgb(0%,0%,0%);stroke-opacity:1;stroke-miterlimit:10;" d="M 274.632812 278.132812 L 275.679688 278.132812 L 275.679688 273.917969 L 274.632812 273.917969 Z M 274.632812 278.132812 "/>
<path style="fill:none;stroke-width:0.75;stroke-linecap:round;stroke-linejoin:round;stroke:rgb(0%,0%,0%);stroke-opacity:1;stroke-miterlimit:10;" d="M 275.683594 278.132812 L 276.730469 278.132812 Z M 275.683594 278.132812 "/>
<path style="fill:none;stroke-width:0.75;stroke-linecap:round;stroke-linejoin:round;stroke:rgb(0%,0%,0%);stroke-opacity:1;stroke-miterlimit:10;" d="M 276.730469 278.132812 L 277.777344 278.132812 Z M 276.730469 278.132812 "/>
<path style="fill:none;stroke-width:0.75;stroke-linecap:round;stroke-linejoin:round;stroke:rgb(0%,0%,0%);stroke-opacity:1;stroke-miterlimit:10;" d="M 277.78125 278.132812 L 278.828125 278.132812 Z M 277.78125 278.132812 "/>
<path style="fill-rule:nonzero;fill:rgb(0.392157%,0.392157%,8.627451%);fill-opacity:1;stroke-width:0.75;stroke-linecap:round;stroke-linejoin:round;stroke:rgb(0%,0%,0%);stroke-opacity:1;stroke-miterlimit:10;" d="M 278.828125 278.132812 L 279.875 278.132812 L 279.875 276.027344 L 278.828125 276.027344 Z M 278.828125 278.132812 "/>
<path style="fill-rule:nonzero;fill:rgb(0.392157%,0.392157%,8.627451%);fill-opacity:1;stroke-width:0.75;stroke-linecap:round;stroke-linejoin:round;stroke:rgb(0%,0%,0%);stroke-opacity:1;stroke-miterlimit:10;" d="M 279.878906 278.132812 L 280.925781 278.132812 L 280.925781 273.917969 L 279.878906 273.917969 Z M 279.878906 278.132812 "/>
<path style="fill:none;stroke-width:0.75;stroke-linecap:round;stroke-linejoin:round;stroke:rgb(0%,0%,0%);stroke-opacity:1;stroke-miterlimit:10;" d="M 280.925781 278.132812 L 281.972656 278.132812 Z M 280.925781 278.132812 "/>
<path style="fill-rule:nonzero;fill:rgb(0.392157%,0.392157%,8.627451%);fill-opacity:1;stroke-width:0.75;stroke-linecap:round;stroke-linejoin:round;stroke:rgb(0%,0%,0%);stroke-opacity:1;stroke-miterlimit:10;" d="M 281.976562 278.132812 L 283.023438 278.132812 L 283.023438 276.027344 L 281.976562 276.027344 Z M 281.976562 278.132812 "/>
<path style="fill:none;stroke-width:0.75;stroke-linecap:round;stroke-linejoin:round;stroke:rgb(0%,0%,0%);stroke-opacity:1;stroke-miterlimit:10;" d="M 283.023438 278.132812 L 284.070312 278.132812 Z M 283.023438 278.132812 "/>
<path style="fill:none;stroke-width:0.75;stroke-linecap:round;stroke-linejoin:round;stroke:rgb(0%,0%,0%);stroke-opacity:1;stroke-miterlimit:10;" d="M 284.074219 278.132812 L 285.121094 278.132812 Z M 284.074219 278.132812 "/>
<path style="fill-rule:nonzero;fill:rgb(0.392157%,0.392157%,8.627451%);fill-opacity:1;stroke-width:0.75;stroke-linecap:round;stroke-linejoin:round;stroke:rgb(0%,0%,0%);stroke-opacity:1;stroke-miterlimit:10;" d="M 285.121094 278.132812 L 286.167969 278.132812 L 286.167969 276.027344 L 285.121094 276.027344 Z M 285.121094 278.132812 "/>
<path style="fill-rule:nonzero;fill:rgb(0.392157%,0.392157%,8.627451%);fill-opacity:1;stroke-width:0.75;stroke-linecap:round;stroke-linejoin:round;stroke:rgb(0%,0%,0%);stroke-opacity:1;stroke-miterlimit:10;" d="M 286.171875 278.132812 L 287.21875 278.132812 L 287.21875 276.027344 L 286.171875 276.027344 Z M 286.171875 278.132812 "/>
<path style="fill-rule:nonzero;fill:rgb(0.392157%,0.392157%,8.627451%);fill-opacity:1;stroke-width:0.75;stroke-linecap:round;stroke-linejoin:round;stroke:rgb(0%,0%,0%);stroke-opacity:1;stroke-miterlimit:10;" d="M 287.21875 278.132812 L 288.265625 278.132812 L 288.265625 276.027344 L 287.21875 276.027344 Z M 287.21875 278.132812 "/>
<path style="fill:none;stroke-width:0.75;stroke-linecap:round;stroke-linejoin:round;stroke:rgb(0%,0%,0%);stroke-opacity:1;stroke-miterlimit:10;" d="M 288.269531 278.132812 L 289.316406 278.132812 Z M 288.269531 278.132812 "/>
<path style="fill:none;stroke-width:0.75;stroke-linecap:round;stroke-linejoin:round;stroke:rgb(0%,0%,0%);stroke-opacity:1;stroke-miterlimit:10;" d="M 289.316406 278.132812 L 290.363281 278.132812 Z M 289.316406 278.132812 "/>
<path style="fill:none;stroke-width:0.75;stroke-linecap:round;stroke-linejoin:round;stroke:rgb(0%,0%,0%);stroke-opacity:1;stroke-miterlimit:10;" d="M 290.367188 278.132812 L 291.414062 278.132812 Z M 290.367188 278.132812 "/>
<path style="fill:none;stroke-width:0.75;stroke-linecap:round;stroke-linejoin:round;stroke:rgb(0%,0%,0%);stroke-opacity:1;stroke-miterlimit:10;" d="M 291.414062 278.132812 L 292.460938 278.132812 Z M 291.414062 278.132812 "/>
<path style="fill:none;stroke-width:0.75;stroke-linecap:round;stroke-linejoin:round;stroke:rgb(0%,0%,0%);stroke-opacity:1;stroke-miterlimit:10;" d="M 292.464844 278.132812 L 293.511719 278.132812 Z M 292.464844 278.132812 "/>
<path style="fill-rule:nonzero;fill:rgb(0.392157%,0.392157%,8.627451%);fill-opacity:1;stroke-width:0.75;stroke-linecap:round;stroke-linejoin:round;stroke:rgb(0%,0%,0%);stroke-opacity:1;stroke-miterlimit:10;" d="M 293.511719 278.132812 L 294.558594 278.132812 L 294.558594 273.917969 L 293.511719 273.917969 Z M 293.511719 278.132812 "/>
<path style="fill:none;stroke-width:0.75;stroke-linecap:round;stroke-linejoin:round;stroke:rgb(0%,0%,0%);stroke-opacity:1;stroke-miterlimit:10;" d="M 294.5625 278.132812 L 295.609375 278.132812 Z M 294.5625 278.132812 "/>
<path style="fill-rule:nonzero;fill:rgb(0.392157%,0.392157%,8.627451%);fill-opacity:1;stroke-width:0.75;stroke-linecap:round;stroke-linejoin:round;stroke:rgb(0%,0%,0%);stroke-opacity:1;stroke-miterlimit:10;" d="M 295.609375 278.132812 L 296.65625 278.132812 L 296.65625 276.027344 L 295.609375 276.027344 Z M 295.609375 278.132812 "/>
<path style="fill:none;stroke-width:0.75;stroke-linecap:round;stroke-linejoin:round;stroke:rgb(0%,0%,0%);stroke-opacity:1;stroke-miterlimit:10;" d="M 296.660156 278.132812 L 297.707031 278.132812 Z M 296.660156 278.132812 "/>
<path style="fill:none;stroke-width:0.75;stroke-linecap:round;stroke-linejoin:round;stroke:rgb(0%,0%,0%);stroke-opacity:1;stroke-miterlimit:10;" d="M 297.707031 278.132812 L 298.753906 278.132812 Z M 297.707031 278.132812 "/>
<path style="fill-rule:nonzero;fill:rgb(0.392157%,0.392157%,8.627451%);fill-opacity:1;stroke-width:0.75;stroke-linecap:round;stroke-linejoin:round;stroke:rgb(0%,0%,0%);stroke-opacity:1;stroke-miterlimit:10;" d="M 298.757812 278.132812 L 299.804688 278.132812 L 299.804688 276.027344 L 298.757812 276.027344 Z M 298.757812 278.132812 "/>
<path style="fill-rule:nonzero;fill:rgb(0.392157%,0.392157%,8.627451%);fill-opacity:1;stroke-width:0.75;stroke-linecap:round;stroke-linejoin:round;stroke:rgb(0%,0%,0%);stroke-opacity:1;stroke-miterlimit:10;" d="M 299.804688 278.132812 L 300.851562 278.132812 L 300.851562 276.027344 L 299.804688 276.027344 Z M 299.804688 278.132812 "/>
<path style="fill-rule:nonzero;fill:rgb(0.392157%,0.392157%,8.627451%);fill-opacity:1;stroke-width:0.75;stroke-linecap:round;stroke-linejoin:round;stroke:rgb(0%,0%,0%);stroke-opacity:1;stroke-miterlimit:10;" d="M 300.855469 278.132812 L 301.902344 278.132812 L 301.902344 276.027344 L 300.855469 276.027344 Z M 300.855469 278.132812 "/>
<path style="fill:none;stroke-width:0.75;stroke-linecap:round;stroke-linejoin:round;stroke:rgb(0%,0%,0%);stroke-opacity:1;stroke-miterlimit:10;" d="M 301.902344 278.132812 L 302.949219 278.132812 Z M 301.902344 278.132812 "/>
<path style="fill:none;stroke-width:0.75;stroke-linecap:round;stroke-linejoin:round;stroke:rgb(0%,0%,0%);stroke-opacity:1;stroke-miterlimit:10;" d="M 302.953125 278.132812 L 304 278.132812 Z M 302.953125 278.132812 "/>
<path style="fill:none;stroke-width:0.75;stroke-linecap:round;stroke-linejoin:round;stroke:rgb(0%,0%,0%);stroke-opacity:1;stroke-miterlimit:10;" d="M 304 278.132812 L 305.046875 278.132812 Z M 304 278.132812 "/>
<path style="fill-rule:nonzero;fill:rgb(0.392157%,0.392157%,8.627451%);fill-opacity:1;stroke-width:0.75;stroke-linecap:round;stroke-linejoin:round;stroke:rgb(0%,0%,0%);stroke-opacity:1;stroke-miterlimit:10;" d="M 305.050781 278.132812 L 306.097656 278.132812 L 306.097656 276.027344 L 305.050781 276.027344 Z M 305.050781 278.132812 "/>
<path style="fill-rule:nonzero;fill:rgb(0.392157%,0.392157%,8.627451%);fill-opacity:1;stroke-width:0.75;stroke-linecap:round;stroke-linejoin:round;stroke:rgb(0%,0%,0%);stroke-opacity:1;stroke-miterlimit:10;" d="M 306.097656 278.132812 L 307.144531 278.132812 L 307.144531 276.027344 L 306.097656 276.027344 Z M 306.097656 278.132812 "/>
<path style="fill:none;stroke-width:0.75;stroke-linecap:round;stroke-linejoin:round;stroke:rgb(0%,0%,0%);stroke-opacity:1;stroke-miterlimit:10;" d="M 307.148438 278.132812 L 308.195312 278.132812 Z M 307.148438 278.132812 "/>
<path style="fill-rule:nonzero;fill:rgb(0.392157%,0.392157%,8.627451%);fill-opacity:1;stroke-width:0.75;stroke-linecap:round;stroke-linejoin:round;stroke:rgb(0%,0%,0%);stroke-opacity:1;stroke-miterlimit:10;" d="M 308.195312 278.132812 L 309.242188 278.132812 L 309.242188 276.027344 L 308.195312 276.027344 Z M 308.195312 278.132812 "/>
<path style="fill-rule:nonzero;fill:rgb(0.392157%,0.392157%,8.627451%);fill-opacity:1;stroke-width:0.75;stroke-linecap:round;stroke-linejoin:round;stroke:rgb(0%,0%,0%);stroke-opacity:1;stroke-miterlimit:10;" d="M 309.246094 278.132812 L 310.292969 278.132812 L 310.292969 276.027344 L 309.246094 276.027344 Z M 309.246094 278.132812 "/>
<path style="fill:none;stroke-width:0.75;stroke-linecap:round;stroke-linejoin:round;stroke:rgb(0%,0%,0%);stroke-opacity:1;stroke-miterlimit:10;" d="M 310.292969 278.132812 L 311.339844 278.132812 Z M 310.292969 278.132812 "/>
<path style="fill:none;stroke-width:0.75;stroke-linecap:round;stroke-linejoin:round;stroke:rgb(0%,0%,0%);stroke-opacity:1;stroke-miterlimit:10;" d="M 311.34375 278.132812 L 312.390625 278.132812 Z M 311.34375 278.132812 "/>
<path style="fill:none;stroke-width:0.75;stroke-linecap:round;stroke-linejoin:round;stroke:rgb(0%,0%,0%);stroke-opacity:1;stroke-miterlimit:10;" d="M 312.390625 278.132812 L 313.4375 278.132812 Z M 312.390625 278.132812 "/>
<path style="fill-rule:nonzero;fill:rgb(0.392157%,0.392157%,8.627451%);fill-opacity:1;stroke-width:0.75;stroke-linecap:round;stroke-linejoin:round;stroke:rgb(0%,0%,0%);stroke-opacity:1;stroke-miterlimit:10;" d="M 313.441406 278.132812 L 314.488281 278.132812 L 314.488281 273.917969 L 313.441406 273.917969 Z M 313.441406 278.132812 "/>
<path style="fill:none;stroke-width:0.75;stroke-linecap:round;stroke-linejoin:round;stroke:rgb(0%,0%,0%);stroke-opacity:1;stroke-miterlimit:10;" d="M 314.488281 278.132812 L 315.535156 278.132812 Z M 314.488281 278.132812 "/>
<path style="fill:none;stroke-width:0.75;stroke-linecap:round;stroke-linejoin:round;stroke:rgb(0%,0%,0%);stroke-opacity:1;stroke-miterlimit:10;" d="M 315.539062 278.132812 L 316.585938 278.132812 Z M 315.539062 278.132812 "/>
<path style="fill:none;stroke-width:0.75;stroke-linecap:round;stroke-linejoin:round;stroke:rgb(0%,0%,0%);stroke-opacity:1;stroke-miterlimit:10;" d="M 316.585938 278.132812 L 317.632812 278.132812 Z M 316.585938 278.132812 "/>
<path style="fill:none;stroke-width:0.75;stroke-linecap:round;stroke-linejoin:round;stroke:rgb(0%,0%,0%);stroke-opacity:1;stroke-miterlimit:10;" d="M 317.636719 278.132812 L 318.683594 278.132812 Z M 317.636719 278.132812 "/>
<path style="fill-rule:nonzero;fill:rgb(0.392157%,0.392157%,8.627451%);fill-opacity:1;stroke-width:0.75;stroke-linecap:round;stroke-linejoin:round;stroke:rgb(0%,0%,0%);stroke-opacity:1;stroke-miterlimit:10;" d="M 318.683594 278.132812 L 319.730469 278.132812 L 319.730469 276.027344 L 318.683594 276.027344 Z M 318.683594 278.132812 "/>
<path style="fill:none;stroke-width:0.75;stroke-linecap:round;stroke-linejoin:round;stroke:rgb(0%,0%,0%);stroke-opacity:1;stroke-miterlimit:10;" d="M 59.039062 286.558594 L 329.761719 286.558594 L 329.761719 59.039062 L 59.039062 59.039062 L 59.039062 286.558594 "/>
</g>
</svg>
