<?xml version="1.0" encoding="UTF-8"?>
<svg xmlns="http://www.w3.org/2000/svg" xmlns:xlink="http://www.w3.org/1999/xlink" width="720pt" height="360pt" viewBox="0 0 720 360" version="1.1">
<defs>
<g>
<symbol overflow="visible" id="glyph0-0">
<path style="stroke:none;" d=""/>
</symbol>
<symbol overflow="visible" id="glyph0-1">
<path style="stroke:none;" d="M 2.640625 -6.796875 C 2 -6.796875 1.421875 -6.53125 1.078125 -6.046875 C 0.640625 -5.453125 0.40625 -4.546875 0.40625 -3.296875 C 0.40625 -1 1.1875 0.21875 2.640625 0.21875 C 4.078125 0.21875 4.859375 -1 4.859375 -3.234375 C 4.859375 -4.5625 4.65625 -5.4375 4.203125 -6.046875 C 3.84375 -6.53125 3.28125 -6.796875 2.640625 -6.796875 Z M 2.640625 -6.046875 C 3.546875 -6.046875 4 -5.125 4 -3.3125 C 4 -1.375 3.5625 -0.484375 2.625 -0.484375 C 1.734375 -0.484375 1.28125 -1.421875 1.28125 -3.28125 C 1.28125 -5.140625 1.734375 -6.046875 2.640625 -6.046875 Z M 2.640625 -6.046875 "/>
</symbol>
<symbol overflow="visible" id="glyph0-2">
<path style="stroke:none;" d="M 1.828125 -1 L 0.828125 -1 L 0.828125 0 L 1.828125 0 Z M 1.828125 -1 "/>
</symbol>
<symbol overflow="visible" id="glyph0-3">
<path style="stroke:none;" d="M 4.5625 -6.796875 L 1.0625 -6.796875 L 0.546875 -3.09375 L 1.328125 -3.09375 C 1.71875 -3.5625 2.046875 -3.734375 2.578125 -3.734375 C 3.484375 -3.734375 4.0625 -3.109375 4.0625 -2.09375 C 4.0625 -1.125 3.484375 -0.53125 2.578125 -0.53125 C 1.828125 -0.53125 1.375 -0.90625 1.1875 -1.671875 L 0.328125 -1.671875 C 0.453125 -1.109375 0.546875 -0.84375 0.75 -0.59375 C 1.125 -0.078125 1.828125 0.21875 2.59375 0.21875 C 3.96875 0.21875 4.921875 -0.78125 4.921875 -2.21875 C 4.921875 -3.5625 4.03125 -4.484375 2.71875 -4.484375 C 2.25 -4.484375 1.859375 -4.359375 1.46875 -4.0625 L 1.734375 -5.96875 L 4.5625 -5.96875 Z M 4.5625 -6.796875 "/>
</symbol>
<symbol overflow="visible" id="glyph0-4">
<path style="stroke:none;" d="M 2.484375 -4.84375 L 2.484375 0 L 3.328125 0 L 3.328125 -6.796875 L 2.765625 -6.796875 C 2.46875 -5.75 2.28125 -5.609375 0.984375 -5.453125 L 0.984375 -4.84375 Z M 2.484375 -4.84375 "/>
</symbol>
<symbol overflow="visible" id="glyph0-5">
<path style="stroke:none;" d="M 4.859375 -0.828125 L 1.28125 -0.828125 C 1.359375 -1.390625 1.671875 -1.75 2.5 -2.234375 L 3.46875 -2.75 C 4.40625 -3.265625 4.90625 -3.96875 4.90625 -4.8125 C 4.90625 -5.375 4.671875 -5.90625 4.265625 -6.265625 C 3.859375 -6.625 3.375 -6.796875 2.71875 -6.796875 C 1.859375 -6.796875 1.21875 -6.5 0.84375 -5.921875 C 0.609375 -5.5625 0.5 -5.125 0.484375 -4.4375 L 1.328125 -4.4375 C 1.359375 -4.90625 1.40625 -5.1875 1.53125 -5.40625 C 1.75 -5.8125 2.1875 -6.0625 2.703125 -6.0625 C 3.46875 -6.0625 4.03125 -5.515625 4.03125 -4.78125 C 4.03125 -4.25 3.71875 -3.796875 3.125 -3.4375 L 2.234375 -2.9375 C 0.8125 -2.140625 0.40625 -1.5 0.328125 0 L 4.859375 0 Z M 4.859375 -0.828125 "/>
</symbol>
<symbol overflow="visible" id="glyph0-6">
<path style="stroke:none;" d="M 2.125 -3.125 L 2.578125 -3.125 C 3.515625 -3.125 3.984375 -2.703125 3.984375 -1.890625 C 3.984375 -1.03125 3.46875 -0.53125 2.578125 -0.53125 C 1.65625 -0.53125 1.203125 -0.984375 1.15625 -1.96875 L 0.3125 -1.96875 C 0.34375 -1.421875 0.4375 -1.078125 0.609375 -0.765625 C 0.953125 -0.109375 1.625 0.21875 2.546875 0.21875 C 3.953125 0.21875 4.859375 -0.609375 4.859375 -1.90625 C 4.859375 -2.765625 4.515625 -3.25 3.703125 -3.515625 C 4.34375 -3.765625 4.65625 -4.25 4.65625 -4.9375 C 4.65625 -6.109375 3.875 -6.796875 2.578125 -6.796875 C 1.203125 -6.796875 0.484375 -6.046875 0.453125 -4.609375 L 1.296875 -4.609375 C 1.3125 -5.015625 1.34375 -5.25 1.453125 -5.453125 C 1.640625 -5.828125 2.0625 -6.0625 2.59375 -6.0625 C 3.34375 -6.0625 3.796875 -5.625 3.796875 -4.90625 C 3.796875 -4.421875 3.609375 -4.140625 3.25 -3.984375 C 3.015625 -3.890625 2.71875 -3.84375 2.125 -3.84375 Z M 2.125 -3.125 "/>
</symbol>
<symbol overflow="visible" id="glyph0-7">
<path style="stroke:none;" d="M 3.140625 -1.625 L 3.140625 0 L 3.984375 0 L 3.984375 -1.625 L 4.984375 -1.625 L 4.984375 -2.390625 L 3.984375 -2.390625 L 3.984375 -6.796875 L 3.359375 -6.796875 L 0.265625 -2.515625 L 0.265625 -1.625 Z M 3.140625 -2.390625 L 1 -2.390625 L 3.140625 -5.359375 Z M 3.140625 -2.390625 "/>
</symbol>
<symbol overflow="visible" id="glyph0-8">
<path style="stroke:none;" d="M 4.78125 -5.03125 C 4.609375 -6.140625 3.890625 -6.796875 2.84375 -6.796875 C 2.09375 -6.796875 1.421875 -6.4375 1.03125 -5.828125 C 0.609375 -5.171875 0.40625 -4.34375 0.40625 -3.09375 C 0.40625 -1.953125 0.578125 -1.234375 0.984375 -0.625 C 1.359375 -0.078125 1.953125 0.21875 2.703125 0.21875 C 3.984375 0.21875 4.921875 -0.734375 4.921875 -2.078125 C 4.921875 -3.34375 4.0625 -4.234375 2.84375 -4.234375 C 2.171875 -4.234375 1.640625 -3.96875 1.28125 -3.46875 C 1.28125 -5.125 1.828125 -6.046875 2.796875 -6.046875 C 3.390625 -6.046875 3.796875 -5.671875 3.9375 -5.03125 Z M 2.734375 -3.484375 C 3.546875 -3.484375 4.0625 -2.921875 4.0625 -2 C 4.0625 -1.15625 3.484375 -0.53125 2.703125 -0.53125 C 1.921875 -0.53125 1.328125 -1.1875 1.328125 -2.046875 C 1.328125 -2.890625 1.90625 -3.484375 2.734375 -3.484375 Z M 2.734375 -3.484375 "/>
</symbol>
<symbol overflow="visible" id="glyph0-9">
<path style="stroke:none;" d="M 4.984375 -6.796875 L 0.4375 -6.796875 L 0.4375 -5.96875 L 4.109375 -5.96875 C 2.5 -3.65625 1.828125 -2.234375 1.328125 0 L 2.21875 0 C 2.59375 -2.171875 3.453125 -4.046875 4.984375 -6.09375 Z M 4.984375 -6.796875 "/>
</symbol>
<symbol overflow="visible" id="glyph0-10">
<path style="stroke:none;" d="M 3.75 -3.578125 C 4.453125 -4 4.6875 -4.34375 4.6875 -4.984375 C 4.6875 -6.046875 3.84375 -6.796875 2.640625 -6.796875 C 1.4375 -6.796875 0.59375 -6.046875 0.59375 -4.984375 C 0.59375 -4.359375 0.828125 -4.015625 1.515625 -3.578125 C 0.734375 -3.203125 0.359375 -2.640625 0.359375 -1.890625 C 0.359375 -0.640625 1.296875 0.21875 2.640625 0.21875 C 3.984375 0.21875 4.921875 -0.640625 4.921875 -1.875 C 4.921875 -2.640625 4.53125 -3.203125 3.75 -3.578125 Z M 2.640625 -6.046875 C 3.359375 -6.046875 3.8125 -5.625 3.8125 -4.96875 C 3.8125 -4.34375 3.34375 -3.921875 2.640625 -3.921875 C 1.921875 -3.921875 1.453125 -4.34375 1.453125 -4.984375 C 1.453125 -5.625 1.921875 -6.046875 2.640625 -6.046875 Z M 2.640625 -3.203125 C 3.484375 -3.203125 4.0625 -2.671875 4.0625 -1.875 C 4.0625 -1.0625 3.484375 -0.53125 2.625 -0.53125 C 1.796875 -0.53125 1.21875 -1.078125 1.21875 -1.875 C 1.21875 -2.671875 1.796875 -3.203125 2.640625 -3.203125 Z M 2.640625 -3.203125 "/>
</symbol>
<symbol overflow="visible" id="glyph0-11">
<path style="stroke:none;" d="M 0.515625 -1.546875 C 0.671875 -0.4375 1.40625 0.21875 2.4375 0.21875 C 3.1875 0.21875 3.859375 -0.140625 4.265625 -0.75 C 4.6875 -1.40625 4.890625 -2.25 4.890625 -3.484375 C 4.890625 -4.625 4.703125 -5.359375 4.3125 -5.953125 C 3.9375 -6.5 3.34375 -6.796875 2.59375 -6.796875 C 1.296875 -6.796875 0.359375 -5.84375 0.359375 -4.515625 C 0.359375 -3.25 1.234375 -2.34375 2.453125 -2.34375 C 3.09375 -2.34375 3.5625 -2.578125 4.015625 -3.109375 C 4 -1.453125 3.46875 -0.53125 2.5 -0.53125 C 1.90625 -0.53125 1.484375 -0.90625 1.359375 -1.546875 Z M 2.578125 -6.0625 C 3.375 -6.0625 3.96875 -5.40625 3.96875 -4.53125 C 3.96875 -3.6875 3.375 -3.09375 2.546875 -3.09375 C 1.734375 -3.09375 1.234375 -3.671875 1.234375 -4.578125 C 1.234375 -5.4375 1.796875 -6.0625 2.578125 -6.0625 Z M 2.578125 -6.0625 "/>
</symbol>
<symbol overflow="visible" id="glyph1-0">
<path style="stroke:none;" d=""/>
</symbol>
<symbol overflow="visible" id="glyph1-1">
<path style="stroke:none;" d="M 0 -0.953125 L 0 -4.890625 C 0 -5.71875 -0.234375 -6.34375 -0.734375 -6.796875 C -1.1875 -7.234375 -1.8125 -7.46875 -2.5 -7.46875 C -3.546875 -7.46875 -4.1875 -7 -4.625 -5.875 C -4.984375 -6.671875 -5.640625 -7.09375 -6.53125 -7.09375 C -7.15625 -7.09375 -7.734375 -6.859375 -8.140625 -6.390625 C -8.5625 -5.9375 -8.75 -5.34375 -8.75 -4.5 L -8.75 -0.953125 Z M -4.984375 -2.0625 L -7.765625 -2.0625 L -7.765625 -4.21875 C -7.765625 -4.84375 -7.6875 -5.203125 -7.453125 -5.5 C -7.21875 -5.8125 -6.859375 -5.96875 -6.375 -5.96875 C -5.90625 -5.96875 -5.53125 -5.8125 -5.296875 -5.5 C -5.0625 -5.203125 -4.984375 -4.84375 -4.984375 -4.21875 Z M -0.984375 -2.0625 L -4 -2.0625 L -4 -4.78125 C -4 -5.328125 -3.859375 -5.6875 -3.578125 -5.953125 C -3.296875 -6.21875 -2.921875 -6.359375 -2.484375 -6.359375 C -2.0625 -6.359375 -1.6875 -6.21875 -1.40625 -5.953125 C -1.109375 -5.6875 -0.984375 -5.328125 -0.984375 -4.78125 Z M -0.984375 -2.0625 "/>
</symbol>
<symbol overflow="visible" id="glyph1-2">
<path style="stroke:none;" d="M -6.28125 -1.796875 L -6.28125 -0.796875 L 0 -0.796875 L 0 -1.796875 Z M -8.75 -1.796875 L -8.75 -0.796875 L -7.484375 -0.796875 L -7.484375 -1.796875 Z M -8.75 -1.796875 "/>
</symbol>
<symbol overflow="visible" id="glyph1-3">
<path style="stroke:none;" d="M -6.28125 -3.046875 L -6.28125 -2.015625 L -8.015625 -2.015625 L -8.015625 -1.015625 L -6.28125 -1.015625 L -6.28125 -0.171875 L -5.46875 -0.171875 L -5.46875 -1.015625 L -0.71875 -1.015625 C -0.078125 -1.015625 0.28125 -1.453125 0.28125 -2.234375 C 0.28125 -2.46875 0.25 -2.71875 0.1875 -3.046875 L -0.640625 -3.046875 C -0.609375 -2.921875 -0.59375 -2.765625 -0.59375 -2.5625 C -0.59375 -2.140625 -0.71875 -2.015625 -1.15625 -2.015625 L -5.46875 -2.015625 L -5.46875 -3.046875 Z M -6.28125 -3.046875 "/>
</symbol>
<symbol overflow="visible" id="glyph1-4">
<path style="stroke:none;" d="M -4.53125 -5.25 C -5.765625 -5.25 -6.46875 -4.421875 -6.46875 -2.96875 C -6.46875 -1.515625 -5.71875 -0.5625 -4.546875 -0.5625 C -3.5625 -0.5625 -3.09375 -1.0625 -2.734375 -2.5625 L -2.515625 -3.484375 C -2.34375 -4.1875 -2.09375 -4.46875 -1.625 -4.46875 C -1.046875 -4.46875 -0.640625 -3.875 -0.640625 -3 C -0.640625 -2.453125 -0.796875 -2 -1.0625 -1.75 C -1.25 -1.59375 -1.421875 -1.53125 -1.875 -1.46875 L -1.875 -0.40625 C -0.421875 -0.453125 0.28125 -1.265625 0.28125 -2.921875 C 0.28125 -4.5 -0.5 -5.515625 -1.71875 -5.515625 C -2.65625 -5.515625 -3.171875 -4.984375 -3.46875 -3.734375 L -3.703125 -2.765625 C -3.890625 -1.953125 -4.15625 -1.609375 -4.59375 -1.609375 C -5.171875 -1.609375 -5.546875 -2.125 -5.546875 -2.9375 C -5.546875 -3.75 -5.203125 -4.171875 -4.53125 -4.203125 Z M -4.53125 -5.25 "/>
</symbol>
</g>
</defs>
<g id="surface23565">
<rect x="0" y="0" width="720" height="360" style="fill:rgb(100%,100%,100%);fill-opacity:1;stroke:none;"/>
<path style=" stroke:none;fill-rule:nonzero;fill:rgb(6.27451%,58.823529%,28.235294%);fill-opacity:1;" d="M 69.628906 285.589844 L 69.675781 285.546875 L 89.15625 239.007812 L 95.074219 239.007812 L 114.648438 285.632812 L 107.773438 285.632812 L 102.867188 273.464844 L 81.367188 273.464844 L 76.554688 285.589844 L 69.628906 285.589844 L 83.433594 268.429688 L 100.894531 268.382812 L 92.1875 246.625 L 92.089844 246.582031 L 91.996094 246.710938 L 83.386719 268.382812 L 83.433594 268.429688 Z M 69.628906 285.589844 "/>
<path style=" stroke:none;fill-rule:nonzero;fill:rgb(14.509804%,36.078431%,60%);fill-opacity:1;" d="M 69.628906 304.238281 L 69.683594 304.230469 L 69.683594 304.050781 L 69.847656 303.765625 L 70.234375 303.402344 L 70.617188 303.15625 L 71.605469 302.710938 L 72.976562 302.285156 L 74.40625 301.953125 L 75.449219 301.757812 L 76.382812 301.605469 L 78.523438 301.328125 L 79.894531 301.1875 L 81.378906 301.058594 L 83.191406 300.929688 L 84.507812 300.855469 L 87.472656 300.734375 L 89.667969 300.683594 L 91.371094 300.660156 L 95.050781 300.660156 L 97.246094 300.691406 L 98.839844 300.726562 L 100.59375 300.789062 L 102.078125 300.855469 L 104.65625 301.019531 L 106.964844 301.230469 L 108.007812 301.351562 L 109.652344 301.585938 L 110.917969 301.808594 L 111.796875 302.003906 L 112.785156 302.285156 L 113.660156 302.621094 L 114.320312 303.003906 L 114.648438 303.328125 L 106.964844 303.328125 L 106.578125 303.027344 L 106.140625 302.792969 L 105.316406 302.488281 L 104.492188 302.269531 L 103.339844 302.050781 L 102.296875 301.90625 L 100.871094 301.765625 L 99.605469 301.675781 L 98.289062 301.605469 L 97.027344 301.5625 L 94.609375 301.515625 L 91.808594 301.515625 L 90.765625 301.53125 L 88.625 301.59375 L 87.472656 301.644531 L 85.824219 301.75 L 84.671875 301.847656 L 83.300781 301.996094 L 82.367188 302.125 L 81.214844 302.320312 L 80.390625 302.492188 L 79.457031 302.742188 L 78.90625 302.929688 L 78.414062 303.140625 L 77.976562 303.390625 L 77.644531 303.652344 L 77.425781 303.929688 L 77.316406 304.199219 L 77.316406 305.367188 L 77.425781 305.636719 L 77.699219 305.953125 L 78.414062 306.410156 L 79.457031 306.808594 L 80.664062 307.125 L 81.816406 307.351562 L 82.476562 307.457031 L 83.355469 307.578125 L 84.726562 307.726562 L 86.703125 307.878906 L 87.855469 307.9375 L 89.613281 307.996094 L 91.425781 308.027344 L 93.84375 308.027344 L 95.984375 307.996094 L 97.410156 307.960938 L 98.894531 307.898438 L 100.925781 307.773438 L 102.1875 307.652344 L 103.285156 307.507812 L 104.109375 307.367188 L 104.65625 307.246094 L 105.480469 307.011719 L 106.140625 306.757812 L 106.632812 306.492188 L 106.964844 306.238281 L 114.648438 306.238281 L 114.320312 306.539062 L 113.828125 306.832031 L 113.332031 307.050781 L 112.5625 307.3125 L 111.6875 307.546875 L 110.421875 307.808594 L 109.378906 307.980469 L 108.007812 308.171875 L 106.746094 308.3125 L 105.371094 308.441406 L 103.339844 308.589844 L 102.023438 308.667969 L 100.59375 308.734375 L 98.894531 308.792969 L 96.75 308.847656 L 94.445312 308.878906 L 92.304688 308.882812 L 90 308.871094 L 88.296875 308.839844 L 86.046875 308.773438 L 83.246094 308.636719 L 81.214844 308.492188 L 79.621094 308.351562 L 78.25 308.199219 L 76.710938 307.996094 L 74.734375 307.667969 L 73.527344 307.410156 L 72.703125 307.199219 L 71.769531 306.90625 L 71.113281 306.644531 L 70.34375 306.222656 L 69.792969 305.6875 L 69.628906 305.277344 Z M 69.628906 304.238281 "/>
<path style=" stroke:none;fill-rule:nonzero;fill:rgb(96.862745%,70.196078%,16.862745%);fill-opacity:1;" d="M 69.628906 292.238281 L 69.683594 292.226562 L 69.683594 291.996094 L 69.902344 291.476562 L 70.453125 290.757812 L 71.167969 290.167969 L 71.933594 289.707031 L 72.429688 289.460938 L 73.253906 289.117188 L 73.964844 288.859375 L 75.777344 288.339844 L 78.085938 287.855469 L 79.347656 287.648438 L 80.773438 287.449219 L 82.804688 287.230469 L 83.738281 287.148438 L 86.59375 286.964844 L 89.832031 286.847656 L 93.402344 286.8125 L 95.050781 286.824219 L 97.300781 286.871094 L 100.375 287 L 102.132812 287.113281 L 103.503906 287.230469 L 104.933594 287.378906 L 106.6875 287.613281 L 108.335938 287.890625 L 109.652344 288.167969 L 110.972656 288.515625 L 112.070312 288.882812 L 113.003906 289.289062 L 113.828125 289.773438 L 114.320312 290.179688 L 114.648438 290.585938 L 107.019531 290.585938 L 106.578125 290.179688 L 106.085938 289.867188 L 105.261719 289.484375 L 104.4375 289.207031 L 103.613281 288.988281 L 102.078125 288.6875 L 100.757812 288.503906 L 99.113281 288.339844 L 97.519531 288.238281 L 95.707031 288.167969 L 94.609375 288.144531 L 91.699219 288.144531 L 89.066406 288.226562 L 87.527344 288.316406 L 86.429688 288.410156 L 84.890625 288.582031 L 83.960938 288.722656 L 83.410156 288.816406 L 81.761719 289.171875 L 80.664062 289.496094 L 80.0625 289.71875 L 79.292969 290.0625 L 78.742188 290.375 L 78.140625 290.839844 L 77.808594 291.1875 L 77.371094 291.972656 L 77.316406 294.054688 L 77.480469 294.496094 L 77.808594 294.96875 L 78.25 295.386719 L 78.90625 295.824219 L 79.566406 296.160156 L 80.71875 296.609375 L 81.707031 296.910156 L 82.476562 297.109375 L 83.960938 297.421875 L 84.5625 297.523438 L 85.992188 297.734375 L 87.472656 297.894531 L 89.285156 298.035156 L 90.65625 298.101562 L 92.855469 298.160156 L 95.652344 298.160156 L 98.949219 298.09375 L 101.035156 298 L 102.460938 297.90625 L 103.394531 297.824219 L 104.546875 297.699219 L 105.371094 297.582031 L 106.140625 297.457031 L 107.074219 297.257812 L 107.074219 294.496094 L 93.511719 294.484375 L 93.511719 293.1875 L 114.59375 293.175781 L 114.648438 297.699219 L 113.496094 298.011719 L 112.070312 298.3125 L 110.699219 298.542969 L 109.269531 298.738281 L 107.238281 298.960938 L 105.589844 299.097656 L 103.066406 299.261719 L 100.757812 299.363281 L 98.34375 299.433594 L 96.203125 299.46875 L 93.675781 299.480469 L 91.425781 299.457031 L 89.011719 299.386719 L 87.089844 299.292969 L 85.332031 299.179688 L 83.574219 299.027344 L 81.378906 298.785156 L 79.953125 298.589844 L 78.46875 298.347656 L 76.988281 298.058594 L 75.667969 297.746094 L 74.789062 297.503906 L 73.910156 297.222656 L 72.976562 296.878906 L 72.101562 296.484375 L 71.441406 296.125 L 70.835938 295.71875 L 70.398438 295.339844 L 69.957031 294.820312 L 69.738281 294.402344 L 69.628906 294.042969 Z M 69.628906 292.238281 "/>
<path style=" stroke:none;fill-rule:nonzero;fill:rgb(83.921569%,15.686275%,22.352941%);fill-opacity:1;" d="M 69.628906 310.0625 L 114.648438 310.0625 L 114.648438 310.523438 L 95.886719 310.527344 L 95.886719 314.371094 L 88.339844 314.371094 L 88.339844 310.535156 L 88.230469 310.523438 L 69.628906 310.523438 Z M 69.628906 310.0625 "/>
<path style=" stroke:none;fill-rule:nonzero;fill:rgb(6.27451%,58.823529%,28.235294%);fill-opacity:1;" d="M 117.019531 311.671875 L 117.066406 311.667969 L 136.546875 309.257812 L 142.464844 309.257812 L 162.039062 311.675781 L 155.164062 311.675781 L 150.257812 311.042969 L 128.757812 311.042969 L 123.945312 311.671875 L 117.019531 311.671875 L 130.824219 310.78125 L 148.285156 310.78125 L 139.578125 309.652344 L 139.480469 309.652344 L 139.386719 309.65625 L 130.777344 310.78125 L 130.824219 310.78125 Z M 117.019531 311.671875 "/>
<path style=" stroke:none;fill-rule:nonzero;fill:rgb(14.509804%,36.078431%,60%);fill-opacity:1;" d="M 117.019531 161.1875 L 117.074219 160.957031 L 117.074219 155.460938 L 117.238281 146.761719 L 117.625 135.773438 L 118.007812 128.214844 L 118.996094 114.707031 L 120.367188 101.65625 L 121.796875 91.582031 L 122.839844 85.628906 L 123.773438 81.050781 L 125.914062 72.578125 L 127.285156 68.226562 L 128.769531 64.335938 L 130.582031 60.441406 L 131.898438 58.152344 L 134.863281 54.488281 L 137.058594 52.886719 L 138.761719 52.199219 L 142.441406 52.199219 L 144.636719 53.117188 L 146.230469 54.261719 L 147.984375 56.09375 L 149.46875 58.152344 L 152.046875 63.191406 L 154.355469 69.601562 L 155.398438 73.265625 L 157.042969 80.363281 L 158.308594 87.230469 L 159.1875 93.183594 L 160.175781 101.65625 L 161.050781 111.960938 L 161.710938 123.636719 L 162.039062 133.480469 L 154.355469 133.480469 L 153.96875 124.324219 L 153.53125 117.226562 L 152.707031 107.839844 L 151.882812 101.199219 L 150.730469 94.558594 L 149.6875 90.207031 L 148.261719 85.859375 L 146.996094 83.109375 L 145.679688 81.050781 L 144.417969 79.675781 L 142 78.300781 L 139.199219 78.300781 L 138.15625 78.757812 L 136.015625 80.589844 L 134.863281 82.195312 L 133.214844 85.398438 L 132.0625 88.375 L 130.691406 92.957031 L 129.757812 96.847656 L 128.605469 102.800781 L 127.78125 108.066406 L 126.847656 115.621094 L 126.296875 121.347656 L 125.804688 127.757812 L 125.367188 135.3125 L 125.035156 143.328125 L 124.816406 151.800781 L 124.707031 160.042969 L 124.707031 195.53125 L 124.816406 203.773438 L 125.089844 213.390625 L 125.804688 227.355469 L 126.847656 239.492188 L 128.054688 249.109375 L 129.207031 255.976562 L 129.867188 259.183594 L 130.746094 262.847656 L 132.117188 267.425781 L 134.09375 272.003906 L 135.246094 273.835938 L 137.003906 275.667969 L 138.816406 276.585938 L 141.234375 276.585938 L 143.375 275.667969 L 144.800781 274.523438 L 146.285156 272.691406 L 148.316406 268.800781 L 149.578125 265.136719 L 150.675781 260.785156 L 151.5 256.433594 L 152.046875 252.773438 L 152.871094 245.675781 L 153.53125 237.890625 L 154.023438 229.875 L 154.355469 222.089844 L 162.039062 222.089844 L 161.710938 231.25 L 161.21875 240.179688 L 160.722656 246.820312 L 159.953125 254.832031 L 159.074219 261.929688 L 157.8125 269.945312 L 156.769531 275.210938 L 155.398438 280.933594 L 154.136719 285.285156 L 152.761719 289.175781 L 150.730469 293.757812 L 149.414062 296.046875 L 147.984375 298.105469 L 146.285156 299.9375 L 144.140625 301.542969 L 141.835938 302.457031 L 139.695312 302.6875 L 137.390625 302.226562 L 135.6875 301.3125 L 133.4375 299.25 L 130.636719 295.128906 L 128.605469 290.78125 L 127.011719 286.429688 L 125.640625 281.851562 L 124.101562 275.667969 L 122.125 265.59375 L 120.917969 257.808594 L 120.09375 251.398438 L 119.160156 242.46875 L 118.503906 234.453125 L 117.734375 221.632812 L 117.183594 205.375 L 117.019531 192.785156 Z M 117.019531 161.1875 "/>
<path style=" stroke:none;fill-rule:nonzero;fill:rgb(96.862745%,70.196078%,16.862745%);fill-opacity:1;" d="M 117.019531 305.671875 L 117.074219 305.667969 L 117.074219 305.589844 L 117.292969 305.417969 L 117.84375 305.179688 L 118.558594 304.980469 L 119.324219 304.828125 L 119.820312 304.746094 L 120.644531 304.632812 L 121.355469 304.546875 L 123.167969 304.375 L 125.476562 304.210938 L 126.738281 304.144531 L 128.164062 304.078125 L 130.195312 304.003906 L 131.128906 303.976562 L 133.984375 303.914062 L 137.222656 303.878906 L 140.792969 303.867188 L 142.441406 303.871094 L 144.691406 303.886719 L 147.765625 303.925781 L 149.523438 303.964844 L 150.894531 304.003906 L 152.324219 304.054688 L 154.078125 304.132812 L 155.726562 304.222656 L 157.042969 304.316406 L 158.363281 304.429688 L 159.460938 304.554688 L 160.394531 304.6875 L 161.21875 304.851562 L 161.710938 304.984375 L 162.039062 305.121094 L 154.410156 305.121094 L 153.96875 304.984375 L 153.476562 304.882812 L 152.652344 304.753906 L 151.828125 304.664062 L 151.003906 304.589844 L 149.46875 304.488281 L 148.148438 304.425781 L 146.503906 304.375 L 144.910156 304.339844 L 143.097656 304.316406 L 142 304.308594 L 139.089844 304.308594 L 136.457031 304.335938 L 134.917969 304.367188 L 133.820312 304.398438 L 132.28125 304.453125 L 131.351562 304.5 L 130.800781 304.53125 L 129.152344 304.652344 L 128.054688 304.757812 L 127.453125 304.832031 L 126.683594 304.945312 L 126.132812 305.050781 L 125.53125 305.203125 L 125.199219 305.320312 L 124.761719 305.582031 L 124.707031 306.273438 L 124.871094 306.421875 L 125.199219 306.578125 L 125.640625 306.71875 L 126.296875 306.863281 L 126.957031 306.976562 L 128.109375 307.125 L 129.097656 307.226562 L 129.867188 307.289062 L 131.351562 307.394531 L 131.953125 307.429688 L 133.382812 307.496094 L 134.863281 307.550781 L 136.675781 307.597656 L 138.046875 307.621094 L 140.246094 307.640625 L 143.042969 307.640625 L 146.339844 307.617188 L 148.425781 307.585938 L 149.851562 307.554688 L 150.785156 307.527344 L 151.9375 307.488281 L 152.761719 307.449219 L 153.53125 307.40625 L 154.464844 307.339844 L 154.464844 306.421875 L 140.902344 306.417969 L 140.902344 305.984375 L 161.984375 305.980469 L 162.039062 307.488281 L 160.886719 307.589844 L 159.460938 307.691406 L 158.085938 307.765625 L 156.660156 307.832031 L 154.628906 307.90625 L 152.980469 307.953125 L 150.457031 308.007812 L 148.148438 308.039062 L 145.734375 308.0625 L 143.59375 308.074219 L 141.066406 308.078125 L 138.816406 308.070312 L 136.402344 308.046875 L 134.480469 308.015625 L 132.722656 307.980469 L 130.964844 307.929688 L 128.769531 307.847656 L 127.339844 307.78125 L 125.859375 307.703125 L 124.378906 307.605469 L 123.058594 307.5 L 122.179688 307.421875 L 121.300781 307.328125 L 120.367188 307.214844 L 119.492188 307.082031 L 118.832031 306.964844 L 118.226562 306.828125 L 117.789062 306.703125 L 117.347656 306.527344 L 117.128906 306.390625 L 117.019531 306.269531 Z M 117.019531 305.671875 "/>
<path style=" stroke:none;fill-rule:nonzero;fill:rgb(83.921569%,15.686275%,22.352941%);fill-opacity:1;" d="M 117.019531 312.855469 L 162.039062 312.855469 L 162.039062 313.015625 L 143.277344 313.019531 L 143.277344 314.371094 L 135.730469 314.371094 L 135.730469 313.019531 L 135.617188 313.015625 L 117.019531 313.015625 Z M 117.019531 312.855469 "/>
<path style=" stroke:none;fill-rule:nonzero;fill:rgb(6.27451%,58.823529%,28.235294%);fill-opacity:1;" d="M 164.410156 309.125 L 164.457031 308.855469 L 183.9375 23.863281 L 189.855469 23.863281 L 209.429688 309.394531 L 202.554688 309.394531 L 197.648438 234.859375 L 176.148438 234.859375 L 171.335938 309.125 L 164.410156 309.125 L 178.214844 204.027344 L 195.675781 203.761719 L 186.96875 70.515625 L 186.871094 70.246094 L 186.777344 71.050781 L 178.167969 203.761719 L 178.214844 204.027344 Z M 164.410156 309.125 "/>
<path style=" stroke:none;fill-rule:nonzero;fill:rgb(96.862745%,70.196078%,16.862745%);fill-opacity:1;" d="M 164.410156 313.195312 L 164.464844 313.195312 L 164.464844 313.191406 L 164.683594 313.175781 L 165.234375 313.160156 L 165.949219 313.144531 L 166.714844 313.132812 L 167.210938 313.128906 L 168.035156 313.117188 L 168.746094 313.113281 L 170.558594 313.097656 L 172.867188 313.085938 L 174.128906 313.082031 L 175.554688 313.078125 L 177.585938 313.070312 L 178.519531 313.070312 L 181.375 313.066406 L 184.613281 313.0625 L 192.082031 313.0625 L 195.15625 313.066406 L 196.914062 313.070312 L 198.285156 313.070312 L 199.714844 313.074219 L 201.46875 313.082031 L 203.117188 313.089844 L 204.433594 313.09375 L 205.753906 313.105469 L 206.851562 313.113281 L 207.785156 313.121094 L 208.609375 313.136719 L 209.101562 313.144531 L 209.429688 313.15625 L 201.800781 313.15625 L 201.359375 313.144531 L 200.867188 313.136719 L 199.21875 313.121094 L 198.394531 313.117188 L 196.859375 313.109375 L 195.539062 313.101562 L 193.894531 313.097656 L 192.300781 313.097656 L 190.488281 313.09375 L 186.480469 313.09375 L 183.847656 313.097656 L 182.308594 313.097656 L 181.210938 313.101562 L 179.671875 313.105469 L 178.742188 313.109375 L 178.191406 313.109375 L 176.542969 313.121094 L 175.445312 313.128906 L 174.84375 313.132812 L 174.074219 313.140625 L 173.523438 313.148438 L 172.921875 313.160156 L 172.589844 313.167969 L 172.152344 313.1875 L 172.097656 313.242188 L 172.261719 313.25 L 172.589844 313.261719 L 173.03125 313.273438 L 173.6875 313.285156 L 174.347656 313.292969 L 175.5 313.304688 L 176.488281 313.3125 L 177.257812 313.316406 L 178.742188 313.324219 L 179.34375 313.328125 L 180.773438 313.332031 L 182.253906 313.335938 L 184.066406 313.339844 L 185.4375 313.339844 L 187.632812 313.34375 L 190.433594 313.34375 L 193.730469 313.339844 L 195.816406 313.339844 L 197.242188 313.335938 L 198.175781 313.335938 L 199.328125 313.332031 L 200.152344 313.328125 L 200.921875 313.324219 L 201.855469 313.320312 L 201.855469 313.25 L 188.292969 313.25 L 188.292969 313.21875 L 209.375 313.21875 L 209.429688 313.332031 L 208.277344 313.339844 L 206.851562 313.347656 L 205.476562 313.351562 L 204.050781 313.355469 L 202.019531 313.363281 L 200.371094 313.367188 L 197.847656 313.371094 L 195.539062 313.371094 L 193.125 313.375 L 186.207031 313.375 L 183.792969 313.371094 L 181.871094 313.371094 L 178.355469 313.363281 L 176.160156 313.359375 L 174.730469 313.351562 L 173.25 313.347656 L 171.765625 313.339844 L 170.449219 313.332031 L 169.570312 313.324219 L 168.691406 313.320312 L 167.757812 313.3125 L 166.882812 313.300781 L 166.222656 313.292969 L 165.617188 313.28125 L 165.179688 313.273438 L 164.738281 313.257812 L 164.519531 313.25 L 164.410156 313.242188 Z M 164.410156 313.195312 "/>
<path style=" stroke:none;fill-rule:nonzero;fill:rgb(83.921569%,15.686275%,22.352941%);fill-opacity:1;" d="M 164.410156 310.574219 L 209.429688 310.574219 L 209.429688 310.710938 L 190.667969 310.714844 L 190.667969 311.882812 L 183.117188 311.882812 L 183.117188 310.714844 L 183.007812 310.710938 L 164.410156 310.710938 Z M 164.410156 310.574219 "/>
<path style=" stroke:none;fill-rule:nonzero;fill:rgb(14.509804%,36.078431%,60%);fill-opacity:1;" d="M 211.800781 307.914062 L 211.855469 307.914062 L 211.855469 307.824219 L 212.019531 307.6875 L 212.40625 307.511719 L 212.789062 307.394531 L 213.777344 307.179688 L 215.148438 306.972656 L 216.578125 306.8125 L 217.621094 306.71875 L 218.554688 306.644531 L 220.695312 306.511719 L 222.066406 306.441406 L 223.550781 306.382812 L 225.363281 306.320312 L 226.679688 306.28125 L 229.644531 306.226562 L 231.839844 306.199219 L 233.542969 306.1875 L 237.222656 306.1875 L 239.417969 306.203125 L 241.011719 306.222656 L 242.765625 306.25 L 244.25 306.28125 L 246.828125 306.363281 L 249.136719 306.464844 L 250.179688 306.523438 L 251.824219 306.636719 L 253.089844 306.742188 L 253.96875 306.839844 L 254.957031 306.972656 L 255.832031 307.136719 L 256.492188 307.320312 L 256.820312 307.476562 L 249.136719 307.476562 L 248.75 307.332031 L 248.3125 307.21875 L 247.488281 307.070312 L 246.664062 306.964844 L 245.511719 306.859375 L 244.46875 306.792969 L 243.042969 306.722656 L 241.777344 306.679688 L 240.460938 306.644531 L 239.199219 306.625 L 236.78125 306.601562 L 233.980469 306.601562 L 232.9375 306.609375 L 230.796875 306.640625 L 229.644531 306.664062 L 227.996094 306.714844 L 226.84375 306.761719 L 225.472656 306.835938 L 224.539062 306.894531 L 223.386719 306.992188 L 222.5625 307.074219 L 221.628906 307.195312 L 221.078125 307.285156 L 220.585938 307.386719 L 220.144531 307.503906 L 219.816406 307.632812 L 219.597656 307.765625 L 219.488281 307.898438 L 219.488281 308.460938 L 219.597656 308.589844 L 219.871094 308.742188 L 220.585938 308.964844 L 221.628906 309.15625 L 222.835938 309.308594 L 223.988281 309.417969 L 224.648438 309.46875 L 225.527344 309.527344 L 226.898438 309.597656 L 228.875 309.671875 L 230.027344 309.699219 L 231.785156 309.730469 L 233.597656 309.746094 L 236.011719 309.746094 L 238.15625 309.730469 L 239.582031 309.710938 L 241.066406 309.683594 L 243.097656 309.621094 L 244.359375 309.5625 L 245.457031 309.492188 L 246.28125 309.425781 L 246.828125 309.367188 L 247.652344 309.253906 L 248.3125 309.132812 L 248.804688 309.003906 L 249.136719 308.882812 L 256.820312 308.882812 L 256.492188 309.027344 L 256 309.167969 L 255.503906 309.273438 L 254.734375 309.398438 L 253.855469 309.511719 L 252.59375 309.640625 L 251.550781 309.722656 L 250.179688 309.8125 L 248.914062 309.882812 L 247.542969 309.945312 L 245.511719 310.015625 L 244.195312 310.054688 L 242.765625 310.085938 L 241.066406 310.113281 L 238.921875 310.140625 L 236.617188 310.15625 L 234.476562 310.15625 L 232.171875 310.152344 L 230.46875 310.136719 L 228.21875 310.105469 L 225.417969 310.039062 L 223.386719 309.96875 L 221.792969 309.902344 L 220.421875 309.828125 L 218.882812 309.730469 L 216.90625 309.570312 L 215.699219 309.445312 L 214.875 309.34375 L 213.941406 309.203125 L 213.285156 309.078125 L 212.515625 308.875 L 211.964844 308.617188 L 211.800781 308.417969 Z M 211.800781 307.914062 "/>
<path style=" stroke:none;fill-rule:nonzero;fill:rgb(96.862745%,70.196078%,16.862745%);fill-opacity:1;" d="M 211.800781 154.226562 L 211.855469 153.988281 L 211.855469 149.167969 L 212.074219 138.332031 L 212.625 123.398438 L 213.339844 111.113281 L 214.105469 101.476562 L 214.601562 96.421875 L 215.425781 89.195312 L 216.136719 83.894531 L 217.949219 73.054688 L 220.257812 62.941406 L 221.519531 58.605469 L 222.945312 54.507812 L 224.976562 49.933594 L 225.910156 48.246094 L 228.765625 44.394531 L 232.003906 41.984375 L 235.574219 41.261719 L 237.222656 41.503906 L 239.472656 42.464844 L 242.546875 45.117188 L 244.304688 47.523438 L 245.675781 49.933594 L 247.105469 53.0625 L 248.859375 57.882812 L 250.507812 63.664062 L 251.824219 69.441406 L 253.144531 76.667969 L 254.242188 84.375 L 255.175781 92.808594 L 256 102.921875 L 256.492188 111.355469 L 256.820312 119.785156 L 249.191406 119.785156 L 248.75 111.355469 L 248.257812 104.851562 L 247.433594 96.902344 L 246.609375 91.121094 L 245.785156 86.542969 L 244.25 80.28125 L 242.929688 76.429688 L 241.285156 73.054688 L 239.691406 70.886719 L 237.878906 69.441406 L 236.78125 68.960938 L 233.871094 68.960938 L 231.238281 70.648438 L 229.699219 72.574219 L 228.601562 74.5 L 227.0625 78.113281 L 226.132812 81.003906 L 225.582031 82.929688 L 223.933594 90.398438 L 222.835938 97.144531 L 222.234375 101.71875 L 221.464844 108.945312 L 220.914062 115.449219 L 220.3125 125.082031 L 219.980469 132.308594 L 219.542969 148.6875 L 219.488281 192.042969 L 219.652344 201.195312 L 219.980469 211.070312 L 220.421875 219.742188 L 221.078125 228.894531 L 221.738281 235.882812 L 222.890625 245.273438 L 223.878906 251.539062 L 224.648438 255.632812 L 226.132812 262.136719 L 226.734375 264.304688 L 228.164062 268.636719 L 229.644531 272.011719 L 231.457031 274.902344 L 232.828125 276.347656 L 235.023438 277.550781 L 237.824219 277.550781 L 241.121094 276.105469 L 243.207031 274.179688 L 244.632812 272.25 L 245.566406 270.566406 L 246.71875 267.917969 L 247.542969 265.507812 L 248.3125 262.859375 L 249.246094 258.761719 L 249.246094 201.195312 L 235.683594 200.957031 L 235.683594 173.980469 L 256.765625 173.738281 L 256.820312 267.917969 L 255.667969 274.417969 L 254.242188 280.683594 L 252.867188 285.5 L 251.441406 289.59375 L 249.410156 294.171875 L 247.761719 297.0625 L 245.238281 300.433594 L 242.929688 302.601562 L 240.515625 304.046875 L 238.375 304.769531 L 235.847656 305.007812 L 233.597656 304.527344 L 231.183594 303.082031 L 229.261719 301.15625 L 227.503906 298.746094 L 225.746094 295.617188 L 223.550781 290.558594 L 222.121094 286.460938 L 220.640625 281.40625 L 219.15625 275.382812 L 217.839844 268.878906 L 216.960938 263.820312 L 216.082031 258.039062 L 215.148438 250.816406 L 214.273438 242.625 L 213.613281 235.160156 L 213.007812 226.726562 L 212.570312 218.78125 L 212.128906 207.941406 L 211.910156 199.269531 L 211.800781 191.800781 Z M 211.800781 154.226562 "/>
<path style=" stroke:none;fill-rule:nonzero;fill:rgb(83.921569%,15.686275%,22.352941%);fill-opacity:1;" d="M 211.800781 311.335938 L 256.820312 311.335938 L 256.820312 311.5625 L 238.058594 311.5625 L 238.058594 313.433594 L 230.507812 313.433594 L 230.507812 311.566406 L 230.398438 311.5625 L 211.800781 311.5625 Z M 211.800781 311.335938 "/>
<path style=" stroke:none;fill-rule:nonzero;fill:rgb(6.27451%,58.823529%,28.235294%);fill-opacity:1;" d="M 259.191406 309.675781 L 259.238281 309.671875 L 278.71875 306.632812 L 284.636719 306.632812 L 304.210938 309.679688 L 297.335938 309.679688 L 292.429688 308.882812 L 270.929688 308.882812 L 266.117188 309.675781 L 259.191406 309.675781 L 272.996094 308.554688 L 290.457031 308.550781 L 281.75 307.132812 L 281.652344 307.128906 L 281.558594 307.136719 L 272.949219 308.550781 L 272.996094 308.554688 Z M 259.191406 309.675781 "/>
<path style=" stroke:none;fill-rule:nonzero;fill:rgb(14.509804%,36.078431%,60%);fill-opacity:1;" d="M 259.191406 155.8125 L 259.246094 155.570312 L 259.246094 149.757812 L 259.410156 140.558594 L 259.796875 128.933594 L 260.179688 120.945312 L 261.167969 106.65625 L 262.539062 92.855469 L 263.96875 82.203125 L 265.011719 75.90625 L 265.945312 71.0625 L 268.085938 62.105469 L 269.457031 57.503906 L 270.941406 53.386719 L 272.753906 49.269531 L 274.070312 46.847656 L 277.035156 42.976562 L 279.230469 41.28125 L 280.933594 40.554688 L 284.613281 40.554688 L 286.808594 41.523438 L 288.398438 42.734375 L 290.15625 44.671875 L 291.640625 46.847656 L 294.21875 52.175781 L 296.527344 58.957031 L 297.570312 62.832031 L 299.214844 70.335938 L 300.480469 77.601562 L 301.359375 83.898438 L 302.347656 92.855469 L 303.222656 103.753906 L 303.882812 116.101562 L 304.210938 126.511719 L 296.527344 126.511719 L 296.140625 116.828125 L 295.703125 109.320312 L 294.878906 99.394531 L 294.054688 92.371094 L 292.902344 85.347656 L 291.859375 80.75 L 290.433594 76.148438 L 289.167969 73.242188 L 287.851562 71.0625 L 286.589844 69.609375 L 284.171875 68.15625 L 281.371094 68.15625 L 280.328125 68.640625 L 278.1875 70.578125 L 277.035156 72.273438 L 275.386719 75.664062 L 274.234375 78.8125 L 272.863281 83.65625 L 271.929688 87.769531 L 270.777344 94.066406 L 269.953125 99.636719 L 269.019531 107.625 L 268.46875 113.679688 L 267.976562 120.460938 L 267.535156 128.449219 L 267.207031 136.925781 L 266.988281 145.882812 L 266.878906 154.601562 L 266.878906 192.132812 L 266.988281 200.851562 L 267.261719 211.019531 L 267.976562 225.789062 L 269.019531 238.625 L 270.226562 248.792969 L 271.378906 256.058594 L 272.039062 259.449219 L 272.917969 263.320312 L 274.289062 268.164062 L 276.265625 273.007812 L 277.417969 274.945312 L 279.175781 276.882812 L 280.988281 277.851562 L 283.402344 277.851562 L 285.546875 276.882812 L 286.972656 275.671875 L 288.457031 273.734375 L 290.488281 269.617188 L 291.75 265.742188 L 292.847656 261.144531 L 293.671875 256.542969 L 294.21875 252.667969 L 295.042969 245.160156 L 295.703125 236.929688 L 296.195312 228.453125 L 296.527344 220.222656 L 304.210938 220.222656 L 303.882812 229.90625 L 303.390625 239.351562 L 302.894531 246.371094 L 302.125 254.847656 L 301.246094 262.355469 L 299.984375 270.828125 L 298.941406 276.398438 L 297.570312 282.449219 L 296.304688 287.050781 L 294.933594 291.167969 L 292.902344 296.011719 L 291.585938 298.433594 L 290.15625 300.613281 L 288.457031 302.546875 L 286.3125 304.242188 L 284.007812 305.210938 L 281.867188 305.453125 L 279.5625 304.96875 L 277.859375 304 L 275.609375 301.824219 L 272.808594 297.464844 L 270.777344 292.863281 L 269.183594 288.261719 L 267.8125 283.417969 L 266.273438 276.882812 L 264.296875 266.226562 L 263.089844 257.996094 L 262.265625 251.214844 L 261.332031 241.773438 L 260.675781 233.296875 L 259.90625 219.738281 L 259.355469 202.546875 L 259.191406 189.226562 Z M 259.191406 155.8125 "/>
<path style=" stroke:none;fill-rule:nonzero;fill:rgb(96.862745%,70.196078%,16.862745%);fill-opacity:1;" d="M 259.191406 311.355469 L 259.246094 311.355469 L 259.246094 311.335938 L 259.464844 311.285156 L 260.015625 311.222656 L 260.730469 311.167969 L 261.496094 311.125 L 261.992188 311.101562 L 262.816406 311.070312 L 263.527344 311.046875 L 265.339844 311 L 267.648438 310.953125 L 268.910156 310.933594 L 270.335938 310.917969 L 272.367188 310.894531 L 273.300781 310.886719 L 276.15625 310.871094 L 279.394531 310.859375 L 284.613281 310.859375 L 286.863281 310.863281 L 289.9375 310.875 L 291.695312 310.886719 L 293.066406 310.894531 L 294.496094 310.910156 L 296.25 310.929688 L 297.898438 310.957031 L 299.214844 310.980469 L 300.535156 311.015625 L 301.632812 311.046875 L 302.566406 311.085938 L 303.390625 311.128906 L 303.882812 311.167969 L 304.210938 311.203125 L 296.582031 311.203125 L 296.140625 311.167969 L 295.648438 311.140625 L 294.824219 311.105469 L 294 311.078125 L 293.175781 311.058594 L 291.640625 311.03125 L 290.320312 311.011719 L 288.675781 311 L 287.082031 310.988281 L 285.269531 310.980469 L 281.261719 310.980469 L 278.628906 310.988281 L 277.089844 310.996094 L 275.992188 311.003906 L 274.453125 311.019531 L 273.519531 311.035156 L 272.972656 311.042969 L 271.324219 311.074219 L 270.226562 311.105469 L 269.625 311.125 L 268.855469 311.15625 L 268.304688 311.1875 L 267.703125 311.226562 L 267.371094 311.261719 L 266.933594 311.332031 L 266.878906 311.523438 L 267.042969 311.566406 L 267.371094 311.609375 L 267.8125 311.648438 L 268.46875 311.6875 L 269.128906 311.71875 L 270.28125 311.761719 L 271.269531 311.789062 L 272.039062 311.804688 L 273.519531 311.835938 L 274.125 311.84375 L 275.554688 311.863281 L 277.035156 311.878906 L 278.847656 311.890625 L 280.21875 311.898438 L 282.414062 311.902344 L 285.214844 311.902344 L 288.511719 311.894531 L 290.597656 311.886719 L 292.023438 311.878906 L 292.957031 311.871094 L 294.109375 311.859375 L 294.933594 311.847656 L 295.703125 311.835938 L 296.636719 311.820312 L 296.636719 311.566406 L 283.074219 311.5625 L 283.074219 311.445312 L 304.15625 311.445312 L 304.210938 311.859375 L 303.058594 311.890625 L 301.632812 311.917969 L 300.257812 311.9375 L 298.832031 311.957031 L 296.800781 311.976562 L 295.152344 311.988281 L 292.628906 312.003906 L 290.320312 312.011719 L 287.90625 312.019531 L 285.765625 312.023438 L 280.988281 312.023438 L 278.574219 312.015625 L 276.652344 312.007812 L 273.136719 311.984375 L 270.941406 311.960938 L 269.511719 311.941406 L 268.03125 311.917969 L 266.546875 311.894531 L 265.230469 311.863281 L 264.351562 311.84375 L 263.472656 311.816406 L 262.539062 311.785156 L 261.664062 311.75 L 261.003906 311.714844 L 260.398438 311.679688 L 259.960938 311.644531 L 259.519531 311.59375 L 259.300781 311.554688 L 259.191406 311.523438 Z M 259.191406 311.355469 "/>
<path style=" stroke:none;fill-rule:nonzero;fill:rgb(83.921569%,15.686275%,22.352941%);fill-opacity:1;" d="M 259.191406 313.203125 L 304.210938 313.203125 L 304.210938 313.328125 L 285.449219 313.328125 L 285.449219 314.371094 L 277.898438 314.371094 L 277.898438 313.332031 L 277.789062 313.328125 L 259.191406 313.328125 Z M 259.191406 313.203125 "/>
<path style=" stroke:none;fill-rule:nonzero;fill:rgb(6.27451%,58.823529%,28.235294%);fill-opacity:1;" d="M 306.582031 313.363281 L 306.628906 313.359375 L 326.109375 311.019531 L 332.027344 311.019531 L 351.601562 313.363281 L 344.726562 313.363281 L 339.820312 312.753906 L 318.320312 312.753906 L 313.507812 313.363281 L 306.582031 313.363281 L 320.386719 312.5 L 337.847656 312.496094 L 329.140625 311.402344 L 329.042969 311.402344 L 328.949219 311.410156 L 320.339844 312.496094 L 320.386719 312.5 Z M 306.582031 313.363281 "/>
<path style=" stroke:none;fill-rule:nonzero;fill:rgb(83.921569%,15.686275%,22.352941%);fill-opacity:1;" d="M 306.582031 20.664062 L 351.601562 20.664062 L 351.601562 51.617188 L 332.839844 51.890625 L 332.839844 309.839844 L 325.289062 309.839844 L 325.289062 52.160156 L 325.179688 51.617188 L 306.582031 51.617188 Z M 306.582031 20.664062 "/>
<path style=" stroke:none;fill-rule:nonzero;fill:rgb(14.509804%,36.078431%,60%);fill-opacity:1;" d="M 353.972656 309.957031 L 354.027344 309.957031 L 354.027344 309.917969 L 354.191406 309.855469 L 354.578125 309.777344 L 354.960938 309.726562 L 355.949219 309.632812 L 357.320312 309.539062 L 358.75 309.46875 L 359.792969 309.429688 L 360.726562 309.394531 L 362.867188 309.335938 L 364.238281 309.304688 L 365.722656 309.277344 L 367.535156 309.25 L 368.851562 309.234375 L 371.816406 309.210938 L 374.011719 309.199219 L 375.714844 309.195312 L 379.394531 309.195312 L 381.589844 309.199219 L 383.179688 309.207031 L 384.9375 309.222656 L 386.421875 309.234375 L 389 309.269531 L 391.308594 309.316406 L 392.351562 309.339844 L 393.996094 309.390625 L 395.261719 309.4375 L 396.140625 309.480469 L 397.128906 309.539062 L 398.003906 309.613281 L 398.664062 309.695312 L 398.992188 309.761719 L 391.308594 309.761719 L 390.921875 309.699219 L 390.484375 309.648438 L 389.660156 309.582031 L 388.835938 309.535156 L 387.683594 309.492188 L 386.640625 309.460938 L 385.210938 309.429688 L 383.949219 309.410156 L 382.632812 309.394531 L 381.371094 309.386719 L 378.953125 309.375 L 376.152344 309.375 L 375.109375 309.378906 L 372.96875 309.394531 L 371.816406 309.402344 L 370.167969 309.425781 L 369.015625 309.445312 L 367.644531 309.480469 L 366.710938 309.507812 L 365.558594 309.546875 L 364.734375 309.585938 L 363.800781 309.636719 L 363.25 309.679688 L 362.757812 309.722656 L 362.316406 309.777344 L 361.988281 309.832031 L 361.769531 309.890625 L 361.660156 309.949219 L 361.660156 310.199219 L 361.769531 310.253906 L 362.042969 310.324219 L 362.757812 310.421875 L 363.800781 310.503906 L 365.007812 310.574219 L 366.160156 310.621094 L 366.820312 310.644531 L 367.699219 310.667969 L 369.070312 310.699219 L 371.046875 310.734375 L 372.199219 310.746094 L 373.957031 310.757812 L 375.769531 310.765625 L 378.183594 310.765625 L 380.328125 310.757812 L 381.753906 310.75 L 383.238281 310.738281 L 385.269531 310.710938 L 386.53125 310.683594 L 387.628906 310.65625 L 388.453125 310.625 L 389 310.597656 L 389.824219 310.546875 L 390.484375 310.496094 L 390.976562 310.4375 L 391.308594 310.382812 L 398.992188 310.382812 L 398.664062 310.449219 L 398.171875 310.511719 L 397.675781 310.558594 L 396.90625 310.613281 L 396.027344 310.664062 L 394.765625 310.71875 L 393.722656 310.753906 L 392.351562 310.796875 L 391.085938 310.824219 L 389.714844 310.851562 L 387.683594 310.886719 L 386.367188 310.902344 L 384.9375 310.914062 L 383.238281 310.929688 L 381.09375 310.941406 L 378.789062 310.945312 L 376.648438 310.949219 L 374.34375 310.945312 L 372.640625 310.9375 L 370.390625 310.925781 L 367.589844 310.894531 L 365.558594 310.863281 L 363.964844 310.835938 L 362.59375 310.800781 L 361.054688 310.757812 L 359.078125 310.6875 L 357.871094 310.632812 L 357.046875 310.589844 L 356.113281 310.527344 L 355.453125 310.46875 L 354.6875 310.378906 L 354.136719 310.265625 L 353.972656 310.179688 Z M 353.972656 309.957031 "/>
<path style=" stroke:none;fill-rule:nonzero;fill:rgb(96.862745%,70.196078%,16.862745%);fill-opacity:1;" d="M 353.972656 148.519531 L 354.027344 148.261719 L 354.027344 143.167969 L 354.246094 131.703125 L 354.796875 115.90625 L 355.511719 102.910156 L 356.277344 92.71875 L 356.773438 87.371094 L 357.597656 79.726562 L 358.308594 74.121094 L 360.121094 62.65625 L 362.429688 51.953125 L 363.691406 47.367188 L 365.117188 43.035156 L 367.148438 38.195312 L 368.082031 36.410156 L 370.9375 32.335938 L 374.175781 29.789062 L 377.746094 29.023438 L 379.394531 29.277344 L 381.644531 30.296875 L 384.71875 33.101562 L 386.476562 35.648438 L 387.847656 38.195312 L 389.277344 41.507812 L 391.03125 46.601562 L 392.679688 52.71875 L 393.996094 58.832031 L 395.316406 66.476562 L 396.414062 74.628906 L 397.347656 83.546875 L 398.171875 94.25 L 398.664062 103.164062 L 398.992188 112.082031 L 391.363281 112.082031 L 390.921875 103.164062 L 390.429688 96.285156 L 389.605469 87.878906 L 388.78125 81.765625 L 387.957031 76.921875 L 386.421875 70.296875 L 385.101562 66.222656 L 383.457031 62.65625 L 381.863281 60.363281 L 380.050781 58.832031 L 378.953125 58.324219 L 376.042969 58.324219 L 373.410156 60.105469 L 371.871094 62.144531 L 370.773438 64.183594 L 369.234375 68.003906 L 368.300781 71.0625 L 367.753906 73.101562 L 366.105469 81 L 365.007812 88.132812 L 364.40625 92.972656 L 363.636719 100.617188 L 363.085938 107.496094 L 362.484375 117.6875 L 362.152344 125.332031 L 361.714844 142.65625 L 361.660156 188.519531 L 361.824219 198.203125 L 362.152344 208.648438 L 362.59375 217.820312 L 363.25 227.5 L 363.910156 234.890625 L 365.0625 244.828125 L 366.050781 251.453125 L 366.820312 255.78125 L 368.300781 262.664062 L 368.90625 264.957031 L 370.332031 269.542969 L 371.816406 273.109375 L 373.628906 276.164062 L 375 277.695312 L 377.195312 278.96875 L 379.996094 278.96875 L 383.292969 277.441406 L 385.378906 275.402344 L 386.804688 273.363281 L 387.738281 271.578125 L 388.890625 268.777344 L 389.714844 266.230469 L 390.484375 263.425781 L 391.417969 259.09375 L 391.417969 198.203125 L 377.855469 197.945312 L 377.855469 169.410156 L 398.9375 169.15625 L 398.992188 268.777344 L 397.839844 275.65625 L 396.414062 282.28125 L 395.039062 287.375 L 393.613281 291.707031 L 391.582031 296.550781 L 389.933594 299.605469 L 387.410156 303.171875 L 385.101562 305.464844 L 382.6875 306.996094 L 380.546875 307.757812 L 378.019531 308.015625 L 375.769531 307.503906 L 373.355469 305.976562 L 371.433594 303.9375 L 369.675781 301.390625 L 367.917969 298.078125 L 365.722656 292.726562 L 364.292969 288.394531 L 362.8125 283.046875 L 361.328125 276.675781 L 360.011719 269.796875 L 359.132812 264.445312 L 358.253906 258.332031 L 357.320312 250.6875 L 356.441406 242.023438 L 355.785156 234.125 L 355.179688 225.207031 L 354.742188 216.800781 L 354.300781 205.335938 L 354.082031 196.164062 L 353.972656 188.265625 Z M 353.972656 148.519531 "/>
<path style=" stroke:none;fill-rule:nonzero;fill:rgb(83.921569%,15.686275%,22.352941%);fill-opacity:1;" d="M 353.972656 312.128906 L 398.992188 312.128906 L 398.992188 312.316406 L 380.230469 312.316406 L 380.230469 313.882812 L 372.679688 313.882812 L 372.679688 312.320312 L 372.570312 312.316406 L 353.972656 312.316406 Z M 353.972656 312.128906 "/>
<path style=" stroke:none;fill-rule:nonzero;fill:rgb(6.27451%,58.823529%,28.235294%);fill-opacity:1;" d="M 401.363281 313.398438 L 401.410156 313.398438 L 420.890625 312.636719 L 426.808594 312.636719 L 446.382812 313.398438 L 439.507812 313.398438 L 434.601562 313.199219 L 413.097656 313.199219 L 408.289062 313.398438 L 401.363281 313.398438 L 415.167969 313.117188 L 432.628906 313.117188 L 423.921875 312.761719 L 423.730469 312.761719 L 415.121094 313.117188 L 415.167969 313.117188 Z M 401.363281 313.398438 "/>
<path style=" stroke:none;fill-rule:nonzero;fill:rgb(96.862745%,70.196078%,16.862745%);fill-opacity:1;" d="M 401.363281 309.910156 L 401.417969 309.910156 L 401.417969 309.859375 L 401.636719 309.75 L 402.1875 309.597656 L 402.902344 309.46875 L 403.667969 309.371094 L 404.164062 309.320312 L 404.988281 309.246094 L 405.699219 309.191406 L 407.511719 309.078125 L 409.820312 308.976562 L 411.082031 308.933594 L 412.507812 308.890625 L 414.539062 308.84375 L 415.472656 308.824219 L 418.328125 308.785156 L 421.566406 308.761719 L 425.136719 308.753906 L 426.785156 308.757812 L 429.035156 308.765625 L 432.109375 308.792969 L 433.867188 308.816406 L 435.238281 308.84375 L 436.667969 308.875 L 438.421875 308.925781 L 440.070312 308.984375 L 441.386719 309.042969 L 442.707031 309.117188 L 443.804688 309.195312 L 444.738281 309.28125 L 445.5625 309.386719 L 446.054688 309.472656 L 446.382812 309.558594 L 438.753906 309.558594 L 438.3125 309.472656 L 437.820312 309.40625 L 436.996094 309.324219 L 436.171875 309.265625 L 435.347656 309.21875 L 433.8125 309.152344 L 432.492188 309.113281 L 430.847656 309.078125 L 429.253906 309.058594 L 427.441406 309.042969 L 426.34375 309.039062 L 423.433594 309.039062 L 420.800781 309.054688 L 419.261719 309.074219 L 418.164062 309.09375 L 416.625 309.132812 L 415.691406 309.160156 L 415.144531 309.179688 L 413.496094 309.257812 L 412.398438 309.328125 L 411.796875 309.375 L 411.027344 309.449219 L 410.476562 309.515625 L 409.875 309.613281 L 409.542969 309.6875 L 409.105469 309.855469 L 409.050781 310.300781 L 409.214844 310.394531 L 409.542969 310.496094 L 409.984375 310.582031 L 410.640625 310.675781 L 411.300781 310.75 L 412.453125 310.84375 L 413.441406 310.910156 L 414.210938 310.953125 L 415.691406 311.019531 L 416.296875 311.039062 L 417.722656 311.085938 L 419.207031 311.121094 L 421.019531 311.148438 L 422.390625 311.164062 L 424.585938 311.175781 L 427.386719 311.175781 L 430.683594 311.160156 L 432.769531 311.140625 L 434.195312 311.121094 L 435.128906 311.105469 L 436.28125 311.078125 L 437.105469 311.054688 L 437.875 311.027344 L 438.808594 310.984375 L 438.808594 310.394531 L 425.246094 310.390625 L 425.246094 310.113281 L 446.328125 310.113281 L 446.382812 311.078125 L 445.230469 311.144531 L 443.804688 311.207031 L 442.429688 311.257812 L 441.003906 311.300781 L 438.972656 311.347656 L 437.324219 311.375 L 434.800781 311.410156 L 432.492188 311.433594 L 430.078125 311.449219 L 427.9375 311.457031 L 425.410156 311.457031 L 423.160156 311.453125 L 420.746094 311.4375 L 418.824219 311.417969 L 417.066406 311.394531 L 415.308594 311.363281 L 413.113281 311.308594 L 411.683594 311.269531 L 410.203125 311.214844 L 408.71875 311.152344 L 407.402344 311.085938 L 406.523438 311.035156 L 405.644531 310.976562 L 404.710938 310.902344 L 403.832031 310.816406 L 403.175781 310.742188 L 402.570312 310.65625 L 402.132812 310.574219 L 401.691406 310.460938 L 401.472656 310.375 L 401.363281 310.296875 Z M 401.363281 309.910156 "/>
<path style=" stroke:none;fill-rule:nonzero;fill:rgb(83.921569%,15.686275%,22.352941%);fill-opacity:1;" d="M 401.363281 31.074219 L 446.382812 31.074219 L 446.382812 60.671875 L 427.621094 60.929688 L 427.621094 307.574219 L 420.070312 307.574219 L 420.070312 61.191406 L 419.960938 60.671875 L 401.363281 60.671875 Z M 401.363281 31.074219 "/>
<path style=" stroke:none;fill-rule:nonzero;fill:rgb(6.27451%,58.823529%,28.235294%);fill-opacity:1;" d="M 448.753906 314.371094 L 448.800781 314.367188 L 468.28125 313.246094 L 474.199219 313.246094 L 493.773438 314.371094 L 486.898438 314.371094 L 481.992188 314.078125 L 460.488281 314.078125 L 455.679688 314.371094 L 448.753906 314.371094 L 462.558594 313.957031 L 480.019531 313.957031 L 471.3125 313.429688 L 471.214844 313.429688 L 471.121094 313.433594 L 462.511719 313.957031 L 462.558594 313.957031 Z M 448.753906 314.371094 "/>
<path style=" stroke:none;fill-rule:nonzero;fill:rgb(14.509804%,36.078431%,60%);fill-opacity:1;" d="M 448.753906 310.914062 L 448.808594 310.910156 L 448.808594 310.867188 L 448.972656 310.796875 L 449.359375 310.707031 L 449.742188 310.644531 L 450.730469 310.535156 L 452.101562 310.425781 L 453.53125 310.34375 L 454.574219 310.296875 L 455.507812 310.257812 L 457.648438 310.191406 L 459.019531 310.15625 L 460.503906 310.121094 L 462.316406 310.089844 L 463.632812 310.074219 L 466.597656 310.042969 L 468.792969 310.03125 L 470.496094 310.023438 L 474.175781 310.023438 L 476.371094 310.03125 L 477.960938 310.039062 L 479.71875 310.054688 L 481.203125 310.074219 L 483.78125 310.113281 L 486.089844 310.164062 L 487.132812 310.195312 L 488.777344 310.253906 L 490.042969 310.308594 L 490.917969 310.359375 L 491.90625 310.425781 L 492.785156 310.511719 L 493.445312 310.605469 L 493.773438 310.6875 L 486.089844 310.6875 L 485.703125 310.613281 L 485.265625 310.554688 L 484.441406 310.476562 L 483.617188 310.421875 L 482.464844 310.371094 L 481.421875 310.332031 L 479.992188 310.296875 L 478.730469 310.277344 L 477.414062 310.257812 L 476.152344 310.246094 L 473.734375 310.238281 L 470.933594 310.238281 L 469.890625 310.242188 L 467.75 310.253906 L 466.597656 310.269531 L 464.949219 310.292969 L 463.796875 310.320312 L 462.425781 310.355469 L 461.492188 310.386719 L 460.339844 310.4375 L 459.515625 310.480469 L 458.582031 310.542969 L 458.03125 310.589844 L 457.539062 310.640625 L 457.097656 310.703125 L 456.769531 310.765625 L 456.550781 310.835938 L 456.441406 310.902344 L 456.441406 311.195312 L 456.550781 311.261719 L 456.824219 311.339844 L 457.539062 311.453125 L 458.582031 311.550781 L 459.789062 311.628906 L 460.941406 311.6875 L 461.601562 311.714844 L 462.480469 311.742188 L 463.851562 311.78125 L 465.828125 311.816406 L 466.980469 311.832031 L 468.738281 311.847656 L 470.550781 311.855469 L 472.964844 311.855469 L 475.109375 311.847656 L 476.535156 311.839844 L 478.015625 311.824219 L 480.050781 311.792969 L 481.3125 311.761719 L 482.410156 311.726562 L 483.234375 311.691406 L 483.78125 311.660156 L 484.605469 311.601562 L 485.265625 311.539062 L 485.757812 311.472656 L 486.089844 311.410156 L 493.773438 311.410156 L 493.445312 311.484375 L 492.953125 311.558594 L 492.457031 311.613281 L 491.6875 311.675781 L 490.808594 311.734375 L 489.546875 311.800781 L 488.503906 311.84375 L 487.132812 311.890625 L 485.867188 311.925781 L 484.496094 311.957031 L 482.464844 311.996094 L 481.148438 312.015625 L 479.71875 312.03125 L 478.015625 312.046875 L 475.875 312.058594 L 473.570312 312.066406 L 471.429688 312.066406 L 469.125 312.0625 L 467.421875 312.058594 L 465.171875 312.039062 L 462.371094 312.007812 L 460.339844 311.972656 L 458.746094 311.933594 L 457.375 311.898438 L 455.835938 311.847656 L 453.859375 311.765625 L 452.652344 311.703125 L 451.828125 311.648438 L 450.894531 311.578125 L 450.234375 311.511719 L 449.46875 311.40625 L 448.917969 311.273438 L 448.753906 311.171875 Z M 448.753906 310.914062 "/>
<path style=" stroke:none;fill-rule:nonzero;fill:rgb(96.862745%,70.196078%,16.862745%);fill-opacity:1;" d="M 448.753906 156.417969 L 448.808594 156.183594 L 448.808594 151.460938 L 449.027344 140.835938 L 449.578125 126.195312 L 450.292969 114.152344 L 451.058594 104.707031 L 451.554688 99.746094 L 452.378906 92.664062 L 453.089844 87.46875 L 454.902344 76.84375 L 457.207031 66.925781 L 458.472656 62.675781 L 459.898438 58.660156 L 461.929688 54.171875 L 462.863281 52.519531 L 465.71875 48.742188 L 468.957031 46.382812 L 472.527344 45.671875 L 474.175781 45.910156 L 476.425781 46.851562 L 479.5 49.449219 L 481.257812 51.8125 L 482.628906 54.171875 L 484.058594 57.242188 L 485.8125 61.964844 L 487.460938 67.632812 L 488.777344 73.300781 L 490.097656 80.382812 L 491.195312 87.941406 L 492.128906 96.207031 L 492.953125 106.121094 L 493.445312 114.386719 L 493.773438 122.652344 L 486.144531 122.652344 L 485.703125 114.386719 L 485.210938 108.011719 L 484.386719 100.21875 L 483.5625 94.550781 L 482.738281 90.066406 L 481.203125 83.925781 L 479.882812 80.148438 L 478.238281 76.84375 L 476.644531 74.71875 L 474.832031 73.300781 L 473.734375 72.828125 L 470.824219 72.828125 L 468.191406 74.480469 L 466.652344 76.371094 L 465.554688 78.257812 L 464.015625 81.800781 L 463.082031 84.636719 L 462.535156 86.523438 L 460.886719 93.84375 L 459.789062 100.457031 L 459.183594 104.941406 L 458.417969 112.027344 L 457.867188 118.402344 L 457.265625 127.847656 L 456.933594 134.929688 L 456.496094 150.988281 L 456.441406 193.492188 L 456.605469 202.464844 L 456.933594 212.148438 L 457.375 220.648438 L 458.03125 229.621094 L 458.691406 236.46875 L 459.84375 245.675781 L 460.832031 251.816406 L 461.601562 255.832031 L 463.082031 262.207031 L 463.6875 264.332031 L 465.113281 268.582031 L 466.597656 271.886719 L 468.410156 274.722656 L 469.78125 276.140625 L 471.976562 277.320312 L 474.777344 277.320312 L 478.074219 275.902344 L 480.160156 274.015625 L 481.585938 272.125 L 482.519531 270.472656 L 483.671875 267.875 L 484.496094 265.511719 L 485.265625 262.914062 L 486.199219 258.902344 L 486.199219 202.464844 L 472.636719 202.230469 L 472.636719 175.78125 L 493.71875 175.546875 L 493.773438 267.875 L 492.621094 274.25 L 491.195312 280.390625 L 489.820312 285.113281 L 488.394531 289.125 L 486.363281 293.613281 L 484.714844 296.445312 L 482.191406 299.753906 L 479.882812 301.878906 L 477.46875 303.292969 L 475.328125 304.003906 L 472.800781 304.238281 L 470.550781 303.765625 L 468.136719 302.351562 L 466.214844 300.460938 L 464.457031 298.097656 L 462.699219 295.03125 L 460.503906 290.070312 L 459.074219 286.054688 L 457.59375 281.097656 L 456.109375 275.195312 L 454.792969 268.820312 L 453.914062 263.859375 L 453.035156 258.191406 L 452.101562 251.109375 L 451.222656 243.082031 L 450.566406 235.761719 L 449.960938 227.496094 L 449.523438 219.703125 L 449.082031 209.078125 L 448.863281 200.578125 L 448.753906 193.257812 Z M 448.753906 156.417969 "/>
<path style=" stroke:none;fill-rule:nonzero;fill:rgb(83.921569%,15.686275%,22.352941%);fill-opacity:1;" d="M 448.753906 305.417969 L 493.773438 305.417969 L 493.773438 305.785156 L 475.011719 305.789062 L 475.011719 308.84375 L 467.460938 308.84375 L 467.460938 305.792969 L 467.351562 305.785156 L 448.753906 305.785156 Z M 448.753906 305.417969 "/>
<path style=" stroke:none;fill-rule:nonzero;fill:rgb(6.27451%,58.823529%,28.235294%);fill-opacity:1;" d="M 496.144531 308 L 496.191406 307.996094 L 515.671875 304.632812 L 521.589844 304.632812 L 541.164062 308.003906 L 534.289062 308.003906 L 529.382812 307.121094 L 507.878906 307.121094 L 503.070312 308 L 496.144531 308 L 509.949219 306.757812 L 527.410156 306.753906 L 518.703125 305.183594 L 518.605469 305.179688 L 518.511719 305.1875 L 509.902344 306.753906 L 509.949219 306.757812 Z M 496.144531 308 "/>
<path style=" stroke:none;fill-rule:nonzero;fill:rgb(14.509804%,36.078431%,60%);fill-opacity:1;" d="M 496.144531 310.449219 L 496.199219 310.445312 L 496.199219 310.382812 L 496.363281 310.28125 L 496.75 310.152344 L 497.132812 310.066406 L 498.121094 309.910156 L 499.492188 309.757812 L 500.921875 309.640625 L 501.964844 309.570312 L 502.898438 309.515625 L 505.039062 309.417969 L 506.410156 309.367188 L 507.894531 309.324219 L 509.707031 309.277344 L 511.023438 309.25 L 513.988281 309.207031 L 516.183594 309.191406 L 517.886719 309.179688 L 521.566406 309.179688 L 523.761719 309.191406 L 525.351562 309.207031 L 527.109375 309.226562 L 528.59375 309.25 L 531.171875 309.308594 L 533.480469 309.382812 L 534.523438 309.425781 L 536.167969 309.507812 L 537.433594 309.589844 L 538.308594 309.660156 L 539.296875 309.757812 L 540.175781 309.875 L 540.835938 310.011719 L 541.164062 310.128906 L 533.480469 310.128906 L 533.09375 310.019531 L 532.65625 309.9375 L 531.832031 309.828125 L 531.007812 309.75 L 529.855469 309.675781 L 528.8125 309.625 L 527.382812 309.574219 L 526.121094 309.542969 L 524.804688 309.515625 L 523.542969 309.5 L 521.125 309.484375 L 518.324219 309.484375 L 517.28125 309.492188 L 515.140625 309.511719 L 513.988281 309.53125 L 512.339844 309.566406 L 511.1875 309.601562 L 509.816406 309.65625 L 508.882812 309.699219 L 507.730469 309.769531 L 506.90625 309.832031 L 505.972656 309.917969 L 505.421875 309.984375 L 504.929688 310.0625 L 504.488281 310.148438 L 504.160156 310.242188 L 503.941406 310.339844 L 503.832031 310.4375 L 503.832031 310.847656 L 503.941406 310.945312 L 504.214844 311.058594 L 504.929688 311.21875 L 505.972656 311.359375 L 507.179688 311.472656 L 508.332031 311.550781 L 508.992188 311.589844 L 509.871094 311.632812 L 511.242188 311.6875 L 513.21875 311.738281 L 514.371094 311.761719 L 516.128906 311.78125 L 517.941406 311.792969 L 520.355469 311.792969 L 522.5 311.78125 L 523.925781 311.769531 L 525.40625 311.746094 L 527.4375 311.703125 L 528.703125 311.660156 L 529.800781 311.609375 L 530.625 311.558594 L 531.171875 311.515625 L 531.996094 311.433594 L 532.65625 311.34375 L 533.148438 311.25 L 533.480469 311.160156 L 541.164062 311.160156 L 540.835938 311.265625 L 540.34375 311.367188 L 539.847656 311.445312 L 539.078125 311.539062 L 538.199219 311.621094 L 536.9375 311.714844 L 535.894531 311.777344 L 534.523438 311.84375 L 533.257812 311.894531 L 531.886719 311.9375 L 529.855469 311.992188 L 528.539062 312.019531 L 527.109375 312.042969 L 525.40625 312.0625 L 523.265625 312.082031 L 520.960938 312.09375 L 518.820312 312.097656 L 516.511719 312.089844 L 514.8125 312.082031 L 512.558594 312.054688 L 509.761719 312.007812 L 507.730469 311.957031 L 506.136719 311.90625 L 504.765625 311.855469 L 503.226562 311.78125 L 501.25 311.664062 L 500.042969 311.574219 L 499.21875 311.5 L 498.285156 311.394531 L 497.625 311.300781 L 496.859375 311.152344 L 496.308594 310.964844 L 496.144531 310.816406 Z M 496.144531 310.449219 "/>
<path style=" stroke:none;fill-rule:nonzero;fill:rgb(96.862745%,70.196078%,16.862745%);fill-opacity:1;" d="M 496.144531 313.746094 L 496.199219 313.742188 L 496.199219 313.722656 L 496.417969 313.679688 L 496.96875 313.617188 L 497.683594 313.566406 L 498.449219 313.527344 L 498.945312 313.503906 L 499.769531 313.476562 L 500.480469 313.453125 L 502.292969 313.40625 L 504.597656 313.367188 L 505.863281 313.347656 L 507.289062 313.332031 L 509.320312 313.3125 L 510.253906 313.304688 L 513.109375 313.289062 L 516.347656 313.277344 L 521.566406 313.277344 L 523.816406 313.28125 L 526.890625 313.292969 L 528.648438 313.300781 L 530.019531 313.3125 L 531.449219 313.324219 L 533.203125 313.34375 L 534.851562 313.367188 L 536.167969 313.394531 L 537.488281 313.421875 L 538.585938 313.453125 L 539.519531 313.488281 L 540.34375 313.53125 L 540.835938 313.566406 L 541.164062 313.601562 L 533.535156 313.601562 L 533.09375 313.566406 L 532.601562 313.539062 L 531.777344 313.507812 L 530.953125 313.484375 L 530.128906 313.464844 L 528.59375 313.4375 L 527.273438 313.421875 L 525.628906 313.40625 L 524.035156 313.398438 L 522.222656 313.394531 L 521.125 313.390625 L 518.214844 313.390625 L 515.582031 313.398438 L 514.042969 313.40625 L 512.945312 313.414062 L 511.40625 313.429688 L 510.472656 313.441406 L 509.925781 313.449219 L 508.277344 313.480469 L 507.179688 313.507812 L 506.574219 313.527344 L 505.808594 313.558594 L 505.257812 313.582031 L 504.65625 313.625 L 504.324219 313.652344 L 503.886719 313.722656 L 503.832031 313.902344 L 503.996094 313.941406 L 504.324219 313.980469 L 504.765625 314.015625 L 505.421875 314.054688 L 506.082031 314.082031 L 507.234375 314.121094 L 508.222656 314.148438 L 508.992188 314.164062 L 510.472656 314.191406 L 511.078125 314.203125 L 512.503906 314.21875 L 513.988281 314.234375 L 515.800781 314.246094 L 517.171875 314.25 L 519.367188 314.257812 L 522.167969 314.257812 L 525.464844 314.25 L 527.550781 314.242188 L 528.976562 314.234375 L 529.910156 314.226562 L 531.0625 314.214844 L 531.886719 314.207031 L 532.65625 314.195312 L 533.589844 314.179688 L 533.589844 313.941406 L 520.027344 313.9375 L 520.027344 313.828125 L 541.109375 313.824219 L 541.164062 314.214844 L 540.011719 314.242188 L 538.585938 314.269531 L 537.210938 314.289062 L 535.785156 314.308594 L 533.753906 314.324219 L 532.105469 314.335938 L 529.582031 314.351562 L 527.273438 314.359375 L 524.859375 314.367188 L 522.71875 314.371094 L 520.191406 314.371094 L 517.941406 314.367188 L 515.523438 314.363281 L 513.605469 314.355469 L 510.089844 314.332031 L 507.894531 314.3125 L 506.464844 314.292969 L 504.984375 314.273438 L 503.5 314.246094 L 502.183594 314.21875 L 501.304688 314.199219 L 500.425781 314.175781 L 499.492188 314.144531 L 498.613281 314.113281 L 497.957031 314.082031 L 497.351562 314.046875 L 496.914062 314.011719 L 496.472656 313.96875 L 496.253906 313.933594 L 496.144531 313.902344 Z M 496.144531 313.746094 "/>
<path style=" stroke:none;fill-rule:nonzero;fill:rgb(83.921569%,15.686275%,22.352941%);fill-opacity:1;" d="M 496.144531 48.976562 L 541.164062 48.976562 L 541.164062 76.21875 L 522.402344 76.457031 L 522.402344 303.453125 L 514.851562 303.453125 L 514.851562 76.695312 L 514.742188 76.21875 L 496.144531 76.21875 Z M 496.144531 48.976562 "/>
<path style=" stroke:none;fill-rule:nonzero;fill:rgb(6.27451%,58.823529%,28.235294%);fill-opacity:1;" d="M 543.535156 310.957031 L 543.582031 310.953125 L 563.0625 309.210938 L 568.980469 309.210938 L 588.554688 310.957031 L 581.675781 310.957031 L 576.773438 310.5 L 555.269531 310.5 L 550.460938 310.957031 L 543.535156 310.957031 L 557.339844 310.3125 L 574.800781 310.3125 L 566.09375 309.496094 L 565.996094 309.492188 L 565.902344 309.5 L 557.292969 310.3125 L 557.339844 310.3125 Z M 543.535156 310.957031 "/>
<path style=" stroke:none;fill-rule:nonzero;fill:rgb(14.509804%,36.078431%,60%);fill-opacity:1;" d="M 543.535156 312.472656 L 543.589844 312.472656 L 543.589844 312.453125 L 543.753906 312.425781 L 544.140625 312.394531 L 544.523438 312.371094 L 545.511719 312.328125 L 546.882812 312.289062 L 548.3125 312.257812 L 549.355469 312.238281 L 550.289062 312.226562 L 552.429688 312.199219 L 553.800781 312.1875 L 555.285156 312.171875 L 557.097656 312.160156 L 558.414062 312.15625 L 561.378906 312.144531 L 563.574219 312.136719 L 568.957031 312.136719 L 571.152344 312.140625 L 572.742188 312.144531 L 574.5 312.148438 L 575.984375 312.15625 L 578.5625 312.171875 L 580.871094 312.191406 L 581.914062 312.203125 L 583.558594 312.222656 L 584.824219 312.246094 L 585.699219 312.261719 L 586.6875 312.289062 L 587.566406 312.320312 L 588.226562 312.355469 L 588.554688 312.386719 L 580.871094 312.386719 L 580.484375 312.359375 L 580.046875 312.335938 L 579.222656 312.308594 L 578.398438 312.289062 L 577.246094 312.265625 L 576.203125 312.253906 L 574.773438 312.238281 L 573.511719 312.230469 L 572.195312 312.226562 L 570.933594 312.222656 L 568.515625 312.214844 L 565.714844 312.214844 L 564.671875 312.21875 L 562.53125 312.222656 L 561.378906 312.230469 L 559.730469 312.238281 L 558.578125 312.246094 L 557.207031 312.261719 L 556.273438 312.273438 L 555.121094 312.292969 L 554.296875 312.308594 L 553.363281 312.332031 L 552.8125 312.347656 L 552.320312 312.367188 L 551.878906 312.390625 L 551.550781 312.417969 L 551.332031 312.441406 L 551.222656 312.46875 L 551.222656 312.578125 L 551.332031 312.601562 L 551.605469 312.632812 L 552.320312 312.675781 L 553.363281 312.714844 L 554.570312 312.742188 L 555.722656 312.765625 L 556.382812 312.773438 L 557.261719 312.785156 L 558.632812 312.800781 L 560.609375 312.8125 L 561.761719 312.820312 L 563.519531 312.824219 L 565.332031 312.828125 L 567.746094 312.828125 L 569.886719 312.824219 L 571.316406 312.820312 L 572.796875 312.816406 L 574.828125 312.804688 L 576.09375 312.792969 L 577.191406 312.777344 L 578.015625 312.765625 L 578.5625 312.753906 L 579.386719 312.730469 L 580.046875 312.707031 L 580.539062 312.683594 L 580.871094 312.660156 L 588.554688 312.660156 L 588.226562 312.6875 L 587.730469 312.714844 L 587.238281 312.734375 L 586.46875 312.761719 L 585.589844 312.78125 L 584.328125 312.808594 L 583.285156 312.824219 L 581.914062 312.839844 L 580.648438 312.855469 L 579.277344 312.867188 L 577.246094 312.878906 L 575.929688 312.886719 L 574.5 312.894531 L 572.796875 312.898438 L 570.65625 312.902344 L 568.351562 312.90625 L 563.902344 312.90625 L 562.203125 312.902344 L 559.949219 312.898438 L 557.152344 312.882812 L 555.121094 312.871094 L 553.527344 312.859375 L 552.15625 312.84375 L 550.617188 312.824219 L 548.640625 312.792969 L 547.433594 312.769531 L 546.609375 312.75 L 545.675781 312.722656 L 545.015625 312.699219 L 544.25 312.65625 L 543.699219 312.609375 L 543.535156 312.570312 Z M 543.535156 312.472656 "/>
<path style=" stroke:none;fill-rule:nonzero;fill:rgb(96.862745%,70.196078%,16.862745%);fill-opacity:1;" d="M 543.535156 314.207031 L 543.589844 314.207031 L 543.589844 314.203125 L 543.808594 314.191406 L 544.359375 314.175781 L 545.070312 314.164062 L 545.839844 314.152344 L 546.335938 314.144531 L 547.160156 314.136719 L 547.871094 314.132812 L 549.683594 314.121094 L 551.988281 314.109375 L 553.253906 314.105469 L 554.679688 314.101562 L 556.710938 314.097656 L 557.644531 314.09375 L 560.5 314.089844 L 563.738281 314.089844 L 567.308594 314.085938 L 568.957031 314.085938 L 571.207031 314.089844 L 574.28125 314.089844 L 576.039062 314.09375 L 577.410156 314.097656 L 578.839844 314.101562 L 580.59375 314.105469 L 582.242188 314.109375 L 583.558594 314.117188 L 584.878906 314.125 L 585.976562 314.132812 L 586.910156 314.140625 L 587.730469 314.152344 L 588.226562 314.164062 L 588.554688 314.171875 L 580.925781 314.171875 L 580.484375 314.164062 L 579.992188 314.15625 L 578.34375 314.140625 L 577.519531 314.136719 L 575.984375 314.128906 L 574.664062 314.125 L 573.019531 314.121094 L 571.425781 314.117188 L 562.972656 314.117188 L 561.433594 314.121094 L 560.335938 314.121094 L 558.796875 314.125 L 557.863281 314.128906 L 557.316406 314.132812 L 555.667969 314.140625 L 554.570312 314.148438 L 553.964844 314.152344 L 553.199219 314.160156 L 552.648438 314.167969 L 552.046875 314.175781 L 551.714844 314.183594 L 551.277344 314.203125 L 551.222656 314.25 L 551.386719 314.257812 L 551.714844 314.269531 L 552.15625 314.277344 L 552.8125 314.289062 L 553.472656 314.296875 L 554.625 314.304688 L 555.613281 314.3125 L 556.382812 314.316406 L 557.863281 314.324219 L 558.46875 314.328125 L 559.894531 314.332031 L 561.378906 314.335938 L 563.191406 314.339844 L 572.851562 314.339844 L 574.941406 314.335938 L 576.367188 314.335938 L 577.300781 314.332031 L 578.453125 314.332031 L 579.277344 314.328125 L 580.046875 314.324219 L 580.980469 314.320312 L 580.980469 314.257812 L 567.417969 314.257812 L 567.417969 314.230469 L 588.5 314.230469 L 588.554688 314.332031 L 587.402344 314.335938 L 585.976562 314.34375 L 584.601562 314.351562 L 583.175781 314.355469 L 581.144531 314.359375 L 579.496094 314.363281 L 576.972656 314.367188 L 574.664062 314.367188 L 572.25 314.371094 L 565.332031 314.371094 L 562.914062 314.367188 L 560.996094 314.367188 L 557.480469 314.359375 L 555.285156 314.355469 L 553.855469 314.351562 L 552.375 314.34375 L 550.890625 314.339844 L 549.574219 314.332031 L 548.695312 314.328125 L 547.816406 314.320312 L 546.882812 314.3125 L 546.003906 314.304688 L 545.347656 314.296875 L 544.742188 314.285156 L 544.304688 314.277344 L 543.863281 314.265625 L 543.644531 314.257812 L 543.535156 314.25 Z M 543.535156 314.207031 "/>
<path style=" stroke:none;fill-rule:nonzero;fill:rgb(83.921569%,15.686275%,22.352941%);fill-opacity:1;" d="M 543.535156 29.765625 L 588.554688 29.765625 L 588.554688 59.550781 L 569.792969 59.8125 L 569.792969 308.03125 L 562.242188 308.03125 L 562.242188 60.074219 L 562.132812 59.550781 L 543.535156 59.550781 Z M 543.535156 29.765625 "/>
<path style=" stroke:none;fill-rule:nonzero;fill:rgb(6.27451%,58.823529%,28.235294%);fill-opacity:1;" d="M 590.925781 314.371094 L 590.972656 314.367188 L 610.453125 313.402344 L 616.371094 313.402344 L 635.945312 314.371094 L 629.066406 314.371094 L 624.164062 314.117188 L 602.660156 314.117188 L 597.851562 314.371094 L 590.925781 314.371094 L 604.730469 314.011719 L 622.191406 314.011719 L 613.484375 313.558594 L 613.386719 313.558594 L 613.292969 313.5625 L 604.683594 314.011719 L 604.730469 314.011719 Z M 590.925781 314.371094 "/>
<path style=" stroke:none;fill-rule:nonzero;fill:rgb(14.509804%,36.078431%,60%);fill-opacity:1;" d="M 590.925781 309.976562 L 590.980469 309.972656 L 590.980469 309.882812 L 591.144531 309.746094 L 591.53125 309.570312 L 591.914062 309.453125 L 592.902344 309.238281 L 594.273438 309.03125 L 595.703125 308.871094 L 596.746094 308.777344 L 597.679688 308.703125 L 599.820312 308.570312 L 601.191406 308.5 L 602.675781 308.4375 L 604.488281 308.375 L 605.804688 308.339844 L 608.769531 308.28125 L 610.964844 308.257812 L 612.667969 308.246094 L 616.347656 308.246094 L 618.542969 308.261719 L 620.132812 308.277344 L 621.890625 308.308594 L 623.375 308.339844 L 625.953125 308.417969 L 628.261719 308.523438 L 629.304688 308.578125 L 630.949219 308.691406 L 632.214844 308.800781 L 633.089844 308.894531 L 634.078125 309.03125 L 634.957031 309.195312 L 635.617188 309.378906 L 635.945312 309.535156 L 628.261719 309.535156 L 627.875 309.390625 L 627.4375 309.277344 L 626.613281 309.128906 L 625.789062 309.023438 L 624.636719 308.917969 L 623.59375 308.847656 L 622.164062 308.78125 L 620.902344 308.734375 L 619.585938 308.703125 L 618.324219 308.679688 L 615.90625 308.660156 L 613.105469 308.660156 L 612.0625 308.667969 L 609.921875 308.695312 L 608.769531 308.722656 L 607.121094 308.773438 L 605.96875 308.820312 L 604.597656 308.890625 L 603.664062 308.953125 L 602.511719 309.046875 L 601.6875 309.132812 L 600.753906 309.253906 L 600.203125 309.34375 L 599.710938 309.445312 L 599.269531 309.566406 L 598.941406 309.691406 L 598.722656 309.828125 L 598.613281 309.957031 L 598.613281 310.519531 L 598.722656 310.652344 L 598.996094 310.804688 L 599.710938 311.027344 L 600.753906 311.21875 L 601.960938 311.371094 L 603.113281 311.480469 L 603.773438 311.53125 L 604.652344 311.589844 L 606.023438 311.664062 L 608 311.734375 L 609.152344 311.765625 L 610.910156 311.792969 L 612.722656 311.808594 L 615.136719 311.808594 L 617.277344 311.792969 L 618.707031 311.773438 L 620.1875 311.746094 L 622.21875 311.683594 L 623.484375 311.625 L 624.582031 311.558594 L 625.40625 311.488281 L 625.953125 311.429688 L 626.777344 311.316406 L 627.4375 311.195312 L 627.929688 311.066406 L 628.261719 310.941406 L 635.945312 310.941406 L 635.617188 311.089844 L 635.121094 311.230469 L 634.628906 311.335938 L 633.859375 311.460938 L 632.980469 311.574219 L 631.71875 311.703125 L 630.675781 311.785156 L 629.304688 311.875 L 628.039062 311.945312 L 626.667969 312.007812 L 624.636719 312.082031 L 623.320312 312.117188 L 621.890625 312.148438 L 620.1875 312.179688 L 618.046875 312.203125 L 615.742188 312.21875 L 613.601562 312.222656 L 611.292969 312.214844 L 609.59375 312.199219 L 607.339844 312.167969 L 604.542969 312.101562 L 602.511719 312.03125 L 600.917969 311.964844 L 599.546875 311.890625 L 598.007812 311.792969 L 596.03125 311.632812 L 594.824219 311.507812 L 594 311.40625 L 593.066406 311.265625 L 592.40625 311.140625 L 591.640625 310.933594 L 591.089844 310.675781 L 590.925781 310.476562 Z M 590.925781 309.976562 "/>
<path style=" stroke:none;fill-rule:nonzero;fill:rgb(96.862745%,70.196078%,16.862745%);fill-opacity:1;" d="M 590.925781 303.5625 L 590.980469 303.558594 L 590.980469 303.445312 L 591.199219 303.195312 L 591.75 302.847656 L 592.460938 302.5625 L 593.230469 302.339844 L 593.726562 302.222656 L 594.550781 302.054688 L 595.261719 301.929688 L 597.074219 301.679688 L 599.378906 301.445312 L 600.644531 301.34375 L 602.070312 301.246094 L 604.101562 301.140625 L 605.035156 301.101562 L 607.890625 301.011719 L 611.128906 300.957031 L 614.699219 300.941406 L 616.347656 300.945312 L 618.597656 300.96875 L 621.671875 301.03125 L 623.429688 301.085938 L 624.800781 301.140625 L 626.230469 301.214844 L 627.984375 301.328125 L 629.632812 301.460938 L 630.949219 301.59375 L 632.269531 301.761719 L 633.367188 301.941406 L 634.300781 302.136719 L 635.121094 302.371094 L 635.617188 302.566406 L 635.945312 302.765625 L 628.316406 302.765625 L 627.875 302.566406 L 627.382812 302.417969 L 626.558594 302.234375 L 625.734375 302.097656 L 624.910156 301.992188 L 623.375 301.847656 L 622.054688 301.757812 L 620.410156 301.679688 L 618.816406 301.628906 L 617.003906 301.59375 L 615.90625 301.582031 L 612.996094 301.582031 L 610.363281 301.621094 L 608.824219 301.667969 L 607.726562 301.710938 L 606.1875 301.796875 L 605.253906 301.863281 L 604.707031 301.90625 L 603.058594 302.082031 L 601.960938 302.238281 L 601.355469 302.34375 L 600.589844 302.511719 L 600.039062 302.664062 L 599.433594 302.886719 L 599.105469 303.054688 L 598.667969 303.433594 L 598.613281 304.441406 L 598.777344 304.65625 L 599.105469 304.882812 L 599.546875 305.085938 L 600.203125 305.296875 L 600.863281 305.460938 L 602.015625 305.679688 L 603.003906 305.824219 L 603.773438 305.917969 L 605.253906 306.070312 L 605.859375 306.121094 L 607.285156 306.222656 L 608.769531 306.300781 L 610.582031 306.367188 L 611.953125 306.398438 L 614.148438 306.429688 L 616.949219 306.429688 L 620.242188 306.394531 L 622.332031 306.351562 L 623.757812 306.304688 L 624.691406 306.265625 L 625.84375 306.203125 L 626.667969 306.148438 L 627.4375 306.085938 L 628.371094 305.992188 L 628.371094 304.65625 L 614.808594 304.648438 L 614.808594 304.023438 L 635.890625 304.015625 L 635.945312 306.203125 L 634.792969 306.355469 L 633.367188 306.5 L 631.992188 306.613281 L 630.566406 306.707031 L 628.535156 306.8125 L 626.886719 306.882812 L 624.363281 306.960938 L 622.054688 307.007812 L 619.640625 307.042969 L 617.5 307.058594 L 614.972656 307.066406 L 612.722656 307.054688 L 610.304688 307.019531 L 608.386719 306.976562 L 606.628906 306.921875 L 604.871094 306.847656 L 602.675781 306.730469 L 601.246094 306.636719 L 599.765625 306.515625 L 598.28125 306.378906 L 596.964844 306.226562 L 596.085938 306.109375 L 595.207031 305.976562 L 594.273438 305.808594 L 593.394531 305.617188 L 592.738281 305.445312 L 592.132812 305.246094 L 591.695312 305.0625 L 591.253906 304.8125 L 591.035156 304.609375 L 590.925781 304.4375 Z M 590.925781 303.5625 "/>
<path style=" stroke:none;fill-rule:nonzero;fill:rgb(83.921569%,15.686275%,22.352941%);fill-opacity:1;" d="M 590.925781 63.742188 L 635.945312 63.742188 L 635.945312 89.007812 L 617.183594 89.230469 L 617.183594 299.761719 L 609.632812 299.761719 L 609.632812 89.449219 L 609.523438 89.007812 L 590.925781 89.007812 Z M 590.925781 63.742188 "/>
<path style=" stroke:none;fill-rule:nonzero;fill:rgb(6.27451%,58.823529%,28.235294%);fill-opacity:1;" d="M 638.316406 286.601562 L 638.363281 286.566406 L 657.84375 249.214844 L 663.761719 249.214844 L 683.335938 286.636719 L 676.457031 286.636719 L 671.550781 276.871094 L 650.050781 276.871094 L 645.242188 286.601562 L 638.316406 286.601562 L 652.121094 272.828125 L 669.582031 272.792969 L 660.875 255.332031 L 660.777344 255.296875 L 660.683594 255.402344 L 652.074219 272.792969 L 652.121094 272.828125 Z M 638.316406 286.601562 "/>
<path style=" stroke:none;fill-rule:nonzero;fill:rgb(14.509804%,36.078431%,60%);fill-opacity:1;" d="M 638.316406 312.863281 L 638.371094 312.859375 L 638.371094 312.800781 L 638.535156 312.710938 L 638.921875 312.59375 L 639.304688 312.511719 L 640.292969 312.367188 L 641.664062 312.226562 L 643.09375 312.121094 L 644.136719 312.058594 L 645.070312 312.007812 L 647.210938 311.917969 L 648.582031 311.871094 L 650.066406 311.832031 L 651.878906 311.789062 L 653.195312 311.765625 L 656.160156 311.726562 L 658.355469 311.707031 L 660.058594 311.703125 L 663.738281 311.703125 L 665.933594 311.710938 L 667.523438 311.722656 L 669.28125 311.742188 L 670.765625 311.765625 L 673.34375 311.820312 L 675.652344 311.886719 L 676.695312 311.925781 L 678.339844 312 L 679.605469 312.074219 L 680.480469 312.136719 L 681.46875 312.226562 L 682.347656 312.339844 L 683.007812 312.460938 L 683.335938 312.566406 L 675.652344 312.566406 L 675.265625 312.46875 L 674.828125 312.394531 L 674.003906 312.292969 L 673.179688 312.222656 L 672.027344 312.152344 L 670.984375 312.105469 L 669.554688 312.058594 L 668.292969 312.03125 L 666.976562 312.007812 L 665.714844 311.996094 L 663.296875 311.980469 L 660.496094 311.980469 L 659.453125 311.984375 L 657.3125 312.003906 L 656.160156 312.019531 L 654.511719 312.054688 L 653.359375 312.085938 L 651.988281 312.136719 L 651.054688 312.175781 L 649.902344 312.242188 L 649.078125 312.296875 L 648.144531 312.378906 L 647.59375 312.4375 L 647.101562 312.507812 L 646.660156 312.585938 L 646.332031 312.671875 L 646.113281 312.761719 L 646.003906 312.851562 L 646.003906 313.230469 L 646.113281 313.316406 L 646.386719 313.417969 L 647.101562 313.566406 L 648.144531 313.695312 L 649.351562 313.800781 L 650.503906 313.871094 L 651.164062 313.90625 L 652.042969 313.945312 L 653.414062 313.996094 L 655.390625 314.042969 L 656.542969 314.0625 L 658.300781 314.082031 L 660.113281 314.09375 L 662.527344 314.09375 L 664.667969 314.082031 L 666.097656 314.070312 L 667.578125 314.050781 L 669.609375 314.007812 L 670.875 313.96875 L 671.972656 313.925781 L 672.796875 313.878906 L 673.34375 313.839844 L 674.167969 313.761719 L 674.828125 313.679688 L 675.320312 313.59375 L 675.652344 313.511719 L 683.335938 313.511719 L 683.007812 313.609375 L 682.511719 313.703125 L 682.019531 313.773438 L 681.25 313.859375 L 680.371094 313.9375 L 679.109375 314.023438 L 678.066406 314.078125 L 676.695312 314.140625 L 675.429688 314.183594 L 674.058594 314.226562 L 672.027344 314.277344 L 670.710938 314.300781 L 669.28125 314.320312 L 667.578125 314.339844 L 665.4375 314.359375 L 663.132812 314.367188 L 660.992188 314.371094 L 658.683594 314.367188 L 656.984375 314.355469 L 654.730469 314.335938 L 651.933594 314.289062 L 649.902344 314.242188 L 648.308594 314.199219 L 646.9375 314.148438 L 645.398438 314.082031 L 643.421875 313.976562 L 642.214844 313.890625 L 641.390625 313.824219 L 640.457031 313.730469 L 639.796875 313.644531 L 639.03125 313.507812 L 638.480469 313.332031 L 638.316406 313.199219 Z M 638.316406 312.863281 "/>
<path style=" stroke:none;fill-rule:nonzero;fill:rgb(96.862745%,70.196078%,16.862745%);fill-opacity:1;" d="M 638.316406 305.242188 L 638.371094 305.234375 L 638.371094 305.066406 L 638.589844 304.6875 L 639.140625 304.164062 L 639.851562 303.734375 L 640.621094 303.394531 L 641.117188 303.21875 L 641.941406 302.964844 L 642.652344 302.78125 L 644.464844 302.402344 L 646.769531 302.046875 L 648.035156 301.894531 L 649.460938 301.75 L 651.492188 301.589844 L 652.425781 301.53125 L 655.28125 301.398438 L 658.519531 301.3125 L 662.089844 301.289062 L 663.738281 301.296875 L 665.988281 301.328125 L 669.0625 301.421875 L 670.820312 301.507812 L 672.191406 301.589844 L 673.617188 301.699219 L 675.375 301.871094 L 677.023438 302.070312 L 678.339844 302.273438 L 679.660156 302.527344 L 680.757812 302.796875 L 681.691406 303.09375 L 682.511719 303.445312 L 683.007812 303.742188 L 683.335938 304.035156 L 675.707031 304.035156 L 675.265625 303.742188 L 674.773438 303.515625 L 673.949219 303.234375 L 673.125 303.03125 L 672.300781 302.871094 L 670.765625 302.652344 L 669.445312 302.519531 L 667.800781 302.402344 L 666.207031 302.324219 L 664.394531 302.273438 L 663.296875 302.257812 L 660.386719 302.257812 L 657.75 302.316406 L 656.214844 302.382812 L 655.117188 302.449219 L 653.578125 302.578125 L 652.644531 302.679688 L 652.097656 302.746094 L 650.449219 303.007812 L 649.351562 303.242188 L 648.746094 303.402344 L 647.980469 303.65625 L 647.429688 303.886719 L 646.824219 304.222656 L 646.496094 304.476562 L 646.058594 305.046875 L 646.003906 306.566406 L 646.167969 306.886719 L 646.496094 307.234375 L 646.9375 307.535156 L 647.59375 307.855469 L 648.253906 308.101562 L 649.40625 308.429688 L 650.394531 308.648438 L 651.164062 308.792969 L 652.644531 309.019531 L 653.25 309.097656 L 654.675781 309.25 L 656.160156 309.367188 L 657.972656 309.46875 L 659.34375 309.519531 L 661.539062 309.558594 L 664.339844 309.558594 L 667.632812 309.511719 L 669.722656 309.441406 L 671.148438 309.375 L 672.082031 309.316406 L 673.234375 309.222656 L 674.058594 309.140625 L 674.828125 309.046875 L 675.761719 308.902344 L 675.761719 306.886719 L 662.199219 306.878906 L 662.199219 305.933594 L 683.28125 305.925781 L 683.335938 309.222656 L 682.183594 309.449219 L 680.757812 309.671875 L 679.382812 309.839844 L 677.957031 309.980469 L 675.925781 310.140625 L 674.277344 310.242188 L 671.753906 310.363281 L 669.445312 310.4375 L 667.03125 310.488281 L 664.890625 310.511719 L 662.363281 310.523438 L 660.113281 310.503906 L 657.695312 310.453125 L 655.773438 310.386719 L 654.019531 310.300781 L 652.261719 310.191406 L 650.066406 310.015625 L 648.636719 309.871094 L 647.15625 309.695312 L 645.671875 309.484375 L 644.355469 309.257812 L 643.476562 309.078125 L 642.597656 308.878906 L 641.664062 308.625 L 640.785156 308.335938 L 640.128906 308.078125 L 639.523438 307.78125 L 639.085938 307.503906 L 638.644531 307.125 L 638.425781 306.820312 L 638.316406 306.558594 Z M 638.316406 305.242188 "/>
<path style=" stroke:none;fill-rule:nonzero;fill:rgb(83.921569%,15.686275%,22.352941%);fill-opacity:1;" d="M 638.316406 287.816406 L 683.335938 287.816406 L 683.335938 289.132812 L 664.574219 289.144531 L 664.574219 300.109375 L 657.023438 300.109375 L 657.023438 289.15625 L 656.914062 289.132812 L 638.316406 289.132812 Z M 638.316406 287.816406 "/>
<g style="fill:rgb(0%,0%,0%);fill-opacity:1;">
  <use xlink:href="#glyph0-1" x="21.957031" y="318.198242"/>
  <use xlink:href="#glyph0-2" x="27.291016" y="318.198242"/>
  <use xlink:href="#glyph0-1" x="29.958008" y="318.198242"/>
</g>
<g style="fill:rgb(0%,0%,0%);fill-opacity:1;">
  <use xlink:href="#glyph0-1" x="21.957031" y="239.366211"/>
  <use xlink:href="#glyph0-2" x="27.291016" y="239.366211"/>
  <use xlink:href="#glyph0-3" x="29.958008" y="239.366211"/>
</g>
<g style="fill:rgb(0%,0%,0%);fill-opacity:1;">
  <use xlink:href="#glyph0-4" x="21.957031" y="160.530273"/>
  <use xlink:href="#glyph0-2" x="27.291016" y="160.530273"/>
  <use xlink:href="#glyph0-1" x="29.958008" y="160.530273"/>
</g>
<g style="fill:rgb(0%,0%,0%);fill-opacity:1;">
  <use xlink:href="#glyph0-4" x="21.957031" y="81.698242"/>
  <use xlink:href="#glyph0-2" x="27.291016" y="81.698242"/>
  <use xlink:href="#glyph0-3" x="29.958008" y="81.698242"/>
</g>
<g style="fill:rgb(0%,0%,0%);fill-opacity:1;">
  <use xlink:href="#glyph0-4" x="89.140625" y="338.19043"/>
</g>
<g style="fill:rgb(0%,0%,0%);fill-opacity:1;">
  <use xlink:href="#glyph0-5" x="136.53125" y="338.19043"/>
</g>
<g style="fill:rgb(0%,0%,0%);fill-opacity:1;">
  <use xlink:href="#glyph0-6" x="183.921875" y="338.19043"/>
</g>
<g style="fill:rgb(0%,0%,0%);fill-opacity:1;">
  <use xlink:href="#glyph0-7" x="231.3125" y="338.19043"/>
</g>
<g style="fill:rgb(0%,0%,0%);fill-opacity:1;">
  <use xlink:href="#glyph0-3" x="278.703125" y="338.19043"/>
</g>
<g style="fill:rgb(0%,0%,0%);fill-opacity:1;">
  <use xlink:href="#glyph0-8" x="326.09375" y="338.19043"/>
</g>
<g style="fill:rgb(0%,0%,0%);fill-opacity:1;">
  <use xlink:href="#glyph0-9" x="373.484375" y="338.19043"/>
</g>
<g style="fill:rgb(0%,0%,0%);fill-opacity:1;">
  <use xlink:href="#glyph0-10" x="420.875" y="338.19043"/>
</g>
<g style="fill:rgb(0%,0%,0%);fill-opacity:1;">
  <use xlink:href="#glyph0-11" x="468.265625" y="338.19043"/>
</g>
<g style="fill:rgb(0%,0%,0%);fill-opacity:1;">
  <use xlink:href="#glyph0-4" x="513.15625" y="338.19043"/>
  <use xlink:href="#glyph0-1" x="518.490234" y="338.19043"/>
</g>
<g style="fill:rgb(0%,0%,0%);fill-opacity:1;">
  <use xlink:href="#glyph0-4" x="560.546875" y="338.19043"/>
  <use xlink:href="#glyph0-4" x="565.880859" y="338.19043"/>
</g>
<g style="fill:rgb(0%,0%,0%);fill-opacity:1;">
  <use xlink:href="#glyph0-4" x="607.9375" y="338.19043"/>
  <use xlink:href="#glyph0-5" x="613.271484" y="338.19043"/>
</g>
<g style="fill:rgb(0%,0%,0%);fill-opacity:1;">
  <use xlink:href="#glyph0-4" x="655.328125" y="338.19043"/>
  <use xlink:href="#glyph0-6" x="660.662109" y="338.19043"/>
</g>
<g style="fill:rgb(0%,0%,0%);fill-opacity:1;">
  <use xlink:href="#glyph1-1" x="14.412109" y="178.015625"/>
  <use xlink:href="#glyph1-2" x="14.412109" y="170.011719"/>
  <use xlink:href="#glyph1-3" x="14.412109" y="167.347656"/>
  <use xlink:href="#glyph1-4" x="14.412109" y="164.011719"/>
</g>
</g>
</svg>
