<?xml version="1.0" encoding="UTF-8"?>
<svg xmlns="http://www.w3.org/2000/svg" xmlns:xlink="http://www.w3.org/1999/xlink" width="720pt" height="360pt" viewBox="0 0 720 360" version="1.1">
<defs>
<g>
<symbol overflow="visible" id="glyph0-0">
<path style="stroke:none;" d=""/>
</symbol>
<symbol overflow="visible" id="glyph0-1">
<path style="stroke:none;" d="M 2.640625 -6.796875 C 2 -6.796875 1.421875 -6.53125 1.078125 -6.046875 C 0.640625 -5.453125 0.40625 -4.546875 0.40625 -3.296875 C 0.40625 -1 1.1875 0.21875 2.640625 0.21875 C 4.078125 0.21875 4.859375 -1 4.859375 -3.234375 C 4.859375 -4.5625 4.65625 -5.4375 4.203125 -6.046875 C 3.84375 -6.53125 3.28125 -6.796875 2.640625 -6.796875 Z M 2.640625 -6.046875 C 3.546875 -6.046875 4 -5.125 4 -3.3125 C 4 -1.375 3.5625 -0.484375 2.625 -0.484375 C 1.734375 -0.484375 1.28125 -1.421875 1.28125 -3.28125 C 1.28125 -5.140625 1.734375 -6.046875 2.640625 -6.046875 Z M 2.640625 -6.046875 "/>
</symbol>
<symbol overflow="visible" id="glyph0-2">
<path style="stroke:none;" d="M 1.828125 -1 L 0.828125 -1 L 0.828125 0 L 1.828125 0 Z M 1.828125 -1 "/>
</symbol>
<symbol overflow="visible" id="glyph0-3">
<path style="stroke:none;" d="M 4.5625 -6.796875 L 1.0625 -6.796875 L 0.546875 -3.09375 L 1.328125 -3.09375 C 1.71875 -3.5625 2.046875 -3.734375 2.578125 -3.734375 C 3.484375 -3.734375 4.0625 -3.109375 4.0625 -2.09375 C 4.0625 -1.125 3.484375 -0.53125 2.578125 -0.53125 C 1.828125 -0.53125 1.375 -0.90625 1.1875 -1.671875 L 0.328125 -1.671875 C 0.453125 -1.109375 0.546875 -0.84375 0.75 -0.59375 C 1.125 -0.078125 1.828125 0.21875 2.59375 0.21875 C 3.96875 0.21875 4.921875 -0.78125 4.921875 -2.21875 C 4.921875 -3.5625 4.03125 -4.484375 2.71875 -4.484375 C 2.25 -4.484375 1.859375 -4.359375 1.46875 -4.0625 L 1.734375 -5.96875 L 4.5625 -5.96875 Z M 4.5625 -6.796875 "/>
</symbol>
<symbol overflow="visible" id="glyph0-4">
<path style="stroke:none;" d="M 2.484375 -4.84375 L 2.484375 0 L 3.328125 0 L 3.328125 -6.796875 L 2.765625 -6.796875 C 2.46875 -5.75 2.28125 -5.609375 0.984375 -5.453125 L 0.984375 -4.84375 Z M 2.484375 -4.84375 "/>
</symbol>
<symbol overflow="visible" id="glyph0-5">
<path style="stroke:none;" d="M 4.859375 -0.828125 L 1.28125 -0.828125 C 1.359375 -1.390625 1.671875 -1.75 2.5 -2.234375 L 3.46875 -2.75 C 4.40625 -3.265625 4.90625 -3.96875 4.90625 -4.8125 C 4.90625 -5.375 4.671875 -5.90625 4.265625 -6.265625 C 3.859375 -6.625 3.375 -6.796875 2.71875 -6.796875 C 1.859375 -6.796875 1.21875 -6.5 0.84375 -5.921875 C 0.609375 -5.5625 0.5 -5.125 0.484375 -4.4375 L 1.328125 -4.4375 C 1.359375 -4.90625 1.40625 -5.1875 1.53125 -5.40625 C 1.75 -5.8125 2.1875 -6.0625 2.703125 -6.0625 C 3.46875 -6.0625 4.03125 -5.515625 4.03125 -4.78125 C 4.03125 -4.25 3.71875 -3.796875 3.125 -3.4375 L 2.234375 -2.9375 C 0.8125 -2.140625 0.40625 -1.5 0.328125 0 L 4.859375 0 Z M 4.859375 -0.828125 "/>
</symbol>
<symbol overflow="visible" id="glyph0-6">
<path style="stroke:none;" d="M 2.125 -3.125 L 2.578125 -3.125 C 3.515625 -3.125 3.984375 -2.703125 3.984375 -1.890625 C 3.984375 -1.03125 3.46875 -0.53125 2.578125 -0.53125 C 1.65625 -0.53125 1.203125 -0.984375 1.15625 -1.96875 L 0.3125 -1.96875 C 0.34375 -1.421875 0.4375 -1.078125 0.609375 -0.765625 C 0.953125 -0.109375 1.625 0.21875 2.546875 0.21875 C 3.953125 0.21875 4.859375 -0.609375 4.859375 -1.90625 C 4.859375 -2.765625 4.515625 -3.25 3.703125 -3.515625 C 4.34375 -3.765625 4.65625 -4.25 4.65625 -4.9375 C 4.65625 -6.109375 3.875 -6.796875 2.578125 -6.796875 C 1.203125 -6.796875 0.484375 -6.046875 0.453125 -4.609375 L 1.296875 -4.609375 C 1.3125 -5.015625 1.34375 -5.25 1.453125 -5.453125 C 1.640625 -5.828125 2.0625 -6.0625 2.59375 -6.0625 C 3.34375 -6.0625 3.796875 -5.625 3.796875 -4.90625 C 3.796875 -4.421875 3.609375 -4.140625 3.25 -3.984375 C 3.015625 -3.890625 2.71875 -3.84375 2.125 -3.84375 Z M 2.125 -3.125 "/>
</symbol>
<symbol overflow="visible" id="glyph0-7">
<path style="stroke:none;" d="M 3.140625 -1.625 L 3.140625 0 L 3.984375 0 L 3.984375 -1.625 L 4.984375 -1.625 L 4.984375 -2.390625 L 3.984375 -2.390625 L 3.984375 -6.796875 L 3.359375 -6.796875 L 0.265625 -2.515625 L 0.265625 -1.625 Z M 3.140625 -2.390625 L 1 -2.390625 L 3.140625 -5.359375 Z M 3.140625 -2.390625 "/>
</symbol>
<symbol overflow="visible" id="glyph0-8">
<path style="stroke:none;" d="M 4.78125 -5.03125 C 4.609375 -6.140625 3.890625 -6.796875 2.84375 -6.796875 C 2.09375 -6.796875 1.421875 -6.4375 1.03125 -5.828125 C 0.609375 -5.171875 0.40625 -4.34375 0.40625 -3.09375 C 0.40625 -1.953125 0.578125 -1.234375 0.984375 -0.625 C 1.359375 -0.078125 1.953125 0.21875 2.703125 0.21875 C 3.984375 0.21875 4.921875 -0.734375 4.921875 -2.078125 C 4.921875 -3.34375 4.0625 -4.234375 2.84375 -4.234375 C 2.171875 -4.234375 1.640625 -3.96875 1.28125 -3.46875 C 1.28125 -5.125 1.828125 -6.046875 2.796875 -6.046875 C 3.390625 -6.046875 3.796875 -5.671875 3.9375 -5.03125 Z M 2.734375 -3.484375 C 3.546875 -3.484375 4.0625 -2.921875 4.0625 -2 C 4.0625 -1.15625 3.484375 -0.53125 2.703125 -0.53125 C 1.921875 -0.53125 1.328125 -1.1875 1.328125 -2.046875 C 1.328125 -2.890625 1.90625 -3.484375 2.734375 -3.484375 Z M 2.734375 -3.484375 "/>
</symbol>
<symbol overflow="visible" id="glyph0-9">
<path style="stroke:none;" d="M 4.984375 -6.796875 L 0.4375 -6.796875 L 0.4375 -5.96875 L 4.109375 -5.96875 C 2.5 -3.65625 1.828125 -2.234375 1.328125 0 L 2.21875 0 C 2.59375 -2.171875 3.453125 -4.046875 4.984375 -6.09375 Z M 4.984375 -6.796875 "/>
</symbol>
<symbol overflow="visible" id="glyph0-10">
<path style="stroke:none;" d="M 3.75 -3.578125 C 4.453125 -4 4.6875 -4.34375 4.6875 -4.984375 C 4.6875 -6.046875 3.84375 -6.796875 2.640625 -6.796875 C 1.4375 -6.796875 0.59375 -6.046875 0.59375 -4.984375 C 0.59375 -4.359375 0.828125 -4.015625 1.515625 -3.578125 C 0.734375 -3.203125 0.359375 -2.640625 0.359375 -1.890625 C 0.359375 -0.640625 1.296875 0.21875 2.640625 0.21875 C 3.984375 0.21875 4.921875 -0.640625 4.921875 -1.875 C 4.921875 -2.640625 4.53125 -3.203125 3.75 -3.578125 Z M 2.640625 -6.046875 C 3.359375 -6.046875 3.8125 -5.625 3.8125 -4.96875 C 3.8125 -4.34375 3.34375 -3.921875 2.640625 -3.921875 C 1.921875 -3.921875 1.453125 -4.34375 1.453125 -4.984375 C 1.453125 -5.625 1.921875 -6.046875 2.640625 -6.046875 Z M 2.640625 -3.203125 C 3.484375 -3.203125 4.0625 -2.671875 4.0625 -1.875 C 4.0625 -1.0625 3.484375 -0.53125 2.625 -0.53125 C 1.796875 -0.53125 1.21875 -1.078125 1.21875 -1.875 C 1.21875 -2.671875 1.796875 -3.203125 2.640625 -3.203125 Z M 2.640625 -3.203125 "/>
</symbol>
<symbol overflow="visible" id="glyph0-11">
<path style="stroke:none;" d="M 0.515625 -1.546875 C 0.671875 -0.4375 1.40625 0.21875 2.4375 0.21875 C 3.1875 0.21875 3.859375 -0.140625 4.265625 -0.75 C 4.6875 -1.40625 4.890625 -2.25 4.890625 -3.484375 C 4.890625 -4.625 4.703125 -5.359375 4.3125 -5.953125 C 3.9375 -6.5 3.34375 -6.796875 2.59375 -6.796875 C 1.296875 -6.796875 0.359375 -5.84375 0.359375 -4.515625 C 0.359375 -3.25 1.234375 -2.34375 2.453125 -2.34375 C 3.09375 -2.34375 3.5625 -2.578125 4.015625 -3.109375 C 4 -1.453125 3.46875 -0.53125 2.5 -0.53125 C 1.90625 -0.53125 1.484375 -0.90625 1.359375 -1.546875 Z M 2.578125 -6.0625 C 3.375 -6.0625 3.96875 -5.40625 3.96875 -4.53125 C 3.96875 -3.6875 3.375 -3.09375 2.546875 -3.09375 C 1.734375 -3.09375 1.234375 -3.671875 1.234375 -4.578125 C 1.234375 -5.4375 1.796875 -6.0625 2.578125 -6.0625 Z M 2.578125 -6.0625 "/>
</symbol>
<symbol overflow="visible" id="glyph1-0">
<path style="stroke:none;" d=""/>
</symbol>
<symbol overflow="visible" id="glyph1-1">
<path style="stroke:none;" d="M 0 -0.953125 L 0 -4.890625 C 0 -5.71875 -0.234375 -6.34375 -0.734375 -6.796875 C -1.1875 -7.234375 -1.8125 -7.46875 -2.5 -7.46875 C -3.546875 -7.46875 -4.1875 -7 -4.625 -5.875 C -4.984375 -6.671875 -5.640625 -7.09375 -6.53125 -7.09375 C -7.15625 -7.09375 -7.734375 -6.859375 -8.140625 -6.390625 C -8.5625 -5.9375 -8.75 -5.34375 -8.75 -4.5 L -8.75 -0.953125 Z M -4.984375 -2.0625 L -7.765625 -2.0625 L -7.765625 -4.21875 C -7.765625 -4.84375 -7.6875 -5.203125 -7.453125 -5.5 C -7.21875 -5.8125 -6.859375 -5.96875 -6.375 -5.96875 C -5.90625 -5.96875 -5.53125 -5.8125 -5.296875 -5.5 C -5.0625 -5.203125 -4.984375 -4.84375 -4.984375 -4.21875 Z M -0.984375 -2.0625 L -4 -2.0625 L -4 -4.78125 C -4 -5.328125 -3.859375 -5.6875 -3.578125 -5.953125 C -3.296875 -6.21875 -2.921875 -6.359375 -2.484375 -6.359375 C -2.0625 -6.359375 -1.6875 -6.21875 -1.40625 -5.953125 C -1.109375 -5.6875 -0.984375 -5.328125 -0.984375 -4.78125 Z M -0.984375 -2.0625 "/>
</symbol>
<symbol overflow="visible" id="glyph1-2">
<path style="stroke:none;" d="M -6.28125 -1.796875 L -6.28125 -0.796875 L 0 -0.796875 L 0 -1.796875 Z M -8.75 -1.796875 L -8.75 -0.796875 L -7.484375 -0.796875 L -7.484375 -1.796875 Z M -8.75 -1.796875 "/>
</symbol>
<symbol overflow="visible" id="glyph1-3">
<path style="stroke:none;" d="M -6.28125 -3.046875 L -6.28125 -2.015625 L -8.015625 -2.015625 L -8.015625 -1.015625 L -6.28125 -1.015625 L -6.28125 -0.171875 L -5.46875 -0.171875 L -5.46875 -1.015625 L -0.71875 -1.015625 C -0.078125 -1.015625 0.28125 -1.453125 0.28125 -2.234375 C 0.28125 -2.46875 0.25 -2.71875 0.1875 -3.046875 L -0.640625 -3.046875 C -0.609375 -2.921875 -0.59375 -2.765625 -0.59375 -2.5625 C -0.59375 -2.140625 -0.71875 -2.015625 -1.15625 -2.015625 L -5.46875 -2.015625 L -5.46875 -3.046875 Z M -6.28125 -3.046875 "/>
</symbol>
<symbol overflow="visible" id="glyph1-4">
<path style="stroke:none;" d="M -4.53125 -5.25 C -5.765625 -5.25 -6.46875 -4.421875 -6.46875 -2.96875 C -6.46875 -1.515625 -5.71875 -0.5625 -4.546875 -0.5625 C -3.5625 -0.5625 -3.09375 -1.0625 -2.734375 -2.5625 L -2.515625 -3.484375 C -2.34375 -4.1875 -2.09375 -4.46875 -1.625 -4.46875 C -1.046875 -4.46875 -0.640625 -3.875 -0.640625 -3 C -0.640625 -2.453125 -0.796875 -2 -1.0625 -1.75 C -1.25 -1.59375 -1.421875 -1.53125 -1.875 -1.46875 L -1.875 -0.40625 C -0.421875 -0.453125 0.28125 -1.265625 0.28125 -2.921875 C 0.28125 -4.5 -0.5 -5.515625 -1.71875 -5.515625 C -2.65625 -5.515625 -3.171875 -4.984375 -3.46875 -3.734375 L -3.703125 -2.765625 C -3.890625 -1.953125 -4.15625 -1.609375 -4.59375 -1.609375 C -5.171875 -1.609375 -5.546875 -2.125 -5.546875 -2.9375 C -5.546875 -3.75 -5.203125 -4.171875 -4.53125 -4.203125 Z M -4.53125 -5.25 "/>
</symbol>
</g>
</defs>
<g id="surface25891">
<rect x="0" y="0" width="720" height="360" style="fill:rgb(100%,100%,100%);fill-opacity:1;stroke:none;"/>
<path style=" stroke:none;fill-rule:nonzero;fill:rgb(6.27451%,58.823529%,28.235294%);fill-opacity:1;" d="M 69.628906 314.09375 L 69.679688 313.820312 L 90.792969 20.664062 L 97.203125 20.664062 L 118.417969 314.371094 L 110.964844 314.371094 L 105.648438 237.703125 L 82.347656 237.703125 L 77.136719 314.09375 L 69.628906 314.09375 L 84.589844 205.988281 L 103.511719 205.710938 L 94.074219 68.648438 L 93.972656 68.375 L 93.867188 69.199219 L 84.535156 205.710938 L 84.589844 205.988281 Z M 69.628906 314.09375 "/>
<path style=" stroke:none;fill-rule:nonzero;fill:rgb(6.27451%,58.823529%,28.235294%);fill-opacity:1;" d="M 120.984375 314.09375 L 121.039062 313.820312 L 142.148438 20.664062 L 148.558594 20.664062 L 169.773438 314.371094 L 162.320312 314.371094 L 157.003906 237.703125 L 133.703125 237.703125 L 128.492188 314.09375 L 120.984375 314.09375 L 135.945312 205.988281 L 154.867188 205.710938 L 145.433594 68.648438 L 145.328125 68.375 L 145.222656 69.199219 L 135.894531 205.710938 L 135.945312 205.988281 Z M 120.984375 314.09375 "/>
<path style=" stroke:none;fill-rule:nonzero;fill:rgb(6.27451%,58.823529%,28.235294%);fill-opacity:1;" d="M 172.34375 314.09375 L 172.394531 313.820312 L 193.503906 20.664062 L 199.914062 20.664062 L 221.128906 314.371094 L 213.675781 314.371094 L 208.359375 237.703125 L 185.058594 237.703125 L 179.847656 314.09375 L 172.34375 314.09375 L 187.300781 205.988281 L 206.222656 205.710938 L 196.789062 68.648438 L 196.683594 68.375 L 196.578125 69.199219 L 187.25 205.710938 L 187.300781 205.988281 Z M 172.34375 314.09375 "/>
<path style=" stroke:none;fill-rule:nonzero;fill:rgb(14.509804%,36.078431%,60%);fill-opacity:1;" d="M 223.699219 148.457031 L 223.757812 148.1875 L 223.757812 141.742188 L 223.9375 131.542969 L 224.351562 118.65625 L 224.769531 109.796875 L 225.839844 93.957031 L 227.328125 78.652344 L 228.875 66.839844 L 230.003906 59.859375 L 231.015625 54.492188 L 233.335938 44.558594 L 234.824219 39.457031 L 236.429688 34.890625 L 238.394531 30.328125 L 239.820312 27.644531 L 243.035156 23.347656 L 245.414062 21.46875 L 247.257812 20.664062 L 251.246094 20.664062 L 253.625 21.738281 L 255.351562 23.078125 L 257.253906 25.226562 L 258.863281 27.644531 L 261.65625 33.550781 L 264.15625 41.066406 L 265.289062 45.363281 L 267.074219 53.683594 L 268.441406 61.738281 L 269.394531 68.71875 L 270.464844 78.652344 L 271.414062 90.734375 L 272.128906 104.425781 L 272.488281 115.96875 L 264.15625 115.96875 L 263.742188 105.230469 L 263.265625 96.910156 L 262.371094 85.902344 L 261.480469 78.117188 L 260.230469 70.332031 L 259.101562 65.230469 L 257.550781 60.128906 L 256.183594 56.90625 L 254.757812 54.492188 L 253.386719 52.878906 L 250.769531 51.269531 L 247.734375 51.269531 L 246.605469 51.804688 L 244.285156 53.953125 L 243.035156 55.832031 L 241.25 59.589844 L 240 63.082031 L 238.511719 68.449219 L 237.5 73.015625 L 236.253906 79.996094 L 235.359375 86.171875 L 234.347656 95.03125 L 233.753906 101.742188 L 233.21875 109.257812 L 232.742188 118.117188 L 232.386719 127.515625 L 232.148438 137.449219 L 232.027344 147.113281 L 232.027344 188.726562 L 232.148438 198.390625 L 232.445312 209.667969 L 233.21875 226.042969 L 234.347656 240.273438 L 235.65625 251.546875 L 236.90625 259.601562 L 237.621094 263.359375 L 238.574219 267.65625 L 240.058594 273.027344 L 242.203125 278.394531 L 243.453125 280.542969 L 245.355469 282.691406 L 247.320312 283.765625 L 249.9375 283.765625 L 252.257812 282.691406 L 253.804688 281.347656 L 255.410156 279.199219 L 257.613281 274.636719 L 258.980469 270.339844 L 260.171875 265.242188 L 261.0625 260.140625 L 261.65625 255.84375 L 262.550781 247.519531 L 263.265625 238.394531 L 263.800781 228.996094 L 264.15625 219.867188 L 272.488281 219.867188 L 272.128906 230.609375 L 271.59375 241.078125 L 271.058594 248.863281 L 270.226562 258.261719 L 269.273438 266.582031 L 267.90625 275.980469 L 266.773438 282.152344 L 265.289062 288.867188 L 263.917969 293.96875 L 262.429688 298.53125 L 260.230469 303.898438 L 258.800781 306.585938 L 257.253906 309 L 255.410156 311.148438 L 253.089844 313.027344 L 250.589844 314.101562 L 248.269531 314.371094 L 245.773438 313.832031 L 243.925781 312.761719 L 241.488281 310.34375 L 238.453125 305.511719 L 236.253906 300.410156 L 234.527344 295.308594 L 233.039062 289.941406 L 231.375 282.691406 L 229.230469 270.878906 L 227.921875 261.75 L 227.03125 254.234375 L 226.019531 243.761719 L 225.304688 234.367188 L 224.472656 219.332031 L 223.875 200.269531 L 223.699219 185.503906 Z M 223.699219 148.457031 "/>
<path style=" stroke:none;fill-rule:nonzero;fill:rgb(6.27451%,58.823529%,28.235294%);fill-opacity:1;" d="M 275.054688 314.09375 L 275.105469 313.820312 L 296.21875 20.664062 L 302.628906 20.664062 L 323.84375 314.371094 L 316.390625 314.371094 L 311.074219 237.703125 L 287.773438 237.703125 L 282.558594 314.09375 L 275.054688 314.09375 L 290.015625 205.988281 L 308.933594 205.710938 L 299.5 68.648438 L 299.398438 68.375 L 299.292969 69.199219 L 289.960938 205.710938 L 290.015625 205.988281 Z M 275.054688 314.09375 "/>
<path style=" stroke:none;fill-rule:nonzero;fill:rgb(96.862745%,70.196078%,16.862745%);fill-opacity:1;" d="M 326.410156 146.460938 L 326.46875 146.191406 L 326.46875 140.828125 L 326.707031 128.757812 L 327.304688 112.128906 L 328.078125 98.449219 L 328.910156 87.71875 L 329.445312 82.085938 L 330.335938 74.039062 L 331.109375 68.140625 L 333.074219 56.070312 L 335.574219 44.804688 L 336.941406 39.976562 L 338.488281 35.414062 L 340.691406 30.320312 L 341.703125 28.441406 L 344.796875 24.148438 L 348.304688 21.46875 L 352.171875 20.664062 L 353.957031 20.929688 L 356.398438 22.003906 L 359.730469 24.953125 L 361.632812 27.636719 L 363.121094 30.320312 L 364.667969 33.804688 L 366.570312 39.171875 L 368.355469 45.609375 L 369.785156 52.046875 L 371.214844 60.09375 L 372.402344 68.675781 L 373.414062 78.0625 L 374.308594 89.328125 L 374.84375 98.714844 L 375.199219 108.105469 L 366.929688 108.105469 L 366.453125 98.714844 L 365.917969 91.476562 L 365.023438 82.625 L 364.132812 76.1875 L 363.238281 71.089844 L 361.574219 64.117188 L 360.144531 59.824219 L 358.359375 56.070312 L 356.636719 53.65625 L 354.671875 52.046875 L 353.484375 51.507812 L 350.328125 51.507812 L 347.472656 53.386719 L 345.808594 55.53125 L 344.617188 57.679688 L 342.953125 61.703125 L 341.941406 64.921875 L 341.34375 67.066406 L 339.558594 75.382812 L 338.371094 82.890625 L 337.714844 87.988281 L 336.882812 96.035156 L 336.289062 103.277344 L 335.632812 114.003906 L 335.277344 122.050781 L 334.800781 140.292969 L 334.742188 188.574219 L 334.917969 198.765625 L 335.277344 209.761719 L 335.753906 219.417969 L 336.464844 229.609375 L 337.179688 237.390625 L 338.429688 247.851562 L 339.5 254.824219 L 340.332031 259.382812 L 341.941406 266.625 L 342.59375 269.039062 L 344.140625 273.867188 L 345.746094 277.625 L 347.710938 280.84375 L 349.199219 282.453125 L 351.578125 283.792969 L 354.613281 283.792969 L 358.183594 282.183594 L 360.445312 280.039062 L 361.992188 277.890625 L 363.003906 276.015625 L 364.25 273.0625 L 365.144531 270.382812 L 365.976562 267.429688 L 366.988281 262.871094 L 366.988281 198.765625 L 352.292969 198.496094 L 352.292969 168.457031 L 375.140625 168.1875 L 375.199219 273.0625 L 373.949219 280.304688 L 372.402344 287.28125 L 370.914062 292.644531 L 369.367188 297.203125 L 367.167969 302.300781 L 365.382812 305.519531 L 362.644531 309.273438 L 360.144531 311.6875 L 357.527344 313.296875 L 355.207031 314.101562 L 352.472656 314.371094 L 350.03125 313.835938 L 347.414062 312.226562 L 345.332031 310.078125 L 343.425781 307.398438 L 341.523438 303.910156 L 339.144531 298.277344 L 337.597656 293.71875 L 335.988281 288.085938 L 334.382812 281.378906 L 332.957031 274.136719 L 332.003906 268.503906 L 331.050781 262.066406 L 330.039062 254.019531 L 329.089844 244.898438 L 328.375 236.585938 L 327.71875 227.195312 L 327.242188 218.34375 L 326.769531 206.277344 L 326.53125 196.621094 L 326.410156 188.304688 Z M 326.410156 146.460938 "/>
<path style=" stroke:none;fill-rule:nonzero;fill:rgb(14.509804%,36.078431%,60%);fill-opacity:1;" d="M 377.765625 148.457031 L 377.828125 148.1875 L 377.828125 141.742188 L 378.003906 131.542969 L 378.421875 118.65625 L 378.839844 109.796875 L 379.910156 93.957031 L 381.394531 78.652344 L 382.945312 66.839844 L 384.074219 59.859375 L 385.085938 54.492188 L 387.40625 44.558594 L 388.894531 39.457031 L 390.5 34.890625 L 392.464844 30.328125 L 393.890625 27.644531 L 397.105469 23.347656 L 399.484375 21.46875 L 401.328125 20.664062 L 405.316406 20.664062 L 407.695312 21.738281 L 409.421875 23.078125 L 411.324219 25.226562 L 412.929688 27.644531 L 415.726562 33.550781 L 418.226562 41.066406 L 419.355469 45.363281 L 421.140625 53.683594 L 422.507812 61.738281 L 423.460938 68.71875 L 424.53125 78.652344 L 425.484375 90.734375 L 426.199219 104.425781 L 426.554688 115.96875 L 418.226562 115.96875 L 417.808594 105.230469 L 417.332031 96.910156 L 416.441406 85.902344 L 415.546875 78.117188 L 414.300781 70.332031 L 413.167969 65.230469 L 411.621094 60.128906 L 410.253906 56.90625 L 408.824219 54.492188 L 407.457031 52.878906 L 404.839844 51.269531 L 401.804688 51.269531 L 400.675781 51.804688 L 398.351562 53.953125 L 397.105469 55.832031 L 395.320312 59.589844 L 394.070312 63.082031 L 392.582031 68.449219 L 391.570312 73.015625 L 390.320312 79.996094 L 389.429688 86.171875 L 388.417969 95.03125 L 387.824219 101.742188 L 387.285156 109.257812 L 386.8125 118.117188 L 386.453125 127.515625 L 386.214844 137.449219 L 386.097656 147.113281 L 386.097656 188.726562 L 386.214844 198.390625 L 386.511719 209.667969 L 387.285156 226.042969 L 388.417969 240.273438 L 389.726562 251.546875 L 390.976562 259.601562 L 391.691406 263.359375 L 392.640625 267.65625 L 394.128906 273.027344 L 396.269531 278.394531 L 397.519531 280.542969 L 399.425781 282.691406 L 401.386719 283.765625 L 404.003906 283.765625 L 406.328125 282.691406 L 407.875 281.347656 L 409.480469 279.199219 L 411.679688 274.636719 L 413.050781 270.339844 L 414.238281 265.242188 L 415.132812 260.140625 L 415.726562 255.84375 L 416.621094 247.519531 L 417.332031 238.394531 L 417.867188 228.996094 L 418.226562 219.867188 L 426.554688 219.867188 L 426.199219 230.609375 L 425.664062 241.078125 L 425.128906 248.863281 L 424.292969 258.261719 L 423.34375 266.582031 L 421.972656 275.980469 L 420.84375 282.152344 L 419.355469 288.867188 L 417.988281 293.96875 L 416.5 298.53125 L 414.300781 303.898438 L 412.871094 306.585938 L 411.324219 309 L 409.480469 311.148438 L 407.160156 313.027344 L 404.660156 314.101562 L 402.339844 314.371094 L 399.839844 313.832031 L 397.996094 312.761719 L 395.558594 310.34375 L 392.523438 305.511719 L 390.320312 300.410156 L 388.597656 295.308594 L 387.109375 289.941406 L 385.441406 282.691406 L 383.300781 270.878906 L 381.992188 261.75 L 381.097656 254.234375 L 380.085938 243.761719 L 379.375 234.367188 L 378.539062 219.332031 L 377.945312 200.269531 L 377.765625 185.503906 Z M 377.765625 148.457031 "/>
<path style=" stroke:none;fill-rule:nonzero;fill:rgb(83.921569%,15.686275%,22.352941%);fill-opacity:1;" d="M 429.125 20.664062 L 477.910156 20.664062 L 477.910156 52.101562 L 457.578125 52.378906 L 457.578125 314.371094 L 449.398438 314.371094 L 449.398438 52.652344 L 449.277344 52.101562 L 429.125 52.101562 Z M 429.125 20.664062 "/>
<path style=" stroke:none;fill-rule:nonzero;fill:rgb(96.862745%,70.196078%,16.862745%);fill-opacity:1;" d="M 480.480469 146.460938 L 480.539062 146.191406 L 480.539062 140.828125 L 480.777344 128.757812 L 481.371094 112.128906 L 482.144531 98.449219 L 482.980469 87.71875 L 483.515625 82.085938 L 484.40625 74.039062 L 485.179688 68.140625 L 487.144531 56.070312 L 489.640625 44.804688 L 491.011719 39.976562 L 492.558594 35.414062 L 494.757812 30.320312 L 495.769531 28.441406 L 498.863281 24.148438 L 502.375 21.46875 L 506.242188 20.664062 L 508.027344 20.929688 L 510.464844 22.003906 L 513.796875 24.953125 L 515.703125 27.636719 L 517.191406 30.320312 L 518.738281 33.804688 L 520.640625 39.171875 L 522.425781 45.609375 L 523.855469 52.046875 L 525.28125 60.09375 L 526.472656 68.675781 L 527.484375 78.0625 L 528.375 89.328125 L 528.910156 98.714844 L 529.269531 108.105469 L 520.996094 108.105469 L 520.523438 98.714844 L 519.988281 91.476562 L 519.09375 82.625 L 518.203125 76.1875 L 517.308594 71.089844 L 515.644531 64.117188 L 514.214844 59.824219 L 512.429688 56.070312 L 510.703125 53.65625 L 508.742188 52.046875 L 507.550781 51.507812 L 504.398438 51.507812 L 501.542969 53.386719 L 499.875 55.53125 L 498.6875 57.679688 L 497.019531 61.703125 L 496.007812 64.921875 L 495.414062 67.066406 L 493.628906 75.382812 L 492.4375 82.890625 L 491.785156 87.988281 L 490.953125 96.035156 L 490.355469 103.277344 L 489.703125 114.003906 L 489.34375 122.050781 L 488.867188 140.292969 L 488.808594 188.574219 L 488.988281 198.765625 L 489.34375 209.761719 L 489.820312 219.417969 L 490.535156 229.609375 L 491.25 237.390625 L 492.5 247.851562 L 493.570312 254.824219 L 494.402344 259.382812 L 496.007812 266.625 L 496.664062 269.039062 L 498.210938 273.867188 L 499.816406 277.625 L 501.78125 280.84375 L 503.265625 282.453125 L 505.648438 283.792969 L 508.683594 283.792969 L 512.25 282.183594 L 514.511719 280.039062 L 516.058594 277.890625 L 517.070312 276.015625 L 518.320312 273.0625 L 519.214844 270.382812 L 520.046875 267.429688 L 521.058594 262.871094 L 521.058594 198.765625 L 506.363281 198.496094 L 506.363281 168.457031 L 529.207031 168.1875 L 529.269531 273.0625 L 528.019531 280.304688 L 526.472656 287.28125 L 524.984375 292.644531 L 523.4375 297.203125 L 521.234375 302.300781 L 519.449219 305.519531 L 516.714844 309.273438 L 514.214844 311.6875 L 511.597656 313.296875 L 509.277344 314.101562 L 506.539062 314.371094 L 504.101562 313.835938 L 501.484375 312.226562 L 499.398438 310.078125 L 497.496094 307.398438 L 495.59375 303.910156 L 493.210938 298.277344 L 491.664062 293.71875 L 490.058594 288.085938 L 488.453125 281.378906 L 487.023438 274.136719 L 486.074219 268.503906 L 485.121094 262.066406 L 484.109375 254.019531 L 483.15625 244.898438 L 482.441406 236.585938 L 481.789062 227.195312 L 481.3125 218.34375 L 480.835938 206.277344 L 480.597656 196.621094 L 480.480469 188.304688 Z M 480.480469 146.460938 "/>
<path style=" stroke:none;fill-rule:nonzero;fill:rgb(83.921569%,15.686275%,22.352941%);fill-opacity:1;" d="M 531.835938 20.664062 L 580.625 20.664062 L 580.625 52.101562 L 560.289062 52.378906 L 560.289062 314.371094 L 552.109375 314.371094 L 552.109375 52.652344 L 551.992188 52.101562 L 531.835938 52.101562 Z M 531.835938 20.664062 "/>
<path style=" stroke:none;fill-rule:nonzero;fill:rgb(14.509804%,36.078431%,60%);fill-opacity:1;" d="M 583.191406 148.457031 L 583.25 148.1875 L 583.25 141.742188 L 583.429688 131.542969 L 583.847656 118.65625 L 584.261719 109.796875 L 585.335938 93.957031 L 586.820312 78.652344 L 588.367188 66.839844 L 589.5 59.859375 L 590.511719 54.492188 L 592.832031 44.558594 L 594.320312 39.457031 L 595.925781 34.890625 L 597.886719 30.328125 L 599.316406 27.644531 L 602.527344 23.347656 L 604.910156 21.46875 L 606.753906 20.664062 L 610.738281 20.664062 L 613.121094 21.738281 L 614.84375 23.078125 L 616.75 25.226562 L 618.355469 27.644531 L 621.152344 33.550781 L 623.652344 41.066406 L 624.78125 45.363281 L 626.566406 53.683594 L 627.933594 61.738281 L 628.886719 68.71875 L 629.957031 78.652344 L 630.910156 90.734375 L 631.625 104.425781 L 631.980469 115.96875 L 623.652344 115.96875 L 623.234375 105.230469 L 622.757812 96.910156 L 621.867188 85.902344 L 620.972656 78.117188 L 619.722656 70.332031 L 618.59375 65.230469 L 617.046875 60.128906 L 615.679688 56.90625 L 614.25 54.492188 L 612.882812 52.878906 L 610.265625 51.269531 L 607.230469 51.269531 L 606.097656 51.804688 L 603.777344 53.953125 L 602.527344 55.832031 L 600.746094 59.589844 L 599.496094 63.082031 L 598.007812 68.449219 L 596.996094 73.015625 L 595.746094 79.996094 L 594.855469 86.171875 L 593.84375 95.03125 L 593.246094 101.742188 L 592.710938 109.257812 L 592.234375 118.117188 L 591.878906 127.515625 L 591.640625 137.449219 L 591.523438 147.113281 L 591.523438 188.726562 L 591.640625 198.390625 L 591.9375 209.667969 L 592.710938 226.042969 L 593.84375 240.273438 L 595.152344 251.546875 L 596.402344 259.601562 L 597.113281 263.359375 L 598.066406 267.65625 L 599.554688 273.027344 L 601.695312 278.394531 L 602.945312 280.542969 L 604.847656 282.691406 L 606.8125 283.765625 L 609.429688 283.765625 L 611.75 282.691406 L 613.296875 281.347656 L 614.90625 279.199219 L 617.105469 274.636719 L 618.476562 270.339844 L 619.664062 265.242188 L 620.558594 260.140625 L 621.152344 255.84375 L 622.042969 247.519531 L 622.757812 238.394531 L 623.292969 228.996094 L 623.652344 219.867188 L 631.980469 219.867188 L 631.625 230.609375 L 631.089844 241.078125 L 630.554688 248.863281 L 629.71875 258.261719 L 628.769531 266.582031 L 627.398438 275.980469 L 626.269531 282.152344 L 624.78125 288.867188 L 623.414062 293.96875 L 621.925781 298.53125 L 619.722656 303.898438 L 618.296875 306.585938 L 616.75 309 L 614.90625 311.148438 L 612.585938 313.027344 L 610.085938 314.101562 L 607.765625 314.371094 L 605.265625 313.832031 L 603.421875 312.761719 L 600.980469 310.34375 L 597.949219 305.511719 L 595.746094 300.410156 L 594.019531 295.308594 L 592.535156 289.941406 L 590.867188 282.691406 L 588.726562 270.878906 L 587.417969 261.75 L 586.523438 254.234375 L 585.511719 243.761719 L 584.796875 234.367188 L 583.964844 219.332031 L 583.371094 200.269531 L 583.191406 185.503906 Z M 583.191406 148.457031 "/>
<path style=" stroke:none;fill-rule:nonzero;fill:rgb(6.27451%,58.823529%,28.235294%);fill-opacity:1;" d="M 634.546875 314.09375 L 634.601562 313.820312 L 655.710938 20.664062 L 662.121094 20.664062 L 683.335938 314.371094 L 675.882812 314.371094 L 670.566406 237.703125 L 647.265625 237.703125 L 642.054688 314.09375 L 634.546875 314.09375 L 649.507812 205.988281 L 668.429688 205.710938 L 658.996094 68.648438 L 658.890625 68.375 L 658.785156 69.199219 L 649.457031 205.710938 L 649.507812 205.988281 Z M 634.546875 314.09375 "/>
<g style="fill:rgb(0%,0%,0%);fill-opacity:1;">
  <use xlink:href="#glyph0-1" x="21.957031" y="318.198242"/>
  <use xlink:href="#glyph0-2" x="27.291016" y="318.198242"/>
  <use xlink:href="#glyph0-1" x="29.958008" y="318.198242"/>
</g>
<g style="fill:rgb(0%,0%,0%);fill-opacity:1;">
  <use xlink:href="#glyph0-1" x="21.957031" y="244.475586"/>
  <use xlink:href="#glyph0-2" x="27.291016" y="244.475586"/>
  <use xlink:href="#glyph0-3" x="29.958008" y="244.475586"/>
</g>
<g style="fill:rgb(0%,0%,0%);fill-opacity:1;">
  <use xlink:href="#glyph0-4" x="21.957031" y="170.75293"/>
  <use xlink:href="#glyph0-2" x="27.291016" y="170.75293"/>
  <use xlink:href="#glyph0-1" x="29.958008" y="170.75293"/>
</g>
<g style="fill:rgb(0%,0%,0%);fill-opacity:1;">
  <use xlink:href="#glyph0-4" x="21.957031" y="97.03418"/>
  <use xlink:href="#glyph0-2" x="27.291016" y="97.03418"/>
  <use xlink:href="#glyph0-3" x="29.958008" y="97.03418"/>
</g>
<g style="fill:rgb(0%,0%,0%);fill-opacity:1;">
  <use xlink:href="#glyph0-5" x="21.957031" y="23.311523"/>
  <use xlink:href="#glyph0-2" x="27.291016" y="23.311523"/>
  <use xlink:href="#glyph0-1" x="29.958008" y="23.311523"/>
</g>
<g style="fill:rgb(0%,0%,0%);fill-opacity:1;">
  <use xlink:href="#glyph0-4" x="91.023438" y="338.19043"/>
</g>
<g style="fill:rgb(0%,0%,0%);fill-opacity:1;">
  <use xlink:href="#glyph0-5" x="142.378906" y="338.19043"/>
</g>
<g style="fill:rgb(0%,0%,0%);fill-opacity:1;">
  <use xlink:href="#glyph0-6" x="193.734375" y="338.19043"/>
</g>
<g style="fill:rgb(0%,0%,0%);fill-opacity:1;">
  <use xlink:href="#glyph0-7" x="245.09375" y="338.19043"/>
</g>
<g style="fill:rgb(0%,0%,0%);fill-opacity:1;">
  <use xlink:href="#glyph0-3" x="296.449219" y="338.19043"/>
</g>
<g style="fill:rgb(0%,0%,0%);fill-opacity:1;">
  <use xlink:href="#glyph0-8" x="347.804688" y="338.19043"/>
</g>
<g style="fill:rgb(0%,0%,0%);fill-opacity:1;">
  <use xlink:href="#glyph0-9" x="399.160156" y="338.19043"/>
</g>
<g style="fill:rgb(0%,0%,0%);fill-opacity:1;">
  <use xlink:href="#glyph0-10" x="450.519531" y="338.19043"/>
</g>
<g style="fill:rgb(0%,0%,0%);fill-opacity:1;">
  <use xlink:href="#glyph0-11" x="501.875" y="338.19043"/>
</g>
<g style="fill:rgb(0%,0%,0%);fill-opacity:1;">
  <use xlink:href="#glyph0-4" x="550.730469" y="338.19043"/>
  <use xlink:href="#glyph0-1" x="556.064453" y="338.19043"/>
</g>
<g style="fill:rgb(0%,0%,0%);fill-opacity:1;">
  <use xlink:href="#glyph0-4" x="602.085938" y="338.19043"/>
  <use xlink:href="#glyph0-4" x="607.419922" y="338.19043"/>
</g>
<g style="fill:rgb(0%,0%,0%);fill-opacity:1;">
  <use xlink:href="#glyph0-4" x="653.441406" y="338.19043"/>
  <use xlink:href="#glyph0-5" x="658.775391" y="338.19043"/>
</g>
<g style="fill:rgb(0%,0%,0%);fill-opacity:1;">
  <use xlink:href="#glyph1-1" x="14.412109" y="178.015625"/>
  <use xlink:href="#glyph1-2" x="14.412109" y="170.011719"/>
  <use xlink:href="#glyph1-3" x="14.412109" y="167.347656"/>
  <use xlink:href="#glyph1-4" x="14.412109" y="164.011719"/>
</g>
</g>
</svg>
