<?xml version="1.0" encoding="UTF-8"?>
<svg xmlns="http://www.w3.org/2000/svg" xmlns:xlink="http://www.w3.org/1999/xlink" width="720pt" height="360pt" viewBox="0 0 720 360" version="1.1">
<defs>
<g>
<symbol overflow="visible" id="glyph0-0">
<path style="stroke:none;" d=""/>
</symbol>
<symbol overflow="visible" id="glyph0-1">
<path style="stroke:none;" d="M 2.640625 -6.796875 C 2 -6.796875 1.421875 -6.53125 1.078125 -6.046875 C 0.640625 -5.453125 0.40625 -4.546875 0.40625 -3.296875 C 0.40625 -1 1.1875 0.21875 2.640625 0.21875 C 4.078125 0.21875 4.859375 -1 4.859375 -3.234375 C 4.859375 -4.5625 4.65625 -5.4375 4.203125 -6.046875 C 3.84375 -6.53125 3.28125 -6.796875 2.640625 -6.796875 Z M 2.640625 -6.046875 C 3.546875 -6.046875 4 -5.125 4 -3.3125 C 4 -1.375 3.5625 -0.484375 2.625 -0.484375 C 1.734375 -0.484375 1.28125 -1.421875 1.28125 -3.28125 C 1.28125 -5.140625 1.734375 -6.046875 2.640625 -6.046875 Z M 2.640625 -6.046875 "/>
</symbol>
<symbol overflow="visible" id="glyph0-2">
<path style="stroke:none;" d="M 1.828125 -1 L 0.828125 -1 L 0.828125 0 L 1.828125 0 Z M 1.828125 -1 "/>
</symbol>
<symbol overflow="visible" id="glyph0-3">
<path style="stroke:none;" d="M 4.5625 -6.796875 L 1.0625 -6.796875 L 0.546875 -3.09375 L 1.328125 -3.09375 C 1.71875 -3.5625 2.046875 -3.734375 2.578125 -3.734375 C 3.484375 -3.734375 4.0625 -3.109375 4.0625 -2.09375 C 4.0625 -1.125 3.484375 -0.53125 2.578125 -0.53125 C 1.828125 -0.53125 1.375 -0.90625 1.1875 -1.671875 L 0.328125 -1.671875 C 0.453125 -1.109375 0.546875 -0.84375 0.75 -0.59375 C 1.125 -0.078125 1.828125 0.21875 2.59375 0.21875 C 3.96875 0.21875 4.921875 -0.78125 4.921875 -2.21875 C 4.921875 -3.5625 4.03125 -4.484375 2.71875 -4.484375 C 2.25 -4.484375 1.859375 -4.359375 1.46875 -4.0625 L 1.734375 -5.96875 L 4.5625 -5.96875 Z M 4.5625 -6.796875 "/>
</symbol>
<symbol overflow="visible" id="glyph0-4">
<path style="stroke:none;" d="M 2.484375 -4.84375 L 2.484375 0 L 3.328125 0 L 3.328125 -6.796875 L 2.765625 -6.796875 C 2.46875 -5.75 2.28125 -5.609375 0.984375 -5.453125 L 0.984375 -4.84375 Z M 2.484375 -4.84375 "/>
</symbol>
<symbol overflow="visible" id="glyph0-5">
<path style="stroke:none;" d="M 4.859375 -0.828125 L 1.28125 -0.828125 C 1.359375 -1.390625 1.671875 -1.75 2.5 -2.234375 L 3.46875 -2.75 C 4.40625 -3.265625 4.90625 -3.96875 4.90625 -4.8125 C 4.90625 -5.375 4.671875 -5.90625 4.265625 -6.265625 C 3.859375 -6.625 3.375 -6.796875 2.71875 -6.796875 C 1.859375 -6.796875 1.21875 -6.5 0.84375 -5.921875 C 0.609375 -5.5625 0.5 -5.125 0.484375 -4.4375 L 1.328125 -4.4375 C 1.359375 -4.90625 1.40625 -5.1875 1.53125 -5.40625 C 1.75 -5.8125 2.1875 -6.0625 2.703125 -6.0625 C 3.46875 -6.0625 4.03125 -5.515625 4.03125 -4.78125 C 4.03125 -4.25 3.71875 -3.796875 3.125 -3.4375 L 2.234375 -2.9375 C 0.8125 -2.140625 0.40625 -1.5 0.328125 0 L 4.859375 0 Z M 4.859375 -0.828125 "/>
</symbol>
<symbol overflow="visible" id="glyph0-6">
<path style="stroke:none;" d="M 2.125 -3.125 L 2.578125 -3.125 C 3.515625 -3.125 3.984375 -2.703125 3.984375 -1.890625 C 3.984375 -1.03125 3.46875 -0.53125 2.578125 -0.53125 C 1.65625 -0.53125 1.203125 -0.984375 1.15625 -1.96875 L 0.3125 -1.96875 C 0.34375 -1.421875 0.4375 -1.078125 0.609375 -0.765625 C 0.953125 -0.109375 1.625 0.21875 2.546875 0.21875 C 3.953125 0.21875 4.859375 -0.609375 4.859375 -1.90625 C 4.859375 -2.765625 4.515625 -3.25 3.703125 -3.515625 C 4.34375 -3.765625 4.65625 -4.25 4.65625 -4.9375 C 4.65625 -6.109375 3.875 -6.796875 2.578125 -6.796875 C 1.203125 -6.796875 0.484375 -6.046875 0.453125 -4.609375 L 1.296875 -4.609375 C 1.3125 -5.015625 1.34375 -5.25 1.453125 -5.453125 C 1.640625 -5.828125 2.0625 -6.0625 2.59375 -6.0625 C 3.34375 -6.0625 3.796875 -5.625 3.796875 -4.90625 C 3.796875 -4.421875 3.609375 -4.140625 3.25 -3.984375 C 3.015625 -3.890625 2.71875 -3.84375 2.125 -3.84375 Z M 2.125 -3.125 "/>
</symbol>
<symbol overflow="visible" id="glyph0-7">
<path style="stroke:none;" d="M 3.140625 -1.625 L 3.140625 0 L 3.984375 0 L 3.984375 -1.625 L 4.984375 -1.625 L 4.984375 -2.390625 L 3.984375 -2.390625 L 3.984375 -6.796875 L 3.359375 -6.796875 L 0.265625 -2.515625 L 0.265625 -1.625 Z M 3.140625 -2.390625 L 1 -2.390625 L 3.140625 -5.359375 Z M 3.140625 -2.390625 "/>
</symbol>
<symbol overflow="visible" id="glyph0-8">
<path style="stroke:none;" d="M 4.78125 -5.03125 C 4.609375 -6.140625 3.890625 -6.796875 2.84375 -6.796875 C 2.09375 -6.796875 1.421875 -6.4375 1.03125 -5.828125 C 0.609375 -5.171875 0.40625 -4.34375 0.40625 -3.09375 C 0.40625 -1.953125 0.578125 -1.234375 0.984375 -0.625 C 1.359375 -0.078125 1.953125 0.21875 2.703125 0.21875 C 3.984375 0.21875 4.921875 -0.734375 4.921875 -2.078125 C 4.921875 -3.34375 4.0625 -4.234375 2.84375 -4.234375 C 2.171875 -4.234375 1.640625 -3.96875 1.28125 -3.46875 C 1.28125 -5.125 1.828125 -6.046875 2.796875 -6.046875 C 3.390625 -6.046875 3.796875 -5.671875 3.9375 -5.03125 Z M 2.734375 -3.484375 C 3.546875 -3.484375 4.0625 -2.921875 4.0625 -2 C 4.0625 -1.15625 3.484375 -0.53125 2.703125 -0.53125 C 1.921875 -0.53125 1.328125 -1.1875 1.328125 -2.046875 C 1.328125 -2.890625 1.90625 -3.484375 2.734375 -3.484375 Z M 2.734375 -3.484375 "/>
</symbol>
<symbol overflow="visible" id="glyph0-9">
<path style="stroke:none;" d="M 4.984375 -6.796875 L 0.4375 -6.796875 L 0.4375 -5.96875 L 4.109375 -5.96875 C 2.5 -3.65625 1.828125 -2.234375 1.328125 0 L 2.21875 0 C 2.59375 -2.171875 3.453125 -4.046875 4.984375 -6.09375 Z M 4.984375 -6.796875 "/>
</symbol>
<symbol overflow="visible" id="glyph0-10">
<path style="stroke:none;" d="M 3.75 -3.578125 C 4.453125 -4 4.6875 -4.34375 4.6875 -4.984375 C 4.6875 -6.046875 3.84375 -6.796875 2.640625 -6.796875 C 1.4375 -6.796875 0.59375 -6.046875 0.59375 -4.984375 C 0.59375 -4.359375 0.828125 -4.015625 1.515625 -3.578125 C 0.734375 -3.203125 0.359375 -2.640625 0.359375 -1.890625 C 0.359375 -0.640625 1.296875 0.21875 2.640625 0.21875 C 3.984375 0.21875 4.921875 -0.640625 4.921875 -1.875 C 4.921875 -2.640625 4.53125 -3.203125 3.75 -3.578125 Z M 2.640625 -6.046875 C 3.359375 -6.046875 3.8125 -5.625 3.8125 -4.96875 C 3.8125 -4.34375 3.34375 -3.921875 2.640625 -3.921875 C 1.921875 -3.921875 1.453125 -4.34375 1.453125 -4.984375 C 1.453125 -5.625 1.921875 -6.046875 2.640625 -6.046875 Z M 2.640625 -3.203125 C 3.484375 -3.203125 4.0625 -2.671875 4.0625 -1.875 C 4.0625 -1.0625 3.484375 -0.53125 2.625 -0.53125 C 1.796875 -0.53125 1.21875 -1.078125 1.21875 -1.875 C 1.21875 -2.671875 1.796875 -3.203125 2.640625 -3.203125 Z M 2.640625 -3.203125 "/>
</symbol>
<symbol overflow="visible" id="glyph0-11">
<path style="stroke:none;" d="M 0.515625 -1.546875 C 0.671875 -0.4375 1.40625 0.21875 2.4375 0.21875 C 3.1875 0.21875 3.859375 -0.140625 4.265625 -0.75 C 4.6875 -1.40625 4.890625 -2.25 4.890625 -3.484375 C 4.890625 -4.625 4.703125 -5.359375 4.3125 -5.953125 C 3.9375 -6.5 3.34375 -6.796875 2.59375 -6.796875 C 1.296875 -6.796875 0.359375 -5.84375 0.359375 -4.515625 C 0.359375 -3.25 1.234375 -2.34375 2.453125 -2.34375 C 3.09375 -2.34375 3.5625 -2.578125 4.015625 -3.109375 C 4 -1.453125 3.46875 -0.53125 2.5 -0.53125 C 1.90625 -0.53125 1.484375 -0.90625 1.359375 -1.546875 Z M 2.578125 -6.0625 C 3.375 -6.0625 3.96875 -5.40625 3.96875 -4.53125 C 3.96875 -3.6875 3.375 -3.09375 2.546875 -3.09375 C 1.734375 -3.09375 1.234375 -3.671875 1.234375 -4.578125 C 1.234375 -5.4375 1.796875 -6.0625 2.578125 -6.0625 Z M 2.578125 -6.0625 "/>
</symbol>
<symbol overflow="visible" id="glyph1-0">
<path style="stroke:none;" d=""/>
</symbol>
<symbol overflow="visible" id="glyph1-1">
<path style="stroke:none;" d="M 0 -0.953125 L 0 -4.890625 C 0 -5.71875 -0.234375 -6.34375 -0.734375 -6.796875 C -1.1875 -7.234375 -1.8125 -7.46875 -2.5 -7.46875 C -3.546875 -7.46875 -4.1875 -7 -4.625 -5.875 C -4.984375 -6.671875 -5.640625 -7.09375 -6.53125 -7.09375 C -7.15625 -7.09375 -7.734375 -6.859375 -8.140625 -6.390625 C -8.5625 -5.9375 -8.75 -5.34375 -8.75 -4.5 L -8.75 -0.953125 Z M -4.984375 -2.0625 L -7.765625 -2.0625 L -7.765625 -4.21875 C -7.765625 -4.84375 -7.6875 -5.203125 -7.453125 -5.5 C -7.21875 -5.8125 -6.859375 -5.96875 -6.375 -5.96875 C -5.90625 -5.96875 -5.53125 -5.8125 -5.296875 -5.5 C -5.0625 -5.203125 -4.984375 -4.84375 -4.984375 -4.21875 Z M -0.984375 -2.0625 L -4 -2.0625 L -4 -4.78125 C -4 -5.328125 -3.859375 -5.6875 -3.578125 -5.953125 C -3.296875 -6.21875 -2.921875 -6.359375 -2.484375 -6.359375 C -2.0625 -6.359375 -1.6875 -6.21875 -1.40625 -5.953125 C -1.109375 -5.6875 -0.984375 -5.328125 -0.984375 -4.78125 Z M -0.984375 -2.0625 "/>
</symbol>
<symbol overflow="visible" id="glyph1-2">
<path style="stroke:none;" d="M -6.28125 -1.796875 L -6.28125 -0.796875 L 0 -0.796875 L 0 -1.796875 Z M -8.75 -1.796875 L -8.75 -0.796875 L -7.484375 -0.796875 L -7.484375 -1.796875 Z M -8.75 -1.796875 "/>
</symbol>
<symbol overflow="visible" id="glyph1-3">
<path style="stroke:none;" d="M -6.28125 -3.046875 L -6.28125 -2.015625 L -8.015625 -2.015625 L -8.015625 -1.015625 L -6.28125 -1.015625 L -6.28125 -0.171875 L -5.46875 -0.171875 L -5.46875 -1.015625 L -0.71875 -1.015625 C -0.078125 -1.015625 0.28125 -1.453125 0.28125 -2.234375 C 0.28125 -2.46875 0.25 -2.71875 0.1875 -3.046875 L -0.640625 -3.046875 C -0.609375 -2.921875 -0.59375 -2.765625 -0.59375 -2.5625 C -0.59375 -2.140625 -0.71875 -2.015625 -1.15625 -2.015625 L -5.46875 -2.015625 L -5.46875 -3.046875 Z M -6.28125 -3.046875 "/>
</symbol>
<symbol overflow="visible" id="glyph1-4">
<path style="stroke:none;" d="M -4.53125 -5.25 C -5.765625 -5.25 -6.46875 -4.421875 -6.46875 -2.96875 C -6.46875 -1.515625 -5.71875 -0.5625 -4.546875 -0.5625 C -3.5625 -0.5625 -3.09375 -1.0625 -2.734375 -2.5625 L -2.515625 -3.484375 C -2.34375 -4.1875 -2.09375 -4.46875 -1.625 -4.46875 C -1.046875 -4.46875 -0.640625 -3.875 -0.640625 -3 C -0.640625 -2.453125 -0.796875 -2 -1.0625 -1.75 C -1.25 -1.59375 -1.421875 -1.53125 -1.875 -1.46875 L -1.875 -0.40625 C -0.421875 -0.453125 0.28125 -1.265625 0.28125 -2.921875 C 0.28125 -4.5 -0.5 -5.515625 -1.71875 -5.515625 C -2.65625 -5.515625 -3.171875 -4.984375 -3.46875 -3.734375 L -3.703125 -2.765625 C -3.890625 -1.953125 -4.15625 -1.609375 -4.59375 -1.609375 C -5.171875 -1.609375 -5.546875 -2.125 -5.546875 -2.9375 C -5.546875 -3.75 -5.203125 -4.171875 -4.53125 -4.203125 Z M -4.53125 -5.25 "/>
</symbol>
</g>
</defs>
<g id="surface31890">
<rect x="0" y="0" width="720" height="360" style="fill:rgb(100%,100%,100%);fill-opacity:1;stroke:none;"/>
<path style=" stroke:none;fill-rule:nonzero;fill:rgb(6.27451%,58.823529%,28.235294%);fill-opacity:1;" d="M 69.628906 314.367188 L 69.675781 314.367188 L 87.757812 312.371094 L 93.25 312.371094 L 111.421875 314.371094 L 105.039062 314.371094 L 100.484375 313.847656 L 80.523438 313.847656 L 76.058594 314.367188 L 69.628906 314.367188 L 82.445312 313.632812 L 98.652344 313.628906 L 90.570312 312.695312 L 90.480469 312.695312 L 90.390625 312.699219 L 82.398438 313.628906 L 82.445312 313.632812 Z M 69.628906 314.367188 "/>
<path style=" stroke:none;fill-rule:nonzero;fill:rgb(14.509804%,36.078431%,60%);fill-opacity:1;" d="M 69.628906 238.316406 L 69.679688 238.246094 L 69.679688 236.527344 L 69.832031 233.804688 L 70.191406 230.367188 L 70.546875 228.003906 L 71.464844 223.78125 L 72.738281 219.699219 L 74.0625 216.550781 L 75.03125 214.6875 L 75.898438 213.253906 L 77.886719 210.605469 L 79.160156 209.246094 L 80.535156 208.027344 L 82.21875 206.8125 L 83.441406 206.09375 L 86.195312 204.949219 L 88.234375 204.449219 L 89.8125 204.234375 L 93.226562 204.234375 L 95.265625 204.519531 L 96.746094 204.878906 L 98.375 205.453125 L 99.75 206.09375 L 102.148438 207.671875 L 104.289062 209.675781 L 105.257812 210.820312 L 106.785156 213.039062 L 107.957031 215.1875 L 108.773438 217.050781 L 109.691406 219.699219 L 110.503906 222.921875 L 111.117188 226.574219 L 111.421875 229.652344 L 104.289062 229.652344 L 103.929688 226.789062 L 103.523438 224.570312 L 102.757812 221.632812 L 101.992188 219.558594 L 100.921875 217.480469 L 99.957031 216.121094 L 98.628906 214.757812 L 97.457031 213.898438 L 96.234375 213.253906 L 95.0625 212.828125 L 92.820312 212.398438 L 90.21875 212.398438 L 89.253906 212.539062 L 87.265625 213.113281 L 86.195312 213.613281 L 84.664062 214.617188 L 83.59375 215.546875 L 82.320312 216.980469 L 81.453125 218.195312 L 80.382812 220.058594 L 79.617188 221.703125 L 78.753906 224.066406 L 78.242188 225.859375 L 77.785156 227.863281 L 77.375 230.226562 L 77.070312 232.730469 L 76.867188 235.378906 L 76.765625 237.957031 L 76.765625 249.054688 L 76.867188 251.632812 L 77.121094 254.640625 L 77.785156 259.007812 L 78.753906 262.804688 L 79.875 265.8125 L 80.945312 267.960938 L 81.554688 268.960938 L 82.371094 270.105469 L 83.644531 271.539062 L 85.480469 272.972656 L 86.550781 273.542969 L 88.183594 274.117188 L 89.863281 274.402344 L 92.105469 274.402344 L 94.09375 274.117188 L 95.417969 273.757812 L 96.796875 273.1875 L 98.679688 271.96875 L 99.851562 270.824219 L 100.871094 269.464844 L 101.636719 268.101562 L 102.148438 266.957031 L 102.910156 264.738281 L 103.523438 262.304688 L 103.980469 259.796875 L 104.289062 257.363281 L 111.421875 257.363281 L 111.117188 260.226562 L 110.660156 263.019531 L 110.199219 265.09375 L 109.484375 267.601562 L 108.671875 269.820312 L 107.5 272.328125 L 106.53125 273.972656 L 105.257812 275.765625 L 104.082031 277.125 L 102.808594 278.339844 L 100.921875 279.773438 L 99.699219 280.488281 L 98.375 281.132812 L 96.796875 281.707031 L 94.808594 282.207031 L 92.667969 282.496094 L 90.679688 282.566406 L 88.539062 282.421875 L 86.957031 282.136719 L 84.867188 281.492188 L 82.269531 280.203125 L 80.382812 278.84375 L 78.90625 277.480469 L 77.632812 276.050781 L 76.203125 274.117188 L 74.371094 270.964844 L 73.25 268.53125 L 72.484375 266.527344 L 71.617188 263.734375 L 71.003906 261.230469 L 70.292969 257.21875 L 69.78125 252.136719 L 69.628906 248.199219 Z M 69.628906 238.316406 "/>
<path style=" stroke:none;fill-rule:nonzero;fill:rgb(96.862745%,70.196078%,16.862745%);fill-opacity:1;" d="M 69.628906 305.5 L 69.679688 305.492188 L 69.679688 305.308594 L 69.882812 304.902344 L 70.394531 304.335938 L 71.054688 303.875 L 71.769531 303.511719 L 72.230469 303.320312 L 72.992188 303.046875 L 73.65625 302.847656 L 75.335938 302.4375 L 77.476562 302.054688 L 78.652344 301.890625 L 79.976562 301.738281 L 81.863281 301.566406 L 82.726562 301.5 L 85.378906 301.355469 L 88.386719 301.265625 L 91.699219 301.238281 L 93.226562 301.246094 L 95.316406 301.285156 L 98.171875 301.382812 L 99.800781 301.472656 L 101.078125 301.566406 L 102.402344 301.683594 L 104.03125 301.867188 L 105.5625 302.082031 L 106.785156 302.300781 L 108.007812 302.574219 L 109.027344 302.863281 L 109.894531 303.183594 L 110.660156 303.566406 L 111.117188 303.882812 L 111.421875 304.199219 L 104.339844 304.199219 L 103.929688 303.882812 L 103.472656 303.636719 L 102.707031 303.335938 L 101.941406 303.121094 L 101.179688 302.945312 L 99.75 302.710938 L 98.527344 302.566406 L 97 302.4375 L 95.519531 302.355469 L 93.839844 302.300781 L 92.820312 302.285156 L 90.117188 302.285156 L 87.671875 302.347656 L 86.246094 302.417969 L 85.226562 302.492188 L 83.796875 302.628906 L 82.933594 302.738281 L 82.421875 302.808594 L 80.894531 303.09375 L 79.875 303.347656 L 79.3125 303.519531 L 78.601562 303.792969 L 78.089844 304.039062 L 77.53125 304.402344 L 77.222656 304.671875 L 76.816406 305.292969 L 76.765625 306.925781 L 76.917969 307.273438 L 77.222656 307.644531 L 77.632812 307.972656 L 78.242188 308.316406 L 78.855469 308.582031 L 79.925781 308.9375 L 80.84375 309.171875 L 81.554688 309.328125 L 82.933594 309.574219 L 83.492188 309.652344 L 84.816406 309.816406 L 86.195312 309.945312 L 87.875 310.054688 L 89.148438 310.109375 L 91.1875 310.152344 L 93.789062 310.152344 L 96.847656 310.097656 L 98.78125 310.027344 L 100.109375 309.953125 L 100.976562 309.890625 L 102.046875 309.789062 L 102.808594 309.699219 L 103.523438 309.601562 L 104.390625 309.445312 L 104.390625 307.273438 L 91.800781 307.265625 L 91.800781 306.246094 L 111.371094 306.238281 L 111.421875 309.789062 L 110.351562 310.035156 L 109.027344 310.273438 L 107.753906 310.453125 L 106.429688 310.609375 L 104.542969 310.78125 L 103.011719 310.890625 L 100.667969 311.015625 L 98.527344 311.097656 L 96.285156 311.152344 L 94.296875 311.179688 L 91.953125 311.191406 L 89.863281 311.171875 L 87.621094 311.117188 L 85.835938 311.042969 L 84.207031 310.953125 L 82.574219 310.835938 L 80.535156 310.644531 L 79.210938 310.492188 L 77.835938 310.300781 L 76.460938 310.074219 L 75.234375 309.828125 L 74.421875 309.636719 L 73.605469 309.417969 L 72.738281 309.144531 L 71.921875 308.835938 L 71.3125 308.554688 L 70.75 308.238281 L 70.34375 307.9375 L 69.933594 307.527344 L 69.730469 307.199219 L 69.628906 306.917969 Z M 69.628906 305.5 "/>
<path style=" stroke:none;fill-rule:nonzero;fill:rgb(83.921569%,15.686275%,22.352941%);fill-opacity:1;" d="M 69.628906 283.746094 L 111.421875 283.746094 L 111.421875 285.492188 L 94.003906 285.507812 L 94.003906 300.058594 L 86.996094 300.058594 L 86.996094 285.523438 L 86.894531 285.492188 L 69.628906 285.492188 Z M 69.628906 283.746094 "/>
<path style=" stroke:none;fill-rule:nonzero;fill:rgb(6.27451%,58.823529%,28.235294%);fill-opacity:1;" d="M 113.621094 311.683594 L 113.667969 311.675781 L 131.75 304.828125 L 137.242188 304.828125 L 155.417969 311.691406 L 149.03125 311.691406 L 144.476562 309.898438 L 124.519531 309.898438 L 120.050781 311.683594 L 113.621094 311.683594 L 126.4375 309.15625 L 142.644531 309.152344 L 134.5625 305.949219 L 134.476562 305.941406 L 134.386719 305.960938 L 126.394531 309.152344 L 126.4375 309.15625 Z M 113.621094 311.683594 "/>
<path style=" stroke:none;fill-rule:nonzero;fill:rgb(14.509804%,36.078431%,60%);fill-opacity:1;" d="M 113.621094 296.742188 L 113.671875 296.730469 L 113.671875 296.460938 L 113.828125 296.039062 L 114.183594 295.5 L 114.539062 295.132812 L 115.457031 294.472656 L 116.730469 293.835938 L 118.058594 293.34375 L 119.023438 293.054688 L 119.890625 292.832031 L 121.878906 292.417969 L 123.152344 292.207031 L 124.53125 292.015625 L 126.210938 291.824219 L 127.433594 291.714844 L 130.1875 291.535156 L 132.226562 291.457031 L 133.804688 291.421875 L 137.222656 291.421875 L 139.257812 291.46875 L 140.738281 291.523438 L 142.367188 291.613281 L 143.746094 291.714844 L 146.140625 291.960938 L 148.28125 292.273438 L 149.25 292.453125 L 150.777344 292.796875 L 151.949219 293.132812 L 152.765625 293.421875 L 153.683594 293.835938 L 154.5 294.339844 L 155.109375 294.910156 L 155.417969 295.390625 L 148.28125 295.390625 L 147.925781 294.941406 L 147.515625 294.597656 L 146.75 294.136719 L 145.988281 293.816406 L 144.917969 293.492188 L 143.949219 293.277344 L 142.625 293.066406 L 141.453125 292.933594 L 140.226562 292.832031 L 139.054688 292.765625 L 136.8125 292.695312 L 134.214844 292.695312 L 133.246094 292.71875 L 131.257812 292.808594 L 130.1875 292.886719 L 128.660156 293.042969 L 127.589844 293.1875 L 126.3125 293.414062 L 125.449219 293.601562 L 124.378906 293.894531 L 123.613281 294.148438 L 122.746094 294.519531 L 122.234375 294.796875 L 121.777344 295.109375 L 121.371094 295.480469 L 121.0625 295.871094 L 120.859375 296.285156 L 120.757812 296.6875 L 120.757812 298.417969 L 120.859375 298.820312 L 121.113281 299.289062 L 121.777344 299.972656 L 122.746094 300.5625 L 123.867188 301.03125 L 124.9375 301.367188 L 125.550781 301.523438 L 126.363281 301.703125 L 127.640625 301.925781 L 129.472656 302.148438 L 130.542969 302.238281 L 132.175781 302.328125 L 133.855469 302.375 L 136.097656 302.375 L 138.085938 302.328125 L 139.414062 302.273438 L 140.789062 302.183594 L 142.675781 301.992188 L 143.847656 301.816406 L 144.867188 301.601562 L 145.628906 301.390625 L 146.140625 301.210938 L 146.90625 300.867188 L 147.515625 300.484375 L 147.976562 300.09375 L 148.28125 299.714844 L 155.417969 299.714844 L 155.109375 300.160156 L 154.652344 300.597656 L 154.191406 300.921875 L 153.480469 301.3125 L 152.664062 301.660156 L 151.492188 302.050781 L 150.523438 302.308594 L 149.25 302.585938 L 148.078125 302.796875 L 146.804688 302.988281 L 144.917969 303.210938 L 143.695312 303.324219 L 142.367188 303.425781 L 140.789062 303.511719 L 138.800781 303.589844 L 136.660156 303.636719 L 134.671875 303.648438 L 132.53125 303.625 L 130.953125 303.582031 L 128.863281 303.480469 L 126.261719 303.277344 L 124.378906 303.066406 L 122.898438 302.855469 L 121.625 302.628906 L 120.199219 302.328125 L 118.363281 301.835938 L 117.242188 301.457031 L 116.476562 301.144531 L 115.609375 300.707031 L 115 300.316406 L 114.285156 299.691406 L 113.777344 298.898438 L 113.621094 298.285156 Z M 113.621094 296.742188 "/>
<path style=" stroke:none;fill-rule:nonzero;fill:rgb(96.862745%,70.196078%,16.862745%);fill-opacity:1;" d="M 113.621094 313.511719 L 113.671875 313.511719 L 113.671875 313.484375 L 113.878906 313.421875 L 114.386719 313.335938 L 115.050781 313.265625 L 115.761719 313.210938 L 116.222656 313.183594 L 116.988281 313.140625 L 117.648438 313.113281 L 119.332031 313.050781 L 121.472656 312.992188 L 122.644531 312.96875 L 123.96875 312.945312 L 125.855469 312.917969 L 126.722656 312.910156 L 129.371094 312.886719 L 132.378906 312.875 L 135.691406 312.871094 L 137.222656 312.871094 L 139.3125 312.875 L 142.164062 312.890625 L 143.796875 312.90625 L 145.070312 312.917969 L 146.394531 312.9375 L 148.027344 312.964844 L 149.554688 312.996094 L 150.777344 313.03125 L 152 313.070312 L 153.019531 313.113281 L 153.886719 313.164062 L 154.652344 313.21875 L 155.109375 313.269531 L 155.417969 313.316406 L 148.332031 313.316406 L 147.925781 313.269531 L 147.464844 313.230469 L 146.699219 313.1875 L 145.9375 313.152344 L 145.171875 313.128906 L 143.746094 313.089844 L 142.523438 313.070312 L 140.992188 313.050781 L 139.515625 313.039062 L 137.832031 313.03125 L 136.8125 313.027344 L 134.113281 313.027344 L 131.664062 313.035156 L 130.238281 313.046875 L 129.21875 313.058594 L 127.792969 313.078125 L 126.925781 313.09375 L 126.414062 313.105469 L 124.886719 313.148438 L 123.867188 313.1875 L 123.304688 313.214844 L 122.59375 313.253906 L 122.082031 313.292969 L 121.523438 313.347656 L 121.21875 313.386719 L 120.808594 313.480469 L 120.757812 313.726562 L 120.910156 313.78125 L 121.21875 313.835938 L 121.625 313.886719 L 122.234375 313.9375 L 122.847656 313.976562 L 123.917969 314.03125 L 124.835938 314.066406 L 125.550781 314.089844 L 126.925781 314.125 L 127.484375 314.140625 L 128.8125 314.164062 L 130.1875 314.183594 L 131.871094 314.199219 L 133.144531 314.207031 L 135.183594 314.214844 L 137.78125 314.214844 L 140.839844 314.207031 L 142.777344 314.195312 L 144.101562 314.183594 L 144.96875 314.175781 L 146.039062 314.160156 L 146.804688 314.144531 L 147.515625 314.128906 L 148.382812 314.109375 L 148.382812 313.78125 L 135.792969 313.777344 L 135.792969 313.625 L 155.367188 313.625 L 155.417969 314.160156 L 154.347656 314.195312 L 153.019531 314.230469 L 151.746094 314.257812 L 150.421875 314.28125 L 148.535156 314.308594 L 147.007812 314.324219 L 144.664062 314.34375 L 142.523438 314.355469 L 140.277344 314.363281 L 138.292969 314.371094 L 135.945312 314.371094 L 133.855469 314.367188 L 131.613281 314.359375 L 129.832031 314.347656 L 128.199219 314.335938 L 126.570312 314.316406 L 124.53125 314.289062 L 123.203125 314.265625 L 120.453125 314.203125 L 119.230469 314.164062 L 118.414062 314.136719 L 117.597656 314.101562 L 116.730469 314.0625 L 115.917969 314.015625 L 115.304688 313.972656 L 114.742188 313.925781 L 114.335938 313.878906 L 113.929688 313.816406 L 113.726562 313.769531 L 113.621094 313.726562 Z M 113.621094 313.511719 "/>
<path style=" stroke:none;fill-rule:nonzero;fill:rgb(83.921569%,15.686275%,22.352941%);fill-opacity:1;" d="M 113.621094 127.898438 L 155.417969 127.898438 L 155.417969 145.273438 L 138 145.425781 L 138 290.242188 L 130.988281 290.242188 L 130.988281 145.578125 L 130.886719 145.273438 L 113.621094 145.273438 Z M 113.621094 127.898438 "/>
<path style=" stroke:none;fill-rule:nonzero;fill:rgb(6.27451%,58.823529%,28.235294%);fill-opacity:1;" d="M 157.617188 303.554688 L 157.660156 303.332031 L 175.746094 68.3125 L 181.238281 68.3125 L 199.410156 303.773438 L 193.023438 303.773438 L 188.46875 242.3125 L 168.511719 242.3125 L 164.046875 303.554688 L 157.617188 303.554688 L 170.429688 216.886719 L 186.640625 216.664062 L 178.558594 106.78125 L 178.46875 106.5625 L 178.378906 107.222656 L 170.386719 216.664062 L 170.429688 216.886719 Z M 157.617188 303.554688 "/>
<path style=" stroke:none;fill-rule:nonzero;fill:rgb(14.509804%,36.078431%,60%);fill-opacity:1;" d="M 157.617188 305.976562 L 157.667969 305.976562 L 157.667969 305.925781 L 157.820312 305.84375 L 158.175781 305.738281 L 158.535156 305.667969 L 159.449219 305.542969 L 160.726562 305.417969 L 162.050781 305.324219 L 163.019531 305.269531 L 163.886719 305.226562 L 165.871094 305.144531 L 167.148438 305.105469 L 168.523438 305.066406 L 170.207031 305.03125 L 171.429688 305.011719 L 174.179688 304.976562 L 176.21875 304.960938 L 177.800781 304.953125 L 181.214844 304.953125 L 183.253906 304.960938 L 184.730469 304.972656 L 186.363281 304.992188 L 187.738281 305.011719 L 190.132812 305.058594 L 192.273438 305.117188 L 193.242188 305.152344 L 194.773438 305.21875 L 195.945312 305.285156 L 196.757812 305.339844 L 197.675781 305.417969 L 198.492188 305.515625 L 199.105469 305.625 L 199.410156 305.71875 L 192.273438 305.71875 L 191.917969 305.632812 L 191.511719 305.566406 L 190.746094 305.476562 L 189.980469 305.414062 L 188.910156 305.351562 L 187.941406 305.3125 L 186.617188 305.269531 L 185.445312 305.246094 L 184.222656 305.226562 L 183.050781 305.210938 L 180.804688 305.199219 L 178.207031 305.199219 L 177.238281 305.203125 L 175.25 305.222656 L 174.179688 305.234375 L 172.652344 305.265625 L 171.582031 305.292969 L 170.308594 305.335938 L 169.441406 305.375 L 168.371094 305.429688 L 167.605469 305.480469 L 166.738281 305.550781 L 166.230469 305.605469 L 165.769531 305.664062 L 165.363281 305.734375 L 165.058594 305.808594 L 164.855469 305.890625 L 164.75 305.96875 L 164.75 306.300781 L 164.855469 306.378906 L 165.109375 306.46875 L 165.769531 306.597656 L 166.738281 306.714844 L 167.859375 306.804688 L 168.929688 306.867188 L 169.542969 306.898438 L 170.359375 306.933594 L 171.632812 306.976562 L 173.46875 307.019531 L 174.539062 307.035156 L 176.167969 307.054688 L 177.851562 307.0625 L 180.09375 307.0625 L 182.082031 307.054688 L 183.40625 307.042969 L 184.78125 307.023438 L 186.667969 306.988281 L 187.839844 306.953125 L 188.859375 306.914062 L 189.625 306.871094 L 190.132812 306.839844 L 190.898438 306.769531 L 191.511719 306.699219 L 191.96875 306.621094 L 192.273438 306.550781 L 199.410156 306.550781 L 199.105469 306.636719 L 198.644531 306.71875 L 198.1875 306.78125 L 197.472656 306.855469 L 196.65625 306.925781 L 195.484375 307 L 194.515625 307.046875 L 193.242188 307.101562 L 192.070312 307.144531 L 190.796875 307.179688 L 188.910156 307.222656 L 187.6875 307.246094 L 186.363281 307.265625 L 184.78125 307.28125 L 182.792969 307.296875 L 180.652344 307.304688 L 178.664062 307.308594 L 176.523438 307.300781 L 174.945312 307.292969 L 172.855469 307.273438 L 170.257812 307.234375 L 168.371094 307.195312 L 166.890625 307.152344 L 165.617188 307.109375 L 164.191406 307.054688 L 162.355469 306.957031 L 161.234375 306.886719 L 160.46875 306.824219 L 159.605469 306.742188 L 158.992188 306.664062 L 158.277344 306.546875 L 157.769531 306.394531 L 157.617188 306.273438 Z M 157.617188 305.976562 "/>
<path style=" stroke:none;fill-rule:nonzero;fill:rgb(96.862745%,70.196078%,16.862745%);fill-opacity:1;" d="M 157.617188 309.492188 L 157.667969 309.492188 L 157.667969 309.449219 L 157.871094 309.351562 L 158.378906 309.21875 L 159.042969 309.109375 L 159.757812 309.023438 L 160.214844 308.976562 L 160.980469 308.914062 L 161.640625 308.867188 L 163.324219 308.769531 L 165.464844 308.679688 L 166.636719 308.640625 L 167.960938 308.605469 L 169.847656 308.5625 L 170.714844 308.546875 L 173.363281 308.515625 L 176.371094 308.492188 L 179.683594 308.484375 L 181.214844 308.488281 L 183.304688 308.496094 L 186.15625 308.519531 L 187.789062 308.542969 L 189.0625 308.5625 L 190.386719 308.589844 L 192.019531 308.632812 L 193.546875 308.6875 L 194.773438 308.738281 L 195.996094 308.800781 L 197.015625 308.871094 L 197.878906 308.945312 L 198.644531 309.035156 L 199.105469 309.113281 L 199.410156 309.1875 L 192.324219 309.1875 L 191.917969 309.113281 L 191.457031 309.054688 L 190.695312 308.984375 L 189.929688 308.929688 L 189.164062 308.890625 L 187.738281 308.835938 L 186.515625 308.800781 L 184.984375 308.769531 L 183.507812 308.75 L 181.824219 308.738281 L 180.804688 308.734375 L 178.105469 308.734375 L 175.660156 308.75 L 174.230469 308.765625 L 173.210938 308.78125 L 171.785156 308.816406 L 170.917969 308.839844 L 170.410156 308.859375 L 168.878906 308.925781 L 167.859375 308.984375 L 167.300781 309.027344 L 166.585938 309.089844 L 166.078125 309.148438 L 165.515625 309.234375 L 165.210938 309.296875 L 164.800781 309.445312 L 164.75 309.832031 L 164.90625 309.914062 L 165.210938 310 L 165.617188 310.078125 L 166.230469 310.160156 L 166.839844 310.222656 L 167.910156 310.304688 L 168.828125 310.363281 L 169.542969 310.398438 L 170.917969 310.457031 L 171.480469 310.476562 L 172.804688 310.515625 L 174.179688 310.542969 L 175.863281 310.570312 L 177.136719 310.582031 L 179.175781 310.59375 L 181.773438 310.59375 L 184.832031 310.582031 L 186.769531 310.5625 L 188.09375 310.546875 L 188.960938 310.53125 L 190.03125 310.507812 L 190.796875 310.488281 L 191.511719 310.460938 L 192.375 310.425781 L 192.375 309.914062 L 179.789062 309.910156 L 179.789062 309.671875 L 199.359375 309.667969 L 199.410156 310.507812 L 198.339844 310.566406 L 197.015625 310.621094 L 195.738281 310.664062 L 194.414062 310.703125 L 192.527344 310.742188 L 191 310.769531 L 188.65625 310.796875 L 186.515625 310.816406 L 184.273438 310.832031 L 182.285156 310.835938 L 179.941406 310.839844 L 177.851562 310.835938 L 175.609375 310.820312 L 173.824219 310.804688 L 172.191406 310.78125 L 170.5625 310.753906 L 168.523438 310.710938 L 167.199219 310.671875 L 165.820312 310.628906 L 164.445312 310.574219 L 163.222656 310.515625 L 162.40625 310.472656 L 161.589844 310.417969 L 160.726562 310.355469 L 159.910156 310.28125 L 159.296875 310.214844 L 158.738281 310.140625 L 158.328125 310.070312 L 157.921875 309.972656 L 157.71875 309.894531 L 157.617188 309.828125 Z M 157.617188 309.492188 "/>
<path style=" stroke:none;fill-rule:nonzero;fill:rgb(83.921569%,15.686275%,22.352941%);fill-opacity:1;" d="M 157.617188 312.019531 L 199.410156 312.019531 L 199.410156 312.269531 L 181.992188 312.273438 L 181.992188 314.371094 L 174.984375 314.371094 L 174.984375 312.273438 L 174.882812 312.269531 L 157.617188 312.269531 Z M 157.617188 312.019531 "/>
<path style=" stroke:none;fill-rule:nonzero;fill:rgb(6.27451%,58.823529%,28.235294%);fill-opacity:1;" d="M 201.609375 289.195312 L 201.652344 289.039062 L 219.738281 120.972656 L 225.230469 120.972656 L 243.402344 289.355469 L 237.019531 289.355469 L 232.464844 245.402344 L 212.503906 245.402344 L 208.039062 289.195312 L 201.609375 289.195312 L 214.425781 227.21875 L 230.632812 227.0625 L 222.550781 148.484375 L 222.460938 148.324219 L 222.371094 148.800781 L 214.378906 227.0625 L 214.425781 227.21875 Z M 201.609375 289.195312 "/>
<path style=" stroke:none;fill-rule:nonzero;fill:rgb(14.509804%,36.078431%,60%);fill-opacity:1;" d="M 201.609375 310.6875 L 201.660156 310.6875 L 201.660156 310.652344 L 201.8125 310.59375 L 202.171875 310.523438 L 202.527344 310.476562 L 203.445312 310.390625 L 204.71875 310.308594 L 206.042969 310.242188 L 207.011719 310.203125 L 207.878906 310.175781 L 209.867188 310.121094 L 211.140625 310.09375 L 212.515625 310.070312 L 214.199219 310.042969 L 215.421875 310.027344 L 218.175781 310.003906 L 220.210938 309.996094 L 221.792969 309.992188 L 225.207031 309.992188 L 227.246094 309.996094 L 228.722656 310.003906 L 230.355469 310.015625 L 231.730469 310.027344 L 234.128906 310.0625 L 236.269531 310.101562 L 237.234375 310.125 L 238.765625 310.171875 L 239.9375 310.214844 L 240.753906 310.253906 L 241.671875 310.308594 L 242.484375 310.371094 L 243.097656 310.445312 L 243.402344 310.511719 L 236.269531 310.511719 L 235.910156 310.453125 L 235.503906 310.40625 L 234.738281 310.347656 L 233.972656 310.304688 L 232.902344 310.261719 L 231.933594 310.234375 L 230.609375 310.207031 L 229.4375 310.1875 L 228.214844 310.175781 L 227.042969 310.167969 L 224.800781 310.15625 L 222.199219 310.15625 L 221.230469 310.160156 L 219.246094 310.171875 L 218.175781 310.183594 L 216.644531 310.203125 L 215.574219 310.222656 L 214.300781 310.25 L 213.433594 310.277344 L 212.363281 310.3125 L 211.597656 310.347656 L 210.734375 310.394531 L 210.222656 310.433594 L 209.765625 310.472656 L 209.355469 310.523438 L 209.050781 310.574219 L 208.847656 310.628906 L 208.746094 310.679688 L 208.746094 310.90625 L 208.847656 310.960938 L 209.101562 311.019531 L 209.765625 311.109375 L 210.734375 311.1875 L 211.855469 311.25 L 212.925781 311.292969 L 213.535156 311.3125 L 214.351562 311.335938 L 215.625 311.367188 L 217.460938 311.394531 L 218.53125 311.40625 L 220.160156 311.417969 L 221.84375 311.425781 L 224.085938 311.425781 L 226.074219 311.417969 L 227.398438 311.410156 L 228.777344 311.398438 L 230.660156 311.375 L 231.832031 311.351562 L 232.851562 311.324219 L 233.617188 311.296875 L 234.128906 311.273438 L 234.890625 311.226562 L 235.503906 311.175781 L 235.960938 311.125 L 236.269531 311.074219 L 243.402344 311.074219 L 243.097656 311.132812 L 242.640625 311.191406 L 242.179688 311.234375 L 241.464844 311.285156 L 240.652344 311.332031 L 239.480469 311.382812 L 238.511719 311.414062 L 237.234375 311.453125 L 236.0625 311.480469 L 234.789062 311.503906 L 232.902344 311.535156 L 231.679688 311.546875 L 230.355469 311.5625 L 228.777344 311.574219 L 226.789062 311.582031 L 224.648438 311.589844 L 220.519531 311.589844 L 218.9375 311.582031 L 216.847656 311.570312 L 214.25 311.542969 L 212.363281 311.515625 L 210.886719 311.488281 L 209.613281 311.457031 L 208.183594 311.417969 L 206.347656 311.355469 L 205.226562 311.304688 L 204.464844 311.261719 L 203.597656 311.207031 L 202.984375 311.15625 L 202.273438 311.074219 L 201.761719 310.96875 L 201.609375 310.890625 Z M 201.609375 310.6875 "/>
<path style=" stroke:none;fill-rule:nonzero;fill:rgb(96.862745%,70.196078%,16.862745%);fill-opacity:1;" d="M 201.609375 313.457031 L 201.660156 313.453125 L 201.660156 313.425781 L 201.863281 313.359375 L 202.375 313.269531 L 203.035156 313.195312 L 203.75 313.136719 L 204.207031 313.105469 L 204.972656 313.0625 L 205.636719 313.027344 L 207.316406 312.964844 L 209.457031 312.902344 L 210.628906 312.875 L 211.957031 312.851562 L 213.84375 312.824219 L 214.707031 312.8125 L 217.359375 312.789062 L 220.367188 312.773438 L 223.679688 312.769531 L 225.207031 312.773438 L 227.296875 312.777344 L 230.152344 312.792969 L 231.78125 312.808594 L 233.058594 312.824219 L 234.382812 312.84375 L 236.011719 312.871094 L 237.542969 312.90625 L 238.765625 312.941406 L 239.988281 312.984375 L 241.007812 313.03125 L 241.875 313.082031 L 242.640625 313.144531 L 243.097656 313.195312 L 243.402344 313.246094 L 236.320312 313.246094 L 235.910156 313.195312 L 235.453125 313.15625 L 234.6875 313.109375 L 233.921875 313.074219 L 233.160156 313.046875 L 231.730469 313.007812 L 230.507812 312.984375 L 228.980469 312.964844 L 227.5 312.949219 L 225.820312 312.941406 L 224.800781 312.9375 L 222.097656 312.9375 L 219.652344 312.949219 L 218.226562 312.960938 L 217.207031 312.972656 L 215.777344 312.992188 L 214.914062 313.011719 L 214.402344 313.023438 L 212.875 313.070312 L 211.855469 313.109375 L 211.292969 313.136719 L 210.578125 313.179688 L 210.070312 313.21875 L 209.507812 313.277344 L 209.203125 313.324219 L 208.796875 313.421875 L 208.746094 313.683594 L 208.898438 313.742188 L 209.203125 313.800781 L 209.613281 313.851562 L 210.222656 313.910156 L 210.835938 313.953125 L 211.90625 314.007812 L 212.824219 314.046875 L 213.535156 314.070312 L 214.914062 314.109375 L 215.472656 314.125 L 216.796875 314.148438 L 218.175781 314.171875 L 219.855469 314.1875 L 221.128906 314.195312 L 223.167969 314.203125 L 225.769531 314.203125 L 228.828125 314.195312 L 230.761719 314.183594 L 232.089844 314.171875 L 232.953125 314.160156 L 234.023438 314.144531 L 234.789062 314.132812 L 235.503906 314.113281 L 236.371094 314.089844 L 236.371094 313.742188 L 223.78125 313.738281 L 223.78125 313.574219 L 243.351562 313.574219 L 243.402344 314.144531 L 242.332031 314.183594 L 241.007812 314.222656 L 239.734375 314.253906 L 238.410156 314.277344 L 236.523438 314.304688 L 234.992188 314.324219 L 232.648438 314.34375 L 230.507812 314.355469 L 228.265625 314.363281 L 226.277344 314.371094 L 223.933594 314.371094 L 221.84375 314.367188 L 219.601562 314.359375 L 217.816406 314.347656 L 216.1875 314.332031 L 214.554688 314.3125 L 212.515625 314.28125 L 211.191406 314.257812 L 209.816406 314.226562 L 208.4375 314.191406 L 207.214844 314.152344 L 206.402344 314.121094 L 205.585938 314.085938 L 204.71875 314.042969 L 203.902344 313.992188 L 203.292969 313.945312 L 202.730469 313.894531 L 202.324219 313.847656 L 201.914062 313.78125 L 201.710938 313.730469 L 201.609375 313.683594 Z M 201.609375 313.457031 "/>
<path style=" stroke:none;fill-rule:nonzero;fill:rgb(83.921569%,15.686275%,22.352941%);fill-opacity:1;" d="M 201.609375 290.535156 L 243.402344 290.535156 L 243.402344 292.488281 L 225.984375 292.507812 L 225.984375 308.8125 L 218.976562 308.8125 L 218.976562 292.523438 L 218.875 292.488281 L 201.609375 292.488281 Z M 201.609375 290.535156 "/>
<path style=" stroke:none;fill-rule:nonzero;fill:rgb(83.921569%,15.686275%,22.352941%);fill-opacity:1;" d="M 245.601562 20.664062 L 287.398438 20.664062 L 287.398438 52.101562 L 269.976562 52.378906 L 269.976562 314.371094 L 262.96875 314.371094 L 262.96875 52.652344 L 262.867188 52.101562 L 245.601562 52.101562 Z M 245.601562 20.664062 "/>
<path style=" stroke:none;fill-rule:nonzero;fill:rgb(96.862745%,70.196078%,16.862745%);fill-opacity:1;" d="M 289.597656 153.859375 L 289.648438 153.609375 L 289.648438 148.609375 L 289.851562 137.355469 L 290.359375 121.855469 L 291.023438 109.101562 L 291.738281 99.101562 L 292.195312 93.851562 L 292.960938 86.347656 L 293.621094 80.847656 L 295.304688 69.597656 L 297.445312 59.09375 L 298.617188 54.59375 L 299.941406 50.34375 L 301.828125 45.589844 L 302.695312 43.839844 L 305.34375 39.839844 L 308.351562 37.339844 L 311.664062 36.589844 L 313.195312 36.839844 L 315.285156 37.839844 L 318.136719 40.589844 L 319.769531 43.089844 L 321.042969 45.589844 L 322.367188 48.84375 L 324 53.84375 L 325.527344 59.84375 L 326.75 65.84375 L 327.976562 73.347656 L 328.996094 81.347656 L 329.859375 90.097656 L 330.625 100.601562 L 331.085938 109.351562 L 331.390625 118.105469 L 324.304688 118.105469 L 323.898438 109.351562 L 323.4375 102.601562 L 322.675781 94.351562 L 321.910156 88.347656 L 321.144531 83.597656 L 319.71875 77.097656 L 318.496094 73.097656 L 316.964844 69.597656 L 315.488281 67.34375 L 313.804688 65.84375 L 312.785156 65.34375 L 310.085938 65.34375 L 307.640625 67.09375 L 306.210938 69.09375 L 305.191406 71.097656 L 303.765625 74.847656 L 302.898438 77.847656 L 302.390625 79.847656 L 300.859375 87.597656 L 299.839844 94.601562 L 299.28125 99.351562 L 298.566406 106.851562 L 298.058594 113.601562 L 297.496094 123.605469 L 297.191406 131.105469 L 296.78125 148.109375 L 296.730469 193.117188 L 296.882812 202.617188 L 297.191406 212.871094 L 297.597656 221.871094 L 298.210938 231.371094 L 298.820312 238.625 L 299.890625 248.375 L 300.808594 254.875 L 301.523438 259.128906 L 302.898438 265.878906 L 303.460938 268.128906 L 304.785156 272.628906 L 306.160156 276.128906 L 307.84375 279.128906 L 309.117188 280.628906 L 311.15625 281.878906 L 313.753906 281.878906 L 316.8125 280.378906 L 318.75 278.378906 L 320.074219 276.378906 L 320.941406 274.628906 L 322.011719 271.878906 L 322.777344 269.378906 L 323.488281 266.628906 L 324.355469 262.378906 L 324.355469 202.617188 L 311.765625 202.367188 L 311.765625 174.363281 L 331.339844 174.113281 L 331.390625 271.878906 L 330.320312 278.628906 L 328.996094 285.132812 L 327.71875 290.132812 L 326.394531 294.382812 L 324.507812 299.132812 L 322.980469 302.132812 L 320.636719 305.632812 L 318.496094 307.886719 L 316.253906 309.386719 L 314.265625 310.136719 L 311.921875 310.386719 L 309.832031 309.886719 L 307.589844 308.386719 L 305.804688 306.386719 L 304.171875 303.882812 L 302.542969 300.632812 L 300.503906 295.382812 L 299.179688 291.132812 L 297.800781 285.882812 L 296.425781 279.628906 L 295.203125 272.878906 L 294.386719 267.628906 L 293.570312 261.628906 L 292.707031 254.125 L 291.890625 245.625 L 291.277344 237.875 L 290.71875 229.121094 L 290.308594 220.871094 L 289.902344 209.617188 L 289.699219 200.617188 L 289.597656 192.867188 Z M 289.597656 153.859375 "/>
<path style=" stroke:none;fill-rule:nonzero;fill:rgb(83.921569%,15.686275%,22.352941%);fill-opacity:1;" d="M 289.597656 311.566406 L 331.390625 311.566406 L 331.390625 311.867188 L 313.972656 311.867188 L 313.972656 314.371094 L 306.964844 314.371094 L 306.964844 311.871094 L 306.863281 311.867188 L 289.597656 311.867188 Z M 289.597656 311.566406 "/>
<path style=" stroke:none;fill-rule:nonzero;fill:rgb(6.27451%,58.823529%,28.235294%);fill-opacity:1;" d="M 333.589844 278.738281 L 333.632812 278.605469 L 351.71875 138.054688 L 357.210938 138.054688 L 375.382812 278.871094 L 369 278.871094 L 364.445312 242.113281 L 344.484375 242.113281 L 340.019531 278.738281 L 333.589844 278.738281 L 346.40625 226.90625 L 362.613281 226.777344 L 354.53125 161.0625 L 354.441406 160.929688 L 354.351562 161.324219 L 346.359375 226.777344 L 346.40625 226.90625 Z M 333.589844 278.738281 "/>
<path style=" stroke:none;fill-rule:nonzero;fill:rgb(96.862745%,70.196078%,16.862745%);fill-opacity:1;" d="M 333.589844 293.664062 L 333.640625 293.636719 L 333.640625 293.054688 L 333.84375 291.75 L 334.355469 289.949219 L 335.015625 288.46875 L 335.730469 287.308594 L 336.1875 286.699219 L 336.953125 285.828125 L 337.617188 285.1875 L 339.296875 283.882812 L 341.4375 282.664062 L 342.609375 282.140625 L 343.9375 281.648438 L 345.820312 281.097656 L 346.6875 280.894531 L 349.339844 280.429688 L 352.347656 280.136719 L 355.660156 280.050781 L 357.1875 280.078125 L 359.277344 280.195312 L 362.132812 280.515625 L 363.761719 280.804688 L 365.035156 281.097656 L 366.363281 281.472656 L 367.992188 282.054688 L 369.523438 282.75 L 370.746094 283.445312 L 371.96875 284.316406 L 372.988281 285.246094 L 373.855469 286.261719 L 374.617188 287.480469 L 375.078125 288.496094 L 375.382812 289.511719 L 368.296875 289.511719 L 367.890625 288.496094 L 367.433594 287.714844 L 366.667969 286.757812 L 365.902344 286.058594 L 365.140625 285.507812 L 363.710938 284.753906 L 362.488281 284.289062 L 360.960938 283.882812 L 359.480469 283.621094 L 357.800781 283.445312 L 356.78125 283.390625 L 354.078125 283.390625 L 351.632812 283.59375 L 350.207031 283.824219 L 349.1875 284.054688 L 347.757812 284.492188 L 346.890625 284.839844 L 346.382812 285.074219 L 344.855469 285.972656 L 343.835938 286.785156 L 343.273438 287.335938 L 342.558594 288.207031 L 342.050781 288.992188 L 341.488281 290.152344 L 341.183594 291.023438 L 340.777344 292.996094 L 340.726562 298.222656 L 340.878906 299.324219 L 341.183594 300.515625 L 341.589844 301.558594 L 342.203125 302.664062 L 342.816406 303.503906 L 343.886719 304.636719 L 344.800781 305.390625 L 345.515625 305.882812 L 346.890625 306.667969 L 347.453125 306.929688 L 348.777344 307.453125 L 350.152344 307.859375 L 351.835938 308.207031 L 353.109375 308.378906 L 355.148438 308.527344 L 357.75 308.527344 L 360.804688 308.351562 L 362.742188 308.121094 L 364.070312 307.886719 L 364.933594 307.683594 L 366.003906 307.363281 L 366.769531 307.074219 L 367.484375 306.753906 L 368.351562 306.261719 L 368.351562 299.324219 L 355.761719 299.296875 L 355.761719 296.042969 L 375.332031 296.015625 L 375.382812 307.363281 L 374.3125 308.148438 L 372.988281 308.902344 L 371.714844 309.484375 L 370.386719 309.976562 L 368.503906 310.527344 L 366.972656 310.878906 L 364.628906 311.285156 L 362.488281 311.542969 L 360.246094 311.71875 L 358.257812 311.804688 L 355.914062 311.835938 L 353.824219 311.777344 L 351.582031 311.601562 L 349.796875 311.371094 L 348.167969 311.082031 L 346.535156 310.703125 L 344.496094 310.09375 L 343.171875 309.601562 L 341.796875 308.992188 L 340.417969 308.265625 L 339.195312 307.480469 L 338.378906 306.871094 L 337.566406 306.175781 L 336.699219 305.304688 L 335.882812 304.316406 L 335.273438 303.417969 L 334.710938 302.402344 L 334.304688 301.445312 L 333.894531 300.136719 L 333.691406 299.09375 L 333.589844 298.191406 Z M 333.589844 293.664062 "/>
<path style=" stroke:none;fill-rule:nonzero;fill:rgb(83.921569%,15.686275%,22.352941%);fill-opacity:1;" d="M 333.589844 313.015625 L 375.382812 313.015625 L 375.382812 313.160156 L 357.964844 313.160156 L 357.964844 314.371094 L 350.957031 314.371094 L 350.957031 313.164062 L 350.855469 313.160156 L 333.589844 313.160156 Z M 333.589844 313.015625 "/>
<path style=" stroke:none;fill-rule:nonzero;fill:rgb(6.27451%,58.823529%,28.235294%);fill-opacity:1;" d="M 377.582031 314.363281 L 377.628906 314.359375 L 395.710938 307.914062 L 401.203125 307.914062 L 419.375 314.371094 L 412.992188 314.371094 L 408.4375 312.683594 L 388.476562 312.683594 L 384.011719 314.363281 L 377.582031 314.363281 L 390.398438 311.988281 L 406.605469 311.980469 L 398.523438 308.96875 L 398.433594 308.960938 L 398.347656 308.980469 L 390.351562 311.980469 L 390.398438 311.988281 Z M 377.582031 314.363281 "/>
<path style=" stroke:none;fill-rule:nonzero;fill:rgb(83.921569%,15.686275%,22.352941%);fill-opacity:1;" d="M 377.582031 48.261719 L 419.375 48.261719 L 419.375 75.929688 L 401.957031 76.171875 L 401.957031 306.734375 L 394.949219 306.734375 L 394.949219 76.414062 L 394.847656 75.929688 L 377.582031 75.929688 Z M 377.582031 48.261719 "/>
<path style=" stroke:none;fill-rule:nonzero;fill:rgb(96.862745%,70.196078%,16.862745%);fill-opacity:1;" d="M 421.578125 312.765625 L 421.628906 312.765625 L 421.628906 312.714844 L 421.832031 312.597656 L 422.339844 312.4375 L 423.003906 312.308594 L 423.71875 312.207031 L 424.175781 312.152344 L 424.941406 312.074219 L 425.601562 312.019531 L 427.285156 311.902344 L 429.425781 311.796875 L 430.597656 311.75 L 431.921875 311.707031 L 433.808594 311.65625 L 434.675781 311.640625 L 437.324219 311.597656 L 440.332031 311.574219 L 443.644531 311.566406 L 445.175781 311.566406 L 447.265625 311.578125 L 450.117188 311.605469 L 451.75 311.632812 L 453.023438 311.65625 L 454.347656 311.691406 L 455.980469 311.742188 L 457.507812 311.804688 L 458.730469 311.863281 L 459.957031 311.941406 L 460.976562 312.023438 L 461.839844 312.113281 L 462.605469 312.222656 L 463.0625 312.3125 L 463.371094 312.398438 L 456.285156 312.398438 L 455.878906 312.3125 L 455.417969 312.242188 L 454.65625 312.15625 L 453.890625 312.09375 L 453.125 312.046875 L 451.699219 311.980469 L 450.476562 311.9375 L 448.945312 311.902344 L 447.46875 311.878906 L 445.785156 311.863281 L 444.765625 311.859375 L 442.066406 311.859375 L 439.617188 311.878906 L 438.191406 311.898438 L 437.171875 311.917969 L 435.746094 311.957031 L 434.878906 311.988281 L 434.371094 312.007812 L 432.839844 312.085938 L 431.820312 312.160156 L 431.261719 312.207031 L 430.546875 312.285156 L 430.035156 312.355469 L 429.476562 312.457031 L 429.171875 312.535156 L 428.761719 312.707031 L 428.710938 313.167969 L 428.863281 313.265625 L 429.171875 313.371094 L 429.578125 313.464844 L 430.191406 313.5625 L 430.800781 313.636719 L 431.871094 313.734375 L 432.789062 313.800781 L 433.503906 313.84375 L 434.878906 313.914062 L 435.441406 313.9375 L 436.765625 313.984375 L 438.140625 314.019531 L 439.824219 314.050781 L 441.097656 314.066406 L 443.136719 314.078125 L 445.734375 314.078125 L 448.792969 314.0625 L 450.730469 314.042969 L 452.054688 314.023438 L 452.921875 314.003906 L 453.992188 313.976562 L 454.757812 313.949219 L 455.46875 313.921875 L 456.335938 313.878906 L 456.335938 313.265625 L 443.746094 313.265625 L 443.746094 312.976562 L 463.320312 312.972656 L 463.371094 313.976562 L 462.300781 314.046875 L 460.976562 314.113281 L 459.699219 314.164062 L 458.375 314.207031 L 456.488281 314.253906 L 454.960938 314.285156 L 452.617188 314.320312 L 450.476562 314.34375 L 448.234375 314.359375 L 446.246094 314.367188 L 443.898438 314.371094 L 441.8125 314.367188 L 439.566406 314.351562 L 437.785156 314.328125 L 436.152344 314.304688 L 434.523438 314.269531 L 432.484375 314.21875 L 431.160156 314.171875 L 429.78125 314.121094 L 428.40625 314.054688 L 427.183594 313.984375 L 426.367188 313.933594 L 425.550781 313.871094 L 424.683594 313.792969 L 423.871094 313.707031 L 423.257812 313.628906 L 422.699219 313.539062 L 422.289062 313.453125 L 421.882812 313.339844 L 421.679688 313.246094 L 421.578125 313.167969 Z M 421.578125 312.765625 "/>
<path style=" stroke:none;fill-rule:nonzero;fill:rgb(83.921569%,15.686275%,22.352941%);fill-opacity:1;" d="M 421.578125 36.589844 L 463.371094 36.589844 L 463.371094 65.898438 L 445.953125 66.15625 L 445.953125 310.386719 L 438.945312 310.386719 L 438.945312 66.414062 L 438.84375 65.898438 L 421.578125 65.898438 Z M 421.578125 36.589844 "/>
<path style=" stroke:none;fill-rule:nonzero;fill:rgb(83.921569%,15.686275%,22.352941%);fill-opacity:1;" d="M 465.570312 20.664062 L 507.363281 20.664062 L 507.363281 52.101562 L 489.945312 52.378906 L 489.945312 314.371094 L 482.9375 314.371094 L 482.9375 52.652344 L 482.835938 52.101562 L 465.570312 52.101562 Z M 465.570312 20.664062 "/>
<path style=" stroke:none;fill-rule:nonzero;fill:rgb(14.509804%,36.078431%,60%);fill-opacity:1;" d="M 509.5625 164.917969 L 509.613281 164.695312 L 509.613281 159.316406 L 509.765625 150.804688 L 510.125 140.054688 L 510.480469 132.664062 L 511.398438 119.445312 L 512.671875 106.679688 L 513.996094 96.824219 L 514.964844 91 L 515.832031 86.519531 L 517.820312 78.230469 L 519.09375 73.976562 L 520.46875 70.167969 L 522.152344 66.359375 L 523.375 64.121094 L 526.128906 60.535156 L 528.167969 58.96875 L 529.746094 58.296875 L 533.160156 58.296875 L 535.199219 59.191406 L 536.679688 60.3125 L 538.308594 62.105469 L 539.683594 64.121094 L 542.082031 69.046875 L 544.222656 75.320312 L 545.191406 78.902344 L 546.71875 85.847656 L 547.890625 92.566406 L 548.707031 98.390625 L 549.625 106.679688 L 550.441406 116.757812 L 551.050781 128.183594 L 551.355469 137.8125 L 544.222656 137.8125 L 543.863281 128.855469 L 543.457031 121.910156 L 542.691406 112.726562 L 541.929688 106.230469 L 540.859375 99.734375 L 539.890625 95.480469 L 538.5625 91.222656 L 537.390625 88.535156 L 536.167969 86.519531 L 534.996094 85.175781 L 532.753906 83.832031 L 530.152344 83.832031 L 529.1875 84.28125 L 527.199219 86.070312 L 526.128906 87.640625 L 524.597656 90.777344 L 523.527344 93.6875 L 522.253906 98.167969 L 521.386719 101.976562 L 520.316406 107.800781 L 519.554688 112.949219 L 518.6875 120.34375 L 518.175781 125.941406 L 517.71875 132.214844 L 517.308594 139.605469 L 517.003906 147.445312 L 516.800781 155.734375 L 516.699219 163.796875 L 516.699219 198.515625 L 516.800781 206.582031 L 517.054688 215.988281 L 517.71875 229.652344 L 518.6875 241.523438 L 519.808594 250.929688 L 520.878906 257.652344 L 521.488281 260.785156 L 522.304688 264.371094 L 523.578125 268.851562 L 525.414062 273.332031 L 526.484375 275.121094 L 528.117188 276.914062 L 529.796875 277.808594 L 532.039062 277.808594 L 534.027344 276.914062 L 535.351562 275.792969 L 536.730469 274.003906 L 538.613281 270.195312 L 539.789062 266.609375 L 540.804688 262.355469 L 541.570312 258.097656 L 542.082031 254.515625 L 542.84375 247.570312 L 543.457031 239.957031 L 543.914062 232.117188 L 544.222656 224.5 L 551.355469 224.5 L 551.050781 233.460938 L 550.59375 242.195312 L 550.132812 248.691406 L 549.421875 256.53125 L 548.605469 263.476562 L 547.433594 271.316406 L 546.464844 276.464844 L 545.191406 282.066406 L 544.015625 286.320312 L 542.742188 290.128906 L 540.859375 294.609375 L 539.632812 296.851562 L 538.308594 298.867188 L 536.730469 300.65625 L 534.742188 302.226562 L 532.601562 303.121094 L 530.613281 303.34375 L 528.472656 302.898438 L 526.890625 302 L 524.800781 299.984375 L 522.203125 295.953125 L 520.316406 291.699219 L 518.839844 287.441406 L 517.566406 282.960938 L 516.136719 276.914062 L 514.304688 267.058594 L 513.183594 259.441406 L 512.417969 253.171875 L 511.550781 244.433594 L 510.9375 236.59375 L 510.226562 224.050781 L 509.714844 208.148438 L 509.5625 195.828125 Z M 509.5625 164.917969 "/>
<path style=" stroke:none;fill-rule:nonzero;fill:rgb(83.921569%,15.686275%,22.352941%);fill-opacity:1;" d="M 509.5625 304.523438 L 551.355469 304.523438 L 551.355469 305.578125 L 533.9375 305.589844 L 533.9375 314.371094 L 526.929688 314.371094 L 526.929688 305.597656 L 526.828125 305.578125 L 509.5625 305.578125 Z M 509.5625 304.523438 "/>
<path style=" stroke:none;fill-rule:nonzero;fill:rgb(14.509804%,36.078431%,60%);fill-opacity:1;" d="M 553.554688 160.722656 L 553.609375 160.488281 L 553.609375 154.816406 L 553.761719 145.839844 L 554.117188 134.496094 L 554.472656 126.699219 L 555.390625 112.761719 L 556.664062 99.292969 L 557.992188 88.898438 L 558.960938 82.753906 L 559.824219 78.03125 L 561.8125 69.289062 L 563.085938 64.800781 L 564.464844 60.78125 L 566.144531 56.765625 L 567.367188 54.402344 L 570.121094 50.625 L 572.160156 48.96875 L 573.738281 48.261719 L 577.15625 48.261719 L 579.195312 49.207031 L 580.671875 50.386719 L 582.300781 52.277344 L 583.679688 54.402344 L 586.074219 59.601562 L 588.214844 66.21875 L 589.183594 69.996094 L 590.710938 77.320312 L 591.882812 84.410156 L 592.699219 90.550781 L 593.617188 99.292969 L 594.433594 109.925781 L 595.042969 121.976562 L 595.351562 132.132812 L 588.214844 132.132812 L 587.859375 122.683594 L 587.449219 115.359375 L 586.6875 105.671875 L 585.921875 98.820312 L 584.851562 91.96875 L 583.882812 87.480469 L 582.558594 82.992188 L 581.386719 80.15625 L 580.160156 78.03125 L 578.988281 76.613281 L 576.746094 75.195312 L 574.148438 75.195312 L 573.179688 75.667969 L 571.191406 77.558594 L 570.121094 79.210938 L 568.59375 82.519531 L 567.523438 85.589844 L 566.246094 90.316406 L 565.382812 94.332031 L 564.3125 100.476562 L 563.546875 105.910156 L 562.679688 113.707031 L 562.171875 119.613281 L 561.710938 126.226562 L 561.304688 134.023438 L 560.996094 142.292969 L 560.792969 151.035156 L 560.691406 159.542969 L 560.691406 196.164062 L 560.792969 204.667969 L 561.050781 214.589844 L 561.710938 229.003906 L 562.679688 241.523438 L 563.800781 251.449219 L 564.871094 258.535156 L 565.484375 261.84375 L 566.296875 265.625 L 567.574219 270.347656 L 569.40625 275.074219 L 570.476562 276.964844 L 572.109375 278.855469 L 573.789062 279.800781 L 576.035156 279.800781 L 578.019531 278.855469 L 579.347656 277.671875 L 580.722656 275.785156 L 582.609375 271.765625 L 583.78125 267.988281 L 584.800781 263.496094 L 585.5625 259.007812 L 586.074219 255.226562 L 586.839844 247.902344 L 587.449219 239.871094 L 587.910156 231.601562 L 588.214844 223.570312 L 595.351562 223.570312 L 595.042969 233.019531 L 594.585938 242.234375 L 594.128906 249.085938 L 593.414062 257.355469 L 592.597656 264.679688 L 591.425781 272.949219 L 590.457031 278.382812 L 589.183594 284.289062 L 588.011719 288.777344 L 586.738281 292.792969 L 584.851562 297.519531 L 583.628906 299.882812 L 582.300781 302.007812 L 580.722656 303.898438 L 578.734375 305.550781 L 576.59375 306.496094 L 574.605469 306.734375 L 572.464844 306.261719 L 570.886719 305.316406 L 568.796875 303.191406 L 566.195312 298.9375 L 564.3125 294.449219 L 562.832031 289.960938 L 561.558594 285.234375 L 560.132812 278.855469 L 558.296875 268.460938 L 557.175781 260.425781 L 556.410156 253.8125 L 555.542969 244.597656 L 554.933594 236.328125 L 554.21875 223.097656 L 553.710938 206.320312 L 553.554688 193.328125 Z M 553.554688 160.722656 "/>
<path style=" stroke:none;fill-rule:nonzero;fill:rgb(83.921569%,15.686275%,22.352941%);fill-opacity:1;" d="M 553.554688 307.914062 L 595.351562 307.914062 L 595.351562 308.605469 L 577.933594 308.609375 L 577.933594 314.371094 L 570.925781 314.371094 L 570.925781 308.617188 L 570.824219 308.605469 L 553.554688 308.605469 Z M 553.554688 307.914062 "/>
<path style=" stroke:none;fill-rule:nonzero;fill:rgb(6.27451%,58.823529%,28.235294%);fill-opacity:1;" d="M 597.550781 314.355469 L 597.59375 314.339844 L 615.679688 298.398438 L 621.171875 298.398438 L 639.34375 314.371094 L 632.957031 314.371094 L 628.402344 310.199219 L 608.445312 310.199219 L 603.980469 314.355469 L 597.550781 314.355469 L 610.363281 308.476562 L 626.574219 308.460938 L 618.492188 301.007812 L 618.402344 300.992188 L 618.3125 301.035156 L 610.320312 308.460938 L 610.363281 308.476562 Z M 597.550781 314.355469 "/>
<path style=" stroke:none;fill-rule:nonzero;fill:rgb(83.921569%,15.686275%,22.352941%);fill-opacity:1;" d="M 597.550781 75.398438 L 639.34375 75.398438 L 639.34375 99.144531 L 621.925781 99.351562 L 621.925781 297.21875 L 614.917969 297.21875 L 614.917969 99.558594 L 614.816406 99.144531 L 597.550781 99.144531 Z M 597.550781 75.398438 "/>
<path style=" stroke:none;fill-rule:nonzero;fill:rgb(6.27451%,58.823529%,28.235294%);fill-opacity:1;" d="M 641.542969 314.367188 L 641.589844 314.363281 L 659.671875 310.632812 L 665.164062 310.632812 L 683.335938 314.371094 L 676.953125 314.371094 L 672.398438 313.394531 L 652.4375 313.394531 L 647.972656 314.367188 L 641.542969 314.367188 L 654.359375 312.992188 L 670.566406 312.988281 L 662.484375 311.246094 L 662.394531 311.242188 L 662.304688 311.253906 L 654.3125 312.988281 L 654.359375 312.992188 Z M 641.542969 314.367188 "/>
<path style=" stroke:none;fill-rule:nonzero;fill:rgb(14.509804%,36.078431%,60%);fill-opacity:1;" d="M 641.542969 295.488281 L 641.59375 295.472656 L 641.59375 295.121094 L 641.746094 294.566406 L 642.105469 293.863281 L 642.460938 293.378906 L 643.378906 292.515625 L 644.652344 291.679688 L 645.976562 291.035156 L 646.945312 290.652344 L 647.8125 290.359375 L 649.800781 289.820312 L 651.074219 289.539062 L 652.449219 289.292969 L 654.132812 289.042969 L 655.355469 288.894531 L 658.109375 288.660156 L 660.148438 288.558594 L 661.726562 288.515625 L 665.140625 288.515625 L 667.179688 288.574219 L 668.660156 288.648438 L 670.289062 288.765625 L 671.664062 288.894531 L 674.0625 289.21875 L 676.203125 289.628906 L 677.167969 289.863281 L 678.699219 290.316406 L 679.871094 290.757812 L 680.6875 291.136719 L 681.605469 291.679688 L 682.417969 292.339844 L 683.03125 293.085938 L 683.335938 293.714844 L 676.203125 293.714844 L 675.84375 293.128906 L 675.4375 292.675781 L 674.671875 292.074219 L 673.90625 291.648438 L 672.835938 291.226562 L 671.871094 290.945312 L 670.542969 290.667969 L 669.371094 290.492188 L 668.148438 290.359375 L 666.976562 290.273438 L 664.734375 290.183594 L 662.132812 290.183594 L 661.164062 290.214844 L 659.179688 290.332031 L 658.109375 290.433594 L 656.578125 290.640625 L 655.507812 290.828125 L 654.234375 291.121094 L 653.367188 291.371094 L 652.296875 291.753906 L 651.53125 292.089844 L 650.667969 292.574219 L 650.15625 292.9375 L 649.699219 293.347656 L 649.289062 293.832031 L 648.984375 294.34375 L 648.78125 294.886719 L 648.679688 295.414062 L 648.679688 297.683594 L 648.78125 298.210938 L 649.035156 298.828125 L 649.699219 299.71875 L 650.667969 300.496094 L 651.789062 301.113281 L 652.859375 301.550781 L 653.46875 301.757812 L 654.285156 301.992188 L 655.558594 302.285156 L 657.394531 302.578125 L 658.464844 302.695312 L 660.09375 302.8125 L 661.777344 302.871094 L 664.019531 302.871094 L 666.007812 302.8125 L 667.332031 302.738281 L 668.710938 302.621094 L 670.59375 302.371094 L 671.765625 302.136719 L 672.785156 301.859375 L 673.550781 301.582031 L 674.0625 301.347656 L 674.824219 300.890625 L 675.4375 300.394531 L 675.894531 299.882812 L 676.203125 299.382812 L 683.335938 299.382812 L 683.03125 299.96875 L 682.574219 300.539062 L 682.113281 300.964844 L 681.398438 301.476562 L 680.585938 301.933594 L 679.414062 302.445312 L 678.445312 302.78125 L 677.167969 303.148438 L 675.996094 303.425781 L 674.722656 303.675781 L 672.835938 303.96875 L 671.613281 304.113281 L 670.289062 304.246094 L 668.710938 304.363281 L 666.722656 304.464844 L 664.582031 304.523438 L 662.59375 304.539062 L 660.453125 304.511719 L 658.871094 304.453125 L 656.78125 304.320312 L 654.183594 304.054688 L 652.296875 303.777344 L 650.820312 303.5 L 649.546875 303.207031 L 648.117188 302.8125 L 646.285156 302.167969 L 645.160156 301.667969 L 644.398438 301.257812 L 643.53125 300.6875 L 642.917969 300.175781 L 642.207031 299.355469 L 641.695312 298.316406 L 641.542969 297.507812 Z M 641.542969 295.488281 "/>
<path style=" stroke:none;fill-rule:nonzero;fill:rgb(96.862745%,70.196078%,16.862745%);fill-opacity:1;" d="M 641.542969 205.113281 L 641.59375 204.980469 L 641.59375 202.355469 L 641.796875 196.441406 L 642.308594 188.300781 L 642.96875 181.601562 L 643.683594 176.347656 L 644.144531 173.589844 L 644.90625 169.648438 L 645.570312 166.757812 L 647.25 160.847656 L 649.390625 155.332031 L 650.566406 152.964844 L 651.890625 150.734375 L 653.777344 148.238281 L 654.640625 147.320312 L 657.292969 145.21875 L 660.300781 143.902344 L 663.613281 143.507812 L 665.140625 143.640625 L 667.230469 144.167969 L 670.085938 145.609375 L 671.714844 146.925781 L 672.992188 148.238281 L 674.316406 149.945312 L 675.945312 152.574219 L 677.476562 155.726562 L 678.699219 158.878906 L 679.921875 162.816406 L 680.941406 167.019531 L 681.808594 171.617188 L 682.574219 177.132812 L 683.03125 181.730469 L 683.335938 186.328125 L 676.253906 186.328125 L 675.84375 181.730469 L 675.386719 178.183594 L 674.621094 173.851562 L 673.855469 170.699219 L 673.09375 168.203125 L 671.664062 164.789062 L 670.441406 162.6875 L 668.914062 160.847656 L 667.433594 159.664062 L 665.753906 158.878906 L 664.734375 158.613281 L 662.03125 158.613281 L 659.585938 159.535156 L 658.160156 160.585938 L 657.140625 161.636719 L 655.710938 163.605469 L 654.847656 165.183594 L 654.335938 166.234375 L 652.808594 170.304688 L 651.789062 173.980469 L 651.226562 176.476562 L 650.515625 180.417969 L 650.003906 183.964844 L 649.441406 189.21875 L 649.136719 193.160156 L 648.730469 202.089844 L 648.679688 225.734375 L 648.832031 230.726562 L 649.136719 236.109375 L 649.546875 240.839844 L 650.15625 245.828125 L 650.769531 249.640625 L 651.839844 254.761719 L 652.757812 258.175781 L 653.46875 260.410156 L 654.847656 263.957031 L 655.40625 265.136719 L 656.730469 267.503906 L 658.109375 269.339844 L 659.789062 270.917969 L 661.0625 271.707031 L 663.101562 272.363281 L 665.703125 272.363281 L 668.761719 271.574219 L 670.695312 270.523438 L 672.023438 269.472656 L 672.886719 268.554688 L 673.957031 267.109375 L 674.722656 265.792969 L 675.4375 264.351562 L 676.304688 262.117188 L 676.304688 230.726562 L 663.714844 230.59375 L 663.714844 215.882812 L 683.285156 215.75 L 683.335938 267.109375 L 682.265625 270.65625 L 680.941406 274.070312 L 679.667969 276.695312 L 678.34375 278.929688 L 676.457031 281.425781 L 674.925781 283 L 672.582031 284.839844 L 670.441406 286.023438 L 668.199219 286.808594 L 666.210938 287.203125 L 663.867188 287.335938 L 661.777344 287.074219 L 659.535156 286.285156 L 657.75 285.234375 L 656.121094 283.921875 L 654.488281 282.214844 L 652.449219 279.453125 L 651.125 277.222656 L 649.75 274.464844 L 648.371094 271.179688 L 647.148438 267.632812 L 646.335938 264.875 L 645.519531 261.722656 L 644.652344 257.78125 L 643.835938 253.316406 L 643.226562 249.246094 L 642.664062 244.648438 L 642.257812 240.3125 L 641.847656 234.402344 L 641.644531 229.675781 L 641.542969 225.601562 Z M 641.542969 205.113281 "/>
<path style=" stroke:none;fill-rule:nonzero;fill:rgb(83.921569%,15.686275%,22.352941%);fill-opacity:1;" d="M 641.542969 305.71875 L 683.335938 305.71875 L 683.335938 306.121094 L 665.917969 306.121094 L 665.917969 309.457031 L 658.910156 309.457031 L 658.910156 306.125 L 658.808594 306.121094 L 641.542969 306.121094 Z M 641.542969 305.71875 "/>
<g style="fill:rgb(0%,0%,0%);fill-opacity:1;">
  <use xlink:href="#glyph0-1" x="21.957031" y="318.198242"/>
  <use xlink:href="#glyph0-2" x="27.291016" y="318.198242"/>
  <use xlink:href="#glyph0-1" x="29.958008" y="318.198242"/>
</g>
<g style="fill:rgb(0%,0%,0%);fill-opacity:1;">
  <use xlink:href="#glyph0-1" x="21.957031" y="244.475586"/>
  <use xlink:href="#glyph0-2" x="27.291016" y="244.475586"/>
  <use xlink:href="#glyph0-3" x="29.958008" y="244.475586"/>
</g>
<g style="fill:rgb(0%,0%,0%);fill-opacity:1;">
  <use xlink:href="#glyph0-4" x="21.957031" y="170.75293"/>
  <use xlink:href="#glyph0-2" x="27.291016" y="170.75293"/>
  <use xlink:href="#glyph0-1" x="29.958008" y="170.75293"/>
</g>
<g style="fill:rgb(0%,0%,0%);fill-opacity:1;">
  <use xlink:href="#glyph0-4" x="21.957031" y="97.03418"/>
  <use xlink:href="#glyph0-2" x="27.291016" y="97.03418"/>
  <use xlink:href="#glyph0-3" x="29.958008" y="97.03418"/>
</g>
<g style="fill:rgb(0%,0%,0%);fill-opacity:1;">
  <use xlink:href="#glyph0-5" x="21.957031" y="23.311523"/>
  <use xlink:href="#glyph0-2" x="27.291016" y="23.311523"/>
  <use xlink:href="#glyph0-1" x="29.958008" y="23.311523"/>
</g>
<g style="fill:rgb(0%,0%,0%);fill-opacity:1;">
  <use xlink:href="#glyph0-4" x="87.527344" y="338.19043"/>
</g>
<g style="fill:rgb(0%,0%,0%);fill-opacity:1;">
  <use xlink:href="#glyph0-5" x="131.519531" y="338.19043"/>
</g>
<g style="fill:rgb(0%,0%,0%);fill-opacity:1;">
  <use xlink:href="#glyph0-6" x="175.511719" y="338.19043"/>
</g>
<g style="fill:rgb(0%,0%,0%);fill-opacity:1;">
  <use xlink:href="#glyph0-7" x="219.507812" y="338.19043"/>
</g>
<g style="fill:rgb(0%,0%,0%);fill-opacity:1;">
  <use xlink:href="#glyph0-3" x="263.5" y="338.19043"/>
</g>
<g style="fill:rgb(0%,0%,0%);fill-opacity:1;">
  <use xlink:href="#glyph0-8" x="307.492188" y="338.19043"/>
</g>
<g style="fill:rgb(0%,0%,0%);fill-opacity:1;">
  <use xlink:href="#glyph0-9" x="351.488281" y="338.19043"/>
</g>
<g style="fill:rgb(0%,0%,0%);fill-opacity:1;">
  <use xlink:href="#glyph0-10" x="395.480469" y="338.19043"/>
</g>
<g style="fill:rgb(0%,0%,0%);fill-opacity:1;">
  <use xlink:href="#glyph0-11" x="439.472656" y="338.19043"/>
</g>
<g style="fill:rgb(0%,0%,0%);fill-opacity:1;">
  <use xlink:href="#glyph0-4" x="480.964844" y="338.19043"/>
  <use xlink:href="#glyph0-1" x="486.298828" y="338.19043"/>
</g>
<g style="fill:rgb(0%,0%,0%);fill-opacity:1;">
  <use xlink:href="#glyph0-4" x="524.960938" y="338.19043"/>
  <use xlink:href="#glyph0-4" x="530.294922" y="338.19043"/>
</g>
<g style="fill:rgb(0%,0%,0%);fill-opacity:1;">
  <use xlink:href="#glyph0-4" x="568.953125" y="338.19043"/>
  <use xlink:href="#glyph0-5" x="574.287109" y="338.19043"/>
</g>
<g style="fill:rgb(0%,0%,0%);fill-opacity:1;">
  <use xlink:href="#glyph0-4" x="612.945312" y="338.19043"/>
  <use xlink:href="#glyph0-6" x="618.279297" y="338.19043"/>
</g>
<g style="fill:rgb(0%,0%,0%);fill-opacity:1;">
  <use xlink:href="#glyph0-4" x="656.941406" y="338.19043"/>
  <use xlink:href="#glyph0-7" x="662.275391" y="338.19043"/>
</g>
<g style="fill:rgb(0%,0%,0%);fill-opacity:1;">
  <use xlink:href="#glyph1-1" x="14.412109" y="178.015625"/>
  <use xlink:href="#glyph1-2" x="14.412109" y="170.011719"/>
  <use xlink:href="#glyph1-3" x="14.412109" y="167.347656"/>
  <use xlink:href="#glyph1-4" x="14.412109" y="164.011719"/>
</g>
</g>
</svg>
