<?xml version="1.0" encoding="UTF-8"?>
<svg xmlns="http://www.w3.org/2000/svg" xmlns:xlink="http://www.w3.org/1999/xlink" width="720pt" height="360pt" viewBox="0 0 720 360" version="1.1">
<defs>
<g>
<symbol overflow="visible" id="glyph0-0">
<path style="stroke:none;" d=""/>
</symbol>
<symbol overflow="visible" id="glyph0-1">
<path style="stroke:none;" d="M 2.640625 -6.796875 C 2 -6.796875 1.421875 -6.53125 1.078125 -6.046875 C 0.640625 -5.453125 0.40625 -4.546875 0.40625 -3.296875 C 0.40625 -1 1.1875 0.21875 2.640625 0.21875 C 4.078125 0.21875 4.859375 -1 4.859375 -3.234375 C 4.859375 -4.5625 4.65625 -5.4375 4.203125 -6.046875 C 3.84375 -6.53125 3.28125 -6.796875 2.640625 -6.796875 Z M 2.640625 -6.046875 C 3.546875 -6.046875 4 -5.125 4 -3.3125 C 4 -1.375 3.5625 -0.484375 2.625 -0.484375 C 1.734375 -0.484375 1.28125 -1.421875 1.28125 -3.28125 C 1.28125 -5.140625 1.734375 -6.046875 2.640625 -6.046875 Z M 2.640625 -6.046875 "/>
</symbol>
<symbol overflow="visible" id="glyph0-2">
<path style="stroke:none;" d="M 1.828125 -1 L 0.828125 -1 L 0.828125 0 L 1.828125 0 Z M 1.828125 -1 "/>
</symbol>
<symbol overflow="visible" id="glyph0-3">
<path style="stroke:none;" d="M 4.5625 -6.796875 L 1.0625 -6.796875 L 0.546875 -3.09375 L 1.328125 -3.09375 C 1.71875 -3.5625 2.046875 -3.734375 2.578125 -3.734375 C 3.484375 -3.734375 4.0625 -3.109375 4.0625 -2.09375 C 4.0625 -1.125 3.484375 -0.53125 2.578125 -0.53125 C 1.828125 -0.53125 1.375 -0.90625 1.1875 -1.671875 L 0.328125 -1.671875 C 0.453125 -1.109375 0.546875 -0.84375 0.75 -0.59375 C 1.125 -0.078125 1.828125 0.21875 2.59375 0.21875 C 3.96875 0.21875 4.921875 -0.78125 4.921875 -2.21875 C 4.921875 -3.5625 4.03125 -4.484375 2.71875 -4.484375 C 2.25 -4.484375 1.859375 -4.359375 1.46875 -4.0625 L 1.734375 -5.96875 L 4.5625 -5.96875 Z M 4.5625 -6.796875 "/>
</symbol>
<symbol overflow="visible" id="glyph0-4">
<path style="stroke:none;" d="M 2.484375 -4.84375 L 2.484375 0 L 3.328125 0 L 3.328125 -6.796875 L 2.765625 -6.796875 C 2.46875 -5.75 2.28125 -5.609375 0.984375 -5.453125 L 0.984375 -4.84375 Z M 2.484375 -4.84375 "/>
</symbol>
<symbol overflow="visible" id="glyph0-5">
<path style="stroke:none;" d="M 4.859375 -0.828125 L 1.28125 -0.828125 C 1.359375 -1.390625 1.671875 -1.75 2.5 -2.234375 L 3.46875 -2.75 C 4.40625 -3.265625 4.90625 -3.96875 4.90625 -4.8125 C 4.90625 -5.375 4.671875 -5.90625 4.265625 -6.265625 C 3.859375 -6.625 3.375 -6.796875 2.71875 -6.796875 C 1.859375 -6.796875 1.21875 -6.5 0.84375 -5.921875 C 0.609375 -5.5625 0.5 -5.125 0.484375 -4.4375 L 1.328125 -4.4375 C 1.359375 -4.90625 1.40625 -5.1875 1.53125 -5.40625 C 1.75 -5.8125 2.1875 -6.0625 2.703125 -6.0625 C 3.46875 -6.0625 4.03125 -5.515625 4.03125 -4.78125 C 4.03125 -4.25 3.71875 -3.796875 3.125 -3.4375 L 2.234375 -2.9375 C 0.8125 -2.140625 0.40625 -1.5 0.328125 0 L 4.859375 0 Z M 4.859375 -0.828125 "/>
</symbol>
<symbol overflow="visible" id="glyph0-6">
<path style="stroke:none;" d="M 2.125 -3.125 L 2.578125 -3.125 C 3.515625 -3.125 3.984375 -2.703125 3.984375 -1.890625 C 3.984375 -1.03125 3.46875 -0.53125 2.578125 -0.53125 C 1.65625 -0.53125 1.203125 -0.984375 1.15625 -1.96875 L 0.3125 -1.96875 C 0.34375 -1.421875 0.4375 -1.078125 0.609375 -0.765625 C 0.953125 -0.109375 1.625 0.21875 2.546875 0.21875 C 3.953125 0.21875 4.859375 -0.609375 4.859375 -1.90625 C 4.859375 -2.765625 4.515625 -3.25 3.703125 -3.515625 C 4.34375 -3.765625 4.65625 -4.25 4.65625 -4.9375 C 4.65625 -6.109375 3.875 -6.796875 2.578125 -6.796875 C 1.203125 -6.796875 0.484375 -6.046875 0.453125 -4.609375 L 1.296875 -4.609375 C 1.3125 -5.015625 1.34375 -5.25 1.453125 -5.453125 C 1.640625 -5.828125 2.0625 -6.0625 2.59375 -6.0625 C 3.34375 -6.0625 3.796875 -5.625 3.796875 -4.90625 C 3.796875 -4.421875 3.609375 -4.140625 3.25 -3.984375 C 3.015625 -3.890625 2.71875 -3.84375 2.125 -3.84375 Z M 2.125 -3.125 "/>
</symbol>
<symbol overflow="visible" id="glyph0-7">
<path style="stroke:none;" d="M 3.140625 -1.625 L 3.140625 0 L 3.984375 0 L 3.984375 -1.625 L 4.984375 -1.625 L 4.984375 -2.390625 L 3.984375 -2.390625 L 3.984375 -6.796875 L 3.359375 -6.796875 L 0.265625 -2.515625 L 0.265625 -1.625 Z M 3.140625 -2.390625 L 1 -2.390625 L 3.140625 -5.359375 Z M 3.140625 -2.390625 "/>
</symbol>
<symbol overflow="visible" id="glyph0-8">
<path style="stroke:none;" d="M 4.78125 -5.03125 C 4.609375 -6.140625 3.890625 -6.796875 2.84375 -6.796875 C 2.09375 -6.796875 1.421875 -6.4375 1.03125 -5.828125 C 0.609375 -5.171875 0.40625 -4.34375 0.40625 -3.09375 C 0.40625 -1.953125 0.578125 -1.234375 0.984375 -0.625 C 1.359375 -0.078125 1.953125 0.21875 2.703125 0.21875 C 3.984375 0.21875 4.921875 -0.734375 4.921875 -2.078125 C 4.921875 -3.34375 4.0625 -4.234375 2.84375 -4.234375 C 2.171875 -4.234375 1.640625 -3.96875 1.28125 -3.46875 C 1.28125 -5.125 1.828125 -6.046875 2.796875 -6.046875 C 3.390625 -6.046875 3.796875 -5.671875 3.9375 -5.03125 Z M 2.734375 -3.484375 C 3.546875 -3.484375 4.0625 -2.921875 4.0625 -2 C 4.0625 -1.15625 3.484375 -0.53125 2.703125 -0.53125 C 1.921875 -0.53125 1.328125 -1.1875 1.328125 -2.046875 C 1.328125 -2.890625 1.90625 -3.484375 2.734375 -3.484375 Z M 2.734375 -3.484375 "/>
</symbol>
<symbol overflow="visible" id="glyph0-9">
<path style="stroke:none;" d="M 4.984375 -6.796875 L 0.4375 -6.796875 L 0.4375 -5.96875 L 4.109375 -5.96875 C 2.5 -3.65625 1.828125 -2.234375 1.328125 0 L 2.21875 0 C 2.59375 -2.171875 3.453125 -4.046875 4.984375 -6.09375 Z M 4.984375 -6.796875 "/>
</symbol>
<symbol overflow="visible" id="glyph0-10">
<path style="stroke:none;" d="M 3.75 -3.578125 C 4.453125 -4 4.6875 -4.34375 4.6875 -4.984375 C 4.6875 -6.046875 3.84375 -6.796875 2.640625 -6.796875 C 1.4375 -6.796875 0.59375 -6.046875 0.59375 -4.984375 C 0.59375 -4.359375 0.828125 -4.015625 1.515625 -3.578125 C 0.734375 -3.203125 0.359375 -2.640625 0.359375 -1.890625 C 0.359375 -0.640625 1.296875 0.21875 2.640625 0.21875 C 3.984375 0.21875 4.921875 -0.640625 4.921875 -1.875 C 4.921875 -2.640625 4.53125 -3.203125 3.75 -3.578125 Z M 2.640625 -6.046875 C 3.359375 -6.046875 3.8125 -5.625 3.8125 -4.96875 C 3.8125 -4.34375 3.34375 -3.921875 2.640625 -3.921875 C 1.921875 -3.921875 1.453125 -4.34375 1.453125 -4.984375 C 1.453125 -5.625 1.921875 -6.046875 2.640625 -6.046875 Z M 2.640625 -3.203125 C 3.484375 -3.203125 4.0625 -2.671875 4.0625 -1.875 C 4.0625 -1.0625 3.484375 -0.53125 2.625 -0.53125 C 1.796875 -0.53125 1.21875 -1.078125 1.21875 -1.875 C 1.21875 -2.671875 1.796875 -3.203125 2.640625 -3.203125 Z M 2.640625 -3.203125 "/>
</symbol>
<symbol overflow="visible" id="glyph0-11">
<path style="stroke:none;" d="M 0.515625 -1.546875 C 0.671875 -0.4375 1.40625 0.21875 2.4375 0.21875 C 3.1875 0.21875 3.859375 -0.140625 4.265625 -0.75 C 4.6875 -1.40625 4.890625 -2.25 4.890625 -3.484375 C 4.890625 -4.625 4.703125 -5.359375 4.3125 -5.953125 C 3.9375 -6.5 3.34375 -6.796875 2.59375 -6.796875 C 1.296875 -6.796875 0.359375 -5.84375 0.359375 -4.515625 C 0.359375 -3.25 1.234375 -2.34375 2.453125 -2.34375 C 3.09375 -2.34375 3.5625 -2.578125 4.015625 -3.109375 C 4 -1.453125 3.46875 -0.53125 2.5 -0.53125 C 1.90625 -0.53125 1.484375 -0.90625 1.359375 -1.546875 Z M 2.578125 -6.0625 C 3.375 -6.0625 3.96875 -5.40625 3.96875 -4.53125 C 3.96875 -3.6875 3.375 -3.09375 2.546875 -3.09375 C 1.734375 -3.09375 1.234375 -3.671875 1.234375 -4.578125 C 1.234375 -5.4375 1.796875 -6.0625 2.578125 -6.0625 Z M 2.578125 -6.0625 "/>
</symbol>
<symbol overflow="visible" id="glyph1-0">
<path style="stroke:none;" d=""/>
</symbol>
<symbol overflow="visible" id="glyph1-1">
<path style="stroke:none;" d="M 0 -0.953125 L 0 -4.890625 C 0 -5.71875 -0.234375 -6.34375 -0.734375 -6.796875 C -1.1875 -7.234375 -1.8125 -7.46875 -2.5 -7.46875 C -3.546875 -7.46875 -4.1875 -7 -4.625 -5.875 C -4.984375 -6.671875 -5.640625 -7.09375 -6.53125 -7.09375 C -7.15625 -7.09375 -7.734375 -6.859375 -8.140625 -6.390625 C -8.5625 -5.9375 -8.75 -5.34375 -8.75 -4.5 L -8.75 -0.953125 Z M -4.984375 -2.0625 L -7.765625 -2.0625 L -7.765625 -4.21875 C -7.765625 -4.84375 -7.6875 -5.203125 -7.453125 -5.5 C -7.21875 -5.8125 -6.859375 -5.96875 -6.375 -5.96875 C -5.90625 -5.96875 -5.53125 -5.8125 -5.296875 -5.5 C -5.0625 -5.203125 -4.984375 -4.84375 -4.984375 -4.21875 Z M -0.984375 -2.0625 L -4 -2.0625 L -4 -4.78125 C -4 -5.328125 -3.859375 -5.6875 -3.578125 -5.953125 C -3.296875 -6.21875 -2.921875 -6.359375 -2.484375 -6.359375 C -2.0625 -6.359375 -1.6875 -6.21875 -1.40625 -5.953125 C -1.109375 -5.6875 -0.984375 -5.328125 -0.984375 -4.78125 Z M -0.984375 -2.0625 "/>
</symbol>
<symbol overflow="visible" id="glyph1-2">
<path style="stroke:none;" d="M -6.28125 -1.796875 L -6.28125 -0.796875 L 0 -0.796875 L 0 -1.796875 Z M -8.75 -1.796875 L -8.75 -0.796875 L -7.484375 -0.796875 L -7.484375 -1.796875 Z M -8.75 -1.796875 "/>
</symbol>
<symbol overflow="visible" id="glyph1-3">
<path style="stroke:none;" d="M -6.28125 -3.046875 L -6.28125 -2.015625 L -8.015625 -2.015625 L -8.015625 -1.015625 L -6.28125 -1.015625 L -6.28125 -0.171875 L -5.46875 -0.171875 L -5.46875 -1.015625 L -0.71875 -1.015625 C -0.078125 -1.015625 0.28125 -1.453125 0.28125 -2.234375 C 0.28125 -2.46875 0.25 -2.71875 0.1875 -3.046875 L -0.640625 -3.046875 C -0.609375 -2.921875 -0.59375 -2.765625 -0.59375 -2.5625 C -0.59375 -2.140625 -0.71875 -2.015625 -1.15625 -2.015625 L -5.46875 -2.015625 L -5.46875 -3.046875 Z M -6.28125 -3.046875 "/>
</symbol>
<symbol overflow="visible" id="glyph1-4">
<path style="stroke:none;" d="M -4.53125 -5.25 C -5.765625 -5.25 -6.46875 -4.421875 -6.46875 -2.96875 C -6.46875 -1.515625 -5.71875 -0.5625 -4.546875 -0.5625 C -3.5625 -0.5625 -3.09375 -1.0625 -2.734375 -2.5625 L -2.515625 -3.484375 C -2.34375 -4.1875 -2.09375 -4.46875 -1.625 -4.46875 C -1.046875 -4.46875 -0.640625 -3.875 -0.640625 -3 C -0.640625 -2.453125 -0.796875 -2 -1.0625 -1.75 C -1.25 -1.59375 -1.421875 -1.53125 -1.875 -1.46875 L -1.875 -0.40625 C -0.421875 -0.453125 0.28125 -1.265625 0.28125 -2.921875 C 0.28125 -4.5 -0.5 -5.515625 -1.71875 -5.515625 C -2.65625 -5.515625 -3.171875 -4.984375 -3.46875 -3.734375 L -3.703125 -2.765625 C -3.890625 -1.953125 -4.15625 -1.609375 -4.59375 -1.609375 C -5.171875 -1.609375 -5.546875 -2.125 -5.546875 -2.9375 C -5.546875 -3.75 -5.203125 -4.171875 -4.53125 -4.203125 Z M -4.53125 -5.25 "/>
</symbol>
</g>
</defs>
<g id="surface34774">
<rect x="0" y="0" width="720" height="360" style="fill:rgb(100%,100%,100%);fill-opacity:1;stroke:none;"/>
<path style=" stroke:none;fill-rule:nonzero;fill:rgb(6.27451%,58.823529%,28.235294%);fill-opacity:1;" d="M 69.628906 314.363281 L 69.660156 314.359375 L 82.304688 308.53125 L 86.144531 308.53125 L 98.855469 314.371094 L 94.390625 314.371094 L 91.203125 312.847656 L 77.246094 312.847656 L 74.125 314.363281 L 69.628906 314.363281 L 78.589844 312.214844 L 89.925781 312.210938 L 84.273438 309.484375 L 84.210938 309.480469 L 84.148438 309.496094 L 78.558594 312.210938 L 78.589844 312.214844 Z M 69.628906 314.363281 "/>
<path style=" stroke:none;fill-rule:nonzero;fill:rgb(14.509804%,36.078431%,60%);fill-opacity:1;" d="M 69.628906 304.054688 L 69.664062 304.050781 L 69.664062 303.921875 L 69.773438 303.71875 L 70.019531 303.460938 L 70.269531 303.285156 L 70.914062 302.972656 L 71.804688 302.667969 L 72.730469 302.433594 L 73.40625 302.292969 L 74.011719 302.1875 L 75.402344 301.988281 L 76.292969 301.886719 L 77.257812 301.796875 L 78.433594 301.707031 L 79.289062 301.652344 L 81.210938 301.566406 L 82.636719 301.53125 L 83.742188 301.515625 L 86.128906 301.515625 L 87.554688 301.535156 L 88.589844 301.5625 L 89.730469 301.605469 L 90.691406 301.652344 L 92.367188 301.769531 L 93.863281 301.921875 L 94.542969 302.003906 L 95.609375 302.171875 L 96.429688 302.332031 L 97 302.46875 L 97.640625 302.667969 L 98.210938 302.90625 L 98.640625 303.179688 L 98.855469 303.410156 L 93.863281 303.410156 L 93.613281 303.195312 L 93.328125 303.03125 L 92.792969 302.8125 L 92.261719 302.65625 L 91.511719 302.5 L 90.835938 302.402344 L 89.90625 302.300781 L 89.089844 302.234375 L 88.234375 302.1875 L 87.414062 302.15625 L 85.84375 302.121094 L 84.027344 302.121094 L 83.351562 302.132812 L 81.960938 302.175781 L 81.210938 302.214844 L 80.144531 302.289062 L 79.394531 302.359375 L 78.503906 302.464844 L 77.898438 302.554688 L 77.148438 302.695312 L 76.613281 302.816406 L 76.007812 302.992188 L 75.652344 303.125 L 75.332031 303.277344 L 75.046875 303.453125 L 74.832031 303.636719 L 74.691406 303.835938 L 74.617188 304.027344 L 74.617188 304.855469 L 74.691406 305.046875 L 74.867188 305.273438 L 75.332031 305.597656 L 76.007812 305.878906 L 76.792969 306.105469 L 77.542969 306.265625 L 77.96875 306.339844 L 78.539062 306.425781 L 79.429688 306.53125 L 80.714844 306.636719 L 81.460938 306.679688 L 82.601562 306.722656 L 83.777344 306.746094 L 85.347656 306.746094 L 86.734375 306.722656 L 87.664062 306.695312 L 88.625 306.652344 L 89.945312 306.5625 L 90.761719 306.476562 L 91.476562 306.375 L 92.011719 306.273438 L 92.367188 306.191406 L 92.902344 306.023438 L 93.328125 305.84375 L 93.648438 305.65625 L 93.863281 305.472656 L 98.855469 305.472656 L 98.640625 305.6875 L 98.320312 305.894531 L 98 306.050781 L 97.5 306.238281 L 96.929688 306.402344 L 96.109375 306.589844 L 95.433594 306.710938 L 94.542969 306.847656 L 93.722656 306.949219 L 92.832031 307.039062 L 91.511719 307.144531 L 90.65625 307.199219 L 89.730469 307.246094 L 88.625 307.289062 L 87.234375 307.328125 L 85.738281 307.347656 L 84.347656 307.351562 L 82.851562 307.34375 L 81.746094 307.320312 L 80.285156 307.273438 L 78.46875 307.175781 L 77.148438 307.074219 L 76.117188 306.972656 L 75.226562 306.867188 L 74.226562 306.722656 L 72.945312 306.488281 L 72.160156 306.308594 L 71.625 306.15625 L 71.019531 305.949219 L 70.589844 305.761719 L 70.09375 305.464844 L 69.734375 305.085938 L 69.628906 304.792969 Z M 69.628906 304.054688 "/>
<path style=" stroke:none;fill-rule:nonzero;fill:rgb(83.921569%,15.686275%,22.352941%);fill-opacity:1;" d="M 69.628906 48.875 L 98.855469 48.875 L 98.855469 75.789062 L 86.671875 76.027344 L 86.671875 300.335938 L 81.773438 300.335938 L 81.773438 76.261719 L 81.703125 75.789062 L 69.628906 75.789062 Z M 69.628906 48.875 "/>
<path style=" stroke:none;fill-rule:nonzero;fill:rgb(96.862745%,70.196078%,16.862745%);fill-opacity:1;" d="M 100.390625 292.734375 L 100.425781 292.699219 L 100.425781 292.007812 L 100.570312 290.453125 L 100.925781 288.308594 L 101.390625 286.546875 L 101.886719 285.164062 L 102.210938 284.4375 L 102.742188 283.402344 L 103.207031 282.640625 L 104.382812 281.085938 L 105.878906 279.632812 L 106.699219 279.011719 L 107.625 278.421875 L 108.945312 277.765625 L 109.550781 277.523438 L 111.402344 276.972656 L 113.507812 276.625 L 115.824219 276.523438 L 116.894531 276.554688 L 118.355469 276.695312 L 120.347656 277.074219 L 121.488281 277.421875 L 122.382812 277.765625 L 123.308594 278.214844 L 124.449219 278.90625 L 125.515625 279.738281 L 126.371094 280.566406 L 127.226562 281.601562 L 127.941406 282.710938 L 128.546875 283.917969 L 129.082031 285.371094 L 129.402344 286.582031 L 129.617188 287.789062 L 124.660156 287.789062 L 124.375 286.582031 L 124.054688 285.648438 L 123.523438 284.507812 L 122.988281 283.675781 L 122.453125 283.019531 L 121.453125 282.121094 L 120.597656 281.570312 L 119.53125 281.085938 L 118.496094 280.773438 L 117.320312 280.566406 L 116.609375 280.496094 L 114.71875 280.496094 L 113.007812 280.738281 L 112.011719 281.015625 L 111.296875 281.292969 L 110.300781 281.808594 L 109.695312 282.226562 L 109.335938 282.5 L 108.269531 283.574219 L 107.554688 284.542969 L 107.164062 285.199219 L 106.664062 286.234375 L 106.308594 287.167969 L 105.914062 288.550781 L 105.703125 289.585938 L 105.417969 291.9375 L 105.382812 298.160156 L 105.488281 299.472656 L 105.703125 300.890625 L 105.988281 302.132812 L 106.414062 303.449219 L 106.84375 304.449219 L 107.589844 305.796875 L 108.230469 306.695312 L 108.730469 307.285156 L 109.695312 308.21875 L 110.085938 308.527344 L 111.011719 309.152344 L 111.972656 309.636719 L 113.152344 310.050781 L 114.042969 310.257812 L 115.46875 310.429688 L 117.285156 310.429688 L 119.421875 310.222656 L 120.777344 309.945312 L 121.703125 309.667969 L 122.308594 309.429688 L 123.058594 309.046875 L 123.59375 308.703125 L 124.089844 308.320312 L 124.699219 307.734375 L 124.699219 299.472656 L 115.894531 299.4375 L 115.894531 295.566406 L 129.582031 295.53125 L 129.617188 309.046875 L 128.867188 309.980469 L 127.941406 310.878906 L 127.050781 311.570312 L 126.125 312.160156 L 124.804688 312.816406 L 123.734375 313.230469 L 122.097656 313.714844 L 120.597656 314.023438 L 119.03125 314.230469 L 117.640625 314.335938 L 116 314.371094 L 114.539062 314.300781 L 112.972656 314.09375 L 111.726562 313.816406 L 110.585938 313.472656 L 109.445312 313.023438 L 108.019531 312.296875 L 107.09375 311.710938 L 106.128906 310.984375 L 105.167969 310.121094 L 104.3125 309.1875 L 103.742188 308.460938 L 103.171875 307.628906 L 102.566406 306.59375 L 101.996094 305.417969 L 101.566406 304.347656 L 101.175781 303.136719 L 100.890625 301.996094 L 100.605469 300.441406 L 100.464844 299.195312 L 100.390625 298.125 Z M 100.390625 292.734375 "/>
<path style=" stroke:none;fill-rule:nonzero;fill:rgb(83.921569%,15.686275%,22.352941%);fill-opacity:1;" d="M 100.390625 103.683594 L 129.617188 103.683594 L 129.617188 122.058594 L 117.4375 122.21875 L 117.4375 275.34375 L 112.535156 275.34375 L 112.535156 122.378906 L 112.464844 122.058594 L 100.390625 122.058594 Z M 100.390625 103.683594 "/>
<path style=" stroke:none;fill-rule:nonzero;fill:rgb(6.27451%,58.823529%,28.235294%);fill-opacity:1;" d="M 131.152344 309.695312 L 131.183594 309.664062 L 143.832031 273.78125 L 147.671875 273.78125 L 160.378906 309.730469 L 155.914062 309.730469 L 152.730469 300.347656 L 138.773438 300.347656 L 135.648438 309.695312 L 131.152344 309.695312 L 140.113281 296.464844 L 151.449219 296.429688 L 145.796875 279.65625 L 145.734375 279.621094 L 145.671875 279.722656 L 140.082031 296.429688 L 140.113281 296.464844 Z M 131.152344 309.695312 "/>
<path style=" stroke:none;fill-rule:nonzero;fill:rgb(96.862745%,70.196078%,16.862745%);fill-opacity:1;" d="M 131.152344 196.339844 L 131.191406 196.214844 L 131.191406 193.78125 L 131.332031 188.296875 L 131.6875 180.742188 L 132.152344 174.53125 L 132.652344 169.65625 L 132.972656 167.097656 L 133.507812 163.445312 L 133.96875 160.765625 L 135.144531 155.28125 L 136.640625 150.164062 L 137.460938 147.972656 L 138.390625 145.902344 L 139.707031 143.585938 L 140.3125 142.734375 L 142.167969 140.785156 L 144.269531 139.566406 L 146.585938 139.199219 L 147.65625 139.320312 L 149.117188 139.808594 L 151.113281 141.148438 L 152.253906 142.367188 L 153.144531 143.585938 L 154.070312 145.167969 L 155.210938 147.605469 L 156.28125 150.53125 L 157.136719 153.453125 L 157.992188 157.109375 L 158.703125 161.007812 L 159.308594 165.273438 L 159.84375 170.386719 L 160.164062 174.652344 L 160.378906 178.917969 L 155.425781 178.917969 L 155.140625 174.652344 L 154.820312 171.363281 L 154.285156 167.34375 L 153.75 164.417969 L 153.214844 162.105469 L 152.214844 158.9375 L 151.363281 156.988281 L 150.292969 155.28125 L 149.257812 154.183594 L 148.082031 153.453125 L 147.371094 153.210938 L 145.480469 153.210938 L 143.769531 154.0625 L 142.773438 155.039062 L 142.058594 156.011719 L 141.0625 157.839844 L 140.457031 159.300781 L 140.097656 160.277344 L 139.03125 164.054688 L 138.316406 167.464844 L 137.925781 169.78125 L 137.425781 173.433594 L 137.070312 176.722656 L 136.679688 181.597656 L 136.464844 185.25 L 136.179688 193.535156 L 136.144531 215.464844 L 136.25 220.09375 L 136.464844 225.089844 L 136.75 229.476562 L 137.175781 234.105469 L 137.605469 237.636719 L 138.351562 242.390625 L 138.996094 245.558594 L 139.492188 247.628906 L 140.457031 250.917969 L 140.847656 252.015625 L 141.773438 254.207031 L 142.738281 255.914062 L 143.914062 257.375 L 144.804688 258.105469 L 146.230469 258.714844 L 148.046875 258.714844 L 150.183594 257.984375 L 151.539062 257.007812 L 152.464844 256.035156 L 153.070312 255.183594 L 153.820312 253.84375 L 154.355469 252.625 L 154.855469 251.285156 L 155.460938 249.210938 L 155.460938 220.09375 L 146.65625 219.972656 L 146.65625 206.328125 L 160.34375 206.207031 L 160.378906 253.84375 L 159.628906 257.132812 L 158.703125 260.296875 L 157.8125 262.734375 L 156.886719 264.804688 L 155.566406 267.121094 L 154.496094 268.582031 L 152.859375 270.289062 L 151.363281 271.386719 L 149.792969 272.117188 L 148.402344 272.480469 L 146.765625 272.605469 L 145.300781 272.359375 L 143.734375 271.628906 L 142.488281 270.652344 L 141.347656 269.4375 L 140.207031 267.851562 L 138.78125 265.292969 L 137.855469 263.222656 L 136.890625 260.664062 L 135.929688 257.617188 L 135.074219 254.328125 L 134.503906 251.769531 L 133.933594 248.847656 L 133.328125 245.191406 L 132.757812 241.050781 L 132.328125 237.273438 L 131.9375 233.007812 L 131.652344 228.988281 L 131.367188 223.507812 L 131.226562 219.121094 L 131.152344 215.34375 Z M 131.152344 196.339844 "/>
<path style=" stroke:none;fill-rule:nonzero;fill:rgb(83.921569%,15.686275%,22.352941%);fill-opacity:1;" d="M 131.152344 310.910156 L 160.378906 310.910156 L 160.378906 311.28125 L 148.199219 311.28125 L 148.199219 314.371094 L 143.296875 314.371094 L 143.296875 311.285156 L 143.226562 311.28125 L 131.152344 311.28125 Z M 131.152344 310.910156 "/>
<path style=" stroke:none;fill-rule:nonzero;fill:rgb(6.27451%,58.823529%,28.235294%);fill-opacity:1;" d="M 161.917969 303.949219 L 161.949219 303.925781 L 174.59375 277.429688 L 178.433594 277.429688 L 191.140625 303.972656 L 186.675781 303.972656 L 183.492188 297.046875 L 169.535156 297.046875 L 166.414062 303.949219 L 161.917969 303.949219 L 170.878906 294.179688 L 182.210938 294.152344 L 176.558594 281.765625 L 176.496094 281.742188 L 176.433594 281.816406 L 170.847656 294.152344 L 170.878906 294.179688 Z M 161.917969 303.949219 "/>
<path style=" stroke:none;fill-rule:nonzero;fill:rgb(14.509804%,36.078431%,60%);fill-opacity:1;" d="M 161.917969 224.058594 L 161.953125 223.972656 L 161.953125 221.945312 L 162.058594 218.738281 L 162.308594 214.683594 L 162.558594 211.898438 L 163.199219 206.914062 L 164.089844 202.101562 L 165.015625 198.386719 L 165.695312 196.191406 L 166.300781 194.5 L 167.691406 191.375 L 168.582031 189.769531 L 169.542969 188.335938 L 170.71875 186.898438 L 171.574219 186.054688 L 173.5 184.703125 L 174.925781 184.113281 L 176.03125 183.859375 L 178.417969 183.859375 L 179.84375 184.199219 L 180.875 184.621094 L 182.015625 185.296875 L 182.980469 186.054688 L 184.652344 187.914062 L 186.152344 190.277344 L 186.828125 191.628906 L 187.898438 194.246094 L 188.71875 196.78125 L 189.289062 198.976562 L 189.929688 202.101562 L 190.5 205.902344 L 190.925781 210.207031 L 191.140625 213.839844 L 186.152344 213.839844 L 185.902344 210.460938 L 185.617188 207.84375 L 185.082031 204.382812 L 184.546875 201.933594 L 183.796875 199.484375 L 183.121094 197.878906 L 182.195312 196.273438 L 181.375 195.261719 L 180.519531 194.5 L 179.699219 193.992188 L 178.132812 193.488281 L 176.316406 193.488281 L 175.636719 193.65625 L 174.246094 194.332031 L 173.5 194.921875 L 172.429688 196.105469 L 171.679688 197.203125 L 170.789062 198.890625 L 170.183594 200.328125 L 169.4375 202.523438 L 168.902344 204.464844 L 168.296875 207.253906 L 167.9375 209.363281 L 167.617188 211.730469 L 167.332031 214.515625 L 167.121094 217.472656 L 166.976562 220.597656 L 166.90625 223.636719 L 166.90625 236.726562 L 166.976562 239.765625 L 167.15625 243.3125 L 167.617188 248.464844 L 168.296875 252.941406 L 169.078125 256.488281 L 169.828125 259.023438 L 170.253906 260.203125 L 170.824219 261.554688 L 171.71875 263.242188 L 173 264.933594 L 173.75 265.609375 L 174.890625 266.285156 L 176.066406 266.621094 L 177.632812 266.621094 L 179.023438 266.285156 L 179.949219 265.863281 L 180.910156 265.1875 L 182.230469 263.75 L 183.050781 262.398438 L 183.761719 260.796875 L 184.296875 259.191406 L 184.652344 257.839844 L 185.1875 255.222656 L 185.617188 252.351562 L 185.9375 249.394531 L 186.152344 246.523438 L 191.140625 246.523438 L 190.925781 249.902344 L 190.605469 253.195312 L 190.285156 255.644531 L 189.785156 258.597656 L 189.214844 261.21875 L 188.394531 264.171875 L 187.71875 266.117188 L 186.828125 268.226562 L 186.007812 269.832031 L 185.117188 271.265625 L 183.796875 272.957031 L 182.945312 273.800781 L 182.015625 274.5625 L 180.910156 275.234375 L 179.523438 275.828125 L 178.023438 276.164062 L 176.636719 276.25 L 175.136719 276.082031 L 174.035156 275.742188 L 172.574219 274.984375 L 170.753906 273.460938 L 169.4375 271.859375 L 168.402344 270.253906 L 167.511719 268.566406 L 166.515625 266.285156 L 165.230469 262.570312 L 164.445312 259.695312 L 163.910156 257.332031 L 163.304688 254.039062 L 162.878906 251.082031 L 162.378906 246.355469 L 162.023438 240.359375 L 161.917969 235.710938 Z M 161.917969 224.058594 "/>
<path style=" stroke:none;fill-rule:nonzero;fill:rgb(96.862745%,70.196078%,16.862745%);fill-opacity:1;" d="M 161.917969 313.0625 L 161.953125 313.0625 L 161.953125 313.019531 L 162.09375 312.925781 L 162.449219 312.796875 L 162.914062 312.691406 L 163.414062 312.605469 L 163.734375 312.5625 L 164.269531 312.5 L 164.730469 312.453125 L 165.90625 312.359375 L 167.40625 312.273438 L 168.222656 312.234375 L 169.152344 312.199219 L 170.46875 312.160156 L 171.074219 312.144531 L 172.929688 312.113281 L 175.03125 312.089844 L 177.347656 312.085938 L 178.417969 312.085938 L 179.878906 312.09375 L 181.875 312.117188 L 183.015625 312.140625 L 183.90625 312.160156 L 184.832031 312.1875 L 185.972656 312.230469 L 187.042969 312.277344 L 187.898438 312.328125 L 188.753906 312.390625 L 189.464844 312.457031 L 190.070312 312.53125 L 190.605469 312.617188 L 190.925781 312.691406 L 191.140625 312.765625 L 186.1875 312.765625 L 185.902344 312.691406 L 185.582031 312.636719 L 185.046875 312.566406 L 184.511719 312.515625 L 183.976562 312.476562 L 182.980469 312.421875 L 182.125 312.390625 L 181.054688 312.359375 L 180.019531 312.339844 L 178.84375 312.328125 L 178.132812 312.324219 L 176.242188 312.324219 L 174.53125 312.339844 L 173.535156 312.355469 L 172.820312 312.371094 L 171.824219 312.402344 L 171.21875 312.429688 L 170.863281 312.445312 L 169.792969 312.511719 L 169.078125 312.570312 L 168.6875 312.609375 L 168.1875 312.671875 L 167.832031 312.726562 L 167.441406 312.8125 L 167.226562 312.875 L 166.941406 313.015625 L 166.90625 313.390625 L 167.011719 313.472656 L 167.226562 313.554688 L 167.511719 313.632812 L 167.9375 313.710938 L 168.367188 313.773438 L 169.117188 313.851562 L 169.757812 313.90625 L 170.253906 313.941406 L 171.21875 314 L 171.609375 314.019531 L 172.535156 314.054688 L 173.5 314.085938 L 174.675781 314.109375 L 175.566406 314.121094 L 176.992188 314.132812 L 178.808594 314.132812 L 180.949219 314.121094 L 182.300781 314.101562 L 183.226562 314.085938 L 183.835938 314.070312 L 184.582031 314.050781 L 185.117188 314.027344 L 185.617188 314.003906 L 186.222656 313.96875 L 186.222656 313.472656 L 177.417969 313.46875 L 177.417969 313.234375 L 191.105469 313.234375 L 191.140625 314.050781 L 190.390625 314.105469 L 189.464844 314.160156 L 188.574219 314.203125 L 187.648438 314.238281 L 186.328125 314.277344 L 185.261719 314.300781 L 183.621094 314.332031 L 182.125 314.351562 L 180.554688 314.363281 L 179.164062 314.367188 L 177.527344 314.371094 L 176.066406 314.367188 L 174.496094 314.355469 L 173.25 314.335938 L 172.109375 314.316406 L 170.96875 314.289062 L 169.542969 314.246094 L 168.617188 314.210938 L 167.652344 314.167969 L 166.691406 314.113281 L 165.835938 314.058594 L 164.695312 313.964844 L 164.089844 313.902344 L 163.519531 313.828125 L 163.09375 313.765625 L 162.699219 313.691406 L 162.414062 313.625 L 162.128906 313.53125 L 161.988281 313.453125 L 161.917969 313.390625 Z M 161.917969 313.0625 "/>
<path style=" stroke:none;fill-rule:nonzero;fill:rgb(83.921569%,15.686275%,22.352941%);fill-opacity:1;" d="M 161.917969 305.152344 L 191.140625 305.152344 L 191.140625 305.769531 L 178.960938 305.773438 L 178.960938 310.90625 L 174.058594 310.90625 L 174.058594 305.78125 L 173.988281 305.769531 L 161.917969 305.769531 Z M 161.917969 305.152344 "/>
<path style=" stroke:none;fill-rule:nonzero;fill:rgb(6.27451%,58.823529%,28.235294%);fill-opacity:1;" d="M 192.679688 314.363281 L 192.710938 314.355469 L 205.355469 306.792969 L 209.195312 306.792969 L 221.902344 314.371094 L 217.4375 314.371094 L 214.253906 312.394531 L 200.296875 312.394531 L 197.175781 314.363281 L 192.679688 314.363281 L 201.640625 311.574219 L 212.972656 311.566406 L 207.320312 308.03125 L 207.257812 308.023438 L 207.195312 308.046875 L 201.609375 311.566406 L 201.640625 311.574219 Z M 192.679688 314.363281 "/>
<path style=" stroke:none;fill-rule:nonzero;fill:rgb(14.509804%,36.078431%,60%);fill-opacity:1;" d="M 192.679688 288.96875 L 192.714844 288.941406 L 192.714844 288.296875 L 192.820312 287.273438 L 193.070312 285.980469 L 193.320312 285.089844 L 193.960938 283.503906 L 194.851562 281.964844 L 195.777344 280.78125 L 196.457031 280.082031 L 197.0625 279.542969 L 198.453125 278.546875 L 199.34375 278.035156 L 200.304688 277.578125 L 201.480469 277.117188 L 202.335938 276.847656 L 204.261719 276.417969 L 205.6875 276.230469 L 206.792969 276.148438 L 209.179688 276.148438 L 210.605469 276.257812 L 211.636719 276.390625 L 212.777344 276.605469 L 213.742188 276.847656 L 215.417969 277.441406 L 216.914062 278.195312 L 217.589844 278.625 L 218.660156 279.460938 L 219.480469 280.269531 L 220.050781 280.96875 L 220.691406 281.964844 L 221.261719 283.179688 L 221.6875 284.550781 L 221.902344 285.710938 L 216.914062 285.710938 L 216.664062 284.632812 L 216.378906 283.796875 L 215.84375 282.695312 L 215.308594 281.914062 L 214.5625 281.132812 L 213.882812 280.621094 L 212.957031 280.109375 L 212.136719 279.785156 L 211.28125 279.542969 L 210.460938 279.382812 L 208.894531 279.21875 L 207.078125 279.21875 L 206.398438 279.273438 L 205.007812 279.488281 L 204.261719 279.675781 L 203.191406 280.054688 L 202.445312 280.40625 L 201.550781 280.941406 L 200.945312 281.402344 L 200.199219 282.101562 L 199.664062 282.722656 L 199.058594 283.609375 L 198.703125 284.28125 L 198.378906 285.039062 L 198.09375 285.925781 L 197.882812 286.867188 L 197.738281 287.867188 L 197.667969 288.835938 L 197.667969 293.007812 L 197.738281 293.980469 L 197.917969 295.109375 L 198.378906 296.753906 L 199.058594 298.179688 L 199.84375 299.3125 L 200.589844 300.121094 L 201.019531 300.496094 L 201.589844 300.929688 L 202.480469 301.46875 L 203.761719 302.003906 L 204.511719 302.222656 L 205.652344 302.4375 L 206.828125 302.542969 L 208.394531 302.542969 L 209.785156 302.4375 L 210.710938 302.300781 L 211.675781 302.085938 L 212.992188 301.628906 L 213.8125 301.199219 L 214.523438 300.6875 L 215.058594 300.175781 L 215.417969 299.742188 L 215.949219 298.910156 L 216.378906 297.992188 L 216.699219 297.050781 L 216.914062 296.132812 L 221.902344 296.132812 L 221.6875 297.210938 L 221.367188 298.261719 L 221.046875 299.042969 L 220.546875 299.984375 L 219.976562 300.820312 L 219.160156 301.761719 L 218.480469 302.382812 L 217.589844 303.054688 L 216.769531 303.566406 L 215.878906 304.027344 L 214.5625 304.5625 L 213.707031 304.832031 L 212.777344 305.074219 L 211.675781 305.292969 L 210.285156 305.480469 L 208.789062 305.589844 L 207.398438 305.613281 L 205.902344 305.5625 L 204.796875 305.453125 L 203.335938 305.210938 L 201.515625 304.726562 L 200.199219 304.214844 L 199.164062 303.703125 L 198.273438 303.164062 L 197.277344 302.4375 L 195.992188 301.25 L 195.207031 300.335938 L 194.675781 299.582031 L 194.070312 298.53125 L 193.640625 297.589844 L 193.140625 296.082031 L 192.785156 294.167969 L 192.679688 292.6875 Z M 192.679688 288.96875 "/>
<path style=" stroke:none;fill-rule:nonzero;fill:rgb(83.921569%,15.686275%,22.352941%);fill-opacity:1;" d="M 192.679688 149.191406 L 221.902344 149.191406 L 221.902344 162.652344 L 209.722656 162.769531 L 209.722656 274.96875 L 204.824219 274.96875 L 204.824219 162.890625 L 204.75 162.652344 L 192.679688 162.652344 Z M 192.679688 149.191406 "/>
<path style=" stroke:none;fill-rule:nonzero;fill:rgb(96.862745%,70.196078%,16.862745%);fill-opacity:1;" d="M 223.441406 310.609375 L 223.476562 310.601562 L 223.476562 310.480469 L 223.617188 310.210938 L 223.976562 309.839844 L 224.4375 309.53125 L 224.9375 309.292969 L 225.257812 309.167969 L 225.792969 308.984375 L 226.257812 308.855469 L 227.433594 308.582031 L 228.929688 308.332031 L 229.75 308.222656 L 230.675781 308.121094 L 231.996094 308.007812 L 232.601562 307.964844 L 234.453125 307.867188 L 236.554688 307.808594 L 238.871094 307.789062 L 239.941406 307.796875 L 241.402344 307.820312 L 243.398438 307.886719 L 244.539062 307.945312 L 245.429688 308.007812 L 246.355469 308.085938 L 247.496094 308.203125 L 248.566406 308.347656 L 249.421875 308.492188 L 250.277344 308.671875 L 250.988281 308.867188 L 251.597656 309.074219 L 252.128906 309.328125 L 252.449219 309.539062 L 252.664062 309.75 L 247.710938 309.75 L 247.425781 309.539062 L 247.105469 309.375 L 246.570312 309.179688 L 246.035156 309.035156 L 245.5 308.917969 L 244.503906 308.761719 L 243.648438 308.667969 L 242.578125 308.582031 L 241.546875 308.527344 L 240.371094 308.492188 L 239.65625 308.480469 L 237.769531 308.480469 L 236.058594 308.523438 L 235.058594 308.570312 L 234.347656 308.621094 L 233.347656 308.710938 L 232.742188 308.78125 L 232.386719 308.828125 L 231.316406 309.015625 L 230.605469 309.183594 L 230.210938 309.296875 L 229.714844 309.480469 L 229.355469 309.640625 L 228.964844 309.882812 L 228.75 310.0625 L 228.464844 310.46875 L 228.429688 311.550781 L 228.539062 311.78125 L 228.75 312.027344 L 229.035156 312.242188 L 229.464844 312.472656 L 229.890625 312.644531 L 230.640625 312.878906 L 231.28125 313.035156 L 231.78125 313.136719 L 232.742188 313.300781 L 233.132812 313.355469 L 234.0625 313.464844 L 235.023438 313.546875 L 236.199219 313.621094 L 237.089844 313.65625 L 238.515625 313.6875 L 240.332031 313.6875 L 242.472656 313.648438 L 243.828125 313.601562 L 244.753906 313.554688 L 245.359375 313.511719 L 246.105469 313.445312 L 246.640625 313.386719 L 247.140625 313.320312 L 247.746094 313.214844 L 247.746094 311.78125 L 238.945312 311.773438 L 238.945312 311.101562 L 252.628906 311.09375 L 252.664062 313.445312 L 251.917969 313.605469 L 250.988281 313.765625 L 250.097656 313.882812 L 249.171875 313.984375 L 247.855469 314.101562 L 246.785156 314.171875 L 245.144531 314.257812 L 243.648438 314.3125 L 242.082031 314.347656 L 240.691406 314.363281 L 239.050781 314.371094 L 237.589844 314.359375 L 236.019531 314.324219 L 234.773438 314.273438 L 233.632812 314.214844 L 232.492188 314.136719 L 231.066406 314.011719 L 230.140625 313.90625 L 229.179688 313.78125 L 228.214844 313.632812 L 227.359375 313.46875 L 226.789062 313.34375 L 226.21875 313.199219 L 225.613281 313.019531 L 225.042969 312.8125 L 224.617188 312.628906 L 224.226562 312.417969 L 223.941406 312.21875 L 223.65625 311.949219 L 223.511719 311.730469 L 223.441406 311.546875 Z M 223.441406 310.609375 "/>
<path style=" stroke:none;fill-rule:nonzero;fill:rgb(83.921569%,15.686275%,22.352941%);fill-opacity:1;" d="M 223.441406 20.664062 L 252.664062 20.664062 L 252.664062 51.269531 L 240.484375 51.539062 L 240.484375 306.609375 L 235.585938 306.609375 L 235.585938 51.808594 L 235.515625 51.269531 L 223.441406 51.269531 Z M 223.441406 20.664062 "/>
<path style=" stroke:none;fill-rule:nonzero;fill:rgb(14.509804%,36.078431%,60%);fill-opacity:1;" d="M 254.203125 310.652344 L 254.238281 310.648438 L 254.238281 310.503906 L 254.34375 310.273438 L 254.59375 309.984375 L 254.84375 309.785156 L 255.484375 309.433594 L 256.378906 309.089844 L 257.304688 308.824219 L 257.980469 308.667969 L 258.585938 308.546875 L 259.976562 308.324219 L 260.867188 308.210938 L 261.828125 308.109375 L 263.007812 308.007812 L 263.859375 307.945312 L 265.785156 307.851562 L 267.210938 307.808594 L 268.316406 307.789062 L 270.703125 307.789062 L 272.128906 307.8125 L 273.164062 307.84375 L 274.304688 307.890625 L 275.265625 307.945312 L 276.941406 308.078125 L 278.4375 308.246094 L 279.113281 308.34375 L 280.183594 308.53125 L 281.003906 308.710938 L 281.574219 308.867188 L 282.214844 309.089844 L 282.785156 309.359375 L 283.214844 309.667969 L 283.425781 309.925781 L 278.4375 309.925781 L 278.1875 309.683594 L 277.902344 309.5 L 277.367188 309.25 L 276.835938 309.078125 L 276.085938 308.902344 L 275.410156 308.789062 L 274.480469 308.675781 L 273.660156 308.601562 L 272.808594 308.546875 L 271.988281 308.511719 L 270.417969 308.476562 L 268.601562 308.476562 L 267.925781 308.488281 L 266.535156 308.535156 L 265.785156 308.578125 L 264.714844 308.664062 L 263.96875 308.742188 L 263.078125 308.859375 L 262.472656 308.964844 L 261.722656 309.121094 L 261.1875 309.257812 L 260.582031 309.457031 L 260.226562 309.605469 L 259.90625 309.773438 L 259.621094 309.972656 L 259.40625 310.183594 L 259.265625 310.40625 L 259.191406 310.625 L 259.191406 311.554688 L 259.265625 311.773438 L 259.441406 312.023438 L 259.90625 312.390625 L 260.582031 312.710938 L 261.367188 312.964844 L 262.113281 313.144531 L 262.542969 313.226562 L 263.113281 313.324219 L 264.003906 313.445312 L 265.285156 313.566406 L 266.035156 313.613281 L 267.175781 313.660156 L 268.351562 313.683594 L 269.921875 313.683594 L 271.308594 313.660156 L 272.238281 313.628906 L 273.199219 313.582031 L 274.515625 313.480469 L 275.335938 313.382812 L 276.050781 313.269531 L 276.585938 313.15625 L 276.941406 313.058594 L 277.476562 312.871094 L 277.902344 312.667969 L 278.222656 312.457031 L 278.4375 312.253906 L 283.425781 312.253906 L 283.214844 312.492188 L 282.894531 312.726562 L 282.570312 312.902344 L 282.074219 313.113281 L 281.503906 313.300781 L 280.683594 313.511719 L 280.007812 313.648438 L 279.113281 313.800781 L 278.296875 313.914062 L 277.402344 314.015625 L 276.085938 314.136719 L 275.230469 314.195312 L 274.304688 314.25 L 273.199219 314.296875 L 271.808594 314.339844 L 270.3125 314.363281 L 268.921875 314.371094 L 267.425781 314.359375 L 266.320312 314.335938 L 264.859375 314.28125 L 263.042969 314.171875 L 261.722656 314.058594 L 260.6875 313.945312 L 259.796875 313.824219 L 258.800781 313.660156 L 257.515625 313.394531 L 256.734375 313.191406 L 256.199219 313.023438 L 255.59375 312.789062 L 255.164062 312.578125 L 254.667969 312.242188 L 254.308594 311.8125 L 254.203125 311.484375 Z M 254.203125 310.652344 "/>
<path style=" stroke:none;fill-rule:nonzero;fill:rgb(83.921569%,15.686275%,22.352941%);fill-opacity:1;" d="M 254.203125 20.664062 L 283.425781 20.664062 L 283.425781 51.269531 L 271.246094 51.539062 L 271.246094 306.609375 L 266.347656 306.609375 L 266.347656 51.808594 L 266.277344 51.269531 L 254.203125 51.269531 Z M 254.203125 20.664062 "/>
<path style=" stroke:none;fill-rule:nonzero;fill:rgb(6.27451%,58.823529%,28.235294%);fill-opacity:1;" d="M 284.964844 314.363281 L 284.996094 314.359375 L 297.640625 308.53125 L 301.480469 308.53125 L 314.191406 314.371094 L 309.726562 314.371094 L 306.539062 312.847656 L 292.582031 312.847656 L 289.460938 314.363281 L 284.964844 314.363281 L 293.925781 312.214844 L 305.261719 312.210938 L 299.609375 309.484375 L 299.546875 309.480469 L 299.484375 309.496094 L 293.894531 312.210938 L 293.925781 312.214844 Z M 284.964844 314.363281 "/>
<path style=" stroke:none;fill-rule:nonzero;fill:rgb(14.509804%,36.078431%,60%);fill-opacity:1;" d="M 284.964844 304.054688 L 285 304.050781 L 285 303.921875 L 285.109375 303.71875 L 285.355469 303.460938 L 285.605469 303.285156 L 286.25 302.972656 L 287.140625 302.667969 L 288.066406 302.433594 L 288.742188 302.292969 L 289.347656 302.1875 L 290.738281 301.988281 L 291.628906 301.886719 L 292.59375 301.796875 L 293.769531 301.707031 L 294.625 301.652344 L 296.546875 301.566406 L 297.972656 301.53125 L 299.078125 301.515625 L 301.464844 301.515625 L 302.890625 301.535156 L 303.925781 301.5625 L 305.066406 301.605469 L 306.027344 301.652344 L 307.703125 301.769531 L 309.199219 301.921875 L 309.878906 302.003906 L 310.945312 302.171875 L 311.765625 302.332031 L 312.335938 302.46875 L 312.976562 302.667969 L 313.546875 302.90625 L 313.976562 303.179688 L 314.191406 303.410156 L 309.199219 303.410156 L 308.949219 303.195312 L 308.664062 303.03125 L 308.132812 302.8125 L 307.597656 302.65625 L 306.847656 302.5 L 306.171875 302.402344 L 305.242188 302.300781 L 304.425781 302.234375 L 303.570312 302.1875 L 302.75 302.15625 L 301.179688 302.121094 L 299.363281 302.121094 L 298.6875 302.132812 L 297.296875 302.175781 L 296.546875 302.214844 L 295.480469 302.289062 L 294.730469 302.359375 L 293.839844 302.464844 L 293.234375 302.554688 L 292.484375 302.695312 L 291.949219 302.816406 L 291.34375 302.992188 L 290.988281 303.125 L 290.667969 303.277344 L 290.382812 303.453125 L 290.167969 303.636719 L 290.027344 303.835938 L 289.953125 304.027344 L 289.953125 304.855469 L 290.027344 305.046875 L 290.203125 305.273438 L 290.667969 305.597656 L 291.34375 305.878906 L 292.128906 306.105469 L 292.878906 306.265625 L 293.304688 306.339844 L 293.875 306.425781 L 294.765625 306.53125 L 296.050781 306.636719 L 296.796875 306.679688 L 297.9375 306.722656 L 299.113281 306.746094 L 300.683594 306.746094 L 302.070312 306.722656 L 303 306.695312 L 303.960938 306.652344 L 305.28125 306.5625 L 306.097656 306.476562 L 306.8125 306.375 L 307.347656 306.273438 L 307.703125 306.191406 L 308.238281 306.023438 L 308.664062 305.84375 L 308.984375 305.65625 L 309.199219 305.472656 L 314.191406 305.472656 L 313.976562 305.6875 L 313.65625 305.894531 L 313.335938 306.050781 L 312.835938 306.238281 L 312.265625 306.402344 L 311.445312 306.589844 L 310.769531 306.710938 L 309.878906 306.847656 L 309.058594 306.949219 L 308.167969 307.039062 L 306.847656 307.144531 L 305.992188 307.199219 L 305.066406 307.246094 L 303.960938 307.289062 L 302.570312 307.328125 L 301.074219 307.347656 L 299.683594 307.351562 L 298.1875 307.34375 L 297.082031 307.320312 L 295.621094 307.273438 L 293.804688 307.175781 L 292.484375 307.074219 L 291.453125 306.972656 L 290.5625 306.867188 L 289.5625 306.722656 L 288.28125 306.488281 L 287.496094 306.308594 L 286.960938 306.15625 L 286.355469 305.949219 L 285.925781 305.761719 L 285.429688 305.464844 L 285.074219 305.085938 L 284.964844 304.792969 Z M 284.964844 304.054688 "/>
<path style=" stroke:none;fill-rule:nonzero;fill:rgb(83.921569%,15.686275%,22.352941%);fill-opacity:1;" d="M 284.964844 48.875 L 314.191406 48.875 L 314.191406 75.789062 L 302.011719 76.027344 L 302.011719 300.335938 L 297.109375 300.335938 L 297.109375 76.261719 L 297.039062 75.789062 L 284.964844 75.789062 Z M 284.964844 48.875 "/>
<path style=" stroke:none;fill-rule:nonzero;fill:rgb(6.27451%,58.823529%,28.235294%);fill-opacity:1;" d="M 315.726562 314.367188 L 315.757812 314.363281 L 328.402344 309.835938 L 332.246094 309.835938 L 344.953125 314.371094 L 340.488281 314.371094 L 337.300781 313.1875 L 323.347656 313.1875 L 320.222656 314.367188 L 315.726562 314.367188 L 324.6875 312.699219 L 336.023438 312.691406 L 330.371094 310.578125 L 330.308594 310.574219 L 330.246094 310.585938 L 324.65625 312.691406 L 324.6875 312.699219 Z M 315.726562 314.367188 "/>
<path style=" stroke:none;fill-rule:nonzero;fill:rgb(96.862745%,70.196078%,16.862745%);fill-opacity:1;" d="M 315.726562 178.6875 L 315.761719 178.515625 L 315.761719 175.09375 L 315.90625 167.394531 L 316.261719 156.785156 L 316.726562 148.058594 L 317.222656 141.214844 L 317.546875 137.621094 L 318.078125 132.488281 L 318.542969 128.722656 L 319.71875 121.023438 L 321.214844 113.835938 L 322.035156 110.757812 L 322.960938 107.847656 L 324.28125 104.597656 L 324.886719 103.398438 L 326.738281 100.660156 L 328.84375 98.949219 L 331.160156 98.4375 L 332.230469 98.609375 L 333.691406 99.292969 L 335.6875 101.175781 L 336.824219 102.886719 L 337.71875 104.597656 L 338.644531 106.820312 L 339.785156 110.242188 L 340.851562 114.351562 L 341.707031 118.457031 L 342.5625 123.589844 L 343.277344 129.066406 L 343.882812 135.054688 L 344.417969 142.242188 L 344.738281 148.230469 L 344.953125 154.21875 L 339.996094 154.21875 L 339.710938 148.230469 L 339.390625 143.609375 L 338.859375 137.964844 L 338.324219 133.855469 L 337.789062 130.605469 L 336.789062 126.15625 L 335.933594 123.417969 L 334.867188 121.023438 L 333.832031 119.484375 L 332.65625 118.457031 L 331.945312 118.113281 L 330.054688 118.113281 L 328.34375 119.3125 L 327.347656 120.679688 L 326.632812 122.050781 L 325.636719 124.617188 L 325.03125 126.671875 L 324.671875 128.039062 L 323.605469 133.34375 L 322.890625 138.132812 L 322.5 141.386719 L 322 146.519531 L 321.644531 151.140625 L 321.25 157.984375 L 321.039062 163.117188 L 320.753906 174.753906 L 320.71875 205.550781 L 320.824219 212.054688 L 321.039062 219.070312 L 321.324219 225.230469 L 321.75 231.730469 L 322.179688 236.695312 L 322.925781 243.367188 L 323.566406 247.816406 L 324.066406 250.726562 L 325.03125 255.34375 L 325.421875 256.886719 L 326.347656 259.964844 L 327.308594 262.359375 L 328.488281 264.414062 L 329.378906 265.441406 L 330.804688 266.296875 L 332.621094 266.296875 L 334.757812 265.269531 L 336.113281 263.902344 L 337.039062 262.53125 L 337.644531 261.335938 L 338.394531 259.453125 L 338.929688 257.742188 L 339.429688 255.859375 L 340.035156 252.949219 L 340.035156 212.054688 L 331.230469 211.882812 L 331.230469 192.71875 L 344.917969 192.546875 L 344.953125 259.453125 L 344.203125 264.070312 L 343.277344 268.519531 L 342.386719 271.941406 L 341.460938 274.851562 L 340.140625 278.101562 L 339.070312 280.15625 L 337.433594 282.550781 L 335.933594 284.09375 L 334.367188 285.117188 L 332.976562 285.632812 L 331.335938 285.804688 L 329.875 285.460938 L 328.308594 284.433594 L 327.0625 283.066406 L 325.921875 281.355469 L 324.78125 279.128906 L 323.355469 275.535156 L 322.429688 272.628906 L 321.464844 269.035156 L 320.503906 264.757812 L 319.648438 260.136719 L 319.078125 256.542969 L 318.507812 252.4375 L 317.902344 247.304688 L 317.332031 241.484375 L 316.902344 236.179688 L 316.511719 230.191406 L 316.226562 224.546875 L 315.941406 216.84375 L 315.800781 210.683594 L 315.726562 205.382812 Z M 315.726562 178.6875 "/>
<path style=" stroke:none;fill-rule:nonzero;fill:rgb(83.921569%,15.686275%,22.352941%);fill-opacity:1;" d="M 315.726562 286.984375 L 344.953125 286.984375 L 344.953125 289.304688 L 332.773438 289.324219 L 332.773438 308.65625 L 327.871094 308.65625 L 327.871094 289.34375 L 327.800781 289.304688 L 315.726562 289.304688 Z M 315.726562 286.984375 "/>
<path style=" stroke:none;fill-rule:nonzero;fill:rgb(6.27451%,58.823529%,28.235294%);fill-opacity:1;" d="M 346.488281 314.359375 L 346.519531 314.34375 L 359.167969 301.066406 L 363.007812 301.066406 L 375.714844 314.371094 L 371.25 314.371094 L 368.066406 310.898438 L 354.109375 310.898438 L 350.984375 314.359375 L 346.488281 314.359375 L 355.449219 309.460938 L 366.785156 309.449219 L 361.132812 303.242188 L 361.070312 303.226562 L 361.007812 303.265625 L 355.417969 309.449219 L 355.449219 309.460938 Z M 346.488281 314.359375 "/>
<path style=" stroke:none;fill-rule:nonzero;fill:rgb(96.862745%,70.196078%,16.862745%);fill-opacity:1;" d="M 346.488281 151.523438 L 346.527344 151.285156 L 346.527344 146.546875 L 346.667969 135.878906 L 347.023438 121.1875 L 347.488281 109.097656 L 347.988281 99.617188 L 348.308594 94.640625 L 348.84375 87.53125 L 349.304688 82.316406 L 350.480469 71.652344 L 351.976562 61.699219 L 352.796875 57.429688 L 353.726562 53.402344 L 355.042969 48.898438 L 355.648438 47.238281 L 357.503906 43.449219 L 359.605469 41.078125 L 361.921875 40.367188 L 362.992188 40.605469 L 364.453125 41.550781 L 366.449219 44.160156 L 367.589844 46.527344 L 368.480469 48.898438 L 369.40625 51.980469 L 370.546875 56.71875 L 371.617188 62.410156 L 372.472656 68.097656 L 373.328125 75.207031 L 374.039062 82.789062 L 374.644531 91.085938 L 375.179688 101.039062 L 375.5 109.335938 L 375.714844 117.628906 L 370.761719 117.628906 L 370.476562 109.335938 L 370.15625 102.9375 L 369.621094 95.113281 L 369.085938 89.425781 L 368.550781 84.925781 L 367.554688 78.761719 L 366.699219 74.96875 L 365.628906 71.652344 L 364.59375 69.519531 L 363.417969 68.097656 L 362.707031 67.621094 L 360.816406 67.621094 L 359.105469 69.28125 L 358.109375 71.175781 L 357.394531 73.074219 L 356.398438 76.628906 L 355.792969 79.472656 L 355.433594 81.367188 L 354.367188 88.714844 L 353.652344 95.351562 L 353.261719 99.855469 L 352.761719 106.964844 L 352.40625 113.363281 L 352.015625 122.84375 L 351.800781 129.953125 L 351.515625 146.070312 L 351.480469 188.730469 L 351.585938 197.738281 L 351.800781 207.457031 L 352.085938 215.988281 L 352.511719 224.992188 L 352.941406 231.867188 L 353.6875 241.109375 L 354.332031 247.273438 L 354.828125 251.300781 L 355.792969 257.699219 L 356.183594 259.832031 L 357.109375 264.101562 L 358.074219 267.417969 L 359.25 270.261719 L 360.140625 271.683594 L 361.566406 272.867188 L 363.382812 272.867188 L 365.519531 271.445312 L 366.875 269.550781 L 367.800781 267.65625 L 368.40625 265.996094 L 369.15625 263.386719 L 369.691406 261.019531 L 370.191406 258.410156 L 370.796875 254.382812 L 370.796875 197.738281 L 361.992188 197.5 L 361.992188 170.957031 L 375.679688 170.71875 L 375.714844 263.386719 L 374.964844 269.789062 L 374.039062 275.949219 L 373.148438 280.691406 L 372.222656 284.71875 L 370.902344 289.222656 L 369.832031 292.066406 L 368.195312 295.382812 L 366.699219 297.515625 L 365.128906 298.9375 L 363.738281 299.648438 L 362.101562 299.886719 L 360.640625 299.414062 L 359.070312 297.992188 L 357.824219 296.09375 L 356.683594 293.726562 L 355.542969 290.644531 L 354.117188 285.667969 L 353.191406 281.636719 L 352.226562 276.660156 L 351.265625 270.734375 L 350.410156 264.335938 L 349.839844 259.359375 L 349.269531 253.671875 L 348.664062 246.5625 L 348.09375 238.503906 L 347.667969 231.15625 L 347.273438 222.859375 L 346.988281 215.039062 L 346.703125 204.375 L 346.5625 195.84375 L 346.488281 188.496094 Z M 346.488281 151.523438 "/>
<path style=" stroke:none;fill-rule:nonzero;fill:rgb(6.27451%,58.823529%,28.235294%);fill-opacity:1;" d="M 377.253906 314.363281 L 377.285156 314.359375 L 389.929688 307.789062 L 393.769531 307.789062 L 406.476562 314.371094 L 402.011719 314.371094 L 398.828125 312.652344 L 384.871094 312.652344 L 381.75 314.363281 L 377.253906 314.363281 L 386.214844 311.941406 L 397.546875 311.9375 L 391.894531 308.863281 L 391.832031 308.859375 L 391.769531 308.878906 L 386.183594 311.9375 L 386.214844 311.941406 Z M 377.253906 314.363281 "/>
<path style=" stroke:none;fill-rule:nonzero;fill:rgb(14.509804%,36.078431%,60%);fill-opacity:1;" d="M 377.253906 145.078125 L 377.289062 144.816406 L 377.289062 138.542969 L 377.394531 128.613281 L 377.644531 116.066406 L 377.894531 107.441406 L 378.535156 92.019531 L 379.425781 77.121094 L 380.351562 65.621094 L 381.03125 58.824219 L 381.636719 53.597656 L 383.027344 43.925781 L 383.917969 38.960938 L 384.878906 34.515625 L 386.054688 30.074219 L 386.910156 27.457031 L 388.835938 23.277344 L 390.261719 21.445312 L 391.367188 20.664062 L 393.753906 20.664062 L 395.179688 21.707031 L 396.210938 23.015625 L 397.351562 25.105469 L 398.316406 27.457031 L 399.988281 33.210938 L 401.488281 40.527344 L 402.164062 44.710938 L 403.234375 52.8125 L 404.054688 60.652344 L 404.625 67.449219 L 405.265625 77.121094 L 405.835938 88.882812 L 406.261719 102.214844 L 406.476562 113.453125 L 401.488281 113.453125 L 401.238281 102.996094 L 400.953125 94.894531 L 400.417969 84.179688 L 399.882812 76.597656 L 399.132812 69.019531 L 398.457031 64.050781 L 397.53125 59.085938 L 396.710938 55.949219 L 395.855469 53.597656 L 395.035156 52.027344 L 393.46875 50.460938 L 391.652344 50.460938 L 390.972656 50.984375 L 389.582031 53.074219 L 388.835938 54.902344 L 387.765625 58.5625 L 387.015625 61.960938 L 386.125 67.1875 L 385.519531 71.632812 L 384.773438 78.425781 L 384.238281 84.4375 L 383.632812 93.066406 L 383.273438 99.597656 L 382.953125 106.917969 L 382.667969 115.542969 L 382.457031 124.691406 L 382.3125 134.363281 L 382.242188 143.773438 L 382.242188 184.285156 L 382.3125 193.695312 L 382.492188 204.671875 L 382.953125 220.617188 L 383.632812 234.46875 L 384.414062 245.449219 L 385.164062 253.289062 L 385.59375 256.949219 L 386.160156 261.128906 L 387.054688 266.359375 L 388.335938 271.585938 L 389.085938 273.675781 L 390.226562 275.769531 L 391.402344 276.8125 L 392.96875 276.8125 L 394.359375 275.769531 L 395.285156 274.460938 L 396.246094 272.371094 L 397.566406 267.925781 L 398.386719 263.746094 L 399.097656 258.777344 L 399.632812 253.8125 L 399.988281 249.628906 L 400.523438 241.527344 L 400.953125 232.640625 L 401.273438 223.492188 L 401.488281 214.605469 L 406.476562 214.605469 L 406.261719 225.058594 L 405.941406 235.253906 L 405.621094 242.835938 L 405.121094 251.984375 L 404.550781 260.085938 L 403.730469 269.234375 L 403.054688 275.246094 L 402.164062 281.78125 L 401.34375 286.746094 L 400.453125 291.1875 L 399.132812 296.417969 L 398.28125 299.03125 L 397.351562 301.382812 L 396.246094 303.472656 L 394.859375 305.304688 L 393.359375 306.347656 L 391.972656 306.609375 L 390.472656 306.085938 L 389.371094 305.042969 L 387.910156 302.691406 L 386.089844 297.984375 L 384.773438 293.019531 L 383.738281 288.050781 L 382.847656 282.824219 L 381.851562 275.769531 L 380.566406 264.265625 L 379.78125 255.378906 L 379.246094 248.0625 L 378.640625 237.867188 L 378.214844 228.71875 L 377.714844 214.082031 L 377.359375 195.523438 L 377.253906 181.148438 Z M 377.253906 145.078125 "/>
<path style=" stroke:none;fill-rule:nonzero;fill:rgb(6.27451%,58.823529%,28.235294%);fill-opacity:1;" d="M 408.015625 304.800781 L 408.046875 304.765625 L 420.691406 267.875 L 424.53125 267.875 L 437.238281 304.835938 L 432.773438 304.835938 L 429.589844 295.1875 L 415.632812 295.1875 L 412.511719 304.800781 L 408.015625 304.800781 L 416.976562 291.195312 L 428.308594 291.160156 L 422.65625 273.914062 L 422.59375 273.878906 L 422.53125 273.984375 L 416.945312 291.160156 L 416.976562 291.195312 Z M 408.015625 304.800781 "/>
<path style=" stroke:none;fill-rule:nonzero;fill:rgb(14.509804%,36.078431%,60%);fill-opacity:1;" d="M 408.015625 226.066406 L 408.050781 226 L 408.050781 224.421875 L 408.15625 221.925781 L 408.40625 218.769531 L 408.65625 216.597656 L 409.296875 212.71875 L 410.1875 208.972656 L 411.113281 206.078125 L 411.792969 204.371094 L 412.398438 203.054688 L 413.789062 200.625 L 414.679688 199.375 L 415.640625 198.257812 L 416.816406 197.140625 L 417.671875 196.480469 L 419.597656 195.429688 L 421.023438 194.96875 L 422.128906 194.773438 L 424.515625 194.773438 L 425.941406 195.035156 L 426.976562 195.363281 L 428.113281 195.890625 L 429.078125 196.480469 L 430.753906 197.929688 L 432.25 199.769531 L 432.925781 200.820312 L 433.996094 202.859375 L 434.816406 204.832031 L 435.386719 206.539062 L 436.027344 208.972656 L 436.597656 211.929688 L 437.023438 215.285156 L 437.238281 218.109375 L 432.25 218.109375 L 432 215.480469 L 431.714844 213.441406 L 431.179688 210.746094 L 430.644531 208.839844 L 429.898438 206.933594 L 429.21875 205.6875 L 428.292969 204.4375 L 427.472656 203.648438 L 426.617188 203.054688 L 425.796875 202.660156 L 424.230469 202.265625 L 422.414062 202.265625 L 421.734375 202.398438 L 420.347656 202.925781 L 419.597656 203.382812 L 418.527344 204.304688 L 417.78125 205.160156 L 416.890625 206.472656 L 416.28125 207.59375 L 415.535156 209.300781 L 415 210.8125 L 414.394531 212.984375 L 414.039062 214.625 L 413.71875 216.46875 L 413.433594 218.636719 L 413.21875 220.9375 L 413.074219 223.371094 L 413.003906 225.738281 L 413.003906 235.925781 L 413.074219 238.292969 L 413.253906 241.054688 L 413.71875 245.066406 L 414.394531 248.550781 L 415.179688 251.3125 L 415.925781 253.285156 L 416.355469 254.203125 L 416.925781 255.253906 L 417.816406 256.570312 L 419.097656 257.886719 L 419.847656 258.410156 L 420.988281 258.9375 L 422.164062 259.199219 L 423.730469 259.199219 L 425.121094 258.9375 L 426.046875 258.609375 L 427.011719 258.082031 L 428.328125 256.964844 L 429.148438 255.914062 L 429.863281 254.664062 L 430.394531 253.414062 L 430.753906 252.363281 L 431.285156 250.324219 L 431.714844 248.089844 L 432.035156 245.789062 L 432.25 243.554688 L 437.238281 243.554688 L 437.023438 246.183594 L 436.703125 248.746094 L 436.382812 250.652344 L 435.882812 252.953125 L 435.3125 254.992188 L 434.496094 257.292969 L 433.816406 258.804688 L 432.925781 260.449219 L 432.105469 261.699219 L 431.214844 262.816406 L 429.898438 264.132812 L 429.042969 264.789062 L 428.113281 265.378906 L 427.011719 265.90625 L 425.621094 266.367188 L 424.125 266.628906 L 422.734375 266.695312 L 421.238281 266.5625 L 420.132812 266.300781 L 418.671875 265.710938 L 416.851562 264.527344 L 415.535156 263.277344 L 414.5 262.027344 L 413.609375 260.710938 L 412.613281 258.9375 L 411.328125 256.042969 L 410.542969 253.808594 L 410.011719 251.96875 L 409.40625 249.40625 L 408.976562 247.105469 L 408.476562 243.421875 L 408.121094 238.753906 L 408.015625 235.136719 Z M 408.015625 226.066406 "/>
<path style=" stroke:none;fill-rule:nonzero;fill:rgb(83.921569%,15.686275%,22.352941%);fill-opacity:1;" d="M 408.015625 306.015625 L 437.238281 306.015625 L 437.238281 306.910156 L 425.058594 306.917969 L 425.058594 314.371094 L 420.160156 314.371094 L 420.160156 306.925781 L 420.085938 306.910156 L 408.015625 306.910156 Z M 408.015625 306.015625 "/>
<path style=" stroke:none;fill-rule:nonzero;fill:rgb(6.27451%,58.823529%,28.235294%);fill-opacity:1;" d="M 438.777344 306.34375 L 438.808594 306.074219 L 451.453125 20.664062 L 455.292969 20.664062 L 468 306.609375 L 463.535156 306.609375 L 460.351562 231.96875 L 446.394531 231.96875 L 443.273438 306.34375 L 438.777344 306.34375 L 447.738281 201.09375 L 459.070312 200.824219 L 453.421875 67.382812 L 453.359375 67.113281 L 453.296875 67.917969 L 447.707031 200.824219 L 447.738281 201.09375 Z M 438.777344 306.34375 "/>
<path style=" stroke:none;fill-rule:nonzero;fill:rgb(14.509804%,36.078431%,60%);fill-opacity:1;" d="M 438.777344 310.652344 L 438.8125 310.648438 L 438.8125 310.503906 L 438.917969 310.273438 L 439.167969 309.984375 L 439.417969 309.785156 L 440.058594 309.433594 L 440.949219 309.089844 L 441.878906 308.824219 L 442.554688 308.667969 L 443.160156 308.546875 L 444.550781 308.324219 L 445.441406 308.210938 L 446.402344 308.109375 L 447.578125 308.007812 L 448.433594 307.945312 L 450.359375 307.851562 L 451.785156 307.808594 L 452.890625 307.789062 L 455.277344 307.789062 L 456.703125 307.8125 L 457.738281 307.84375 L 458.878906 307.890625 L 459.839844 307.945312 L 461.515625 308.078125 L 463.011719 308.246094 L 463.6875 308.34375 L 464.757812 308.53125 L 465.578125 308.710938 L 466.148438 308.867188 L 466.789062 309.089844 L 467.359375 309.359375 L 467.789062 309.667969 L 468 309.925781 L 463.011719 309.925781 L 462.761719 309.683594 L 462.476562 309.5 L 461.941406 309.25 L 461.40625 309.078125 L 460.660156 308.902344 L 459.980469 308.789062 L 459.054688 308.675781 L 458.234375 308.601562 L 457.378906 308.546875 L 456.5625 308.511719 L 454.992188 308.476562 L 453.175781 308.476562 L 452.496094 308.488281 L 451.109375 308.535156 L 450.359375 308.578125 L 449.289062 308.664062 L 448.542969 308.742188 L 447.652344 308.859375 L 447.046875 308.964844 L 446.296875 309.121094 L 445.761719 309.257812 L 445.15625 309.457031 L 444.800781 309.605469 L 444.480469 309.773438 L 444.195312 309.972656 L 443.980469 310.183594 L 443.835938 310.40625 L 443.765625 310.625 L 443.765625 311.554688 L 443.835938 311.773438 L 444.015625 312.023438 L 444.480469 312.390625 L 445.15625 312.710938 L 445.941406 312.964844 L 446.6875 313.144531 L 447.117188 313.226562 L 447.6875 313.324219 L 448.578125 313.445312 L 449.859375 313.566406 L 450.609375 313.613281 L 451.75 313.660156 L 452.925781 313.683594 L 454.492188 313.683594 L 455.882812 313.660156 L 456.808594 313.628906 L 457.773438 313.582031 L 459.089844 313.480469 L 459.910156 313.382812 L 460.625 313.269531 L 461.160156 313.15625 L 461.515625 313.058594 L 462.050781 312.871094 L 462.476562 312.667969 L 462.796875 312.457031 L 463.011719 312.253906 L 468 312.253906 L 467.789062 312.492188 L 467.464844 312.726562 L 467.144531 312.902344 L 466.648438 313.113281 L 466.078125 313.300781 L 465.257812 313.511719 L 464.578125 313.648438 L 463.6875 313.800781 L 462.867188 313.914062 L 461.976562 314.015625 L 460.660156 314.136719 L 459.804688 314.195312 L 458.878906 314.25 L 457.773438 314.296875 L 456.382812 314.339844 L 454.886719 314.363281 L 453.496094 314.371094 L 452 314.359375 L 450.894531 314.335938 L 449.433594 314.28125 L 447.617188 314.171875 L 446.296875 314.058594 L 445.261719 313.945312 L 444.371094 313.824219 L 443.375 313.660156 L 442.089844 313.394531 L 441.308594 313.191406 L 440.773438 313.023438 L 440.167969 312.789062 L 439.738281 312.578125 L 439.238281 312.242188 L 438.882812 311.8125 L 438.777344 311.484375 Z M 438.777344 310.652344 "/>
<path style=" stroke:none;fill-rule:nonzero;fill:rgb(6.27451%,58.823529%,28.235294%);fill-opacity:1;" d="M 469.539062 306.34375 L 469.570312 306.074219 L 482.214844 20.664062 L 486.054688 20.664062 L 498.761719 306.609375 L 494.296875 306.609375 L 491.113281 231.96875 L 477.15625 231.96875 L 474.035156 306.34375 L 469.539062 306.34375 L 478.5 201.09375 L 489.832031 200.824219 L 484.183594 67.382812 L 484.121094 67.113281 L 484.058594 67.917969 L 478.46875 200.824219 L 478.5 201.09375 Z M 469.539062 306.34375 "/>
<path style=" stroke:none;fill-rule:nonzero;fill:rgb(96.862745%,70.196078%,16.862745%);fill-opacity:1;" d="M 469.539062 310.609375 L 469.574219 310.601562 L 469.574219 310.480469 L 469.71875 310.210938 L 470.074219 309.839844 L 470.535156 309.53125 L 471.035156 309.292969 L 471.355469 309.167969 L 471.890625 308.984375 L 472.355469 308.855469 L 473.53125 308.582031 L 475.027344 308.332031 L 475.847656 308.222656 L 476.773438 308.121094 L 478.09375 308.007812 L 478.699219 307.964844 L 480.550781 307.867188 L 482.65625 307.808594 L 484.972656 307.789062 L 486.039062 307.796875 L 487.5 307.820312 L 489.496094 307.886719 L 490.636719 307.945312 L 491.527344 308.007812 L 492.457031 308.085938 L 493.59375 308.203125 L 494.664062 308.347656 L 495.519531 308.492188 L 496.375 308.671875 L 497.089844 308.867188 L 497.695312 309.074219 L 498.230469 309.328125 L 498.550781 309.539062 L 498.761719 309.75 L 493.808594 309.75 L 493.523438 309.539062 L 493.203125 309.375 L 492.667969 309.179688 L 492.132812 309.035156 L 491.601562 308.917969 L 490.601562 308.761719 L 489.746094 308.667969 L 488.675781 308.582031 L 487.644531 308.527344 L 486.46875 308.492188 L 485.753906 308.480469 L 483.867188 308.480469 L 482.15625 308.523438 L 481.15625 308.570312 L 480.445312 308.621094 L 479.445312 308.710938 L 478.839844 308.78125 L 478.484375 308.828125 L 477.414062 309.015625 L 476.703125 309.183594 L 476.3125 309.296875 L 475.8125 309.480469 L 475.457031 309.640625 L 475.0625 309.882812 L 474.847656 310.0625 L 474.5625 310.46875 L 474.527344 311.550781 L 474.636719 311.78125 L 474.847656 312.027344 L 475.132812 312.242188 L 475.5625 312.472656 L 475.988281 312.644531 L 476.738281 312.878906 L 477.378906 313.035156 L 477.878906 313.136719 L 478.839844 313.300781 L 479.234375 313.355469 L 480.160156 313.464844 L 481.121094 313.546875 L 482.296875 313.621094 L 483.1875 313.65625 L 484.613281 313.6875 L 486.433594 313.6875 L 488.570312 313.648438 L 489.925781 313.601562 L 490.851562 313.554688 L 491.457031 313.511719 L 492.207031 313.445312 L 492.742188 313.386719 L 493.238281 313.320312 L 493.84375 313.214844 L 493.84375 311.78125 L 485.042969 311.773438 L 485.042969 311.101562 L 498.726562 311.09375 L 498.761719 313.445312 L 498.015625 313.605469 L 497.089844 313.765625 L 496.199219 313.882812 L 495.269531 313.984375 L 493.953125 314.101562 L 492.882812 314.171875 L 491.242188 314.257812 L 489.746094 314.3125 L 488.179688 314.347656 L 486.789062 314.363281 L 485.148438 314.371094 L 483.6875 314.359375 L 482.121094 314.324219 L 480.871094 314.273438 L 479.730469 314.214844 L 478.589844 314.136719 L 477.164062 314.011719 L 476.238281 313.90625 L 475.277344 313.78125 L 474.316406 313.632812 L 473.460938 313.46875 L 472.890625 313.34375 L 472.320312 313.199219 L 471.714844 313.019531 L 471.144531 312.8125 L 470.714844 312.628906 L 470.324219 312.417969 L 470.039062 312.21875 L 469.753906 311.949219 L 469.609375 311.730469 L 469.539062 311.546875 Z M 469.539062 310.609375 "/>
<path style=" stroke:none;fill-rule:nonzero;fill:rgb(6.27451%,58.823529%,28.235294%);fill-opacity:1;" d="M 500.300781 306.34375 L 500.332031 306.074219 L 512.976562 20.664062 L 516.816406 20.664062 L 529.527344 306.609375 L 525.0625 306.609375 L 521.875 231.96875 L 507.917969 231.96875 L 504.796875 306.34375 L 500.300781 306.34375 L 509.261719 201.09375 L 520.597656 200.824219 L 514.945312 67.382812 L 514.882812 67.113281 L 514.820312 67.917969 L 509.230469 200.824219 L 509.261719 201.09375 Z M 500.300781 306.34375 "/>
<path style=" stroke:none;fill-rule:nonzero;fill:rgb(14.509804%,36.078431%,60%);fill-opacity:1;" d="M 500.300781 310.652344 L 500.335938 310.648438 L 500.335938 310.503906 L 500.445312 310.273438 L 500.695312 309.984375 L 500.941406 309.785156 L 501.585938 309.433594 L 502.476562 309.089844 L 503.402344 308.824219 L 504.078125 308.667969 L 504.683594 308.546875 L 506.074219 308.324219 L 506.964844 308.210938 L 507.929688 308.109375 L 509.105469 308.007812 L 509.960938 307.945312 L 511.882812 307.851562 L 513.308594 307.808594 L 514.414062 307.789062 L 516.800781 307.789062 L 518.226562 307.8125 L 519.261719 307.84375 L 520.402344 307.890625 L 521.363281 307.945312 L 523.039062 308.078125 L 524.535156 308.246094 L 525.214844 308.34375 L 526.28125 308.53125 L 527.101562 308.710938 L 527.671875 308.867188 L 528.3125 309.089844 L 528.882812 309.359375 L 529.3125 309.667969 L 529.527344 309.925781 L 524.535156 309.925781 L 524.285156 309.683594 L 524 309.5 L 523.46875 309.25 L 522.933594 309.078125 L 522.183594 308.902344 L 521.507812 308.789062 L 520.582031 308.675781 L 519.761719 308.601562 L 518.90625 308.546875 L 518.085938 308.511719 L 516.515625 308.476562 L 514.699219 308.476562 L 514.023438 308.488281 L 512.632812 308.535156 L 511.882812 308.578125 L 510.816406 308.664062 L 510.066406 308.742188 L 509.175781 308.859375 L 508.570312 308.964844 L 507.820312 309.121094 L 507.285156 309.257812 L 506.679688 309.457031 L 506.324219 309.605469 L 506.003906 309.773438 L 505.71875 309.972656 L 505.503906 310.183594 L 505.363281 310.40625 L 505.289062 310.625 L 505.289062 311.554688 L 505.363281 311.773438 L 505.539062 312.023438 L 506.003906 312.390625 L 506.679688 312.710938 L 507.464844 312.964844 L 508.214844 313.144531 L 508.640625 313.226562 L 509.210938 313.324219 L 510.101562 313.445312 L 511.386719 313.566406 L 512.132812 313.613281 L 513.273438 313.660156 L 514.449219 313.683594 L 516.019531 313.683594 L 517.410156 313.660156 L 518.335938 313.628906 L 519.296875 313.582031 L 520.617188 313.480469 L 521.433594 313.382812 L 522.148438 313.269531 L 522.683594 313.15625 L 523.039062 313.058594 L 523.574219 312.871094 L 524 312.667969 L 524.320312 312.457031 L 524.535156 312.253906 L 529.527344 312.253906 L 529.3125 312.492188 L 528.992188 312.726562 L 528.671875 312.902344 L 528.171875 313.113281 L 527.601562 313.300781 L 526.78125 313.511719 L 526.105469 313.648438 L 525.214844 313.800781 L 524.394531 313.914062 L 523.503906 314.015625 L 522.183594 314.136719 L 521.328125 314.195312 L 520.402344 314.25 L 519.296875 314.296875 L 517.90625 314.339844 L 516.410156 314.363281 L 515.019531 314.371094 L 513.523438 314.359375 L 512.417969 314.335938 L 510.957031 314.28125 L 509.140625 314.171875 L 507.820312 314.058594 L 506.789062 313.945312 L 505.898438 313.824219 L 504.898438 313.660156 L 503.617188 313.394531 L 502.832031 313.191406 L 502.296875 313.023438 L 501.691406 312.789062 L 501.261719 312.578125 L 500.765625 312.242188 L 500.410156 311.8125 L 500.300781 311.484375 Z M 500.300781 310.652344 "/>
<path style=" stroke:none;fill-rule:nonzero;fill:rgb(6.27451%,58.823529%,28.235294%);fill-opacity:1;" d="M 531.0625 308.277344 L 531.09375 308.234375 L 543.738281 261.117188 L 547.582031 261.117188 L 560.289062 308.324219 L 555.824219 308.324219 L 552.636719 296 L 538.683594 296 L 535.558594 308.277344 L 531.0625 308.277344 L 540.023438 290.902344 L 551.359375 290.859375 L 545.707031 268.828125 L 545.644531 268.785156 L 545.582031 268.917969 L 539.992188 290.859375 L 540.023438 290.902344 Z M 531.0625 308.277344 "/>
<path style=" stroke:none;fill-rule:nonzero;fill:rgb(14.509804%,36.078431%,60%);fill-opacity:1;" d="M 531.0625 310.304688 L 531.097656 310.304688 L 531.097656 310.261719 L 531.207031 310.199219 L 531.457031 310.117188 L 531.707031 310.0625 L 532.347656 309.960938 L 533.238281 309.867188 L 534.164062 309.792969 L 534.839844 309.75 L 535.449219 309.714844 L 536.835938 309.652344 L 537.726562 309.621094 L 538.691406 309.589844 L 539.867188 309.5625 L 540.722656 309.546875 L 542.644531 309.519531 L 544.070312 309.507812 L 545.175781 309.5 L 547.566406 309.5 L 548.988281 309.507812 L 550.023438 309.515625 L 551.164062 309.53125 L 552.125 309.546875 L 553.800781 309.582031 L 555.296875 309.628906 L 555.976562 309.65625 L 557.042969 309.710938 L 557.863281 309.761719 L 558.433594 309.804688 L 559.074219 309.867188 L 559.644531 309.941406 L 560.074219 310.027344 L 560.289062 310.101562 L 555.296875 310.101562 L 555.050781 310.03125 L 554.765625 309.980469 L 554.230469 309.910156 L 553.695312 309.863281 L 552.945312 309.8125 L 552.269531 309.78125 L 551.34375 309.75 L 550.523438 309.730469 L 549.667969 309.714844 L 548.847656 309.703125 L 547.28125 309.695312 L 545.460938 309.695312 L 544.785156 309.699219 L 543.394531 309.710938 L 542.644531 309.722656 L 541.578125 309.746094 L 540.828125 309.769531 L 539.9375 309.800781 L 539.332031 309.832031 L 538.582031 309.875 L 538.050781 309.914062 L 537.441406 309.96875 L 537.085938 310.011719 L 536.765625 310.058594 L 536.480469 310.113281 L 536.265625 310.171875 L 536.125 310.234375 L 536.054688 310.296875 L 536.054688 310.558594 L 536.125 310.617188 L 536.300781 310.6875 L 536.765625 310.792969 L 537.441406 310.882812 L 538.226562 310.953125 L 538.976562 311.003906 L 539.402344 311.027344 L 539.972656 311.054688 L 540.863281 311.085938 L 542.148438 311.121094 L 542.894531 311.132812 L 544.035156 311.148438 L 545.210938 311.152344 L 546.78125 311.152344 L 548.171875 311.148438 L 549.097656 311.140625 L 550.058594 311.125 L 551.378906 311.097656 L 552.199219 311.070312 L 552.910156 311.039062 L 553.445312 311.007812 L 553.800781 310.980469 L 554.335938 310.925781 L 554.765625 310.871094 L 555.085938 310.808594 L 555.296875 310.753906 L 560.289062 310.753906 L 560.074219 310.820312 L 559.753906 310.886719 L 559.433594 310.933594 L 558.933594 310.992188 L 558.363281 311.046875 L 557.542969 311.105469 L 556.867188 311.144531 L 555.976562 311.1875 L 555.15625 311.21875 L 554.265625 311.246094 L 552.945312 311.28125 L 552.089844 311.296875 L 551.164062 311.3125 L 550.058594 311.328125 L 548.667969 311.339844 L 547.171875 311.34375 L 545.78125 311.347656 L 544.285156 311.34375 L 543.179688 311.335938 L 541.71875 311.320312 L 539.902344 311.289062 L 538.582031 311.257812 L 537.550781 311.226562 L 536.660156 311.191406 L 535.660156 311.148438 L 534.378906 311.074219 L 533.59375 311.015625 L 533.058594 310.96875 L 532.453125 310.902344 L 532.027344 310.84375 L 531.527344 310.75 L 531.171875 310.628906 L 531.0625 310.539062 Z M 531.0625 310.304688 "/>
<path style=" stroke:none;fill-rule:nonzero;fill:rgb(96.862745%,70.196078%,16.862745%);fill-opacity:1;" d="M 531.0625 226.03125 L 531.097656 225.980469 L 531.097656 224.894531 L 531.242188 222.457031 L 531.597656 219.101562 L 532.0625 216.339844 L 532.558594 214.171875 L 532.882812 213.035156 L 533.414062 211.410156 L 533.878906 210.21875 L 535.054688 207.78125 L 536.550781 205.507812 L 537.371094 204.53125 L 538.296875 203.613281 L 539.617188 202.582031 L 540.222656 202.203125 L 542.078125 201.335938 L 544.179688 200.796875 L 546.496094 200.632812 L 547.566406 200.6875 L 549.027344 200.902344 L 551.023438 201.5 L 552.164062 202.039062 L 553.054688 202.582031 L 553.980469 203.285156 L 555.121094 204.371094 L 556.1875 205.667969 L 557.042969 206.96875 L 557.898438 208.59375 L 558.613281 210.328125 L 559.21875 212.222656 L 559.753906 214.496094 L 560.074219 216.394531 L 560.289062 218.289062 L 555.335938 218.289062 L 555.050781 216.394531 L 554.726562 214.929688 L 554.195312 213.144531 L 553.660156 211.84375 L 553.125 210.816406 L 552.125 209.40625 L 551.269531 208.539062 L 550.203125 207.78125 L 549.167969 207.292969 L 547.992188 206.96875 L 547.28125 206.859375 L 545.390625 206.859375 L 543.679688 207.238281 L 542.683594 207.671875 L 541.96875 208.105469 L 540.972656 208.917969 L 540.367188 209.570312 L 540.007812 210.003906 L 538.941406 211.679688 L 538.226562 213.199219 L 537.835938 214.226562 L 537.335938 215.851562 L 536.980469 217.3125 L 536.585938 219.480469 L 536.375 221.105469 L 536.089844 224.789062 L 536.054688 234.535156 L 536.160156 236.59375 L 536.375 238.8125 L 536.660156 240.765625 L 537.085938 242.820312 L 537.515625 244.394531 L 538.261719 246.503906 L 538.90625 247.914062 L 539.402344 248.832031 L 540.367188 250.296875 L 540.757812 250.785156 L 541.683594 251.757812 L 542.644531 252.515625 L 543.824219 253.167969 L 544.714844 253.492188 L 546.140625 253.761719 L 547.957031 253.761719 L 550.09375 253.4375 L 551.449219 253.003906 L 552.375 252.570312 L 552.980469 252.191406 L 553.730469 251.59375 L 554.265625 251.054688 L 554.765625 250.457031 L 555.371094 249.539062 L 555.371094 236.59375 L 546.566406 236.539062 L 546.566406 230.472656 L 560.253906 230.417969 L 560.289062 251.59375 L 559.539062 253.058594 L 558.613281 254.464844 L 557.722656 255.550781 L 556.796875 256.46875 L 555.476562 257.5 L 554.40625 258.148438 L 552.769531 258.90625 L 551.269531 259.394531 L 549.703125 259.71875 L 548.3125 259.882812 L 546.671875 259.9375 L 545.210938 259.828125 L 543.644531 259.503906 L 542.398438 259.070312 L 541.257812 258.527344 L 540.117188 257.824219 L 538.691406 256.6875 L 537.765625 255.765625 L 536.800781 254.628906 L 535.839844 253.273438 L 534.984375 251.8125 L 534.414062 250.675781 L 533.84375 249.375 L 533.238281 247.75 L 532.667969 245.910156 L 532.238281 244.230469 L 531.847656 242.335938 L 531.5625 240.546875 L 531.277344 238.109375 L 531.136719 236.160156 L 531.0625 234.480469 Z M 531.0625 226.03125 "/>
<path style=" stroke:none;fill-rule:nonzero;fill:rgb(83.921569%,15.686275%,22.352941%);fill-opacity:1;" d="M 531.0625 312.527344 L 560.289062 312.527344 L 560.289062 312.722656 L 548.109375 312.726562 L 548.109375 314.371094 L 543.207031 314.371094 L 543.207031 312.726562 L 543.136719 312.722656 L 531.0625 312.722656 Z M 531.0625 312.527344 "/>
<path style=" stroke:none;fill-rule:nonzero;fill:rgb(6.27451%,58.823529%,28.235294%);fill-opacity:1;" d="M 561.824219 314.367188 L 561.855469 314.367188 L 574.503906 311.753906 L 578.34375 311.753906 L 591.050781 314.371094 L 586.585938 314.371094 L 583.402344 313.6875 L 569.445312 313.6875 L 566.320312 314.367188 L 561.824219 314.367188 L 570.785156 313.40625 L 582.121094 313.402344 L 576.46875 312.179688 L 576.40625 312.179688 L 576.34375 312.1875 L 570.753906 313.402344 L 570.785156 313.40625 Z M 561.824219 314.367188 "/>
<path style=" stroke:none;fill-rule:nonzero;fill:rgb(96.862745%,70.196078%,16.862745%);fill-opacity:1;" d="M 561.824219 208.160156 L 561.863281 208.078125 L 561.863281 206.507812 L 562.003906 202.964844 L 562.359375 198.085938 L 562.824219 194.074219 L 563.324219 190.925781 L 563.644531 189.273438 L 564.179688 186.914062 L 564.640625 185.183594 L 565.816406 181.644531 L 567.3125 178.339844 L 568.132812 176.921875 L 569.0625 175.585938 L 570.378906 174.089844 L 570.984375 173.539062 L 572.839844 172.28125 L 574.941406 171.492188 L 577.257812 171.257812 L 578.328125 171.335938 L 579.789062 171.648438 L 581.785156 172.515625 L 582.925781 173.300781 L 583.816406 174.089844 L 584.742188 175.113281 L 585.882812 176.6875 L 586.953125 178.574219 L 587.808594 180.460938 L 588.664062 182.824219 L 589.375 185.339844 L 589.980469 188.09375 L 590.515625 191.398438 L 590.835938 194.152344 L 591.050781 196.90625 L 586.097656 196.90625 L 585.8125 194.152344 L 585.492188 192.027344 L 584.957031 189.433594 L 584.421875 187.542969 L 583.886719 186.050781 L 582.890625 184.003906 L 582.035156 182.746094 L 580.964844 181.644531 L 579.929688 180.933594 L 578.753906 180.460938 L 578.042969 180.304688 L 576.152344 180.304688 L 574.441406 180.855469 L 573.445312 181.484375 L 572.730469 182.113281 L 571.734375 183.296875 L 571.128906 184.238281 L 570.769531 184.867188 L 569.703125 187.308594 L 568.988281 189.511719 L 568.597656 191.003906 L 568.097656 193.367188 L 567.742188 195.492188 L 567.351562 198.636719 L 567.136719 201 L 566.851562 206.347656 L 566.816406 220.511719 L 566.921875 223.5 L 567.136719 226.726562 L 567.421875 229.558594 L 567.847656 232.550781 L 568.277344 234.832031 L 569.023438 237.898438 L 569.667969 239.945312 L 570.164062 241.28125 L 571.128906 243.40625 L 571.519531 244.117188 L 572.445312 245.53125 L 573.410156 246.632812 L 574.585938 247.578125 L 575.476562 248.050781 L 576.902344 248.441406 L 578.71875 248.441406 L 580.855469 247.972656 L 582.210938 247.339844 L 583.136719 246.710938 L 583.742188 246.160156 L 584.492188 245.296875 L 585.027344 244.507812 L 585.527344 243.644531 L 586.132812 242.304688 L 586.132812 223.5 L 577.328125 223.421875 L 577.328125 214.609375 L 591.015625 214.53125 L 591.050781 245.296875 L 590.300781 247.421875 L 589.375 249.464844 L 588.484375 251.039062 L 587.558594 252.378906 L 586.238281 253.871094 L 585.167969 254.816406 L 583.53125 255.917969 L 582.035156 256.625 L 580.464844 257.097656 L 579.074219 257.335938 L 577.4375 257.414062 L 575.976562 257.253906 L 574.40625 256.785156 L 573.160156 256.152344 L 572.019531 255.367188 L 570.878906 254.34375 L 569.453125 252.691406 L 568.527344 251.355469 L 567.5625 249.703125 L 566.601562 247.734375 L 565.746094 245.609375 L 565.175781 243.957031 L 564.605469 242.070312 L 564 239.710938 L 563.429688 237.035156 L 563.003906 234.59375 L 562.609375 231.839844 L 562.324219 229.246094 L 562.039062 225.703125 L 561.898438 222.871094 L 561.824219 220.433594 Z M 561.824219 208.160156 "/>
<path style=" stroke:none;fill-rule:nonzero;fill:rgb(83.921569%,15.686275%,22.352941%);fill-opacity:1;" d="M 561.824219 258.59375 L 591.050781 258.59375 L 591.050781 264.15625 L 578.871094 264.207031 L 578.871094 310.574219 L 573.96875 310.574219 L 573.96875 264.253906 L 573.898438 264.15625 L 561.824219 264.15625 Z M 561.824219 258.59375 "/>
<path style=" stroke:none;fill-rule:nonzero;fill:rgb(6.27451%,58.823529%,28.235294%);fill-opacity:1;" d="M 592.589844 314.367188 L 592.621094 314.367188 L 605.265625 312.480469 L 609.105469 312.480469 L 621.8125 314.371094 L 617.347656 314.371094 L 614.164062 313.878906 L 600.207031 313.878906 L 597.085938 314.367188 L 592.589844 314.367188 L 601.550781 313.671875 L 612.882812 313.671875 L 607.230469 312.789062 L 607.167969 312.789062 L 607.105469 312.792969 L 601.519531 313.671875 L 601.550781 313.671875 Z M 592.589844 314.367188 "/>
<path style=" stroke:none;fill-rule:nonzero;fill:rgb(14.509804%,36.078431%,60%);fill-opacity:1;" d="M 592.589844 226.449219 L 592.625 226.390625 L 592.625 225.003906 L 592.730469 222.804688 L 592.980469 220.027344 L 593.230469 218.117188 L 593.871094 214.707031 L 594.761719 211.410156 L 595.6875 208.863281 L 596.367188 207.359375 L 596.972656 206.203125 L 598.363281 204.0625 L 599.253906 202.964844 L 600.214844 201.980469 L 601.390625 201 L 602.246094 200.421875 L 604.171875 199.496094 L 605.597656 199.089844 L 606.703125 198.917969 L 609.089844 198.917969 L 610.515625 199.148438 L 611.546875 199.4375 L 612.6875 199.898438 L 613.652344 200.421875 L 615.324219 201.691406 L 616.824219 203.3125 L 617.5 204.238281 L 618.570312 206.03125 L 619.390625 207.765625 L 619.960938 209.269531 L 620.601562 211.410156 L 621.171875 214.011719 L 621.597656 216.960938 L 621.8125 219.449219 L 616.824219 219.449219 L 616.574219 217.136719 L 616.289062 215.34375 L 615.753906 212.972656 L 615.21875 211.292969 L 614.472656 209.617188 L 613.792969 208.519531 L 612.867188 207.417969 L 612.046875 206.726562 L 611.191406 206.203125 L 610.371094 205.855469 L 608.804688 205.511719 L 606.988281 205.511719 L 606.308594 205.625 L 604.917969 206.089844 L 604.171875 206.492188 L 603.101562 207.304688 L 602.351562 208.054688 L 601.460938 209.210938 L 600.855469 210.195312 L 600.109375 211.699219 L 599.574219 213.027344 L 598.96875 214.9375 L 598.609375 216.382812 L 598.289062 218.003906 L 598.003906 219.914062 L 597.792969 221.9375 L 597.648438 224.078125 L 597.578125 226.160156 L 597.578125 235.125 L 597.648438 237.207031 L 597.828125 239.636719 L 598.289062 243.164062 L 598.96875 246.230469 L 599.75 248.65625 L 600.5 250.394531 L 600.929688 251.203125 L 601.5 252.128906 L 602.390625 253.285156 L 603.671875 254.441406 L 604.421875 254.90625 L 605.5625 255.367188 L 606.738281 255.597656 L 608.304688 255.597656 L 609.695312 255.367188 L 610.621094 255.078125 L 611.585938 254.617188 L 612.902344 253.632812 L 613.722656 252.707031 L 614.433594 251.609375 L 614.96875 250.507812 L 615.324219 249.582031 L 615.859375 247.789062 L 616.289062 245.824219 L 616.609375 243.800781 L 616.824219 241.832031 L 621.8125 241.832031 L 621.597656 244.148438 L 621.277344 246.402344 L 620.957031 248.078125 L 620.457031 250.105469 L 619.886719 251.898438 L 619.066406 253.921875 L 618.390625 255.25 L 617.5 256.699219 L 616.679688 257.796875 L 615.789062 258.78125 L 614.472656 259.9375 L 613.617188 260.515625 L 612.6875 261.035156 L 611.585938 261.5 L 610.195312 261.902344 L 608.695312 262.132812 L 607.308594 262.191406 L 605.808594 262.078125 L 604.707031 261.84375 L 603.246094 261.324219 L 601.425781 260.285156 L 600.109375 259.183594 L 599.074219 258.085938 L 598.183594 256.929688 L 597.1875 255.367188 L 595.902344 252.824219 L 595.117188 250.855469 L 594.585938 249.238281 L 593.976562 246.980469 L 593.550781 244.957031 L 593.050781 241.71875 L 592.695312 237.609375 L 592.589844 234.429688 Z M 592.589844 226.449219 "/>
<path style=" stroke:none;fill-rule:nonzero;fill:rgb(96.862745%,70.196078%,16.862745%);fill-opacity:1;" d="M 592.589844 310.222656 L 592.625 310.21875 L 592.625 310.183594 L 592.765625 310.105469 L 593.121094 310 L 593.585938 309.910156 L 594.085938 309.84375 L 594.40625 309.808594 L 594.941406 309.753906 L 595.402344 309.71875 L 596.578125 309.640625 L 598.078125 309.566406 L 598.894531 309.535156 L 599.824219 309.507812 L 601.140625 309.472656 L 601.746094 309.460938 L 603.601562 309.433594 L 605.703125 309.417969 L 608.019531 309.410156 L 609.089844 309.414062 L 610.550781 309.421875 L 612.546875 309.4375 L 613.6875 309.457031 L 614.578125 309.472656 L 615.503906 309.496094 L 616.644531 309.53125 L 617.714844 309.570312 L 618.570312 309.613281 L 619.425781 309.664062 L 620.136719 309.71875 L 620.742188 309.78125 L 621.277344 309.851562 L 621.597656 309.914062 L 621.8125 309.972656 L 616.859375 309.972656 L 616.574219 309.914062 L 616.253906 309.867188 L 615.71875 309.808594 L 615.183594 309.769531 L 614.648438 309.734375 L 613.652344 309.691406 L 612.796875 309.664062 L 611.726562 309.640625 L 610.691406 309.625 L 609.515625 309.613281 L 608.804688 309.609375 L 606.914062 309.609375 L 605.203125 309.621094 L 604.207031 309.636719 L 603.492188 309.648438 L 602.496094 309.675781 L 601.890625 309.695312 L 601.535156 309.710938 L 600.464844 309.761719 L 599.75 309.8125 L 599.359375 309.84375 L 598.859375 309.898438 L 598.503906 309.941406 L 598.113281 310.011719 L 597.898438 310.0625 L 597.613281 310.179688 L 597.578125 310.492188 L 597.683594 310.558594 L 597.898438 310.628906 L 598.183594 310.691406 L 598.609375 310.757812 L 599.039062 310.804688 L 599.789062 310.875 L 600.429688 310.917969 L 600.929688 310.949219 L 601.890625 310.996094 L 602.28125 311.007812 L 603.207031 311.039062 L 604.171875 311.066406 L 605.347656 311.085938 L 606.238281 311.097656 L 607.664062 311.105469 L 609.480469 311.105469 L 611.621094 311.09375 L 612.972656 311.082031 L 613.902344 311.066406 L 614.507812 311.054688 L 615.253906 311.035156 L 615.789062 311.019531 L 616.289062 311 L 616.894531 310.96875 L 616.894531 310.558594 L 608.089844 310.554688 L 608.089844 310.363281 L 621.777344 310.359375 L 621.8125 311.035156 L 621.0625 311.082031 L 620.136719 311.128906 L 619.246094 311.160156 L 618.320312 311.191406 L 617 311.222656 L 615.933594 311.246094 L 614.292969 311.269531 L 612.796875 311.285156 L 611.226562 311.292969 L 609.835938 311.300781 L 608.199219 311.300781 L 606.738281 311.296875 L 605.167969 311.289062 L 603.921875 311.273438 L 602.78125 311.257812 L 601.640625 311.234375 L 600.214844 311.199219 L 599.289062 311.167969 L 598.328125 311.132812 L 597.363281 311.089844 L 596.507812 311.042969 L 595.9375 311.007812 L 595.367188 310.964844 L 594.761719 310.914062 L 594.191406 310.855469 L 593.765625 310.800781 L 593.371094 310.742188 L 593.085938 310.683594 L 592.800781 310.605469 L 592.660156 310.542969 L 592.589844 310.488281 Z M 592.589844 310.222656 "/>
<path style=" stroke:none;fill-rule:nonzero;fill:rgb(83.921569%,15.686275%,22.352941%);fill-opacity:1;" d="M 592.589844 263.371094 L 621.8125 263.371094 L 621.8125 268.175781 L 609.632812 268.214844 L 609.632812 308.230469 L 604.734375 308.230469 L 604.734375 268.257812 L 604.660156 268.175781 L 592.589844 268.175781 Z M 592.589844 263.371094 "/>
<path style=" stroke:none;fill-rule:nonzero;fill:rgb(6.27451%,58.823529%,28.235294%);fill-opacity:1;" d="M 623.351562 314.332031 L 623.382812 314.292969 L 636.027344 272.761719 L 639.867188 272.761719 L 652.574219 314.371094 L 648.109375 314.371094 L 644.925781 303.507812 L 630.96875 303.507812 L 627.847656 314.332031 L 623.351562 314.332031 L 632.3125 299.015625 L 643.644531 298.976562 L 637.992188 279.558594 L 637.929688 279.519531 L 637.867188 279.636719 L 632.28125 298.976562 L 632.3125 299.015625 Z M 623.351562 314.332031 "/>
<path style=" stroke:none;fill-rule:nonzero;fill:rgb(14.509804%,36.078431%,60%);fill-opacity:1;" d="M 623.351562 181.601562 L 623.386719 181.453125 L 623.386719 177.960938 L 623.492188 172.429688 L 623.742188 165.4375 L 623.992188 160.632812 L 624.632812 152.042969 L 625.523438 143.746094 L 626.453125 137.339844 L 627.128906 133.554688 L 627.734375 130.640625 L 629.125 125.253906 L 630.015625 122.488281 L 630.976562 120.011719 L 632.152344 117.539062 L 633.007812 116.082031 L 634.933594 113.75 L 636.359375 112.734375 L 637.464844 112.296875 L 639.851562 112.296875 L 641.277344 112.878906 L 642.3125 113.605469 L 643.449219 114.769531 L 644.414062 116.082031 L 646.089844 119.285156 L 647.585938 123.359375 L 648.261719 125.691406 L 649.332031 130.203125 L 650.152344 134.574219 L 650.722656 138.359375 L 651.363281 143.746094 L 651.933594 150.296875 L 652.359375 157.722656 L 652.574219 163.984375 L 647.585938 163.984375 L 647.335938 158.160156 L 647.050781 153.644531 L 646.515625 147.675781 L 645.980469 143.453125 L 645.234375 139.230469 L 644.554688 136.464844 L 643.628906 133.699219 L 642.808594 131.953125 L 641.953125 130.640625 L 641.132812 129.769531 L 639.566406 128.894531 L 637.75 128.894531 L 637.070312 129.183594 L 635.683594 130.351562 L 634.933594 131.371094 L 633.863281 133.40625 L 633.117188 135.300781 L 632.226562 138.210938 L 631.617188 140.6875 L 630.871094 144.472656 L 630.335938 147.820312 L 629.730469 152.625 L 629.375 156.265625 L 629.054688 160.34375 L 628.769531 165.148438 L 628.554688 170.242188 L 628.410156 175.632812 L 628.339844 180.871094 L 628.339844 203.441406 L 628.410156 208.683594 L 628.589844 214.796875 L 629.054688 223.679688 L 629.730469 231.394531 L 630.515625 237.511719 L 631.261719 241.878906 L 631.691406 243.917969 L 632.261719 246.246094 L 633.152344 249.15625 L 634.433594 252.070312 L 635.183594 253.234375 L 636.324219 254.398438 L 637.5 254.980469 L 639.066406 254.980469 L 640.457031 254.398438 L 641.382812 253.671875 L 642.347656 252.507812 L 643.664062 250.03125 L 644.484375 247.703125 L 645.199219 244.9375 L 645.730469 242.167969 L 646.089844 239.839844 L 646.621094 235.328125 L 647.050781 230.375 L 647.371094 225.28125 L 647.585938 220.328125 L 652.574219 220.328125 L 652.359375 226.152344 L 652.039062 231.832031 L 651.71875 236.054688 L 651.21875 241.148438 L 650.648438 245.664062 L 649.832031 250.757812 L 649.152344 254.109375 L 648.261719 257.75 L 647.441406 260.515625 L 646.550781 262.988281 L 645.234375 265.902344 L 644.378906 267.359375 L 643.449219 268.667969 L 642.347656 269.832031 L 640.957031 270.851562 L 639.460938 271.433594 L 638.070312 271.582031 L 636.574219 271.289062 L 635.46875 270.707031 L 634.007812 269.394531 L 632.1875 266.777344 L 630.871094 264.007812 L 629.835938 261.242188 L 628.945312 258.332031 L 627.949219 254.398438 L 626.664062 247.992188 L 625.882812 243.042969 L 625.347656 238.964844 L 624.742188 233.289062 L 624.3125 228.191406 L 623.8125 220.039062 L 623.457031 209.699219 L 623.351562 201.691406 Z M 623.351562 181.601562 "/>
<path style=" stroke:none;fill-rule:nonzero;fill:rgb(6.27451%,58.823529%,28.235294%);fill-opacity:1;" d="M 654.113281 269.871094 L 654.144531 269.832031 L 666.789062 226.632812 L 670.628906 226.632812 L 683.335938 269.910156 L 678.871094 269.910156 L 675.6875 258.613281 L 661.730469 258.613281 L 658.609375 269.871094 L 654.113281 269.871094 L 663.074219 253.941406 L 674.40625 253.898438 L 668.757812 233.703125 L 668.695312 233.664062 L 668.632812 233.785156 L 663.042969 253.898438 L 663.074219 253.941406 Z M 654.113281 269.871094 "/>
<path style=" stroke:none;fill-rule:nonzero;fill:rgb(14.509804%,36.078431%,60%);fill-opacity:1;" d="M 654.113281 307.105469 L 654.148438 307.09375 L 654.148438 306.8125 L 654.253906 306.367188 L 654.503906 305.800781 L 654.753906 305.414062 L 655.394531 304.71875 L 656.285156 304.050781 L 657.214844 303.53125 L 657.890625 303.226562 L 658.496094 302.992188 L 659.886719 302.558594 L 660.777344 302.332031 L 661.738281 302.132812 L 662.914062 301.933594 L 663.769531 301.816406 L 665.695312 301.628906 L 667.121094 301.546875 L 668.226562 301.511719 L 670.613281 301.511719 L 672.039062 301.558594 L 673.074219 301.617188 L 674.214844 301.710938 L 675.175781 301.816406 L 676.851562 302.074219 L 678.347656 302.402344 L 679.023438 302.59375 L 680.09375 302.957031 L 680.914062 303.308594 L 681.484375 303.613281 L 682.125 304.050781 L 682.695312 304.578125 L 683.125 305.179688 L 683.335938 305.683594 L 678.347656 305.683594 L 678.097656 305.214844 L 677.8125 304.847656 L 677.277344 304.367188 L 676.742188 304.027344 L 675.996094 303.683594 L 675.316406 303.460938 L 674.390625 303.238281 L 673.570312 303.097656 L 672.714844 302.992188 L 671.898438 302.921875 L 670.328125 302.851562 L 668.511719 302.851562 L 667.832031 302.875 L 666.445312 302.96875 L 665.695312 303.050781 L 664.625 303.214844 L 663.878906 303.367188 L 662.988281 303.601562 L 662.382812 303.800781 L 661.632812 304.109375 L 661.097656 304.378906 L 660.492188 304.765625 L 660.136719 305.058594 L 659.816406 305.390625 L 659.53125 305.777344 L 659.316406 306.1875 L 659.171875 306.625 L 659.101562 307.046875 L 659.101562 308.871094 L 659.171875 309.292969 L 659.351562 309.785156 L 659.816406 310.503906 L 660.492188 311.125 L 661.277344 311.621094 L 662.023438 311.972656 L 662.453125 312.136719 L 663.023438 312.324219 L 663.914062 312.558594 L 665.195312 312.796875 L 665.945312 312.890625 L 667.085938 312.984375 L 668.261719 313.03125 L 669.828125 313.03125 L 671.21875 312.984375 L 672.144531 312.925781 L 673.109375 312.832031 L 674.425781 312.632812 L 675.246094 312.441406 L 675.960938 312.21875 L 676.496094 311.996094 L 676.851562 311.808594 L 677.386719 311.445312 L 677.8125 311.042969 L 678.132812 310.632812 L 678.347656 310.234375 L 683.335938 310.234375 L 683.125 310.703125 L 682.800781 311.160156 L 682.480469 311.503906 L 681.984375 311.914062 L 681.414062 312.277344 L 680.59375 312.691406 L 679.914062 312.960938 L 679.023438 313.253906 L 678.203125 313.476562 L 677.3125 313.675781 L 675.996094 313.914062 L 675.140625 314.03125 L 674.214844 314.136719 L 673.109375 314.230469 L 671.71875 314.3125 L 670.222656 314.359375 L 668.832031 314.371094 L 667.335938 314.347656 L 666.230469 314.300781 L 664.769531 314.195312 L 662.953125 313.984375 L 661.632812 313.757812 L 660.597656 313.535156 L 659.707031 313.300781 L 658.710938 312.984375 L 657.425781 312.464844 L 656.644531 312.066406 L 656.109375 311.738281 L 655.503906 311.277344 L 655.074219 310.867188 L 654.574219 310.210938 L 654.21875 309.375 L 654.113281 308.726562 Z M 654.113281 307.105469 "/>
<path style=" stroke:none;fill-rule:nonzero;fill:rgb(83.921569%,15.686275%,22.352941%);fill-opacity:1;" d="M 654.113281 271.089844 L 683.335938 271.089844 L 683.335938 274.222656 L 671.15625 274.25 L 671.15625 300.332031 L 666.257812 300.332031 L 666.257812 274.277344 L 666.1875 274.222656 L 654.113281 274.222656 Z M 654.113281 271.089844 "/>
<g style="fill:rgb(0%,0%,0%);fill-opacity:1;">
  <use xlink:href="#glyph0-1" x="21.957031" y="318.198242"/>
  <use xlink:href="#glyph0-2" x="27.291016" y="318.198242"/>
  <use xlink:href="#glyph0-1" x="29.958008" y="318.198242"/>
</g>
<g style="fill:rgb(0%,0%,0%);fill-opacity:1;">
  <use xlink:href="#glyph0-1" x="21.957031" y="237.381836"/>
  <use xlink:href="#glyph0-2" x="27.291016" y="237.381836"/>
  <use xlink:href="#glyph0-3" x="29.958008" y="237.381836"/>
</g>
<g style="fill:rgb(0%,0%,0%);fill-opacity:1;">
  <use xlink:href="#glyph0-4" x="21.957031" y="156.56543"/>
  <use xlink:href="#glyph0-2" x="27.291016" y="156.56543"/>
  <use xlink:href="#glyph0-1" x="29.958008" y="156.56543"/>
</g>
<g style="fill:rgb(0%,0%,0%);fill-opacity:1;">
  <use xlink:href="#glyph0-4" x="21.957031" y="75.749023"/>
  <use xlink:href="#glyph0-2" x="27.291016" y="75.749023"/>
  <use xlink:href="#glyph0-3" x="29.958008" y="75.749023"/>
</g>
<g style="fill:rgb(0%,0%,0%);fill-opacity:1;">
  <use xlink:href="#glyph0-4" x="81.242188" y="338.19043"/>
</g>
<g style="fill:rgb(0%,0%,0%);fill-opacity:1;">
  <use xlink:href="#glyph0-5" x="112.003906" y="338.19043"/>
</g>
<g style="fill:rgb(0%,0%,0%);fill-opacity:1;">
  <use xlink:href="#glyph0-6" x="142.765625" y="338.19043"/>
</g>
<g style="fill:rgb(0%,0%,0%);fill-opacity:1;">
  <use xlink:href="#glyph0-7" x="173.527344" y="338.19043"/>
</g>
<g style="fill:rgb(0%,0%,0%);fill-opacity:1;">
  <use xlink:href="#glyph0-3" x="204.289062" y="338.19043"/>
</g>
<g style="fill:rgb(0%,0%,0%);fill-opacity:1;">
  <use xlink:href="#glyph0-8" x="235.054688" y="338.19043"/>
</g>
<g style="fill:rgb(0%,0%,0%);fill-opacity:1;">
  <use xlink:href="#glyph0-9" x="265.816406" y="338.19043"/>
</g>
<g style="fill:rgb(0%,0%,0%);fill-opacity:1;">
  <use xlink:href="#glyph0-10" x="296.578125" y="338.19043"/>
</g>
<g style="fill:rgb(0%,0%,0%);fill-opacity:1;">
  <use xlink:href="#glyph0-11" x="327.339844" y="338.19043"/>
</g>
<g style="fill:rgb(0%,0%,0%);fill-opacity:1;">
  <use xlink:href="#glyph0-4" x="355.601562" y="338.19043"/>
  <use xlink:href="#glyph0-1" x="360.935547" y="338.19043"/>
</g>
<g style="fill:rgb(0%,0%,0%);fill-opacity:1;">
  <use xlink:href="#glyph0-4" x="386.363281" y="338.19043"/>
  <use xlink:href="#glyph0-4" x="391.697266" y="338.19043"/>
</g>
<g style="fill:rgb(0%,0%,0%);fill-opacity:1;">
  <use xlink:href="#glyph0-4" x="417.125" y="338.19043"/>
  <use xlink:href="#glyph0-5" x="422.458984" y="338.19043"/>
</g>
<g style="fill:rgb(0%,0%,0%);fill-opacity:1;">
  <use xlink:href="#glyph0-4" x="447.890625" y="338.19043"/>
  <use xlink:href="#glyph0-6" x="453.224609" y="338.19043"/>
</g>
<g style="fill:rgb(0%,0%,0%);fill-opacity:1;">
  <use xlink:href="#glyph0-4" x="478.652344" y="338.19043"/>
  <use xlink:href="#glyph0-7" x="483.986328" y="338.19043"/>
</g>
<g style="fill:rgb(0%,0%,0%);fill-opacity:1;">
  <use xlink:href="#glyph0-4" x="509.414062" y="338.19043"/>
  <use xlink:href="#glyph0-3" x="514.748047" y="338.19043"/>
</g>
<g style="fill:rgb(0%,0%,0%);fill-opacity:1;">
  <use xlink:href="#glyph0-4" x="540.175781" y="338.19043"/>
  <use xlink:href="#glyph0-8" x="545.509766" y="338.19043"/>
</g>
<g style="fill:rgb(0%,0%,0%);fill-opacity:1;">
  <use xlink:href="#glyph0-4" x="570.9375" y="338.19043"/>
  <use xlink:href="#glyph0-9" x="576.271484" y="338.19043"/>
</g>
<g style="fill:rgb(0%,0%,0%);fill-opacity:1;">
  <use xlink:href="#glyph0-4" x="601.699219" y="338.19043"/>
  <use xlink:href="#glyph0-10" x="607.033203" y="338.19043"/>
</g>
<g style="fill:rgb(0%,0%,0%);fill-opacity:1;">
  <use xlink:href="#glyph0-4" x="632.460938" y="338.19043"/>
  <use xlink:href="#glyph0-11" x="637.794922" y="338.19043"/>
</g>
<g style="fill:rgb(0%,0%,0%);fill-opacity:1;">
  <use xlink:href="#glyph0-5" x="663.226562" y="338.19043"/>
  <use xlink:href="#glyph0-1" x="668.560547" y="338.19043"/>
</g>
<g style="fill:rgb(0%,0%,0%);fill-opacity:1;">
  <use xlink:href="#glyph1-1" x="14.412109" y="178.015625"/>
  <use xlink:href="#glyph1-2" x="14.412109" y="170.011719"/>
  <use xlink:href="#glyph1-3" x="14.412109" y="167.347656"/>
  <use xlink:href="#glyph1-4" x="14.412109" y="164.011719"/>
</g>
</g>
</svg>
