<?xml version="1.0" encoding="UTF-8"?>
<svg xmlns="http://www.w3.org/2000/svg" xmlns:xlink="http://www.w3.org/1999/xlink" width="720pt" height="360pt" viewBox="0 0 720 360" version="1.1">
<defs>
<g>
<symbol overflow="visible" id="glyph0-0">
<path style="stroke:none;" d=""/>
</symbol>
<symbol overflow="visible" id="glyph0-1">
<path style="stroke:none;" d="M 2.640625 -6.796875 C 2 -6.796875 1.421875 -6.53125 1.078125 -6.046875 C 0.640625 -5.453125 0.40625 -4.546875 0.40625 -3.296875 C 0.40625 -1 1.1875 0.21875 2.640625 0.21875 C 4.078125 0.21875 4.859375 -1 4.859375 -3.234375 C 4.859375 -4.5625 4.65625 -5.4375 4.203125 -6.046875 C 3.84375 -6.53125 3.28125 -6.796875 2.640625 -6.796875 Z M 2.640625 -6.046875 C 3.546875 -6.046875 4 -5.125 4 -3.3125 C 4 -1.375 3.5625 -0.484375 2.625 -0.484375 C 1.734375 -0.484375 1.28125 -1.421875 1.28125 -3.28125 C 1.28125 -5.140625 1.734375 -6.046875 2.640625 -6.046875 Z M 2.640625 -6.046875 "/>
</symbol>
<symbol overflow="visible" id="glyph0-2">
<path style="stroke:none;" d="M 1.828125 -1 L 0.828125 -1 L 0.828125 0 L 1.828125 0 Z M 1.828125 -1 "/>
</symbol>
<symbol overflow="visible" id="glyph0-3">
<path style="stroke:none;" d="M 4.5625 -6.796875 L 1.0625 -6.796875 L 0.546875 -3.09375 L 1.328125 -3.09375 C 1.71875 -3.5625 2.046875 -3.734375 2.578125 -3.734375 C 3.484375 -3.734375 4.0625 -3.109375 4.0625 -2.09375 C 4.0625 -1.125 3.484375 -0.53125 2.578125 -0.53125 C 1.828125 -0.53125 1.375 -0.90625 1.1875 -1.671875 L 0.328125 -1.671875 C 0.453125 -1.109375 0.546875 -0.84375 0.75 -0.59375 C 1.125 -0.078125 1.828125 0.21875 2.59375 0.21875 C 3.96875 0.21875 4.921875 -0.78125 4.921875 -2.21875 C 4.921875 -3.5625 4.03125 -4.484375 2.71875 -4.484375 C 2.25 -4.484375 1.859375 -4.359375 1.46875 -4.0625 L 1.734375 -5.96875 L 4.5625 -5.96875 Z M 4.5625 -6.796875 "/>
</symbol>
<symbol overflow="visible" id="glyph0-4">
<path style="stroke:none;" d="M 2.484375 -4.84375 L 2.484375 0 L 3.328125 0 L 3.328125 -6.796875 L 2.765625 -6.796875 C 2.46875 -5.75 2.28125 -5.609375 0.984375 -5.453125 L 0.984375 -4.84375 Z M 2.484375 -4.84375 "/>
</symbol>
<symbol overflow="visible" id="glyph0-5">
<path style="stroke:none;" d="M 4.859375 -0.828125 L 1.28125 -0.828125 C 1.359375 -1.390625 1.671875 -1.75 2.5 -2.234375 L 3.46875 -2.75 C 4.40625 -3.265625 4.90625 -3.96875 4.90625 -4.8125 C 4.90625 -5.375 4.671875 -5.90625 4.265625 -6.265625 C 3.859375 -6.625 3.375 -6.796875 2.71875 -6.796875 C 1.859375 -6.796875 1.21875 -6.5 0.84375 -5.921875 C 0.609375 -5.5625 0.5 -5.125 0.484375 -4.4375 L 1.328125 -4.4375 C 1.359375 -4.90625 1.40625 -5.1875 1.53125 -5.40625 C 1.75 -5.8125 2.1875 -6.0625 2.703125 -6.0625 C 3.46875 -6.0625 4.03125 -5.515625 4.03125 -4.78125 C 4.03125 -4.25 3.71875 -3.796875 3.125 -3.4375 L 2.234375 -2.9375 C 0.8125 -2.140625 0.40625 -1.5 0.328125 0 L 4.859375 0 Z M 4.859375 -0.828125 "/>
</symbol>
<symbol overflow="visible" id="glyph0-6">
<path style="stroke:none;" d="M 2.125 -3.125 L 2.578125 -3.125 C 3.515625 -3.125 3.984375 -2.703125 3.984375 -1.890625 C 3.984375 -1.03125 3.46875 -0.53125 2.578125 -0.53125 C 1.65625 -0.53125 1.203125 -0.984375 1.15625 -1.96875 L 0.3125 -1.96875 C 0.34375 -1.421875 0.4375 -1.078125 0.609375 -0.765625 C 0.953125 -0.109375 1.625 0.21875 2.546875 0.21875 C 3.953125 0.21875 4.859375 -0.609375 4.859375 -1.90625 C 4.859375 -2.765625 4.515625 -3.25 3.703125 -3.515625 C 4.34375 -3.765625 4.65625 -4.25 4.65625 -4.9375 C 4.65625 -6.109375 3.875 -6.796875 2.578125 -6.796875 C 1.203125 -6.796875 0.484375 -6.046875 0.453125 -4.609375 L 1.296875 -4.609375 C 1.3125 -5.015625 1.34375 -5.25 1.453125 -5.453125 C 1.640625 -5.828125 2.0625 -6.0625 2.59375 -6.0625 C 3.34375 -6.0625 3.796875 -5.625 3.796875 -4.90625 C 3.796875 -4.421875 3.609375 -4.140625 3.25 -3.984375 C 3.015625 -3.890625 2.71875 -3.84375 2.125 -3.84375 Z M 2.125 -3.125 "/>
</symbol>
<symbol overflow="visible" id="glyph0-7">
<path style="stroke:none;" d="M 3.140625 -1.625 L 3.140625 0 L 3.984375 0 L 3.984375 -1.625 L 4.984375 -1.625 L 4.984375 -2.390625 L 3.984375 -2.390625 L 3.984375 -6.796875 L 3.359375 -6.796875 L 0.265625 -2.515625 L 0.265625 -1.625 Z M 3.140625 -2.390625 L 1 -2.390625 L 3.140625 -5.359375 Z M 3.140625 -2.390625 "/>
</symbol>
<symbol overflow="visible" id="glyph0-8">
<path style="stroke:none;" d="M 4.78125 -5.03125 C 4.609375 -6.140625 3.890625 -6.796875 2.84375 -6.796875 C 2.09375 -6.796875 1.421875 -6.4375 1.03125 -5.828125 C 0.609375 -5.171875 0.40625 -4.34375 0.40625 -3.09375 C 0.40625 -1.953125 0.578125 -1.234375 0.984375 -0.625 C 1.359375 -0.078125 1.953125 0.21875 2.703125 0.21875 C 3.984375 0.21875 4.921875 -0.734375 4.921875 -2.078125 C 4.921875 -3.34375 4.0625 -4.234375 2.84375 -4.234375 C 2.171875 -4.234375 1.640625 -3.96875 1.28125 -3.46875 C 1.28125 -5.125 1.828125 -6.046875 2.796875 -6.046875 C 3.390625 -6.046875 3.796875 -5.671875 3.9375 -5.03125 Z M 2.734375 -3.484375 C 3.546875 -3.484375 4.0625 -2.921875 4.0625 -2 C 4.0625 -1.15625 3.484375 -0.53125 2.703125 -0.53125 C 1.921875 -0.53125 1.328125 -1.1875 1.328125 -2.046875 C 1.328125 -2.890625 1.90625 -3.484375 2.734375 -3.484375 Z M 2.734375 -3.484375 "/>
</symbol>
<symbol overflow="visible" id="glyph0-9">
<path style="stroke:none;" d="M 4.984375 -6.796875 L 0.4375 -6.796875 L 0.4375 -5.96875 L 4.109375 -5.96875 C 2.5 -3.65625 1.828125 -2.234375 1.328125 0 L 2.21875 0 C 2.59375 -2.171875 3.453125 -4.046875 4.984375 -6.09375 Z M 4.984375 -6.796875 "/>
</symbol>
<symbol overflow="visible" id="glyph0-10">
<path style="stroke:none;" d="M 3.75 -3.578125 C 4.453125 -4 4.6875 -4.34375 4.6875 -4.984375 C 4.6875 -6.046875 3.84375 -6.796875 2.640625 -6.796875 C 1.4375 -6.796875 0.59375 -6.046875 0.59375 -4.984375 C 0.59375 -4.359375 0.828125 -4.015625 1.515625 -3.578125 C 0.734375 -3.203125 0.359375 -2.640625 0.359375 -1.890625 C 0.359375 -0.640625 1.296875 0.21875 2.640625 0.21875 C 3.984375 0.21875 4.921875 -0.640625 4.921875 -1.875 C 4.921875 -2.640625 4.53125 -3.203125 3.75 -3.578125 Z M 2.640625 -6.046875 C 3.359375 -6.046875 3.8125 -5.625 3.8125 -4.96875 C 3.8125 -4.34375 3.34375 -3.921875 2.640625 -3.921875 C 1.921875 -3.921875 1.453125 -4.34375 1.453125 -4.984375 C 1.453125 -5.625 1.921875 -6.046875 2.640625 -6.046875 Z M 2.640625 -3.203125 C 3.484375 -3.203125 4.0625 -2.671875 4.0625 -1.875 C 4.0625 -1.0625 3.484375 -0.53125 2.625 -0.53125 C 1.796875 -0.53125 1.21875 -1.078125 1.21875 -1.875 C 1.21875 -2.671875 1.796875 -3.203125 2.640625 -3.203125 Z M 2.640625 -3.203125 "/>
</symbol>
<symbol overflow="visible" id="glyph0-11">
<path style="stroke:none;" d="M 0.515625 -1.546875 C 0.671875 -0.4375 1.40625 0.21875 2.4375 0.21875 C 3.1875 0.21875 3.859375 -0.140625 4.265625 -0.75 C 4.6875 -1.40625 4.890625 -2.25 4.890625 -3.484375 C 4.890625 -4.625 4.703125 -5.359375 4.3125 -5.953125 C 3.9375 -6.5 3.34375 -6.796875 2.59375 -6.796875 C 1.296875 -6.796875 0.359375 -5.84375 0.359375 -4.515625 C 0.359375 -3.25 1.234375 -2.34375 2.453125 -2.34375 C 3.09375 -2.34375 3.5625 -2.578125 4.015625 -3.109375 C 4 -1.453125 3.46875 -0.53125 2.5 -0.53125 C 1.90625 -0.53125 1.484375 -0.90625 1.359375 -1.546875 Z M 2.578125 -6.0625 C 3.375 -6.0625 3.96875 -5.40625 3.96875 -4.53125 C 3.96875 -3.6875 3.375 -3.09375 2.546875 -3.09375 C 1.734375 -3.09375 1.234375 -3.671875 1.234375 -4.578125 C 1.234375 -5.4375 1.796875 -6.0625 2.578125 -6.0625 Z M 2.578125 -6.0625 "/>
</symbol>
<symbol overflow="visible" id="glyph1-0">
<path style="stroke:none;" d=""/>
</symbol>
<symbol overflow="visible" id="glyph1-1">
<path style="stroke:none;" d="M 0 -0.953125 L 0 -4.890625 C 0 -5.71875 -0.234375 -6.34375 -0.734375 -6.796875 C -1.1875 -7.234375 -1.8125 -7.46875 -2.5 -7.46875 C -3.546875 -7.46875 -4.1875 -7 -4.625 -5.875 C -4.984375 -6.671875 -5.640625 -7.09375 -6.53125 -7.09375 C -7.15625 -7.09375 -7.734375 -6.859375 -8.140625 -6.390625 C -8.5625 -5.9375 -8.75 -5.34375 -8.75 -4.5 L -8.75 -0.953125 Z M -4.984375 -2.0625 L -7.765625 -2.0625 L -7.765625 -4.21875 C -7.765625 -4.84375 -7.6875 -5.203125 -7.453125 -5.5 C -7.21875 -5.8125 -6.859375 -5.96875 -6.375 -5.96875 C -5.90625 -5.96875 -5.53125 -5.8125 -5.296875 -5.5 C -5.0625 -5.203125 -4.984375 -4.84375 -4.984375 -4.21875 Z M -0.984375 -2.0625 L -4 -2.0625 L -4 -4.78125 C -4 -5.328125 -3.859375 -5.6875 -3.578125 -5.953125 C -3.296875 -6.21875 -2.921875 -6.359375 -2.484375 -6.359375 C -2.0625 -6.359375 -1.6875 -6.21875 -1.40625 -5.953125 C -1.109375 -5.6875 -0.984375 -5.328125 -0.984375 -4.78125 Z M -0.984375 -2.0625 "/>
</symbol>
<symbol overflow="visible" id="glyph1-2">
<path style="stroke:none;" d="M -6.28125 -1.796875 L -6.28125 -0.796875 L 0 -0.796875 L 0 -1.796875 Z M -8.75 -1.796875 L -8.75 -0.796875 L -7.484375 -0.796875 L -7.484375 -1.796875 Z M -8.75 -1.796875 "/>
</symbol>
<symbol overflow="visible" id="glyph1-3">
<path style="stroke:none;" d="M -6.28125 -3.046875 L -6.28125 -2.015625 L -8.015625 -2.015625 L -8.015625 -1.015625 L -6.28125 -1.015625 L -6.28125 -0.171875 L -5.46875 -0.171875 L -5.46875 -1.015625 L -0.71875 -1.015625 C -0.078125 -1.015625 0.28125 -1.453125 0.28125 -2.234375 C 0.28125 -2.46875 0.25 -2.71875 0.1875 -3.046875 L -0.640625 -3.046875 C -0.609375 -2.921875 -0.59375 -2.765625 -0.59375 -2.5625 C -0.59375 -2.140625 -0.71875 -2.015625 -1.15625 -2.015625 L -5.46875 -2.015625 L -5.46875 -3.046875 Z M -6.28125 -3.046875 "/>
</symbol>
<symbol overflow="visible" id="glyph1-4">
<path style="stroke:none;" d="M -4.53125 -5.25 C -5.765625 -5.25 -6.46875 -4.421875 -6.46875 -2.96875 C -6.46875 -1.515625 -5.71875 -0.5625 -4.546875 -0.5625 C -3.5625 -0.5625 -3.09375 -1.0625 -2.734375 -2.5625 L -2.515625 -3.484375 C -2.34375 -4.1875 -2.09375 -4.46875 -1.625 -4.46875 C -1.046875 -4.46875 -0.640625 -3.875 -0.640625 -3 C -0.640625 -2.453125 -0.796875 -2 -1.0625 -1.75 C -1.25 -1.59375 -1.421875 -1.53125 -1.875 -1.46875 L -1.875 -0.40625 C -0.421875 -0.453125 0.28125 -1.265625 0.28125 -2.921875 C 0.28125 -4.5 -0.5 -5.515625 -1.71875 -5.515625 C -2.65625 -5.515625 -3.171875 -4.984375 -3.46875 -3.734375 L -3.703125 -2.765625 C -3.890625 -1.953125 -4.15625 -1.609375 -4.59375 -1.609375 C -5.171875 -1.609375 -5.546875 -2.125 -5.546875 -2.9375 C -5.546875 -3.75 -5.203125 -4.171875 -4.53125 -4.203125 Z M -4.53125 -5.25 "/>
</symbol>
</g>
</defs>
<g id="surface2400">
<rect x="0" y="0" width="720" height="360" style="fill:rgb(100%,100%,100%);fill-opacity:1;stroke:none;"/>
<path style=" stroke:none;fill-rule:nonzero;fill:rgb(6.27451%,58.823529%,28.235294%);fill-opacity:1;" d="M 69.628906 302.1875 L 69.691406 302.183594 L 95.046875 294.246094 L 102.746094 294.246094 L 128.222656 302.195312 L 119.273438 302.195312 L 112.886719 300.121094 L 84.902344 300.121094 L 78.644531 302.1875 L 69.628906 302.1875 L 87.597656 299.261719 L 110.320312 299.253906 L 98.988281 295.546875 L 98.863281 295.539062 L 98.738281 295.558594 L 87.535156 299.253906 L 87.597656 299.261719 Z M 69.628906 302.1875 "/>
<path style=" stroke:none;fill-rule:nonzero;fill:rgb(14.509804%,36.078431%,60%);fill-opacity:1;" d="M 69.628906 305.511719 L 69.699219 305.507812 L 69.699219 305.398438 L 69.914062 305.230469 L 70.414062 305.015625 L 70.914062 304.867188 L 72.203125 304.601562 L 73.988281 304.34375 L 75.847656 304.148438 L 77.203125 304.03125 L 78.417969 303.941406 L 81.207031 303.777344 L 82.992188 303.691406 L 84.921875 303.613281 L 87.28125 303.539062 L 88.996094 303.492188 L 92.851562 303.421875 L 95.710938 303.390625 L 97.925781 303.375 L 102.714844 303.375 L 105.574219 303.394531 L 107.644531 303.417969 L 109.929688 303.453125 L 111.859375 303.492188 L 115.21875 303.589844 L 118.21875 303.71875 L 119.578125 303.789062 L 121.722656 303.929688 L 123.367188 304.0625 L 124.507812 304.179688 L 125.796875 304.34375 L 126.9375 304.546875 L 127.796875 304.777344 L 128.222656 304.96875 L 118.21875 304.96875 L 117.71875 304.789062 L 117.148438 304.648438 L 116.078125 304.464844 L 115.003906 304.335938 L 113.503906 304.207031 L 112.148438 304.121094 L 110.289062 304.035156 L 108.644531 303.980469 L 106.929688 303.941406 L 105.285156 303.914062 L 102.140625 303.886719 L 98.5 303.886719 L 97.140625 303.898438 L 94.355469 303.933594 L 92.851562 303.964844 L 90.710938 304.027344 L 89.207031 304.085938 L 87.421875 304.175781 L 86.207031 304.25 L 84.707031 304.367188 L 83.636719 304.472656 L 82.421875 304.617188 L 81.707031 304.730469 L 81.0625 304.855469 L 80.492188 305.003906 L 80.0625 305.160156 L 79.777344 305.328125 L 79.632812 305.488281 L 79.632812 306.183594 L 79.777344 306.347656 L 80.132812 306.535156 L 81.0625 306.808594 L 82.421875 307.046875 L 83.992188 307.234375 L 85.492188 307.367188 L 86.351562 307.429688 L 87.492188 307.503906 L 89.28125 307.59375 L 91.851562 307.683594 L 93.351562 307.71875 L 95.640625 307.753906 L 97.996094 307.773438 L 101.140625 307.773438 L 103.929688 307.753906 L 105.785156 307.730469 L 107.714844 307.695312 L 110.359375 307.621094 L 112.003906 307.546875 L 113.433594 307.460938 L 114.503906 307.378906 L 115.21875 307.304688 L 116.292969 307.167969 L 117.148438 307.015625 L 117.792969 306.855469 L 118.21875 306.703125 L 128.222656 306.703125 L 127.796875 306.882812 L 127.152344 307.058594 L 126.507812 307.1875 L 125.507812 307.347656 L 124.367188 307.484375 L 122.722656 307.640625 L 121.363281 307.746094 L 119.578125 307.859375 L 117.933594 307.941406 L 116.148438 308.019531 L 113.503906 308.109375 L 111.789062 308.152344 L 109.929688 308.195312 L 107.714844 308.230469 L 104.929688 308.261719 L 101.929688 308.277344 L 99.140625 308.285156 L 96.140625 308.273438 L 93.925781 308.257812 L 90.996094 308.214844 L 87.351562 308.136719 L 84.707031 308.050781 L 82.632812 307.964844 L 80.847656 307.875 L 78.847656 307.753906 L 76.273438 307.558594 L 74.703125 307.40625 L 73.632812 307.277344 L 72.417969 307.105469 L 71.558594 306.945312 L 70.558594 306.695312 L 69.84375 306.378906 L 69.628906 306.128906 Z M 69.628906 305.511719 "/>
<path style=" stroke:none;fill-rule:nonzero;fill:rgb(96.862745%,70.196078%,16.862745%);fill-opacity:1;" d="M 69.628906 311.566406 L 69.699219 311.5625 L 69.699219 311.472656 L 69.988281 311.269531 L 70.703125 310.992188 L 71.628906 310.761719 L 72.628906 310.582031 L 73.273438 310.488281 L 74.34375 310.355469 L 75.273438 310.257812 L 77.632812 310.054688 L 80.632812 309.867188 L 82.277344 309.785156 L 84.136719 309.710938 L 86.777344 309.625 L 87.992188 309.59375 L 91.710938 309.523438 L 95.925781 309.476562 L 100.570312 309.464844 L 102.714844 309.46875 L 105.644531 309.484375 L 109.644531 309.535156 L 111.933594 309.578125 L 113.71875 309.625 L 115.578125 309.683594 L 117.863281 309.773438 L 120.007812 309.878906 L 121.722656 309.988281 L 123.4375 310.121094 L 124.867188 310.265625 L 126.082031 310.421875 L 127.152344 310.609375 L 127.796875 310.765625 L 128.222656 310.925781 L 118.292969 310.925781 L 117.71875 310.765625 L 117.078125 310.644531 L 116.003906 310.5 L 114.933594 310.390625 L 113.863281 310.304688 L 111.859375 310.1875 L 110.144531 310.117188 L 108.003906 310.054688 L 105.929688 310.015625 L 103.570312 309.988281 L 102.140625 309.980469 L 98.355469 309.980469 L 94.925781 310.011719 L 92.925781 310.046875 L 91.496094 310.082031 L 89.496094 310.148438 L 88.28125 310.203125 L 87.566406 310.238281 L 85.421875 310.378906 L 83.992188 310.503906 L 83.207031 310.589844 L 82.207031 310.722656 L 81.492188 310.84375 L 80.707031 311.023438 L 80.277344 311.15625 L 79.703125 311.460938 L 79.632812 312.269531 L 79.847656 312.4375 L 80.277344 312.621094 L 80.847656 312.785156 L 81.707031 312.953125 L 82.5625 313.085938 L 84.0625 313.257812 L 85.351562 313.375 L 86.351562 313.453125 L 88.28125 313.574219 L 89.066406 313.613281 L 90.921875 313.695312 L 92.851562 313.757812 L 95.210938 313.808594 L 96.996094 313.835938 L 99.855469 313.859375 L 103.5 313.859375 L 107.789062 313.832031 L 110.503906 313.796875 L 112.359375 313.761719 L 113.574219 313.730469 L 115.078125 313.679688 L 116.148438 313.636719 L 117.148438 313.585938 L 118.363281 313.511719 L 118.363281 312.4375 L 100.714844 312.433594 L 100.714844 311.933594 L 128.152344 311.929688 L 128.222656 313.679688 L 126.722656 313.800781 L 124.867188 313.917969 L 123.078125 314.007812 L 121.222656 314.082031 L 118.578125 314.167969 L 116.433594 314.222656 L 113.148438 314.285156 L 110.144531 314.324219 L 107 314.351562 L 104.214844 314.367188 L 100.929688 314.371094 L 97.996094 314.363281 L 94.855469 314.335938 L 92.351562 314.300781 L 90.066406 314.253906 L 87.78125 314.195312 L 84.921875 314.101562 L 83.0625 314.027344 L 81.132812 313.929688 L 79.203125 313.820312 L 77.488281 313.699219 L 76.347656 313.605469 L 75.203125 313.496094 L 73.988281 313.363281 L 72.84375 313.210938 L 71.988281 313.070312 L 71.203125 312.914062 L 70.628906 312.765625 L 70.058594 312.566406 L 69.773438 312.402344 L 69.628906 312.265625 Z M 69.628906 311.566406 "/>
<path style=" stroke:none;fill-rule:nonzero;fill:rgb(83.921569%,15.686275%,22.352941%);fill-opacity:1;" d="M 69.628906 266.855469 L 128.222656 266.855469 L 128.222656 269.660156 L 103.804688 269.683594 L 103.804688 293.066406 L 93.980469 293.066406 L 93.980469 269.710938 L 93.835938 269.660156 L 69.628906 269.660156 Z M 69.628906 266.855469 "/>
<path style=" stroke:none;fill-rule:nonzero;fill:rgb(96.862745%,70.196078%,16.862745%);fill-opacity:1;" d="M 131.308594 306.285156 L 131.378906 306.273438 L 131.378906 306.015625 L 131.664062 305.433594 L 132.378906 304.632812 L 133.308594 303.972656 L 134.308594 303.457031 L 134.953125 303.1875 L 136.023438 302.796875 L 136.953125 302.515625 L 139.3125 301.933594 L 142.3125 301.390625 L 143.957031 301.15625 L 145.8125 300.9375 L 148.457031 300.691406 L 149.671875 300.601562 L 153.390625 300.394531 L 157.605469 300.265625 L 162.25 300.226562 L 164.394531 300.242188 L 167.324219 300.292969 L 171.324219 300.433594 L 173.613281 300.5625 L 175.398438 300.691406 L 177.253906 300.859375 L 179.542969 301.117188 L 181.6875 301.429688 L 183.402344 301.738281 L 185.117188 302.125 L 186.546875 302.539062 L 187.761719 302.992188 L 188.832031 303.535156 L 189.476562 303.988281 L 189.902344 304.4375 L 179.972656 304.4375 L 179.398438 303.988281 L 178.757812 303.636719 L 177.683594 303.210938 L 176.613281 302.902344 L 175.539062 302.65625 L 173.539062 302.320312 L 171.824219 302.113281 L 169.679688 301.933594 L 167.609375 301.816406 L 165.25 301.738281 L 163.820312 301.714844 L 160.035156 301.714844 L 156.605469 301.804688 L 154.605469 301.90625 L 153.175781 302.011719 L 151.171875 302.203125 L 149.957031 302.359375 L 149.246094 302.460938 L 147.101562 302.863281 L 145.671875 303.222656 L 144.886719 303.46875 L 143.886719 303.855469 L 143.171875 304.207031 L 142.382812 304.722656 L 141.957031 305.109375 L 141.382812 305.988281 L 141.3125 308.3125 L 141.527344 308.804688 L 141.957031 309.332031 L 142.527344 309.796875 L 143.386719 310.289062 L 144.242188 310.664062 L 145.742188 311.167969 L 147.027344 311.503906 L 148.03125 311.722656 L 149.957031 312.070312 L 150.746094 312.1875 L 152.601562 312.421875 L 154.53125 312.601562 L 156.890625 312.757812 L 158.675781 312.832031 L 161.535156 312.898438 L 165.179688 312.898438 L 169.46875 312.820312 L 172.183594 312.71875 L 174.039062 312.613281 L 175.253906 312.523438 L 176.753906 312.382812 L 177.828125 312.253906 L 178.828125 312.109375 L 180.042969 311.890625 L 180.042969 308.804688 L 162.390625 308.792969 L 162.390625 307.34375 L 189.832031 307.332031 L 189.902344 312.382812 L 188.402344 312.730469 L 186.546875 313.066406 L 184.757812 313.324219 L 182.902344 313.542969 L 180.257812 313.789062 L 178.113281 313.945312 L 174.824219 314.125 L 171.824219 314.242188 L 168.679688 314.320312 L 165.894531 314.359375 L 162.605469 314.371094 L 159.675781 314.34375 L 156.53125 314.265625 L 154.03125 314.164062 L 151.746094 314.035156 L 149.457031 313.867188 L 146.601562 313.597656 L 144.742188 313.375 L 142.8125 313.105469 L 140.882812 312.78125 L 139.167969 312.433594 L 138.027344 312.160156 L 136.882812 311.851562 L 135.667969 311.464844 L 134.523438 311.027344 L 133.667969 310.625 L 132.878906 310.171875 L 132.308594 309.746094 L 131.738281 309.164062 L 131.453125 308.699219 L 131.308594 308.300781 Z M 131.308594 306.285156 "/>
<path style=" stroke:none;fill-rule:nonzero;fill:rgb(83.921569%,15.686275%,22.352941%);fill-opacity:1;" d="M 131.308594 70.394531 L 189.902344 70.394531 L 189.902344 94.871094 L 165.484375 95.085938 L 165.484375 299.046875 L 155.65625 299.046875 L 155.65625 95.300781 L 155.515625 94.871094 L 131.308594 94.871094 Z M 131.308594 70.394531 "/>
<path style=" stroke:none;fill-rule:nonzero;fill:rgb(14.509804%,36.078431%,60%);fill-opacity:1;" d="M 192.988281 299.875 L 193.058594 299.851562 L 193.058594 299.285156 L 193.273438 298.394531 L 193.773438 297.269531 L 194.273438 296.496094 L 195.558594 295.113281 L 197.347656 293.773438 L 199.203125 292.742188 L 200.5625 292.132812 L 201.777344 291.664062 L 204.5625 290.796875 L 206.351562 290.347656 L 208.28125 289.949219 L 210.636719 289.550781 L 212.351562 289.316406 L 216.210938 288.941406 L 219.070312 288.777344 L 221.285156 288.707031 L 226.074219 288.707031 L 228.929688 288.800781 L 231.003906 288.917969 L 233.289062 289.105469 L 235.21875 289.316406 L 238.578125 289.832031 L 241.578125 290.492188 L 242.9375 290.867188 L 245.082031 291.59375 L 246.722656 292.296875 L 247.867188 292.90625 L 249.152344 293.773438 L 250.296875 294.828125 L 251.152344 296.027344 L 251.582031 297.035156 L 241.578125 297.035156 L 241.078125 296.097656 L 240.507812 295.371094 L 239.433594 294.40625 L 238.363281 293.726562 L 236.863281 293.046875 L 235.503906 292.601562 L 233.648438 292.15625 L 232.003906 291.875 L 230.289062 291.664062 L 228.644531 291.523438 L 225.5 291.382812 L 221.855469 291.382812 L 220.5 291.429688 L 217.710938 291.617188 L 216.210938 291.78125 L 214.066406 292.109375 L 212.566406 292.414062 L 210.78125 292.882812 L 209.566406 293.28125 L 208.066406 293.890625 L 206.992188 294.429688 L 205.777344 295.207031 L 205.0625 295.792969 L 204.421875 296.449219 L 203.847656 297.222656 L 203.421875 298.042969 L 203.132812 298.910156 L 202.992188 299.757812 L 202.992188 303.390625 L 203.132812 304.238281 L 203.492188 305.222656 L 204.421875 306.652344 L 205.777344 307.894531 L 207.351562 308.882812 L 208.851562 309.585938 L 209.707031 309.914062 L 210.851562 310.289062 L 212.636719 310.757812 L 215.210938 311.226562 L 216.710938 311.414062 L 219 311.601562 L 221.355469 311.695312 L 224.5 311.695312 L 227.289062 311.601562 L 229.144531 311.484375 L 231.074219 311.296875 L 233.71875 310.898438 L 235.363281 310.523438 L 236.792969 310.078125 L 237.863281 309.632812 L 238.578125 309.257812 L 239.648438 308.53125 L 240.507812 307.730469 L 241.148438 306.910156 L 241.578125 306.113281 L 251.582031 306.113281 L 251.152344 307.050781 L 250.511719 307.964844 L 249.867188 308.648438 L 248.867188 309.46875 L 247.722656 310.195312 L 246.082031 311.015625 L 244.722656 311.554688 L 242.9375 312.140625 L 241.292969 312.585938 L 239.507812 312.988281 L 236.863281 313.457031 L 235.148438 313.691406 L 233.289062 313.902344 L 231.074219 314.089844 L 228.289062 314.253906 L 225.285156 314.347656 L 222.5 314.371094 L 219.5 314.324219 L 217.285156 314.230469 L 214.351562 314.019531 L 210.710938 313.597656 L 208.066406 313.152344 L 205.992188 312.707031 L 204.207031 312.234375 L 202.207031 311.601562 L 199.632812 310.570312 L 198.0625 309.773438 L 196.988281 309.117188 L 195.773438 308.199219 L 194.917969 307.378906 L 193.917969 306.066406 L 193.203125 304.402344 L 192.988281 303.109375 Z M 192.988281 299.875 "/>
<path style=" stroke:none;fill-rule:nonzero;fill:rgb(83.921569%,15.686275%,22.352941%);fill-opacity:1;" d="M 192.988281 100.808594 L 251.582031 100.808594 L 251.582031 120.796875 L 227.164062 120.96875 L 227.164062 287.527344 L 217.335938 287.527344 L 217.335938 121.144531 L 217.195312 120.796875 L 192.988281 120.796875 Z M 192.988281 100.808594 "/>
<path style=" stroke:none;fill-rule:nonzero;fill:rgb(83.921569%,15.686275%,22.352941%);fill-opacity:1;" d="M 254.667969 20.664062 L 313.261719 20.664062 L 313.261719 52.101562 L 288.839844 52.378906 L 288.839844 314.371094 L 279.015625 314.371094 L 279.015625 52.652344 L 278.875 52.101562 L 254.667969 52.101562 Z M 254.667969 20.664062 "/>
<path style=" stroke:none;fill-rule:nonzero;fill:rgb(83.921569%,15.686275%,22.352941%);fill-opacity:1;" d="M 316.347656 20.664062 L 374.941406 20.664062 L 374.941406 52.101562 L 350.519531 52.378906 L 350.519531 314.371094 L 340.695312 314.371094 L 340.695312 52.652344 L 340.554688 52.101562 L 316.347656 52.101562 Z M 316.347656 20.664062 "/>
<path style=" stroke:none;fill-rule:nonzero;fill:rgb(6.27451%,58.823529%,28.235294%);fill-opacity:1;" d="M 378.023438 303.925781 L 378.085938 303.90625 L 403.441406 284.265625 L 411.140625 284.265625 L 436.621094 303.941406 L 427.667969 303.941406 L 421.28125 298.804688 L 393.300781 298.804688 L 387.039062 303.925781 L 378.023438 303.925781 L 395.992188 296.683594 L 418.714844 296.664062 L 407.386719 287.480469 L 407.261719 287.460938 L 407.136719 287.519531 L 395.929688 296.664062 L 395.992188 296.683594 Z M 378.023438 303.925781 "/>
<path style=" stroke:none;fill-rule:nonzero;fill:rgb(96.862745%,70.196078%,16.862745%);fill-opacity:1;" d="M 378.023438 309.082031 L 378.097656 309.074219 L 378.097656 308.90625 L 378.382812 308.527344 L 379.097656 308.003906 L 380.027344 307.570312 L 381.027344 307.234375 L 381.667969 307.054688 L 382.742188 306.804688 L 383.671875 306.617188 L 386.027344 306.238281 L 389.03125 305.882812 L 390.671875 305.730469 L 392.53125 305.585938 L 395.175781 305.425781 L 396.390625 305.367188 L 400.105469 305.230469 L 404.320312 305.148438 L 408.964844 305.121094 L 411.109375 305.128906 L 414.039062 305.164062 L 418.042969 305.257812 L 420.328125 305.339844 L 422.113281 305.425781 L 423.972656 305.535156 L 426.257812 305.703125 L 428.402344 305.90625 L 430.117188 306.109375 L 431.832031 306.363281 L 433.261719 306.632812 L 434.476562 306.929688 L 435.546875 307.285156 L 436.191406 307.578125 L 436.621094 307.875 L 426.6875 307.875 L 426.117188 307.578125 L 425.472656 307.351562 L 424.402344 307.074219 L 423.328125 306.871094 L 422.257812 306.710938 L 420.257812 306.492188 L 418.542969 306.355469 L 416.398438 306.238281 L 414.324219 306.160156 L 411.96875 306.109375 L 410.539062 306.09375 L 406.75 306.09375 L 403.320312 306.152344 L 401.320312 306.21875 L 399.890625 306.289062 L 397.890625 306.414062 L 396.675781 306.515625 L 395.960938 306.582031 L 393.816406 306.84375 L 392.386719 307.082031 L 391.601562 307.242188 L 390.601562 307.496094 L 389.886719 307.722656 L 389.101562 308.0625 L 388.671875 308.316406 L 388.101562 308.890625 L 388.027344 310.410156 L 388.242188 310.730469 L 388.671875 311.078125 L 389.242188 311.378906 L 390.101562 311.703125 L 390.960938 311.945312 L 392.460938 312.277344 L 393.746094 312.496094 L 394.746094 312.640625 L 396.675781 312.867188 L 397.460938 312.941406 L 399.320312 313.09375 L 401.25 313.214844 L 403.605469 313.316406 L 405.394531 313.367188 L 408.25 313.40625 L 411.894531 313.40625 L 416.183594 313.355469 L 418.898438 313.289062 L 420.757812 313.222656 L 421.972656 313.164062 L 423.472656 313.070312 L 424.542969 312.984375 L 425.542969 312.894531 L 426.757812 312.75 L 426.757812 310.730469 L 409.109375 310.722656 L 409.109375 309.777344 L 436.550781 309.765625 L 436.621094 313.070312 L 435.121094 313.296875 L 433.261719 313.519531 L 431.476562 313.6875 L 429.617188 313.832031 L 426.972656 313.992188 L 424.828125 314.09375 L 421.542969 314.210938 L 418.542969 314.285156 L 415.398438 314.335938 L 412.609375 314.363281 L 409.324219 314.371094 L 406.394531 314.355469 L 403.25 314.304688 L 400.75 314.234375 L 398.460938 314.152344 L 396.175781 314.042969 L 393.316406 313.863281 L 391.460938 313.71875 L 389.53125 313.542969 L 387.601562 313.332031 L 385.886719 313.105469 L 384.742188 312.925781 L 383.597656 312.722656 L 382.382812 312.46875 L 381.242188 312.183594 L 380.382812 311.921875 L 379.597656 311.625 L 379.027344 311.347656 L 378.453125 310.96875 L 378.167969 310.664062 L 378.023438 310.402344 Z M 378.023438 309.082031 "/>
<path style=" stroke:none;fill-rule:nonzero;fill:rgb(83.921569%,15.686275%,22.352941%);fill-opacity:1;" d="M 378.023438 148.703125 L 436.621094 148.703125 L 436.621094 163.085938 L 412.199219 163.214844 L 412.199219 283.085938 L 402.375 283.085938 L 402.375 163.339844 L 402.230469 163.085938 L 378.023438 163.085938 Z M 378.023438 148.703125 "/>
<path style=" stroke:none;fill-rule:nonzero;fill:rgb(6.27451%,58.823529%,28.235294%);fill-opacity:1;" d="M 439.703125 292.441406 L 439.765625 292.421875 L 465.121094 271.734375 L 472.820312 271.734375 L 498.300781 292.460938 L 489.347656 292.460938 L 482.960938 287.050781 L 454.980469 287.050781 L 448.71875 292.441406 L 439.703125 292.441406 L 457.671875 284.8125 L 480.394531 284.792969 L 469.066406 275.121094 L 468.9375 275.101562 L 468.8125 275.160156 L 457.609375 284.792969 L 457.671875 284.8125 Z M 439.703125 292.441406 "/>
<path style=" stroke:none;fill-rule:nonzero;fill:rgb(14.509804%,36.078431%,60%);fill-opacity:1;" d="M 439.703125 313.488281 L 439.777344 313.488281 L 439.777344 313.453125 L 439.988281 313.398438 L 440.492188 313.332031 L 440.992188 313.285156 L 442.277344 313.199219 L 444.0625 313.121094 L 445.921875 313.058594 L 447.277344 313.019531 L 448.492188 312.992188 L 451.28125 312.9375 L 453.066406 312.910156 L 454.996094 312.886719 L 457.355469 312.863281 L 459.070312 312.847656 L 462.929688 312.824219 L 465.785156 312.816406 L 468 312.8125 L 472.789062 312.8125 L 475.648438 312.816406 L 477.71875 312.824219 L 480.007812 312.835938 L 481.9375 312.847656 L 485.292969 312.878906 L 488.296875 312.921875 L 489.652344 312.941406 L 491.796875 312.988281 L 493.441406 313.03125 L 494.582031 313.066406 L 495.871094 313.121094 L 497.011719 313.183594 L 497.871094 313.257812 L 498.300781 313.316406 L 488.296875 313.316406 L 487.796875 313.261719 L 487.222656 313.214844 L 486.152344 313.15625 L 485.078125 313.117188 L 483.578125 313.074219 L 482.222656 313.046875 L 480.363281 313.019531 L 478.71875 313.003906 L 477.003906 312.992188 L 475.363281 312.984375 L 472.21875 312.972656 L 468.574219 312.972656 L 467.214844 312.976562 L 464.429688 312.988281 L 462.929688 313 L 460.785156 313.019531 L 459.285156 313.035156 L 457.496094 313.066406 L 456.28125 313.089844 L 454.78125 313.125 L 453.710938 313.160156 L 452.496094 313.207031 L 451.78125 313.242188 L 451.136719 313.28125 L 450.566406 313.328125 L 450.136719 313.378906 L 449.851562 313.429688 L 449.707031 313.484375 L 449.707031 313.703125 L 449.851562 313.753906 L 450.207031 313.816406 L 451.136719 313.902344 L 452.496094 313.976562 L 454.066406 314.039062 L 455.566406 314.078125 L 456.425781 314.101562 L 457.570312 314.121094 L 459.355469 314.152344 L 461.925781 314.179688 L 463.429688 314.191406 L 465.714844 314.203125 L 468.074219 314.207031 L 471.21875 314.207031 L 474.003906 314.203125 L 475.863281 314.195312 L 477.792969 314.183594 L 480.433594 314.160156 L 482.078125 314.136719 L 483.507812 314.109375 L 484.578125 314.082031 L 485.292969 314.058594 L 486.367188 314.015625 L 487.222656 313.96875 L 487.867188 313.917969 L 488.296875 313.867188 L 498.300781 313.867188 L 497.871094 313.925781 L 497.226562 313.980469 L 496.585938 314.023438 L 495.585938 314.074219 L 494.441406 314.117188 L 492.796875 314.167969 L 491.441406 314.199219 L 489.652344 314.234375 L 488.007812 314.261719 L 486.222656 314.285156 L 483.578125 314.316406 L 481.863281 314.328125 L 480.007812 314.34375 L 477.792969 314.355469 L 475.003906 314.363281 L 472.003906 314.371094 L 469.214844 314.371094 L 466.214844 314.367188 L 464 314.363281 L 461.070312 314.347656 L 457.425781 314.324219 L 454.78125 314.296875 L 452.710938 314.269531 L 450.921875 314.242188 L 448.921875 314.203125 L 446.351562 314.140625 L 444.777344 314.089844 L 443.707031 314.050781 L 442.492188 313.996094 L 441.632812 313.945312 L 440.632812 313.867188 L 439.917969 313.765625 L 439.703125 313.6875 Z M 439.703125 313.488281 "/>
<path style=" stroke:none;fill-rule:nonzero;fill:rgb(96.862745%,70.196078%,16.862745%);fill-opacity:1;" d="M 439.703125 307.609375 L 439.777344 307.601562 L 439.777344 307.472656 L 440.0625 307.183594 L 440.777344 306.785156 L 441.707031 306.460938 L 442.707031 306.203125 L 443.347656 306.066406 L 444.421875 305.875 L 445.347656 305.734375 L 447.707031 305.445312 L 450.707031 305.175781 L 452.351562 305.058594 L 454.210938 304.949219 L 456.855469 304.828125 L 458.070312 304.78125 L 461.785156 304.679688 L 466 304.613281 L 470.644531 304.597656 L 472.789062 304.601562 L 475.71875 304.628906 L 479.71875 304.699219 L 482.007812 304.761719 L 483.792969 304.828125 L 485.652344 304.910156 L 487.9375 305.039062 L 490.082031 305.195312 L 491.796875 305.347656 L 493.511719 305.539062 L 494.941406 305.746094 L 496.15625 305.972656 L 497.226562 306.242188 L 497.871094 306.464844 L 498.300781 306.691406 L 488.367188 306.691406 L 487.796875 306.464844 L 487.152344 306.292969 L 486.082031 306.082031 L 485.007812 305.925781 L 483.9375 305.804688 L 481.9375 305.636719 L 480.222656 305.535156 L 478.078125 305.445312 L 476.003906 305.386719 L 473.648438 305.347656 L 472.21875 305.335938 L 468.429688 305.335938 L 465 305.378906 L 463 305.429688 L 461.570312 305.484375 L 459.570312 305.578125 L 458.355469 305.65625 L 457.640625 305.707031 L 455.496094 305.90625 L 454.066406 306.085938 L 453.28125 306.207031 L 452.28125 306.402344 L 451.566406 306.574219 L 450.78125 306.832031 L 450.351562 307.023438 L 449.78125 307.460938 L 449.707031 308.617188 L 449.921875 308.863281 L 450.351562 309.125 L 450.921875 309.355469 L 451.78125 309.601562 L 452.636719 309.789062 L 454.140625 310.039062 L 455.425781 310.207031 L 456.425781 310.316406 L 458.355469 310.488281 L 459.140625 310.546875 L 461 310.660156 L 462.929688 310.75 L 465.285156 310.828125 L 467.074219 310.867188 L 469.929688 310.898438 L 473.574219 310.898438 L 477.863281 310.859375 L 480.578125 310.808594 L 482.4375 310.757812 L 483.652344 310.714844 L 485.152344 310.640625 L 486.222656 310.578125 L 487.222656 310.507812 L 488.4375 310.398438 L 488.4375 308.863281 L 470.789062 308.855469 L 470.789062 308.136719 L 498.226562 308.128906 L 498.300781 310.640625 L 496.800781 310.816406 L 494.941406 310.984375 L 493.15625 311.113281 L 491.296875 311.222656 L 488.652344 311.34375 L 486.507812 311.421875 L 483.222656 311.511719 L 480.222656 311.566406 L 477.078125 311.605469 L 474.289062 311.625 L 471.003906 311.632812 L 468.074219 311.621094 L 464.929688 311.582031 L 462.429688 311.527344 L 460.140625 311.464844 L 457.855469 311.382812 L 454.996094 311.246094 L 453.136719 311.136719 L 451.210938 311.003906 L 449.28125 310.839844 L 447.566406 310.667969 L 446.421875 310.535156 L 445.277344 310.378906 L 444.0625 310.1875 L 442.921875 309.96875 L 442.0625 309.769531 L 441.277344 309.542969 L 440.703125 309.332031 L 440.132812 309.042969 L 439.847656 308.8125 L 439.703125 308.613281 Z M 439.703125 307.609375 "/>
<path style=" stroke:none;fill-rule:nonzero;fill:rgb(83.921569%,15.686275%,22.352941%);fill-opacity:1;" d="M 439.703125 293.640625 L 498.300781 293.640625 L 498.300781 294.6875 L 473.878906 294.695312 L 473.878906 303.417969 L 464.054688 303.417969 L 464.054688 294.707031 L 463.910156 294.6875 L 439.703125 294.6875 Z M 439.703125 293.640625 "/>
<path style=" stroke:none;fill-rule:nonzero;fill:rgb(14.509804%,36.078431%,60%);fill-opacity:1;" d="M 501.382812 286.914062 L 501.453125 286.894531 L 501.453125 286.449219 L 501.667969 285.75 L 502.167969 284.863281 L 502.667969 284.253906 L 503.957031 283.164062 L 505.742188 282.109375 L 507.601562 281.296875 L 508.957031 280.816406 L 510.171875 280.445312 L 512.960938 279.761719 L 514.746094 279.414062 L 516.675781 279.097656 L 519.035156 278.785156 L 520.75 278.601562 L 524.605469 278.304688 L 527.464844 278.175781 L 529.679688 278.121094 L 534.46875 278.121094 L 537.328125 278.191406 L 539.398438 278.285156 L 541.6875 278.433594 L 543.613281 278.601562 L 546.972656 279.007812 L 549.976562 279.523438 L 551.332031 279.820312 L 553.476562 280.390625 L 555.121094 280.945312 L 556.261719 281.425781 L 557.550781 282.109375 L 558.691406 282.941406 L 559.550781 283.882812 L 559.980469 284.675781 L 549.976562 284.675781 L 549.472656 283.9375 L 548.902344 283.367188 L 547.832031 282.609375 L 546.757812 282.074219 L 545.257812 281.535156 L 543.902344 281.1875 L 542.042969 280.835938 L 540.398438 280.613281 L 538.683594 280.445312 L 537.039062 280.335938 L 533.898438 280.226562 L 530.253906 280.226562 L 528.894531 280.261719 L 526.109375 280.410156 L 524.605469 280.539062 L 522.464844 280.796875 L 520.960938 281.039062 L 519.175781 281.40625 L 517.960938 281.722656 L 516.460938 282.203125 L 515.390625 282.625 L 514.175781 283.238281 L 513.460938 283.699219 L 512.816406 284.214844 L 512.246094 284.824219 L 511.816406 285.472656 L 511.53125 286.15625 L 511.386719 286.820312 L 511.386719 289.683594 L 511.53125 290.347656 L 511.886719 291.125 L 512.816406 292.25 L 514.175781 293.230469 L 515.746094 294.007812 L 517.246094 294.558594 L 518.105469 294.820312 L 519.246094 295.113281 L 521.035156 295.484375 L 523.605469 295.851562 L 525.105469 296 L 527.394531 296.148438 L 529.753906 296.222656 L 532.894531 296.222656 L 535.683594 296.148438 L 537.542969 296.058594 L 539.46875 295.910156 L 542.113281 295.59375 L 543.757812 295.300781 L 545.1875 294.949219 L 546.257812 294.597656 L 546.972656 294.300781 L 548.046875 293.730469 L 548.902344 293.101562 L 549.546875 292.453125 L 549.976562 291.828125 L 559.980469 291.828125 L 559.550781 292.566406 L 558.90625 293.285156 L 558.265625 293.820312 L 557.261719 294.46875 L 556.121094 295.039062 L 554.476562 295.6875 L 553.117188 296.113281 L 551.332031 296.574219 L 549.6875 296.925781 L 547.902344 297.238281 L 545.257812 297.609375 L 543.542969 297.792969 L 541.6875 297.960938 L 539.46875 298.105469 L 536.683594 298.238281 L 533.683594 298.308594 L 530.894531 298.328125 L 527.894531 298.292969 L 525.679688 298.21875 L 522.75 298.050781 L 519.105469 297.71875 L 516.460938 297.367188 L 514.390625 297.015625 L 512.601562 296.648438 L 510.601562 296.148438 L 508.027344 295.335938 L 506.457031 294.707031 L 505.386719 294.191406 L 504.171875 293.46875 L 503.3125 292.824219 L 502.3125 291.789062 L 501.597656 290.476562 L 501.382812 289.460938 Z M 501.382812 286.914062 "/>
<path style=" stroke:none;fill-rule:nonzero;fill:rgb(96.862745%,70.196078%,16.862745%);fill-opacity:1;" d="M 501.382812 305.875 L 501.453125 305.859375 L 501.453125 305.589844 L 501.742188 304.976562 L 502.457031 304.136719 L 503.382812 303.445312 L 504.382812 302.902344 L 505.027344 302.617188 L 506.101562 302.210938 L 507.027344 301.910156 L 509.386719 301.300781 L 512.386719 300.730469 L 514.03125 300.484375 L 515.890625 300.253906 L 518.535156 299.996094 L 519.75 299.902344 L 523.464844 299.683594 L 527.679688 299.550781 L 532.324219 299.507812 L 534.46875 299.523438 L 537.398438 299.578125 L 541.398438 299.726562 L 543.6875 299.859375 L 545.472656 299.996094 L 547.332031 300.171875 L 549.617188 300.445312 L 551.761719 300.769531 L 553.476562 301.097656 L 555.191406 301.503906 L 556.621094 301.9375 L 557.835938 302.414062 L 558.90625 302.984375 L 559.550781 303.457031 L 559.980469 303.933594 L 550.046875 303.933594 L 549.472656 303.457031 L 548.832031 303.089844 L 547.757812 302.644531 L 546.6875 302.316406 L 545.617188 302.058594 L 543.613281 301.707031 L 541.898438 301.488281 L 539.757812 301.300781 L 537.683594 301.179688 L 535.324219 301.097656 L 533.898438 301.070312 L 530.109375 301.070312 L 526.679688 301.164062 L 524.679688 301.273438 L 523.25 301.382812 L 521.25 301.585938 L 520.035156 301.746094 L 519.320312 301.855469 L 517.175781 302.277344 L 515.746094 302.65625 L 514.960938 302.914062 L 513.960938 303.324219 L 513.246094 303.6875 L 512.460938 304.230469 L 512.03125 304.640625 L 511.460938 305.5625 L 511.386719 308.003906 L 511.601562 308.519531 L 512.03125 309.078125 L 512.601562 309.566406 L 513.460938 310.082031 L 514.316406 310.476562 L 515.816406 311.003906 L 517.105469 311.359375 L 518.105469 311.589844 L 520.035156 311.953125 L 520.820312 312.078125 L 522.679688 312.320312 L 524.605469 312.511719 L 526.964844 312.675781 L 528.75 312.753906 L 531.609375 312.824219 L 535.253906 312.824219 L 539.542969 312.742188 L 542.257812 312.632812 L 544.113281 312.523438 L 545.328125 312.429688 L 546.832031 312.28125 L 547.902344 312.144531 L 548.902344 311.996094 L 550.117188 311.765625 L 550.117188 308.519531 L 532.46875 308.507812 L 532.46875 306.988281 L 559.90625 306.972656 L 559.980469 312.28125 L 558.476562 312.648438 L 556.621094 313 L 554.832031 313.269531 L 552.976562 313.503906 L 550.332031 313.761719 L 548.1875 313.921875 L 544.902344 314.113281 L 541.898438 314.234375 L 538.753906 314.316406 L 535.96875 314.355469 L 532.683594 314.371094 L 529.753906 314.34375 L 526.609375 314.261719 L 524.105469 314.152344 L 521.820312 314.019531 L 519.535156 313.839844 L 516.675781 313.554688 L 514.816406 313.324219 L 512.886719 313.039062 L 510.957031 312.703125 L 509.242188 312.335938 L 508.101562 312.050781 L 506.957031 311.722656 L 505.742188 311.316406 L 504.597656 310.855469 L 503.742188 310.433594 L 502.957031 309.960938 L 502.382812 309.511719 L 501.8125 308.902344 L 501.527344 308.414062 L 501.382812 307.992188 Z M 501.382812 305.875 "/>
<path style=" stroke:none;fill-rule:nonzero;fill:rgb(83.921569%,15.686275%,22.352941%);fill-opacity:1;" d="M 501.382812 229.992188 L 559.980469 229.992188 L 559.980469 235.019531 L 535.558594 235.0625 L 535.558594 276.941406 L 525.734375 276.941406 L 525.734375 235.109375 L 525.589844 235.019531 L 501.382812 235.019531 Z M 501.382812 229.992188 "/>
<path style=" stroke:none;fill-rule:nonzero;fill:rgb(14.509804%,36.078431%,60%);fill-opacity:1;" d="M 563.0625 308.847656 L 563.132812 308.839844 L 563.132812 308.625 L 563.347656 308.285156 L 563.847656 307.855469 L 564.347656 307.5625 L 565.636719 307.035156 L 567.421875 306.527344 L 569.28125 306.132812 L 570.636719 305.898438 L 571.851562 305.722656 L 574.640625 305.390625 L 576.425781 305.222656 L 578.355469 305.070312 L 580.710938 304.917969 L 582.425781 304.828125 L 586.285156 304.683594 L 589.144531 304.621094 L 591.359375 304.597656 L 596.148438 304.597656 L 599.003906 304.632812 L 601.078125 304.675781 L 603.363281 304.746094 L 605.292969 304.828125 L 608.652344 305.023438 L 611.652344 305.273438 L 613.011719 305.417969 L 615.15625 305.695312 L 616.796875 305.964844 L 617.941406 306.195312 L 619.226562 306.527344 L 620.371094 306.929688 L 621.230469 307.382812 L 621.65625 307.769531 L 611.652344 307.769531 L 611.152344 307.410156 L 610.582031 307.132812 L 609.511719 306.765625 L 608.4375 306.507812 L 606.9375 306.25 L 605.578125 306.078125 L 603.722656 305.910156 L 602.078125 305.800781 L 600.363281 305.722656 L 598.71875 305.667969 L 595.574219 305.613281 L 591.929688 305.613281 L 590.574219 305.632812 L 587.785156 305.703125 L 586.285156 305.765625 L 584.144531 305.890625 L 582.640625 306.007812 L 580.855469 306.1875 L 579.640625 306.339844 L 578.140625 306.570312 L 577.066406 306.777344 L 575.855469 307.070312 L 575.140625 307.292969 L 574.496094 307.542969 L 573.925781 307.839844 L 573.496094 308.152344 L 573.210938 308.484375 L 573.066406 308.804688 L 573.066406 310.1875 L 573.210938 310.511719 L 573.566406 310.886719 L 574.496094 311.429688 L 575.855469 311.90625 L 577.425781 312.28125 L 578.925781 312.546875 L 579.785156 312.671875 L 580.925781 312.816406 L 582.714844 312.996094 L 585.285156 313.171875 L 586.785156 313.246094 L 589.074219 313.316406 L 591.429688 313.351562 L 594.574219 313.351562 L 597.363281 313.316406 L 599.21875 313.273438 L 601.148438 313.199219 L 603.792969 313.046875 L 605.4375 312.90625 L 606.867188 312.734375 L 607.9375 312.566406 L 608.652344 312.421875 L 609.722656 312.144531 L 610.582031 311.84375 L 611.226562 311.53125 L 611.652344 311.226562 L 621.65625 311.226562 L 621.230469 311.582031 L 620.585938 311.929688 L 619.941406 312.191406 L 618.941406 312.503906 L 617.800781 312.78125 L 616.15625 313.09375 L 614.796875 313.296875 L 613.011719 313.523438 L 611.367188 313.691406 L 609.582031 313.84375 L 606.9375 314.023438 L 605.222656 314.113281 L 603.363281 314.191406 L 601.148438 314.261719 L 598.363281 314.324219 L 595.363281 314.363281 L 592.574219 314.371094 L 589.574219 314.351562 L 587.359375 314.316406 L 584.429688 314.238281 L 580.785156 314.074219 L 578.140625 313.90625 L 576.066406 313.734375 L 574.28125 313.558594 L 572.28125 313.316406 L 569.707031 312.921875 L 568.136719 312.621094 L 567.0625 312.371094 L 565.847656 312.019531 L 564.992188 311.707031 L 563.992188 311.207031 L 563.277344 310.574219 L 563.0625 310.082031 Z M 563.0625 308.847656 "/>
<path style=" stroke:none;fill-rule:nonzero;fill:rgb(96.862745%,70.196078%,16.862745%);fill-opacity:1;" d="M 563.0625 246.175781 L 563.132812 246.140625 L 563.132812 245.359375 L 563.421875 243.609375 L 564.132812 241.195312 L 565.0625 239.207031 L 566.0625 237.648438 L 566.707031 236.832031 L 567.777344 235.664062 L 568.707031 234.808594 L 571.066406 233.054688 L 574.066406 231.421875 L 575.710938 230.71875 L 577.570312 230.058594 L 580.210938 229.316406 L 581.425781 229.042969 L 585.144531 228.421875 L 589.359375 228.03125 L 594.003906 227.914062 L 596.148438 227.953125 L 599.078125 228.109375 L 603.078125 228.539062 L 605.367188 228.929688 L 607.152344 229.316406 L 609.011719 229.824219 L 611.296875 230.601562 L 613.441406 231.535156 L 615.15625 232.472656 L 616.871094 233.640625 L 618.300781 234.886719 L 619.515625 236.25 L 620.585938 237.882812 L 621.230469 239.246094 L 621.65625 240.609375 L 611.726562 240.609375 L 611.152344 239.246094 L 610.511719 238.195312 L 609.4375 236.910156 L 608.367188 235.976562 L 607.292969 235.234375 L 605.292969 234.222656 L 603.578125 233.601562 L 601.433594 233.054688 L 599.363281 232.703125 L 597.003906 232.472656 L 595.574219 232.394531 L 591.789062 232.394531 L 588.359375 232.664062 L 586.359375 232.976562 L 584.929688 233.289062 L 582.929688 233.875 L 581.714844 234.339844 L 581 234.652344 L 578.855469 235.859375 L 577.425781 236.949219 L 576.640625 237.6875 L 575.640625 238.855469 L 574.925781 239.910156 L 574.136719 241.464844 L 573.710938 242.632812 L 573.136719 245.28125 L 573.066406 252.292969 L 573.28125 253.769531 L 573.710938 255.367188 L 574.28125 256.769531 L 575.140625 258.25 L 575.996094 259.378906 L 577.496094 260.898438 L 578.785156 261.910156 L 579.785156 262.570312 L 581.714844 263.621094 L 582.5 263.972656 L 584.355469 264.671875 L 586.285156 265.21875 L 588.644531 265.6875 L 590.429688 265.917969 L 593.289062 266.113281 L 596.933594 266.113281 L 601.222656 265.878906 L 603.9375 265.570312 L 605.792969 265.257812 L 607.007812 264.984375 L 608.507812 264.558594 L 609.582031 264.167969 L 610.582031 263.738281 L 611.796875 263.078125 L 611.796875 253.769531 L 594.148438 253.730469 L 594.148438 249.371094 L 621.585938 249.332031 L 621.65625 264.558594 L 620.15625 265.609375 L 618.300781 266.621094 L 616.511719 267.398438 L 614.65625 268.0625 L 612.011719 268.800781 L 609.867188 269.269531 L 606.582031 269.8125 L 603.578125 270.164062 L 600.433594 270.398438 L 597.648438 270.515625 L 594.359375 270.554688 L 591.429688 270.476562 L 588.289062 270.242188 L 585.785156 269.929688 L 583.5 269.539062 L 581.210938 269.035156 L 578.355469 268.21875 L 576.496094 267.554688 L 574.566406 266.738281 L 572.636719 265.765625 L 570.921875 264.710938 L 569.78125 263.894531 L 568.636719 262.960938 L 567.421875 261.792969 L 566.277344 260.46875 L 565.421875 259.261719 L 564.632812 257.898438 L 564.0625 256.613281 L 563.492188 254.859375 L 563.207031 253.460938 L 563.0625 252.253906 Z M 563.0625 246.175781 "/>
<path style=" stroke:none;fill-rule:nonzero;fill:rgb(83.921569%,15.686275%,22.352941%);fill-opacity:1;" d="M 563.0625 271.734375 L 621.65625 271.734375 L 621.65625 275.125 L 597.238281 275.152344 L 597.238281 303.417969 L 587.410156 303.417969 L 587.410156 275.183594 L 587.269531 275.125 L 563.0625 275.125 Z M 563.0625 271.734375 "/>
<path style=" stroke:none;fill-rule:nonzero;fill:rgb(6.27451%,58.823529%,28.235294%);fill-opacity:1;" d="M 624.742188 311.136719 L 624.804688 311.128906 L 650.15625 305.859375 L 657.859375 305.859375 L 683.335938 311.140625 L 674.386719 311.140625 L 668 309.761719 L 640.015625 309.761719 L 633.757812 311.136719 L 624.742188 311.136719 L 642.707031 309.191406 L 665.433594 309.1875 L 654.101562 306.71875 L 653.976562 306.714844 L 653.851562 306.730469 L 642.644531 309.1875 L 642.707031 309.191406 Z M 624.742188 311.136719 "/>
<path style=" stroke:none;fill-rule:nonzero;fill:rgb(14.509804%,36.078431%,60%);fill-opacity:1;" d="M 624.742188 274.589844 L 624.8125 274.566406 L 624.8125 274.023438 L 625.027344 273.167969 L 625.527344 272.085938 L 626.027344 271.34375 L 627.3125 270.011719 L 629.101562 268.726562 L 630.957031 267.734375 L 632.316406 267.148438 L 633.53125 266.695312 L 636.316406 265.863281 L 638.105469 265.433594 L 640.035156 265.050781 L 642.390625 264.667969 L 644.105469 264.441406 L 647.964844 264.082031 L 650.824219 263.921875 L 653.039062 263.855469 L 657.828125 263.855469 L 660.683594 263.945312 L 662.757812 264.058594 L 665.042969 264.238281 L 666.972656 264.441406 L 670.332031 264.9375 L 673.332031 265.570312 L 674.691406 265.929688 L 676.835938 266.628906 L 678.476562 267.304688 L 679.621094 267.890625 L 680.90625 268.726562 L 682.050781 269.742188 L 682.910156 270.890625 L 683.335938 271.859375 L 673.332031 271.859375 L 672.832031 270.957031 L 672.261719 270.257812 L 671.1875 269.335938 L 670.117188 268.679688 L 668.617188 268.027344 L 667.257812 267.597656 L 665.402344 267.171875 L 663.757812 266.898438 L 662.042969 266.695312 L 660.398438 266.5625 L 657.253906 266.425781 L 653.609375 266.425781 L 652.253906 266.472656 L 649.464844 266.652344 L 647.964844 266.808594 L 645.820312 267.125 L 644.320312 267.417969 L 642.535156 267.871094 L 641.320312 268.253906 L 639.820312 268.839844 L 638.746094 269.359375 L 637.53125 270.101562 L 636.816406 270.664062 L 636.175781 271.296875 L 635.601562 272.042969 L 635.175781 272.832031 L 634.890625 273.664062 L 634.746094 274.476562 L 634.746094 277.972656 L 634.890625 278.78125 L 635.246094 279.730469 L 636.175781 281.105469 L 637.53125 282.300781 L 639.105469 283.246094 L 640.605469 283.921875 L 641.464844 284.238281 L 642.605469 284.601562 L 644.394531 285.050781 L 646.964844 285.503906 L 648.464844 285.683594 L 650.753906 285.863281 L 653.109375 285.953125 L 656.253906 285.953125 L 659.042969 285.863281 L 660.898438 285.75 L 662.828125 285.570312 L 665.472656 285.1875 L 667.117188 284.824219 L 668.546875 284.398438 L 669.617188 283.96875 L 670.332031 283.609375 L 671.402344 282.910156 L 672.261719 282.140625 L 672.902344 281.351562 L 673.332031 280.585938 L 683.335938 280.585938 L 682.910156 281.488281 L 682.265625 282.367188 L 681.621094 283.023438 L 680.621094 283.8125 L 679.476562 284.511719 L 677.835938 285.300781 L 676.476562 285.816406 L 674.691406 286.382812 L 673.046875 286.808594 L 671.261719 287.191406 L 668.617188 287.644531 L 666.902344 287.871094 L 665.042969 288.074219 L 662.828125 288.253906 L 660.042969 288.410156 L 657.039062 288.5 L 654.253906 288.523438 L 651.253906 288.476562 L 649.039062 288.386719 L 646.109375 288.183594 L 642.464844 287.78125 L 639.820312 287.351562 L 637.746094 286.921875 L 635.960938 286.472656 L 633.960938 285.863281 L 631.386719 284.871094 L 629.816406 284.105469 L 628.742188 283.472656 L 627.527344 282.59375 L 626.671875 281.804688 L 625.671875 280.542969 L 624.957031 278.941406 L 624.742188 277.699219 Z M 624.742188 274.589844 "/>
<path style=" stroke:none;fill-rule:nonzero;fill:rgb(96.862745%,70.196078%,16.862745%);fill-opacity:1;" d="M 624.742188 296.117188 L 624.8125 296.101562 L 624.8125 295.828125 L 625.097656 295.214844 L 625.8125 294.367188 L 626.742188 293.667969 L 627.742188 293.121094 L 628.386719 292.835938 L 629.457031 292.425781 L 630.386719 292.125 L 632.746094 291.507812 L 635.746094 290.933594 L 637.390625 290.6875 L 639.246094 290.457031 L 641.890625 290.195312 L 643.105469 290.101562 L 646.820312 289.882812 L 651.039062 289.746094 L 655.683594 289.703125 L 657.828125 289.71875 L 660.757812 289.773438 L 664.757812 289.921875 L 667.042969 290.058594 L 668.832031 290.195312 L 670.6875 290.375 L 672.976562 290.648438 L 675.121094 290.976562 L 676.835938 291.304688 L 678.550781 291.714844 L 679.980469 292.152344 L 681.191406 292.628906 L 682.265625 293.203125 L 682.910156 293.683594 L 683.335938 294.160156 L 673.40625 294.160156 L 672.832031 293.683594 L 672.191406 293.3125 L 671.117188 292.863281 L 670.046875 292.535156 L 668.972656 292.273438 L 666.972656 291.917969 L 665.257812 291.699219 L 663.113281 291.507812 L 661.042969 291.386719 L 658.683594 291.304688 L 657.253906 291.277344 L 653.46875 291.277344 L 650.039062 291.371094 L 648.035156 291.480469 L 646.609375 291.589844 L 644.605469 291.796875 L 643.390625 291.960938 L 642.675781 292.070312 L 640.535156 292.492188 L 639.105469 292.875 L 638.320312 293.136719 L 637.316406 293.546875 L 636.605469 293.914062 L 635.816406 294.460938 L 635.390625 294.871094 L 634.816406 295.800781 L 634.746094 298.265625 L 634.960938 298.785156 L 635.390625 299.34375 L 635.960938 299.835938 L 636.816406 300.355469 L 637.675781 300.753906 L 639.175781 301.285156 L 640.460938 301.640625 L 641.464844 301.875 L 643.390625 302.242188 L 644.179688 302.367188 L 646.035156 302.613281 L 647.964844 302.804688 L 650.324219 302.96875 L 652.109375 303.050781 L 654.96875 303.117188 L 658.613281 303.117188 L 662.898438 303.035156 L 665.617188 302.925781 L 667.472656 302.816406 L 668.6875 302.722656 L 670.1875 302.570312 L 671.261719 302.433594 L 672.261719 302.285156 L 673.476562 302.050781 L 673.476562 298.785156 L 655.824219 298.769531 L 655.824219 297.238281 L 683.265625 297.226562 L 683.335938 302.570312 L 681.835938 302.941406 L 679.980469 303.296875 L 678.191406 303.570312 L 676.335938 303.804688 L 673.691406 304.0625 L 671.546875 304.226562 L 668.257812 304.417969 L 665.257812 304.542969 L 662.113281 304.625 L 659.328125 304.664062 L 656.039062 304.679688 L 653.109375 304.652344 L 649.964844 304.570312 L 647.464844 304.460938 L 645.179688 304.324219 L 642.890625 304.144531 L 640.035156 303.859375 L 638.175781 303.625 L 636.246094 303.335938 L 634.316406 302.996094 L 632.601562 302.625 L 631.457031 302.339844 L 630.316406 302.011719 L 629.101562 301.601562 L 627.957031 301.136719 L 627.101562 300.710938 L 626.3125 300.234375 L 625.742188 299.78125 L 625.171875 299.167969 L 624.882812 298.675781 L 624.742188 298.25 Z M 624.742188 296.117188 "/>
<path style=" stroke:none;fill-rule:nonzero;fill:rgb(83.921569%,15.686275%,22.352941%);fill-opacity:1;" d="M 624.742188 312.320312 L 683.335938 312.320312 L 683.335938 312.539062 L 658.917969 312.539062 L 658.917969 314.371094 L 649.089844 314.371094 L 649.089844 312.542969 L 648.949219 312.539062 L 624.742188 312.539062 Z M 624.742188 312.320312 "/>
<g style="fill:rgb(0%,0%,0%);fill-opacity:1;">
  <use xlink:href="#glyph0-1" x="21.957031" y="318.198242"/>
  <use xlink:href="#glyph0-2" x="27.291016" y="318.198242"/>
  <use xlink:href="#glyph0-1" x="29.958008" y="318.198242"/>
</g>
<g style="fill:rgb(0%,0%,0%);fill-opacity:1;">
  <use xlink:href="#glyph0-1" x="21.957031" y="244.475586"/>
  <use xlink:href="#glyph0-2" x="27.291016" y="244.475586"/>
  <use xlink:href="#glyph0-3" x="29.958008" y="244.475586"/>
</g>
<g style="fill:rgb(0%,0%,0%);fill-opacity:1;">
  <use xlink:href="#glyph0-4" x="21.957031" y="170.75293"/>
  <use xlink:href="#glyph0-2" x="27.291016" y="170.75293"/>
  <use xlink:href="#glyph0-1" x="29.958008" y="170.75293"/>
</g>
<g style="fill:rgb(0%,0%,0%);fill-opacity:1;">
  <use xlink:href="#glyph0-4" x="21.957031" y="97.03418"/>
  <use xlink:href="#glyph0-2" x="27.291016" y="97.03418"/>
  <use xlink:href="#glyph0-3" x="29.958008" y="97.03418"/>
</g>
<g style="fill:rgb(0%,0%,0%);fill-opacity:1;">
  <use xlink:href="#glyph0-5" x="21.957031" y="23.311523"/>
  <use xlink:href="#glyph0-2" x="27.291016" y="23.311523"/>
  <use xlink:href="#glyph0-1" x="29.958008" y="23.311523"/>
</g>
<g style="fill:rgb(0%,0%,0%);fill-opacity:1;">
  <use xlink:href="#glyph0-4" x="95.925781" y="338.19043"/>
</g>
<g style="fill:rgb(0%,0%,0%);fill-opacity:1;">
  <use xlink:href="#glyph0-5" x="157.605469" y="338.19043"/>
</g>
<g style="fill:rgb(0%,0%,0%);fill-opacity:1;">
  <use xlink:href="#glyph0-6" x="219.285156" y="338.19043"/>
</g>
<g style="fill:rgb(0%,0%,0%);fill-opacity:1;">
  <use xlink:href="#glyph0-7" x="280.964844" y="338.19043"/>
</g>
<g style="fill:rgb(0%,0%,0%);fill-opacity:1;">
  <use xlink:href="#glyph0-3" x="342.644531" y="338.19043"/>
</g>
<g style="fill:rgb(0%,0%,0%);fill-opacity:1;">
  <use xlink:href="#glyph0-8" x="404.324219" y="338.19043"/>
</g>
<g style="fill:rgb(0%,0%,0%);fill-opacity:1;">
  <use xlink:href="#glyph0-9" x="466" y="338.19043"/>
</g>
<g style="fill:rgb(0%,0%,0%);fill-opacity:1;">
  <use xlink:href="#glyph0-10" x="527.679688" y="338.19043"/>
</g>
<g style="fill:rgb(0%,0%,0%);fill-opacity:1;">
  <use xlink:href="#glyph0-11" x="589.359375" y="338.19043"/>
</g>
<g style="fill:rgb(0%,0%,0%);fill-opacity:1;">
  <use xlink:href="#glyph0-4" x="648.539062" y="338.19043"/>
  <use xlink:href="#glyph0-1" x="653.873047" y="338.19043"/>
</g>
<g style="fill:rgb(0%,0%,0%);fill-opacity:1;">
  <use xlink:href="#glyph1-1" x="14.412109" y="178.015625"/>
  <use xlink:href="#glyph1-2" x="14.412109" y="170.011719"/>
  <use xlink:href="#glyph1-3" x="14.412109" y="167.347656"/>
  <use xlink:href="#glyph1-4" x="14.412109" y="164.011719"/>
</g>
</g>
</svg>
