<?xml version="1.0" encoding="UTF-8"?>
<svg xmlns="http://www.w3.org/2000/svg" xmlns:xlink="http://www.w3.org/1999/xlink" width="720pt" height="360pt" viewBox="0 0 720 360" version="1.1">
<defs>
<g>
<symbol overflow="visible" id="glyph0-0">
<path style="stroke:none;" d=""/>
</symbol>
<symbol overflow="visible" id="glyph0-1">
<path style="stroke:none;" d="M 2.640625 -6.796875 C 2 -6.796875 1.421875 -6.53125 1.078125 -6.046875 C 0.640625 -5.453125 0.40625 -4.546875 0.40625 -3.296875 C 0.40625 -1 1.1875 0.21875 2.640625 0.21875 C 4.078125 0.21875 4.859375 -1 4.859375 -3.234375 C 4.859375 -4.5625 4.65625 -5.4375 4.203125 -6.046875 C 3.84375 -6.53125 3.28125 -6.796875 2.640625 -6.796875 Z M 2.640625 -6.046875 C 3.546875 -6.046875 4 -5.125 4 -3.3125 C 4 -1.375 3.5625 -0.484375 2.625 -0.484375 C 1.734375 -0.484375 1.28125 -1.421875 1.28125 -3.28125 C 1.28125 -5.140625 1.734375 -6.046875 2.640625 -6.046875 Z M 2.640625 -6.046875 "/>
</symbol>
<symbol overflow="visible" id="glyph0-2">
<path style="stroke:none;" d="M 1.828125 -1 L 0.828125 -1 L 0.828125 0 L 1.828125 0 Z M 1.828125 -1 "/>
</symbol>
<symbol overflow="visible" id="glyph0-3">
<path style="stroke:none;" d="M 4.5625 -6.796875 L 1.0625 -6.796875 L 0.546875 -3.09375 L 1.328125 -3.09375 C 1.71875 -3.5625 2.046875 -3.734375 2.578125 -3.734375 C 3.484375 -3.734375 4.0625 -3.109375 4.0625 -2.09375 C 4.0625 -1.125 3.484375 -0.53125 2.578125 -0.53125 C 1.828125 -0.53125 1.375 -0.90625 1.1875 -1.671875 L 0.328125 -1.671875 C 0.453125 -1.109375 0.546875 -0.84375 0.75 -0.59375 C 1.125 -0.078125 1.828125 0.21875 2.59375 0.21875 C 3.96875 0.21875 4.921875 -0.78125 4.921875 -2.21875 C 4.921875 -3.5625 4.03125 -4.484375 2.71875 -4.484375 C 2.25 -4.484375 1.859375 -4.359375 1.46875 -4.0625 L 1.734375 -5.96875 L 4.5625 -5.96875 Z M 4.5625 -6.796875 "/>
</symbol>
<symbol overflow="visible" id="glyph0-4">
<path style="stroke:none;" d="M 2.484375 -4.84375 L 2.484375 0 L 3.328125 0 L 3.328125 -6.796875 L 2.765625 -6.796875 C 2.46875 -5.75 2.28125 -5.609375 0.984375 -5.453125 L 0.984375 -4.84375 Z M 2.484375 -4.84375 "/>
</symbol>
<symbol overflow="visible" id="glyph0-5">
<path style="stroke:none;" d="M 4.859375 -0.828125 L 1.28125 -0.828125 C 1.359375 -1.390625 1.671875 -1.75 2.5 -2.234375 L 3.46875 -2.75 C 4.40625 -3.265625 4.90625 -3.96875 4.90625 -4.8125 C 4.90625 -5.375 4.671875 -5.90625 4.265625 -6.265625 C 3.859375 -6.625 3.375 -6.796875 2.71875 -6.796875 C 1.859375 -6.796875 1.21875 -6.5 0.84375 -5.921875 C 0.609375 -5.5625 0.5 -5.125 0.484375 -4.4375 L 1.328125 -4.4375 C 1.359375 -4.90625 1.40625 -5.1875 1.53125 -5.40625 C 1.75 -5.8125 2.1875 -6.0625 2.703125 -6.0625 C 3.46875 -6.0625 4.03125 -5.515625 4.03125 -4.78125 C 4.03125 -4.25 3.71875 -3.796875 3.125 -3.4375 L 2.234375 -2.9375 C 0.8125 -2.140625 0.40625 -1.5 0.328125 0 L 4.859375 0 Z M 4.859375 -0.828125 "/>
</symbol>
<symbol overflow="visible" id="glyph0-6">
<path style="stroke:none;" d="M 2.125 -3.125 L 2.578125 -3.125 C 3.515625 -3.125 3.984375 -2.703125 3.984375 -1.890625 C 3.984375 -1.03125 3.46875 -0.53125 2.578125 -0.53125 C 1.65625 -0.53125 1.203125 -0.984375 1.15625 -1.96875 L 0.3125 -1.96875 C 0.34375 -1.421875 0.4375 -1.078125 0.609375 -0.765625 C 0.953125 -0.109375 1.625 0.21875 2.546875 0.21875 C 3.953125 0.21875 4.859375 -0.609375 4.859375 -1.90625 C 4.859375 -2.765625 4.515625 -3.25 3.703125 -3.515625 C 4.34375 -3.765625 4.65625 -4.25 4.65625 -4.9375 C 4.65625 -6.109375 3.875 -6.796875 2.578125 -6.796875 C 1.203125 -6.796875 0.484375 -6.046875 0.453125 -4.609375 L 1.296875 -4.609375 C 1.3125 -5.015625 1.34375 -5.25 1.453125 -5.453125 C 1.640625 -5.828125 2.0625 -6.0625 2.59375 -6.0625 C 3.34375 -6.0625 3.796875 -5.625 3.796875 -4.90625 C 3.796875 -4.421875 3.609375 -4.140625 3.25 -3.984375 C 3.015625 -3.890625 2.71875 -3.84375 2.125 -3.84375 Z M 2.125 -3.125 "/>
</symbol>
<symbol overflow="visible" id="glyph0-7">
<path style="stroke:none;" d="M 3.140625 -1.625 L 3.140625 0 L 3.984375 0 L 3.984375 -1.625 L 4.984375 -1.625 L 4.984375 -2.390625 L 3.984375 -2.390625 L 3.984375 -6.796875 L 3.359375 -6.796875 L 0.265625 -2.515625 L 0.265625 -1.625 Z M 3.140625 -2.390625 L 1 -2.390625 L 3.140625 -5.359375 Z M 3.140625 -2.390625 "/>
</symbol>
<symbol overflow="visible" id="glyph1-0">
<path style="stroke:none;" d=""/>
</symbol>
<symbol overflow="visible" id="glyph1-1">
<path style="stroke:none;" d="M 0 -0.953125 L 0 -4.890625 C 0 -5.71875 -0.234375 -6.34375 -0.734375 -6.796875 C -1.1875 -7.234375 -1.8125 -7.46875 -2.5 -7.46875 C -3.546875 -7.46875 -4.1875 -7 -4.625 -5.875 C -4.984375 -6.671875 -5.640625 -7.09375 -6.53125 -7.09375 C -7.15625 -7.09375 -7.734375 -6.859375 -8.140625 -6.390625 C -8.5625 -5.9375 -8.75 -5.34375 -8.75 -4.5 L -8.75 -0.953125 Z M -4.984375 -2.0625 L -7.765625 -2.0625 L -7.765625 -4.21875 C -7.765625 -4.84375 -7.6875 -5.203125 -7.453125 -5.5 C -7.21875 -5.8125 -6.859375 -5.96875 -6.375 -5.96875 C -5.90625 -5.96875 -5.53125 -5.8125 -5.296875 -5.5 C -5.0625 -5.203125 -4.984375 -4.84375 -4.984375 -4.21875 Z M -0.984375 -2.0625 L -4 -2.0625 L -4 -4.78125 C -4 -5.328125 -3.859375 -5.6875 -3.578125 -5.953125 C -3.296875 -6.21875 -2.921875 -6.359375 -2.484375 -6.359375 C -2.0625 -6.359375 -1.6875 -6.21875 -1.40625 -5.953125 C -1.109375 -5.6875 -0.984375 -5.328125 -0.984375 -4.78125 Z M -0.984375 -2.0625 "/>
</symbol>
<symbol overflow="visible" id="glyph1-2">
<path style="stroke:none;" d="M -6.28125 -1.796875 L -6.28125 -0.796875 L 0 -0.796875 L 0 -1.796875 Z M -8.75 -1.796875 L -8.75 -0.796875 L -7.484375 -0.796875 L -7.484375 -1.796875 Z M -8.75 -1.796875 "/>
</symbol>
<symbol overflow="visible" id="glyph1-3">
<path style="stroke:none;" d="M -6.28125 -3.046875 L -6.28125 -2.015625 L -8.015625 -2.015625 L -8.015625 -1.015625 L -6.28125 -1.015625 L -6.28125 -0.171875 L -5.46875 -0.171875 L -5.46875 -1.015625 L -0.71875 -1.015625 C -0.078125 -1.015625 0.28125 -1.453125 0.28125 -2.234375 C 0.28125 -2.46875 0.25 -2.71875 0.1875 -3.046875 L -0.640625 -3.046875 C -0.609375 -2.921875 -0.59375 -2.765625 -0.59375 -2.5625 C -0.59375 -2.140625 -0.71875 -2.015625 -1.15625 -2.015625 L -5.46875 -2.015625 L -5.46875 -3.046875 Z M -6.28125 -3.046875 "/>
</symbol>
<symbol overflow="visible" id="glyph1-4">
<path style="stroke:none;" d="M -4.53125 -5.25 C -5.765625 -5.25 -6.46875 -4.421875 -6.46875 -2.96875 C -6.46875 -1.515625 -5.71875 -0.5625 -4.546875 -0.5625 C -3.5625 -0.5625 -3.09375 -1.0625 -2.734375 -2.5625 L -2.515625 -3.484375 C -2.34375 -4.1875 -2.09375 -4.46875 -1.625 -4.46875 C -1.046875 -4.46875 -0.640625 -3.875 -0.640625 -3 C -0.640625 -2.453125 -0.796875 -2 -1.0625 -1.75 C -1.25 -1.59375 -1.421875 -1.53125 -1.875 -1.46875 L -1.875 -0.40625 C -0.421875 -0.453125 0.28125 -1.265625 0.28125 -2.921875 C 0.28125 -4.5 -0.5 -5.515625 -1.71875 -5.515625 C -2.65625 -5.515625 -3.171875 -4.984375 -3.46875 -3.734375 L -3.703125 -2.765625 C -3.890625 -1.953125 -4.15625 -1.609375 -4.59375 -1.609375 C -5.171875 -1.609375 -5.546875 -2.125 -5.546875 -2.9375 C -5.546875 -3.75 -5.203125 -4.171875 -4.53125 -4.203125 Z M -4.53125 -5.25 "/>
</symbol>
</g>
</defs>
<g id="surface4642">
<rect x="0" y="0" width="720" height="360" style="fill:rgb(100%,100%,100%);fill-opacity:1;stroke:none;"/>
<path style=" stroke:none;fill-rule:nonzero;fill:rgb(6.27451%,58.823529%,28.235294%);fill-opacity:1;" d="M 69.628906 314.363281 L 69.785156 314.355469 L 133.652344 305.496094 L 153.050781 305.496094 L 217.230469 314.371094 L 194.679688 314.371094 L 178.59375 312.054688 L 108.105469 312.054688 L 92.335938 314.363281 L 69.628906 314.363281 L 114.886719 311.097656 L 172.128906 311.089844 L 143.585938 306.945312 L 143.273438 306.9375 L 142.957031 306.964844 L 114.730469 311.089844 L 114.886719 311.097656 Z M 69.628906 314.363281 "/>
<path style=" stroke:none;fill-rule:nonzero;fill:rgb(83.921569%,15.686275%,22.352941%);fill-opacity:1;" d="M 69.628906 20.664062 L 217.230469 20.664062 L 217.230469 51.027344 L 155.714844 51.292969 L 155.714844 304.316406 L 130.964844 304.316406 L 130.964844 51.558594 L 130.605469 51.027344 L 69.628906 51.027344 Z M 69.628906 20.664062 "/>
<path style=" stroke:none;fill-rule:nonzero;fill:rgb(6.27451%,58.823529%,28.235294%);fill-opacity:1;" d="M 225 282.472656 L 225.15625 282.339844 L 289.023438 140.84375 L 308.417969 140.84375 L 372.597656 282.605469 L 350.050781 282.605469 L 333.964844 245.601562 L 263.476562 245.601562 L 247.707031 282.472656 L 225 282.472656 L 270.257812 230.292969 L 327.5 230.160156 L 298.957031 164.003906 L 298.640625 163.871094 L 298.324219 164.269531 L 270.097656 230.160156 L 270.257812 230.292969 Z M 225 282.472656 "/>
<path style=" stroke:none;fill-rule:nonzero;fill:rgb(14.509804%,36.078431%,60%);fill-opacity:1;" d="M 225 304.59375 L 225.179688 304.589844 L 225.179688 304.441406 L 225.71875 304.207031 L 226.976562 303.910156 L 228.238281 303.703125 L 231.476562 303.339844 L 235.976562 302.988281 L 240.660156 302.714844 L 244.078125 302.554688 L 247.136719 302.433594 L 254.160156 302.203125 L 258.660156 302.085938 L 263.519531 301.980469 L 269.457031 301.875 L 273.777344 301.8125 L 283.5 301.714844 L 290.699219 301.671875 L 296.277344 301.652344 L 308.339844 301.652344 L 315.539062 301.675781 L 320.757812 301.707031 L 326.519531 301.757812 L 331.378906 301.8125 L 339.839844 301.949219 L 347.398438 302.121094 L 350.820312 302.222656 L 356.21875 302.414062 L 360.359375 302.597656 L 363.238281 302.757812 L 366.480469 302.988281 L 369.359375 303.265625 L 371.519531 303.582031 L 372.597656 303.847656 L 347.398438 303.847656 L 346.140625 303.601562 L 344.699219 303.410156 L 342 303.15625 L 339.300781 302.976562 L 335.519531 302.796875 L 332.097656 302.679688 L 327.417969 302.5625 L 323.277344 302.488281 L 318.957031 302.433594 L 314.820312 302.394531 L 306.898438 302.359375 L 297.71875 302.359375 L 294.296875 302.371094 L 287.277344 302.417969 L 283.5 302.460938 L 278.097656 302.550781 L 274.320312 302.628906 L 269.820312 302.753906 L 266.757812 302.859375 L 262.980469 303.019531 L 260.277344 303.160156 L 257.21875 303.363281 L 255.417969 303.519531 L 253.796875 303.691406 L 252.359375 303.898438 L 251.277344 304.113281 L 250.558594 304.339844 L 250.199219 304.5625 L 250.199219 305.523438 L 250.558594 305.746094 L 251.457031 306.003906 L 253.796875 306.382812 L 257.21875 306.707031 L 261.179688 306.96875 L 264.957031 307.152344 L 267.117188 307.242188 L 270 307.339844 L 274.5 307.460938 L 280.980469 307.585938 L 284.757812 307.636719 L 290.519531 307.683594 L 296.457031 307.710938 L 304.378906 307.710938 L 311.398438 307.683594 L 316.078125 307.65625 L 320.9375 307.605469 L 327.597656 307.5 L 331.738281 307.402344 L 335.339844 307.285156 L 338.039062 307.167969 L 339.839844 307.066406 L 342.539062 306.875 L 344.699219 306.664062 L 346.320312 306.449219 L 347.398438 306.238281 L 372.597656 306.238281 L 371.519531 306.484375 L 369.898438 306.726562 L 368.277344 306.90625 L 365.757812 307.121094 L 362.878906 307.316406 L 358.738281 307.53125 L 355.320312 307.671875 L 350.820312 307.828125 L 346.679688 307.945312 L 342.179688 308.050781 L 335.519531 308.171875 L 331.199219 308.234375 L 326.519531 308.292969 L 320.9375 308.339844 L 313.917969 308.382812 L 306.359375 308.410156 L 299.339844 308.414062 L 291.777344 308.402344 L 286.199219 308.378906 L 278.820312 308.320312 L 269.636719 308.210938 L 262.980469 308.09375 L 257.757812 307.976562 L 253.257812 307.851562 L 248.21875 307.683594 L 241.738281 307.414062 L 237.777344 307.203125 L 235.078125 307.03125 L 232.019531 306.789062 L 229.859375 306.574219 L 227.339844 306.226562 L 225.539062 305.789062 L 225 305.449219 Z M 225 304.59375 "/>
<path style=" stroke:none;fill-rule:nonzero;fill:rgb(96.862745%,70.196078%,16.862745%);fill-opacity:1;" d="M 225 311.640625 L 225.179688 311.636719 L 225.179688 311.546875 L 225.898438 311.351562 L 227.699219 311.082031 L 230.039062 310.859375 L 232.558594 310.683594 L 234.179688 310.59375 L 236.878906 310.460938 L 239.21875 310.367188 L 245.160156 310.171875 L 252.71875 309.988281 L 256.859375 309.910156 L 261.539062 309.835938 L 268.199219 309.75 L 271.257812 309.722656 L 280.617188 309.652344 L 291.238281 309.605469 L 302.9375 309.59375 L 308.339844 309.597656 L 315.71875 309.617188 L 325.796875 309.664062 L 331.558594 309.707031 L 336.058594 309.75 L 340.738281 309.808594 L 346.5 309.894531 L 351.898438 310 L 356.21875 310.105469 L 360.539062 310.234375 L 364.140625 310.375 L 367.199219 310.527344 L 369.898438 310.710938 L 371.519531 310.863281 L 372.597656 311.015625 L 347.578125 311.015625 L 346.140625 310.863281 L 344.519531 310.746094 L 341.820312 310.601562 L 339.117188 310.496094 L 336.417969 310.414062 L 331.378906 310.300781 L 327.058594 310.230469 L 321.660156 310.171875 L 316.4375 310.128906 L 310.5 310.105469 L 306.898438 310.097656 L 297.359375 310.097656 L 288.71875 310.125 L 283.679688 310.160156 L 280.078125 310.195312 L 275.039062 310.261719 L 271.980469 310.3125 L 270.179688 310.347656 L 264.777344 310.484375 L 261.179688 310.605469 L 259.199219 310.6875 L 256.679688 310.820312 L 254.878906 310.9375 L 252.898438 311.113281 L 251.820312 311.242188 L 250.378906 311.539062 L 250.199219 312.324219 L 250.738281 312.492188 L 251.820312 312.667969 L 253.257812 312.828125 L 255.417969 312.992188 L 257.578125 313.117188 L 261.359375 313.289062 L 264.597656 313.402344 L 267.117188 313.476562 L 271.980469 313.59375 L 273.957031 313.632812 L 278.636719 313.710938 L 283.5 313.773438 L 289.4375 313.824219 L 293.9375 313.851562 L 301.140625 313.875 L 310.320312 313.875 L 321.117188 313.847656 L 327.957031 313.8125 L 332.640625 313.777344 L 335.699219 313.746094 L 339.480469 313.699219 L 342.179688 313.65625 L 344.699219 313.605469 L 347.757812 313.53125 L 347.757812 312.492188 L 303.296875 312.484375 L 303.296875 311.996094 L 372.417969 311.992188 L 372.597656 313.699219 L 368.820312 313.816406 L 364.140625 313.929688 L 359.640625 314.015625 L 354.957031 314.089844 L 348.300781 314.175781 L 342.898438 314.226562 L 334.617188 314.289062 L 327.058594 314.328125 L 319.140625 314.351562 L 312.117188 314.367188 L 303.839844 314.371094 L 296.457031 314.363281 L 288.539062 314.335938 L 282.238281 314.300781 L 276.480469 314.257812 L 270.71875 314.199219 L 263.519531 314.109375 L 258.839844 314.035156 L 253.976562 313.941406 L 249.117188 313.835938 L 244.796875 313.714844 L 241.917969 313.625 L 239.039062 313.519531 L 235.976562 313.390625 L 233.097656 313.242188 L 230.9375 313.105469 L 228.957031 312.953125 L 227.519531 312.808594 L 226.078125 312.613281 L 225.359375 312.457031 L 225 312.320312 Z M 225 311.640625 "/>
<path style=" stroke:none;fill-rule:nonzero;fill:rgb(83.921569%,15.686275%,22.352941%);fill-opacity:1;" d="M 225 283.785156 L 372.597656 283.785156 L 372.597656 285.570312 L 311.082031 285.585938 L 311.082031 300.472656 L 286.335938 300.472656 L 286.335938 285.601562 L 285.976562 285.570312 L 225 285.570312 Z M 225 283.785156 "/>
<path style=" stroke:none;fill-rule:nonzero;fill:rgb(6.27451%,58.823529%,28.235294%);fill-opacity:1;" d="M 380.367188 290.554688 L 380.523438 290.359375 L 444.390625 84.558594 L 463.785156 84.558594 L 527.96875 290.746094 L 505.417969 290.746094 L 489.332031 236.925781 L 418.84375 236.925781 L 403.074219 290.554688 L 380.367188 290.554688 L 425.625 214.660156 L 482.867188 214.464844 L 454.324219 118.246094 L 454.011719 118.050781 L 453.695312 118.632812 L 425.46875 214.464844 L 425.625 214.660156 Z M 380.367188 290.554688 "/>
<path style=" stroke:none;fill-rule:nonzero;fill:rgb(14.509804%,36.078431%,60%);fill-opacity:1;" d="M 380.367188 313.554688 L 380.546875 313.554688 L 380.546875 313.519531 L 381.085938 313.472656 L 382.347656 313.40625 L 383.609375 313.363281 L 386.847656 313.285156 L 391.347656 313.210938 L 396.027344 313.152344 L 399.449219 313.117188 L 402.507812 313.089844 L 409.527344 313.042969 L 414.027344 313.019531 L 418.886719 312.996094 L 424.828125 312.972656 L 429.148438 312.960938 L 438.867188 312.9375 L 446.066406 312.929688 L 451.648438 312.925781 L 463.707031 312.925781 L 470.90625 312.929688 L 476.128906 312.9375 L 481.886719 312.949219 L 486.746094 312.960938 L 495.207031 312.988281 L 502.769531 313.027344 L 506.1875 313.046875 L 511.589844 313.085938 L 515.726562 313.128906 L 518.609375 313.160156 L 521.847656 313.210938 L 524.726562 313.269531 L 526.886719 313.335938 L 527.96875 313.394531 L 502.769531 313.394531 L 501.507812 313.339844 L 500.066406 313.300781 L 497.367188 313.246094 L 494.667969 313.207031 L 490.886719 313.167969 L 487.46875 313.144531 L 482.789062 313.121094 L 478.648438 313.105469 L 474.328125 313.089844 L 470.1875 313.082031 L 462.269531 313.074219 L 453.085938 313.074219 L 449.667969 313.078125 L 442.648438 313.089844 L 438.867188 313.097656 L 433.46875 313.117188 L 429.6875 313.132812 L 425.1875 313.160156 L 422.128906 313.183594 L 418.347656 313.21875 L 415.648438 313.246094 L 412.585938 313.292969 L 410.789062 313.324219 L 409.167969 313.359375 L 407.726562 313.40625 L 406.648438 313.449219 L 405.925781 313.5 L 405.566406 313.546875 L 405.566406 313.753906 L 405.925781 313.800781 L 406.828125 313.855469 L 409.167969 313.9375 L 412.585938 314.007812 L 416.546875 314.0625 L 420.328125 314.101562 L 422.488281 314.121094 L 425.367188 314.140625 L 429.867188 314.167969 L 436.347656 314.195312 L 440.128906 314.203125 L 445.886719 314.214844 L 451.828125 314.21875 L 459.746094 314.21875 L 466.769531 314.214844 L 471.449219 314.207031 L 476.308594 314.199219 L 482.96875 314.175781 L 487.109375 314.152344 L 490.707031 314.128906 L 493.40625 314.105469 L 495.207031 314.082031 L 497.90625 314.042969 L 500.066406 313.996094 L 501.6875 313.949219 L 502.769531 313.90625 L 527.96875 313.90625 L 526.886719 313.957031 L 525.269531 314.011719 L 523.648438 314.046875 L 521.128906 314.09375 L 518.246094 314.136719 L 514.109375 314.183594 L 510.6875 314.210938 L 506.1875 314.246094 L 502.046875 314.269531 L 497.546875 314.292969 L 490.886719 314.320312 L 486.566406 314.332031 L 481.886719 314.34375 L 476.308594 314.355469 L 469.289062 314.363281 L 461.726562 314.371094 L 454.707031 314.371094 L 447.148438 314.367188 L 441.566406 314.363281 L 434.1875 314.351562 L 425.007812 314.328125 L 418.347656 314.300781 L 413.128906 314.277344 L 408.628906 314.25 L 403.585938 314.214844 L 397.109375 314.15625 L 393.148438 314.113281 L 390.449219 314.074219 L 387.386719 314.023438 L 385.226562 313.976562 L 382.707031 313.902344 L 380.90625 313.808594 L 380.367188 313.738281 Z M 380.367188 313.554688 "/>
<path style=" stroke:none;fill-rule:nonzero;fill:rgb(96.862745%,70.196078%,16.862745%);fill-opacity:1;" d="M 380.367188 298.167969 L 380.546875 298.152344 L 380.546875 297.886719 L 381.265625 297.289062 L 383.066406 296.464844 L 385.40625 295.785156 L 387.925781 295.253906 L 389.546875 294.972656 L 392.246094 294.574219 L 394.585938 294.28125 L 400.527344 293.683594 L 408.085938 293.125 L 412.226562 292.882812 L 416.90625 292.65625 L 423.566406 292.40625 L 426.628906 292.3125 L 435.988281 292.097656 L 446.609375 291.964844 L 458.308594 291.925781 L 463.707031 291.9375 L 471.085938 291.992188 L 481.167969 292.140625 L 486.929688 292.273438 L 491.429688 292.40625 L 496.109375 292.578125 L 501.867188 292.84375 L 507.269531 293.164062 L 511.589844 293.484375 L 515.90625 293.882812 L 519.507812 294.308594 L 522.566406 294.773438 L 525.269531 295.332031 L 526.886719 295.796875 L 527.96875 296.265625 L 502.949219 296.265625 L 501.507812 295.796875 L 499.886719 295.4375 L 497.1875 295 L 494.488281 294.679688 L 491.789062 294.425781 L 486.746094 294.082031 L 482.429688 293.867188 L 477.027344 293.683594 L 471.808594 293.5625 L 465.867188 293.484375 L 462.269531 293.457031 L 452.726562 293.457031 L 444.085938 293.550781 L 439.046875 293.65625 L 435.449219 293.761719 L 430.40625 293.960938 L 427.347656 294.121094 L 425.546875 294.226562 L 420.148438 294.640625 L 416.546875 295.011719 L 414.566406 295.265625 L 412.046875 295.664062 L 410.246094 296.023438 L 408.265625 296.554688 L 407.1875 296.957031 L 405.746094 297.859375 L 405.566406 300.253906 L 406.109375 300.761719 L 407.1875 301.304688 L 408.628906 301.785156 L 410.789062 302.292969 L 412.949219 302.675781 L 416.726562 303.195312 L 419.96875 303.542969 L 422.488281 303.769531 L 427.347656 304.128906 L 429.328125 304.246094 L 434.007812 304.488281 L 438.867188 304.671875 L 444.808594 304.832031 L 449.308594 304.914062 L 456.507812 304.980469 L 465.6875 304.980469 L 476.488281 304.898438 L 483.328125 304.792969 L 488.007812 304.6875 L 491.066406 304.59375 L 494.847656 304.445312 L 497.546875 304.3125 L 500.066406 304.167969 L 503.128906 303.941406 L 503.128906 300.761719 L 458.667969 300.746094 L 458.667969 299.257812 L 527.789062 299.246094 L 527.96875 304.445312 L 524.1875 304.804688 L 519.507812 305.152344 L 515.007812 305.417969 L 510.328125 305.644531 L 503.667969 305.898438 L 498.269531 306.058594 L 489.988281 306.242188 L 482.429688 306.363281 L 474.507812 306.441406 L 467.488281 306.484375 L 459.207031 306.496094 L 451.828125 306.46875 L 443.90625 306.390625 L 437.609375 306.28125 L 431.847656 306.148438 L 426.085938 305.976562 L 418.886719 305.699219 L 414.207031 305.472656 L 409.347656 305.191406 L 404.488281 304.859375 L 400.167969 304.5 L 397.289062 304.21875 L 394.40625 303.902344 L 391.347656 303.503906 L 388.46875 303.050781 L 386.308594 302.636719 L 384.328125 302.171875 L 382.886719 301.730469 L 381.449219 301.132812 L 380.726562 300.65625 L 380.367188 300.242188 Z M 380.367188 298.167969 "/>
<path style=" stroke:none;fill-rule:nonzero;fill:rgb(83.921569%,15.686275%,22.352941%);fill-opacity:1;" d="M 380.367188 307.675781 L 527.96875 307.675781 L 527.96875 308.109375 L 466.453125 308.113281 L 466.453125 311.746094 L 441.703125 311.746094 L 441.703125 308.117188 L 441.34375 308.109375 L 380.367188 308.109375 Z M 380.367188 307.675781 "/>
<path style=" stroke:none;fill-rule:nonzero;fill:rgb(6.27451%,58.823529%,28.235294%);fill-opacity:1;" d="M 535.738281 314.371094 L 535.894531 314.367188 L 599.761719 313.046875 L 619.15625 313.046875 L 683.335938 314.371094 L 660.785156 314.371094 L 644.703125 314.023438 L 574.214844 314.023438 L 558.445312 314.371094 L 535.738281 314.371094 L 580.996094 313.882812 L 638.238281 313.878906 L 609.695312 313.261719 L 609.378906 313.261719 L 609.0625 313.265625 L 580.835938 313.878906 L 580.996094 313.882812 Z M 535.738281 314.371094 "/>
<path style=" stroke:none;fill-rule:nonzero;fill:rgb(14.509804%,36.078431%,60%);fill-opacity:1;" d="M 535.738281 295.4375 L 535.917969 295.429688 L 535.917969 295.179688 L 536.457031 294.785156 L 537.714844 294.289062 L 538.976562 293.945312 L 542.214844 293.335938 L 546.714844 292.742188 L 551.398438 292.285156 L 554.816406 292.015625 L 557.875 291.808594 L 564.898438 291.425781 L 569.398438 291.230469 L 574.257812 291.054688 L 580.195312 290.875 L 584.515625 290.773438 L 594.238281 290.605469 L 601.4375 290.535156 L 607.015625 290.503906 L 619.078125 290.503906 L 626.277344 290.542969 L 631.496094 290.597656 L 637.257812 290.679688 L 642.117188 290.773438 L 650.578125 291 L 658.136719 291.292969 L 661.558594 291.457031 L 666.957031 291.777344 L 671.097656 292.089844 L 673.976562 292.359375 L 677.21875 292.742188 L 680.097656 293.210938 L 682.257812 293.738281 L 683.335938 294.183594 L 658.136719 294.183594 L 656.875 293.769531 L 655.4375 293.449219 L 652.738281 293.023438 L 650.035156 292.722656 L 646.257812 292.421875 L 642.835938 292.226562 L 638.15625 292.027344 L 634.015625 291.902344 L 629.695312 291.808594 L 625.558594 291.746094 L 617.636719 291.683594 L 608.457031 291.683594 L 605.035156 291.707031 L 598.015625 291.789062 L 594.238281 291.863281 L 588.835938 292.007812 L 585.058594 292.140625 L 580.554688 292.347656 L 577.496094 292.523438 L 573.714844 292.796875 L 571.015625 293.035156 L 567.957031 293.375 L 566.15625 293.636719 L 564.535156 293.925781 L 563.097656 294.265625 L 562.015625 294.628906 L 561.296875 295.015625 L 560.9375 295.386719 L 560.9375 296.996094 L 561.296875 297.367188 L 562.195312 297.804688 L 564.535156 298.4375 L 567.957031 298.984375 L 571.917969 299.421875 L 575.695312 299.730469 L 577.855469 299.878906 L 580.738281 300.042969 L 585.238281 300.25 L 591.714844 300.457031 L 595.496094 300.539062 L 601.257812 300.625 L 607.195312 300.664062 L 615.117188 300.664062 L 622.136719 300.625 L 626.816406 300.570312 L 631.675781 300.488281 L 638.335938 300.3125 L 642.476562 300.148438 L 646.078125 299.949219 L 648.777344 299.753906 L 650.578125 299.585938 L 653.277344 299.265625 L 655.4375 298.914062 L 657.058594 298.550781 L 658.136719 298.199219 L 683.335938 298.199219 L 682.257812 298.613281 L 680.636719 299.015625 L 679.015625 299.316406 L 676.496094 299.679688 L 673.617188 300 L 669.476562 300.363281 L 666.058594 300.601562 L 661.558594 300.863281 L 657.417969 301.058594 L 652.917969 301.234375 L 646.257812 301.441406 L 641.9375 301.546875 L 637.257812 301.640625 L 631.675781 301.722656 L 624.65625 301.796875 L 617.097656 301.835938 L 610.078125 301.847656 L 602.515625 301.828125 L 596.9375 301.785156 L 589.558594 301.691406 L 580.375 301.503906 L 573.714844 301.308594 L 568.496094 301.109375 L 563.996094 300.902344 L 558.957031 300.625 L 552.476562 300.167969 L 548.515625 299.816406 L 545.816406 299.523438 L 542.757812 299.121094 L 540.597656 298.757812 L 538.078125 298.175781 L 536.277344 297.441406 L 535.738281 296.871094 Z M 535.738281 295.4375 "/>
<path style=" stroke:none;fill-rule:nonzero;fill:rgb(96.862745%,70.196078%,16.862745%);fill-opacity:1;" d="M 535.738281 306.8125 L 535.917969 306.804688 L 535.917969 306.644531 L 536.636719 306.28125 L 538.4375 305.78125 L 540.777344 305.367188 L 543.296875 305.042969 L 544.917969 304.875 L 547.617188 304.632812 L 549.957031 304.457031 L 555.898438 304.09375 L 563.457031 303.753906 L 567.597656 303.609375 L 572.277344 303.472656 L 578.9375 303.316406 L 581.996094 303.261719 L 591.355469 303.132812 L 601.976562 303.050781 L 613.675781 303.027344 L 619.078125 303.035156 L 626.457031 303.066406 L 636.535156 303.15625 L 642.296875 303.238281 L 646.796875 303.316406 L 651.476562 303.421875 L 657.238281 303.582031 L 662.636719 303.777344 L 666.957031 303.972656 L 671.277344 304.214844 L 674.878906 304.472656 L 677.9375 304.753906 L 680.636719 305.09375 L 682.257812 305.375 L 683.335938 305.660156 L 658.316406 305.660156 L 656.875 305.375 L 655.257812 305.15625 L 652.558594 304.890625 L 649.855469 304.699219 L 647.15625 304.542969 L 642.117188 304.335938 L 637.796875 304.207031 L 632.398438 304.09375 L 627.175781 304.019531 L 621.238281 303.972656 L 617.636719 303.957031 L 608.097656 303.957031 L 599.457031 304.011719 L 594.417969 304.078125 L 590.816406 304.140625 L 585.777344 304.261719 L 582.714844 304.359375 L 580.917969 304.421875 L 575.515625 304.671875 L 571.917969 304.898438 L 569.9375 305.054688 L 567.417969 305.296875 L 565.617188 305.511719 L 563.636719 305.835938 L 562.554688 306.078125 L 561.117188 306.628906 L 560.9375 308.078125 L 561.476562 308.386719 L 562.554688 308.71875 L 563.996094 309.007812 L 566.15625 309.316406 L 568.316406 309.550781 L 572.097656 309.863281 L 575.335938 310.074219 L 577.855469 310.210938 L 582.714844 310.429688 L 584.695312 310.5 L 589.375 310.648438 L 594.238281 310.761719 L 600.175781 310.855469 L 604.675781 310.90625 L 611.875 310.945312 L 621.058594 310.945312 L 631.855469 310.898438 L 638.695312 310.832031 L 643.375 310.769531 L 646.4375 310.710938 L 650.21875 310.621094 L 652.917969 310.542969 L 655.4375 310.453125 L 658.496094 310.316406 L 658.496094 308.386719 L 614.035156 308.378906 L 614.035156 307.476562 L 683.15625 307.464844 L 683.335938 310.621094 L 679.558594 310.839844 L 674.878906 311.050781 L 670.378906 311.210938 L 665.695312 311.347656 L 659.035156 311.503906 L 653.636719 311.597656 L 645.355469 311.710938 L 637.796875 311.785156 L 629.875 311.832031 L 622.855469 311.859375 L 614.578125 311.867188 L 607.195312 311.851562 L 599.277344 311.800781 L 592.976562 311.738281 L 587.214844 311.65625 L 581.457031 311.550781 L 574.257812 311.382812 L 569.578125 311.246094 L 564.714844 311.074219 L 559.855469 310.875 L 555.535156 310.65625 L 552.65625 310.484375 L 549.777344 310.292969 L 546.714844 310.050781 L 543.835938 309.773438 L 541.675781 309.523438 L 539.695312 309.242188 L 538.257812 308.976562 L 536.816406 308.613281 L 536.097656 308.320312 L 535.738281 308.070312 Z M 535.738281 306.8125 "/>
<path style=" stroke:none;fill-rule:nonzero;fill:rgb(83.921569%,15.686275%,22.352941%);fill-opacity:1;" d="M 535.738281 95.136719 L 683.335938 95.136719 L 683.335938 115.925781 L 621.820312 116.105469 L 621.820312 289.324219 L 597.074219 289.324219 L 597.074219 116.289062 L 596.714844 115.925781 L 535.738281 115.925781 Z M 535.738281 95.136719 "/>
<g style="fill:rgb(0%,0%,0%);fill-opacity:1;">
  <use xlink:href="#glyph0-1" x="21.957031" y="318.198242"/>
  <use xlink:href="#glyph0-2" x="27.291016" y="318.198242"/>
  <use xlink:href="#glyph0-1" x="29.958008" y="318.198242"/>
</g>
<g style="fill:rgb(0%,0%,0%);fill-opacity:1;">
  <use xlink:href="#glyph0-1" x="21.957031" y="235.620117"/>
  <use xlink:href="#glyph0-2" x="27.291016" y="235.620117"/>
  <use xlink:href="#glyph0-3" x="29.958008" y="235.620117"/>
</g>
<g style="fill:rgb(0%,0%,0%);fill-opacity:1;">
  <use xlink:href="#glyph0-4" x="21.957031" y="153.041992"/>
  <use xlink:href="#glyph0-2" x="27.291016" y="153.041992"/>
  <use xlink:href="#glyph0-1" x="29.958008" y="153.041992"/>
</g>
<g style="fill:rgb(0%,0%,0%);fill-opacity:1;">
  <use xlink:href="#glyph0-4" x="21.957031" y="70.459961"/>
  <use xlink:href="#glyph0-2" x="27.291016" y="70.459961"/>
  <use xlink:href="#glyph0-3" x="29.958008" y="70.459961"/>
</g>
<g style="fill:rgb(0%,0%,0%);fill-opacity:1;">
  <use xlink:href="#glyph0-4" x="140.429688" y="338.19043"/>
</g>
<g style="fill:rgb(0%,0%,0%);fill-opacity:1;">
  <use xlink:href="#glyph0-5" x="295.796875" y="338.19043"/>
</g>
<g style="fill:rgb(0%,0%,0%);fill-opacity:1;">
  <use xlink:href="#glyph0-6" x="451.167969" y="338.19043"/>
</g>
<g style="fill:rgb(0%,0%,0%);fill-opacity:1;">
  <use xlink:href="#glyph0-7" x="606.535156" y="338.19043"/>
</g>
<g style="fill:rgb(0%,0%,0%);fill-opacity:1;">
  <use xlink:href="#glyph1-1" x="14.412109" y="178.015625"/>
  <use xlink:href="#glyph1-2" x="14.412109" y="170.011719"/>
  <use xlink:href="#glyph1-3" x="14.412109" y="167.347656"/>
  <use xlink:href="#glyph1-4" x="14.412109" y="164.011719"/>
</g>
</g>
</svg>
