<?xml version="1.0" encoding="UTF-8"?>
<svg xmlns="http://www.w3.org/2000/svg" xmlns:xlink="http://www.w3.org/1999/xlink" width="720pt" height="360pt" viewBox="0 0 720 360" version="1.1">
<defs>
<g>
<symbol overflow="visible" id="glyph0-0">
<path style="stroke:none;" d=""/>
</symbol>
<symbol overflow="visible" id="glyph0-1">
<path style="stroke:none;" d="M 2.640625 -6.796875 C 2 -6.796875 1.421875 -6.53125 1.078125 -6.046875 C 0.640625 -5.453125 0.40625 -4.546875 0.40625 -3.296875 C 0.40625 -1 1.1875 0.21875 2.640625 0.21875 C 4.078125 0.21875 4.859375 -1 4.859375 -3.234375 C 4.859375 -4.5625 4.65625 -5.4375 4.203125 -6.046875 C 3.84375 -6.53125 3.28125 -6.796875 2.640625 -6.796875 Z M 2.640625 -6.046875 C 3.546875 -6.046875 4 -5.125 4 -3.3125 C 4 -1.375 3.5625 -0.484375 2.625 -0.484375 C 1.734375 -0.484375 1.28125 -1.421875 1.28125 -3.28125 C 1.28125 -5.140625 1.734375 -6.046875 2.640625 -6.046875 Z M 2.640625 -6.046875 "/>
</symbol>
<symbol overflow="visible" id="glyph0-2">
<path style="stroke:none;" d="M 1.828125 -1 L 0.828125 -1 L 0.828125 0 L 1.828125 0 Z M 1.828125 -1 "/>
</symbol>
<symbol overflow="visible" id="glyph0-3">
<path style="stroke:none;" d="M 4.5625 -6.796875 L 1.0625 -6.796875 L 0.546875 -3.09375 L 1.328125 -3.09375 C 1.71875 -3.5625 2.046875 -3.734375 2.578125 -3.734375 C 3.484375 -3.734375 4.0625 -3.109375 4.0625 -2.09375 C 4.0625 -1.125 3.484375 -0.53125 2.578125 -0.53125 C 1.828125 -0.53125 1.375 -0.90625 1.1875 -1.671875 L 0.328125 -1.671875 C 0.453125 -1.109375 0.546875 -0.84375 0.75 -0.59375 C 1.125 -0.078125 1.828125 0.21875 2.59375 0.21875 C 3.96875 0.21875 4.921875 -0.78125 4.921875 -2.21875 C 4.921875 -3.5625 4.03125 -4.484375 2.71875 -4.484375 C 2.25 -4.484375 1.859375 -4.359375 1.46875 -4.0625 L 1.734375 -5.96875 L 4.5625 -5.96875 Z M 4.5625 -6.796875 "/>
</symbol>
<symbol overflow="visible" id="glyph0-4">
<path style="stroke:none;" d="M 2.484375 -4.84375 L 2.484375 0 L 3.328125 0 L 3.328125 -6.796875 L 2.765625 -6.796875 C 2.46875 -5.75 2.28125 -5.609375 0.984375 -5.453125 L 0.984375 -4.84375 Z M 2.484375 -4.84375 "/>
</symbol>
<symbol overflow="visible" id="glyph0-5">
<path style="stroke:none;" d="M 4.859375 -0.828125 L 1.28125 -0.828125 C 1.359375 -1.390625 1.671875 -1.75 2.5 -2.234375 L 3.46875 -2.75 C 4.40625 -3.265625 4.90625 -3.96875 4.90625 -4.8125 C 4.90625 -5.375 4.671875 -5.90625 4.265625 -6.265625 C 3.859375 -6.625 3.375 -6.796875 2.71875 -6.796875 C 1.859375 -6.796875 1.21875 -6.5 0.84375 -5.921875 C 0.609375 -5.5625 0.5 -5.125 0.484375 -4.4375 L 1.328125 -4.4375 C 1.359375 -4.90625 1.40625 -5.1875 1.53125 -5.40625 C 1.75 -5.8125 2.1875 -6.0625 2.703125 -6.0625 C 3.46875 -6.0625 4.03125 -5.515625 4.03125 -4.78125 C 4.03125 -4.25 3.71875 -3.796875 3.125 -3.4375 L 2.234375 -2.9375 C 0.8125 -2.140625 0.40625 -1.5 0.328125 0 L 4.859375 0 Z M 4.859375 -0.828125 "/>
</symbol>
<symbol overflow="visible" id="glyph0-6">
<path style="stroke:none;" d="M 2.125 -3.125 L 2.578125 -3.125 C 3.515625 -3.125 3.984375 -2.703125 3.984375 -1.890625 C 3.984375 -1.03125 3.46875 -0.53125 2.578125 -0.53125 C 1.65625 -0.53125 1.203125 -0.984375 1.15625 -1.96875 L 0.3125 -1.96875 C 0.34375 -1.421875 0.4375 -1.078125 0.609375 -0.765625 C 0.953125 -0.109375 1.625 0.21875 2.546875 0.21875 C 3.953125 0.21875 4.859375 -0.609375 4.859375 -1.90625 C 4.859375 -2.765625 4.515625 -3.25 3.703125 -3.515625 C 4.34375 -3.765625 4.65625 -4.25 4.65625 -4.9375 C 4.65625 -6.109375 3.875 -6.796875 2.578125 -6.796875 C 1.203125 -6.796875 0.484375 -6.046875 0.453125 -4.609375 L 1.296875 -4.609375 C 1.3125 -5.015625 1.34375 -5.25 1.453125 -5.453125 C 1.640625 -5.828125 2.0625 -6.0625 2.59375 -6.0625 C 3.34375 -6.0625 3.796875 -5.625 3.796875 -4.90625 C 3.796875 -4.421875 3.609375 -4.140625 3.25 -3.984375 C 3.015625 -3.890625 2.71875 -3.84375 2.125 -3.84375 Z M 2.125 -3.125 "/>
</symbol>
<symbol overflow="visible" id="glyph0-7">
<path style="stroke:none;" d="M 3.140625 -1.625 L 3.140625 0 L 3.984375 0 L 3.984375 -1.625 L 4.984375 -1.625 L 4.984375 -2.390625 L 3.984375 -2.390625 L 3.984375 -6.796875 L 3.359375 -6.796875 L 0.265625 -2.515625 L 0.265625 -1.625 Z M 3.140625 -2.390625 L 1 -2.390625 L 3.140625 -5.359375 Z M 3.140625 -2.390625 "/>
</symbol>
<symbol overflow="visible" id="glyph0-8">
<path style="stroke:none;" d="M 4.78125 -5.03125 C 4.609375 -6.140625 3.890625 -6.796875 2.84375 -6.796875 C 2.09375 -6.796875 1.421875 -6.4375 1.03125 -5.828125 C 0.609375 -5.171875 0.40625 -4.34375 0.40625 -3.09375 C 0.40625 -1.953125 0.578125 -1.234375 0.984375 -0.625 C 1.359375 -0.078125 1.953125 0.21875 2.703125 0.21875 C 3.984375 0.21875 4.921875 -0.734375 4.921875 -2.078125 C 4.921875 -3.34375 4.0625 -4.234375 2.84375 -4.234375 C 2.171875 -4.234375 1.640625 -3.96875 1.28125 -3.46875 C 1.28125 -5.125 1.828125 -6.046875 2.796875 -6.046875 C 3.390625 -6.046875 3.796875 -5.671875 3.9375 -5.03125 Z M 2.734375 -3.484375 C 3.546875 -3.484375 4.0625 -2.921875 4.0625 -2 C 4.0625 -1.15625 3.484375 -0.53125 2.703125 -0.53125 C 1.921875 -0.53125 1.328125 -1.1875 1.328125 -2.046875 C 1.328125 -2.890625 1.90625 -3.484375 2.734375 -3.484375 Z M 2.734375 -3.484375 "/>
</symbol>
<symbol overflow="visible" id="glyph0-9">
<path style="stroke:none;" d="M 4.984375 -6.796875 L 0.4375 -6.796875 L 0.4375 -5.96875 L 4.109375 -5.96875 C 2.5 -3.65625 1.828125 -2.234375 1.328125 0 L 2.21875 0 C 2.59375 -2.171875 3.453125 -4.046875 4.984375 -6.09375 Z M 4.984375 -6.796875 "/>
</symbol>
<symbol overflow="visible" id="glyph0-10">
<path style="stroke:none;" d="M 3.75 -3.578125 C 4.453125 -4 4.6875 -4.34375 4.6875 -4.984375 C 4.6875 -6.046875 3.84375 -6.796875 2.640625 -6.796875 C 1.4375 -6.796875 0.59375 -6.046875 0.59375 -4.984375 C 0.59375 -4.359375 0.828125 -4.015625 1.515625 -3.578125 C 0.734375 -3.203125 0.359375 -2.640625 0.359375 -1.890625 C 0.359375 -0.640625 1.296875 0.21875 2.640625 0.21875 C 3.984375 0.21875 4.921875 -0.640625 4.921875 -1.875 C 4.921875 -2.640625 4.53125 -3.203125 3.75 -3.578125 Z M 2.640625 -6.046875 C 3.359375 -6.046875 3.8125 -5.625 3.8125 -4.96875 C 3.8125 -4.34375 3.34375 -3.921875 2.640625 -3.921875 C 1.921875 -3.921875 1.453125 -4.34375 1.453125 -4.984375 C 1.453125 -5.625 1.921875 -6.046875 2.640625 -6.046875 Z M 2.640625 -3.203125 C 3.484375 -3.203125 4.0625 -2.671875 4.0625 -1.875 C 4.0625 -1.0625 3.484375 -0.53125 2.625 -0.53125 C 1.796875 -0.53125 1.21875 -1.078125 1.21875 -1.875 C 1.21875 -2.671875 1.796875 -3.203125 2.640625 -3.203125 Z M 2.640625 -3.203125 "/>
</symbol>
<symbol overflow="visible" id="glyph1-0">
<path style="stroke:none;" d=""/>
</symbol>
<symbol overflow="visible" id="glyph1-1">
<path style="stroke:none;" d="M 0 -0.953125 L 0 -4.890625 C 0 -5.71875 -0.234375 -6.34375 -0.734375 -6.796875 C -1.1875 -7.234375 -1.8125 -7.46875 -2.5 -7.46875 C -3.546875 -7.46875 -4.1875 -7 -4.625 -5.875 C -4.984375 -6.671875 -5.640625 -7.09375 -6.53125 -7.09375 C -7.15625 -7.09375 -7.734375 -6.859375 -8.140625 -6.390625 C -8.5625 -5.9375 -8.75 -5.34375 -8.75 -4.5 L -8.75 -0.953125 Z M -4.984375 -2.0625 L -7.765625 -2.0625 L -7.765625 -4.21875 C -7.765625 -4.84375 -7.6875 -5.203125 -7.453125 -5.5 C -7.21875 -5.8125 -6.859375 -5.96875 -6.375 -5.96875 C -5.90625 -5.96875 -5.53125 -5.8125 -5.296875 -5.5 C -5.0625 -5.203125 -4.984375 -4.84375 -4.984375 -4.21875 Z M -0.984375 -2.0625 L -4 -2.0625 L -4 -4.78125 C -4 -5.328125 -3.859375 -5.6875 -3.578125 -5.953125 C -3.296875 -6.21875 -2.921875 -6.359375 -2.484375 -6.359375 C -2.0625 -6.359375 -1.6875 -6.21875 -1.40625 -5.953125 C -1.109375 -5.6875 -0.984375 -5.328125 -0.984375 -4.78125 Z M -0.984375 -2.0625 "/>
</symbol>
<symbol overflow="visible" id="glyph1-2">
<path style="stroke:none;" d="M -6.28125 -1.796875 L -6.28125 -0.796875 L 0 -0.796875 L 0 -1.796875 Z M -8.75 -1.796875 L -8.75 -0.796875 L -7.484375 -0.796875 L -7.484375 -1.796875 Z M -8.75 -1.796875 "/>
</symbol>
<symbol overflow="visible" id="glyph1-3">
<path style="stroke:none;" d="M -6.28125 -3.046875 L -6.28125 -2.015625 L -8.015625 -2.015625 L -8.015625 -1.015625 L -6.28125 -1.015625 L -6.28125 -0.171875 L -5.46875 -0.171875 L -5.46875 -1.015625 L -0.71875 -1.015625 C -0.078125 -1.015625 0.28125 -1.453125 0.28125 -2.234375 C 0.28125 -2.46875 0.25 -2.71875 0.1875 -3.046875 L -0.640625 -3.046875 C -0.609375 -2.921875 -0.59375 -2.765625 -0.59375 -2.5625 C -0.59375 -2.140625 -0.71875 -2.015625 -1.15625 -2.015625 L -5.46875 -2.015625 L -5.46875 -3.046875 Z M -6.28125 -3.046875 "/>
</symbol>
<symbol overflow="visible" id="glyph1-4">
<path style="stroke:none;" d="M -4.53125 -5.25 C -5.765625 -5.25 -6.46875 -4.421875 -6.46875 -2.96875 C -6.46875 -1.515625 -5.71875 -0.5625 -4.546875 -0.5625 C -3.5625 -0.5625 -3.09375 -1.0625 -2.734375 -2.5625 L -2.515625 -3.484375 C -2.34375 -4.1875 -2.09375 -4.46875 -1.625 -4.46875 C -1.046875 -4.46875 -0.640625 -3.875 -0.640625 -3 C -0.640625 -2.453125 -0.796875 -2 -1.0625 -1.75 C -1.25 -1.59375 -1.421875 -1.53125 -1.875 -1.46875 L -1.875 -0.40625 C -0.421875 -0.453125 0.28125 -1.265625 0.28125 -2.921875 C 0.28125 -4.5 -0.5 -5.515625 -1.71875 -5.515625 C -2.65625 -5.515625 -3.171875 -4.984375 -3.46875 -3.734375 L -3.703125 -2.765625 C -3.890625 -1.953125 -4.15625 -1.609375 -4.59375 -1.609375 C -5.171875 -1.609375 -5.546875 -2.125 -5.546875 -2.9375 C -5.546875 -3.75 -5.203125 -4.171875 -4.53125 -4.203125 Z M -4.53125 -5.25 "/>
</symbol>
</g>
</defs>
<g id="surface1532">
<rect x="0" y="0" width="720" height="360" style="fill:rgb(100%,100%,100%);fill-opacity:1;stroke:none;"/>
<path style=" stroke:none;fill-rule:nonzero;fill:rgb(6.27451%,58.823529%,28.235294%);fill-opacity:1;" d="M 69.628906 296.808594 L 69.707031 296.800781 L 101.441406 286.296875 L 111.078125 286.296875 L 142.964844 296.820312 L 131.761719 296.820312 L 123.769531 294.074219 L 88.746094 294.074219 L 80.910156 296.808594 L 69.628906 296.808594 L 92.117188 292.9375 L 120.558594 292.925781 L 106.375 288.019531 L 106.21875 288.007812 L 106.0625 288.039062 L 92.039062 292.925781 L 92.117188 292.9375 Z M 69.628906 296.808594 "/>
<path style=" stroke:none;fill-rule:nonzero;fill:rgb(14.509804%,36.078431%,60%);fill-opacity:1;" d="M 69.628906 309.632812 L 69.71875 309.628906 L 69.71875 309.558594 L 69.988281 309.449219 L 70.613281 309.308594 L 71.238281 309.210938 L 72.847656 309.039062 L 75.085938 308.871094 L 77.410156 308.742188 L 79.109375 308.664062 L 80.628906 308.605469 L 84.117188 308.5 L 86.355469 308.441406 L 88.769531 308.394531 L 91.71875 308.34375 L 93.867188 308.3125 L 98.695312 308.265625 L 102.273438 308.246094 L 105.046875 308.238281 L 111.039062 308.238281 L 114.613281 308.25 L 117.207031 308.265625 L 120.070312 308.289062 L 122.484375 308.3125 L 126.6875 308.378906 L 130.445312 308.460938 L 132.144531 308.507812 L 134.828125 308.597656 L 136.882812 308.6875 L 138.316406 308.761719 L 139.925781 308.871094 L 141.355469 309.003906 L 142.429688 309.152344 L 142.964844 309.277344 L 130.445312 309.277344 L 129.820312 309.160156 L 129.101562 309.070312 L 127.761719 308.949219 L 126.421875 308.863281 L 124.542969 308.78125 L 122.84375 308.722656 L 120.515625 308.667969 L 118.460938 308.632812 L 116.3125 308.605469 L 114.257812 308.589844 L 110.320312 308.570312 L 105.761719 308.570312 L 104.0625 308.578125 L 100.574219 308.601562 L 98.695312 308.621094 L 96.011719 308.664062 L 94.132812 308.699219 L 91.898438 308.757812 L 90.378906 308.808594 L 88.5 308.886719 L 87.160156 308.953125 L 85.636719 309.050781 L 84.742188 309.121094 L 83.9375 309.207031 L 83.222656 309.300781 L 82.6875 309.40625 L 82.328125 309.511719 L 82.148438 309.617188 L 82.148438 310.074219 L 82.328125 310.179688 L 82.777344 310.300781 L 83.9375 310.480469 L 85.636719 310.636719 L 87.605469 310.757812 L 89.484375 310.847656 L 90.558594 310.886719 L 91.988281 310.933594 L 94.222656 310.992188 L 97.445312 311.050781 L 99.320312 311.074219 L 102.183594 311.097656 L 105.136719 311.109375 L 109.070312 311.109375 L 112.558594 311.097656 L 114.882812 311.085938 L 117.296875 311.0625 L 120.605469 311.011719 L 122.664062 310.964844 L 124.453125 310.910156 L 125.792969 310.851562 L 126.6875 310.804688 L 128.03125 310.714844 L 129.101562 310.617188 L 129.90625 310.511719 L 130.445312 310.414062 L 142.964844 310.414062 L 142.429688 310.53125 L 141.625 310.644531 L 140.820312 310.730469 L 139.566406 310.832031 L 138.136719 310.921875 L 136.078125 311.027344 L 134.378906 311.09375 L 132.144531 311.167969 L 130.085938 311.222656 L 127.851562 311.273438 L 124.542969 311.332031 L 122.394531 311.359375 L 120.070312 311.386719 L 117.296875 311.410156 L 113.808594 311.429688 L 110.054688 311.441406 L 106.566406 311.445312 L 102.808594 311.441406 L 100.035156 311.429688 L 96.371094 311.402344 L 91.808594 311.347656 L 88.5 311.292969 L 85.90625 311.238281 L 83.671875 311.179688 L 81.167969 311.097656 L 77.945312 310.96875 L 75.980469 310.871094 L 74.636719 310.789062 L 73.117188 310.675781 L 72.042969 310.570312 L 70.792969 310.40625 L 69.898438 310.199219 L 69.628906 310.039062 Z M 69.628906 309.632812 "/>
<path style=" stroke:none;fill-rule:nonzero;fill:rgb(96.862745%,70.196078%,16.862745%);fill-opacity:1;" d="M 69.628906 313.371094 L 69.71875 313.371094 L 69.71875 313.339844 L 70.078125 313.265625 L 70.972656 313.167969 L 72.132812 313.085938 L 73.386719 313.023438 L 74.191406 312.988281 L 75.53125 312.941406 L 76.695312 312.90625 L 79.644531 312.835938 L 83.402344 312.769531 L 85.460938 312.738281 L 87.785156 312.710938 L 91.09375 312.683594 L 92.613281 312.671875 L 97.265625 312.644531 L 102.542969 312.628906 L 108.355469 312.625 L 111.039062 312.625 L 114.703125 312.632812 L 119.710938 312.652344 L 122.574219 312.667969 L 124.808594 312.683594 L 127.136719 312.703125 L 129.996094 312.734375 L 132.679688 312.773438 L 134.828125 312.8125 L 136.972656 312.859375 L 138.761719 312.910156 L 140.28125 312.964844 L 141.625 313.03125 L 142.429688 313.089844 L 142.964844 313.144531 L 130.535156 313.144531 L 129.820312 313.089844 L 129.015625 313.046875 L 127.671875 312.992188 L 126.332031 312.953125 L 124.988281 312.925781 L 122.484375 312.882812 L 120.339844 312.859375 L 117.65625 312.835938 L 115.0625 312.820312 L 112.109375 312.8125 L 110.320312 312.808594 L 105.582031 312.808594 L 101.289062 312.820312 L 98.785156 312.832031 L 96.996094 312.84375 L 94.492188 312.867188 L 92.972656 312.886719 L 89.394531 312.949219 L 87.605469 312.996094 L 86.621094 313.023438 L 85.371094 313.074219 L 84.476562 313.117188 L 83.492188 313.179688 L 82.953125 313.226562 L 82.238281 313.335938 L 82.148438 313.621094 L 82.417969 313.683594 L 82.953125 313.75 L 83.671875 313.804688 L 84.742188 313.867188 L 85.816406 313.914062 L 87.695312 313.976562 L 89.304688 314.015625 L 90.558594 314.042969 L 92.972656 314.085938 L 93.957031 314.101562 L 96.28125 314.128906 L 98.695312 314.152344 L 101.648438 314.171875 L 103.882812 314.179688 L 107.460938 314.1875 L 112.019531 314.1875 L 117.386719 314.179688 L 120.785156 314.167969 L 123.109375 314.152344 L 124.632812 314.144531 L 126.507812 314.125 L 127.851562 314.109375 L 129.101562 314.089844 L 130.625 314.066406 L 130.625 313.683594 L 108.535156 313.683594 L 108.535156 313.503906 L 142.875 313.5 L 142.964844 314.125 L 141.085938 314.167969 L 138.761719 314.210938 L 136.527344 314.242188 L 134.199219 314.269531 L 130.890625 314.300781 L 128.207031 314.316406 L 124.09375 314.339844 L 120.339844 314.355469 L 116.402344 314.363281 L 112.914062 314.367188 L 108.800781 314.371094 L 105.136719 314.367188 L 101.199219 314.359375 L 98.070312 314.34375 L 95.207031 314.328125 L 92.34375 314.308594 L 88.769531 314.273438 L 86.441406 314.246094 L 84.027344 314.214844 L 81.613281 314.175781 L 79.46875 314.132812 L 78.035156 314.097656 L 76.605469 314.058594 L 75.085938 314.011719 L 73.652344 313.957031 L 72.582031 313.910156 L 71.597656 313.851562 L 70.882812 313.800781 L 70.164062 313.726562 L 69.808594 313.671875 L 69.628906 313.621094 Z M 69.628906 313.371094 "/>
<path style=" stroke:none;fill-rule:nonzero;fill:rgb(83.921569%,15.686275%,22.352941%);fill-opacity:1;" d="M 69.628906 298 L 142.964844 298 L 142.964844 298.96875 L 112.402344 298.976562 L 112.402344 307.058594 L 100.105469 307.058594 L 100.105469 298.984375 L 99.925781 298.96875 L 69.628906 298.96875 Z M 69.628906 298 "/>
<path style=" stroke:none;fill-rule:nonzero;fill:rgb(83.921569%,15.686275%,22.352941%);fill-opacity:1;" d="M 146.824219 20.664062 L 220.160156 20.664062 L 220.160156 52.101562 L 189.597656 52.378906 L 189.597656 314.371094 L 177.300781 314.371094 L 177.300781 52.652344 L 177.121094 52.101562 L 146.824219 52.101562 Z M 146.824219 20.664062 "/>
<path style=" stroke:none;fill-rule:nonzero;fill:rgb(6.27451%,58.823529%,28.235294%);fill-opacity:1;" d="M 224.019531 314.363281 L 224.097656 314.351562 L 255.832031 305 L 265.46875 305 L 297.355469 314.371094 L 286.152344 314.371094 L 278.160156 311.925781 L 243.140625 311.925781 L 235.304688 314.363281 L 224.019531 314.363281 L 246.507812 310.914062 L 274.949219 310.902344 L 260.769531 306.53125 L 260.609375 306.523438 L 260.453125 306.550781 L 246.429688 310.902344 L 246.507812 310.914062 Z M 224.019531 314.363281 "/>
<path style=" stroke:none;fill-rule:nonzero;fill:rgb(96.862745%,70.196078%,16.862745%);fill-opacity:1;" d="M 224.019531 185.386719 L 224.109375 185.214844 L 224.109375 181.765625 L 224.46875 174.011719 L 225.363281 163.324219 L 226.523438 154.535156 L 227.777344 147.644531 L 228.582031 144.023438 L 229.925781 138.855469 L 231.085938 135.0625 L 234.039062 127.308594 L 237.792969 120.070312 L 239.851562 116.964844 L 242.175781 114.035156 L 245.484375 110.761719 L 247.003906 109.554688 L 251.65625 106.796875 L 256.933594 105.074219 L 262.746094 104.558594 L 265.429688 104.730469 L 269.097656 105.417969 L 274.105469 107.316406 L 276.964844 109.039062 L 279.203125 110.761719 L 281.527344 113.003906 L 284.390625 116.449219 L 287.074219 120.585938 L 289.21875 124.722656 L 291.367188 129.890625 L 293.152344 135.40625 L 294.675781 141.4375 L 296.015625 148.675781 L 296.820312 154.710938 L 297.355469 160.742188 L 284.925781 160.742188 L 284.210938 154.710938 L 283.40625 150.054688 L 282.0625 144.367188 L 280.722656 140.230469 L 279.382812 136.957031 L 276.875 132.476562 L 274.730469 129.71875 L 272.046875 127.308594 L 269.453125 125.753906 L 266.503906 124.722656 L 264.714844 124.378906 L 259.972656 124.378906 L 255.679688 125.582031 L 253.175781 126.960938 L 251.386719 128.339844 L 248.882812 130.925781 L 247.363281 132.992188 L 246.46875 134.371094 L 243.785156 139.714844 L 241.996094 144.539062 L 241.015625 147.816406 L 239.761719 152.984375 L 238.867188 157.640625 L 237.882812 164.53125 L 237.347656 169.703125 L 236.632812 181.421875 L 236.542969 212.445312 L 236.808594 218.992188 L 237.347656 226.058594 L 238.0625 232.261719 L 239.136719 238.8125 L 240.207031 243.808594 L 242.085938 250.53125 L 243.695312 255.011719 L 244.949219 257.941406 L 247.363281 262.59375 L 248.347656 264.144531 L 250.671875 267.246094 L 253.085938 269.660156 L 256.039062 271.730469 L 258.273438 272.761719 L 261.851562 273.625 L 266.414062 273.625 L 271.777344 272.589844 L 275.175781 271.210938 L 277.503906 269.832031 L 279.023438 268.625 L 280.902344 266.730469 L 282.242188 265.007812 L 283.496094 263.113281 L 285.015625 260.183594 L 285.015625 218.992188 L 262.925781 218.820312 L 262.925781 199.519531 L 297.269531 199.34375 L 297.355469 266.730469 L 295.480469 271.382812 L 293.152344 275.863281 L 290.917969 279.3125 L 288.59375 282.242188 L 285.285156 285.515625 L 282.601562 287.585938 L 278.488281 289.996094 L 274.730469 291.546875 L 270.796875 292.582031 L 267.308594 293.097656 L 263.195312 293.269531 L 259.527344 292.925781 L 255.589844 291.894531 L 252.460938 290.515625 L 249.597656 288.789062 L 246.738281 286.550781 L 243.160156 282.929688 L 240.835938 280 L 238.421875 276.382812 L 236.003906 272.074219 L 233.859375 267.421875 L 232.429688 263.800781 L 230.996094 259.664062 L 229.476562 254.496094 L 228.046875 248.636719 L 226.972656 243.292969 L 225.988281 237.261719 L 225.273438 231.574219 L 224.558594 223.816406 L 224.199219 217.613281 L 224.019531 212.269531 Z M 224.019531 185.386719 "/>
<path style=" stroke:none;fill-rule:nonzero;fill:rgb(83.921569%,15.686275%,22.352941%);fill-opacity:1;" d="M 224.019531 294.449219 L 297.355469 294.449219 L 297.355469 295.453125 L 266.792969 295.460938 L 266.792969 303.820312 L 254.496094 303.820312 L 254.496094 295.472656 L 254.316406 295.453125 L 224.019531 295.453125 Z M 224.019531 294.449219 "/>
<path style=" stroke:none;fill-rule:nonzero;fill:rgb(14.509804%,36.078431%,60%);fill-opacity:1;" d="M 301.21875 298.527344 L 301.304688 298.519531 L 301.304688 298.3125 L 301.574219 297.988281 L 302.199219 297.578125 L 302.828125 297.292969 L 304.4375 296.789062 L 306.671875 296.300781 L 308.996094 295.925781 L 310.695312 295.703125 L 312.21875 295.53125 L 315.707031 295.214844 L 317.941406 295.050781 L 320.355469 294.90625 L 323.308594 294.757812 L 325.453125 294.671875 L 330.285156 294.535156 L 333.859375 294.476562 L 336.632812 294.449219 L 342.625 294.449219 L 346.203125 294.484375 L 348.796875 294.527344 L 351.65625 294.597656 L 354.074219 294.671875 L 358.277344 294.863281 L 362.03125 295.101562 L 363.730469 295.238281 L 366.414062 295.503906 L 368.472656 295.761719 L 369.902344 295.984375 L 371.511719 296.300781 L 372.945312 296.6875 L 374.015625 297.125 L 374.554688 297.492188 L 362.03125 297.492188 L 361.40625 297.148438 L 360.691406 296.882812 L 359.347656 296.53125 L 358.007812 296.285156 L 356.128906 296.035156 L 354.429688 295.871094 L 352.105469 295.710938 L 350.046875 295.605469 L 347.902344 295.53125 L 345.84375 295.480469 L 341.910156 295.425781 L 337.347656 295.425781 L 335.648438 295.445312 L 332.160156 295.511719 L 330.285156 295.574219 L 327.601562 295.691406 L 325.722656 295.804688 L 323.484375 295.976562 L 321.964844 296.121094 L 320.085938 296.34375 L 318.746094 296.539062 L 317.226562 296.824219 L 316.332031 297.039062 L 315.527344 297.277344 L 314.8125 297.558594 L 314.273438 297.859375 L 313.917969 298.175781 L 313.738281 298.484375 L 313.738281 299.8125 L 313.917969 300.121094 L 314.363281 300.480469 L 315.527344 301.003906 L 317.226562 301.457031 L 319.195312 301.816406 L 321.070312 302.074219 L 322.144531 302.195312 L 323.574219 302.332031 L 325.8125 302.503906 L 329.03125 302.671875 L 330.910156 302.742188 L 333.769531 302.808594 L 336.722656 302.84375 L 340.65625 302.84375 L 344.144531 302.808594 L 346.472656 302.765625 L 348.886719 302.699219 L 352.195312 302.554688 L 354.25 302.417969 L 356.039062 302.253906 L 357.382812 302.089844 L 358.277344 301.953125 L 359.617188 301.6875 L 360.691406 301.398438 L 361.496094 301.097656 L 362.03125 300.804688 L 374.554688 300.804688 L 374.015625 301.148438 L 373.210938 301.484375 L 372.40625 301.730469 L 371.15625 302.03125 L 369.722656 302.296875 L 367.667969 302.597656 L 365.96875 302.792969 L 363.730469 303.007812 L 361.675781 303.171875 L 359.4375 303.316406 L 356.128906 303.488281 L 353.984375 303.574219 L 351.65625 303.648438 L 348.886719 303.71875 L 345.398438 303.777344 L 341.640625 303.8125 L 338.152344 303.820312 L 334.398438 303.804688 L 331.625 303.769531 L 327.957031 303.691406 L 323.398438 303.539062 L 320.085938 303.375 L 317.496094 303.214844 L 315.257812 303.042969 L 312.753906 302.808594 L 309.535156 302.433594 L 307.566406 302.140625 L 306.226562 301.902344 L 304.707031 301.570312 L 303.632812 301.269531 L 302.378906 300.789062 L 301.484375 300.179688 L 301.21875 299.710938 Z M 301.21875 298.527344 "/>
<path style=" stroke:none;fill-rule:nonzero;fill:rgb(96.862745%,70.196078%,16.862745%);fill-opacity:1;" d="M 301.21875 309.015625 L 301.304688 309.003906 L 301.304688 308.835938 L 301.664062 308.449219 L 302.558594 307.917969 L 303.722656 307.480469 L 304.972656 307.140625 L 305.777344 306.960938 L 307.121094 306.703125 L 308.28125 306.515625 L 311.234375 306.128906 L 314.988281 305.769531 L 317.046875 305.617188 L 319.371094 305.472656 L 322.679688 305.308594 L 324.203125 305.25 L 328.851562 305.113281 L 334.128906 305.027344 L 339.941406 305 L 342.625 305.007812 L 346.292969 305.042969 L 351.300781 305.136719 L 354.164062 305.222656 L 356.398438 305.308594 L 358.722656 305.417969 L 361.585938 305.589844 L 364.269531 305.796875 L 366.414062 306 L 368.5625 306.257812 L 370.351562 306.53125 L 371.871094 306.832031 L 373.210938 307.191406 L 374.015625 307.492188 L 374.554688 307.789062 L 362.121094 307.789062 L 361.40625 307.492188 L 360.601562 307.257812 L 359.261719 306.976562 L 357.917969 306.773438 L 356.578125 306.609375 L 354.074219 306.386719 L 351.925781 306.25 L 349.242188 306.128906 L 346.648438 306.054688 L 343.699219 306 L 341.910156 305.984375 L 337.167969 305.984375 L 332.875 306.042969 L 330.371094 306.113281 L 328.585938 306.179688 L 326.078125 306.308594 L 324.558594 306.414062 L 323.664062 306.480469 L 320.980469 306.746094 L 319.195312 306.984375 L 318.210938 307.148438 L 316.957031 307.40625 L 316.0625 307.636719 L 315.078125 307.976562 L 314.542969 308.234375 L 313.828125 308.816406 L 313.738281 310.355469 L 314.007812 310.683594 L 314.542969 311.035156 L 315.257812 311.339844 L 316.332031 311.667969 L 317.40625 311.914062 L 319.28125 312.25 L 320.894531 312.472656 L 322.144531 312.617188 L 324.558594 312.847656 L 325.542969 312.925781 L 327.867188 313.078125 L 330.285156 313.199219 L 333.234375 313.300781 L 335.46875 313.351562 L 339.046875 313.394531 L 343.609375 313.394531 L 348.976562 313.34375 L 352.375 313.273438 L 354.699219 313.207031 L 356.21875 313.148438 L 358.097656 313.054688 L 359.4375 312.96875 L 360.691406 312.875 L 362.210938 312.726562 L 362.210938 310.683594 L 340.121094 310.675781 L 340.121094 309.714844 L 374.464844 309.707031 L 374.554688 313.054688 L 372.675781 313.285156 L 370.351562 313.507812 L 368.113281 313.675781 L 365.789062 313.824219 L 362.480469 313.984375 L 359.796875 314.089844 L 355.683594 314.207031 L 351.925781 314.285156 L 347.992188 314.335938 L 344.503906 314.363281 L 340.390625 314.371094 L 336.722656 314.355469 L 332.789062 314.300781 L 329.65625 314.234375 L 326.796875 314.148438 L 323.933594 314.035156 L 320.355469 313.855469 L 318.03125 313.710938 L 315.617188 313.53125 L 313.203125 313.316406 L 311.054688 313.085938 L 309.625 312.90625 L 308.191406 312.703125 L 306.671875 312.445312 L 305.242188 312.15625 L 304.167969 311.890625 L 303.183594 311.589844 L 302.46875 311.308594 L 301.753906 310.921875 L 301.394531 310.613281 L 301.21875 310.347656 Z M 301.21875 309.015625 "/>
<path style=" stroke:none;fill-rule:nonzero;fill:rgb(83.921569%,15.686275%,22.352941%);fill-opacity:1;" d="M 301.21875 104.558594 L 374.554688 104.558594 L 374.554688 124.757812 L 343.988281 124.933594 L 343.988281 293.269531 L 331.691406 293.269531 L 331.691406 125.113281 L 331.515625 124.757812 L 301.21875 124.757812 Z M 301.21875 104.558594 "/>
<path style=" stroke:none;fill-rule:nonzero;fill:rgb(83.921569%,15.686275%,22.352941%);fill-opacity:1;" d="M 378.414062 20.664062 L 451.75 20.664062 L 451.75 52.101562 L 421.183594 52.378906 L 421.183594 314.371094 L 408.886719 314.371094 L 408.886719 52.652344 L 408.710938 52.101562 L 378.414062 52.101562 Z M 378.414062 20.664062 "/>
<path style=" stroke:none;fill-rule:nonzero;fill:rgb(96.862745%,70.196078%,16.862745%);fill-opacity:1;" d="M 455.609375 307.824219 L 455.699219 307.8125 L 455.699219 307.601562 L 456.054688 307.132812 L 456.949219 306.484375 L 458.113281 305.949219 L 459.367188 305.53125 L 460.171875 305.3125 L 461.511719 305 L 462.675781 304.769531 L 465.625 304.296875 L 469.382812 303.859375 L 471.4375 303.671875 L 473.765625 303.492188 L 477.074219 303.292969 L 478.59375 303.21875 L 483.246094 303.054688 L 488.519531 302.949219 L 494.335938 302.917969 L 497.015625 302.925781 L 500.683594 302.96875 L 505.691406 303.085938 L 508.554688 303.1875 L 510.789062 303.292969 L 513.117188 303.429688 L 515.976562 303.640625 L 518.660156 303.890625 L 520.804688 304.140625 L 522.953125 304.453125 L 524.742188 304.789062 L 526.261719 305.15625 L 527.605469 305.59375 L 528.410156 305.960938 L 528.945312 306.328125 L 516.515625 306.328125 L 515.796875 305.960938 L 514.992188 305.679688 L 513.652344 305.332031 L 512.308594 305.082031 L 510.96875 304.882812 L 508.464844 304.613281 L 506.316406 304.445312 L 503.636719 304.296875 L 501.042969 304.203125 L 498.089844 304.140625 L 496.300781 304.121094 L 491.5625 304.121094 L 487.269531 304.191406 L 484.765625 304.277344 L 482.976562 304.359375 L 480.472656 304.515625 L 478.953125 304.644531 L 478.058594 304.726562 L 475.375 305.050781 L 473.585938 305.34375 L 472.601562 305.542969 L 471.347656 305.855469 L 470.457031 306.140625 L 469.472656 306.558594 L 468.933594 306.871094 L 468.21875 307.582031 L 468.128906 309.464844 L 468.398438 309.863281 L 468.933594 310.292969 L 469.648438 310.667969 L 470.722656 311.066406 L 471.796875 311.367188 L 473.675781 311.777344 L 475.285156 312.046875 L 476.535156 312.226562 L 478.953125 312.507812 L 479.933594 312.601562 L 482.261719 312.792969 L 484.675781 312.9375 L 487.625 313.0625 L 489.863281 313.125 L 493.441406 313.179688 L 498 313.179688 L 503.367188 313.117188 L 506.765625 313.03125 L 509.089844 312.949219 L 510.609375 312.875 L 512.488281 312.761719 L 513.832031 312.65625 L 515.082031 312.539062 L 516.601562 312.363281 L 516.601562 309.863281 L 494.511719 309.851562 L 494.511719 308.679688 L 528.855469 308.671875 L 528.945312 312.761719 L 527.066406 313.042969 L 524.742188 313.3125 L 522.507812 313.523438 L 520.179688 313.703125 L 516.871094 313.898438 L 514.1875 314.027344 L 510.074219 314.171875 L 506.316406 314.265625 L 502.382812 314.328125 L 498.894531 314.359375 L 494.78125 314.371094 L 491.113281 314.351562 L 487.179688 314.285156 L 484.050781 314.203125 L 481.1875 314.097656 L 478.324219 313.960938 L 474.746094 313.742188 L 472.421875 313.566406 L 470.007812 313.34375 L 467.59375 313.085938 L 465.445312 312.800781 L 464.015625 312.582031 L 462.585938 312.332031 L 461.066406 312.015625 L 459.632812 311.660156 L 458.558594 311.335938 L 457.578125 310.972656 L 456.859375 310.625 L 456.144531 310.15625 L 455.789062 309.777344 L 455.609375 309.453125 Z M 455.609375 307.824219 "/>
<path style=" stroke:none;fill-rule:nonzero;fill:rgb(83.921569%,15.686275%,22.352941%);fill-opacity:1;" d="M 455.609375 62.890625 L 528.945312 62.890625 L 528.945312 88.457031 L 498.382812 88.679688 L 498.382812 301.738281 L 486.085938 301.738281 L 486.085938 88.90625 L 485.90625 88.457031 L 455.609375 88.457031 Z M 455.609375 62.890625 "/>
<path style=" stroke:none;fill-rule:nonzero;fill:rgb(6.27451%,58.823529%,28.235294%);fill-opacity:1;" d="M 532.804688 314.09375 L 532.882812 313.820312 L 564.617188 20.664062 L 574.253906 20.664062 L 606.140625 314.371094 L 594.9375 314.371094 L 586.945312 237.703125 L 551.921875 237.703125 L 544.085938 314.09375 L 532.804688 314.09375 L 555.292969 205.988281 L 583.734375 205.710938 L 569.550781 68.648438 L 569.394531 68.375 L 569.238281 69.199219 L 555.214844 205.710938 L 555.292969 205.988281 Z M 532.804688 314.09375 "/>
<path style=" stroke:none;fill-rule:nonzero;fill:rgb(6.27451%,58.823529%,28.235294%);fill-opacity:1;" d="M 610 314.363281 L 610.078125 314.355469 L 641.8125 307.054688 L 651.449219 307.054688 L 683.335938 314.371094 L 672.132812 314.371094 L 664.140625 312.460938 L 629.117188 312.460938 L 621.285156 314.363281 L 610 314.363281 L 632.488281 311.671875 L 660.929688 311.664062 L 646.746094 308.25 L 646.589844 308.242188 L 646.433594 308.261719 L 632.410156 311.664062 L 632.488281 311.671875 Z M 610 314.363281 "/>
<path style=" stroke:none;fill-rule:nonzero;fill:rgb(14.509804%,36.078431%,60%);fill-opacity:1;" d="M 610 207.960938 L 610.089844 207.832031 L 610.089844 204.6875 L 610.359375 199.710938 L 610.984375 193.425781 L 611.609375 189.105469 L 613.21875 181.378906 L 615.457031 173.917969 L 617.78125 168.15625 L 619.480469 164.75 L 621 162.132812 L 624.488281 157.289062 L 626.726562 154.800781 L 629.140625 152.574219 L 632.089844 150.347656 L 634.238281 149.039062 L 639.066406 146.941406 L 642.644531 146.027344 L 645.417969 145.632812 L 651.410156 145.632812 L 654.988281 146.15625 L 657.578125 146.8125 L 660.441406 147.859375 L 662.855469 149.039062 L 667.058594 151.917969 L 670.816406 155.585938 L 672.515625 157.679688 L 675.199219 161.738281 L 677.253906 165.667969 L 678.6875 169.074219 L 680.296875 173.917969 L 681.726562 179.808594 L 682.800781 186.488281 L 683.335938 192.117188 L 670.816406 192.117188 L 670.191406 186.878906 L 669.476562 182.820312 L 668.132812 177.453125 L 666.792969 173.65625 L 664.914062 169.859375 L 663.214844 167.371094 L 660.890625 164.882812 L 658.832031 163.3125 L 656.6875 162.132812 L 654.628906 161.347656 L 650.695312 160.5625 L 646.132812 160.5625 L 644.433594 160.824219 L 640.945312 161.871094 L 639.066406 162.789062 L 636.382812 164.621094 L 634.507812 166.324219 L 632.269531 168.941406 L 630.75 171.167969 L 628.871094 174.570312 L 627.53125 177.582031 L 626.007812 181.90625 L 625.117188 185.179688 L 624.308594 188.84375 L 623.59375 193.164062 L 623.058594 197.75 L 622.699219 202.59375 L 622.523438 207.308594 L 622.523438 227.601562 L 622.699219 232.316406 L 623.148438 237.816406 L 624.308594 245.804688 L 626.007812 252.742188 L 627.976562 258.242188 L 629.855469 262.171875 L 630.929688 264.003906 L 632.359375 266.097656 L 634.59375 268.71875 L 637.816406 271.335938 L 639.691406 272.382812 L 642.554688 273.433594 L 645.507812 273.957031 L 649.441406 273.957031 L 652.929688 273.433594 L 655.253906 272.777344 L 657.667969 271.730469 L 660.976562 269.503906 L 663.035156 267.410156 L 664.824219 264.921875 L 666.164062 262.433594 L 667.058594 260.339844 L 668.402344 256.277344 L 669.476562 251.828125 L 670.28125 247.242188 L 670.816406 242.792969 L 683.335938 242.792969 L 682.800781 248.03125 L 681.996094 253.136719 L 681.191406 256.933594 L 679.9375 261.515625 L 678.507812 265.574219 L 676.449219 270.160156 L 674.75 273.171875 L 672.515625 276.445312 L 670.457031 278.933594 L 668.222656 281.15625 L 664.914062 283.777344 L 662.765625 285.085938 L 660.441406 286.265625 L 657.667969 287.3125 L 654.179688 288.226562 L 650.425781 288.753906 L 646.9375 288.882812 L 643.179688 288.621094 L 640.410156 288.097656 L 636.742188 286.917969 L 632.179688 284.5625 L 628.871094 282.074219 L 626.277344 279.585938 L 624.042969 276.96875 L 621.539062 273.433594 L 618.316406 267.671875 L 616.351562 263.21875 L 615.007812 259.550781 L 613.488281 254.445312 L 612.414062 249.863281 L 611.164062 242.53125 L 610.269531 233.234375 L 610 226.03125 Z M 610 207.960938 "/>
<path style=" stroke:none;fill-rule:nonzero;fill:rgb(96.862745%,70.196078%,16.862745%);fill-opacity:1;" d="M 610 293.195312 L 610.089844 293.191406 L 610.089844 293.054688 L 610.449219 292.753906 L 611.34375 292.339844 L 612.503906 292 L 613.757812 291.734375 L 614.5625 291.59375 L 615.902344 291.390625 L 617.066406 291.246094 L 620.015625 290.945312 L 623.773438 290.664062 L 625.832031 290.542969 L 628.15625 290.429688 L 631.464844 290.304688 L 632.984375 290.257812 L 637.636719 290.148438 L 642.914062 290.082031 L 648.726562 290.0625 L 651.410156 290.070312 L 655.074219 290.097656 L 660.085938 290.167969 L 662.945312 290.238281 L 665.183594 290.304688 L 667.507812 290.390625 L 670.367188 290.523438 L 673.050781 290.683594 L 675.199219 290.84375 L 677.34375 291.046875 L 679.132812 291.257812 L 680.652344 291.492188 L 681.996094 291.773438 L 682.800781 292.007812 L 683.335938 292.242188 L 670.90625 292.242188 L 670.191406 292.007812 L 669.386719 291.828125 L 668.042969 291.605469 L 666.703125 291.445312 L 665.359375 291.320312 L 662.855469 291.144531 L 660.710938 291.039062 L 658.027344 290.945312 L 655.433594 290.882812 L 652.480469 290.84375 L 650.695312 290.832031 L 645.953125 290.832031 L 641.660156 290.878906 L 639.15625 290.929688 L 637.367188 290.984375 L 634.863281 291.085938 L 633.34375 291.164062 L 632.449219 291.21875 L 629.765625 291.425781 L 627.976562 291.613281 L 626.992188 291.738281 L 625.742188 291.941406 L 624.847656 292.121094 L 623.863281 292.386719 L 623.328125 292.589844 L 622.609375 293.042969 L 622.523438 294.246094 L 622.789062 294.5 L 623.328125 294.773438 L 624.042969 295.015625 L 625.117188 295.269531 L 626.1875 295.460938 L 628.066406 295.722656 L 629.675781 295.894531 L 630.929688 296.007812 L 633.34375 296.191406 L 634.328125 296.25 L 636.652344 296.371094 L 639.066406 296.464844 L 642.019531 296.542969 L 644.253906 296.582031 L 647.832031 296.617188 L 652.394531 296.617188 L 657.757812 296.578125 L 661.15625 296.523438 L 663.484375 296.46875 L 665.003906 296.421875 L 666.882812 296.351562 L 668.222656 296.285156 L 669.476562 296.210938 L 670.996094 296.097656 L 670.996094 294.5 L 648.90625 294.492188 L 648.90625 293.746094 L 683.246094 293.738281 L 683.335938 296.351562 L 681.457031 296.53125 L 679.132812 296.703125 L 676.898438 296.835938 L 674.574219 296.953125 L 671.261719 297.078125 L 668.582031 297.160156 L 664.464844 297.253906 L 660.710938 297.3125 L 656.773438 297.351562 L 653.285156 297.371094 L 649.171875 297.378906 L 645.507812 297.367188 L 641.570312 297.324219 L 638.441406 297.273438 L 635.578125 297.207031 L 632.71875 297.117188 L 629.140625 296.976562 L 626.816406 296.863281 L 624.398438 296.722656 L 621.984375 296.558594 L 619.839844 296.375 L 618.40625 296.238281 L 616.976562 296.074219 L 615.457031 295.875 L 614.027344 295.648438 L 612.953125 295.441406 L 611.96875 295.207031 L 611.253906 294.988281 L 610.539062 294.6875 L 610.179688 294.445312 L 610 294.238281 Z M 610 293.195312 "/>
<path style=" stroke:none;fill-rule:nonzero;fill:rgb(83.921569%,15.686275%,22.352941%);fill-opacity:1;" d="M 610 298.558594 L 683.335938 298.558594 L 683.335938 299.339844 L 652.773438 299.347656 L 652.773438 305.875 L 640.476562 305.875 L 640.476562 299.355469 L 640.296875 299.339844 L 610 299.339844 Z M 610 298.558594 "/>
<g style="fill:rgb(0%,0%,0%);fill-opacity:1;">
  <use xlink:href="#glyph0-1" x="21.957031" y="318.198242"/>
  <use xlink:href="#glyph0-2" x="27.291016" y="318.198242"/>
  <use xlink:href="#glyph0-1" x="29.958008" y="318.198242"/>
</g>
<g style="fill:rgb(0%,0%,0%);fill-opacity:1;">
  <use xlink:href="#glyph0-1" x="21.957031" y="244.475586"/>
  <use xlink:href="#glyph0-2" x="27.291016" y="244.475586"/>
  <use xlink:href="#glyph0-3" x="29.958008" y="244.475586"/>
</g>
<g style="fill:rgb(0%,0%,0%);fill-opacity:1;">
  <use xlink:href="#glyph0-4" x="21.957031" y="170.75293"/>
  <use xlink:href="#glyph0-2" x="27.291016" y="170.75293"/>
  <use xlink:href="#glyph0-1" x="29.958008" y="170.75293"/>
</g>
<g style="fill:rgb(0%,0%,0%);fill-opacity:1;">
  <use xlink:href="#glyph0-4" x="21.957031" y="97.03418"/>
  <use xlink:href="#glyph0-2" x="27.291016" y="97.03418"/>
  <use xlink:href="#glyph0-3" x="29.958008" y="97.03418"/>
</g>
<g style="fill:rgb(0%,0%,0%);fill-opacity:1;">
  <use xlink:href="#glyph0-5" x="21.957031" y="23.311523"/>
  <use xlink:href="#glyph0-2" x="27.291016" y="23.311523"/>
  <use xlink:href="#glyph0-1" x="29.958008" y="23.311523"/>
</g>
<g style="fill:rgb(0%,0%,0%);fill-opacity:1;">
  <use xlink:href="#glyph0-4" x="103.296875" y="338.19043"/>
</g>
<g style="fill:rgb(0%,0%,0%);fill-opacity:1;">
  <use xlink:href="#glyph0-5" x="180.492188" y="338.19043"/>
</g>
<g style="fill:rgb(0%,0%,0%);fill-opacity:1;">
  <use xlink:href="#glyph0-6" x="257.6875" y="338.19043"/>
</g>
<g style="fill:rgb(0%,0%,0%);fill-opacity:1;">
  <use xlink:href="#glyph0-7" x="334.886719" y="338.19043"/>
</g>
<g style="fill:rgb(0%,0%,0%);fill-opacity:1;">
  <use xlink:href="#glyph0-3" x="412.082031" y="338.19043"/>
</g>
<g style="fill:rgb(0%,0%,0%);fill-opacity:1;">
  <use xlink:href="#glyph0-8" x="489.277344" y="338.19043"/>
</g>
<g style="fill:rgb(0%,0%,0%);fill-opacity:1;">
  <use xlink:href="#glyph0-9" x="566.472656" y="338.19043"/>
</g>
<g style="fill:rgb(0%,0%,0%);fill-opacity:1;">
  <use xlink:href="#glyph0-10" x="643.667969" y="338.19043"/>
</g>
<g style="fill:rgb(0%,0%,0%);fill-opacity:1;">
  <use xlink:href="#glyph1-1" x="14.412109" y="178.015625"/>
  <use xlink:href="#glyph1-2" x="14.412109" y="170.011719"/>
  <use xlink:href="#glyph1-3" x="14.412109" y="167.347656"/>
  <use xlink:href="#glyph1-4" x="14.412109" y="164.011719"/>
</g>
</g>
</svg>
