<?xml version="1.0" encoding="UTF-8"?>
<svg xmlns="http://www.w3.org/2000/svg" xmlns:xlink="http://www.w3.org/1999/xlink" width="720pt" height="360pt" viewBox="0 0 720 360" version="1.1">
<defs>
<g>
<symbol overflow="visible" id="glyph0-0">
<path style="stroke:none;" d=""/>
</symbol>
<symbol overflow="visible" id="glyph0-1">
<path style="stroke:none;" d="M 2.640625 -6.796875 C 2 -6.796875 1.421875 -6.53125 1.078125 -6.046875 C 0.640625 -5.453125 0.40625 -4.546875 0.40625 -3.296875 C 0.40625 -1 1.1875 0.21875 2.640625 0.21875 C 4.078125 0.21875 4.859375 -1 4.859375 -3.234375 C 4.859375 -4.5625 4.65625 -5.4375 4.203125 -6.046875 C 3.84375 -6.53125 3.28125 -6.796875 2.640625 -6.796875 Z M 2.640625 -6.046875 C 3.546875 -6.046875 4 -5.125 4 -3.3125 C 4 -1.375 3.5625 -0.484375 2.625 -0.484375 C 1.734375 -0.484375 1.28125 -1.421875 1.28125 -3.28125 C 1.28125 -5.140625 1.734375 -6.046875 2.640625 -6.046875 Z M 2.640625 -6.046875 "/>
</symbol>
<symbol overflow="visible" id="glyph0-2">
<path style="stroke:none;" d="M 1.828125 -1 L 0.828125 -1 L 0.828125 0 L 1.828125 0 Z M 1.828125 -1 "/>
</symbol>
<symbol overflow="visible" id="glyph0-3">
<path style="stroke:none;" d="M 4.5625 -6.796875 L 1.0625 -6.796875 L 0.546875 -3.09375 L 1.328125 -3.09375 C 1.71875 -3.5625 2.046875 -3.734375 2.578125 -3.734375 C 3.484375 -3.734375 4.0625 -3.109375 4.0625 -2.09375 C 4.0625 -1.125 3.484375 -0.53125 2.578125 -0.53125 C 1.828125 -0.53125 1.375 -0.90625 1.1875 -1.671875 L 0.328125 -1.671875 C 0.453125 -1.109375 0.546875 -0.84375 0.75 -0.59375 C 1.125 -0.078125 1.828125 0.21875 2.59375 0.21875 C 3.96875 0.21875 4.921875 -0.78125 4.921875 -2.21875 C 4.921875 -3.5625 4.03125 -4.484375 2.71875 -4.484375 C 2.25 -4.484375 1.859375 -4.359375 1.46875 -4.0625 L 1.734375 -5.96875 L 4.5625 -5.96875 Z M 4.5625 -6.796875 "/>
</symbol>
<symbol overflow="visible" id="glyph0-4">
<path style="stroke:none;" d="M 2.484375 -4.84375 L 2.484375 0 L 3.328125 0 L 3.328125 -6.796875 L 2.765625 -6.796875 C 2.46875 -5.75 2.28125 -5.609375 0.984375 -5.453125 L 0.984375 -4.84375 Z M 2.484375 -4.84375 "/>
</symbol>
<symbol overflow="visible" id="glyph0-5">
<path style="stroke:none;" d="M 4.859375 -0.828125 L 1.28125 -0.828125 C 1.359375 -1.390625 1.671875 -1.75 2.5 -2.234375 L 3.46875 -2.75 C 4.40625 -3.265625 4.90625 -3.96875 4.90625 -4.8125 C 4.90625 -5.375 4.671875 -5.90625 4.265625 -6.265625 C 3.859375 -6.625 3.375 -6.796875 2.71875 -6.796875 C 1.859375 -6.796875 1.21875 -6.5 0.84375 -5.921875 C 0.609375 -5.5625 0.5 -5.125 0.484375 -4.4375 L 1.328125 -4.4375 C 1.359375 -4.90625 1.40625 -5.1875 1.53125 -5.40625 C 1.75 -5.8125 2.1875 -6.0625 2.703125 -6.0625 C 3.46875 -6.0625 4.03125 -5.515625 4.03125 -4.78125 C 4.03125 -4.25 3.71875 -3.796875 3.125 -3.4375 L 2.234375 -2.9375 C 0.8125 -2.140625 0.40625 -1.5 0.328125 0 L 4.859375 0 Z M 4.859375 -0.828125 "/>
</symbol>
<symbol overflow="visible" id="glyph0-6">
<path style="stroke:none;" d="M 2.125 -3.125 L 2.578125 -3.125 C 3.515625 -3.125 3.984375 -2.703125 3.984375 -1.890625 C 3.984375 -1.03125 3.46875 -0.53125 2.578125 -0.53125 C 1.65625 -0.53125 1.203125 -0.984375 1.15625 -1.96875 L 0.3125 -1.96875 C 0.34375 -1.421875 0.4375 -1.078125 0.609375 -0.765625 C 0.953125 -0.109375 1.625 0.21875 2.546875 0.21875 C 3.953125 0.21875 4.859375 -0.609375 4.859375 -1.90625 C 4.859375 -2.765625 4.515625 -3.25 3.703125 -3.515625 C 4.34375 -3.765625 4.65625 -4.25 4.65625 -4.9375 C 4.65625 -6.109375 3.875 -6.796875 2.578125 -6.796875 C 1.203125 -6.796875 0.484375 -6.046875 0.453125 -4.609375 L 1.296875 -4.609375 C 1.3125 -5.015625 1.34375 -5.25 1.453125 -5.453125 C 1.640625 -5.828125 2.0625 -6.0625 2.59375 -6.0625 C 3.34375 -6.0625 3.796875 -5.625 3.796875 -4.90625 C 3.796875 -4.421875 3.609375 -4.140625 3.25 -3.984375 C 3.015625 -3.890625 2.71875 -3.84375 2.125 -3.84375 Z M 2.125 -3.125 "/>
</symbol>
<symbol overflow="visible" id="glyph0-7">
<path style="stroke:none;" d="M 3.140625 -1.625 L 3.140625 0 L 3.984375 0 L 3.984375 -1.625 L 4.984375 -1.625 L 4.984375 -2.390625 L 3.984375 -2.390625 L 3.984375 -6.796875 L 3.359375 -6.796875 L 0.265625 -2.515625 L 0.265625 -1.625 Z M 3.140625 -2.390625 L 1 -2.390625 L 3.140625 -5.359375 Z M 3.140625 -2.390625 "/>
</symbol>
<symbol overflow="visible" id="glyph0-8">
<path style="stroke:none;" d="M 4.78125 -5.03125 C 4.609375 -6.140625 3.890625 -6.796875 2.84375 -6.796875 C 2.09375 -6.796875 1.421875 -6.4375 1.03125 -5.828125 C 0.609375 -5.171875 0.40625 -4.34375 0.40625 -3.09375 C 0.40625 -1.953125 0.578125 -1.234375 0.984375 -0.625 C 1.359375 -0.078125 1.953125 0.21875 2.703125 0.21875 C 3.984375 0.21875 4.921875 -0.734375 4.921875 -2.078125 C 4.921875 -3.34375 4.0625 -4.234375 2.84375 -4.234375 C 2.171875 -4.234375 1.640625 -3.96875 1.28125 -3.46875 C 1.28125 -5.125 1.828125 -6.046875 2.796875 -6.046875 C 3.390625 -6.046875 3.796875 -5.671875 3.9375 -5.03125 Z M 2.734375 -3.484375 C 3.546875 -3.484375 4.0625 -2.921875 4.0625 -2 C 4.0625 -1.15625 3.484375 -0.53125 2.703125 -0.53125 C 1.921875 -0.53125 1.328125 -1.1875 1.328125 -2.046875 C 1.328125 -2.890625 1.90625 -3.484375 2.734375 -3.484375 Z M 2.734375 -3.484375 "/>
</symbol>
<symbol overflow="visible" id="glyph0-9">
<path style="stroke:none;" d="M 4.984375 -6.796875 L 0.4375 -6.796875 L 0.4375 -5.96875 L 4.109375 -5.96875 C 2.5 -3.65625 1.828125 -2.234375 1.328125 0 L 2.21875 0 C 2.59375 -2.171875 3.453125 -4.046875 4.984375 -6.09375 Z M 4.984375 -6.796875 "/>
</symbol>
<symbol overflow="visible" id="glyph0-10">
<path style="stroke:none;" d="M 3.75 -3.578125 C 4.453125 -4 4.6875 -4.34375 4.6875 -4.984375 C 4.6875 -6.046875 3.84375 -6.796875 2.640625 -6.796875 C 1.4375 -6.796875 0.59375 -6.046875 0.59375 -4.984375 C 0.59375 -4.359375 0.828125 -4.015625 1.515625 -3.578125 C 0.734375 -3.203125 0.359375 -2.640625 0.359375 -1.890625 C 0.359375 -0.640625 1.296875 0.21875 2.640625 0.21875 C 3.984375 0.21875 4.921875 -0.640625 4.921875 -1.875 C 4.921875 -2.640625 4.53125 -3.203125 3.75 -3.578125 Z M 2.640625 -6.046875 C 3.359375 -6.046875 3.8125 -5.625 3.8125 -4.96875 C 3.8125 -4.34375 3.34375 -3.921875 2.640625 -3.921875 C 1.921875 -3.921875 1.453125 -4.34375 1.453125 -4.984375 C 1.453125 -5.625 1.921875 -6.046875 2.640625 -6.046875 Z M 2.640625 -3.203125 C 3.484375 -3.203125 4.0625 -2.671875 4.0625 -1.875 C 4.0625 -1.0625 3.484375 -0.53125 2.625 -0.53125 C 1.796875 -0.53125 1.21875 -1.078125 1.21875 -1.875 C 1.21875 -2.671875 1.796875 -3.203125 2.640625 -3.203125 Z M 2.640625 -3.203125 "/>
</symbol>
<symbol overflow="visible" id="glyph0-11">
<path style="stroke:none;" d="M 0.515625 -1.546875 C 0.671875 -0.4375 1.40625 0.21875 2.4375 0.21875 C 3.1875 0.21875 3.859375 -0.140625 4.265625 -0.75 C 4.6875 -1.40625 4.890625 -2.25 4.890625 -3.484375 C 4.890625 -4.625 4.703125 -5.359375 4.3125 -5.953125 C 3.9375 -6.5 3.34375 -6.796875 2.59375 -6.796875 C 1.296875 -6.796875 0.359375 -5.84375 0.359375 -4.515625 C 0.359375 -3.25 1.234375 -2.34375 2.453125 -2.34375 C 3.09375 -2.34375 3.5625 -2.578125 4.015625 -3.109375 C 4 -1.453125 3.46875 -0.53125 2.5 -0.53125 C 1.90625 -0.53125 1.484375 -0.90625 1.359375 -1.546875 Z M 2.578125 -6.0625 C 3.375 -6.0625 3.96875 -5.40625 3.96875 -4.53125 C 3.96875 -3.6875 3.375 -3.09375 2.546875 -3.09375 C 1.734375 -3.09375 1.234375 -3.671875 1.234375 -4.578125 C 1.234375 -5.4375 1.796875 -6.0625 2.578125 -6.0625 Z M 2.578125 -6.0625 "/>
</symbol>
<symbol overflow="visible" id="glyph1-0">
<path style="stroke:none;" d=""/>
</symbol>
<symbol overflow="visible" id="glyph1-1">
<path style="stroke:none;" d="M 0 -0.953125 L 0 -4.890625 C 0 -5.71875 -0.234375 -6.34375 -0.734375 -6.796875 C -1.1875 -7.234375 -1.8125 -7.46875 -2.5 -7.46875 C -3.546875 -7.46875 -4.1875 -7 -4.625 -5.875 C -4.984375 -6.671875 -5.640625 -7.09375 -6.53125 -7.09375 C -7.15625 -7.09375 -7.734375 -6.859375 -8.140625 -6.390625 C -8.5625 -5.9375 -8.75 -5.34375 -8.75 -4.5 L -8.75 -0.953125 Z M -4.984375 -2.0625 L -7.765625 -2.0625 L -7.765625 -4.21875 C -7.765625 -4.84375 -7.6875 -5.203125 -7.453125 -5.5 C -7.21875 -5.8125 -6.859375 -5.96875 -6.375 -5.96875 C -5.90625 -5.96875 -5.53125 -5.8125 -5.296875 -5.5 C -5.0625 -5.203125 -4.984375 -4.84375 -4.984375 -4.21875 Z M -0.984375 -2.0625 L -4 -2.0625 L -4 -4.78125 C -4 -5.328125 -3.859375 -5.6875 -3.578125 -5.953125 C -3.296875 -6.21875 -2.921875 -6.359375 -2.484375 -6.359375 C -2.0625 -6.359375 -1.6875 -6.21875 -1.40625 -5.953125 C -1.109375 -5.6875 -0.984375 -5.328125 -0.984375 -4.78125 Z M -0.984375 -2.0625 "/>
</symbol>
<symbol overflow="visible" id="glyph1-2">
<path style="stroke:none;" d="M -6.28125 -1.796875 L -6.28125 -0.796875 L 0 -0.796875 L 0 -1.796875 Z M -8.75 -1.796875 L -8.75 -0.796875 L -7.484375 -0.796875 L -7.484375 -1.796875 Z M -8.75 -1.796875 "/>
</symbol>
<symbol overflow="visible" id="glyph1-3">
<path style="stroke:none;" d="M -6.28125 -3.046875 L -6.28125 -2.015625 L -8.015625 -2.015625 L -8.015625 -1.015625 L -6.28125 -1.015625 L -6.28125 -0.171875 L -5.46875 -0.171875 L -5.46875 -1.015625 L -0.71875 -1.015625 C -0.078125 -1.015625 0.28125 -1.453125 0.28125 -2.234375 C 0.28125 -2.46875 0.25 -2.71875 0.1875 -3.046875 L -0.640625 -3.046875 C -0.609375 -2.921875 -0.59375 -2.765625 -0.59375 -2.5625 C -0.59375 -2.140625 -0.71875 -2.015625 -1.15625 -2.015625 L -5.46875 -2.015625 L -5.46875 -3.046875 Z M -6.28125 -3.046875 "/>
</symbol>
<symbol overflow="visible" id="glyph1-4">
<path style="stroke:none;" d="M -4.53125 -5.25 C -5.765625 -5.25 -6.46875 -4.421875 -6.46875 -2.96875 C -6.46875 -1.515625 -5.71875 -0.5625 -4.546875 -0.5625 C -3.5625 -0.5625 -3.09375 -1.0625 -2.734375 -2.5625 L -2.515625 -3.484375 C -2.34375 -4.1875 -2.09375 -4.46875 -1.625 -4.46875 C -1.046875 -4.46875 -0.640625 -3.875 -0.640625 -3 C -0.640625 -2.453125 -0.796875 -2 -1.0625 -1.75 C -1.25 -1.59375 -1.421875 -1.53125 -1.875 -1.46875 L -1.875 -0.40625 C -0.421875 -0.453125 0.28125 -1.265625 0.28125 -2.921875 C 0.28125 -4.5 -0.5 -5.515625 -1.71875 -5.515625 C -2.65625 -5.515625 -3.171875 -4.984375 -3.46875 -3.734375 L -3.703125 -2.765625 C -3.890625 -1.953125 -4.15625 -1.609375 -4.59375 -1.609375 C -5.171875 -1.609375 -5.546875 -2.125 -5.546875 -2.9375 C -5.546875 -3.75 -5.203125 -4.171875 -4.53125 -4.203125 Z M -4.53125 -5.25 "/>
</symbol>
</g>
</defs>
<g id="surface4497">
<rect x="0" y="0" width="720" height="360" style="fill:rgb(100%,100%,100%);fill-opacity:1;stroke:none;"/>
<path style=" stroke:none;fill-rule:nonzero;fill:rgb(6.27451%,58.823529%,28.235294%);fill-opacity:1;" d="M 69.628906 312.140625 L 69.679688 312.140625 L 90.792969 311.613281 L 97.203125 311.613281 L 118.417969 312.140625 L 110.964844 312.140625 L 105.648438 312.003906 L 82.347656 312.003906 L 77.136719 312.140625 L 69.628906 312.140625 L 84.589844 311.945312 L 103.511719 311.945312 L 94.074219 311.699219 L 93.867188 311.699219 L 84.535156 311.945312 L 84.589844 311.945312 Z M 69.628906 312.140625 "/>
<path style=" stroke:none;fill-rule:nonzero;fill:rgb(14.509804%,36.078431%,60%);fill-opacity:1;" d="M 69.628906 310.0625 L 69.6875 310.0625 L 69.6875 310.046875 L 69.867188 310.023438 L 70.285156 309.996094 L 70.699219 309.976562 L 71.769531 309.941406 L 73.257812 309.90625 L 74.804688 309.878906 L 75.9375 309.863281 L 76.949219 309.851562 L 79.269531 309.828125 L 80.753906 309.820312 L 82.363281 309.808594 L 84.324219 309.796875 L 85.753906 309.792969 L 88.964844 309.78125 L 91.347656 309.777344 L 99.558594 309.777344 L 101.28125 309.78125 L 103.1875 309.785156 L 104.792969 309.792969 L 107.589844 309.804688 L 110.089844 309.820312 L 111.21875 309.832031 L 113.003906 309.851562 L 114.371094 309.867188 L 115.324219 309.882812 L 116.394531 309.90625 L 117.347656 309.933594 L 118.0625 309.964844 L 118.417969 309.988281 L 110.089844 309.988281 L 109.671875 309.964844 L 109.195312 309.945312 L 108.304688 309.921875 L 107.410156 309.90625 L 106.160156 309.886719 L 105.03125 309.875 L 103.484375 309.863281 L 102.117188 309.859375 L 100.6875 309.851562 L 99.320312 309.847656 L 96.699219 309.84375 L 93.667969 309.84375 L 92.535156 309.847656 L 90.214844 309.851562 L 88.964844 309.855469 L 87.179688 309.863281 L 85.933594 309.871094 L 84.445312 309.882812 L 83.433594 309.894531 L 82.183594 309.910156 L 81.289062 309.921875 L 80.28125 309.941406 L 79.683594 309.957031 L 79.148438 309.976562 L 78.671875 309.996094 L 78.316406 310.015625 L 78.078125 310.039062 L 77.960938 310.058594 L 77.960938 310.152344 L 78.078125 310.175781 L 78.375 310.199219 L 79.148438 310.234375 L 80.28125 310.269531 L 81.589844 310.292969 L 82.839844 310.3125 L 83.550781 310.320312 L 84.503906 310.328125 L 85.992188 310.339844 L 88.132812 310.351562 L 89.382812 310.359375 L 91.285156 310.363281 L 93.25 310.367188 L 95.867188 310.367188 L 98.1875 310.363281 L 99.734375 310.359375 L 101.34375 310.355469 L 103.542969 310.34375 L 104.910156 310.335938 L 106.101562 310.324219 L 106.996094 310.3125 L 107.589844 310.304688 L 108.480469 310.285156 L 109.195312 310.265625 L 109.730469 310.242188 L 110.089844 310.222656 L 118.417969 310.222656 L 118.0625 310.246094 L 117.523438 310.269531 L 116.988281 310.289062 L 116.15625 310.308594 L 115.203125 310.328125 L 113.835938 310.347656 L 112.707031 310.363281 L 111.21875 310.375 L 109.851562 310.386719 L 108.363281 310.398438 L 106.160156 310.410156 L 104.734375 310.417969 L 103.1875 310.421875 L 101.34375 310.425781 L 99.019531 310.429688 L 96.523438 310.433594 L 91.703125 310.433594 L 89.859375 310.429688 L 87.417969 310.425781 L 84.386719 310.414062 L 82.183594 310.402344 L 80.457031 310.390625 L 78.96875 310.378906 L 77.304688 310.363281 L 75.164062 310.335938 L 73.855469 310.316406 L 72.960938 310.300781 L 71.949219 310.277344 L 71.234375 310.253906 L 70.402344 310.222656 L 69.808594 310.179688 L 69.628906 310.144531 Z M 69.628906 310.0625 "/>
<path style=" stroke:none;fill-rule:nonzero;fill:rgb(6.27451%,58.823529%,28.235294%);fill-opacity:1;" d="M 120.984375 311.480469 L 121.039062 311.476562 L 142.148438 307.464844 L 148.558594 307.464844 L 169.773438 311.484375 L 162.320312 311.484375 L 157.003906 310.433594 L 133.703125 310.433594 L 128.492188 311.480469 L 120.984375 311.480469 L 135.945312 310 L 154.867188 309.996094 L 145.433594 308.121094 L 145.328125 308.117188 L 145.222656 308.128906 L 135.894531 309.996094 L 135.945312 310 Z M 120.984375 311.480469 "/>
<path style=" stroke:none;fill-rule:nonzero;fill:rgb(14.509804%,36.078431%,60%);fill-opacity:1;" d="M 120.984375 303.691406 L 121.046875 303.6875 L 121.046875 303.585938 L 121.222656 303.425781 L 121.640625 303.226562 L 122.054688 303.085938 L 123.128906 302.839844 L 124.613281 302.597656 L 126.160156 302.414062 L 127.292969 302.304688 L 128.304688 302.222656 L 130.625 302.066406 L 132.113281 301.984375 L 133.71875 301.914062 L 135.683594 301.84375 L 137.109375 301.800781 L 140.324219 301.734375 L 142.703125 301.703125 L 144.546875 301.691406 L 148.535156 301.691406 L 150.914062 301.707031 L 152.636719 301.730469 L 154.542969 301.761719 L 156.148438 301.800781 L 158.945312 301.894531 L 161.445312 302.011719 L 162.574219 302.078125 L 164.359375 302.207031 L 165.726562 302.335938 L 166.679688 302.445312 L 167.75 302.597656 L 168.703125 302.789062 L 169.417969 303.003906 L 169.773438 303.183594 L 161.445312 303.183594 L 161.027344 303.015625 L 160.550781 302.886719 L 159.660156 302.710938 L 158.765625 302.589844 L 157.515625 302.46875 L 156.386719 302.390625 L 154.839844 302.308594 L 153.472656 302.257812 L 152.042969 302.222656 L 150.675781 302.195312 L 148.058594 302.171875 L 145.023438 302.171875 L 143.890625 302.179688 L 141.570312 302.210938 L 140.324219 302.242188 L 138.539062 302.300781 L 137.289062 302.355469 L 135.800781 302.441406 L 134.789062 302.511719 L 133.539062 302.621094 L 132.648438 302.71875 L 131.636719 302.855469 L 131.039062 302.960938 L 130.503906 303.078125 L 130.03125 303.214844 L 129.671875 303.363281 L 129.433594 303.519531 L 129.316406 303.671875 L 129.316406 304.320312 L 129.433594 304.472656 L 129.730469 304.648438 L 130.503906 304.90625 L 131.636719 305.128906 L 132.945312 305.304688 L 134.195312 305.429688 L 134.90625 305.488281 L 135.859375 305.554688 L 137.347656 305.640625 L 139.488281 305.722656 L 140.738281 305.757812 L 142.644531 305.792969 L 144.605469 305.808594 L 147.222656 305.808594 L 149.542969 305.792969 L 151.089844 305.769531 L 152.699219 305.738281 L 154.898438 305.664062 L 156.269531 305.597656 L 157.457031 305.519531 L 158.351562 305.4375 L 158.945312 305.371094 L 159.839844 305.242188 L 160.550781 305.097656 L 161.085938 304.949219 L 161.445312 304.808594 L 169.773438 304.808594 L 169.417969 304.976562 L 168.882812 305.140625 L 168.347656 305.261719 L 167.511719 305.410156 L 166.5625 305.539062 L 165.191406 305.6875 L 164.0625 305.78125 L 162.574219 305.886719 L 161.207031 305.96875 L 159.71875 306.039062 L 157.515625 306.121094 L 156.089844 306.164062 L 154.542969 306.203125 L 152.699219 306.238281 L 150.378906 306.265625 L 147.878906 306.28125 L 145.558594 306.285156 L 143.058594 306.277344 L 141.214844 306.261719 L 138.777344 306.222656 L 135.742188 306.148438 L 133.539062 306.066406 L 131.8125 305.988281 L 130.328125 305.90625 L 128.660156 305.792969 L 126.519531 305.605469 L 125.210938 305.464844 L 124.316406 305.347656 L 123.304688 305.183594 L 122.59375 305.035156 L 121.757812 304.800781 L 121.164062 304.5 L 120.984375 304.269531 Z M 120.984375 303.691406 "/>
<path style=" stroke:none;fill-rule:nonzero;fill:rgb(96.862745%,70.196078%,16.862745%);fill-opacity:1;" d="M 120.984375 294.585938 L 121.046875 294.574219 L 121.046875 294.386719 L 121.28125 293.960938 L 121.878906 293.371094 L 122.652344 292.890625 L 123.484375 292.511719 L 124.019531 292.3125 L 124.914062 292.027344 L 125.6875 291.820312 L 127.648438 291.394531 L 130.148438 290.996094 L 131.515625 290.824219 L 133.0625 290.664062 L 135.265625 290.484375 L 136.277344 290.417969 L 139.371094 290.265625 L 142.882812 290.171875 L 146.75 290.144531 L 148.535156 290.152344 L 150.972656 290.191406 L 154.304688 290.296875 L 156.207031 290.390625 L 157.695312 290.484375 L 159.242188 290.609375 L 161.148438 290.796875 L 162.933594 291.023438 L 164.359375 291.25 L 165.789062 291.535156 L 166.976562 291.839844 L 167.988281 292.171875 L 168.882812 292.566406 L 169.417969 292.898438 L 169.773438 293.230469 L 161.503906 293.230469 L 161.027344 292.898438 L 160.492188 292.644531 L 159.601562 292.332031 L 158.707031 292.105469 L 157.816406 291.925781 L 156.148438 291.675781 L 154.722656 291.527344 L 152.9375 291.394531 L 151.210938 291.308594 L 149.246094 291.25 L 148.058594 291.234375 L 144.902344 291.234375 L 142.046875 291.300781 L 140.382812 291.375 L 139.191406 291.449219 L 137.527344 291.59375 L 136.515625 291.707031 L 135.917969 291.78125 L 134.132812 292.074219 L 132.945312 292.339844 L 132.289062 292.519531 L 131.457031 292.804688 L 130.863281 293.058594 L 130.207031 293.4375 L 129.851562 293.722656 L 129.375 294.367188 L 129.316406 296.070312 L 129.492188 296.429688 L 129.851562 296.820312 L 130.328125 297.160156 L 131.039062 297.519531 L 131.753906 297.792969 L 133.003906 298.164062 L 134.074219 298.410156 L 134.90625 298.570312 L 136.515625 298.828125 L 137.167969 298.914062 L 138.714844 299.082031 L 140.324219 299.214844 L 142.285156 299.328125 L 143.773438 299.386719 L 146.152344 299.433594 L 149.1875 299.433594 L 152.757812 299.375 L 155.019531 299.300781 L 156.566406 299.226562 L 157.578125 299.160156 L 158.828125 299.054688 L 159.71875 298.960938 L 160.550781 298.855469 L 161.5625 298.695312 L 161.5625 296.429688 L 146.867188 296.421875 L 146.867188 295.359375 L 169.714844 295.351562 L 169.773438 299.054688 L 168.523438 299.308594 L 166.976562 299.554688 L 165.492188 299.746094 L 163.941406 299.90625 L 161.742188 300.085938 L 159.957031 300.199219 L 157.21875 300.332031 L 154.722656 300.417969 L 152.101562 300.476562 L 149.78125 300.503906 L 147.046875 300.511719 L 144.605469 300.492188 L 141.988281 300.4375 L 139.90625 300.359375 L 138.003906 300.265625 L 136.097656 300.144531 L 133.71875 299.945312 L 132.171875 299.785156 L 130.566406 299.585938 L 128.957031 299.347656 L 127.53125 299.09375 L 126.578125 298.894531 L 125.625 298.664062 L 124.613281 298.382812 L 123.664062 298.058594 L 122.949219 297.765625 L 122.292969 297.433594 L 121.820312 297.121094 L 121.34375 296.695312 L 121.105469 296.355469 L 120.984375 296.0625 Z M 120.984375 294.585938 "/>
<path style=" stroke:none;fill-rule:nonzero;fill:rgb(83.921569%,15.686275%,22.352941%);fill-opacity:1;" d="M 120.984375 312.664062 L 169.773438 312.664062 L 169.773438 312.847656 L 149.441406 312.847656 L 149.441406 314.371094 L 141.261719 314.371094 L 141.261719 312.847656 L 120.984375 312.847656 Z M 120.984375 312.664062 "/>
<path style=" stroke:none;fill-rule:nonzero;fill:rgb(6.27451%,58.823529%,28.235294%);fill-opacity:1;" d="M 172.34375 291.097656 L 172.394531 290.929688 L 193.503906 112.242188 L 199.914062 112.242188 L 221.128906 291.269531 L 213.675781 291.269531 L 208.359375 244.535156 L 185.058594 244.535156 L 179.847656 291.097656 L 172.34375 291.097656 L 187.300781 225.207031 L 206.222656 225.039062 L 196.789062 141.492188 L 196.683594 141.324219 L 196.578125 141.828125 L 187.25 225.039062 L 187.300781 225.207031 Z M 172.34375 291.097656 "/>
<path style=" stroke:none;fill-rule:nonzero;fill:rgb(96.862745%,70.196078%,16.862745%);fill-opacity:1;" d="M 172.34375 297.878906 L 172.402344 297.867188 L 172.402344 297.636719 L 172.640625 297.113281 L 173.234375 296.398438 L 174.007812 295.804688 L 174.839844 295.34375 L 175.375 295.097656 L 176.269531 294.753906 L 177.042969 294.496094 L 179.003906 293.976562 L 181.503906 293.488281 L 182.875 293.28125 L 184.421875 293.085938 L 186.621094 292.863281 L 187.632812 292.78125 L 190.726562 292.597656 L 194.238281 292.480469 L 198.105469 292.445312 L 199.890625 292.457031 L 202.328125 292.503906 L 205.660156 292.632812 L 207.566406 292.75 L 209.050781 292.863281 L 210.597656 293.015625 L 212.503906 293.246094 L 214.289062 293.523438 L 215.714844 293.800781 L 217.144531 294.148438 L 218.335938 294.519531 L 219.34375 294.925781 L 220.238281 295.414062 L 220.773438 295.816406 L 221.128906 296.222656 L 212.859375 296.222656 L 212.382812 295.816406 L 211.847656 295.503906 L 210.957031 295.121094 L 210.0625 294.84375 L 209.171875 294.625 L 207.503906 294.324219 L 206.078125 294.136719 L 204.292969 293.976562 L 202.566406 293.871094 L 200.605469 293.800781 L 199.414062 293.777344 L 196.261719 293.777344 L 193.402344 293.859375 L 191.738281 293.953125 L 190.546875 294.046875 L 188.882812 294.21875 L 187.871094 294.359375 L 187.277344 294.449219 L 185.492188 294.808594 L 184.300781 295.132812 L 183.648438 295.355469 L 182.8125 295.703125 L 182.21875 296.015625 L 181.5625 296.476562 L 181.207031 296.824219 L 180.730469 297.613281 L 180.671875 299.699219 L 180.851562 300.136719 L 181.207031 300.613281 L 181.683594 301.03125 L 182.398438 301.46875 L 183.109375 301.804688 L 184.359375 302.257812 L 185.429688 302.558594 L 186.265625 302.753906 L 187.871094 303.066406 L 188.527344 303.171875 L 190.074219 303.378906 L 191.679688 303.542969 L 193.640625 303.683594 L 195.128906 303.75 L 197.507812 303.808594 L 200.542969 303.808594 L 204.113281 303.738281 L 206.375 303.648438 L 207.921875 303.554688 L 208.933594 303.472656 L 210.183594 303.347656 L 211.074219 303.230469 L 211.90625 303.101562 L 212.917969 302.90625 L 212.917969 300.136719 L 198.222656 300.125 L 198.222656 298.828125 L 221.070312 298.816406 L 221.128906 303.347656 L 219.882812 303.660156 L 218.335938 303.960938 L 216.847656 304.191406 L 215.300781 304.386719 L 213.097656 304.609375 L 211.3125 304.746094 L 208.578125 304.910156 L 206.078125 305.011719 L 203.460938 305.082031 L 201.140625 305.117188 L 198.402344 305.128906 L 195.960938 305.105469 L 193.34375 305.035156 L 191.261719 304.945312 L 189.359375 304.828125 L 187.453125 304.679688 L 185.074219 304.433594 L 183.527344 304.238281 L 181.921875 303.996094 L 180.316406 303.703125 L 178.886719 303.390625 L 177.933594 303.148438 L 176.984375 302.871094 L 175.972656 302.523438 L 175.019531 302.128906 L 174.304688 301.769531 L 173.652344 301.367188 L 173.175781 300.984375 L 172.699219 300.460938 L 172.460938 300.046875 L 172.34375 299.6875 Z M 172.34375 297.878906 "/>
<path style=" stroke:none;fill-rule:nonzero;fill:rgb(83.921569%,15.686275%,22.352941%);fill-opacity:1;" d="M 172.34375 306.308594 L 221.128906 306.308594 L 221.128906 307.171875 L 200.796875 307.179688 L 200.796875 314.371094 L 192.617188 314.371094 L 192.617188 307.1875 L 192.496094 307.171875 L 172.34375 307.171875 Z M 172.34375 306.308594 "/>
<path style=" stroke:none;fill-rule:nonzero;fill:rgb(6.27451%,58.823529%,28.235294%);fill-opacity:1;" d="M 223.699219 314.308594 L 223.75 314.246094 L 244.859375 248.128906 L 251.273438 248.128906 L 272.488281 314.371094 L 265.03125 314.371094 L 259.714844 297.078125 L 236.417969 297.078125 L 231.203125 314.308594 L 223.699219 314.308594 L 238.65625 289.925781 L 257.578125 289.863281 L 248.144531 258.953125 L 248.039062 258.890625 L 247.9375 259.078125 L 238.605469 289.863281 L 238.65625 289.925781 Z M 223.699219 314.308594 "/>
<path style=" stroke:none;fill-rule:nonzero;fill:rgb(14.509804%,36.078431%,60%);fill-opacity:1;" d="M 223.699219 201.914062 L 223.757812 201.839844 L 223.757812 200.09375 L 223.9375 197.324219 L 224.351562 193.824219 L 224.769531 191.421875 L 225.839844 187.121094 L 227.328125 182.96875 L 228.875 179.761719 L 230.003906 177.867188 L 231.015625 176.410156 L 233.335938 173.710938 L 234.824219 172.328125 L 236.429688 171.089844 L 238.394531 169.851562 L 239.820312 169.121094 L 243.035156 167.957031 L 245.414062 167.445312 L 247.257812 167.226562 L 251.246094 167.226562 L 253.625 167.519531 L 255.351562 167.882812 L 257.253906 168.464844 L 258.863281 169.121094 L 261.65625 170.722656 L 264.15625 172.765625 L 265.289062 173.929688 L 267.074219 176.191406 L 268.441406 178.375 L 269.394531 180.269531 L 270.464844 182.96875 L 271.414062 186.246094 L 272.128906 189.964844 L 272.488281 193.097656 L 264.15625 193.097656 L 263.742188 190.183594 L 263.265625 187.921875 L 262.371094 184.933594 L 261.480469 182.820312 L 260.230469 180.707031 L 259.101562 179.324219 L 257.550781 177.9375 L 256.183594 177.0625 L 254.757812 176.410156 L 253.386719 175.972656 L 250.769531 175.535156 L 247.734375 175.535156 L 246.605469 175.679688 L 244.285156 176.261719 L 243.035156 176.773438 L 241.25 177.792969 L 240 178.742188 L 238.511719 180.199219 L 237.5 181.4375 L 236.253906 183.332031 L 235.359375 185.007812 L 234.347656 187.414062 L 233.753906 189.234375 L 233.21875 191.273438 L 232.742188 193.679688 L 232.386719 196.230469 L 232.148438 198.925781 L 232.027344 201.550781 L 232.027344 212.84375 L 232.148438 215.46875 L 232.445312 218.53125 L 233.21875 222.976562 L 234.347656 226.835938 L 235.65625 229.898438 L 236.90625 232.085938 L 237.621094 233.105469 L 238.574219 234.269531 L 240.058594 235.726562 L 242.203125 237.1875 L 243.453125 237.769531 L 245.355469 238.351562 L 247.320312 238.644531 L 249.9375 238.644531 L 252.257812 238.351562 L 253.804688 237.988281 L 255.410156 237.402344 L 257.613281 236.164062 L 258.980469 235 L 260.171875 233.613281 L 261.0625 232.230469 L 261.65625 231.0625 L 262.550781 228.804688 L 263.265625 226.328125 L 263.800781 223.777344 L 264.15625 221.300781 L 272.488281 221.300781 L 272.128906 224.214844 L 271.59375 227.054688 L 271.058594 229.167969 L 270.226562 231.71875 L 269.273438 233.980469 L 267.90625 236.53125 L 266.773438 238.207031 L 265.289062 240.027344 L 263.917969 241.414062 L 262.429688 242.652344 L 260.230469 244.109375 L 258.800781 244.835938 L 257.253906 245.492188 L 255.410156 246.078125 L 253.089844 246.585938 L 250.589844 246.878906 L 248.269531 246.949219 L 245.773438 246.804688 L 243.925781 246.511719 L 241.488281 245.859375 L 238.453125 244.546875 L 236.253906 243.160156 L 234.527344 241.777344 L 233.039062 240.320312 L 231.375 238.351562 L 229.230469 235.144531 L 227.921875 232.667969 L 227.03125 230.625 L 226.019531 227.785156 L 225.304688 225.234375 L 224.472656 221.152344 L 223.875 215.980469 L 223.699219 211.972656 Z M 223.699219 201.914062 "/>
<path style=" stroke:none;fill-rule:nonzero;fill:rgb(14.509804%,36.078431%,60%);fill-opacity:1;" d="M 275.054688 158.800781 L 275.113281 158.558594 L 275.113281 152.757812 L 275.292969 143.574219 L 275.710938 131.96875 L 276.125 123.992188 L 277.195312 109.730469 L 278.683594 95.949219 L 280.230469 85.316406 L 281.359375 79.03125 L 282.371094 74.195312 L 284.691406 65.25 L 286.179688 60.65625 L 287.789062 56.546875 L 289.75 52.4375 L 291.179688 50.023438 L 294.390625 46.152344 L 296.769531 44.460938 L 298.617188 43.738281 L 302.601562 43.738281 L 304.980469 44.703125 L 306.707031 45.914062 L 308.613281 47.847656 L 310.21875 50.023438 L 313.015625 55.339844 L 315.511719 62.109375 L 316.644531 65.976562 L 318.429688 73.46875 L 319.796875 80.722656 L 320.75 87.007812 L 321.820312 95.949219 L 322.773438 106.828125 L 323.484375 119.15625 L 323.84375 129.550781 L 315.511719 129.550781 L 315.097656 119.882812 L 314.621094 112.390625 L 313.726562 102.476562 L 312.835938 95.46875 L 311.585938 88.457031 L 310.457031 83.863281 L 308.910156 79.269531 L 307.539062 76.371094 L 306.113281 74.195312 L 304.742188 72.746094 L 302.125 71.292969 L 299.089844 71.292969 L 297.960938 71.777344 L 295.640625 73.710938 L 294.390625 75.402344 L 292.605469 78.789062 L 291.355469 81.929688 L 289.871094 86.765625 L 288.859375 90.875 L 287.609375 97.160156 L 286.714844 102.71875 L 285.703125 110.695312 L 285.109375 116.738281 L 284.574219 123.507812 L 284.097656 131.484375 L 283.742188 139.945312 L 283.503906 148.890625 L 283.382812 157.59375 L 283.382812 195.0625 L 283.503906 203.765625 L 283.800781 213.917969 L 284.574219 228.664062 L 285.703125 241.476562 L 287.011719 251.628906 L 288.261719 258.878906 L 288.976562 262.265625 L 289.929688 266.132812 L 291.417969 270.964844 L 293.558594 275.800781 L 294.808594 277.734375 L 296.710938 279.667969 L 298.675781 280.636719 L 301.292969 280.636719 L 303.613281 279.667969 L 305.160156 278.460938 L 306.765625 276.527344 L 308.96875 272.417969 L 310.335938 268.546875 L 311.527344 263.957031 L 312.417969 259.363281 L 313.015625 255.496094 L 313.90625 248 L 314.621094 239.78125 L 315.15625 231.320312 L 315.511719 223.101562 L 323.84375 223.101562 L 323.484375 232.773438 L 322.949219 242.199219 L 322.414062 249.210938 L 321.582031 257.671875 L 320.628906 265.164062 L 319.261719 273.625 L 318.132812 279.183594 L 316.644531 285.226562 L 315.273438 289.820312 L 313.789062 293.929688 L 311.585938 298.765625 L 310.160156 301.183594 L 308.613281 303.359375 L 306.765625 305.292969 L 304.445312 306.984375 L 301.949219 307.953125 L 299.628906 308.191406 L 297.128906 307.710938 L 295.285156 306.742188 L 292.84375 304.566406 L 289.808594 300.214844 L 287.609375 295.621094 L 285.882812 291.03125 L 284.394531 286.195312 L 282.730469 279.667969 L 280.585938 269.03125 L 279.277344 260.8125 L 278.386719 254.042969 L 277.375 244.617188 L 276.660156 236.15625 L 275.828125 222.621094 L 275.234375 205.457031 L 275.054688 192.160156 Z M 275.054688 158.800781 "/>
<path style=" stroke:none;fill-rule:nonzero;fill:rgb(96.862745%,70.196078%,16.862745%);fill-opacity:1;" d="M 275.054688 311.511719 L 275.113281 311.507812 L 275.113281 311.417969 L 275.351562 311.210938 L 275.945312 310.929688 L 276.71875 310.695312 L 277.554688 310.515625 L 278.089844 310.417969 L 278.980469 310.28125 L 279.753906 310.179688 L 281.71875 309.976562 L 284.21875 309.785156 L 285.585938 309.703125 L 287.132812 309.625 L 289.335938 309.535156 L 290.34375 309.503906 L 293.4375 309.433594 L 296.949219 309.386719 L 300.816406 309.371094 L 302.601562 309.378906 L 305.042969 309.394531 L 308.375 309.445312 L 310.277344 309.492188 L 311.765625 309.535156 L 313.3125 309.597656 L 315.214844 309.6875 L 317 309.796875 L 318.429688 309.90625 L 319.855469 310.042969 L 321.046875 310.191406 L 322.058594 310.347656 L 322.949219 310.542969 L 323.484375 310.699219 L 323.84375 310.859375 L 315.574219 310.859375 L 315.097656 310.699219 L 314.5625 310.578125 L 313.667969 310.425781 L 312.777344 310.316406 L 311.882812 310.230469 L 310.21875 310.113281 L 308.789062 310.039062 L 307.003906 309.976562 L 305.28125 309.933594 L 303.316406 309.90625 L 302.125 309.898438 L 298.972656 309.898438 L 296.117188 309.929688 L 294.449219 309.964844 L 293.261719 310.003906 L 291.59375 310.070312 L 290.582031 310.125 L 289.988281 310.164062 L 288.203125 310.304688 L 287.011719 310.429688 L 286.359375 310.519531 L 285.527344 310.65625 L 284.929688 310.777344 L 284.277344 310.960938 L 283.917969 311.097656 L 283.445312 311.410156 L 283.382812 312.230469 L 283.5625 312.402344 L 283.917969 312.589844 L 284.394531 312.753906 L 285.109375 312.929688 L 285.824219 313.0625 L 287.074219 313.238281 L 288.144531 313.355469 L 288.976562 313.433594 L 290.582031 313.558594 L 291.238281 313.597656 L 292.785156 313.679688 L 294.390625 313.746094 L 296.355469 313.800781 L 297.84375 313.828125 L 300.222656 313.851562 L 303.257812 313.851562 L 306.828125 313.824219 L 309.085938 313.785156 L 310.632812 313.75 L 311.644531 313.71875 L 312.894531 313.667969 L 313.789062 313.621094 L 314.621094 313.570312 L 315.632812 313.496094 L 315.632812 312.402344 L 300.9375 312.398438 L 300.9375 311.886719 L 323.785156 311.882812 L 323.84375 313.667969 L 322.59375 313.789062 L 321.046875 313.910156 L 319.558594 314 L 318.011719 314.078125 L 315.8125 314.164062 L 314.027344 314.21875 L 311.289062 314.285156 L 308.789062 314.324219 L 306.171875 314.351562 L 303.851562 314.367188 L 301.113281 314.371094 L 298.675781 314.363281 L 296.058594 314.335938 L 293.976562 314.296875 L 292.070312 314.253906 L 290.167969 314.191406 L 287.789062 314.097656 L 286.238281 314.019531 L 284.632812 313.921875 L 283.027344 313.808594 L 281.597656 313.6875 L 280.648438 313.589844 L 279.695312 313.480469 L 278.683594 313.34375 L 277.730469 313.1875 L 277.019531 313.046875 L 276.363281 312.886719 L 275.886719 312.738281 L 275.410156 312.53125 L 275.171875 312.367188 L 275.054688 312.226562 Z M 275.054688 311.511719 "/>
<path style=" stroke:none;fill-rule:nonzero;fill:rgb(6.27451%,58.823529%,28.235294%);fill-opacity:1;" d="M 326.410156 314.09375 L 326.464844 313.820312 L 347.574219 20.664062 L 353.984375 20.664062 L 375.199219 314.371094 L 367.746094 314.371094 L 362.429688 237.703125 L 339.128906 237.703125 L 333.917969 314.09375 L 326.410156 314.09375 L 341.371094 205.988281 L 360.292969 205.710938 L 350.855469 68.648438 L 350.753906 68.375 L 350.648438 69.199219 L 341.320312 205.710938 L 341.371094 205.988281 Z M 326.410156 314.09375 "/>
<path style=" stroke:none;fill-rule:nonzero;fill:rgb(14.509804%,36.078431%,60%);fill-opacity:1;" d="M 377.765625 313.066406 L 377.828125 313.0625 L 377.828125 313.011719 L 378.003906 312.933594 L 378.421875 312.832031 L 378.839844 312.761719 L 379.910156 312.636719 L 381.394531 312.515625 L 382.945312 312.421875 L 384.074219 312.367188 L 385.085938 312.324219 L 387.40625 312.246094 L 388.894531 312.207031 L 390.5 312.171875 L 392.464844 312.136719 L 393.890625 312.113281 L 397.105469 312.082031 L 399.484375 312.066406 L 401.328125 312.058594 L 405.316406 312.058594 L 407.695312 312.066406 L 409.421875 312.078125 L 411.324219 312.09375 L 412.929688 312.113281 L 415.726562 312.160156 L 418.226562 312.21875 L 419.355469 312.253906 L 421.140625 312.320312 L 422.507812 312.382812 L 423.460938 312.4375 L 424.53125 312.515625 L 425.484375 312.609375 L 426.199219 312.71875 L 426.554688 312.808594 L 418.226562 312.808594 L 417.808594 312.726562 L 417.332031 312.660156 L 416.441406 312.574219 L 415.546875 312.511719 L 414.300781 312.449219 L 413.167969 312.410156 L 411.621094 312.371094 L 410.253906 312.34375 L 408.824219 312.324219 L 407.457031 312.3125 L 404.839844 312.300781 L 401.804688 312.300781 L 400.675781 312.304688 L 398.351562 312.320312 L 397.105469 312.335938 L 395.320312 312.367188 L 394.070312 312.394531 L 392.582031 312.433594 L 391.570312 312.472656 L 390.320312 312.527344 L 389.429688 312.574219 L 388.417969 312.644531 L 387.824219 312.695312 L 387.285156 312.757812 L 386.8125 312.824219 L 386.453125 312.898438 L 386.214844 312.976562 L 386.097656 313.054688 L 386.097656 313.382812 L 386.214844 313.457031 L 386.511719 313.546875 L 387.285156 313.675781 L 388.417969 313.789062 L 389.726562 313.875 L 390.976562 313.941406 L 391.691406 313.96875 L 392.640625 314.003906 L 394.128906 314.046875 L 396.269531 314.085938 L 397.519531 314.105469 L 399.425781 314.121094 L 401.386719 314.128906 L 404.003906 314.128906 L 406.328125 314.121094 L 407.875 314.109375 L 409.480469 314.09375 L 411.679688 314.058594 L 413.050781 314.023438 L 414.238281 313.984375 L 415.132812 313.945312 L 415.726562 313.910156 L 416.621094 313.84375 L 417.332031 313.773438 L 417.867188 313.699219 L 418.226562 313.625 L 426.554688 313.625 L 426.199219 313.710938 L 425.664062 313.792969 L 425.128906 313.855469 L 424.292969 313.929688 L 423.34375 313.996094 L 421.972656 314.070312 L 420.84375 314.117188 L 419.355469 314.171875 L 417.988281 314.210938 L 416.5 314.246094 L 414.300781 314.289062 L 412.871094 314.308594 L 411.324219 314.328125 L 409.480469 314.34375 L 407.160156 314.359375 L 404.660156 314.367188 L 402.339844 314.371094 L 399.839844 314.367188 L 397.996094 314.359375 L 395.558594 314.339844 L 392.523438 314.300781 L 390.320312 314.261719 L 388.597656 314.21875 L 387.109375 314.179688 L 385.441406 314.121094 L 383.300781 314.027344 L 381.992188 313.957031 L 381.097656 313.898438 L 380.085938 313.816406 L 379.375 313.742188 L 378.539062 313.621094 L 377.945312 313.472656 L 377.765625 313.355469 Z M 377.765625 313.066406 "/>
<path style=" stroke:none;fill-rule:nonzero;fill:rgb(96.862745%,70.196078%,16.862745%);fill-opacity:1;" d="M 377.765625 289.601562 L 377.828125 289.566406 L 377.828125 288.886719 L 378.066406 287.355469 L 378.660156 285.25 L 379.433594 283.515625 L 380.265625 282.15625 L 380.800781 281.441406 L 381.695312 280.421875 L 382.46875 279.675781 L 384.429688 278.144531 L 386.929688 276.71875 L 388.296875 276.105469 L 389.84375 275.527344 L 392.046875 274.882812 L 393.058594 274.644531 L 396.152344 274.101562 L 399.664062 273.761719 L 403.53125 273.65625 L 405.316406 273.691406 L 407.753906 273.828125 L 411.085938 274.203125 L 412.988281 274.542969 L 414.476562 274.882812 L 416.023438 275.324219 L 417.929688 276.003906 L 419.714844 276.820312 L 421.140625 277.636719 L 422.570312 278.65625 L 423.757812 279.742188 L 424.769531 280.933594 L 425.664062 282.359375 L 426.199219 283.550781 L 426.554688 284.738281 L 418.285156 284.738281 L 417.808594 283.550781 L 417.273438 282.632812 L 416.382812 281.511719 L 415.488281 280.695312 L 414.597656 280.046875 L 412.929688 279.164062 L 411.503906 278.621094 L 409.71875 278.144531 L 407.992188 277.839844 L 406.027344 277.636719 L 404.839844 277.566406 L 401.683594 277.566406 L 398.828125 277.804688 L 397.164062 278.078125 L 395.972656 278.347656 L 394.308594 278.859375 L 393.296875 279.265625 L 392.699219 279.539062 L 390.917969 280.59375 L 389.726562 281.542969 L 389.070312 282.191406 L 388.238281 283.210938 L 387.644531 284.128906 L 386.988281 285.488281 L 386.632812 286.507812 L 386.15625 288.820312 L 386.097656 294.9375 L 386.273438 296.230469 L 386.632812 297.621094 L 387.109375 298.847656 L 387.824219 300.136719 L 388.535156 301.125 L 389.785156 302.449219 L 390.855469 303.332031 L 391.691406 303.910156 L 393.296875 304.828125 L 393.949219 305.136719 L 395.496094 305.746094 L 397.105469 306.222656 L 399.066406 306.628906 L 400.554688 306.835938 L 402.933594 307.003906 L 405.96875 307.003906 L 409.539062 306.800781 L 411.800781 306.527344 L 413.347656 306.257812 L 414.359375 306.019531 L 415.609375 305.644531 L 416.5 305.304688 L 417.332031 304.929688 L 418.34375 304.351562 L 418.34375 296.230469 L 403.648438 296.195312 L 403.648438 292.386719 L 426.496094 292.355469 L 426.554688 305.644531 L 425.304688 306.5625 L 423.757812 307.445312 L 422.273438 308.125 L 420.726562 308.703125 L 418.523438 309.351562 L 416.738281 309.757812 L 414 310.234375 L 411.503906 310.539062 L 408.882812 310.742188 L 406.5625 310.84375 L 403.828125 310.878906 L 401.386719 310.8125 L 398.769531 310.609375 L 396.6875 310.335938 L 394.785156 309.996094 L 392.878906 309.554688 L 390.5 308.839844 L 388.953125 308.261719 L 387.347656 307.546875 L 385.738281 306.699219 L 384.3125 305.78125 L 383.359375 305.066406 L 382.40625 304.25 L 381.394531 303.230469 L 380.445312 302.074219 L 379.730469 301.023438 L 379.074219 299.832031 L 378.601562 298.710938 L 378.125 297.179688 L 377.886719 295.957031 L 377.765625 294.902344 Z M 377.765625 289.601562 "/>
<path style=" stroke:none;fill-rule:nonzero;fill:rgb(83.921569%,15.686275%,22.352941%);fill-opacity:1;" d="M 377.765625 161.945312 L 426.554688 161.945312 L 426.554688 173.777344 L 406.222656 173.878906 L 406.222656 272.476562 L 398.042969 272.476562 L 398.042969 173.984375 L 397.921875 173.777344 L 377.765625 173.777344 Z M 377.765625 161.945312 "/>
<path style=" stroke:none;fill-rule:nonzero;fill:rgb(6.27451%,58.823529%,28.235294%);fill-opacity:1;" d="M 429.125 314.328125 L 429.175781 314.285156 L 450.285156 269.121094 L 456.695312 269.121094 L 477.910156 314.371094 L 470.457031 314.371094 L 465.140625 302.558594 L 441.839844 302.558594 L 436.628906 314.328125 L 429.125 314.328125 L 444.082031 297.671875 L 463.003906 297.628906 L 453.570312 276.511719 L 453.464844 276.46875 L 453.359375 276.597656 L 444.03125 297.628906 L 444.082031 297.671875 Z M 429.125 314.328125 "/>
<path style=" stroke:none;fill-rule:nonzero;fill:rgb(14.509804%,36.078431%,60%);fill-opacity:1;" d="M 429.125 198.664062 L 429.183594 198.550781 L 429.183594 195.859375 L 429.363281 191.601562 L 429.777344 186.21875 L 430.195312 182.519531 L 431.265625 175.90625 L 432.753906 169.519531 L 434.300781 164.585938 L 435.429688 161.671875 L 436.441406 159.429688 L 438.761719 155.28125 L 440.25 153.152344 L 441.855469 151.246094 L 443.820312 149.339844 L 445.246094 148.21875 L 448.460938 146.425781 L 450.839844 145.640625 L 452.683594 145.304688 L 456.671875 145.304688 L 459.050781 145.753906 L 460.777344 146.3125 L 462.679688 147.210938 L 464.285156 148.21875 L 467.082031 150.683594 L 469.582031 153.824219 L 470.710938 155.617188 L 472.496094 159.09375 L 473.867188 162.457031 L 474.816406 165.371094 L 475.890625 169.519531 L 476.839844 174.5625 L 477.554688 180.277344 L 477.910156 185.097656 L 469.582031 185.097656 L 469.164062 180.617188 L 468.691406 177.140625 L 467.796875 172.542969 L 466.90625 169.292969 L 465.65625 166.042969 L 464.523438 163.914062 L 462.976562 161.78125 L 461.609375 160.4375 L 460.179688 159.429688 L 458.8125 158.757812 L 456.195312 158.082031 L 453.160156 158.082031 L 452.03125 158.308594 L 449.710938 159.203125 L 448.460938 159.988281 L 446.675781 161.558594 L 445.425781 163.015625 L 443.9375 165.257812 L 442.925781 167.164062 L 441.675781 170.078125 L 440.785156 172.65625 L 439.773438 176.355469 L 439.179688 179.160156 L 438.644531 182.296875 L 438.167969 185.996094 L 437.808594 189.917969 L 437.570312 194.066406 L 437.453125 198.101562 L 437.453125 215.476562 L 437.570312 219.511719 L 437.871094 224.222656 L 438.644531 231.058594 L 439.773438 237 L 441.082031 241.710938 L 442.332031 245.070312 L 443.046875 246.640625 L 443.996094 248.433594 L 445.484375 250.675781 L 447.628906 252.917969 L 448.875 253.816406 L 450.78125 254.710938 L 452.746094 255.160156 L 455.363281 255.160156 L 457.683594 254.710938 L 459.230469 254.152344 L 460.835938 253.253906 L 463.039062 251.347656 L 464.40625 249.554688 L 465.597656 247.425781 L 466.488281 245.296875 L 467.082031 243.503906 L 467.976562 240.027344 L 468.691406 236.214844 L 469.226562 232.292969 L 469.582031 228.480469 L 477.910156 228.480469 L 477.554688 232.964844 L 477.019531 237.335938 L 476.484375 240.589844 L 475.652344 244.511719 L 474.699219 247.988281 L 473.332031 251.910156 L 472.199219 254.488281 L 470.710938 257.289062 L 469.34375 259.421875 L 467.855469 261.328125 L 465.65625 263.566406 L 464.226562 264.6875 L 462.679688 265.699219 L 460.835938 266.59375 L 458.515625 267.378906 L 456.015625 267.828125 L 453.695312 267.941406 L 451.195312 267.714844 L 449.351562 267.265625 L 446.914062 266.257812 L 443.878906 264.242188 L 441.675781 262.109375 L 439.953125 259.980469 L 438.464844 257.738281 L 436.796875 254.710938 L 434.65625 249.78125 L 433.347656 245.96875 L 432.457031 242.828125 L 431.445312 238.457031 L 430.730469 234.535156 L 429.898438 228.257812 L 429.300781 220.296875 L 429.125 214.132812 Z M 429.125 198.664062 "/>
<path style=" stroke:none;fill-rule:nonzero;fill:rgb(83.921569%,15.686275%,22.352941%);fill-opacity:1;" d="M 480.480469 20.664062 L 529.269531 20.664062 L 529.269531 52.101562 L 508.933594 52.378906 L 508.933594 314.371094 L 500.753906 314.371094 L 500.753906 52.652344 L 500.636719 52.101562 L 480.480469 52.101562 Z M 480.480469 20.664062 "/>
<path style=" stroke:none;fill-rule:nonzero;fill:rgb(96.862745%,70.196078%,16.862745%);fill-opacity:1;" d="M 531.835938 157.007812 L 531.894531 156.765625 L 531.894531 151.933594 L 532.132812 141.066406 L 532.726562 126.09375 L 533.5 113.773438 L 534.335938 104.113281 L 534.871094 99.042969 L 535.761719 91.796875 L 536.535156 86.484375 L 538.5 75.617188 L 541 65.472656 L 542.367188 61.125 L 543.914062 57.019531 L 546.117188 52.429688 L 547.128906 50.742188 L 550.222656 46.875 L 553.730469 44.460938 L 557.597656 43.738281 L 559.382812 43.976562 L 561.824219 44.945312 L 565.15625 47.601562 L 567.058594 50.015625 L 568.546875 52.429688 L 570.09375 55.570312 L 571.996094 60.402344 L 573.78125 66.199219 L 575.210938 71.992188 L 576.636719 79.238281 L 577.828125 86.96875 L 578.839844 95.421875 L 579.730469 105.5625 L 580.265625 114.015625 L 580.625 122.46875 L 572.355469 122.46875 L 571.878906 114.015625 L 571.34375 107.496094 L 570.449219 99.527344 L 569.558594 93.730469 L 568.664062 89.140625 L 567 82.863281 L 565.570312 78.996094 L 563.785156 75.617188 L 562.0625 73.441406 L 560.097656 71.992188 L 558.90625 71.511719 L 555.753906 71.511719 L 552.898438 73.199219 L 551.230469 75.132812 L 550.042969 77.066406 L 548.375 80.6875 L 547.363281 83.585938 L 546.769531 85.519531 L 544.984375 93.003906 L 543.796875 99.765625 L 543.140625 104.355469 L 542.308594 111.601562 L 541.710938 118.121094 L 541.058594 127.78125 L 540.703125 135.027344 L 540.226562 151.453125 L 540.164062 194.921875 L 540.34375 204.101562 L 540.703125 214.003906 L 541.175781 222.699219 L 541.890625 231.875 L 542.605469 238.878906 L 543.855469 248.296875 L 544.925781 254.578125 L 545.757812 258.683594 L 547.363281 265.203125 L 548.019531 267.378906 L 549.566406 271.726562 L 551.171875 275.105469 L 553.136719 278.003906 L 554.625 279.453125 L 557.003906 280.660156 L 560.039062 280.660156 L 563.609375 279.210938 L 565.867188 277.28125 L 567.414062 275.347656 L 568.425781 273.65625 L 569.675781 271 L 570.570312 268.585938 L 571.402344 265.929688 L 572.414062 261.824219 L 572.414062 204.101562 L 557.71875 203.859375 L 557.71875 176.808594 L 580.566406 176.570312 L 580.625 271 L 579.375 277.519531 L 577.828125 283.800781 L 576.339844 288.628906 L 574.792969 292.734375 L 572.59375 297.324219 L 570.808594 300.222656 L 568.070312 303.605469 L 565.570312 305.777344 L 562.953125 307.226562 L 560.632812 307.953125 L 557.894531 308.191406 L 555.457031 307.710938 L 552.839844 306.261719 L 550.757812 304.328125 L 548.851562 301.914062 L 546.949219 298.773438 L 544.570312 293.703125 L 543.023438 289.597656 L 541.414062 284.523438 L 539.808594 278.488281 L 538.378906 271.964844 L 537.429688 266.894531 L 536.476562 261.097656 L 535.464844 253.851562 L 534.511719 245.640625 L 533.800781 238.15625 L 533.144531 229.703125 L 532.667969 221.730469 L 532.191406 210.863281 L 531.953125 202.167969 L 531.835938 194.683594 Z M 531.835938 157.007812 "/>
<path style=" stroke:none;fill-rule:nonzero;fill:rgb(83.921569%,15.686275%,22.352941%);fill-opacity:1;" d="M 531.835938 309.371094 L 580.625 309.371094 L 580.625 309.90625 L 560.289062 309.914062 L 560.289062 314.371094 L 552.109375 314.371094 L 552.109375 309.917969 L 551.992188 309.90625 L 531.835938 309.90625 Z M 531.835938 309.371094 "/>
<path style=" stroke:none;fill-rule:nonzero;fill:rgb(14.509804%,36.078431%,60%);fill-opacity:1;" d="M 583.191406 311.007812 L 583.25 311.003906 L 583.25 310.871094 L 583.429688 310.664062 L 583.847656 310.402344 L 584.261719 310.222656 L 585.335938 309.902344 L 586.820312 309.59375 L 588.367188 309.355469 L 589.5 309.210938 L 590.511719 309.101562 L 592.832031 308.902344 L 594.320312 308.796875 L 595.925781 308.707031 L 597.886719 308.613281 L 599.316406 308.558594 L 602.527344 308.472656 L 604.910156 308.433594 L 606.753906 308.417969 L 610.738281 308.417969 L 613.121094 308.441406 L 614.84375 308.464844 L 616.75 308.511719 L 618.355469 308.558594 L 621.152344 308.679688 L 623.652344 308.832031 L 624.78125 308.917969 L 626.566406 309.085938 L 627.933594 309.25 L 628.886719 309.390625 L 629.957031 309.59375 L 630.910156 309.839844 L 631.625 310.117188 L 631.980469 310.347656 L 623.652344 310.347656 L 623.234375 310.132812 L 622.757812 309.964844 L 621.867188 309.738281 L 620.972656 309.582031 L 619.722656 309.425781 L 618.59375 309.320312 L 617.046875 309.21875 L 615.679688 309.152344 L 614.25 309.101562 L 612.882812 309.070312 L 610.265625 309.039062 L 607.230469 309.039062 L 606.097656 309.050781 L 603.777344 309.09375 L 602.527344 309.128906 L 600.746094 309.207031 L 599.496094 309.277344 L 598.007812 309.386719 L 596.996094 309.480469 L 595.746094 309.621094 L 594.855469 309.746094 L 593.84375 309.925781 L 593.246094 310.0625 L 592.710938 310.214844 L 592.234375 310.394531 L 591.878906 310.582031 L 591.640625 310.785156 L 591.523438 310.980469 L 591.523438 311.824219 L 591.640625 312.019531 L 591.9375 312.25 L 592.710938 312.582031 L 593.84375 312.867188 L 595.152344 313.097656 L 596.402344 313.261719 L 597.113281 313.335938 L 598.066406 313.425781 L 599.554688 313.53125 L 601.695312 313.640625 L 602.945312 313.683594 L 604.847656 313.730469 L 606.8125 313.75 L 609.429688 313.75 L 611.75 313.730469 L 613.296875 313.703125 L 614.90625 313.65625 L 617.105469 313.566406 L 618.476562 313.476562 L 619.664062 313.375 L 620.558594 313.273438 L 621.152344 313.183594 L 622.042969 313.015625 L 622.757812 312.832031 L 623.292969 312.640625 L 623.652344 312.457031 L 631.980469 312.457031 L 631.625 312.671875 L 631.089844 312.886719 L 630.554688 313.042969 L 629.71875 313.234375 L 628.769531 313.402344 L 627.398438 313.59375 L 626.269531 313.71875 L 624.78125 313.855469 L 623.414062 313.957031 L 621.925781 314.050781 L 619.722656 314.160156 L 618.296875 314.210938 L 616.75 314.261719 L 614.90625 314.304688 L 612.585938 314.34375 L 610.085938 314.363281 L 607.765625 314.371094 L 605.265625 314.359375 L 603.421875 314.339844 L 600.980469 314.289062 L 597.949219 314.191406 L 595.746094 314.085938 L 594.019531 313.984375 L 592.535156 313.875 L 590.867188 313.730469 L 588.726562 313.488281 L 587.417969 313.304688 L 586.523438 313.152344 L 585.511719 312.941406 L 584.796875 312.75 L 583.964844 312.445312 L 583.371094 312.058594 L 583.191406 311.757812 Z M 583.191406 311.007812 "/>
<path style=" stroke:none;fill-rule:nonzero;fill:rgb(96.862745%,70.196078%,16.862745%);fill-opacity:1;" d="M 583.191406 280.730469 L 583.25 280.6875 L 583.25 279.839844 L 583.488281 277.933594 L 584.085938 275.308594 L 584.859375 273.148438 L 585.691406 271.457031 L 586.226562 270.566406 L 587.117188 269.296875 L 587.894531 268.363281 L 589.855469 266.457031 L 592.355469 264.679688 L 593.722656 263.917969 L 595.269531 263.199219 L 597.472656 262.394531 L 598.484375 262.097656 L 601.578125 261.417969 L 605.085938 260.996094 L 608.953125 260.867188 L 610.738281 260.910156 L 613.179688 261.082031 L 616.511719 261.546875 L 618.414062 261.96875 L 619.902344 262.394531 L 621.449219 262.945312 L 623.351562 263.789062 L 625.136719 264.808594 L 626.566406 265.824219 L 627.996094 267.09375 L 629.183594 268.449219 L 630.195312 269.929688 L 631.089844 271.710938 L 631.625 273.191406 L 631.980469 274.671875 L 623.710938 274.671875 L 623.234375 273.191406 L 622.699219 272.046875 L 621.804688 270.652344 L 620.914062 269.632812 L 620.023438 268.828125 L 618.355469 267.730469 L 616.925781 267.050781 L 615.144531 266.457031 L 613.417969 266.078125 L 611.453125 265.824219 L 610.265625 265.738281 L 607.109375 265.738281 L 604.253906 266.035156 L 602.589844 266.375 L 601.398438 266.710938 L 599.734375 267.347656 L 598.722656 267.855469 L 598.125 268.195312 L 596.339844 269.507812 L 595.152344 270.691406 L 594.496094 271.496094 L 593.664062 272.769531 L 593.070312 273.910156 L 592.414062 275.605469 L 592.058594 276.875 L 591.582031 279.753906 L 591.523438 287.378906 L 591.699219 288.988281 L 592.058594 290.722656 L 592.535156 292.246094 L 593.246094 293.855469 L 593.960938 295.085938 L 595.210938 296.734375 L 596.28125 297.835938 L 597.113281 298.558594 L 598.722656 299.699219 L 599.375 300.082031 L 600.921875 300.84375 L 602.527344 301.4375 L 604.492188 301.945312 L 605.980469 302.199219 L 608.359375 302.410156 L 611.394531 302.410156 L 614.964844 302.15625 L 617.226562 301.816406 L 618.773438 301.480469 L 619.785156 301.183594 L 621.03125 300.71875 L 621.925781 300.292969 L 622.757812 299.828125 L 623.769531 299.109375 L 623.769531 288.988281 L 609.074219 288.945312 L 609.074219 284.203125 L 631.921875 284.160156 L 631.980469 300.71875 L 630.730469 301.859375 L 629.183594 302.960938 L 627.695312 303.808594 L 626.148438 304.527344 L 623.949219 305.332031 L 622.164062 305.839844 L 619.425781 306.433594 L 616.925781 306.816406 L 614.308594 307.070312 L 611.988281 307.195312 L 609.253906 307.238281 L 606.8125 307.152344 L 604.195312 306.898438 L 602.113281 306.5625 L 600.207031 306.136719 L 598.304688 305.585938 L 595.925781 304.699219 L 594.378906 303.976562 L 592.769531 303.089844 L 591.164062 302.03125 L 589.738281 300.886719 L 588.785156 299.996094 L 587.832031 298.980469 L 586.820312 297.710938 L 585.871094 296.269531 L 585.15625 294.957031 L 584.5 293.476562 L 584.023438 292.078125 L 583.550781 290.171875 L 583.3125 288.648438 L 583.191406 287.335938 Z M 583.191406 280.730469 "/>
<path style=" stroke:none;fill-rule:nonzero;fill:rgb(83.921569%,15.686275%,22.352941%);fill-opacity:1;" d="M 583.191406 210.941406 L 631.980469 210.941406 L 631.980469 216.160156 L 611.648438 216.207031 L 611.648438 259.6875 L 603.464844 259.6875 L 603.464844 216.25 L 603.347656 216.160156 L 583.191406 216.160156 Z M 583.191406 210.941406 "/>
<path style=" stroke:none;fill-rule:nonzero;fill:rgb(6.27451%,58.823529%,28.235294%);fill-opacity:1;" d="M 634.546875 308.457031 L 634.601562 308.445312 L 655.710938 297.839844 L 662.121094 297.839844 L 683.335938 308.46875 L 675.882812 308.46875 L 670.566406 305.691406 L 647.265625 305.691406 L 642.054688 308.457031 L 634.546875 308.457031 L 649.507812 304.546875 L 668.429688 304.535156 L 658.996094 299.574219 L 658.890625 299.566406 L 658.785156 299.59375 L 649.457031 304.535156 L 649.507812 304.546875 Z M 634.546875 308.457031 "/>
<path style=" stroke:none;fill-rule:nonzero;fill:rgb(14.509804%,36.078431%,60%);fill-opacity:1;" d="M 634.546875 290.65625 L 634.609375 290.644531 L 634.609375 290.414062 L 634.785156 290.042969 L 635.203125 289.578125 L 635.621094 289.257812 L 636.691406 288.683594 L 638.179688 288.128906 L 639.726562 287.703125 L 640.855469 287.449219 L 641.867188 287.257812 L 644.1875 286.898438 L 645.675781 286.710938 L 647.28125 286.546875 L 649.246094 286.382812 L 650.671875 286.285156 L 653.886719 286.128906 L 656.265625 286.0625 L 658.109375 286.03125 L 662.097656 286.03125 L 664.476562 286.070312 L 666.203125 286.121094 L 668.105469 286.195312 L 669.710938 286.285156 L 672.507812 286.5 L 675.007812 286.769531 L 676.136719 286.925781 L 677.921875 287.226562 L 679.292969 287.519531 L 680.242188 287.769531 L 681.3125 288.128906 L 682.265625 288.566406 L 682.980469 289.0625 L 683.335938 289.480469 L 675.007812 289.480469 L 674.589844 289.09375 L 674.113281 288.789062 L 673.222656 288.394531 L 672.328125 288.109375 L 671.082031 287.828125 L 669.949219 287.644531 L 668.402344 287.460938 L 667.035156 287.34375 L 665.605469 287.257812 L 664.238281 287.199219 L 661.621094 287.140625 L 658.585938 287.140625 L 657.457031 287.160156 L 655.136719 287.238281 L 653.886719 287.304688 L 652.101562 287.441406 L 650.851562 287.566406 L 649.363281 287.761719 L 648.351562 287.925781 L 647.101562 288.179688 L 646.210938 288.402344 L 645.199219 288.722656 L 644.605469 288.964844 L 644.066406 289.238281 L 643.59375 289.558594 L 643.234375 289.898438 L 642.996094 290.257812 L 642.878906 290.609375 L 642.878906 292.113281 L 642.996094 292.464844 L 643.292969 292.871094 L 644.066406 293.464844 L 645.199219 293.976562 L 646.507812 294.386719 L 647.757812 294.679688 L 648.472656 294.8125 L 649.421875 294.96875 L 650.910156 295.164062 L 653.050781 295.359375 L 654.300781 295.4375 L 656.207031 295.511719 L 658.167969 295.550781 L 660.789062 295.550781 L 663.109375 295.511719 L 664.65625 295.464844 L 666.261719 295.386719 L 668.460938 295.222656 L 669.832031 295.066406 L 671.019531 294.882812 L 671.914062 294.699219 L 672.507812 294.542969 L 673.402344 294.242188 L 674.113281 293.910156 L 674.648438 293.570312 L 675.007812 293.238281 L 683.335938 293.238281 L 682.980469 293.628906 L 682.445312 294.007812 L 681.910156 294.289062 L 681.074219 294.628906 L 680.125 294.929688 L 678.753906 295.269531 L 677.625 295.492188 L 676.136719 295.738281 L 674.769531 295.921875 L 673.28125 296.085938 L 671.082031 296.28125 L 669.652344 296.378906 L 668.105469 296.464844 L 666.261719 296.542969 L 663.941406 296.609375 L 661.441406 296.648438 L 659.121094 296.660156 L 656.621094 296.640625 L 654.777344 296.601562 L 652.339844 296.515625 L 649.304688 296.339844 L 647.101562 296.15625 L 645.378906 295.96875 L 643.890625 295.777344 L 642.222656 295.511719 L 640.082031 295.085938 L 638.773438 294.753906 L 637.878906 294.484375 L 636.867188 294.105469 L 636.15625 293.765625 L 635.320312 293.222656 L 634.726562 292.53125 L 634.546875 291.996094 Z M 634.546875 290.65625 "/>
<path style=" stroke:none;fill-rule:nonzero;fill:rgb(96.862745%,70.196078%,16.862745%);fill-opacity:1;" d="M 634.546875 311.671875 L 634.609375 311.664062 L 634.609375 311.578125 L 634.847656 311.386719 L 635.441406 311.117188 L 636.214844 310.898438 L 637.046875 310.726562 L 637.582031 310.632812 L 638.476562 310.503906 L 639.25 310.410156 L 641.210938 310.214844 L 643.710938 310.035156 L 645.078125 309.957031 L 646.625 309.882812 L 648.828125 309.800781 L 649.839844 309.773438 L 652.933594 309.703125 L 656.445312 309.660156 L 660.3125 309.648438 L 662.097656 309.652344 L 664.535156 309.667969 L 667.867188 309.714844 L 669.769531 309.757812 L 671.257812 309.800781 L 672.804688 309.859375 L 674.710938 309.945312 L 676.496094 310.046875 L 677.921875 310.152344 L 679.351562 310.28125 L 680.539062 310.417969 L 681.550781 310.570312 L 682.445312 310.75 L 682.980469 310.902344 L 683.335938 311.054688 L 675.066406 311.054688 L 674.589844 310.902344 L 674.054688 310.785156 L 673.164062 310.644531 L 672.269531 310.539062 L 671.378906 310.457031 L 669.710938 310.34375 L 668.285156 310.277344 L 666.5 310.214844 L 664.773438 310.175781 L 662.808594 310.152344 L 661.621094 310.144531 L 658.46875 310.144531 L 655.609375 310.171875 L 653.945312 310.207031 L 652.753906 310.242188 L 651.089844 310.304688 L 650.078125 310.359375 L 649.484375 310.394531 L 647.699219 310.527344 L 646.507812 310.648438 L 645.851562 310.730469 L 645.019531 310.859375 L 644.425781 310.976562 L 643.769531 311.148438 L 643.414062 311.277344 L 642.9375 311.570312 L 642.878906 312.347656 L 643.058594 312.511719 L 643.414062 312.6875 L 643.890625 312.84375 L 644.605469 313.007812 L 645.316406 313.132812 L 646.566406 313.300781 L 647.636719 313.414062 L 648.472656 313.484375 L 650.078125 313.601562 L 650.730469 313.640625 L 652.277344 313.71875 L 653.886719 313.78125 L 655.847656 313.832031 L 657.335938 313.855469 L 659.714844 313.878906 L 662.75 313.878906 L 666.320312 313.851562 L 668.582031 313.820312 L 670.128906 313.785156 L 671.140625 313.753906 L 672.390625 313.707031 L 673.28125 313.664062 L 674.113281 313.617188 L 675.125 313.542969 L 675.125 312.511719 L 660.429688 312.507812 L 660.429688 312.023438 L 683.277344 312.019531 L 683.335938 313.707031 L 682.085938 313.824219 L 680.539062 313.933594 L 679.054688 314.019531 L 677.507812 314.09375 L 675.304688 314.175781 L 673.519531 314.226562 L 670.78125 314.289062 L 668.285156 314.328125 L 665.667969 314.351562 L 663.34375 314.367188 L 660.609375 314.371094 L 658.167969 314.363281 L 655.550781 314.335938 L 653.46875 314.300781 L 651.566406 314.257812 L 649.660156 314.203125 L 647.28125 314.113281 L 645.734375 314.039062 L 644.128906 313.949219 L 642.519531 313.839844 L 641.09375 313.722656 L 640.140625 313.632812 L 639.1875 313.53125 L 638.179688 313.398438 L 637.226562 313.253906 L 636.511719 313.121094 L 635.859375 312.96875 L 635.382812 312.824219 L 634.90625 312.632812 L 634.667969 312.476562 L 634.546875 312.34375 Z M 634.546875 311.671875 "/>
<path style=" stroke:none;fill-rule:nonzero;fill:rgb(83.921569%,15.686275%,22.352941%);fill-opacity:1;" d="M 634.546875 185.671875 L 683.335938 185.671875 L 683.335938 196.285156 L 663.003906 196.378906 L 663.003906 284.851562 L 654.824219 284.851562 L 654.824219 196.472656 L 654.703125 196.285156 L 634.546875 196.285156 Z M 634.546875 185.671875 "/>
<g style="fill:rgb(0%,0%,0%);fill-opacity:1;">
  <use xlink:href="#glyph0-1" x="21.957031" y="318.198242"/>
  <use xlink:href="#glyph0-2" x="27.291016" y="318.198242"/>
  <use xlink:href="#glyph0-1" x="29.958008" y="318.198242"/>
</g>
<g style="fill:rgb(0%,0%,0%);fill-opacity:1;">
  <use xlink:href="#glyph0-1" x="21.957031" y="244.475586"/>
  <use xlink:href="#glyph0-2" x="27.291016" y="244.475586"/>
  <use xlink:href="#glyph0-3" x="29.958008" y="244.475586"/>
</g>
<g style="fill:rgb(0%,0%,0%);fill-opacity:1;">
  <use xlink:href="#glyph0-4" x="21.957031" y="170.75293"/>
  <use xlink:href="#glyph0-2" x="27.291016" y="170.75293"/>
  <use xlink:href="#glyph0-1" x="29.958008" y="170.75293"/>
</g>
<g style="fill:rgb(0%,0%,0%);fill-opacity:1;">
  <use xlink:href="#glyph0-4" x="21.957031" y="97.03418"/>
  <use xlink:href="#glyph0-2" x="27.291016" y="97.03418"/>
  <use xlink:href="#glyph0-3" x="29.958008" y="97.03418"/>
</g>
<g style="fill:rgb(0%,0%,0%);fill-opacity:1;">
  <use xlink:href="#glyph0-5" x="21.957031" y="23.311523"/>
  <use xlink:href="#glyph0-2" x="27.291016" y="23.311523"/>
  <use xlink:href="#glyph0-1" x="29.958008" y="23.311523"/>
</g>
<g style="fill:rgb(0%,0%,0%);fill-opacity:1;">
  <use xlink:href="#glyph0-4" x="91.023438" y="338.19043"/>
</g>
<g style="fill:rgb(0%,0%,0%);fill-opacity:1;">
  <use xlink:href="#glyph0-5" x="142.378906" y="338.19043"/>
</g>
<g style="fill:rgb(0%,0%,0%);fill-opacity:1;">
  <use xlink:href="#glyph0-6" x="193.734375" y="338.19043"/>
</g>
<g style="fill:rgb(0%,0%,0%);fill-opacity:1;">
  <use xlink:href="#glyph0-7" x="245.09375" y="338.19043"/>
</g>
<g style="fill:rgb(0%,0%,0%);fill-opacity:1;">
  <use xlink:href="#glyph0-3" x="296.449219" y="338.19043"/>
</g>
<g style="fill:rgb(0%,0%,0%);fill-opacity:1;">
  <use xlink:href="#glyph0-8" x="347.804688" y="338.19043"/>
</g>
<g style="fill:rgb(0%,0%,0%);fill-opacity:1;">
  <use xlink:href="#glyph0-9" x="399.160156" y="338.19043"/>
</g>
<g style="fill:rgb(0%,0%,0%);fill-opacity:1;">
  <use xlink:href="#glyph0-10" x="450.519531" y="338.19043"/>
</g>
<g style="fill:rgb(0%,0%,0%);fill-opacity:1;">
  <use xlink:href="#glyph0-11" x="501.875" y="338.19043"/>
</g>
<g style="fill:rgb(0%,0%,0%);fill-opacity:1;">
  <use xlink:href="#glyph0-4" x="550.730469" y="338.19043"/>
  <use xlink:href="#glyph0-1" x="556.064453" y="338.19043"/>
</g>
<g style="fill:rgb(0%,0%,0%);fill-opacity:1;">
  <use xlink:href="#glyph0-4" x="602.085938" y="338.19043"/>
  <use xlink:href="#glyph0-4" x="607.419922" y="338.19043"/>
</g>
<g style="fill:rgb(0%,0%,0%);fill-opacity:1;">
  <use xlink:href="#glyph0-4" x="653.441406" y="338.19043"/>
  <use xlink:href="#glyph0-5" x="658.775391" y="338.19043"/>
</g>
<g style="fill:rgb(0%,0%,0%);fill-opacity:1;">
  <use xlink:href="#glyph1-1" x="14.412109" y="178.015625"/>
  <use xlink:href="#glyph1-2" x="14.412109" y="170.011719"/>
  <use xlink:href="#glyph1-3" x="14.412109" y="167.347656"/>
  <use xlink:href="#glyph1-4" x="14.412109" y="164.011719"/>
</g>
</g>
</svg>
