<?xml version="1.0" encoding="UTF-8"?>
<svg xmlns="http://www.w3.org/2000/svg" xmlns:xlink="http://www.w3.org/1999/xlink" width="720pt" height="360pt" viewBox="0 0 720 360" version="1.1">
<defs>
<g>
<symbol overflow="visible" id="glyph0-0">
<path style="stroke:none;" d=""/>
</symbol>
<symbol overflow="visible" id="glyph0-1">
<path style="stroke:none;" d="M 2.640625 -6.796875 C 2 -6.796875 1.421875 -6.53125 1.078125 -6.046875 C 0.640625 -5.453125 0.40625 -4.546875 0.40625 -3.296875 C 0.40625 -1 1.1875 0.21875 2.640625 0.21875 C 4.078125 0.21875 4.859375 -1 4.859375 -3.234375 C 4.859375 -4.5625 4.65625 -5.4375 4.203125 -6.046875 C 3.84375 -6.53125 3.28125 -6.796875 2.640625 -6.796875 Z M 2.640625 -6.046875 C 3.546875 -6.046875 4 -5.125 4 -3.3125 C 4 -1.375 3.5625 -0.484375 2.625 -0.484375 C 1.734375 -0.484375 1.28125 -1.421875 1.28125 -3.28125 C 1.28125 -5.140625 1.734375 -6.046875 2.640625 -6.046875 Z M 2.640625 -6.046875 "/>
</symbol>
<symbol overflow="visible" id="glyph0-2">
<path style="stroke:none;" d="M 1.828125 -1 L 0.828125 -1 L 0.828125 0 L 1.828125 0 Z M 1.828125 -1 "/>
</symbol>
<symbol overflow="visible" id="glyph0-3">
<path style="stroke:none;" d="M 4.5625 -6.796875 L 1.0625 -6.796875 L 0.546875 -3.09375 L 1.328125 -3.09375 C 1.71875 -3.5625 2.046875 -3.734375 2.578125 -3.734375 C 3.484375 -3.734375 4.0625 -3.109375 4.0625 -2.09375 C 4.0625 -1.125 3.484375 -0.53125 2.578125 -0.53125 C 1.828125 -0.53125 1.375 -0.90625 1.1875 -1.671875 L 0.328125 -1.671875 C 0.453125 -1.109375 0.546875 -0.84375 0.75 -0.59375 C 1.125 -0.078125 1.828125 0.21875 2.59375 0.21875 C 3.96875 0.21875 4.921875 -0.78125 4.921875 -2.21875 C 4.921875 -3.5625 4.03125 -4.484375 2.71875 -4.484375 C 2.25 -4.484375 1.859375 -4.359375 1.46875 -4.0625 L 1.734375 -5.96875 L 4.5625 -5.96875 Z M 4.5625 -6.796875 "/>
</symbol>
<symbol overflow="visible" id="glyph0-4">
<path style="stroke:none;" d="M 2.484375 -4.84375 L 2.484375 0 L 3.328125 0 L 3.328125 -6.796875 L 2.765625 -6.796875 C 2.46875 -5.75 2.28125 -5.609375 0.984375 -5.453125 L 0.984375 -4.84375 Z M 2.484375 -4.84375 "/>
</symbol>
<symbol overflow="visible" id="glyph0-5">
<path style="stroke:none;" d="M 4.859375 -0.828125 L 1.28125 -0.828125 C 1.359375 -1.390625 1.671875 -1.75 2.5 -2.234375 L 3.46875 -2.75 C 4.40625 -3.265625 4.90625 -3.96875 4.90625 -4.8125 C 4.90625 -5.375 4.671875 -5.90625 4.265625 -6.265625 C 3.859375 -6.625 3.375 -6.796875 2.71875 -6.796875 C 1.859375 -6.796875 1.21875 -6.5 0.84375 -5.921875 C 0.609375 -5.5625 0.5 -5.125 0.484375 -4.4375 L 1.328125 -4.4375 C 1.359375 -4.90625 1.40625 -5.1875 1.53125 -5.40625 C 1.75 -5.8125 2.1875 -6.0625 2.703125 -6.0625 C 3.46875 -6.0625 4.03125 -5.515625 4.03125 -4.78125 C 4.03125 -4.25 3.71875 -3.796875 3.125 -3.4375 L 2.234375 -2.9375 C 0.8125 -2.140625 0.40625 -1.5 0.328125 0 L 4.859375 0 Z M 4.859375 -0.828125 "/>
</symbol>
<symbol overflow="visible" id="glyph0-6">
<path style="stroke:none;" d="M 2.125 -3.125 L 2.578125 -3.125 C 3.515625 -3.125 3.984375 -2.703125 3.984375 -1.890625 C 3.984375 -1.03125 3.46875 -0.53125 2.578125 -0.53125 C 1.65625 -0.53125 1.203125 -0.984375 1.15625 -1.96875 L 0.3125 -1.96875 C 0.34375 -1.421875 0.4375 -1.078125 0.609375 -0.765625 C 0.953125 -0.109375 1.625 0.21875 2.546875 0.21875 C 3.953125 0.21875 4.859375 -0.609375 4.859375 -1.90625 C 4.859375 -2.765625 4.515625 -3.25 3.703125 -3.515625 C 4.34375 -3.765625 4.65625 -4.25 4.65625 -4.9375 C 4.65625 -6.109375 3.875 -6.796875 2.578125 -6.796875 C 1.203125 -6.796875 0.484375 -6.046875 0.453125 -4.609375 L 1.296875 -4.609375 C 1.3125 -5.015625 1.34375 -5.25 1.453125 -5.453125 C 1.640625 -5.828125 2.0625 -6.0625 2.59375 -6.0625 C 3.34375 -6.0625 3.796875 -5.625 3.796875 -4.90625 C 3.796875 -4.421875 3.609375 -4.140625 3.25 -3.984375 C 3.015625 -3.890625 2.71875 -3.84375 2.125 -3.84375 Z M 2.125 -3.125 "/>
</symbol>
<symbol overflow="visible" id="glyph0-7">
<path style="stroke:none;" d="M 3.140625 -1.625 L 3.140625 0 L 3.984375 0 L 3.984375 -1.625 L 4.984375 -1.625 L 4.984375 -2.390625 L 3.984375 -2.390625 L 3.984375 -6.796875 L 3.359375 -6.796875 L 0.265625 -2.515625 L 0.265625 -1.625 Z M 3.140625 -2.390625 L 1 -2.390625 L 3.140625 -5.359375 Z M 3.140625 -2.390625 "/>
</symbol>
<symbol overflow="visible" id="glyph0-8">
<path style="stroke:none;" d="M 4.78125 -5.03125 C 4.609375 -6.140625 3.890625 -6.796875 2.84375 -6.796875 C 2.09375 -6.796875 1.421875 -6.4375 1.03125 -5.828125 C 0.609375 -5.171875 0.40625 -4.34375 0.40625 -3.09375 C 0.40625 -1.953125 0.578125 -1.234375 0.984375 -0.625 C 1.359375 -0.078125 1.953125 0.21875 2.703125 0.21875 C 3.984375 0.21875 4.921875 -0.734375 4.921875 -2.078125 C 4.921875 -3.34375 4.0625 -4.234375 2.84375 -4.234375 C 2.171875 -4.234375 1.640625 -3.96875 1.28125 -3.46875 C 1.28125 -5.125 1.828125 -6.046875 2.796875 -6.046875 C 3.390625 -6.046875 3.796875 -5.671875 3.9375 -5.03125 Z M 2.734375 -3.484375 C 3.546875 -3.484375 4.0625 -2.921875 4.0625 -2 C 4.0625 -1.15625 3.484375 -0.53125 2.703125 -0.53125 C 1.921875 -0.53125 1.328125 -1.1875 1.328125 -2.046875 C 1.328125 -2.890625 1.90625 -3.484375 2.734375 -3.484375 Z M 2.734375 -3.484375 "/>
</symbol>
<symbol overflow="visible" id="glyph0-9">
<path style="stroke:none;" d="M 4.984375 -6.796875 L 0.4375 -6.796875 L 0.4375 -5.96875 L 4.109375 -5.96875 C 2.5 -3.65625 1.828125 -2.234375 1.328125 0 L 2.21875 0 C 2.59375 -2.171875 3.453125 -4.046875 4.984375 -6.09375 Z M 4.984375 -6.796875 "/>
</symbol>
<symbol overflow="visible" id="glyph0-10">
<path style="stroke:none;" d="M 3.75 -3.578125 C 4.453125 -4 4.6875 -4.34375 4.6875 -4.984375 C 4.6875 -6.046875 3.84375 -6.796875 2.640625 -6.796875 C 1.4375 -6.796875 0.59375 -6.046875 0.59375 -4.984375 C 0.59375 -4.359375 0.828125 -4.015625 1.515625 -3.578125 C 0.734375 -3.203125 0.359375 -2.640625 0.359375 -1.890625 C 0.359375 -0.640625 1.296875 0.21875 2.640625 0.21875 C 3.984375 0.21875 4.921875 -0.640625 4.921875 -1.875 C 4.921875 -2.640625 4.53125 -3.203125 3.75 -3.578125 Z M 2.640625 -6.046875 C 3.359375 -6.046875 3.8125 -5.625 3.8125 -4.96875 C 3.8125 -4.34375 3.34375 -3.921875 2.640625 -3.921875 C 1.921875 -3.921875 1.453125 -4.34375 1.453125 -4.984375 C 1.453125 -5.625 1.921875 -6.046875 2.640625 -6.046875 Z M 2.640625 -3.203125 C 3.484375 -3.203125 4.0625 -2.671875 4.0625 -1.875 C 4.0625 -1.0625 3.484375 -0.53125 2.625 -0.53125 C 1.796875 -0.53125 1.21875 -1.078125 1.21875 -1.875 C 1.21875 -2.671875 1.796875 -3.203125 2.640625 -3.203125 Z M 2.640625 -3.203125 "/>
</symbol>
<symbol overflow="visible" id="glyph1-0">
<path style="stroke:none;" d=""/>
</symbol>
<symbol overflow="visible" id="glyph1-1">
<path style="stroke:none;" d="M 0 -0.953125 L 0 -4.890625 C 0 -5.71875 -0.234375 -6.34375 -0.734375 -6.796875 C -1.1875 -7.234375 -1.8125 -7.46875 -2.5 -7.46875 C -3.546875 -7.46875 -4.1875 -7 -4.625 -5.875 C -4.984375 -6.671875 -5.640625 -7.09375 -6.53125 -7.09375 C -7.15625 -7.09375 -7.734375 -6.859375 -8.140625 -6.390625 C -8.5625 -5.9375 -8.75 -5.34375 -8.75 -4.5 L -8.75 -0.953125 Z M -4.984375 -2.0625 L -7.765625 -2.0625 L -7.765625 -4.21875 C -7.765625 -4.84375 -7.6875 -5.203125 -7.453125 -5.5 C -7.21875 -5.8125 -6.859375 -5.96875 -6.375 -5.96875 C -5.90625 -5.96875 -5.53125 -5.8125 -5.296875 -5.5 C -5.0625 -5.203125 -4.984375 -4.84375 -4.984375 -4.21875 Z M -0.984375 -2.0625 L -4 -2.0625 L -4 -4.78125 C -4 -5.328125 -3.859375 -5.6875 -3.578125 -5.953125 C -3.296875 -6.21875 -2.921875 -6.359375 -2.484375 -6.359375 C -2.0625 -6.359375 -1.6875 -6.21875 -1.40625 -5.953125 C -1.109375 -5.6875 -0.984375 -5.328125 -0.984375 -4.78125 Z M -0.984375 -2.0625 "/>
</symbol>
<symbol overflow="visible" id="glyph1-2">
<path style="stroke:none;" d="M -6.28125 -1.796875 L -6.28125 -0.796875 L 0 -0.796875 L 0 -1.796875 Z M -8.75 -1.796875 L -8.75 -0.796875 L -7.484375 -0.796875 L -7.484375 -1.796875 Z M -8.75 -1.796875 "/>
</symbol>
<symbol overflow="visible" id="glyph1-3">
<path style="stroke:none;" d="M -6.28125 -3.046875 L -6.28125 -2.015625 L -8.015625 -2.015625 L -8.015625 -1.015625 L -6.28125 -1.015625 L -6.28125 -0.171875 L -5.46875 -0.171875 L -5.46875 -1.015625 L -0.71875 -1.015625 C -0.078125 -1.015625 0.28125 -1.453125 0.28125 -2.234375 C 0.28125 -2.46875 0.25 -2.71875 0.1875 -3.046875 L -0.640625 -3.046875 C -0.609375 -2.921875 -0.59375 -2.765625 -0.59375 -2.5625 C -0.59375 -2.140625 -0.71875 -2.015625 -1.15625 -2.015625 L -5.46875 -2.015625 L -5.46875 -3.046875 Z M -6.28125 -3.046875 "/>
</symbol>
<symbol overflow="visible" id="glyph1-4">
<path style="stroke:none;" d="M -4.53125 -5.25 C -5.765625 -5.25 -6.46875 -4.421875 -6.46875 -2.96875 C -6.46875 -1.515625 -5.71875 -0.5625 -4.546875 -0.5625 C -3.5625 -0.5625 -3.09375 -1.0625 -2.734375 -2.5625 L -2.515625 -3.484375 C -2.34375 -4.1875 -2.09375 -4.46875 -1.625 -4.46875 C -1.046875 -4.46875 -0.640625 -3.875 -0.640625 -3 C -0.640625 -2.453125 -0.796875 -2 -1.0625 -1.75 C -1.25 -1.59375 -1.421875 -1.53125 -1.875 -1.46875 L -1.875 -0.40625 C -0.421875 -0.453125 0.28125 -1.265625 0.28125 -2.921875 C 0.28125 -4.5 -0.5 -5.515625 -1.71875 -5.515625 C -2.65625 -5.515625 -3.171875 -4.984375 -3.46875 -3.734375 L -3.703125 -2.765625 C -3.890625 -1.953125 -4.15625 -1.609375 -4.59375 -1.609375 C -5.171875 -1.609375 -5.546875 -2.125 -5.546875 -2.9375 C -5.546875 -3.75 -5.203125 -4.171875 -4.53125 -4.203125 Z M -4.53125 -5.25 "/>
</symbol>
</g>
</defs>
<g id="surface76267">
<rect x="0" y="0" width="720" height="360" style="fill:rgb(100%,100%,100%);fill-opacity:1;stroke:none;"/>
<path style=" stroke:none;fill-rule:nonzero;fill:rgb(14.509804%,36.078431%,60%);fill-opacity:1;" d="M 69.628906 287.191406 L 69.71875 287.171875 L 69.71875 286.6875 L 69.988281 285.925781 L 70.613281 284.960938 L 71.238281 284.296875 L 72.847656 283.109375 L 75.085938 281.960938 L 77.410156 281.074219 L 79.109375 280.550781 L 80.628906 280.148438 L 84.117188 279.40625 L 86.355469 279.023438 L 88.769531 278.679688 L 91.71875 278.339844 L 93.867188 278.136719 L 98.695312 277.816406 L 102.273438 277.675781 L 105.046875 277.613281 L 111.039062 277.613281 L 114.613281 277.695312 L 117.207031 277.796875 L 120.070312 277.957031 L 122.484375 278.136719 L 126.6875 278.582031 L 130.445312 279.144531 L 132.144531 279.464844 L 134.828125 280.089844 L 136.882812 280.695312 L 138.316406 281.214844 L 139.925781 281.960938 L 141.355469 282.867188 L 142.429688 283.894531 L 142.964844 284.757812 L 130.445312 284.757812 L 129.820312 283.953125 L 129.101562 283.328125 L 127.761719 282.503906 L 126.421875 281.921875 L 124.542969 281.335938 L 122.84375 280.953125 L 120.515625 280.574219 L 118.460938 280.332031 L 116.3125 280.148438 L 114.257812 280.03125 L 110.320312 279.910156 L 105.761719 279.910156 L 104.0625 279.949219 L 100.574219 280.109375 L 98.695312 280.25 L 96.011719 280.53125 L 94.132812 280.792969 L 91.898438 281.195312 L 90.378906 281.539062 L 88.5 282.0625 L 87.160156 282.523438 L 85.636719 283.1875 L 84.742188 283.691406 L 83.9375 284.253906 L 83.222656 284.917969 L 82.6875 285.621094 L 82.328125 286.367188 L 82.148438 287.09375 L 82.148438 290.210938 L 82.328125 290.933594 L 82.777344 291.78125 L 83.9375 293.007812 L 85.636719 294.074219 L 87.605469 294.917969 L 89.484375 295.523438 L 90.558594 295.804688 L 91.988281 296.125 L 94.222656 296.527344 L 97.445312 296.929688 L 99.320312 297.09375 L 102.183594 297.253906 L 105.136719 297.332031 L 109.070312 297.332031 L 112.558594 297.253906 L 114.882812 297.152344 L 117.296875 296.992188 L 120.605469 296.648438 L 122.664062 296.328125 L 124.453125 295.945312 L 125.792969 295.5625 L 126.6875 295.242188 L 128.03125 294.617188 L 129.101562 293.933594 L 129.90625 293.230469 L 130.445312 292.542969 L 142.964844 292.542969 L 142.429688 293.347656 L 141.625 294.132812 L 140.820312 294.71875 L 139.566406 295.421875 L 138.136719 296.046875 L 136.078125 296.75 L 134.378906 297.210938 L 132.144531 297.714844 L 130.085938 298.097656 L 127.851562 298.441406 L 124.542969 298.84375 L 122.394531 299.042969 L 120.070312 299.226562 L 117.296875 299.386719 L 113.808594 299.527344 L 110.054688 299.605469 L 106.566406 299.628906 L 102.808594 299.585938 L 100.035156 299.507812 L 96.371094 299.324219 L 91.808594 298.964844 L 88.5 298.582031 L 85.90625 298.199219 L 83.671875 297.796875 L 81.167969 297.253906 L 77.945312 296.367188 L 75.980469 295.683594 L 74.636719 295.121094 L 73.117188 294.335938 L 72.042969 293.632812 L 70.792969 292.503906 L 69.898438 291.074219 L 69.628906 289.96875 Z M 69.628906 287.191406 "/>
<path style=" stroke:none;fill-rule:nonzero;fill:rgb(96.862745%,70.196078%,16.862745%);fill-opacity:1;" d="M 69.628906 306.617188 L 69.71875 306.605469 L 69.71875 306.355469 L 70.078125 305.796875 L 70.972656 305.03125 L 72.132812 304.398438 L 73.386719 303.902344 L 74.191406 303.644531 L 75.53125 303.273438 L 76.695312 303 L 79.644531 302.441406 L 83.402344 301.921875 L 85.460938 301.699219 L 87.785156 301.488281 L 91.09375 301.253906 L 92.613281 301.164062 L 97.265625 300.96875 L 102.542969 300.84375 L 108.355469 300.808594 L 111.039062 300.820312 L 114.703125 300.867188 L 119.710938 301.003906 L 122.574219 301.128906 L 124.808594 301.253906 L 127.136719 301.414062 L 129.996094 301.660156 L 132.679688 301.957031 L 134.828125 302.257812 L 136.972656 302.628906 L 138.761719 303.023438 L 140.28125 303.457031 L 141.625 303.976562 L 142.429688 304.410156 L 142.964844 304.84375 L 130.535156 304.84375 L 129.820312 304.410156 L 129.015625 304.078125 L 127.671875 303.667969 L 126.332031 303.371094 L 124.988281 303.136719 L 122.484375 302.8125 L 120.339844 302.617188 L 117.65625 302.441406 L 115.0625 302.332031 L 112.109375 302.257812 L 110.320312 302.230469 L 105.582031 302.230469 L 101.289062 302.316406 L 98.785156 302.417969 L 96.996094 302.515625 L 94.492188 302.703125 L 92.972656 302.851562 L 92.078125 302.949219 L 89.394531 303.332031 L 87.605469 303.679688 L 86.621094 303.914062 L 85.371094 304.289062 L 84.476562 304.621094 L 83.492188 305.117188 L 82.953125 305.488281 L 82.238281 306.332031 L 82.148438 308.5625 L 82.417969 309.03125 L 82.953125 309.539062 L 83.671875 309.984375 L 84.742188 310.457031 L 85.816406 310.816406 L 87.695312 311.296875 L 89.304688 311.621094 L 90.558594 311.832031 L 92.972656 312.164062 L 93.957031 312.277344 L 96.28125 312.5 L 98.695312 312.671875 L 101.648438 312.824219 L 103.882812 312.898438 L 107.460938 312.957031 L 112.019531 312.957031 L 117.386719 312.882812 L 120.785156 312.785156 L 123.109375 312.6875 L 124.632812 312.597656 L 126.507812 312.464844 L 127.851562 312.339844 L 129.101562 312.203125 L 130.625 311.992188 L 130.625 309.03125 L 108.535156 309.019531 L 108.535156 307.632812 L 142.875 307.621094 L 142.964844 312.464844 L 141.085938 312.796875 L 138.761719 313.121094 L 136.527344 313.367188 L 134.199219 313.578125 L 130.890625 313.8125 L 128.207031 313.960938 L 124.09375 314.136719 L 120.339844 314.246094 L 116.402344 314.320312 L 112.914062 314.359375 L 108.800781 314.371094 L 105.136719 314.347656 L 101.199219 314.273438 L 98.070312 314.171875 L 95.207031 314.046875 L 92.34375 313.886719 L 88.769531 313.628906 L 86.441406 313.417969 L 84.027344 313.15625 L 81.613281 312.847656 L 79.46875 312.511719 L 78.035156 312.253906 L 76.605469 311.957031 L 75.085938 311.582031 L 73.652344 311.164062 L 72.582031 310.777344 L 71.597656 310.34375 L 70.882812 309.9375 L 70.164062 309.378906 L 69.808594 308.933594 L 69.628906 308.546875 Z M 69.628906 306.617188 "/>
<path style=" stroke:none;fill-rule:nonzero;fill:rgb(83.921569%,15.686275%,22.352941%);fill-opacity:1;" d="M 69.628906 219.71875 L 142.964844 219.71875 L 142.964844 225.789062 L 112.402344 225.84375 L 112.402344 276.433594 L 100.105469 276.433594 L 100.105469 225.894531 L 99.925781 225.789062 L 69.628906 225.789062 Z M 69.628906 219.71875 "/>
<path style=" stroke:none;fill-rule:nonzero;fill:rgb(14.509804%,36.078431%,60%);fill-opacity:1;" d="M 146.824219 199.066406 L 146.914062 198.953125 L 146.914062 196.308594 L 147.183594 192.113281 L 147.808594 186.816406 L 148.433594 183.175781 L 150.042969 176.664062 L 152.28125 170.375 L 154.605469 165.519531 L 156.304688 162.648438 L 157.824219 160.441406 L 161.3125 156.359375 L 163.550781 154.265625 L 165.964844 152.386719 L 168.914062 150.511719 L 171.0625 149.410156 L 175.890625 147.644531 L 179.46875 146.871094 L 182.242188 146.539062 L 188.234375 146.539062 L 191.8125 146.980469 L 194.40625 147.53125 L 197.265625 148.414062 L 199.679688 149.410156 L 203.882812 151.835938 L 207.640625 154.925781 L 209.339844 156.691406 L 212.023438 160.113281 L 214.078125 163.421875 L 215.511719 166.292969 L 217.121094 170.375 L 218.550781 175.339844 L 219.625 180.96875 L 220.160156 185.714844 L 207.640625 185.714844 L 207.015625 181.300781 L 206.300781 177.878906 L 204.957031 173.355469 L 203.617188 170.152344 L 201.738281 166.953125 L 200.039062 164.855469 L 197.714844 162.761719 L 195.65625 161.4375 L 193.511719 160.441406 L 191.453125 159.78125 L 187.519531 159.117188 L 182.957031 159.117188 L 181.257812 159.339844 L 177.769531 160.222656 L 175.890625 160.996094 L 173.207031 162.539062 L 171.332031 163.972656 L 169.09375 166.179688 L 167.574219 168.058594 L 165.695312 170.925781 L 164.355469 173.464844 L 162.835938 177.105469 L 161.941406 179.863281 L 161.136719 182.953125 L 160.417969 186.597656 L 159.882812 190.457031 L 159.523438 194.542969 L 159.347656 198.511719 L 159.347656 215.617188 L 159.523438 219.589844 L 159.972656 224.226562 L 161.136719 230.957031 L 162.835938 236.804688 L 164.800781 241.4375 L 166.679688 244.75 L 167.753906 246.292969 L 169.183594 248.058594 L 171.417969 250.265625 L 174.640625 252.472656 L 176.515625 253.355469 L 179.378906 254.238281 L 182.332031 254.679688 L 186.265625 254.679688 L 189.753906 254.238281 L 192.078125 253.6875 L 194.492188 252.804688 L 197.804688 250.929688 L 199.859375 249.164062 L 201.648438 247.066406 L 202.988281 244.96875 L 203.882812 243.203125 L 205.226562 239.785156 L 206.300781 236.03125 L 207.105469 232.171875 L 207.640625 228.417969 L 220.160156 228.417969 L 219.625 232.832031 L 218.820312 237.136719 L 218.015625 240.335938 L 216.761719 244.199219 L 215.332031 247.617188 L 213.273438 251.480469 L 211.574219 254.019531 L 209.339844 256.777344 L 207.28125 258.875 L 205.046875 260.75 L 201.738281 262.957031 L 199.589844 264.0625 L 197.265625 265.054688 L 194.492188 265.9375 L 191.003906 266.710938 L 187.25 267.152344 L 183.761719 267.261719 L 180.003906 267.039062 L 177.234375 266.597656 L 173.566406 265.605469 L 169.003906 263.621094 L 165.695312 261.523438 L 163.101562 259.425781 L 160.867188 257.21875 L 158.363281 254.238281 L 155.144531 249.382812 L 153.175781 245.632812 L 151.832031 242.542969 L 150.3125 238.238281 L 149.238281 234.378906 L 147.988281 228.199219 L 147.09375 220.363281 L 146.824219 214.292969 Z M 146.824219 199.066406 "/>
<path style=" stroke:none;fill-rule:nonzero;fill:rgb(83.921569%,15.686275%,22.352941%);fill-opacity:1;" d="M 146.824219 268.441406 L 220.160156 268.441406 L 220.160156 273.355469 L 189.597656 273.398438 L 189.597656 314.371094 L 177.300781 314.371094 L 177.300781 273.441406 L 177.121094 273.355469 L 146.824219 273.355469 Z M 146.824219 268.441406 "/>
<path style=" stroke:none;fill-rule:nonzero;fill:rgb(83.921569%,15.686275%,22.352941%);fill-opacity:1;" d="M 224.019531 20.664062 L 297.355469 20.664062 L 297.355469 52.101562 L 266.792969 52.378906 L 266.792969 314.371094 L 254.496094 314.371094 L 254.496094 52.652344 L 254.316406 52.101562 L 224.019531 52.101562 Z M 224.019531 20.664062 "/>
<path style=" stroke:none;fill-rule:nonzero;fill:rgb(83.921569%,15.686275%,22.352941%);fill-opacity:1;" d="M 301.21875 20.664062 L 374.554688 20.664062 L 374.554688 52.101562 L 343.988281 52.378906 L 343.988281 314.371094 L 331.691406 314.371094 L 331.691406 52.652344 L 331.515625 52.101562 L 301.21875 52.101562 Z M 301.21875 20.664062 "/>
<path style=" stroke:none;fill-rule:nonzero;fill:rgb(6.27451%,58.823529%,28.235294%);fill-opacity:1;" d="M 378.414062 314.09375 L 378.492188 313.820312 L 410.222656 20.664062 L 419.859375 20.664062 L 451.75 314.371094 L 440.546875 314.371094 L 432.554688 237.703125 L 397.53125 237.703125 L 389.695312 314.09375 L 378.414062 314.09375 L 400.898438 205.988281 L 429.339844 205.710938 L 415.160156 68.648438 L 415.003906 68.375 L 414.847656 69.199219 L 400.820312 205.710938 L 400.898438 205.988281 Z M 378.414062 314.09375 "/>
<path style=" stroke:none;fill-rule:nonzero;fill:rgb(83.921569%,15.686275%,22.352941%);fill-opacity:1;" d="M 455.609375 20.664062 L 528.945312 20.664062 L 528.945312 52.101562 L 498.382812 52.378906 L 498.382812 314.371094 L 486.085938 314.371094 L 486.085938 52.652344 L 485.90625 52.101562 L 455.609375 52.101562 Z M 455.609375 20.664062 "/>
<path style=" stroke:none;fill-rule:nonzero;fill:rgb(14.509804%,36.078431%,60%);fill-opacity:1;" d="M 532.804688 148.457031 L 532.894531 148.1875 L 532.894531 141.742188 L 533.164062 131.542969 L 533.789062 118.65625 L 534.414062 109.796875 L 536.023438 93.957031 L 538.261719 78.652344 L 540.585938 66.839844 L 542.285156 59.859375 L 543.804688 54.492188 L 547.292969 44.558594 L 549.527344 39.457031 L 551.945312 34.890625 L 554.894531 30.328125 L 557.042969 27.644531 L 561.871094 23.347656 L 565.449219 21.46875 L 568.222656 20.664062 L 574.214844 20.664062 L 577.789062 21.738281 L 580.382812 23.078125 L 583.246094 25.226562 L 585.660156 27.644531 L 589.863281 33.550781 L 593.621094 41.066406 L 595.320312 45.363281 L 598.003906 53.683594 L 600.058594 61.738281 L 601.492188 68.71875 L 603.101562 78.652344 L 604.53125 90.734375 L 605.605469 104.425781 L 606.140625 115.96875 L 593.621094 115.96875 L 592.996094 105.230469 L 592.277344 96.910156 L 590.9375 85.902344 L 589.597656 78.117188 L 587.71875 70.332031 L 586.019531 65.230469 L 583.691406 60.128906 L 581.636719 56.90625 L 579.488281 54.492188 L 577.433594 52.878906 L 573.496094 51.269531 L 568.9375 51.269531 L 567.238281 51.804688 L 563.75 53.953125 L 561.871094 55.832031 L 559.1875 59.589844 L 557.308594 63.082031 L 555.074219 68.449219 L 553.554688 73.015625 L 551.675781 79.996094 L 550.335938 86.171875 L 548.8125 95.03125 L 547.917969 101.742188 L 547.113281 109.257812 L 546.398438 118.117188 L 545.863281 127.515625 L 545.503906 137.449219 L 545.324219 147.113281 L 545.324219 188.726562 L 545.503906 198.390625 L 545.953125 209.667969 L 547.113281 226.042969 L 548.8125 240.273438 L 550.78125 251.546875 L 552.660156 259.601562 L 553.734375 263.359375 L 555.164062 267.65625 L 557.398438 273.027344 L 560.617188 278.394531 L 562.496094 280.542969 L 565.359375 282.691406 L 568.308594 283.765625 L 572.246094 283.765625 L 575.734375 282.691406 L 578.058594 281.347656 L 580.472656 279.199219 L 583.78125 274.636719 L 585.839844 270.339844 L 587.628906 265.242188 L 588.96875 260.140625 L 589.863281 255.84375 L 591.207031 247.519531 L 592.277344 238.394531 L 593.082031 228.996094 L 593.621094 219.867188 L 606.140625 219.867188 L 605.605469 230.609375 L 604.800781 241.078125 L 603.996094 248.863281 L 602.742188 258.261719 L 601.3125 266.582031 L 599.253906 275.980469 L 597.554688 282.152344 L 595.320312 288.867188 L 593.261719 293.96875 L 591.027344 298.53125 L 587.71875 303.898438 L 585.570312 306.585938 L 583.246094 309 L 580.472656 311.148438 L 576.984375 313.027344 L 573.230469 314.101562 L 569.742188 314.371094 L 565.984375 313.832031 L 563.210938 312.761719 L 559.546875 310.34375 L 554.984375 305.511719 L 551.675781 300.410156 L 549.082031 295.308594 L 546.847656 289.941406 L 544.34375 282.691406 L 541.121094 270.878906 L 539.15625 261.75 L 537.8125 254.234375 L 536.292969 243.761719 L 535.21875 234.367188 L 533.96875 219.332031 L 533.074219 200.269531 L 532.804688 185.503906 Z M 532.804688 148.457031 "/>
<path style=" stroke:none;fill-rule:nonzero;fill:rgb(83.921569%,15.686275%,22.352941%);fill-opacity:1;" d="M 610 20.664062 L 683.335938 20.664062 L 683.335938 52.101562 L 652.773438 52.378906 L 652.773438 314.371094 L 640.476562 314.371094 L 640.476562 52.652344 L 640.296875 52.101562 L 610 52.101562 Z M 610 20.664062 "/>
<g style="fill:rgb(0%,0%,0%);fill-opacity:1;">
  <use xlink:href="#glyph0-1" x="21.957031" y="318.198242"/>
  <use xlink:href="#glyph0-2" x="27.291016" y="318.198242"/>
  <use xlink:href="#glyph0-1" x="29.958008" y="318.198242"/>
</g>
<g style="fill:rgb(0%,0%,0%);fill-opacity:1;">
  <use xlink:href="#glyph0-1" x="21.957031" y="244.475586"/>
  <use xlink:href="#glyph0-2" x="27.291016" y="244.475586"/>
  <use xlink:href="#glyph0-3" x="29.958008" y="244.475586"/>
</g>
<g style="fill:rgb(0%,0%,0%);fill-opacity:1;">
  <use xlink:href="#glyph0-4" x="21.957031" y="170.75293"/>
  <use xlink:href="#glyph0-2" x="27.291016" y="170.75293"/>
  <use xlink:href="#glyph0-1" x="29.958008" y="170.75293"/>
</g>
<g style="fill:rgb(0%,0%,0%);fill-opacity:1;">
  <use xlink:href="#glyph0-4" x="21.957031" y="97.03418"/>
  <use xlink:href="#glyph0-2" x="27.291016" y="97.03418"/>
  <use xlink:href="#glyph0-3" x="29.958008" y="97.03418"/>
</g>
<g style="fill:rgb(0%,0%,0%);fill-opacity:1;">
  <use xlink:href="#glyph0-5" x="21.957031" y="23.311523"/>
  <use xlink:href="#glyph0-2" x="27.291016" y="23.311523"/>
  <use xlink:href="#glyph0-1" x="29.958008" y="23.311523"/>
</g>
<g style="fill:rgb(0%,0%,0%);fill-opacity:1;">
  <use xlink:href="#glyph0-4" x="103.296875" y="338.19043"/>
</g>
<g style="fill:rgb(0%,0%,0%);fill-opacity:1;">
  <use xlink:href="#glyph0-5" x="180.492188" y="338.19043"/>
</g>
<g style="fill:rgb(0%,0%,0%);fill-opacity:1;">
  <use xlink:href="#glyph0-6" x="257.6875" y="338.19043"/>
</g>
<g style="fill:rgb(0%,0%,0%);fill-opacity:1;">
  <use xlink:href="#glyph0-7" x="334.886719" y="338.19043"/>
</g>
<g style="fill:rgb(0%,0%,0%);fill-opacity:1;">
  <use xlink:href="#glyph0-3" x="412.082031" y="338.19043"/>
</g>
<g style="fill:rgb(0%,0%,0%);fill-opacity:1;">
  <use xlink:href="#glyph0-8" x="489.277344" y="338.19043"/>
</g>
<g style="fill:rgb(0%,0%,0%);fill-opacity:1;">
  <use xlink:href="#glyph0-9" x="566.472656" y="338.19043"/>
</g>
<g style="fill:rgb(0%,0%,0%);fill-opacity:1;">
  <use xlink:href="#glyph0-10" x="643.667969" y="338.19043"/>
</g>
<g style="fill:rgb(0%,0%,0%);fill-opacity:1;">
  <use xlink:href="#glyph1-1" x="14.412109" y="178.015625"/>
  <use xlink:href="#glyph1-2" x="14.412109" y="170.011719"/>
  <use xlink:href="#glyph1-3" x="14.412109" y="167.347656"/>
  <use xlink:href="#glyph1-4" x="14.412109" y="164.011719"/>
</g>
</g>
</svg>
