<?xml version="1.0" encoding="UTF-8"?>
<svg xmlns="http://www.w3.org/2000/svg" xmlns:xlink="http://www.w3.org/1999/xlink" width="720pt" height="360pt" viewBox="0 0 720 360" version="1.1">
<defs>
<g>
<symbol overflow="visible" id="glyph0-0">
<path style="stroke:none;" d=""/>
</symbol>
<symbol overflow="visible" id="glyph0-1">
<path style="stroke:none;" d="M 2.640625 -6.796875 C 2 -6.796875 1.421875 -6.53125 1.078125 -6.046875 C 0.640625 -5.453125 0.40625 -4.546875 0.40625 -3.296875 C 0.40625 -1 1.1875 0.21875 2.640625 0.21875 C 4.078125 0.21875 4.859375 -1 4.859375 -3.234375 C 4.859375 -4.5625 4.65625 -5.4375 4.203125 -6.046875 C 3.84375 -6.53125 3.28125 -6.796875 2.640625 -6.796875 Z M 2.640625 -6.046875 C 3.546875 -6.046875 4 -5.125 4 -3.3125 C 4 -1.375 3.5625 -0.484375 2.625 -0.484375 C 1.734375 -0.484375 1.28125 -1.421875 1.28125 -3.28125 C 1.28125 -5.140625 1.734375 -6.046875 2.640625 -6.046875 Z M 2.640625 -6.046875 "/>
</symbol>
<symbol overflow="visible" id="glyph0-2">
<path style="stroke:none;" d="M 1.828125 -1 L 0.828125 -1 L 0.828125 0 L 1.828125 0 Z M 1.828125 -1 "/>
</symbol>
<symbol overflow="visible" id="glyph0-3">
<path style="stroke:none;" d="M 4.5625 -6.796875 L 1.0625 -6.796875 L 0.546875 -3.09375 L 1.328125 -3.09375 C 1.71875 -3.5625 2.046875 -3.734375 2.578125 -3.734375 C 3.484375 -3.734375 4.0625 -3.109375 4.0625 -2.09375 C 4.0625 -1.125 3.484375 -0.53125 2.578125 -0.53125 C 1.828125 -0.53125 1.375 -0.90625 1.1875 -1.671875 L 0.328125 -1.671875 C 0.453125 -1.109375 0.546875 -0.84375 0.75 -0.59375 C 1.125 -0.078125 1.828125 0.21875 2.59375 0.21875 C 3.96875 0.21875 4.921875 -0.78125 4.921875 -2.21875 C 4.921875 -3.5625 4.03125 -4.484375 2.71875 -4.484375 C 2.25 -4.484375 1.859375 -4.359375 1.46875 -4.0625 L 1.734375 -5.96875 L 4.5625 -5.96875 Z M 4.5625 -6.796875 "/>
</symbol>
<symbol overflow="visible" id="glyph0-4">
<path style="stroke:none;" d="M 2.484375 -4.84375 L 2.484375 0 L 3.328125 0 L 3.328125 -6.796875 L 2.765625 -6.796875 C 2.46875 -5.75 2.28125 -5.609375 0.984375 -5.453125 L 0.984375 -4.84375 Z M 2.484375 -4.84375 "/>
</symbol>
<symbol overflow="visible" id="glyph0-5">
<path style="stroke:none;" d="M 4.859375 -0.828125 L 1.28125 -0.828125 C 1.359375 -1.390625 1.671875 -1.75 2.5 -2.234375 L 3.46875 -2.75 C 4.40625 -3.265625 4.90625 -3.96875 4.90625 -4.8125 C 4.90625 -5.375 4.671875 -5.90625 4.265625 -6.265625 C 3.859375 -6.625 3.375 -6.796875 2.71875 -6.796875 C 1.859375 -6.796875 1.21875 -6.5 0.84375 -5.921875 C 0.609375 -5.5625 0.5 -5.125 0.484375 -4.4375 L 1.328125 -4.4375 C 1.359375 -4.90625 1.40625 -5.1875 1.53125 -5.40625 C 1.75 -5.8125 2.1875 -6.0625 2.703125 -6.0625 C 3.46875 -6.0625 4.03125 -5.515625 4.03125 -4.78125 C 4.03125 -4.25 3.71875 -3.796875 3.125 -3.4375 L 2.234375 -2.9375 C 0.8125 -2.140625 0.40625 -1.5 0.328125 0 L 4.859375 0 Z M 4.859375 -0.828125 "/>
</symbol>
<symbol overflow="visible" id="glyph0-6">
<path style="stroke:none;" d="M 2.125 -3.125 L 2.578125 -3.125 C 3.515625 -3.125 3.984375 -2.703125 3.984375 -1.890625 C 3.984375 -1.03125 3.46875 -0.53125 2.578125 -0.53125 C 1.65625 -0.53125 1.203125 -0.984375 1.15625 -1.96875 L 0.3125 -1.96875 C 0.34375 -1.421875 0.4375 -1.078125 0.609375 -0.765625 C 0.953125 -0.109375 1.625 0.21875 2.546875 0.21875 C 3.953125 0.21875 4.859375 -0.609375 4.859375 -1.90625 C 4.859375 -2.765625 4.515625 -3.25 3.703125 -3.515625 C 4.34375 -3.765625 4.65625 -4.25 4.65625 -4.9375 C 4.65625 -6.109375 3.875 -6.796875 2.578125 -6.796875 C 1.203125 -6.796875 0.484375 -6.046875 0.453125 -4.609375 L 1.296875 -4.609375 C 1.3125 -5.015625 1.34375 -5.25 1.453125 -5.453125 C 1.640625 -5.828125 2.0625 -6.0625 2.59375 -6.0625 C 3.34375 -6.0625 3.796875 -5.625 3.796875 -4.90625 C 3.796875 -4.421875 3.609375 -4.140625 3.25 -3.984375 C 3.015625 -3.890625 2.71875 -3.84375 2.125 -3.84375 Z M 2.125 -3.125 "/>
</symbol>
<symbol overflow="visible" id="glyph0-7">
<path style="stroke:none;" d="M 3.140625 -1.625 L 3.140625 0 L 3.984375 0 L 3.984375 -1.625 L 4.984375 -1.625 L 4.984375 -2.390625 L 3.984375 -2.390625 L 3.984375 -6.796875 L 3.359375 -6.796875 L 0.265625 -2.515625 L 0.265625 -1.625 Z M 3.140625 -2.390625 L 1 -2.390625 L 3.140625 -5.359375 Z M 3.140625 -2.390625 "/>
</symbol>
<symbol overflow="visible" id="glyph0-8">
<path style="stroke:none;" d="M 4.78125 -5.03125 C 4.609375 -6.140625 3.890625 -6.796875 2.84375 -6.796875 C 2.09375 -6.796875 1.421875 -6.4375 1.03125 -5.828125 C 0.609375 -5.171875 0.40625 -4.34375 0.40625 -3.09375 C 0.40625 -1.953125 0.578125 -1.234375 0.984375 -0.625 C 1.359375 -0.078125 1.953125 0.21875 2.703125 0.21875 C 3.984375 0.21875 4.921875 -0.734375 4.921875 -2.078125 C 4.921875 -3.34375 4.0625 -4.234375 2.84375 -4.234375 C 2.171875 -4.234375 1.640625 -3.96875 1.28125 -3.46875 C 1.28125 -5.125 1.828125 -6.046875 2.796875 -6.046875 C 3.390625 -6.046875 3.796875 -5.671875 3.9375 -5.03125 Z M 2.734375 -3.484375 C 3.546875 -3.484375 4.0625 -2.921875 4.0625 -2 C 4.0625 -1.15625 3.484375 -0.53125 2.703125 -0.53125 C 1.921875 -0.53125 1.328125 -1.1875 1.328125 -2.046875 C 1.328125 -2.890625 1.90625 -3.484375 2.734375 -3.484375 Z M 2.734375 -3.484375 "/>
</symbol>
<symbol overflow="visible" id="glyph0-9">
<path style="stroke:none;" d="M 4.984375 -6.796875 L 0.4375 -6.796875 L 0.4375 -5.96875 L 4.109375 -5.96875 C 2.5 -3.65625 1.828125 -2.234375 1.328125 0 L 2.21875 0 C 2.59375 -2.171875 3.453125 -4.046875 4.984375 -6.09375 Z M 4.984375 -6.796875 "/>
</symbol>
<symbol overflow="visible" id="glyph0-10">
<path style="stroke:none;" d="M 3.75 -3.578125 C 4.453125 -4 4.6875 -4.34375 4.6875 -4.984375 C 4.6875 -6.046875 3.84375 -6.796875 2.640625 -6.796875 C 1.4375 -6.796875 0.59375 -6.046875 0.59375 -4.984375 C 0.59375 -4.359375 0.828125 -4.015625 1.515625 -3.578125 C 0.734375 -3.203125 0.359375 -2.640625 0.359375 -1.890625 C 0.359375 -0.640625 1.296875 0.21875 2.640625 0.21875 C 3.984375 0.21875 4.921875 -0.640625 4.921875 -1.875 C 4.921875 -2.640625 4.53125 -3.203125 3.75 -3.578125 Z M 2.640625 -6.046875 C 3.359375 -6.046875 3.8125 -5.625 3.8125 -4.96875 C 3.8125 -4.34375 3.34375 -3.921875 2.640625 -3.921875 C 1.921875 -3.921875 1.453125 -4.34375 1.453125 -4.984375 C 1.453125 -5.625 1.921875 -6.046875 2.640625 -6.046875 Z M 2.640625 -3.203125 C 3.484375 -3.203125 4.0625 -2.671875 4.0625 -1.875 C 4.0625 -1.0625 3.484375 -0.53125 2.625 -0.53125 C 1.796875 -0.53125 1.21875 -1.078125 1.21875 -1.875 C 1.21875 -2.671875 1.796875 -3.203125 2.640625 -3.203125 Z M 2.640625 -3.203125 "/>
</symbol>
<symbol overflow="visible" id="glyph0-11">
<path style="stroke:none;" d="M 0.515625 -1.546875 C 0.671875 -0.4375 1.40625 0.21875 2.4375 0.21875 C 3.1875 0.21875 3.859375 -0.140625 4.265625 -0.75 C 4.6875 -1.40625 4.890625 -2.25 4.890625 -3.484375 C 4.890625 -4.625 4.703125 -5.359375 4.3125 -5.953125 C 3.9375 -6.5 3.34375 -6.796875 2.59375 -6.796875 C 1.296875 -6.796875 0.359375 -5.84375 0.359375 -4.515625 C 0.359375 -3.25 1.234375 -2.34375 2.453125 -2.34375 C 3.09375 -2.34375 3.5625 -2.578125 4.015625 -3.109375 C 4 -1.453125 3.46875 -0.53125 2.5 -0.53125 C 1.90625 -0.53125 1.484375 -0.90625 1.359375 -1.546875 Z M 2.578125 -6.0625 C 3.375 -6.0625 3.96875 -5.40625 3.96875 -4.53125 C 3.96875 -3.6875 3.375 -3.09375 2.546875 -3.09375 C 1.734375 -3.09375 1.234375 -3.671875 1.234375 -4.578125 C 1.234375 -5.4375 1.796875 -6.0625 2.578125 -6.0625 Z M 2.578125 -6.0625 "/>
</symbol>
<symbol overflow="visible" id="glyph1-0">
<path style="stroke:none;" d=""/>
</symbol>
<symbol overflow="visible" id="glyph1-1">
<path style="stroke:none;" d="M 0 -0.953125 L 0 -4.890625 C 0 -5.71875 -0.234375 -6.34375 -0.734375 -6.796875 C -1.1875 -7.234375 -1.8125 -7.46875 -2.5 -7.46875 C -3.546875 -7.46875 -4.1875 -7 -4.625 -5.875 C -4.984375 -6.671875 -5.640625 -7.09375 -6.53125 -7.09375 C -7.15625 -7.09375 -7.734375 -6.859375 -8.140625 -6.390625 C -8.5625 -5.9375 -8.75 -5.34375 -8.75 -4.5 L -8.75 -0.953125 Z M -4.984375 -2.0625 L -7.765625 -2.0625 L -7.765625 -4.21875 C -7.765625 -4.84375 -7.6875 -5.203125 -7.453125 -5.5 C -7.21875 -5.8125 -6.859375 -5.96875 -6.375 -5.96875 C -5.90625 -5.96875 -5.53125 -5.8125 -5.296875 -5.5 C -5.0625 -5.203125 -4.984375 -4.84375 -4.984375 -4.21875 Z M -0.984375 -2.0625 L -4 -2.0625 L -4 -4.78125 C -4 -5.328125 -3.859375 -5.6875 -3.578125 -5.953125 C -3.296875 -6.21875 -2.921875 -6.359375 -2.484375 -6.359375 C -2.0625 -6.359375 -1.6875 -6.21875 -1.40625 -5.953125 C -1.109375 -5.6875 -0.984375 -5.328125 -0.984375 -4.78125 Z M -0.984375 -2.0625 "/>
</symbol>
<symbol overflow="visible" id="glyph1-2">
<path style="stroke:none;" d="M -6.28125 -1.796875 L -6.28125 -0.796875 L 0 -0.796875 L 0 -1.796875 Z M -8.75 -1.796875 L -8.75 -0.796875 L -7.484375 -0.796875 L -7.484375 -1.796875 Z M -8.75 -1.796875 "/>
</symbol>
<symbol overflow="visible" id="glyph1-3">
<path style="stroke:none;" d="M -6.28125 -3.046875 L -6.28125 -2.015625 L -8.015625 -2.015625 L -8.015625 -1.015625 L -6.28125 -1.015625 L -6.28125 -0.171875 L -5.46875 -0.171875 L -5.46875 -1.015625 L -0.71875 -1.015625 C -0.078125 -1.015625 0.28125 -1.453125 0.28125 -2.234375 C 0.28125 -2.46875 0.25 -2.71875 0.1875 -3.046875 L -0.640625 -3.046875 C -0.609375 -2.921875 -0.59375 -2.765625 -0.59375 -2.5625 C -0.59375 -2.140625 -0.71875 -2.015625 -1.15625 -2.015625 L -5.46875 -2.015625 L -5.46875 -3.046875 Z M -6.28125 -3.046875 "/>
</symbol>
<symbol overflow="visible" id="glyph1-4">
<path style="stroke:none;" d="M -4.53125 -5.25 C -5.765625 -5.25 -6.46875 -4.421875 -6.46875 -2.96875 C -6.46875 -1.515625 -5.71875 -0.5625 -4.546875 -0.5625 C -3.5625 -0.5625 -3.09375 -1.0625 -2.734375 -2.5625 L -2.515625 -3.484375 C -2.34375 -4.1875 -2.09375 -4.46875 -1.625 -4.46875 C -1.046875 -4.46875 -0.640625 -3.875 -0.640625 -3 C -0.640625 -2.453125 -0.796875 -2 -1.0625 -1.75 C -1.25 -1.59375 -1.421875 -1.53125 -1.875 -1.46875 L -1.875 -0.40625 C -0.421875 -0.453125 0.28125 -1.265625 0.28125 -2.921875 C 0.28125 -4.5 -0.5 -5.515625 -1.71875 -5.515625 C -2.65625 -5.515625 -3.171875 -4.984375 -3.46875 -3.734375 L -3.703125 -2.765625 C -3.890625 -1.953125 -4.15625 -1.609375 -4.59375 -1.609375 C -5.171875 -1.609375 -5.546875 -2.125 -5.546875 -2.9375 C -5.546875 -3.75 -5.203125 -4.171875 -4.53125 -4.203125 Z M -4.53125 -5.25 "/>
</symbol>
</g>
</defs>
<g id="surface2286">
<rect x="0" y="0" width="720" height="360" style="fill:rgb(100%,100%,100%);fill-opacity:1;stroke:none;"/>
<path style=" stroke:none;fill-rule:nonzero;fill:rgb(6.27451%,58.823529%,28.235294%);fill-opacity:1;" d="M 69.628906 303.578125 L 69.679688 303.5625 L 90.792969 288.605469 L 97.203125 288.605469 L 118.417969 303.59375 L 110.964844 303.59375 L 105.648438 299.679688 L 82.347656 299.679688 L 77.136719 303.578125 L 69.628906 303.578125 L 84.589844 298.0625 L 103.511719 298.046875 L 94.074219 291.054688 L 93.972656 291.039062 L 93.867188 291.082031 L 84.535156 298.046875 L 84.589844 298.0625 Z M 69.628906 303.578125 "/>
<path style=" stroke:none;fill-rule:nonzero;fill:rgb(14.509804%,36.078431%,60%);fill-opacity:1;" d="M 69.628906 277.4375 L 69.6875 277.417969 L 69.6875 277.03125 L 69.867188 276.417969 L 70.285156 275.640625 L 70.699219 275.109375 L 71.769531 274.15625 L 73.257812 273.234375 L 74.804688 272.523438 L 75.9375 272.101562 L 76.949219 271.777344 L 79.269531 271.179688 L 80.753906 270.875 L 82.363281 270.597656 L 84.324219 270.324219 L 85.753906 270.164062 L 88.964844 269.902344 L 91.347656 269.789062 L 93.191406 269.742188 L 97.175781 269.742188 L 99.558594 269.804688 L 101.28125 269.886719 L 103.1875 270.015625 L 104.792969 270.164062 L 107.589844 270.519531 L 110.089844 270.96875 L 111.21875 271.230469 L 113.003906 271.730469 L 114.371094 272.214844 L 115.324219 272.636719 L 116.394531 273.234375 L 117.347656 273.960938 L 118.0625 274.785156 L 118.417969 275.480469 L 110.089844 275.480469 L 109.671875 274.832031 L 109.195312 274.332031 L 108.304688 273.667969 L 107.410156 273.199219 L 106.160156 272.730469 L 105.03125 272.425781 L 103.484375 272.117188 L 102.117188 271.925781 L 100.6875 271.777344 L 99.320312 271.679688 L 96.699219 271.585938 L 93.667969 271.585938 L 92.535156 271.617188 L 90.214844 271.746094 L 88.964844 271.859375 L 87.179688 272.085938 L 85.933594 272.296875 L 84.445312 272.617188 L 83.433594 272.894531 L 82.183594 273.3125 L 81.289062 273.6875 L 80.28125 274.21875 L 79.683594 274.625 L 79.148438 275.074219 L 78.671875 275.609375 L 78.316406 276.175781 L 78.078125 276.773438 L 77.960938 277.355469 L 77.960938 279.859375 L 78.078125 280.441406 L 78.375 281.121094 L 79.148438 282.105469 L 80.28125 282.964844 L 81.589844 283.640625 L 82.839844 284.128906 L 83.550781 284.355469 L 84.503906 284.613281 L 85.992188 284.933594 L 88.132812 285.257812 L 89.382812 285.386719 L 91.285156 285.515625 L 93.25 285.582031 L 95.867188 285.582031 L 98.1875 285.515625 L 99.734375 285.4375 L 101.34375 285.308594 L 103.542969 285.03125 L 104.910156 284.773438 L 106.101562 284.464844 L 106.996094 284.160156 L 107.589844 283.902344 L 108.480469 283.398438 L 109.195312 282.851562 L 109.730469 282.285156 L 110.089844 281.734375 L 118.417969 281.734375 L 118.0625 282.382812 L 117.523438 283.011719 L 116.988281 283.480469 L 116.15625 284.046875 L 115.203125 284.546875 L 113.835938 285.113281 L 112.707031 285.484375 L 111.21875 285.890625 L 109.851562 286.195312 L 108.363281 286.472656 L 106.160156 286.792969 L 104.734375 286.957031 L 103.1875 287.101562 L 101.34375 287.230469 L 99.019531 287.34375 L 96.523438 287.410156 L 94.203125 287.425781 L 91.703125 287.390625 L 89.859375 287.328125 L 87.417969 287.183594 L 84.386719 286.890625 L 82.183594 286.585938 L 80.457031 286.277344 L 78.96875 285.953125 L 77.304688 285.515625 L 75.164062 284.804688 L 73.855469 284.257812 L 72.960938 283.804688 L 71.949219 283.171875 L 71.234375 282.609375 L 70.402344 281.703125 L 69.808594 280.554688 L 69.628906 279.667969 Z M 69.628906 277.4375 "/>
<path style=" stroke:none;fill-rule:nonzero;fill:rgb(96.862745%,70.196078%,16.862745%);fill-opacity:1;" d="M 69.628906 307.730469 L 69.6875 307.722656 L 69.6875 307.597656 L 69.925781 307.3125 L 70.523438 306.921875 L 71.296875 306.601562 L 72.128906 306.347656 L 72.664062 306.214844 L 73.554688 306.027344 L 74.328125 305.886719 L 76.292969 305.605469 L 78.792969 305.339844 L 80.160156 305.226562 L 81.707031 305.117188 L 83.910156 305 L 84.921875 304.953125 L 88.015625 304.855469 L 91.523438 304.789062 L 95.390625 304.773438 L 97.175781 304.777344 L 99.617188 304.804688 L 102.949219 304.871094 L 104.851562 304.9375 L 106.339844 305 L 107.886719 305.082031 L 109.789062 305.207031 L 111.574219 305.359375 L 113.003906 305.507812 L 114.429688 305.699219 L 115.621094 305.902344 L 116.632812 306.121094 L 117.523438 306.386719 L 118.0625 306.605469 L 118.417969 306.828125 L 110.148438 306.828125 L 109.671875 306.605469 L 109.136719 306.4375 L 108.242188 306.226562 L 107.351562 306.078125 L 106.457031 305.957031 L 104.792969 305.792969 L 103.363281 305.691406 L 101.578125 305.605469 L 99.855469 305.546875 L 97.890625 305.507812 L 96.699219 305.496094 L 93.546875 305.496094 L 90.691406 305.542969 L 89.027344 305.589844 L 87.835938 305.640625 L 86.167969 305.738281 L 85.160156 305.8125 L 84.5625 305.863281 L 82.777344 306.058594 L 81.589844 306.234375 L 80.933594 306.355469 L 80.101562 306.542969 L 79.507812 306.714844 L 78.851562 306.964844 L 78.496094 307.15625 L 78.019531 307.582031 L 77.960938 308.71875 L 78.136719 308.957031 L 78.496094 309.21875 L 78.96875 309.445312 L 79.683594 309.683594 L 80.398438 309.867188 L 81.648438 310.113281 L 82.71875 310.277344 L 83.550781 310.382812 L 85.160156 310.554688 L 85.8125 310.609375 L 87.359375 310.722656 L 88.964844 310.8125 L 90.929688 310.886719 L 92.417969 310.925781 L 94.796875 310.957031 L 97.832031 310.957031 L 101.402344 310.917969 L 103.664062 310.867188 L 105.210938 310.820312 L 106.21875 310.773438 L 107.46875 310.703125 L 108.363281 310.640625 L 109.195312 310.574219 L 110.207031 310.464844 L 110.207031 308.957031 L 95.511719 308.953125 L 95.511719 308.246094 L 118.359375 308.238281 L 118.417969 310.703125 L 117.167969 310.875 L 115.621094 311.039062 L 114.132812 311.164062 L 112.585938 311.273438 L 110.386719 311.390625 L 108.601562 311.46875 L 105.863281 311.554688 L 103.363281 311.613281 L 100.746094 311.652344 L 98.425781 311.667969 L 95.691406 311.675781 L 93.25 311.664062 L 90.632812 311.625 L 88.550781 311.574219 L 86.644531 311.511719 L 84.742188 311.429688 L 82.363281 311.296875 L 80.816406 311.191406 L 79.207031 311.058594 L 77.601562 310.902344 L 76.175781 310.730469 L 75.222656 310.597656 L 74.269531 310.445312 L 73.257812 310.257812 L 72.308594 310.042969 L 71.59375 309.847656 L 70.9375 309.625 L 70.460938 309.417969 L 69.988281 309.136719 L 69.75 308.90625 L 69.628906 308.710938 Z M 69.628906 307.730469 "/>
<path style=" stroke:none;fill-rule:nonzero;fill:rgb(83.921569%,15.686275%,22.352941%);fill-opacity:1;" d="M 69.628906 312.855469 L 118.417969 312.855469 L 118.417969 313.019531 L 98.085938 313.019531 L 98.085938 314.371094 L 89.902344 314.371094 L 89.902344 313.019531 L 69.628906 313.019531 Z M 69.628906 312.855469 "/>
<path style=" stroke:none;fill-rule:nonzero;fill:rgb(6.27451%,58.823529%,28.235294%);fill-opacity:1;" d="M 120.984375 280.289062 L 121.039062 280.230469 L 142.148438 219.144531 L 148.558594 219.144531 L 169.773438 280.34375 L 162.320312 280.34375 L 157.003906 264.367188 L 133.703125 264.367188 L 128.492188 280.289062 L 120.984375 280.289062 L 135.945312 257.761719 L 154.867188 257.703125 L 145.433594 229.140625 L 145.328125 229.085938 L 145.222656 229.257812 L 135.894531 257.703125 L 135.945312 257.761719 Z M 120.984375 280.289062 "/>
<path style=" stroke:none;fill-rule:nonzero;fill:rgb(14.509804%,36.078431%,60%);fill-opacity:1;" d="M 120.984375 288.414062 L 121.046875 288.398438 L 121.046875 288.050781 L 121.222656 287.5 L 121.640625 286.808594 L 122.054688 286.328125 L 123.128906 285.476562 L 124.613281 284.648438 L 126.160156 284.011719 L 127.292969 283.636719 L 128.304688 283.347656 L 130.625 282.8125 L 132.113281 282.539062 L 133.71875 282.292969 L 135.683594 282.046875 L 137.109375 281.902344 L 140.324219 281.667969 L 142.703125 281.566406 L 144.546875 281.523438 L 148.535156 281.523438 L 150.914062 281.582031 L 152.636719 281.65625 L 154.542969 281.769531 L 156.148438 281.902344 L 158.945312 282.21875 L 161.445312 282.625 L 162.574219 282.855469 L 164.359375 283.304688 L 165.726562 283.738281 L 166.679688 284.113281 L 167.75 284.648438 L 168.703125 285.300781 L 169.417969 286.039062 L 169.773438 286.660156 L 161.445312 286.660156 L 161.027344 286.082031 L 160.550781 285.632812 L 159.660156 285.042969 L 158.765625 284.621094 L 157.515625 284.203125 L 156.386719 283.925781 L 154.839844 283.652344 L 153.472656 283.476562 L 152.042969 283.347656 L 150.675781 283.261719 L 148.058594 283.175781 L 145.023438 283.175781 L 143.890625 283.203125 L 141.570312 283.320312 L 140.324219 283.421875 L 138.539062 283.621094 L 137.289062 283.8125 L 135.800781 284.101562 L 134.789062 284.347656 L 133.539062 284.722656 L 132.648438 285.054688 L 131.636719 285.53125 L 131.039062 285.894531 L 130.503906 286.300781 L 130.03125 286.777344 L 129.671875 287.285156 L 129.433594 287.820312 L 129.316406 288.339844 L 129.316406 290.585938 L 129.433594 291.105469 L 129.730469 291.714844 L 130.503906 292.597656 L 131.636719 293.363281 L 132.945312 293.972656 L 134.195312 294.40625 L 134.90625 294.609375 L 135.859375 294.839844 L 137.347656 295.128906 L 139.488281 295.417969 L 140.738281 295.535156 L 142.644531 295.648438 L 144.605469 295.707031 L 147.222656 295.707031 L 149.542969 295.648438 L 151.089844 295.578125 L 152.699219 295.460938 L 154.898438 295.214844 L 156.269531 294.984375 L 157.457031 294.710938 L 158.351562 294.433594 L 158.945312 294.203125 L 159.839844 293.753906 L 160.550781 293.261719 L 161.085938 292.753906 L 161.445312 292.261719 L 169.773438 292.261719 L 169.417969 292.84375 L 168.882812 293.40625 L 168.347656 293.828125 L 167.511719 294.332031 L 166.5625 294.78125 L 165.191406 295.289062 L 164.0625 295.621094 L 162.574219 295.984375 L 161.207031 296.257812 L 159.71875 296.503906 L 157.515625 296.792969 L 156.089844 296.9375 L 154.542969 297.066406 L 152.699219 297.183594 L 150.378906 297.285156 L 147.878906 297.34375 L 145.558594 297.359375 L 143.058594 297.328125 L 141.214844 297.269531 L 138.777344 297.140625 L 135.742188 296.878906 L 133.539062 296.605469 L 131.8125 296.328125 L 130.328125 296.039062 L 128.660156 295.648438 L 126.519531 295.011719 L 125.210938 294.519531 L 124.316406 294.117188 L 123.304688 293.550781 L 122.59375 293.042969 L 121.757812 292.234375 L 121.164062 291.207031 L 120.984375 290.410156 Z M 120.984375 288.414062 "/>
<path style=" stroke:none;fill-rule:nonzero;fill:rgb(96.862745%,70.196078%,16.862745%);fill-opacity:1;" d="M 120.984375 311.804688 L 121.046875 311.800781 L 121.046875 311.71875 L 121.28125 311.53125 L 121.878906 311.277344 L 122.652344 311.070312 L 123.484375 310.90625 L 124.019531 310.820312 L 124.914062 310.695312 L 125.6875 310.605469 L 127.648438 310.421875 L 130.148438 310.25 L 131.515625 310.175781 L 133.0625 310.105469 L 135.265625 310.027344 L 136.277344 310 L 139.371094 309.933594 L 142.882812 309.890625 L 146.75 309.878906 L 148.535156 309.882812 L 150.972656 309.898438 L 154.304688 309.945312 L 156.207031 309.984375 L 157.695312 310.027344 L 159.242188 310.082031 L 161.148438 310.164062 L 162.933594 310.261719 L 164.359375 310.359375 L 165.789062 310.480469 L 166.976562 310.613281 L 167.988281 310.757812 L 168.882812 310.929688 L 169.417969 311.074219 L 169.773438 311.214844 L 161.503906 311.214844 L 161.027344 311.074219 L 160.492188 310.960938 L 159.601562 310.828125 L 158.707031 310.726562 L 157.816406 310.648438 L 156.148438 310.542969 L 154.722656 310.476562 L 152.9375 310.421875 L 151.210938 310.382812 L 149.246094 310.359375 L 148.058594 310.351562 L 144.902344 310.351562 L 142.046875 310.378906 L 140.382812 310.414062 L 139.191406 310.445312 L 137.527344 310.507812 L 136.515625 310.554688 L 135.917969 310.589844 L 134.132812 310.714844 L 132.945312 310.832031 L 132.289062 310.910156 L 131.457031 311.03125 L 130.863281 311.140625 L 130.207031 311.304688 L 129.851562 311.429688 L 129.375 311.707031 L 129.316406 312.445312 L 129.492188 312.601562 L 129.851562 312.769531 L 130.328125 312.917969 L 131.039062 313.074219 L 131.753906 313.195312 L 133.003906 313.351562 L 134.074219 313.460938 L 134.90625 313.53125 L 136.515625 313.640625 L 137.167969 313.675781 L 138.714844 313.75 L 140.324219 313.808594 L 142.285156 313.859375 L 143.773438 313.882812 L 146.152344 313.902344 L 149.1875 313.902344 L 152.757812 313.878906 L 155.019531 313.84375 L 156.566406 313.8125 L 157.578125 313.785156 L 158.828125 313.738281 L 159.71875 313.699219 L 160.550781 313.652344 L 161.5625 313.582031 L 161.5625 312.601562 L 146.867188 312.597656 L 146.867188 312.140625 L 169.714844 312.136719 L 169.773438 313.738281 L 168.523438 313.851562 L 166.976562 313.957031 L 165.492188 314.039062 L 163.941406 314.109375 L 161.742188 314.1875 L 159.957031 314.234375 L 157.21875 314.292969 L 154.722656 314.328125 L 152.101562 314.355469 L 149.78125 314.367188 L 147.046875 314.371094 L 144.605469 314.363281 L 141.988281 314.335938 L 139.90625 314.304688 L 138.003906 314.265625 L 136.097656 314.210938 L 133.71875 314.125 L 132.171875 314.054688 L 130.566406 313.96875 L 128.957031 313.867188 L 127.53125 313.753906 L 126.578125 313.667969 L 125.625 313.570312 L 124.613281 313.449219 L 123.664062 313.308594 L 122.949219 313.179688 L 122.292969 313.039062 L 121.820312 312.902344 L 121.34375 312.71875 L 121.105469 312.570312 L 120.984375 312.441406 Z M 120.984375 311.804688 "/>
<path style=" stroke:none;fill-rule:nonzero;fill:rgb(83.921569%,15.686275%,22.352941%);fill-opacity:1;" d="M 120.984375 298.539062 L 169.773438 298.539062 L 169.773438 299.625 L 149.441406 299.632812 L 149.441406 308.699219 L 141.261719 308.699219 L 141.261719 299.644531 L 141.140625 299.625 L 120.984375 299.625 Z M 120.984375 298.539062 "/>
<path style=" stroke:none;fill-rule:nonzero;fill:rgb(6.27451%,58.823529%,28.235294%);fill-opacity:1;" d="M 172.34375 287.644531 L 172.394531 287.621094 L 193.503906 265.105469 L 199.914062 265.105469 L 221.128906 287.664062 L 213.675781 287.664062 L 208.359375 281.777344 L 185.058594 281.777344 L 179.847656 287.644531 L 172.34375 287.644531 L 187.300781 279.339844 L 206.222656 279.316406 L 196.789062 268.789062 L 196.683594 268.769531 L 196.578125 268.832031 L 187.25 279.316406 L 187.300781 279.339844 Z M 172.34375 287.644531 "/>
<path style=" stroke:none;fill-rule:nonzero;fill:rgb(14.509804%,36.078431%,60%);fill-opacity:1;" d="M 172.34375 307.039062 L 172.402344 307.035156 L 172.402344 306.863281 L 172.578125 306.597656 L 172.996094 306.257812 L 173.414062 306.023438 L 174.484375 305.609375 L 175.972656 305.207031 L 177.519531 304.894531 L 178.648438 304.710938 L 179.660156 304.570312 L 181.980469 304.308594 L 183.46875 304.175781 L 185.074219 304.054688 L 187.039062 303.933594 L 188.464844 303.863281 L 191.679688 303.75 L 194.058594 303.703125 L 195.902344 303.679688 L 199.890625 303.679688 L 202.269531 303.707031 L 203.996094 303.746094 L 205.898438 303.800781 L 207.503906 303.863281 L 210.300781 304.019531 L 212.800781 304.21875 L 213.929688 304.332031 L 215.714844 304.550781 L 217.085938 304.761719 L 218.035156 304.945312 L 219.109375 305.207031 L 220.058594 305.523438 L 220.773438 305.882812 L 221.128906 306.1875 L 212.800781 306.1875 L 212.382812 305.902344 L 211.90625 305.683594 L 211.015625 305.394531 L 210.125 305.191406 L 208.875 304.988281 L 207.742188 304.851562 L 206.195312 304.71875 L 204.828125 304.632812 L 203.398438 304.570312 L 202.03125 304.527344 L 199.414062 304.484375 L 196.378906 304.484375 L 195.25 304.5 L 192.929688 304.554688 L 191.679688 304.605469 L 189.894531 304.703125 L 188.644531 304.796875 L 187.15625 304.9375 L 186.144531 305.058594 L 184.894531 305.242188 L 184.003906 305.402344 L 182.992188 305.636719 L 182.398438 305.8125 L 181.863281 306.011719 L 181.386719 306.242188 L 181.027344 306.488281 L 180.789062 306.75 L 180.671875 307.003906 L 180.671875 308.101562 L 180.789062 308.355469 L 181.089844 308.648438 L 181.863281 309.082031 L 182.992188 309.453125 L 184.300781 309.75 L 185.550781 309.964844 L 186.265625 310.0625 L 187.214844 310.175781 L 188.703125 310.316406 L 190.847656 310.457031 L 192.09375 310.515625 L 194 310.570312 L 195.960938 310.597656 L 198.582031 310.597656 L 200.902344 310.570312 L 202.449219 310.535156 L 204.054688 310.480469 L 206.257812 310.359375 L 207.625 310.246094 L 208.8125 310.113281 L 209.707031 309.976562 L 210.300781 309.863281 L 211.195312 309.644531 L 211.90625 309.40625 L 212.445312 309.160156 L 212.800781 308.917969 L 221.128906 308.917969 L 220.773438 309.199219 L 220.238281 309.476562 L 219.703125 309.679688 L 218.871094 309.929688 L 217.917969 310.148438 L 216.550781 310.394531 L 215.417969 310.554688 L 213.929688 310.734375 L 212.5625 310.867188 L 211.074219 310.988281 L 208.875 311.128906 L 207.445312 311.199219 L 205.898438 311.261719 L 204.054688 311.320312 L 201.734375 311.367188 L 199.234375 311.394531 L 196.914062 311.402344 L 194.414062 311.390625 L 192.570312 311.359375 L 190.132812 311.296875 L 187.097656 311.171875 L 184.894531 311.035156 L 183.171875 310.902344 L 181.683594 310.761719 L 180.015625 310.570312 L 177.875 310.257812 L 176.566406 310.019531 L 175.671875 309.820312 L 174.664062 309.546875 L 173.949219 309.300781 L 173.117188 308.90625 L 172.519531 308.402344 L 172.34375 308.015625 Z M 172.34375 307.039062 "/>
<path style=" stroke:none;fill-rule:nonzero;fill:rgb(96.862745%,70.196078%,16.862745%);fill-opacity:1;" d="M 172.34375 313.347656 L 172.402344 313.347656 L 172.402344 313.3125 L 172.640625 313.242188 L 173.234375 313.140625 L 174.007812 313.054688 L 174.839844 312.992188 L 175.375 312.957031 L 176.269531 312.90625 L 177.042969 312.871094 L 179.003906 312.796875 L 181.503906 312.730469 L 182.875 312.699219 L 184.421875 312.671875 L 186.621094 312.640625 L 187.632812 312.628906 L 190.726562 312.605469 L 194.238281 312.585938 L 198.105469 312.582031 L 199.890625 312.585938 L 202.328125 312.589844 L 205.660156 312.609375 L 207.566406 312.625 L 209.050781 312.640625 L 210.597656 312.664062 L 212.503906 312.695312 L 214.289062 312.734375 L 215.714844 312.773438 L 217.144531 312.824219 L 218.335938 312.875 L 219.34375 312.933594 L 220.238281 313 L 220.773438 313.058594 L 221.128906 313.113281 L 212.859375 313.113281 L 212.382812 313.058594 L 211.847656 313.015625 L 210.957031 312.960938 L 210.0625 312.921875 L 209.171875 312.890625 L 207.503906 312.847656 L 206.078125 312.820312 L 204.292969 312.796875 L 202.566406 312.785156 L 200.605469 312.773438 L 199.414062 312.769531 L 196.261719 312.769531 L 193.402344 312.78125 L 191.738281 312.796875 L 190.546875 312.808594 L 188.882812 312.832031 L 187.871094 312.851562 L 187.277344 312.867188 L 185.492188 312.914062 L 184.300781 312.960938 L 183.648438 312.992188 L 182.8125 313.042969 L 182.21875 313.085938 L 181.5625 313.152344 L 181.207031 313.199219 L 180.730469 313.3125 L 180.671875 313.605469 L 180.851562 313.667969 L 181.207031 313.734375 L 181.683594 313.792969 L 182.398438 313.855469 L 183.109375 313.902344 L 184.359375 313.964844 L 185.429688 314.007812 L 186.265625 314.035156 L 187.871094 314.078125 L 188.527344 314.09375 L 190.074219 314.125 L 191.679688 314.148438 L 193.640625 314.167969 L 195.128906 314.175781 L 197.507812 314.183594 L 200.542969 314.183594 L 204.113281 314.175781 L 206.375 314.160156 L 207.921875 314.148438 L 208.933594 314.136719 L 210.183594 314.121094 L 211.074219 314.101562 L 211.90625 314.085938 L 212.917969 314.058594 L 212.917969 313.667969 L 198.222656 313.664062 L 198.222656 313.484375 L 221.070312 313.480469 L 221.128906 314.121094 L 219.882812 314.164062 L 218.335938 314.207031 L 216.847656 314.238281 L 215.300781 314.265625 L 213.097656 314.296875 L 211.3125 314.316406 L 208.578125 314.339844 L 206.078125 314.355469 L 203.460938 314.363281 L 201.140625 314.367188 L 198.402344 314.371094 L 195.960938 314.367188 L 193.34375 314.359375 L 191.261719 314.34375 L 189.359375 314.328125 L 187.453125 314.308594 L 185.074219 314.273438 L 183.527344 314.246094 L 181.921875 314.210938 L 180.316406 314.167969 L 178.886719 314.125 L 177.933594 314.089844 L 176.984375 314.050781 L 175.972656 314.003906 L 175.019531 313.949219 L 174.304688 313.898438 L 173.652344 313.839844 L 173.175781 313.785156 L 172.699219 313.710938 L 172.460938 313.652344 L 172.34375 313.601562 Z M 172.34375 313.347656 "/>
<path style=" stroke:none;fill-rule:nonzero;fill:rgb(83.921569%,15.686275%,22.352941%);fill-opacity:1;" d="M 172.34375 288.84375 L 221.128906 288.84375 L 221.128906 290.304688 L 200.796875 290.320312 L 200.796875 302.5 L 192.617188 302.5 L 192.617188 290.332031 L 192.496094 290.304688 L 172.34375 290.304688 Z M 172.34375 288.84375 "/>
<path style=" stroke:none;fill-rule:nonzero;fill:rgb(14.509804%,36.078431%,60%);fill-opacity:1;" d="M 223.699219 305.238281 L 223.757812 305.222656 L 223.757812 304.867188 L 223.9375 304.308594 L 224.351562 303.597656 L 224.769531 303.109375 L 225.839844 302.238281 L 227.328125 301.394531 L 228.875 300.746094 L 230.003906 300.363281 L 231.015625 300.066406 L 233.335938 299.519531 L 234.824219 299.238281 L 236.429688 298.988281 L 238.394531 298.734375 L 239.820312 298.589844 L 243.035156 298.351562 L 245.414062 298.25 L 247.257812 298.203125 L 251.246094 298.203125 L 253.625 298.261719 L 255.351562 298.335938 L 257.253906 298.457031 L 258.863281 298.589844 L 261.65625 298.914062 L 264.15625 299.328125 L 265.289062 299.5625 L 267.074219 300.023438 L 268.441406 300.464844 L 269.394531 300.847656 L 270.464844 301.394531 L 271.414062 302.0625 L 272.128906 302.816406 L 272.488281 303.449219 L 264.15625 303.449219 L 263.742188 302.859375 L 263.265625 302.402344 L 262.371094 301.792969 L 261.480469 301.367188 L 260.230469 300.9375 L 259.101562 300.65625 L 257.550781 300.375 L 256.183594 300.199219 L 254.757812 300.066406 L 253.386719 299.976562 L 250.769531 299.886719 L 247.734375 299.886719 L 246.605469 299.917969 L 244.285156 300.035156 L 243.035156 300.140625 L 241.25 300.347656 L 240 300.539062 L 238.511719 300.835938 L 237.5 301.085938 L 236.253906 301.46875 L 235.359375 301.808594 L 234.347656 302.296875 L 233.753906 302.667969 L 233.21875 303.082031 L 232.742188 303.566406 L 232.386719 304.085938 L 232.148438 304.632812 L 232.027344 305.164062 L 232.027344 307.453125 L 232.148438 307.988281 L 232.445312 308.605469 L 233.21875 309.507812 L 234.347656 310.292969 L 235.65625 310.914062 L 236.90625 311.355469 L 237.621094 311.5625 L 238.574219 311.800781 L 240.058594 312.09375 L 242.203125 312.390625 L 243.453125 312.507812 L 245.355469 312.625 L 247.320312 312.6875 L 249.9375 312.6875 L 252.257812 312.625 L 253.804688 312.554688 L 255.410156 312.433594 L 257.613281 312.183594 L 258.980469 311.945312 L 260.171875 311.667969 L 261.0625 311.386719 L 261.65625 311.148438 L 262.550781 310.691406 L 263.265625 310.1875 L 263.800781 309.671875 L 264.15625 309.167969 L 272.488281 309.167969 L 272.128906 309.761719 L 271.59375 310.335938 L 271.058594 310.765625 L 270.226562 311.28125 L 269.273438 311.738281 L 267.90625 312.257812 L 266.773438 312.597656 L 265.289062 312.964844 L 263.917969 313.246094 L 262.429688 313.5 L 260.230469 313.792969 L 258.800781 313.941406 L 257.253906 314.074219 L 255.410156 314.191406 L 253.089844 314.296875 L 250.589844 314.355469 L 248.269531 314.371094 L 245.773438 314.339844 L 243.925781 314.28125 L 241.488281 314.148438 L 238.453125 313.882812 L 236.253906 313.601562 L 234.527344 313.320312 L 233.039062 313.027344 L 231.375 312.625 L 229.230469 311.976562 L 227.921875 311.472656 L 227.03125 311.058594 L 226.019531 310.484375 L 225.304688 309.96875 L 224.472656 309.140625 L 223.875 308.089844 L 223.699219 307.277344 Z M 223.699219 305.238281 "/>
<path style=" stroke:none;fill-rule:nonzero;fill:rgb(83.921569%,15.686275%,22.352941%);fill-opacity:1;" d="M 223.699219 20.664062 L 272.488281 20.664062 L 272.488281 50.246094 L 252.152344 50.503906 L 252.152344 297.023438 L 243.972656 297.023438 L 243.972656 50.765625 L 243.855469 50.246094 L 223.699219 50.246094 Z M 223.699219 20.664062 "/>
<path style=" stroke:none;fill-rule:nonzero;fill:rgb(6.27451%,58.823529%,28.235294%);fill-opacity:1;" d="M 275.054688 248.273438 L 275.105469 248.164062 L 296.21875 128.597656 L 302.628906 128.597656 L 323.84375 248.386719 L 316.390625 248.386719 L 311.074219 217.117188 L 287.773438 217.117188 L 282.558594 248.273438 L 275.054688 248.273438 L 290.015625 204.183594 L 308.933594 204.070312 L 299.5 148.167969 L 299.398438 148.058594 L 299.292969 148.394531 L 289.960938 204.070312 L 290.015625 204.183594 Z M 275.054688 248.273438 "/>
<path style=" stroke:none;fill-rule:nonzero;fill:rgb(96.862745%,70.196078%,16.862745%);fill-opacity:1;" d="M 275.054688 277.324219 L 275.113281 277.265625 L 275.113281 276.082031 L 275.351562 273.417969 L 275.945312 269.75 L 276.71875 266.730469 L 277.554688 264.363281 L 278.089844 263.121094 L 278.980469 261.34375 L 279.753906 260.042969 L 281.71875 257.378906 L 284.21875 254.894531 L 285.585938 253.828125 L 287.132812 252.820312 L 289.335938 251.699219 L 290.34375 251.285156 L 293.4375 250.335938 L 296.949219 249.746094 L 300.816406 249.566406 L 302.601562 249.625 L 305.042969 249.863281 L 308.375 250.515625 L 310.277344 251.105469 L 311.765625 251.699219 L 313.3125 252.46875 L 315.214844 253.652344 L 317 255.070312 L 318.429688 256.492188 L 319.855469 258.265625 L 321.046875 260.160156 L 322.058594 262.230469 L 322.949219 264.71875 L 323.484375 266.789062 L 323.84375 268.859375 L 315.574219 268.859375 L 315.097656 266.789062 L 314.5625 265.191406 L 313.667969 263.238281 L 312.777344 261.816406 L 311.882812 260.691406 L 310.21875 259.15625 L 308.789062 258.207031 L 307.003906 257.378906 L 305.28125 256.847656 L 303.316406 256.492188 L 302.125 256.375 L 298.972656 256.375 L 296.117188 256.789062 L 294.449219 257.261719 L 293.261719 257.734375 L 291.59375 258.621094 L 290.582031 259.332031 L 289.988281 259.804688 L 288.203125 261.640625 L 287.011719 263.296875 L 286.359375 264.421875 L 285.527344 266.195312 L 284.929688 267.796875 L 284.277344 270.164062 L 283.917969 271.9375 L 283.445312 275.960938 L 283.382812 286.613281 L 283.5625 288.863281 L 283.917969 291.289062 L 284.394531 293.421875 L 285.109375 295.667969 L 285.824219 297.386719 L 287.074219 299.695312 L 288.144531 301.234375 L 288.976562 302.238281 L 290.582031 303.835938 L 291.238281 304.367188 L 292.785156 305.433594 L 294.390625 306.261719 L 296.355469 306.972656 L 297.84375 307.328125 L 300.222656 307.625 L 303.257812 307.625 L 306.828125 307.269531 L 309.085938 306.796875 L 310.632812 306.320312 L 311.644531 305.90625 L 312.894531 305.257812 L 313.789062 304.664062 L 314.621094 304.015625 L 315.632812 303.007812 L 315.632812 288.863281 L 300.9375 288.804688 L 300.9375 282.175781 L 323.785156 282.117188 L 323.84375 305.257812 L 322.59375 306.855469 L 321.046875 308.394531 L 319.558594 309.578125 L 318.011719 310.582031 L 315.8125 311.707031 L 314.027344 312.417969 L 311.289062 313.246094 L 308.789062 313.777344 L 306.171875 314.132812 L 303.851562 314.3125 L 301.113281 314.371094 L 298.675781 314.253906 L 296.058594 313.898438 L 293.976562 313.421875 L 292.070312 312.832031 L 290.167969 312.0625 L 287.789062 310.820312 L 286.238281 309.8125 L 284.632812 308.570312 L 283.027344 307.089844 L 281.597656 305.492188 L 280.648438 304.25 L 279.695312 302.832031 L 278.683594 301.054688 L 277.730469 299.042969 L 277.019531 297.207031 L 276.363281 295.136719 L 275.886719 293.183594 L 275.410156 290.519531 L 275.171875 288.390625 L 275.054688 286.554688 Z M 275.054688 277.324219 "/>
<path style=" stroke:none;fill-rule:nonzero;fill:rgb(14.509804%,36.078431%,60%);fill-opacity:1;" d="M 326.410156 305.238281 L 326.46875 305.222656 L 326.46875 304.867188 L 326.648438 304.308594 L 327.066406 303.597656 L 327.480469 303.109375 L 328.554688 302.238281 L 330.039062 301.394531 L 331.585938 300.746094 L 332.71875 300.363281 L 333.730469 300.066406 L 336.050781 299.519531 L 337.535156 299.238281 L 339.144531 298.988281 L 341.105469 298.734375 L 342.535156 298.589844 L 345.746094 298.351562 L 348.128906 298.25 L 349.972656 298.203125 L 353.957031 298.203125 L 356.339844 298.261719 L 358.0625 298.335938 L 359.96875 298.457031 L 361.574219 298.589844 L 364.371094 298.914062 L 366.871094 299.328125 L 368 299.5625 L 369.785156 300.023438 L 371.152344 300.464844 L 372.105469 300.847656 L 373.175781 301.394531 L 374.128906 302.0625 L 374.84375 302.816406 L 375.199219 303.449219 L 366.871094 303.449219 L 366.453125 302.859375 L 365.976562 302.402344 L 365.085938 301.792969 L 364.191406 301.367188 L 362.941406 300.9375 L 361.8125 300.65625 L 360.265625 300.375 L 358.898438 300.199219 L 357.46875 300.066406 L 356.101562 299.976562 L 353.484375 299.886719 L 350.449219 299.886719 L 349.316406 299.917969 L 346.996094 300.035156 L 345.746094 300.140625 L 343.960938 300.347656 L 342.714844 300.539062 L 341.226562 300.835938 L 340.214844 301.085938 L 338.964844 301.46875 L 338.074219 301.808594 L 337.0625 302.296875 L 336.464844 302.667969 L 335.929688 303.082031 L 335.453125 303.566406 L 335.097656 304.085938 L 334.859375 304.632812 L 334.742188 305.164062 L 334.742188 307.453125 L 334.859375 307.988281 L 335.15625 308.605469 L 335.929688 309.507812 L 337.0625 310.292969 L 338.371094 310.914062 L 339.621094 311.355469 L 340.332031 311.5625 L 341.285156 311.800781 L 342.773438 312.09375 L 344.914062 312.390625 L 346.164062 312.507812 L 348.066406 312.625 L 350.03125 312.6875 L 352.648438 312.6875 L 354.96875 312.625 L 356.515625 312.554688 L 358.125 312.433594 L 360.324219 312.183594 L 361.691406 311.945312 L 362.882812 311.667969 L 363.777344 311.386719 L 364.371094 311.148438 L 365.261719 310.691406 L 365.976562 310.1875 L 366.511719 309.671875 L 366.871094 309.167969 L 375.199219 309.167969 L 374.84375 309.761719 L 374.308594 310.335938 L 373.769531 310.765625 L 372.9375 311.28125 L 371.988281 311.738281 L 370.617188 312.257812 L 369.488281 312.597656 L 368 312.964844 L 366.632812 313.246094 L 365.144531 313.5 L 362.941406 313.792969 L 361.515625 313.941406 L 359.96875 314.074219 L 358.125 314.191406 L 355.804688 314.296875 L 353.304688 314.355469 L 350.984375 314.371094 L 348.484375 314.339844 L 346.640625 314.28125 L 344.199219 314.148438 L 341.167969 313.882812 L 338.964844 313.601562 L 337.238281 313.320312 L 335.753906 313.027344 L 334.085938 312.625 L 331.945312 311.976562 L 330.636719 311.472656 L 329.742188 311.058594 L 328.730469 310.484375 L 328.015625 309.96875 L 327.183594 309.140625 L 326.589844 308.089844 L 326.410156 307.277344 Z M 326.410156 305.238281 "/>
<path style=" stroke:none;fill-rule:nonzero;fill:rgb(83.921569%,15.686275%,22.352941%);fill-opacity:1;" d="M 326.410156 20.664062 L 375.199219 20.664062 L 375.199219 50.246094 L 354.867188 50.503906 L 354.867188 297.023438 L 346.683594 297.023438 L 346.683594 50.765625 L 346.566406 50.246094 L 326.410156 50.246094 Z M 326.410156 20.664062 "/>
<path style=" stroke:none;fill-rule:nonzero;fill:rgb(14.509804%,36.078431%,60%);fill-opacity:1;" d="M 377.765625 305.238281 L 377.828125 305.222656 L 377.828125 304.867188 L 378.003906 304.308594 L 378.421875 303.597656 L 378.839844 303.109375 L 379.910156 302.238281 L 381.394531 301.394531 L 382.945312 300.746094 L 384.074219 300.363281 L 385.085938 300.066406 L 387.40625 299.519531 L 388.894531 299.238281 L 390.5 298.988281 L 392.464844 298.734375 L 393.890625 298.589844 L 397.105469 298.351562 L 399.484375 298.25 L 401.328125 298.203125 L 405.316406 298.203125 L 407.695312 298.261719 L 409.421875 298.335938 L 411.324219 298.457031 L 412.929688 298.589844 L 415.726562 298.914062 L 418.226562 299.328125 L 419.355469 299.5625 L 421.140625 300.023438 L 422.507812 300.464844 L 423.460938 300.847656 L 424.53125 301.394531 L 425.484375 302.0625 L 426.199219 302.816406 L 426.554688 303.449219 L 418.226562 303.449219 L 417.808594 302.859375 L 417.332031 302.402344 L 416.441406 301.792969 L 415.546875 301.367188 L 414.300781 300.9375 L 413.167969 300.65625 L 411.621094 300.375 L 410.253906 300.199219 L 408.824219 300.066406 L 407.457031 299.976562 L 404.839844 299.886719 L 401.804688 299.886719 L 400.675781 299.917969 L 398.351562 300.035156 L 397.105469 300.140625 L 395.320312 300.347656 L 394.070312 300.539062 L 392.582031 300.835938 L 391.570312 301.085938 L 390.320312 301.46875 L 389.429688 301.808594 L 388.417969 302.296875 L 387.824219 302.667969 L 387.285156 303.082031 L 386.8125 303.566406 L 386.453125 304.085938 L 386.214844 304.632812 L 386.097656 305.164062 L 386.097656 307.453125 L 386.214844 307.988281 L 386.511719 308.605469 L 387.285156 309.507812 L 388.417969 310.292969 L 389.726562 310.914062 L 390.976562 311.355469 L 391.691406 311.5625 L 392.640625 311.800781 L 394.128906 312.09375 L 396.269531 312.390625 L 397.519531 312.507812 L 399.425781 312.625 L 401.386719 312.6875 L 404.003906 312.6875 L 406.328125 312.625 L 407.875 312.554688 L 409.480469 312.433594 L 411.679688 312.183594 L 413.050781 311.945312 L 414.238281 311.667969 L 415.132812 311.386719 L 415.726562 311.148438 L 416.621094 310.691406 L 417.332031 310.1875 L 417.867188 309.671875 L 418.226562 309.167969 L 426.554688 309.167969 L 426.199219 309.761719 L 425.664062 310.335938 L 425.128906 310.765625 L 424.292969 311.28125 L 423.34375 311.738281 L 421.972656 312.257812 L 420.84375 312.597656 L 419.355469 312.964844 L 417.988281 313.246094 L 416.5 313.5 L 414.300781 313.792969 L 412.871094 313.941406 L 411.324219 314.074219 L 409.480469 314.191406 L 407.160156 314.296875 L 404.660156 314.355469 L 402.339844 314.371094 L 399.839844 314.339844 L 397.996094 314.28125 L 395.558594 314.148438 L 392.523438 313.882812 L 390.320312 313.601562 L 388.597656 313.320312 L 387.109375 313.027344 L 385.441406 312.625 L 383.300781 311.976562 L 381.992188 311.472656 L 381.097656 311.058594 L 380.085938 310.484375 L 379.375 309.96875 L 378.539062 309.140625 L 377.945312 308.089844 L 377.765625 307.277344 Z M 377.765625 305.238281 "/>
<path style=" stroke:none;fill-rule:nonzero;fill:rgb(83.921569%,15.686275%,22.352941%);fill-opacity:1;" d="M 377.765625 20.664062 L 426.554688 20.664062 L 426.554688 50.246094 L 406.222656 50.503906 L 406.222656 297.023438 L 398.042969 297.023438 L 398.042969 50.765625 L 397.921875 50.246094 L 377.765625 50.246094 Z M 377.765625 20.664062 "/>
<path style=" stroke:none;fill-rule:nonzero;fill:rgb(96.862745%,70.196078%,16.862745%);fill-opacity:1;" d="M 429.125 277.324219 L 429.183594 277.265625 L 429.183594 276.082031 L 429.421875 273.417969 L 430.015625 269.75 L 430.789062 266.730469 L 431.621094 264.363281 L 432.15625 263.121094 L 433.050781 261.34375 L 433.824219 260.042969 L 435.789062 257.378906 L 438.285156 254.894531 L 439.65625 253.828125 L 441.203125 252.820312 L 443.402344 251.699219 L 444.414062 251.285156 L 447.507812 250.335938 L 451.019531 249.746094 L 454.886719 249.566406 L 456.671875 249.625 L 459.109375 249.863281 L 462.441406 250.515625 L 464.347656 251.105469 L 465.832031 251.699219 L 467.378906 252.46875 L 469.285156 253.652344 L 471.070312 255.070312 L 472.496094 256.492188 L 473.925781 258.265625 L 475.117188 260.160156 L 476.125 262.230469 L 477.019531 264.71875 L 477.554688 266.789062 L 477.910156 268.859375 L 469.640625 268.859375 L 469.164062 266.789062 L 468.628906 265.191406 L 467.738281 263.238281 L 466.84375 261.816406 L 465.953125 260.691406 L 464.285156 259.15625 L 462.859375 258.207031 L 461.074219 257.378906 L 459.347656 256.847656 L 457.386719 256.492188 L 456.195312 256.375 L 453.042969 256.375 L 450.1875 256.789062 L 448.519531 257.261719 L 447.328125 257.734375 L 445.664062 258.621094 L 444.652344 259.332031 L 444.058594 259.804688 L 442.273438 261.640625 L 441.082031 263.296875 L 440.429688 264.421875 L 439.59375 266.195312 L 439 267.796875 L 438.34375 270.164062 L 437.988281 271.9375 L 437.511719 275.960938 L 437.453125 286.613281 L 437.632812 288.863281 L 437.988281 291.289062 L 438.464844 293.421875 L 439.179688 295.667969 L 439.890625 297.386719 L 441.140625 299.695312 L 442.214844 301.234375 L 443.046875 302.238281 L 444.652344 303.835938 L 445.308594 304.367188 L 446.855469 305.433594 L 448.460938 306.261719 L 450.421875 306.972656 L 451.910156 307.328125 L 454.292969 307.625 L 457.324219 307.625 L 460.894531 307.269531 L 463.15625 306.796875 L 464.703125 306.320312 L 465.714844 305.90625 L 466.964844 305.257812 L 467.855469 304.664062 L 468.691406 304.015625 L 469.699219 303.007812 L 469.699219 288.863281 L 455.003906 288.804688 L 455.003906 282.175781 L 477.851562 282.117188 L 477.910156 305.257812 L 476.664062 306.855469 L 475.117188 308.394531 L 473.628906 309.578125 L 472.082031 310.582031 L 469.878906 311.707031 L 468.09375 312.417969 L 465.359375 313.246094 L 462.859375 313.777344 L 460.242188 314.132812 L 457.921875 314.3125 L 455.183594 314.371094 L 452.746094 314.253906 L 450.125 313.898438 L 448.042969 313.421875 L 446.140625 312.832031 L 444.234375 312.0625 L 441.855469 310.820312 L 440.308594 309.8125 L 438.703125 308.570312 L 437.097656 307.089844 L 435.667969 305.492188 L 434.714844 304.25 L 433.765625 302.832031 L 432.753906 301.054688 L 431.800781 299.042969 L 431.085938 297.207031 L 430.433594 295.136719 L 429.957031 293.183594 L 429.480469 290.519531 L 429.242188 288.390625 L 429.125 286.554688 Z M 429.125 277.324219 "/>
<path style=" stroke:none;fill-rule:nonzero;fill:rgb(83.921569%,15.686275%,22.352941%);fill-opacity:1;" d="M 429.125 128.597656 L 477.910156 128.597656 L 477.910156 141.421875 L 457.578125 141.535156 L 457.578125 248.386719 L 449.398438 248.386719 L 449.398438 141.644531 L 449.277344 141.421875 L 429.125 141.421875 Z M 429.125 128.597656 "/>
<path style=" stroke:none;fill-rule:nonzero;fill:rgb(6.27451%,58.823529%,28.235294%);fill-opacity:1;" d="M 480.480469 231.339844 L 480.53125 231.253906 L 501.640625 139.292969 L 508.054688 139.292969 L 529.269531 231.425781 L 521.8125 231.425781 L 516.496094 207.378906 L 493.199219 207.378906 L 487.984375 231.339844 L 480.480469 231.339844 L 495.4375 197.429688 L 514.359375 197.34375 L 504.925781 154.347656 L 504.820312 154.261719 L 504.71875 154.519531 L 495.386719 197.34375 L 495.4375 197.429688 Z M 480.480469 231.339844 "/>
<path style=" stroke:none;fill-rule:nonzero;fill:rgb(96.862745%,70.196078%,16.862745%);fill-opacity:1;" d="M 480.480469 267.625 L 480.539062 267.550781 L 480.539062 266.058594 L 480.777344 262.699219 L 481.371094 258.070312 L 482.144531 254.261719 L 482.980469 251.273438 L 483.515625 249.707031 L 484.40625 247.464844 L 485.179688 245.824219 L 487.144531 242.460938 L 489.640625 239.328125 L 491.011719 237.984375 L 492.558594 236.714844 L 494.757812 235.292969 L 495.769531 234.773438 L 498.863281 233.578125 L 502.375 232.832031 L 506.242188 232.605469 L 508.027344 232.679688 L 510.464844 232.980469 L 513.796875 233.800781 L 515.703125 234.546875 L 517.191406 235.292969 L 518.738281 236.265625 L 520.640625 237.757812 L 522.425781 239.550781 L 523.855469 241.34375 L 525.28125 243.582031 L 526.472656 245.972656 L 527.484375 248.585938 L 528.375 251.722656 L 528.910156 254.335938 L 529.269531 256.949219 L 520.996094 256.949219 L 520.523438 254.335938 L 519.988281 252.320312 L 519.09375 249.855469 L 518.203125 248.0625 L 517.308594 246.644531 L 515.644531 244.703125 L 514.214844 243.507812 L 512.429688 242.460938 L 510.703125 241.789062 L 508.742188 241.34375 L 507.550781 241.195312 L 504.398438 241.195312 L 501.542969 241.714844 L 499.875 242.3125 L 498.6875 242.910156 L 497.019531 244.03125 L 496.007812 244.925781 L 495.414062 245.523438 L 493.628906 247.839844 L 492.4375 249.929688 L 491.785156 251.347656 L 490.953125 253.589844 L 490.355469 255.605469 L 489.703125 258.589844 L 489.34375 260.832031 L 488.867188 265.910156 L 488.808594 279.351562 L 488.988281 282.1875 L 489.34375 285.25 L 489.820312 287.9375 L 490.535156 290.773438 L 491.25 292.941406 L 492.5 295.851562 L 493.570312 297.792969 L 494.402344 299.0625 L 496.007812 301.078125 L 496.664062 301.75 L 498.210938 303.09375 L 499.816406 304.140625 L 501.78125 305.035156 L 503.265625 305.484375 L 505.648438 305.859375 L 508.683594 305.859375 L 512.25 305.410156 L 514.511719 304.8125 L 516.058594 304.214844 L 517.070312 303.691406 L 518.320312 302.871094 L 519.214844 302.125 L 520.046875 301.304688 L 521.058594 300.035156 L 521.058594 282.1875 L 506.363281 282.113281 L 506.363281 273.75 L 529.207031 273.675781 L 529.269531 302.871094 L 528.019531 304.886719 L 526.472656 306.828125 L 524.984375 308.324219 L 523.4375 309.589844 L 521.234375 311.011719 L 519.449219 311.90625 L 516.714844 312.953125 L 514.214844 313.625 L 511.597656 314.070312 L 509.277344 314.296875 L 506.539062 314.371094 L 504.101562 314.222656 L 501.484375 313.773438 L 499.398438 313.175781 L 497.496094 312.429688 L 495.59375 311.457031 L 493.210938 309.890625 L 491.664062 308.621094 L 490.058594 307.054688 L 488.453125 305.1875 L 487.023438 303.171875 L 486.074219 301.601562 L 485.121094 299.808594 L 484.109375 297.570312 L 483.15625 295.03125 L 482.441406 292.714844 L 481.789062 290.101562 L 481.3125 287.636719 L 480.835938 284.277344 L 480.597656 281.589844 L 480.480469 279.277344 Z M 480.480469 267.625 "/>
<path style=" stroke:none;fill-rule:nonzero;fill:rgb(14.509804%,36.078431%,60%);fill-opacity:1;" d="M 531.835938 179.382812 L 531.894531 179.296875 L 531.894531 177.277344 L 532.074219 174.074219 L 532.492188 170.035156 L 532.90625 167.253906 L 533.976562 162.285156 L 535.464844 157.484375 L 537.011719 153.78125 L 538.144531 151.589844 L 539.152344 149.90625 L 541.476562 146.789062 L 542.960938 145.191406 L 544.570312 143.757812 L 546.53125 142.328125 L 547.960938 141.484375 L 551.171875 140.136719 L 553.554688 139.546875 L 555.398438 139.292969 L 559.382812 139.292969 L 561.761719 139.632812 L 563.488281 140.050781 L 565.394531 140.726562 L 567 141.484375 L 569.796875 143.335938 L 572.292969 145.695312 L 573.425781 147.042969 L 575.210938 149.652344 L 576.578125 152.179688 L 577.53125 154.367188 L 578.601562 157.484375 L 579.554688 161.273438 L 580.265625 165.570312 L 580.625 169.191406 L 572.292969 169.191406 L 571.878906 165.824219 L 571.402344 163.210938 L 570.507812 159.757812 L 569.617188 157.316406 L 568.367188 154.875 L 567.238281 153.273438 L 565.691406 151.675781 L 564.320312 150.664062 L 562.894531 149.90625 L 561.527344 149.402344 L 558.90625 148.894531 L 555.875 148.894531 L 554.742188 149.0625 L 552.421875 149.738281 L 551.171875 150.328125 L 549.386719 151.503906 L 548.136719 152.601562 L 546.652344 154.285156 L 545.640625 155.714844 L 544.390625 157.90625 L 543.496094 159.84375 L 542.484375 162.621094 L 541.890625 164.726562 L 541.355469 167.085938 L 540.878906 169.863281 L 540.523438 172.8125 L 540.285156 175.929688 L 540.164062 178.960938 L 540.164062 192.015625 L 540.285156 195.046875 L 540.582031 198.582031 L 541.355469 203.71875 L 542.484375 208.183594 L 543.796875 211.71875 L 545.042969 214.246094 L 545.757812 215.425781 L 546.710938 216.773438 L 548.199219 218.457031 L 550.339844 220.140625 L 551.589844 220.816406 L 553.492188 221.488281 L 555.457031 221.824219 L 558.074219 221.824219 L 560.394531 221.488281 L 561.941406 221.066406 L 563.546875 220.394531 L 565.75 218.960938 L 567.117188 217.617188 L 568.308594 216.015625 L 569.199219 214.414062 L 569.796875 213.066406 L 570.6875 210.457031 L 571.402344 207.59375 L 571.9375 204.644531 L 572.292969 201.78125 L 580.625 201.78125 L 580.265625 205.152344 L 579.730469 208.4375 L 579.195312 210.878906 L 578.363281 213.824219 L 577.410156 216.4375 L 576.042969 219.382812 L 574.914062 221.320312 L 573.425781 223.425781 L 572.058594 225.027344 L 570.570312 226.457031 L 568.367188 228.140625 L 566.941406 228.984375 L 565.394531 229.742188 L 563.546875 230.417969 L 561.226562 231.003906 L 558.730469 231.34375 L 556.410156 231.425781 L 553.910156 231.257812 L 552.066406 230.921875 L 549.625 230.164062 L 546.589844 228.648438 L 544.390625 227.046875 L 542.664062 225.449219 L 541.175781 223.761719 L 539.511719 221.488281 L 537.371094 217.785156 L 536.058594 214.921875 L 535.167969 212.5625 L 534.15625 209.277344 L 533.441406 206.332031 L 532.609375 201.613281 L 532.015625 195.636719 L 531.835938 191.003906 Z M 531.835938 179.382812 "/>
<path style=" stroke:none;fill-rule:nonzero;fill:rgb(83.921569%,15.686275%,22.352941%);fill-opacity:1;" d="M 531.835938 232.605469 L 580.625 232.605469 L 580.625 241.359375 L 560.289062 241.433594 L 560.289062 314.371094 L 552.109375 314.371094 L 552.109375 241.511719 L 551.992188 241.359375 L 531.835938 241.359375 Z M 531.835938 232.605469 "/>
<path style=" stroke:none;fill-rule:nonzero;fill:rgb(6.27451%,58.823529%,28.235294%);fill-opacity:1;" d="M 583.191406 314.363281 L 583.246094 314.351562 L 604.355469 304.710938 L 610.765625 304.710938 L 631.980469 314.371094 L 624.527344 314.371094 L 619.210938 311.847656 L 595.910156 311.847656 L 590.699219 314.363281 L 583.191406 314.363281 L 598.152344 310.804688 L 617.074219 310.796875 L 607.636719 306.289062 L 607.535156 306.28125 L 607.429688 306.308594 L 598.101562 310.796875 L 598.152344 310.804688 Z M 583.191406 314.363281 "/>
<path style=" stroke:none;fill-rule:nonzero;fill:rgb(14.509804%,36.078431%,60%);fill-opacity:1;" d="M 583.191406 287.238281 L 583.25 287.226562 L 583.25 287.015625 L 583.429688 286.679688 L 583.847656 286.257812 L 584.261719 285.964844 L 585.335938 285.445312 L 586.820312 284.941406 L 588.367188 284.554688 L 589.5 284.324219 L 590.511719 284.148438 L 592.832031 283.820312 L 594.320312 283.652344 L 595.925781 283.503906 L 597.886719 283.351562 L 599.316406 283.265625 L 602.527344 283.121094 L 604.910156 283.0625 L 606.753906 283.035156 L 610.738281 283.035156 L 613.121094 283.070312 L 614.84375 283.113281 L 616.75 283.183594 L 618.355469 283.265625 L 621.152344 283.457031 L 623.652344 283.707031 L 624.78125 283.847656 L 626.566406 284.121094 L 627.933594 284.386719 L 628.886719 284.613281 L 629.957031 284.941406 L 630.910156 285.339844 L 631.625 285.789062 L 631.980469 286.167969 L 623.652344 286.167969 L 623.234375 285.816406 L 622.757812 285.542969 L 621.867188 285.179688 L 620.972656 284.921875 L 619.722656 284.667969 L 618.59375 284.5 L 617.046875 284.332031 L 615.679688 284.226562 L 614.25 284.148438 L 612.882812 284.09375 L 610.265625 284.039062 L 607.230469 284.039062 L 606.097656 284.058594 L 603.777344 284.128906 L 602.527344 284.191406 L 600.746094 284.316406 L 599.496094 284.429688 L 598.007812 284.605469 L 596.996094 284.757812 L 595.746094 284.984375 L 594.855469 285.1875 L 593.84375 285.480469 L 593.246094 285.699219 L 592.710938 285.949219 L 592.234375 286.238281 L 591.878906 286.546875 L 591.640625 286.875 L 591.523438 287.191406 L 591.523438 288.5625 L 591.640625 288.878906 L 591.9375 289.25 L 592.710938 289.789062 L 593.84375 290.257812 L 595.152344 290.628906 L 596.402344 290.890625 L 597.113281 291.015625 L 598.066406 291.15625 L 599.554688 291.332031 L 601.695312 291.511719 L 602.945312 291.582031 L 604.847656 291.652344 L 606.8125 291.6875 L 609.429688 291.6875 L 611.75 291.652344 L 613.296875 291.605469 L 614.90625 291.535156 L 617.105469 291.386719 L 618.476562 291.246094 L 619.664062 291.078125 L 620.558594 290.910156 L 621.152344 290.769531 L 622.042969 290.496094 L 622.757812 290.195312 L 623.292969 289.886719 L 623.652344 289.585938 L 631.980469 289.585938 L 631.625 289.9375 L 631.089844 290.28125 L 630.554688 290.539062 L 629.71875 290.847656 L 628.769531 291.121094 L 627.398438 291.429688 L 626.269531 291.632812 L 624.78125 291.855469 L 623.414062 292.023438 L 621.925781 292.171875 L 619.722656 292.347656 L 618.296875 292.4375 L 616.75 292.515625 L 614.90625 292.585938 L 612.585938 292.648438 L 610.085938 292.683594 L 607.765625 292.695312 L 605.265625 292.675781 L 603.421875 292.640625 L 600.980469 292.5625 L 597.949219 292.402344 L 595.746094 292.234375 L 594.019531 292.066406 L 592.535156 291.890625 L 590.867188 291.652344 L 588.726562 291.261719 L 587.417969 290.960938 L 586.523438 290.714844 L 585.511719 290.371094 L 584.796875 290.0625 L 583.964844 289.566406 L 583.371094 288.941406 L 583.191406 288.457031 Z M 583.191406 287.238281 "/>
<path style=" stroke:none;fill-rule:nonzero;fill:rgb(96.862745%,70.196078%,16.862745%);fill-opacity:1;" d="M 583.191406 298.011719 L 583.25 298 L 583.25 297.824219 L 583.488281 297.429688 L 584.085938 296.882812 L 584.859375 296.429688 L 585.691406 296.078125 L 586.226562 295.894531 L 587.117188 295.628906 L 587.894531 295.433594 L 589.855469 295.039062 L 592.355469 294.667969 L 593.722656 294.507812 L 595.269531 294.359375 L 597.472656 294.191406 L 598.484375 294.128906 L 601.578125 293.988281 L 605.085938 293.898438 L 608.953125 293.871094 L 610.738281 293.882812 L 613.179688 293.917969 L 616.511719 294.015625 L 618.414062 294.101562 L 619.902344 294.191406 L 621.449219 294.304688 L 623.351562 294.480469 L 625.136719 294.691406 L 626.566406 294.90625 L 627.996094 295.167969 L 629.183594 295.453125 L 630.195312 295.761719 L 631.089844 296.132812 L 631.625 296.441406 L 631.980469 296.75 L 623.710938 296.75 L 623.234375 296.441406 L 622.699219 296.203125 L 621.804688 295.910156 L 620.914062 295.699219 L 620.023438 295.53125 L 618.355469 295.300781 L 616.925781 295.160156 L 615.144531 295.039062 L 613.417969 294.957031 L 611.453125 294.90625 L 610.265625 294.886719 L 607.109375 294.886719 L 604.253906 294.949219 L 602.589844 295.019531 L 601.398438 295.089844 L 599.734375 295.222656 L 598.722656 295.328125 L 598.125 295.398438 L 596.339844 295.671875 L 595.152344 295.917969 L 594.496094 296.085938 L 593.664062 296.351562 L 593.070312 296.589844 L 592.414062 296.941406 L 592.058594 297.207031 L 591.582031 297.808594 L 591.523438 299.394531 L 591.699219 299.730469 L 592.058594 300.089844 L 592.535156 300.410156 L 593.246094 300.746094 L 593.960938 301 L 595.210938 301.34375 L 596.28125 301.574219 L 597.113281 301.722656 L 598.722656 301.960938 L 599.375 302.042969 L 600.921875 302.199219 L 602.527344 302.324219 L 604.492188 302.429688 L 605.980469 302.480469 L 608.359375 302.527344 L 611.394531 302.527344 L 614.964844 302.472656 L 617.226562 302.402344 L 618.773438 302.332031 L 619.785156 302.269531 L 621.03125 302.171875 L 621.925781 302.085938 L 622.757812 301.988281 L 623.769531 301.839844 L 623.769531 299.730469 L 609.074219 299.722656 L 609.074219 298.734375 L 631.921875 298.722656 L 631.980469 302.171875 L 630.730469 302.410156 L 629.183594 302.640625 L 627.695312 302.816406 L 626.148438 302.96875 L 623.949219 303.136719 L 622.164062 303.242188 L 619.425781 303.363281 L 616.925781 303.445312 L 614.308594 303.496094 L 611.988281 303.523438 L 609.253906 303.53125 L 606.8125 303.515625 L 604.195312 303.460938 L 602.113281 303.390625 L 600.207031 303.300781 L 598.304688 303.1875 L 595.925781 303.003906 L 594.378906 302.851562 L 592.769531 302.667969 L 591.164062 302.445312 L 589.738281 302.207031 L 588.785156 302.023438 L 587.832031 301.8125 L 586.820312 301.546875 L 585.871094 301.246094 L 585.15625 300.972656 L 584.5 300.664062 L 584.023438 300.375 L 583.550781 299.976562 L 583.3125 299.660156 L 583.191406 299.386719 Z M 583.191406 298.011719 "/>
<path style=" stroke:none;fill-rule:nonzero;fill:rgb(83.921569%,15.686275%,22.352941%);fill-opacity:1;" d="M 583.191406 131.292969 L 631.980469 131.292969 L 631.980469 147.410156 L 611.648438 147.550781 L 611.648438 281.855469 L 603.464844 281.855469 L 603.464844 147.691406 L 603.347656 147.410156 L 583.191406 147.410156 Z M 583.191406 131.292969 "/>
<path style=" stroke:none;fill-rule:nonzero;fill:rgb(14.509804%,36.078431%,60%);fill-opacity:1;" d="M 634.546875 282.144531 L 634.609375 282.09375 L 634.609375 280.839844 L 634.785156 278.859375 L 635.203125 276.355469 L 635.621094 274.636719 L 636.691406 271.558594 L 638.179688 268.585938 L 639.726562 266.292969 L 640.855469 264.9375 L 641.867188 263.894531 L 644.1875 261.964844 L 645.675781 260.972656 L 647.28125 260.085938 L 649.246094 259.199219 L 650.671875 258.679688 L 653.886719 257.84375 L 656.265625 257.480469 L 658.109375 257.324219 L 662.097656 257.324219 L 664.476562 257.53125 L 666.203125 257.792969 L 668.105469 258.210938 L 669.710938 258.679688 L 672.507812 259.824219 L 675.007812 261.285156 L 676.136719 262.121094 L 677.921875 263.738281 L 679.292969 265.300781 L 680.242188 266.65625 L 681.3125 268.585938 L 682.265625 270.933594 L 682.980469 273.59375 L 683.335938 275.835938 L 675.007812 275.835938 L 674.589844 273.75 L 674.113281 272.132812 L 673.222656 269.996094 L 672.328125 268.480469 L 671.082031 266.96875 L 669.949219 265.980469 L 668.402344 264.988281 L 667.035156 264.363281 L 665.605469 263.894531 L 664.238281 263.582031 L 661.621094 263.265625 L 658.585938 263.265625 L 657.457031 263.371094 L 655.136719 263.789062 L 653.886719 264.152344 L 652.101562 264.882812 L 650.851562 265.5625 L 649.363281 266.605469 L 648.351562 267.492188 L 647.101562 268.847656 L 646.210938 270.046875 L 645.199219 271.765625 L 644.605469 273.070312 L 644.066406 274.53125 L 643.59375 276.25 L 643.234375 278.078125 L 642.996094 280.007812 L 642.878906 281.882812 L 642.878906 289.964844 L 642.996094 291.84375 L 643.292969 294.035156 L 644.066406 297.214844 L 645.199219 299.976562 L 646.507812 302.167969 L 647.757812 303.734375 L 648.472656 304.464844 L 649.421875 305.296875 L 650.910156 306.339844 L 653.050781 307.382812 L 654.300781 307.800781 L 656.207031 308.21875 L 658.167969 308.425781 L 660.789062 308.425781 L 663.109375 308.21875 L 664.65625 307.957031 L 666.261719 307.539062 L 668.460938 306.652344 L 669.832031 305.820312 L 671.019531 304.828125 L 671.914062 303.835938 L 672.507812 303.003906 L 673.402344 301.386719 L 674.113281 299.613281 L 674.648438 297.789062 L 675.007812 296.015625 L 683.335938 296.015625 L 682.980469 298.101562 L 682.445312 300.136719 L 681.910156 301.648438 L 681.074219 303.472656 L 680.125 305.089844 L 678.753906 306.914062 L 677.625 308.113281 L 676.136719 309.417969 L 674.769531 310.40625 L 673.28125 311.292969 L 671.082031 312.335938 L 669.652344 312.859375 L 668.105469 313.328125 L 666.261719 313.746094 L 663.941406 314.109375 L 661.441406 314.320312 L 659.121094 314.371094 L 656.621094 314.265625 L 654.777344 314.058594 L 652.339844 313.589844 L 649.304688 312.648438 L 647.101562 311.660156 L 645.378906 310.667969 L 643.890625 309.625 L 642.222656 308.21875 L 640.082031 305.921875 L 638.773438 304.148438 L 637.878906 302.691406 L 636.867188 300.65625 L 636.15625 298.832031 L 635.320312 295.910156 L 634.726562 292.207031 L 634.546875 289.339844 Z M 634.546875 282.144531 "/>
<path style=" stroke:none;fill-rule:nonzero;fill:rgb(83.921569%,15.686275%,22.352941%);fill-opacity:1;" d="M 634.546875 117.578125 L 683.335938 117.578125 L 683.335938 132.410156 L 663.003906 132.539062 L 663.003906 256.144531 L 654.824219 256.144531 L 654.824219 132.671875 L 654.703125 132.410156 L 634.546875 132.410156 Z M 634.546875 117.578125 "/>
<g style="fill:rgb(0%,0%,0%);fill-opacity:1;">
  <use xlink:href="#glyph0-1" x="21.957031" y="318.198242"/>
  <use xlink:href="#glyph0-2" x="27.291016" y="318.198242"/>
  <use xlink:href="#glyph0-1" x="29.958008" y="318.198242"/>
</g>
<g style="fill:rgb(0%,0%,0%);fill-opacity:1;">
  <use xlink:href="#glyph0-1" x="21.957031" y="230.288086"/>
  <use xlink:href="#glyph0-2" x="27.291016" y="230.288086"/>
  <use xlink:href="#glyph0-3" x="29.958008" y="230.288086"/>
</g>
<g style="fill:rgb(0%,0%,0%);fill-opacity:1;">
  <use xlink:href="#glyph0-4" x="21.957031" y="142.381836"/>
  <use xlink:href="#glyph0-2" x="27.291016" y="142.381836"/>
  <use xlink:href="#glyph0-1" x="29.958008" y="142.381836"/>
</g>
<g style="fill:rgb(0%,0%,0%);fill-opacity:1;">
  <use xlink:href="#glyph0-4" x="21.957031" y="54.47168"/>
  <use xlink:href="#glyph0-2" x="27.291016" y="54.47168"/>
  <use xlink:href="#glyph0-3" x="29.958008" y="54.47168"/>
</g>
<g style="fill:rgb(0%,0%,0%);fill-opacity:1;">
  <use xlink:href="#glyph0-4" x="91.023438" y="338.19043"/>
</g>
<g style="fill:rgb(0%,0%,0%);fill-opacity:1;">
  <use xlink:href="#glyph0-5" x="142.378906" y="338.19043"/>
</g>
<g style="fill:rgb(0%,0%,0%);fill-opacity:1;">
  <use xlink:href="#glyph0-6" x="193.734375" y="338.19043"/>
</g>
<g style="fill:rgb(0%,0%,0%);fill-opacity:1;">
  <use xlink:href="#glyph0-7" x="245.09375" y="338.19043"/>
</g>
<g style="fill:rgb(0%,0%,0%);fill-opacity:1;">
  <use xlink:href="#glyph0-3" x="296.449219" y="338.19043"/>
</g>
<g style="fill:rgb(0%,0%,0%);fill-opacity:1;">
  <use xlink:href="#glyph0-8" x="347.804688" y="338.19043"/>
</g>
<g style="fill:rgb(0%,0%,0%);fill-opacity:1;">
  <use xlink:href="#glyph0-9" x="399.160156" y="338.19043"/>
</g>
<g style="fill:rgb(0%,0%,0%);fill-opacity:1;">
  <use xlink:href="#glyph0-10" x="450.519531" y="338.19043"/>
</g>
<g style="fill:rgb(0%,0%,0%);fill-opacity:1;">
  <use xlink:href="#glyph0-11" x="501.875" y="338.19043"/>
</g>
<g style="fill:rgb(0%,0%,0%);fill-opacity:1;">
  <use xlink:href="#glyph0-4" x="550.730469" y="338.19043"/>
  <use xlink:href="#glyph0-1" x="556.064453" y="338.19043"/>
</g>
<g style="fill:rgb(0%,0%,0%);fill-opacity:1;">
  <use xlink:href="#glyph0-4" x="602.085938" y="338.19043"/>
  <use xlink:href="#glyph0-4" x="607.419922" y="338.19043"/>
</g>
<g style="fill:rgb(0%,0%,0%);fill-opacity:1;">
  <use xlink:href="#glyph0-4" x="653.441406" y="338.19043"/>
  <use xlink:href="#glyph0-5" x="658.775391" y="338.19043"/>
</g>
<g style="fill:rgb(0%,0%,0%);fill-opacity:1;">
  <use xlink:href="#glyph1-1" x="14.412109" y="178.015625"/>
  <use xlink:href="#glyph1-2" x="14.412109" y="170.011719"/>
  <use xlink:href="#glyph1-3" x="14.412109" y="167.347656"/>
  <use xlink:href="#glyph1-4" x="14.412109" y="164.011719"/>
</g>
</g>
</svg>
