<?xml version="1.0" encoding="UTF-8"?>
<svg xmlns="http://www.w3.org/2000/svg" xmlns:xlink="http://www.w3.org/1999/xlink" width="720pt" height="360pt" viewBox="0 0 720 360" version="1.1">
<defs>
<g>
<symbol overflow="visible" id="glyph0-0">
<path style="stroke:none;" d=""/>
</symbol>
<symbol overflow="visible" id="glyph0-1">
<path style="stroke:none;" d="M 2.640625 -6.796875 C 2 -6.796875 1.421875 -6.53125 1.078125 -6.046875 C 0.640625 -5.453125 0.40625 -4.546875 0.40625 -3.296875 C 0.40625 -1 1.1875 0.21875 2.640625 0.21875 C 4.078125 0.21875 4.859375 -1 4.859375 -3.234375 C 4.859375 -4.5625 4.65625 -5.4375 4.203125 -6.046875 C 3.84375 -6.53125 3.28125 -6.796875 2.640625 -6.796875 Z M 2.640625 -6.046875 C 3.546875 -6.046875 4 -5.125 4 -3.3125 C 4 -1.375 3.5625 -0.484375 2.625 -0.484375 C 1.734375 -0.484375 1.28125 -1.421875 1.28125 -3.28125 C 1.28125 -5.140625 1.734375 -6.046875 2.640625 -6.046875 Z M 2.640625 -6.046875 "/>
</symbol>
<symbol overflow="visible" id="glyph0-2">
<path style="stroke:none;" d="M 1.828125 -1 L 0.828125 -1 L 0.828125 0 L 1.828125 0 Z M 1.828125 -1 "/>
</symbol>
<symbol overflow="visible" id="glyph0-3">
<path style="stroke:none;" d="M 4.5625 -6.796875 L 1.0625 -6.796875 L 0.546875 -3.09375 L 1.328125 -3.09375 C 1.71875 -3.5625 2.046875 -3.734375 2.578125 -3.734375 C 3.484375 -3.734375 4.0625 -3.109375 4.0625 -2.09375 C 4.0625 -1.125 3.484375 -0.53125 2.578125 -0.53125 C 1.828125 -0.53125 1.375 -0.90625 1.1875 -1.671875 L 0.328125 -1.671875 C 0.453125 -1.109375 0.546875 -0.84375 0.75 -0.59375 C 1.125 -0.078125 1.828125 0.21875 2.59375 0.21875 C 3.96875 0.21875 4.921875 -0.78125 4.921875 -2.21875 C 4.921875 -3.5625 4.03125 -4.484375 2.71875 -4.484375 C 2.25 -4.484375 1.859375 -4.359375 1.46875 -4.0625 L 1.734375 -5.96875 L 4.5625 -5.96875 Z M 4.5625 -6.796875 "/>
</symbol>
<symbol overflow="visible" id="glyph0-4">
<path style="stroke:none;" d="M 2.484375 -4.84375 L 2.484375 0 L 3.328125 0 L 3.328125 -6.796875 L 2.765625 -6.796875 C 2.46875 -5.75 2.28125 -5.609375 0.984375 -5.453125 L 0.984375 -4.84375 Z M 2.484375 -4.84375 "/>
</symbol>
<symbol overflow="visible" id="glyph0-5">
<path style="stroke:none;" d="M 4.859375 -0.828125 L 1.28125 -0.828125 C 1.359375 -1.390625 1.671875 -1.75 2.5 -2.234375 L 3.46875 -2.75 C 4.40625 -3.265625 4.90625 -3.96875 4.90625 -4.8125 C 4.90625 -5.375 4.671875 -5.90625 4.265625 -6.265625 C 3.859375 -6.625 3.375 -6.796875 2.71875 -6.796875 C 1.859375 -6.796875 1.21875 -6.5 0.84375 -5.921875 C 0.609375 -5.5625 0.5 -5.125 0.484375 -4.4375 L 1.328125 -4.4375 C 1.359375 -4.90625 1.40625 -5.1875 1.53125 -5.40625 C 1.75 -5.8125 2.1875 -6.0625 2.703125 -6.0625 C 3.46875 -6.0625 4.03125 -5.515625 4.03125 -4.78125 C 4.03125 -4.25 3.71875 -3.796875 3.125 -3.4375 L 2.234375 -2.9375 C 0.8125 -2.140625 0.40625 -1.5 0.328125 0 L 4.859375 0 Z M 4.859375 -0.828125 "/>
</symbol>
<symbol overflow="visible" id="glyph0-6">
<path style="stroke:none;" d="M 2.125 -3.125 L 2.578125 -3.125 C 3.515625 -3.125 3.984375 -2.703125 3.984375 -1.890625 C 3.984375 -1.03125 3.46875 -0.53125 2.578125 -0.53125 C 1.65625 -0.53125 1.203125 -0.984375 1.15625 -1.96875 L 0.3125 -1.96875 C 0.34375 -1.421875 0.4375 -1.078125 0.609375 -0.765625 C 0.953125 -0.109375 1.625 0.21875 2.546875 0.21875 C 3.953125 0.21875 4.859375 -0.609375 4.859375 -1.90625 C 4.859375 -2.765625 4.515625 -3.25 3.703125 -3.515625 C 4.34375 -3.765625 4.65625 -4.25 4.65625 -4.9375 C 4.65625 -6.109375 3.875 -6.796875 2.578125 -6.796875 C 1.203125 -6.796875 0.484375 -6.046875 0.453125 -4.609375 L 1.296875 -4.609375 C 1.3125 -5.015625 1.34375 -5.25 1.453125 -5.453125 C 1.640625 -5.828125 2.0625 -6.0625 2.59375 -6.0625 C 3.34375 -6.0625 3.796875 -5.625 3.796875 -4.90625 C 3.796875 -4.421875 3.609375 -4.140625 3.25 -3.984375 C 3.015625 -3.890625 2.71875 -3.84375 2.125 -3.84375 Z M 2.125 -3.125 "/>
</symbol>
<symbol overflow="visible" id="glyph0-7">
<path style="stroke:none;" d="M 3.140625 -1.625 L 3.140625 0 L 3.984375 0 L 3.984375 -1.625 L 4.984375 -1.625 L 4.984375 -2.390625 L 3.984375 -2.390625 L 3.984375 -6.796875 L 3.359375 -6.796875 L 0.265625 -2.515625 L 0.265625 -1.625 Z M 3.140625 -2.390625 L 1 -2.390625 L 3.140625 -5.359375 Z M 3.140625 -2.390625 "/>
</symbol>
<symbol overflow="visible" id="glyph0-8">
<path style="stroke:none;" d="M 4.78125 -5.03125 C 4.609375 -6.140625 3.890625 -6.796875 2.84375 -6.796875 C 2.09375 -6.796875 1.421875 -6.4375 1.03125 -5.828125 C 0.609375 -5.171875 0.40625 -4.34375 0.40625 -3.09375 C 0.40625 -1.953125 0.578125 -1.234375 0.984375 -0.625 C 1.359375 -0.078125 1.953125 0.21875 2.703125 0.21875 C 3.984375 0.21875 4.921875 -0.734375 4.921875 -2.078125 C 4.921875 -3.34375 4.0625 -4.234375 2.84375 -4.234375 C 2.171875 -4.234375 1.640625 -3.96875 1.28125 -3.46875 C 1.28125 -5.125 1.828125 -6.046875 2.796875 -6.046875 C 3.390625 -6.046875 3.796875 -5.671875 3.9375 -5.03125 Z M 2.734375 -3.484375 C 3.546875 -3.484375 4.0625 -2.921875 4.0625 -2 C 4.0625 -1.15625 3.484375 -0.53125 2.703125 -0.53125 C 1.921875 -0.53125 1.328125 -1.1875 1.328125 -2.046875 C 1.328125 -2.890625 1.90625 -3.484375 2.734375 -3.484375 Z M 2.734375 -3.484375 "/>
</symbol>
<symbol overflow="visible" id="glyph0-9">
<path style="stroke:none;" d="M 4.984375 -6.796875 L 0.4375 -6.796875 L 0.4375 -5.96875 L 4.109375 -5.96875 C 2.5 -3.65625 1.828125 -2.234375 1.328125 0 L 2.21875 0 C 2.59375 -2.171875 3.453125 -4.046875 4.984375 -6.09375 Z M 4.984375 -6.796875 "/>
</symbol>
<symbol overflow="visible" id="glyph0-10">
<path style="stroke:none;" d="M 3.75 -3.578125 C 4.453125 -4 4.6875 -4.34375 4.6875 -4.984375 C 4.6875 -6.046875 3.84375 -6.796875 2.640625 -6.796875 C 1.4375 -6.796875 0.59375 -6.046875 0.59375 -4.984375 C 0.59375 -4.359375 0.828125 -4.015625 1.515625 -3.578125 C 0.734375 -3.203125 0.359375 -2.640625 0.359375 -1.890625 C 0.359375 -0.640625 1.296875 0.21875 2.640625 0.21875 C 3.984375 0.21875 4.921875 -0.640625 4.921875 -1.875 C 4.921875 -2.640625 4.53125 -3.203125 3.75 -3.578125 Z M 2.640625 -6.046875 C 3.359375 -6.046875 3.8125 -5.625 3.8125 -4.96875 C 3.8125 -4.34375 3.34375 -3.921875 2.640625 -3.921875 C 1.921875 -3.921875 1.453125 -4.34375 1.453125 -4.984375 C 1.453125 -5.625 1.921875 -6.046875 2.640625 -6.046875 Z M 2.640625 -3.203125 C 3.484375 -3.203125 4.0625 -2.671875 4.0625 -1.875 C 4.0625 -1.0625 3.484375 -0.53125 2.625 -0.53125 C 1.796875 -0.53125 1.21875 -1.078125 1.21875 -1.875 C 1.21875 -2.671875 1.796875 -3.203125 2.640625 -3.203125 Z M 2.640625 -3.203125 "/>
</symbol>
<symbol overflow="visible" id="glyph0-11">
<path style="stroke:none;" d="M 0.515625 -1.546875 C 0.671875 -0.4375 1.40625 0.21875 2.4375 0.21875 C 3.1875 0.21875 3.859375 -0.140625 4.265625 -0.75 C 4.6875 -1.40625 4.890625 -2.25 4.890625 -3.484375 C 4.890625 -4.625 4.703125 -5.359375 4.3125 -5.953125 C 3.9375 -6.5 3.34375 -6.796875 2.59375 -6.796875 C 1.296875 -6.796875 0.359375 -5.84375 0.359375 -4.515625 C 0.359375 -3.25 1.234375 -2.34375 2.453125 -2.34375 C 3.09375 -2.34375 3.5625 -2.578125 4.015625 -3.109375 C 4 -1.453125 3.46875 -0.53125 2.5 -0.53125 C 1.90625 -0.53125 1.484375 -0.90625 1.359375 -1.546875 Z M 2.578125 -6.0625 C 3.375 -6.0625 3.96875 -5.40625 3.96875 -4.53125 C 3.96875 -3.6875 3.375 -3.09375 2.546875 -3.09375 C 1.734375 -3.09375 1.234375 -3.671875 1.234375 -4.578125 C 1.234375 -5.4375 1.796875 -6.0625 2.578125 -6.0625 Z M 2.578125 -6.0625 "/>
</symbol>
<symbol overflow="visible" id="glyph1-0">
<path style="stroke:none;" d=""/>
</symbol>
<symbol overflow="visible" id="glyph1-1">
<path style="stroke:none;" d="M 0 -0.953125 L 0 -4.890625 C 0 -5.71875 -0.234375 -6.34375 -0.734375 -6.796875 C -1.1875 -7.234375 -1.8125 -7.46875 -2.5 -7.46875 C -3.546875 -7.46875 -4.1875 -7 -4.625 -5.875 C -4.984375 -6.671875 -5.640625 -7.09375 -6.53125 -7.09375 C -7.15625 -7.09375 -7.734375 -6.859375 -8.140625 -6.390625 C -8.5625 -5.9375 -8.75 -5.34375 -8.75 -4.5 L -8.75 -0.953125 Z M -4.984375 -2.0625 L -7.765625 -2.0625 L -7.765625 -4.21875 C -7.765625 -4.84375 -7.6875 -5.203125 -7.453125 -5.5 C -7.21875 -5.8125 -6.859375 -5.96875 -6.375 -5.96875 C -5.90625 -5.96875 -5.53125 -5.8125 -5.296875 -5.5 C -5.0625 -5.203125 -4.984375 -4.84375 -4.984375 -4.21875 Z M -0.984375 -2.0625 L -4 -2.0625 L -4 -4.78125 C -4 -5.328125 -3.859375 -5.6875 -3.578125 -5.953125 C -3.296875 -6.21875 -2.921875 -6.359375 -2.484375 -6.359375 C -2.0625 -6.359375 -1.6875 -6.21875 -1.40625 -5.953125 C -1.109375 -5.6875 -0.984375 -5.328125 -0.984375 -4.78125 Z M -0.984375 -2.0625 "/>
</symbol>
<symbol overflow="visible" id="glyph1-2">
<path style="stroke:none;" d="M -6.28125 -1.796875 L -6.28125 -0.796875 L 0 -0.796875 L 0 -1.796875 Z M -8.75 -1.796875 L -8.75 -0.796875 L -7.484375 -0.796875 L -7.484375 -1.796875 Z M -8.75 -1.796875 "/>
</symbol>
<symbol overflow="visible" id="glyph1-3">
<path style="stroke:none;" d="M -6.28125 -3.046875 L -6.28125 -2.015625 L -8.015625 -2.015625 L -8.015625 -1.015625 L -6.28125 -1.015625 L -6.28125 -0.171875 L -5.46875 -0.171875 L -5.46875 -1.015625 L -0.71875 -1.015625 C -0.078125 -1.015625 0.28125 -1.453125 0.28125 -2.234375 C 0.28125 -2.46875 0.25 -2.71875 0.1875 -3.046875 L -0.640625 -3.046875 C -0.609375 -2.921875 -0.59375 -2.765625 -0.59375 -2.5625 C -0.59375 -2.140625 -0.71875 -2.015625 -1.15625 -2.015625 L -5.46875 -2.015625 L -5.46875 -3.046875 Z M -6.28125 -3.046875 "/>
</symbol>
<symbol overflow="visible" id="glyph1-4">
<path style="stroke:none;" d="M -4.53125 -5.25 C -5.765625 -5.25 -6.46875 -4.421875 -6.46875 -2.96875 C -6.46875 -1.515625 -5.71875 -0.5625 -4.546875 -0.5625 C -3.5625 -0.5625 -3.09375 -1.0625 -2.734375 -2.5625 L -2.515625 -3.484375 C -2.34375 -4.1875 -2.09375 -4.46875 -1.625 -4.46875 C -1.046875 -4.46875 -0.640625 -3.875 -0.640625 -3 C -0.640625 -2.453125 -0.796875 -2 -1.0625 -1.75 C -1.25 -1.59375 -1.421875 -1.53125 -1.875 -1.46875 L -1.875 -0.40625 C -0.421875 -0.453125 0.28125 -1.265625 0.28125 -2.921875 C 0.28125 -4.5 -0.5 -5.515625 -1.71875 -5.515625 C -2.65625 -5.515625 -3.171875 -4.984375 -3.46875 -3.734375 L -3.703125 -2.765625 C -3.890625 -1.953125 -4.15625 -1.609375 -4.59375 -1.609375 C -5.171875 -1.609375 -5.546875 -2.125 -5.546875 -2.9375 C -5.546875 -3.75 -5.203125 -4.171875 -4.53125 -4.203125 Z M -4.53125 -5.25 "/>
</symbol>
</g>
</defs>
<g id="surface75764">
<rect x="0" y="0" width="720" height="360" style="fill:rgb(100%,100%,100%);fill-opacity:1;stroke:none;"/>
<path style=" stroke:none;fill-rule:nonzero;fill:rgb(6.27451%,58.823529%,28.235294%);fill-opacity:1;" d="M 125.675781 294.921875 L 125.734375 294.902344 L 148.769531 277.425781 L 155.769531 277.425781 L 178.917969 294.9375 L 170.785156 294.9375 L 164.984375 290.367188 L 139.554688 290.367188 L 133.867188 294.921875 L 125.675781 294.921875 L 142 288.476562 L 162.652344 288.457031 L 152.355469 280.285156 L 152.242188 280.269531 L 152.128906 280.320312 L 141.945312 288.457031 L 142 288.476562 Z M 125.675781 294.921875 "/>
<path style=" stroke:none;fill-rule:nonzero;fill:rgb(96.862745%,70.196078%,16.862745%);fill-opacity:1;" d="M 125.675781 246.144531 L 125.742188 246.097656 L 125.742188 245.136719 L 126 242.972656 L 126.648438 239.988281 L 127.492188 237.539062 L 128.402344 235.613281 L 128.988281 234.605469 L 129.960938 233.160156 L 130.804688 232.101562 L 132.949219 229.9375 L 135.675781 227.917969 L 137.167969 227.054688 L 138.855469 226.238281 L 141.257812 225.324219 L 142.363281 224.984375 L 145.738281 224.214844 L 149.570312 223.734375 L 153.792969 223.589844 L 155.738281 223.640625 L 158.402344 223.832031 L 162.039062 224.359375 L 164.117188 224.84375 L 165.738281 225.324219 L 167.425781 225.949219 L 169.503906 226.910156 L 171.453125 228.0625 L 173.011719 229.21875 L 174.570312 230.660156 L 175.867188 232.199219 L 176.972656 233.882812 L 177.945312 235.902344 L 178.53125 237.585938 L 178.917969 239.269531 L 169.894531 239.269531 L 169.375 237.585938 L 168.789062 236.289062 L 167.816406 234.699219 L 166.84375 233.546875 L 165.867188 232.632812 L 164.050781 231.382812 L 162.492188 230.613281 L 160.542969 229.9375 L 158.660156 229.507812 L 156.519531 229.21875 L 155.21875 229.121094 L 151.777344 229.121094 L 148.660156 229.457031 L 146.84375 229.84375 L 145.542969 230.226562 L 143.726562 230.949219 L 142.621094 231.527344 L 141.972656 231.910156 L 140.027344 233.402344 L 138.726562 234.75 L 138.011719 235.660156 L 137.105469 237.105469 L 136.453125 238.402344 L 135.738281 240.328125 L 135.351562 241.769531 L 134.832031 245.039062 L 134.765625 253.695312 L 134.960938 255.523438 L 135.351562 257.496094 L 135.871094 259.226562 L 136.648438 261.054688 L 137.429688 262.449219 L 138.792969 264.324219 L 139.960938 265.574219 L 140.871094 266.390625 L 142.621094 267.691406 L 143.335938 268.121094 L 145.023438 268.988281 L 146.777344 269.660156 L 148.921875 270.238281 L 150.542969 270.527344 L 153.140625 270.765625 L 156.453125 270.765625 L 160.347656 270.480469 L 162.816406 270.09375 L 164.503906 269.710938 L 165.609375 269.371094 L 166.972656 268.84375 L 167.945312 268.363281 L 168.855469 267.835938 L 169.960938 267.015625 L 169.960938 255.523438 L 153.921875 255.476562 L 153.921875 250.089844 L 178.855469 250.039062 L 178.917969 268.84375 L 177.554688 270.140625 L 175.867188 271.394531 L 174.246094 272.355469 L 172.554688 273.171875 L 170.152344 274.085938 L 168.207031 274.664062 L 165.21875 275.335938 L 162.492188 275.769531 L 159.636719 276.058594 L 157.101562 276.203125 L 154.117188 276.25 L 151.453125 276.152344 L 148.597656 275.863281 L 146.324219 275.480469 L 144.246094 275 L 142.167969 274.375 L 139.570312 273.363281 L 137.882812 272.546875 L 136.128906 271.535156 L 134.375 270.335938 L 132.816406 269.035156 L 131.777344 268.027344 L 130.742188 266.871094 L 129.636719 265.429688 L 128.597656 263.792969 L 127.820312 262.304688 L 127.105469 260.621094 L 126.585938 259.035156 L 126.066406 256.871094 L 125.804688 255.136719 L 125.675781 253.648438 Z M 125.675781 246.144531 "/>
<path style=" stroke:none;fill-rule:nonzero;fill:rgb(83.921569%,15.686275%,22.352941%);fill-opacity:1;" d="M 125.675781 296.113281 L 178.917969 296.113281 L 178.917969 297.941406 L 156.730469 297.957031 L 156.730469 313.195312 L 147.800781 313.195312 L 147.800781 297.972656 L 147.671875 297.941406 L 125.675781 297.941406 Z M 125.675781 296.113281 "/>
<path style=" stroke:none;fill-rule:nonzero;fill:rgb(6.27451%,58.823529%,28.235294%);fill-opacity:1;" d="M 181.722656 313.183594 L 181.777344 313.171875 L 204.816406 301.082031 L 211.8125 301.082031 L 234.964844 313.195312 L 226.832031 313.195312 L 221.03125 310.035156 L 195.601562 310.035156 L 189.914062 313.183594 L 181.722656 313.183594 L 198.046875 308.726562 L 218.695312 308.714844 L 208.402344 303.058594 L 208.289062 303.050781 L 208.171875 303.082031 L 197.992188 308.714844 L 198.046875 308.726562 Z M 181.722656 313.183594 "/>
<path style=" stroke:none;fill-rule:nonzero;fill:rgb(14.509804%,36.078431%,60%);fill-opacity:1;" d="M 181.722656 286.285156 L 181.785156 286.261719 L 181.785156 285.734375 L 181.980469 284.898438 L 182.4375 283.839844 L 182.890625 283.113281 L 184.058594 281.8125 L 185.683594 280.554688 L 187.371094 279.585938 L 188.605469 279.011719 L 189.707031 278.570312 L 192.242188 277.753906 L 193.863281 277.335938 L 195.617188 276.960938 L 197.761719 276.585938 L 199.320312 276.367188 L 202.824219 276.015625 L 205.421875 275.859375 L 207.433594 275.792969 L 211.785156 275.792969 L 214.382812 275.882812 L 216.265625 275.992188 L 218.34375 276.167969 L 220.097656 276.367188 L 223.148438 276.851562 L 225.875 277.46875 L 227.109375 277.820312 L 229.058594 278.503906 L 230.550781 279.167969 L 231.589844 279.738281 L 232.757812 280.554688 L 233.796875 281.546875 L 234.578125 282.671875 L 234.964844 283.617188 L 225.875 283.617188 L 225.421875 282.738281 L 224.902344 282.054688 L 223.925781 281.148438 L 222.953125 280.511719 L 221.589844 279.871094 L 220.355469 279.453125 L 218.667969 279.035156 L 217.175781 278.769531 L 215.617188 278.570312 L 214.121094 278.4375 L 211.265625 278.304688 L 207.953125 278.304688 L 206.722656 278.351562 L 204.1875 278.527344 L 202.824219 278.679688 L 200.875 278.988281 L 199.511719 279.277344 L 197.890625 279.71875 L 196.785156 280.09375 L 195.421875 280.664062 L 194.449219 281.171875 L 193.34375 281.898438 L 192.695312 282.449219 L 192.109375 283.066406 L 191.589844 283.792969 L 191.203125 284.566406 L 190.941406 285.382812 L 190.8125 286.175781 L 190.8125 289.589844 L 190.941406 290.386719 L 191.265625 291.308594 L 192.109375 292.65625 L 193.34375 293.824219 L 194.773438 294.75 L 196.136719 295.410156 L 196.917969 295.71875 L 197.953125 296.070312 L 199.578125 296.511719 L 201.914062 296.953125 L 203.28125 297.128906 L 205.355469 297.304688 L 207.5 297.394531 L 210.355469 297.394531 L 212.890625 297.304688 L 214.578125 297.195312 L 216.332031 297.019531 L 218.734375 296.644531 L 220.226562 296.292969 L 221.523438 295.871094 L 222.5 295.453125 L 223.148438 295.101562 L 224.121094 294.417969 L 224.902344 293.667969 L 225.484375 292.898438 L 225.875 292.148438 L 234.964844 292.148438 L 234.578125 293.03125 L 233.992188 293.890625 L 233.40625 294.527344 L 232.5 295.300781 L 231.460938 295.984375 L 229.964844 296.753906 L 228.734375 297.261719 L 227.109375 297.8125 L 225.617188 298.230469 L 223.992188 298.605469 L 221.589844 299.046875 L 220.03125 299.265625 L 218.34375 299.464844 L 216.332031 299.640625 L 213.796875 299.796875 L 211.070312 299.882812 L 208.539062 299.90625 L 205.8125 299.863281 L 203.800781 299.773438 L 201.136719 299.574219 L 197.824219 299.179688 L 195.421875 298.761719 L 193.539062 298.339844 L 191.917969 297.902344 L 190.097656 297.304688 L 187.761719 296.335938 L 186.332031 295.585938 L 185.359375 294.96875 L 184.253906 294.109375 L 183.476562 293.339844 L 182.566406 292.105469 L 181.917969 290.539062 L 181.722656 289.328125 Z M 181.722656 286.285156 "/>
<path style=" stroke:none;fill-rule:nonzero;fill:rgb(96.862745%,70.196078%,16.862745%);fill-opacity:1;" d="M 181.722656 241.472656 L 181.785156 241.417969 L 181.785156 240.359375 L 182.046875 237.976562 L 182.695312 234.695312 L 183.539062 231.992188 L 184.449219 229.875 L 185.035156 228.761719 L 186.007812 227.175781 L 186.851562 226.007812 L 188.996094 223.625 L 191.722656 221.402344 L 193.214844 220.449219 L 194.902344 219.550781 L 197.304688 218.542969 L 198.410156 218.171875 L 201.785156 217.324219 L 205.617188 216.796875 L 209.835938 216.636719 L 211.785156 216.691406 L 214.449219 216.902344 L 218.082031 217.484375 L 220.160156 218.015625 L 221.785156 218.542969 L 223.472656 219.230469 L 225.550781 220.289062 L 227.5 221.5625 L 229.058594 222.832031 L 230.617188 224.421875 L 231.914062 226.117188 L 233.019531 227.96875 L 233.992188 230.191406 L 234.578125 232.046875 L 234.964844 233.898438 L 225.941406 233.898438 L 225.421875 232.046875 L 224.835938 230.617188 L 223.863281 228.867188 L 222.890625 227.597656 L 221.914062 226.59375 L 220.097656 225.214844 L 218.539062 224.367188 L 216.589844 223.625 L 214.707031 223.148438 L 212.566406 222.832031 L 211.265625 222.726562 L 207.824219 222.726562 L 204.707031 223.097656 L 202.890625 223.519531 L 201.589844 223.945312 L 199.773438 224.738281 L 198.667969 225.375 L 198.019531 225.796875 L 196.070312 227.4375 L 194.773438 228.921875 L 194.058594 229.929688 L 193.148438 231.515625 L 192.5 232.945312 L 191.785156 235.0625 L 191.398438 236.652344 L 190.878906 240.253906 L 190.8125 249.785156 L 191.007812 251.796875 L 191.398438 253.96875 L 191.917969 255.875 L 192.695312 257.886719 L 193.476562 259.421875 L 194.839844 261.488281 L 196.007812 262.863281 L 196.917969 263.765625 L 198.667969 265.195312 L 199.382812 265.671875 L 201.070312 266.625 L 202.824219 267.363281 L 204.96875 268 L 206.589844 268.316406 L 209.1875 268.582031 L 212.5 268.582031 L 216.394531 268.265625 L 218.863281 267.839844 L 220.550781 267.417969 L 221.65625 267.046875 L 223.019531 266.464844 L 223.992188 265.933594 L 224.902344 265.351562 L 226.003906 264.453125 L 226.003906 251.796875 L 209.96875 251.742188 L 209.96875 245.8125 L 234.902344 245.761719 L 234.964844 266.464844 L 233.601562 267.894531 L 231.914062 269.269531 L 230.292969 270.328125 L 228.601562 271.230469 L 226.199219 272.238281 L 224.253906 272.871094 L 221.265625 273.613281 L 218.539062 274.089844 L 215.679688 274.40625 L 213.148438 274.566406 L 210.164062 274.621094 L 207.5 274.511719 L 204.644531 274.195312 L 202.371094 273.773438 L 200.292969 273.242188 L 198.214844 272.554688 L 195.617188 271.441406 L 193.929688 270.542969 L 192.175781 269.429688 L 190.421875 268.105469 L 188.863281 266.675781 L 187.824219 265.5625 L 186.785156 264.292969 L 185.683594 262.703125 L 184.644531 260.90625 L 183.863281 259.261719 L 183.152344 257.410156 L 182.632812 255.664062 L 182.113281 253.28125 L 181.851562 251.375 L 181.722656 249.730469 Z M 181.722656 241.472656 "/>
<path style=" stroke:none;fill-rule:nonzero;fill:rgb(96.862745%,70.196078%,16.862745%);fill-opacity:1;" d="M 237.769531 145.957031 L 237.832031 145.691406 L 237.832031 140.347656 L 238.09375 128.324219 L 238.742188 111.761719 L 239.585938 98.136719 L 240.496094 87.453125 L 241.078125 81.839844 L 242.054688 73.828125 L 242.898438 67.949219 L 245.039062 55.925781 L 247.769531 44.707031 L 249.261719 39.898438 L 250.949219 35.355469 L 253.351562 30.28125 L 254.457031 28.410156 L 257.832031 24.136719 L 261.664062 21.464844 L 265.882812 20.664062 L 267.832031 20.929688 L 270.492188 22 L 274.128906 24.9375 L 276.207031 27.609375 L 277.832031 30.28125 L 279.519531 33.753906 L 281.597656 39.097656 L 283.546875 45.507812 L 285.105469 51.917969 L 286.660156 59.933594 L 287.960938 68.484375 L 289.066406 77.832031 L 290.039062 89.054688 L 290.621094 98.40625 L 291.011719 107.753906 L 281.988281 107.753906 L 281.46875 98.40625 L 280.882812 91.191406 L 279.910156 82.375 L 278.933594 75.964844 L 277.960938 70.886719 L 276.144531 63.941406 L 274.585938 59.667969 L 272.636719 55.925781 L 270.753906 53.523438 L 268.609375 51.917969 L 267.3125 51.386719 L 263.871094 51.386719 L 260.753906 53.253906 L 258.9375 55.394531 L 257.636719 57.53125 L 255.820312 61.539062 L 254.714844 64.742188 L 254.066406 66.878906 L 252.117188 75.164062 L 250.820312 82.640625 L 250.105469 87.71875 L 249.195312 95.734375 L 248.546875 102.945312 L 247.832031 113.632812 L 247.441406 121.648438 L 246.921875 139.8125 L 246.859375 187.902344 L 247.054688 198.054688 L 247.441406 209.007812 L 247.960938 218.625 L 248.742188 228.773438 L 249.519531 236.523438 L 250.882812 246.941406 L 252.054688 253.886719 L 252.960938 258.429688 L 254.714844 265.640625 L 255.429688 268.046875 L 257.117188 272.855469 L 258.871094 276.597656 L 261.015625 279.800781 L 262.636719 281.40625 L 265.234375 282.742188 L 268.546875 282.742188 L 272.441406 281.136719 L 274.910156 279 L 276.597656 276.863281 L 277.703125 274.992188 L 279.066406 272.054688 L 280.039062 269.382812 L 280.949219 266.445312 L 282.050781 261.902344 L 282.050781 198.054688 L 266.015625 197.785156 L 266.015625 167.863281 L 290.949219 167.597656 L 291.011719 272.054688 L 289.648438 279.265625 L 287.960938 286.214844 L 286.335938 291.554688 L 284.648438 296.097656 L 282.246094 301.175781 L 280.296875 304.378906 L 277.3125 308.121094 L 274.585938 310.523438 L 271.726562 312.128906 L 269.195312 312.929688 L 266.207031 313.195312 L 263.546875 312.660156 L 260.6875 311.058594 L 258.417969 308.921875 L 256.339844 306.25 L 254.261719 302.777344 L 251.664062 297.167969 L 249.976562 292.625 L 248.222656 287.015625 L 246.46875 280.335938 L 244.910156 273.121094 L 243.871094 267.511719 L 242.832031 261.101562 L 241.730469 253.085938 L 240.691406 244.003906 L 239.910156 235.722656 L 239.195312 226.371094 L 238.675781 217.554688 L 238.15625 205.53125 L 237.898438 195.914062 L 237.769531 187.632812 Z M 237.769531 145.957031 "/>
<path style=" stroke:none;fill-rule:nonzero;fill:rgb(14.509804%,36.078431%,60%);fill-opacity:1;" d="M 293.816406 147.945312 L 293.878906 147.675781 L 293.878906 141.257812 L 294.074219 131.097656 L 294.527344 118.261719 L 294.984375 109.4375 L 296.152344 93.664062 L 297.777344 78.421875 L 299.464844 66.65625 L 300.699219 59.703125 L 301.800781 54.355469 L 304.332031 44.460938 L 305.957031 39.378906 L 307.710938 34.835938 L 309.851562 30.289062 L 311.410156 27.617188 L 314.917969 23.335938 L 317.515625 21.464844 L 319.527344 20.664062 L 323.878906 20.664062 L 326.476562 21.734375 L 328.359375 23.070312 L 330.4375 25.207031 L 332.191406 27.617188 L 335.242188 33.5 L 337.96875 40.984375 L 339.203125 45.261719 L 341.148438 53.554688 L 342.644531 61.574219 L 343.683594 68.527344 L 344.851562 78.421875 L 345.890625 90.453125 L 346.667969 104.089844 L 347.058594 115.589844 L 337.96875 115.589844 L 337.515625 104.894531 L 336.996094 96.605469 L 336.019531 85.640625 L 335.046875 77.886719 L 333.683594 70.132812 L 332.449219 65.050781 L 330.761719 59.96875 L 329.265625 56.761719 L 327.710938 54.355469 L 326.214844 52.75 L 323.359375 51.144531 L 320.046875 51.144531 L 318.8125 51.679688 L 316.28125 53.820312 L 314.917969 55.691406 L 312.96875 59.4375 L 311.605469 62.910156 L 309.984375 68.257812 L 308.878906 72.804688 L 307.515625 79.757812 L 306.542969 85.90625 L 305.4375 94.730469 L 304.789062 101.417969 L 304.203125 108.902344 L 303.683594 117.726562 L 303.292969 127.085938 L 303.035156 136.980469 L 302.90625 146.605469 L 302.90625 188.054688 L 303.035156 197.679688 L 303.359375 208.910156 L 304.203125 225.222656 L 305.4375 239.394531 L 306.867188 250.625 L 308.230469 258.648438 L 309.007812 262.390625 L 310.046875 266.667969 L 311.671875 272.015625 L 314.007812 277.363281 L 315.371094 279.503906 L 317.449219 281.644531 L 319.59375 282.710938 L 322.449219 282.710938 L 324.980469 281.644531 L 326.671875 280.304688 L 328.421875 278.167969 L 330.824219 273.621094 L 332.320312 269.34375 L 333.617188 264.261719 L 334.59375 259.179688 L 335.242188 254.902344 L 336.214844 246.613281 L 336.996094 237.523438 L 337.578125 228.164062 L 337.96875 219.070312 L 347.058594 219.070312 L 346.667969 229.769531 L 346.085938 240.195312 L 345.5 247.949219 L 344.589844 257.308594 L 343.550781 265.597656 L 342.058594 274.957031 L 340.824219 281.109375 L 339.203125 287.792969 L 337.707031 292.875 L 336.085938 297.417969 L 333.683594 302.765625 L 332.125 305.441406 L 330.4375 307.847656 L 328.421875 309.988281 L 325.890625 311.859375 L 323.164062 312.929688 L 320.632812 313.195312 L 317.90625 312.660156 L 315.890625 311.589844 L 313.230469 309.183594 L 309.917969 304.371094 L 307.515625 299.292969 L 305.632812 294.210938 L 304.007812 288.863281 L 302.191406 281.644531 L 299.851562 269.878906 L 298.425781 260.785156 L 297.449219 253.296875 L 296.347656 242.871094 L 295.566406 233.511719 L 294.660156 218.539062 L 294.007812 199.550781 L 293.816406 184.84375 Z M 293.816406 147.945312 "/>
<path style=" stroke:none;fill-rule:nonzero;fill:rgb(96.862745%,70.196078%,16.862745%);fill-opacity:1;" d="M 349.859375 145.957031 L 349.925781 145.691406 L 349.925781 140.347656 L 350.1875 128.324219 L 350.835938 111.761719 L 351.679688 98.136719 L 352.589844 87.453125 L 353.171875 81.839844 L 354.148438 73.828125 L 354.992188 67.949219 L 357.132812 55.925781 L 359.859375 44.707031 L 361.355469 39.898438 L 363.042969 35.355469 L 365.445312 30.28125 L 366.546875 28.410156 L 369.925781 24.136719 L 373.757812 21.464844 L 377.976562 20.664062 L 379.925781 20.929688 L 382.585938 22 L 386.222656 24.9375 L 388.300781 27.609375 L 389.925781 30.28125 L 391.613281 33.753906 L 393.691406 39.097656 L 395.636719 45.507812 L 397.195312 51.917969 L 398.753906 59.933594 L 400.054688 68.484375 L 401.15625 77.832031 L 402.132812 89.054688 L 402.714844 98.40625 L 403.105469 107.753906 L 394.078125 107.753906 L 393.558594 98.40625 L 392.976562 91.191406 L 392 82.375 L 391.027344 75.964844 L 390.054688 70.886719 L 388.234375 63.941406 L 386.675781 59.667969 L 384.730469 55.925781 L 382.847656 53.523438 L 380.703125 51.917969 L 379.40625 51.386719 L 375.964844 51.386719 L 372.847656 53.253906 L 371.027344 55.394531 L 369.730469 57.53125 L 367.914062 61.539062 L 366.808594 64.742188 L 366.160156 66.878906 L 364.210938 75.164062 L 362.914062 82.640625 L 362.199219 87.71875 L 361.289062 95.734375 L 360.640625 102.945312 L 359.925781 113.632812 L 359.535156 121.648438 L 359.015625 139.8125 L 358.953125 187.902344 L 359.144531 198.054688 L 359.535156 209.007812 L 360.054688 218.625 L 360.835938 228.773438 L 361.613281 236.523438 L 362.976562 246.941406 L 364.144531 253.886719 L 365.054688 258.429688 L 366.808594 265.640625 L 367.523438 268.046875 L 369.210938 272.855469 L 370.964844 276.597656 L 373.105469 279.800781 L 374.730469 281.40625 L 377.328125 282.742188 L 380.640625 282.742188 L 384.535156 281.136719 L 387.003906 279 L 388.691406 276.863281 L 389.792969 274.992188 L 391.15625 272.054688 L 392.132812 269.382812 L 393.039062 266.445312 L 394.144531 261.902344 L 394.144531 198.054688 L 378.105469 197.785156 L 378.105469 167.863281 L 403.039062 167.597656 L 403.105469 272.054688 L 401.742188 279.265625 L 400.054688 286.214844 L 398.429688 291.554688 L 396.742188 296.097656 L 394.339844 301.175781 L 392.390625 304.378906 L 389.40625 308.121094 L 386.675781 310.523438 L 383.820312 312.128906 L 381.289062 312.929688 L 378.300781 313.195312 L 375.640625 312.660156 L 372.78125 311.058594 L 370.507812 308.921875 L 368.433594 306.25 L 366.355469 302.777344 L 363.757812 297.167969 L 362.066406 292.625 L 360.316406 287.015625 L 358.5625 280.335938 L 357.003906 273.121094 L 355.964844 267.511719 L 354.925781 261.101562 L 353.820312 253.085938 L 352.78125 244.003906 L 352.003906 235.722656 L 351.289062 226.371094 L 350.769531 217.554688 L 350.25 205.53125 L 349.992188 195.914062 L 349.859375 187.632812 Z M 349.859375 145.957031 "/>
<path style=" stroke:none;fill-rule:nonzero;fill:rgb(14.509804%,36.078431%,60%);fill-opacity:1;" d="M 405.90625 284.886719 L 405.972656 284.839844 L 405.972656 283.738281 L 406.167969 282 L 406.621094 279.800781 L 407.078125 278.289062 L 408.246094 275.585938 L 409.867188 272.972656 L 411.554688 270.957031 L 412.789062 269.765625 L 413.894531 268.851562 L 416.425781 267.15625 L 418.050781 266.285156 L 419.804688 265.507812 L 421.945312 264.726562 L 423.503906 264.269531 L 427.011719 263.535156 L 429.609375 263.214844 L 431.621094 263.078125 L 435.972656 263.078125 L 438.566406 263.261719 L 440.453125 263.492188 L 442.527344 263.859375 L 444.28125 264.269531 L 447.335938 265.277344 L 450.0625 266.558594 L 451.292969 267.292969 L 453.242188 268.714844 L 454.734375 270.089844 L 455.773438 271.277344 L 456.945312 272.972656 L 457.984375 275.035156 L 458.761719 277.371094 L 459.152344 279.339844 L 450.0625 279.339844 L 449.605469 277.507812 L 449.085938 276.089844 L 448.113281 274.210938 L 447.140625 272.882812 L 445.777344 271.554688 L 444.542969 270.683594 L 442.855469 269.8125 L 441.359375 269.261719 L 439.800781 268.851562 L 438.308594 268.578125 L 435.453125 268.300781 L 432.140625 268.300781 L 430.90625 268.394531 L 428.375 268.757812 L 427.011719 269.082031 L 425.0625 269.722656 L 423.699219 270.316406 L 422.074219 271.234375 L 420.972656 272.011719 L 419.609375 273.203125 L 418.632812 274.257812 L 417.53125 275.769531 L 416.882812 276.914062 L 416.296875 278.195312 L 415.777344 279.707031 L 415.386719 281.3125 L 415.128906 283.007812 L 414.996094 284.65625 L 414.996094 291.757812 L 415.128906 293.40625 L 415.453125 295.328125 L 416.296875 298.125 L 417.53125 300.550781 L 418.957031 302.476562 L 420.324219 303.851562 L 421.101562 304.492188 L 422.140625 305.226562 L 423.765625 306.140625 L 426.101562 307.058594 L 427.464844 307.421875 L 429.542969 307.789062 L 431.683594 307.972656 L 434.542969 307.972656 L 437.074219 307.789062 L 438.761719 307.5625 L 440.515625 307.195312 L 442.917969 306.414062 L 444.410156 305.683594 L 445.710938 304.8125 L 446.683594 303.941406 L 447.335938 303.210938 L 448.308594 301.789062 L 449.085938 300.230469 L 449.671875 298.628906 L 450.0625 297.070312 L 459.152344 297.070312 L 458.761719 298.902344 L 458.175781 300.691406 L 457.59375 302.019531 L 456.683594 303.621094 L 455.644531 305.042969 L 454.152344 306.644531 L 452.917969 307.699219 L 451.292969 308.84375 L 449.800781 309.714844 L 448.179688 310.492188 L 445.777344 311.410156 L 444.21875 311.867188 L 442.527344 312.28125 L 440.515625 312.644531 L 437.984375 312.964844 L 435.257812 313.148438 L 432.722656 313.195312 L 429.996094 313.105469 L 427.984375 312.921875 L 425.320312 312.507812 L 422.011719 311.683594 L 419.609375 310.8125 L 417.726562 309.941406 L 416.101562 309.027344 L 414.285156 307.789062 L 411.945312 305.773438 L 410.519531 304.21875 L 409.542969 302.933594 L 408.441406 301.148438 L 407.660156 299.542969 L 406.75 296.980469 L 406.101562 293.726562 L 405.90625 291.207031 Z M 405.90625 284.886719 "/>
<path style=" stroke:none;fill-rule:nonzero;fill:rgb(96.862745%,70.196078%,16.862745%);fill-opacity:1;" d="M 405.90625 199.753906 L 405.972656 199.652344 L 405.972656 197.667969 L 406.230469 193.199219 L 406.882812 187.046875 L 407.726562 181.980469 L 408.632812 178.011719 L 409.21875 175.925781 L 410.191406 172.945312 L 411.039062 170.761719 L 413.179688 166.296875 L 415.90625 162.125 L 417.402344 160.339844 L 419.089844 158.648438 L 421.492188 156.765625 L 422.59375 156.070312 L 425.972656 154.480469 L 429.800781 153.488281 L 434.023438 153.191406 L 435.972656 153.289062 L 438.632812 153.6875 L 442.269531 154.777344 L 444.347656 155.769531 L 445.96875 156.765625 L 447.660156 158.054688 L 449.738281 160.039062 L 451.683594 162.421875 L 453.242188 164.804688 L 454.800781 167.785156 L 456.101562 170.960938 L 457.203125 174.4375 L 458.175781 178.605469 L 458.761719 182.082031 L 459.152344 185.554688 L 450.125 185.554688 L 449.605469 182.082031 L 449.023438 179.398438 L 448.046875 176.125 L 447.074219 173.742188 L 446.101562 171.855469 L 444.28125 169.273438 L 442.722656 167.683594 L 440.777344 166.296875 L 438.894531 165.402344 L 436.75 164.804688 L 435.453125 164.605469 L 432.011719 164.605469 L 428.894531 165.300781 L 427.074219 166.097656 L 425.777344 166.890625 L 423.957031 168.378906 L 422.855469 169.570312 L 422.207031 170.367188 L 420.257812 173.445312 L 418.957031 176.222656 L 418.246094 178.109375 L 417.335938 181.089844 L 416.6875 183.769531 L 415.972656 187.738281 L 415.582031 190.71875 L 415.0625 197.46875 L 414.996094 215.339844 L 415.191406 219.113281 L 415.582031 223.183594 L 416.101562 226.757812 L 416.882812 230.53125 L 417.660156 233.410156 L 419.023438 237.28125 L 420.191406 239.863281 L 421.101562 241.550781 L 422.855469 244.230469 L 423.570312 245.125 L 425.257812 246.914062 L 427.011719 248.300781 L 429.152344 249.492188 L 430.777344 250.089844 L 433.375 250.585938 L 436.683594 250.585938 L 440.582031 249.988281 L 443.046875 249.195312 L 444.738281 248.402344 L 445.839844 247.707031 L 447.203125 246.613281 L 448.179688 245.621094 L 449.085938 244.53125 L 450.191406 242.84375 L 450.191406 219.113281 L 434.152344 219.015625 L 434.152344 207.894531 L 459.085938 207.796875 L 459.152344 246.613281 L 457.789062 249.296875 L 456.101562 251.875 L 454.476562 253.863281 L 452.789062 255.550781 L 450.386719 257.4375 L 448.4375 258.628906 L 445.449219 260.019531 L 442.722656 260.910156 L 439.867188 261.507812 L 437.335938 261.804688 L 434.347656 261.902344 L 431.683594 261.707031 L 428.828125 261.109375 L 426.554688 260.316406 L 424.476562 259.324219 L 422.398438 258.03125 L 419.804688 255.945312 L 418.113281 254.257812 L 416.363281 252.175781 L 414.609375 249.691406 L 413.050781 247.011719 L 412.011719 244.925781 L 410.972656 242.542969 L 409.867188 239.566406 L 408.828125 236.191406 L 408.050781 233.113281 L 407.335938 229.636719 L 406.816406 226.359375 L 406.296875 221.894531 L 406.039062 218.320312 L 405.90625 215.242188 Z M 405.90625 199.753906 "/>
<path style=" stroke:none;fill-rule:nonzero;fill:rgb(14.509804%,36.078431%,60%);fill-opacity:1;" d="M 461.953125 287.90625 L 462.019531 287.863281 L 462.019531 286.882812 L 462.214844 285.328125 L 462.667969 283.363281 L 463.121094 282.011719 L 464.292969 279.597656 L 465.914062 277.265625 L 467.601562 275.464844 L 468.835938 274.402344 L 469.941406 273.582031 L 472.472656 272.070312 L 474.097656 271.292969 L 475.847656 270.59375 L 477.992188 269.898438 L 479.550781 269.492188 L 483.058594 268.835938 L 485.652344 268.550781 L 487.667969 268.425781 L 492.015625 268.425781 L 494.613281 268.589844 L 496.496094 268.796875 L 498.574219 269.121094 L 500.328125 269.492188 L 503.378906 270.390625 L 506.109375 271.535156 L 507.339844 272.191406 L 509.289062 273.460938 L 510.78125 274.6875 L 511.820312 275.75 L 512.992188 277.265625 L 514.027344 279.105469 L 514.808594 281.195312 L 515.199219 282.953125 L 506.109375 282.953125 L 505.652344 281.316406 L 505.132812 280.046875 L 504.160156 278.371094 L 503.1875 277.183594 L 501.820312 275.996094 L 500.589844 275.21875 L 498.898438 274.441406 L 497.40625 273.949219 L 495.847656 273.582031 L 494.355469 273.335938 L 491.496094 273.089844 L 488.1875 273.089844 L 486.953125 273.171875 L 484.421875 273.5 L 483.058594 273.789062 L 481.109375 274.359375 L 479.746094 274.890625 L 478.121094 275.710938 L 477.019531 276.40625 L 475.65625 277.46875 L 474.679688 278.410156 L 473.578125 279.761719 L 472.925781 280.785156 L 472.34375 281.929688 L 471.824219 283.28125 L 471.433594 284.714844 L 471.175781 286.226562 L 471.042969 287.699219 L 471.042969 294.042969 L 471.175781 295.515625 L 471.5 297.234375 L 472.34375 299.730469 L 473.578125 301.902344 L 475.003906 303.621094 L 476.367188 304.847656 L 477.148438 305.421875 L 478.1875 306.074219 L 479.808594 306.894531 L 482.148438 307.710938 L 483.511719 308.039062 L 485.589844 308.367188 L 487.730469 308.53125 L 490.589844 308.53125 L 493.121094 308.367188 L 494.808594 308.164062 L 496.5625 307.835938 L 498.964844 307.140625 L 500.457031 306.484375 L 501.757812 305.707031 L 502.730469 304.929688 L 503.378906 304.273438 L 504.355469 303.007812 L 505.132812 301.613281 L 505.71875 300.183594 L 506.109375 298.792969 L 515.199219 298.792969 L 514.808594 300.429688 L 514.222656 302.023438 L 513.640625 303.210938 L 512.730469 304.644531 L 511.691406 305.910156 L 510.199219 307.34375 L 508.964844 308.285156 L 507.339844 309.308594 L 505.847656 310.085938 L 504.222656 310.78125 L 501.820312 311.601562 L 500.261719 312.007812 L 498.574219 312.378906 L 496.5625 312.703125 L 494.03125 312.992188 L 491.304688 313.15625 L 488.769531 313.195312 L 486.042969 313.113281 L 484.03125 312.949219 L 481.367188 312.582031 L 478.058594 311.84375 L 475.65625 311.066406 L 473.769531 310.289062 L 472.148438 309.472656 L 470.332031 308.367188 L 467.992188 306.566406 L 466.5625 305.175781 L 465.589844 304.027344 L 464.484375 302.433594 L 463.707031 301 L 462.796875 298.710938 L 462.148438 295.804688 L 461.953125 293.554688 Z M 461.953125 287.90625 "/>
<path style=" stroke:none;fill-rule:nonzero;fill:rgb(96.862745%,70.196078%,16.862745%);fill-opacity:1;" d="M 461.953125 196.933594 L 462.019531 196.820312 L 462.019531 194.574219 L 462.277344 189.519531 L 462.929688 182.554688 L 463.773438 176.824219 L 464.679688 172.332031 L 465.265625 169.972656 L 466.238281 166.601562 L 467.082031 164.132812 L 469.226562 159.078125 L 471.953125 154.359375 L 473.445312 152.335938 L 475.136719 150.425781 L 477.539062 148.292969 L 478.640625 147.507812 L 482.019531 145.710938 L 485.847656 144.585938 L 490.070312 144.25 L 492.015625 144.363281 L 494.679688 144.8125 L 498.316406 146.046875 L 500.394531 147.167969 L 502.015625 148.292969 L 503.703125 149.753906 L 505.78125 152 L 507.730469 154.695312 L 509.289062 157.390625 L 510.847656 160.761719 L 512.144531 164.355469 L 513.25 168.289062 L 514.222656 173.007812 L 514.808594 176.9375 L 515.199219 180.871094 L 506.171875 180.871094 L 505.652344 176.9375 L 505.070312 173.90625 L 504.09375 170.199219 L 503.121094 167.5 L 502.148438 165.367188 L 500.328125 162.445312 L 498.769531 160.648438 L 496.820312 159.078125 L 494.9375 158.066406 L 492.796875 157.390625 L 491.496094 157.167969 L 488.054688 157.167969 L 484.941406 157.953125 L 483.121094 158.851562 L 481.824219 159.75 L 480.003906 161.4375 L 478.902344 162.785156 L 478.25 163.683594 L 476.304688 167.164062 L 475.003906 170.308594 L 474.289062 172.445312 L 473.382812 175.8125 L 472.734375 178.847656 L 472.019531 183.339844 L 471.628906 186.710938 L 471.109375 194.347656 L 471.042969 214.570312 L 471.238281 218.835938 L 471.628906 223.441406 L 472.148438 227.488281 L 472.925781 231.753906 L 473.707031 235.011719 L 475.070312 239.394531 L 476.238281 242.3125 L 477.148438 244.222656 L 478.902344 247.257812 L 479.617188 248.269531 L 481.304688 250.289062 L 483.058594 251.863281 L 485.199219 253.210938 L 486.824219 253.882812 L 489.421875 254.445312 L 492.730469 254.445312 L 496.628906 253.773438 L 499.09375 252.875 L 500.78125 251.976562 L 501.886719 251.1875 L 503.25 249.953125 L 504.222656 248.828125 L 505.132812 247.59375 L 506.238281 245.683594 L 506.238281 218.835938 L 490.199219 218.726562 L 490.199219 206.144531 L 515.132812 206.03125 L 515.199219 249.953125 L 513.835938 252.984375 L 512.144531 255.90625 L 510.523438 258.152344 L 508.835938 260.0625 L 506.433594 262.195312 L 504.484375 263.542969 L 501.496094 265.117188 L 498.769531 266.128906 L 495.914062 266.800781 L 493.382812 267.140625 L 490.394531 267.25 L 487.730469 267.027344 L 484.875 266.351562 L 482.601562 265.453125 L 480.523438 264.332031 L 478.445312 262.871094 L 475.847656 260.511719 L 474.160156 258.601562 L 472.40625 256.242188 L 470.65625 253.433594 L 469.097656 250.402344 L 468.058594 248.042969 L 467.019531 245.347656 L 465.914062 241.976562 L 464.875 238.15625 L 464.097656 234.675781 L 463.382812 230.746094 L 462.863281 227.039062 L 462.34375 221.980469 L 462.082031 217.9375 L 461.953125 214.457031 Z M 461.953125 196.933594 "/>
<path style=" stroke:none;fill-rule:nonzero;fill:rgb(6.27451%,58.823529%,28.235294%);fill-opacity:1;" d="M 518 312.921875 L 518.058594 312.644531 L 541.09375 20.664062 L 548.09375 20.664062 L 571.246094 313.195312 L 563.109375 313.195312 L 557.308594 236.835938 L 531.878906 236.835938 L 526.191406 312.921875 L 518 312.921875 L 534.324219 205.246094 L 554.976562 204.972656 L 544.679688 68.457031 L 544.566406 68.183594 L 544.453125 69.007812 L 534.269531 204.972656 L 534.324219 205.246094 Z M 518 312.921875 "/>
<path style=" stroke:none;fill-rule:nonzero;fill:rgb(6.27451%,58.823529%,28.235294%);fill-opacity:1;" d="M 574.046875 313.128906 L 574.101562 313.066406 L 597.140625 243.839844 L 604.136719 243.839844 L 627.289062 313.195312 L 619.15625 313.195312 L 613.355469 295.09375 L 587.925781 295.09375 L 582.238281 313.128906 L 574.046875 313.128906 L 590.371094 287.601562 L 611.023438 287.539062 L 600.726562 255.171875 L 600.613281 255.105469 L 600.496094 255.304688 L 590.316406 287.539062 L 590.371094 287.601562 Z M 574.046875 313.128906 "/>
<path style=" stroke:none;fill-rule:nonzero;fill:rgb(96.862745%,70.196078%,16.862745%);fill-opacity:1;" d="M 574.046875 199.605469 L 574.113281 199.535156 L 574.113281 198.160156 L 574.371094 195.0625 L 575.019531 190.800781 L 575.863281 187.292969 L 576.773438 184.539062 L 577.359375 183.09375 L 578.332031 181.03125 L 579.175781 179.519531 L 581.320312 176.421875 L 584.046875 173.53125 L 585.539062 172.296875 L 587.226562 171.125 L 589.628906 169.820312 L 590.734375 169.335938 L 594.109375 168.238281 L 597.941406 167.546875 L 602.160156 167.34375 L 604.109375 167.410156 L 606.773438 167.6875 L 610.410156 168.441406 L 612.484375 169.128906 L 614.109375 169.820312 L 615.796875 170.710938 L 617.875 172.089844 L 619.824219 173.738281 L 621.382812 175.390625 L 622.941406 177.453125 L 624.238281 179.65625 L 625.34375 182.0625 L 626.316406 184.953125 L 626.902344 187.359375 L 627.289062 189.765625 L 618.265625 189.765625 L 617.746094 187.359375 L 617.160156 185.503906 L 616.1875 183.234375 L 615.214844 181.582031 L 614.238281 180.273438 L 612.421875 178.484375 L 610.863281 177.386719 L 608.914062 176.421875 L 607.03125 175.804688 L 604.890625 175.390625 L 603.589844 175.253906 L 600.148438 175.253906 L 597.03125 175.734375 L 595.214844 176.285156 L 593.914062 176.835938 L 592.097656 177.867188 L 590.992188 178.691406 L 590.34375 179.242188 L 588.398438 181.375 L 587.097656 183.300781 L 586.382812 184.609375 L 585.476562 186.671875 L 584.824219 188.527344 L 584.109375 191.28125 L 583.722656 193.34375 L 583.203125 198.023438 L 583.136719 210.40625 L 583.332031 213.019531 L 583.722656 215.839844 L 584.242188 218.316406 L 585.019531 220.929688 L 585.800781 222.925781 L 587.164062 225.605469 L 588.332031 227.394531 L 589.242188 228.566406 L 590.992188 230.421875 L 591.707031 231.042969 L 593.394531 232.28125 L 595.148438 233.242188 L 597.292969 234.066406 L 598.914062 234.480469 L 601.511719 234.824219 L 604.824219 234.824219 L 608.71875 234.410156 L 611.1875 233.863281 L 612.875 233.3125 L 613.980469 232.828125 L 615.34375 232.074219 L 616.316406 231.386719 L 617.226562 230.628906 L 618.332031 229.457031 L 618.332031 213.019531 L 602.292969 212.949219 L 602.292969 205.246094 L 627.226562 205.175781 L 627.289062 232.074219 L 625.925781 233.929688 L 624.238281 235.71875 L 622.617188 237.09375 L 620.925781 238.265625 L 618.523438 239.570312 L 616.578125 240.398438 L 613.589844 241.359375 L 610.863281 241.980469 L 608.007812 242.390625 L 605.472656 242.597656 L 602.488281 242.667969 L 599.824219 242.527344 L 596.96875 242.117188 L 594.695312 241.566406 L 592.617188 240.878906 L 590.539062 239.984375 L 587.941406 238.539062 L 586.253906 237.371094 L 584.5 235.925781 L 582.746094 234.207031 L 581.1875 232.347656 L 580.148438 230.902344 L 579.109375 229.253906 L 578.007812 227.1875 L 576.96875 224.851562 L 576.1875 222.71875 L 575.476562 220.308594 L 574.957031 218.039062 L 574.4375 214.945312 L 574.175781 212.46875 L 574.046875 210.335938 Z M 574.046875 199.605469 "/>
<path style=" stroke:none;fill-rule:nonzero;fill:rgb(6.27451%,58.823529%,28.235294%);fill-opacity:1;" d="M 630.09375 295.847656 L 630.148438 295.828125 L 653.1875 277.386719 L 660.183594 277.386719 L 683.335938 295.863281 L 675.203125 295.863281 L 669.398438 291.042969 L 643.972656 291.042969 L 638.285156 295.847656 L 630.09375 295.847656 L 646.417969 289.046875 L 667.066406 289.027344 L 656.773438 280.40625 L 656.65625 280.390625 L 656.542969 280.441406 L 646.363281 289.027344 L 646.417969 289.046875 Z M 630.09375 295.847656 "/>
<path style=" stroke:none;fill-rule:nonzero;fill:rgb(14.509804%,36.078431%,60%);fill-opacity:1;" d="M 630.09375 304.070312 L 630.15625 304.054688 L 630.15625 303.699219 L 630.351562 303.136719 L 630.808594 302.429688 L 631.261719 301.941406 L 632.429688 301.070312 L 634.054688 300.230469 L 635.742188 299.578125 L 636.976562 299.195312 L 638.078125 298.898438 L 640.613281 298.351562 L 642.234375 298.074219 L 643.988281 297.820312 L 646.132812 297.570312 L 647.691406 297.421875 L 651.195312 297.1875 L 653.792969 297.082031 L 655.804688 297.039062 L 660.15625 297.039062 L 662.753906 297.097656 L 664.636719 297.171875 L 666.714844 297.289062 L 668.46875 297.421875 L 671.519531 297.746094 L 674.246094 298.160156 L 675.480469 298.398438 L 677.429688 298.855469 L 678.921875 299.296875 L 679.960938 299.683594 L 681.128906 300.230469 L 682.167969 300.894531 L 682.949219 301.648438 L 683.335938 302.28125 L 674.246094 302.28125 L 673.792969 301.691406 L 673.273438 301.234375 L 672.296875 300.628906 L 671.324219 300.199219 L 669.960938 299.769531 L 668.726562 299.492188 L 667.039062 299.210938 L 665.546875 299.03125 L 663.988281 298.898438 L 662.492188 298.8125 L 659.636719 298.722656 L 656.324219 298.722656 L 655.089844 298.753906 L 652.558594 298.871094 L 651.195312 298.972656 L 649.246094 299.179688 L 647.882812 299.371094 L 646.261719 299.667969 L 645.15625 299.917969 L 643.792969 300.304688 L 642.820312 300.640625 L 641.714844 301.128906 L 641.066406 301.5 L 640.480469 301.914062 L 639.960938 302.398438 L 639.574219 302.917969 L 639.3125 303.464844 L 639.183594 303.996094 L 639.183594 306.285156 L 639.3125 306.816406 L 639.636719 307.4375 L 640.480469 308.335938 L 641.714844 309.121094 L 643.144531 309.738281 L 644.507812 310.183594 L 645.285156 310.390625 L 646.324219 310.625 L 647.949219 310.921875 L 650.285156 311.21875 L 651.648438 311.335938 L 653.726562 311.453125 L 655.871094 311.511719 L 658.726562 311.511719 L 661.261719 311.453125 L 662.949219 311.378906 L 664.703125 311.261719 L 667.105469 311.011719 L 668.597656 310.773438 L 669.894531 310.492188 L 670.871094 310.210938 L 671.519531 309.976562 L 672.492188 309.519531 L 673.273438 309.015625 L 673.855469 308.5 L 674.246094 307.996094 L 683.335938 307.996094 L 682.949219 308.589844 L 682.363281 309.164062 L 681.777344 309.59375 L 680.871094 310.109375 L 679.832031 310.566406 L 678.335938 311.082031 L 677.105469 311.421875 L 675.480469 311.792969 L 673.988281 312.074219 L 672.363281 312.324219 L 669.960938 312.621094 L 668.402344 312.765625 L 666.714844 312.902344 L 664.703125 313.019531 L 662.167969 313.121094 L 659.441406 313.179688 L 656.910156 313.195312 L 654.183594 313.167969 L 652.167969 313.105469 L 649.507812 312.972656 L 646.195312 312.707031 L 643.792969 312.429688 L 641.910156 312.148438 L 640.289062 311.851562 L 638.46875 311.453125 L 636.132812 310.804688 L 634.703125 310.300781 L 633.730469 309.886719 L 632.625 309.3125 L 631.847656 308.792969 L 630.9375 307.96875 L 630.289062 306.917969 L 630.09375 306.105469 Z M 630.09375 304.070312 "/>
<path style=" stroke:none;fill-rule:nonzero;fill:rgb(96.862745%,70.196078%,16.862745%);fill-opacity:1;" d="M 630.09375 259.019531 L 630.15625 258.992188 L 630.15625 258.445312 L 630.417969 257.207031 L 631.066406 255.503906 L 631.910156 254.105469 L 632.820312 253.003906 L 633.40625 252.429688 L 634.378906 251.605469 L 635.222656 251 L 637.367188 249.765625 L 640.09375 248.613281 L 641.585938 248.117188 L 643.273438 247.648438 L 645.675781 247.128906 L 646.78125 246.9375 L 650.15625 246.496094 L 653.988281 246.222656 L 658.207031 246.140625 L 660.15625 246.167969 L 662.820312 246.277344 L 666.453125 246.578125 L 668.53125 246.855469 L 670.15625 247.128906 L 671.84375 247.484375 L 673.921875 248.035156 L 675.871094 248.695312 L 677.429688 249.351562 L 678.988281 250.175781 L 680.285156 251.054688 L 681.390625 252.015625 L 682.363281 253.171875 L 682.949219 254.132812 L 683.335938 255.09375 L 674.3125 255.09375 L 673.792969 254.132812 L 673.207031 253.390625 L 672.234375 252.484375 L 671.257812 251.824219 L 670.285156 251.304688 L 668.46875 250.589844 L 666.910156 250.148438 L 664.960938 249.765625 L 663.078125 249.519531 L 660.9375 249.351562 L 659.636719 249.296875 L 656.195312 249.296875 L 653.078125 249.488281 L 651.261719 249.710938 L 649.960938 249.929688 L 648.144531 250.339844 L 647.039062 250.671875 L 646.390625 250.890625 L 644.441406 251.742188 L 643.144531 252.511719 L 642.429688 253.03125 L 641.519531 253.855469 L 640.871094 254.597656 L 640.15625 255.695312 L 639.769531 256.519531 L 639.25 258.390625 L 639.183594 263.332031 L 639.378906 264.375 L 639.769531 265.503906 L 640.289062 266.492188 L 641.066406 267.535156 L 641.84375 268.332031 L 643.210938 269.402344 L 644.378906 270.117188 L 645.285156 270.582031 L 647.039062 271.324219 L 647.753906 271.570312 L 649.441406 272.066406 L 651.195312 272.449219 L 653.339844 272.78125 L 654.960938 272.945312 L 657.558594 273.082031 L 660.871094 273.082031 L 664.765625 272.917969 L 667.234375 272.699219 L 668.921875 272.476562 L 670.027344 272.285156 L 671.390625 271.984375 L 672.363281 271.707031 L 673.273438 271.40625 L 674.375 270.941406 L 674.375 264.375 L 658.339844 264.347656 L 658.339844 261.273438 L 683.273438 261.246094 L 683.335938 271.984375 L 681.972656 272.726562 L 680.285156 273.4375 L 678.660156 273.988281 L 676.972656 274.457031 L 674.570312 274.976562 L 672.625 275.308594 L 669.636719 275.691406 L 666.910156 275.9375 L 664.050781 276.101562 L 661.519531 276.1875 L 658.53125 276.214844 L 655.871094 276.160156 L 653.015625 275.992188 L 650.742188 275.773438 L 648.664062 275.5 L 646.585938 275.140625 L 643.988281 274.566406 L 642.300781 274.097656 L 640.546875 273.523438 L 638.792969 272.835938 L 637.234375 272.09375 L 636.195312 271.515625 L 635.15625 270.859375 L 634.054688 270.035156 L 633.015625 269.101562 L 632.234375 268.25 L 631.523438 267.289062 L 631.003906 266.382812 L 630.484375 265.144531 L 630.222656 264.15625 L 630.09375 263.304688 Z M 630.09375 259.019531 "/>
<g style="fill:rgb(0%,0%,0%);fill-opacity:1;">
  <use xlink:href="#glyph0-1" x="21.957031" y="317.018555"/>
  <use xlink:href="#glyph0-2" x="27.291016" y="317.018555"/>
  <use xlink:href="#glyph0-1" x="29.958008" y="317.018555"/>
</g>
<g style="fill:rgb(0%,0%,0%);fill-opacity:1;">
  <use xlink:href="#glyph0-1" x="21.957031" y="243.592773"/>
  <use xlink:href="#glyph0-2" x="27.291016" y="243.592773"/>
  <use xlink:href="#glyph0-3" x="29.958008" y="243.592773"/>
</g>
<g style="fill:rgb(0%,0%,0%);fill-opacity:1;">
  <use xlink:href="#glyph0-4" x="21.957031" y="170.163086"/>
  <use xlink:href="#glyph0-2" x="27.291016" y="170.163086"/>
  <use xlink:href="#glyph0-1" x="29.958008" y="170.163086"/>
</g>
<g style="fill:rgb(0%,0%,0%);fill-opacity:1;">
  <use xlink:href="#glyph0-4" x="21.957031" y="96.737305"/>
  <use xlink:href="#glyph0-2" x="27.291016" y="96.737305"/>
  <use xlink:href="#glyph0-3" x="29.958008" y="96.737305"/>
</g>
<g style="fill:rgb(0%,0%,0%);fill-opacity:1;">
  <use xlink:href="#glyph0-5" x="21.957031" y="23.311523"/>
  <use xlink:href="#glyph0-2" x="27.291016" y="23.311523"/>
  <use xlink:href="#glyph0-1" x="29.958008" y="23.311523"/>
</g>
<g style="fill:rgb(0%,0%,0%);fill-opacity:1;">
  <use xlink:href="#glyph0-4" x="93.25" y="338.19043"/>
</g>
<g style="fill:rgb(0%,0%,0%);fill-opacity:1;">
  <use xlink:href="#glyph0-5" x="149.296875" y="338.19043"/>
</g>
<g style="fill:rgb(0%,0%,0%);fill-opacity:1;">
  <use xlink:href="#glyph0-6" x="205.34375" y="338.19043"/>
</g>
<g style="fill:rgb(0%,0%,0%);fill-opacity:1;">
  <use xlink:href="#glyph0-7" x="261.390625" y="338.19043"/>
</g>
<g style="fill:rgb(0%,0%,0%);fill-opacity:1;">
  <use xlink:href="#glyph0-3" x="317.4375" y="338.19043"/>
</g>
<g style="fill:rgb(0%,0%,0%);fill-opacity:1;">
  <use xlink:href="#glyph0-8" x="373.484375" y="338.19043"/>
</g>
<g style="fill:rgb(0%,0%,0%);fill-opacity:1;">
  <use xlink:href="#glyph0-9" x="429.53125" y="338.19043"/>
</g>
<g style="fill:rgb(0%,0%,0%);fill-opacity:1;">
  <use xlink:href="#glyph0-10" x="485.574219" y="338.19043"/>
</g>
<g style="fill:rgb(0%,0%,0%);fill-opacity:1;">
  <use xlink:href="#glyph0-11" x="541.621094" y="338.19043"/>
</g>
<g style="fill:rgb(0%,0%,0%);fill-opacity:1;">
  <use xlink:href="#glyph0-4" x="595.167969" y="338.19043"/>
  <use xlink:href="#glyph0-1" x="600.501953" y="338.19043"/>
</g>
<g style="fill:rgb(0%,0%,0%);fill-opacity:1;">
  <use xlink:href="#glyph0-4" x="651.214844" y="338.19043"/>
  <use xlink:href="#glyph0-4" x="656.548828" y="338.19043"/>
</g>
<g style="fill:rgb(0%,0%,0%);fill-opacity:1;">
  <use xlink:href="#glyph1-1" x="14.412109" y="178.015625"/>
  <use xlink:href="#glyph1-2" x="14.412109" y="170.011719"/>
  <use xlink:href="#glyph1-3" x="14.412109" y="167.347656"/>
  <use xlink:href="#glyph1-4" x="14.412109" y="164.011719"/>
</g>
</g>
</svg>
