<?xml version="1.0" encoding="UTF-8"?>
<svg xmlns="http://www.w3.org/2000/svg" xmlns:xlink="http://www.w3.org/1999/xlink" width="720pt" height="360pt" viewBox="0 0 720 360" version="1.1">
<defs>
<g>
<symbol overflow="visible" id="glyph0-0">
<path style="stroke:none;" d=""/>
</symbol>
<symbol overflow="visible" id="glyph0-1">
<path style="stroke:none;" d="M 2.640625 -6.796875 C 2 -6.796875 1.421875 -6.53125 1.078125 -6.046875 C 0.640625 -5.453125 0.40625 -4.546875 0.40625 -3.296875 C 0.40625 -1 1.1875 0.21875 2.640625 0.21875 C 4.078125 0.21875 4.859375 -1 4.859375 -3.234375 C 4.859375 -4.5625 4.65625 -5.4375 4.203125 -6.046875 C 3.84375 -6.53125 3.28125 -6.796875 2.640625 -6.796875 Z M 2.640625 -6.046875 C 3.546875 -6.046875 4 -5.125 4 -3.3125 C 4 -1.375 3.5625 -0.484375 2.625 -0.484375 C 1.734375 -0.484375 1.28125 -1.421875 1.28125 -3.28125 C 1.28125 -5.140625 1.734375 -6.046875 2.640625 -6.046875 Z M 2.640625 -6.046875 "/>
</symbol>
<symbol overflow="visible" id="glyph0-2">
<path style="stroke:none;" d="M 1.828125 -1 L 0.828125 -1 L 0.828125 0 L 1.828125 0 Z M 1.828125 -1 "/>
</symbol>
<symbol overflow="visible" id="glyph0-3">
<path style="stroke:none;" d="M 4.5625 -6.796875 L 1.0625 -6.796875 L 0.546875 -3.09375 L 1.328125 -3.09375 C 1.71875 -3.5625 2.046875 -3.734375 2.578125 -3.734375 C 3.484375 -3.734375 4.0625 -3.109375 4.0625 -2.09375 C 4.0625 -1.125 3.484375 -0.53125 2.578125 -0.53125 C 1.828125 -0.53125 1.375 -0.90625 1.1875 -1.671875 L 0.328125 -1.671875 C 0.453125 -1.109375 0.546875 -0.84375 0.75 -0.59375 C 1.125 -0.078125 1.828125 0.21875 2.59375 0.21875 C 3.96875 0.21875 4.921875 -0.78125 4.921875 -2.21875 C 4.921875 -3.5625 4.03125 -4.484375 2.71875 -4.484375 C 2.25 -4.484375 1.859375 -4.359375 1.46875 -4.0625 L 1.734375 -5.96875 L 4.5625 -5.96875 Z M 4.5625 -6.796875 "/>
</symbol>
<symbol overflow="visible" id="glyph0-4">
<path style="stroke:none;" d="M 2.484375 -4.84375 L 2.484375 0 L 3.328125 0 L 3.328125 -6.796875 L 2.765625 -6.796875 C 2.46875 -5.75 2.28125 -5.609375 0.984375 -5.453125 L 0.984375 -4.84375 Z M 2.484375 -4.84375 "/>
</symbol>
<symbol overflow="visible" id="glyph0-5">
<path style="stroke:none;" d="M 4.859375 -0.828125 L 1.28125 -0.828125 C 1.359375 -1.390625 1.671875 -1.75 2.5 -2.234375 L 3.46875 -2.75 C 4.40625 -3.265625 4.90625 -3.96875 4.90625 -4.8125 C 4.90625 -5.375 4.671875 -5.90625 4.265625 -6.265625 C 3.859375 -6.625 3.375 -6.796875 2.71875 -6.796875 C 1.859375 -6.796875 1.21875 -6.5 0.84375 -5.921875 C 0.609375 -5.5625 0.5 -5.125 0.484375 -4.4375 L 1.328125 -4.4375 C 1.359375 -4.90625 1.40625 -5.1875 1.53125 -5.40625 C 1.75 -5.8125 2.1875 -6.0625 2.703125 -6.0625 C 3.46875 -6.0625 4.03125 -5.515625 4.03125 -4.78125 C 4.03125 -4.25 3.71875 -3.796875 3.125 -3.4375 L 2.234375 -2.9375 C 0.8125 -2.140625 0.40625 -1.5 0.328125 0 L 4.859375 0 Z M 4.859375 -0.828125 "/>
</symbol>
<symbol overflow="visible" id="glyph0-6">
<path style="stroke:none;" d="M 2.125 -3.125 L 2.578125 -3.125 C 3.515625 -3.125 3.984375 -2.703125 3.984375 -1.890625 C 3.984375 -1.03125 3.46875 -0.53125 2.578125 -0.53125 C 1.65625 -0.53125 1.203125 -0.984375 1.15625 -1.96875 L 0.3125 -1.96875 C 0.34375 -1.421875 0.4375 -1.078125 0.609375 -0.765625 C 0.953125 -0.109375 1.625 0.21875 2.546875 0.21875 C 3.953125 0.21875 4.859375 -0.609375 4.859375 -1.90625 C 4.859375 -2.765625 4.515625 -3.25 3.703125 -3.515625 C 4.34375 -3.765625 4.65625 -4.25 4.65625 -4.9375 C 4.65625 -6.109375 3.875 -6.796875 2.578125 -6.796875 C 1.203125 -6.796875 0.484375 -6.046875 0.453125 -4.609375 L 1.296875 -4.609375 C 1.3125 -5.015625 1.34375 -5.25 1.453125 -5.453125 C 1.640625 -5.828125 2.0625 -6.0625 2.59375 -6.0625 C 3.34375 -6.0625 3.796875 -5.625 3.796875 -4.90625 C 3.796875 -4.421875 3.609375 -4.140625 3.25 -3.984375 C 3.015625 -3.890625 2.71875 -3.84375 2.125 -3.84375 Z M 2.125 -3.125 "/>
</symbol>
<symbol overflow="visible" id="glyph0-7">
<path style="stroke:none;" d="M 3.140625 -1.625 L 3.140625 0 L 3.984375 0 L 3.984375 -1.625 L 4.984375 -1.625 L 4.984375 -2.390625 L 3.984375 -2.390625 L 3.984375 -6.796875 L 3.359375 -6.796875 L 0.265625 -2.515625 L 0.265625 -1.625 Z M 3.140625 -2.390625 L 1 -2.390625 L 3.140625 -5.359375 Z M 3.140625 -2.390625 "/>
</symbol>
<symbol overflow="visible" id="glyph0-8">
<path style="stroke:none;" d="M 4.78125 -5.03125 C 4.609375 -6.140625 3.890625 -6.796875 2.84375 -6.796875 C 2.09375 -6.796875 1.421875 -6.4375 1.03125 -5.828125 C 0.609375 -5.171875 0.40625 -4.34375 0.40625 -3.09375 C 0.40625 -1.953125 0.578125 -1.234375 0.984375 -0.625 C 1.359375 -0.078125 1.953125 0.21875 2.703125 0.21875 C 3.984375 0.21875 4.921875 -0.734375 4.921875 -2.078125 C 4.921875 -3.34375 4.0625 -4.234375 2.84375 -4.234375 C 2.171875 -4.234375 1.640625 -3.96875 1.28125 -3.46875 C 1.28125 -5.125 1.828125 -6.046875 2.796875 -6.046875 C 3.390625 -6.046875 3.796875 -5.671875 3.9375 -5.03125 Z M 2.734375 -3.484375 C 3.546875 -3.484375 4.0625 -2.921875 4.0625 -2 C 4.0625 -1.15625 3.484375 -0.53125 2.703125 -0.53125 C 1.921875 -0.53125 1.328125 -1.1875 1.328125 -2.046875 C 1.328125 -2.890625 1.90625 -3.484375 2.734375 -3.484375 Z M 2.734375 -3.484375 "/>
</symbol>
<symbol overflow="visible" id="glyph0-9">
<path style="stroke:none;" d="M 4.984375 -6.796875 L 0.4375 -6.796875 L 0.4375 -5.96875 L 4.109375 -5.96875 C 2.5 -3.65625 1.828125 -2.234375 1.328125 0 L 2.21875 0 C 2.59375 -2.171875 3.453125 -4.046875 4.984375 -6.09375 Z M 4.984375 -6.796875 "/>
</symbol>
<symbol overflow="visible" id="glyph0-10">
<path style="stroke:none;" d="M 3.75 -3.578125 C 4.453125 -4 4.6875 -4.34375 4.6875 -4.984375 C 4.6875 -6.046875 3.84375 -6.796875 2.640625 -6.796875 C 1.4375 -6.796875 0.59375 -6.046875 0.59375 -4.984375 C 0.59375 -4.359375 0.828125 -4.015625 1.515625 -3.578125 C 0.734375 -3.203125 0.359375 -2.640625 0.359375 -1.890625 C 0.359375 -0.640625 1.296875 0.21875 2.640625 0.21875 C 3.984375 0.21875 4.921875 -0.640625 4.921875 -1.875 C 4.921875 -2.640625 4.53125 -3.203125 3.75 -3.578125 Z M 2.640625 -6.046875 C 3.359375 -6.046875 3.8125 -5.625 3.8125 -4.96875 C 3.8125 -4.34375 3.34375 -3.921875 2.640625 -3.921875 C 1.921875 -3.921875 1.453125 -4.34375 1.453125 -4.984375 C 1.453125 -5.625 1.921875 -6.046875 2.640625 -6.046875 Z M 2.640625 -3.203125 C 3.484375 -3.203125 4.0625 -2.671875 4.0625 -1.875 C 4.0625 -1.0625 3.484375 -0.53125 2.625 -0.53125 C 1.796875 -0.53125 1.21875 -1.078125 1.21875 -1.875 C 1.21875 -2.671875 1.796875 -3.203125 2.640625 -3.203125 Z M 2.640625 -3.203125 "/>
</symbol>
<symbol overflow="visible" id="glyph0-11">
<path style="stroke:none;" d="M 0.515625 -1.546875 C 0.671875 -0.4375 1.40625 0.21875 2.4375 0.21875 C 3.1875 0.21875 3.859375 -0.140625 4.265625 -0.75 C 4.6875 -1.40625 4.890625 -2.25 4.890625 -3.484375 C 4.890625 -4.625 4.703125 -5.359375 4.3125 -5.953125 C 3.9375 -6.5 3.34375 -6.796875 2.59375 -6.796875 C 1.296875 -6.796875 0.359375 -5.84375 0.359375 -4.515625 C 0.359375 -3.25 1.234375 -2.34375 2.453125 -2.34375 C 3.09375 -2.34375 3.5625 -2.578125 4.015625 -3.109375 C 4 -1.453125 3.46875 -0.53125 2.5 -0.53125 C 1.90625 -0.53125 1.484375 -0.90625 1.359375 -1.546875 Z M 2.578125 -6.0625 C 3.375 -6.0625 3.96875 -5.40625 3.96875 -4.53125 C 3.96875 -3.6875 3.375 -3.09375 2.546875 -3.09375 C 1.734375 -3.09375 1.234375 -3.671875 1.234375 -4.578125 C 1.234375 -5.4375 1.796875 -6.0625 2.578125 -6.0625 Z M 2.578125 -6.0625 "/>
</symbol>
<symbol overflow="visible" id="glyph1-0">
<path style="stroke:none;" d=""/>
</symbol>
<symbol overflow="visible" id="glyph1-1">
<path style="stroke:none;" d="M 0 -0.953125 L 0 -4.890625 C 0 -5.71875 -0.234375 -6.34375 -0.734375 -6.796875 C -1.1875 -7.234375 -1.8125 -7.46875 -2.5 -7.46875 C -3.546875 -7.46875 -4.1875 -7 -4.625 -5.875 C -4.984375 -6.671875 -5.640625 -7.09375 -6.53125 -7.09375 C -7.15625 -7.09375 -7.734375 -6.859375 -8.140625 -6.390625 C -8.5625 -5.9375 -8.75 -5.34375 -8.75 -4.5 L -8.75 -0.953125 Z M -4.984375 -2.0625 L -7.765625 -2.0625 L -7.765625 -4.21875 C -7.765625 -4.84375 -7.6875 -5.203125 -7.453125 -5.5 C -7.21875 -5.8125 -6.859375 -5.96875 -6.375 -5.96875 C -5.90625 -5.96875 -5.53125 -5.8125 -5.296875 -5.5 C -5.0625 -5.203125 -4.984375 -4.84375 -4.984375 -4.21875 Z M -0.984375 -2.0625 L -4 -2.0625 L -4 -4.78125 C -4 -5.328125 -3.859375 -5.6875 -3.578125 -5.953125 C -3.296875 -6.21875 -2.921875 -6.359375 -2.484375 -6.359375 C -2.0625 -6.359375 -1.6875 -6.21875 -1.40625 -5.953125 C -1.109375 -5.6875 -0.984375 -5.328125 -0.984375 -4.78125 Z M -0.984375 -2.0625 "/>
</symbol>
<symbol overflow="visible" id="glyph1-2">
<path style="stroke:none;" d="M -6.28125 -1.796875 L -6.28125 -0.796875 L 0 -0.796875 L 0 -1.796875 Z M -8.75 -1.796875 L -8.75 -0.796875 L -7.484375 -0.796875 L -7.484375 -1.796875 Z M -8.75 -1.796875 "/>
</symbol>
<symbol overflow="visible" id="glyph1-3">
<path style="stroke:none;" d="M -6.28125 -3.046875 L -6.28125 -2.015625 L -8.015625 -2.015625 L -8.015625 -1.015625 L -6.28125 -1.015625 L -6.28125 -0.171875 L -5.46875 -0.171875 L -5.46875 -1.015625 L -0.71875 -1.015625 C -0.078125 -1.015625 0.28125 -1.453125 0.28125 -2.234375 C 0.28125 -2.46875 0.25 -2.71875 0.1875 -3.046875 L -0.640625 -3.046875 C -0.609375 -2.921875 -0.59375 -2.765625 -0.59375 -2.5625 C -0.59375 -2.140625 -0.71875 -2.015625 -1.15625 -2.015625 L -5.46875 -2.015625 L -5.46875 -3.046875 Z M -6.28125 -3.046875 "/>
</symbol>
<symbol overflow="visible" id="glyph1-4">
<path style="stroke:none;" d="M -4.53125 -5.25 C -5.765625 -5.25 -6.46875 -4.421875 -6.46875 -2.96875 C -6.46875 -1.515625 -5.71875 -0.5625 -4.546875 -0.5625 C -3.5625 -0.5625 -3.09375 -1.0625 -2.734375 -2.5625 L -2.515625 -3.484375 C -2.34375 -4.1875 -2.09375 -4.46875 -1.625 -4.46875 C -1.046875 -4.46875 -0.640625 -3.875 -0.640625 -3 C -0.640625 -2.453125 -0.796875 -2 -1.0625 -1.75 C -1.25 -1.59375 -1.421875 -1.53125 -1.875 -1.46875 L -1.875 -0.40625 C -0.421875 -0.453125 0.28125 -1.265625 0.28125 -2.921875 C 0.28125 -4.5 -0.5 -5.515625 -1.71875 -5.515625 C -2.65625 -5.515625 -3.171875 -4.984375 -3.46875 -3.734375 L -3.703125 -2.765625 C -3.890625 -1.953125 -4.15625 -1.609375 -4.59375 -1.609375 C -5.171875 -1.609375 -5.546875 -2.125 -5.546875 -2.9375 C -5.546875 -3.75 -5.203125 -4.171875 -4.53125 -4.203125 Z M -4.53125 -5.25 "/>
</symbol>
</g>
</defs>
<g id="surface1655">
<rect x="0" y="0" width="720" height="360" style="fill:rgb(100%,100%,100%);fill-opacity:1;stroke:none;"/>
<path style=" stroke:none;fill-rule:nonzero;fill:rgb(6.27451%,58.823529%,28.235294%);fill-opacity:1;" d="M 69.628906 314.367188 L 69.691406 314.367188 L 95.046875 312.277344 L 102.746094 312.277344 L 128.222656 314.371094 L 119.273438 314.371094 L 112.886719 313.824219 L 84.902344 313.824219 L 78.644531 314.367188 L 69.628906 314.367188 L 87.597656 313.597656 L 110.320312 313.597656 L 98.988281 312.621094 L 98.863281 312.617188 L 98.738281 312.625 L 87.535156 313.597656 L 87.597656 313.597656 Z M 69.628906 314.367188 "/>
<path style=" stroke:none;fill-rule:nonzero;fill:rgb(14.509804%,36.078431%,60%);fill-opacity:1;" d="M 69.628906 305.722656 L 69.699219 305.71875 L 69.699219 305.636719 L 69.914062 305.507812 L 70.414062 305.34375 L 70.914062 305.230469 L 72.203125 305.03125 L 73.988281 304.835938 L 75.847656 304.683594 L 77.203125 304.597656 L 78.417969 304.527344 L 81.207031 304.402344 L 82.992188 304.335938 L 84.921875 304.28125 L 87.28125 304.222656 L 88.996094 304.1875 L 92.851562 304.132812 L 95.710938 304.109375 L 97.925781 304.097656 L 102.714844 304.097656 L 105.574219 304.113281 L 107.644531 304.128906 L 109.929688 304.15625 L 111.859375 304.1875 L 115.21875 304.261719 L 118.21875 304.359375 L 119.578125 304.414062 L 121.722656 304.519531 L 123.367188 304.621094 L 124.507812 304.710938 L 125.796875 304.835938 L 126.9375 304.988281 L 127.796875 305.164062 L 128.222656 305.308594 L 118.21875 305.308594 L 117.71875 305.171875 L 117.148438 305.066406 L 116.078125 304.925781 L 115.003906 304.828125 L 113.503906 304.730469 L 112.148438 304.664062 L 110.289062 304.601562 L 108.644531 304.558594 L 106.929688 304.527344 L 105.285156 304.507812 L 102.140625 304.488281 L 98.5 304.488281 L 97.140625 304.496094 L 94.355469 304.523438 L 92.851562 304.546875 L 90.710938 304.59375 L 89.207031 304.636719 L 87.421875 304.707031 L 86.207031 304.765625 L 84.707031 304.851562 L 83.636719 304.929688 L 82.421875 305.042969 L 81.707031 305.128906 L 81.0625 305.222656 L 80.492188 305.335938 L 80.0625 305.457031 L 79.777344 305.582031 L 79.632812 305.703125 L 79.632812 306.234375 L 79.777344 306.355469 L 80.132812 306.5 L 81.0625 306.707031 L 82.421875 306.886719 L 83.992188 307.03125 L 85.492188 307.132812 L 86.351562 307.179688 L 87.492188 307.234375 L 89.28125 307.300781 L 91.851562 307.371094 L 93.351562 307.398438 L 95.640625 307.425781 L 97.996094 307.4375 L 101.140625 307.4375 L 103.929688 307.425781 L 105.785156 307.40625 L 107.714844 307.378906 L 110.359375 307.324219 L 112.003906 307.269531 L 113.433594 307.203125 L 114.503906 307.140625 L 115.21875 307.085938 L 116.292969 306.980469 L 117.148438 306.863281 L 117.792969 306.742188 L 118.21875 306.628906 L 128.222656 306.628906 L 127.796875 306.765625 L 127.152344 306.898438 L 126.507812 306.996094 L 125.507812 307.113281 L 124.367188 307.21875 L 122.722656 307.339844 L 121.363281 307.417969 L 119.578125 307.503906 L 117.933594 307.566406 L 116.148438 307.625 L 113.503906 307.695312 L 111.789062 307.726562 L 109.929688 307.757812 L 107.714844 307.785156 L 104.929688 307.808594 L 101.929688 307.824219 L 99.140625 307.828125 L 96.140625 307.820312 L 93.925781 307.808594 L 90.996094 307.777344 L 87.351562 307.714844 L 84.707031 307.648438 L 82.632812 307.585938 L 80.847656 307.515625 L 78.847656 307.425781 L 76.273438 307.273438 L 74.703125 307.160156 L 73.632812 307.0625 L 72.417969 306.929688 L 71.558594 306.8125 L 70.558594 306.621094 L 69.84375 306.378906 L 69.628906 306.191406 Z M 69.628906 305.722656 "/>
<path style=" stroke:none;fill-rule:nonzero;fill:rgb(96.862745%,70.196078%,16.862745%);fill-opacity:1;" d="M 69.628906 298.449219 L 69.699219 298.441406 L 69.699219 298.300781 L 69.988281 297.980469 L 70.703125 297.535156 L 71.628906 297.171875 L 72.628906 296.886719 L 73.273438 296.738281 L 74.34375 296.523438 L 75.273438 296.367188 L 77.632812 296.042969 L 80.632812 295.746094 L 82.277344 295.617188 L 84.136719 295.496094 L 86.777344 295.359375 L 87.992188 295.308594 L 91.710938 295.195312 L 95.925781 295.125 L 100.570312 295.101562 L 102.714844 295.109375 L 105.644531 295.136719 L 109.644531 295.214844 L 111.933594 295.289062 L 113.71875 295.359375 L 115.578125 295.453125 L 117.863281 295.59375 L 120.007812 295.765625 L 121.722656 295.9375 L 123.4375 296.152344 L 124.867188 296.378906 L 126.082031 296.628906 L 127.152344 296.929688 L 127.796875 297.179688 L 128.222656 297.429688 L 118.292969 297.429688 L 117.71875 297.179688 L 117.078125 296.988281 L 116.003906 296.75 L 114.933594 296.578125 L 113.863281 296.445312 L 111.859375 296.257812 L 110.144531 296.144531 L 108.003906 296.042969 L 105.929688 295.980469 L 103.570312 295.9375 L 102.140625 295.921875 L 98.355469 295.921875 L 94.925781 295.972656 L 92.925781 296.03125 L 91.496094 296.085938 L 89.496094 296.195312 L 88.28125 296.28125 L 87.566406 296.335938 L 85.421875 296.558594 L 83.992188 296.757812 L 83.207031 296.894531 L 82.207031 297.109375 L 81.492188 297.300781 L 80.707031 297.585938 L 80.277344 297.800781 L 79.703125 298.285156 L 79.632812 299.570312 L 79.847656 299.84375 L 80.277344 300.136719 L 80.847656 300.390625 L 81.707031 300.664062 L 82.5625 300.871094 L 84.0625 301.148438 L 85.351562 301.335938 L 86.351562 301.457031 L 88.28125 301.648438 L 89.066406 301.714844 L 90.921875 301.839844 L 92.851562 301.941406 L 95.210938 302.027344 L 96.996094 302.070312 L 99.855469 302.105469 L 103.5 302.105469 L 107.789062 302.0625 L 110.503906 302.003906 L 112.359375 301.949219 L 113.574219 301.898438 L 115.078125 301.820312 L 116.148438 301.75 L 117.148438 301.671875 L 118.363281 301.550781 L 118.363281 299.84375 L 100.714844 299.835938 L 100.714844 299.035156 L 128.152344 299.027344 L 128.222656 301.820312 L 126.722656 302.011719 L 124.867188 302.199219 L 123.078125 302.339844 L 121.222656 302.460938 L 118.578125 302.597656 L 116.433594 302.683594 L 113.148438 302.785156 L 110.144531 302.847656 L 107 302.890625 L 104.214844 302.914062 L 100.929688 302.917969 L 97.996094 302.90625 L 94.855469 302.863281 L 92.351562 302.804688 L 90.066406 302.734375 L 87.78125 302.640625 L 84.921875 302.492188 L 83.0625 302.371094 L 81.132812 302.21875 L 79.203125 302.042969 L 77.488281 301.847656 L 76.347656 301.699219 L 75.203125 301.527344 L 73.988281 301.3125 L 72.84375 301.070312 L 71.988281 300.847656 L 71.203125 300.597656 L 70.628906 300.363281 L 70.058594 300.042969 L 69.773438 299.785156 L 69.628906 299.5625 Z M 69.628906 298.449219 "/>
<path style=" stroke:none;fill-rule:nonzero;fill:rgb(83.921569%,15.686275%,22.352941%);fill-opacity:1;" d="M 69.628906 309.007812 L 128.222656 309.007812 L 128.222656 309.230469 L 103.804688 309.234375 L 103.804688 311.097656 L 93.980469 311.097656 L 93.980469 309.234375 L 93.835938 309.230469 L 69.628906 309.230469 Z M 69.628906 309.007812 "/>
<path style=" stroke:none;fill-rule:nonzero;fill:rgb(6.27451%,58.823529%,28.235294%);fill-opacity:1;" d="M 131.308594 303.257812 L 131.371094 303.25 L 156.726562 297.039062 L 164.425781 297.039062 L 189.902344 303.261719 L 180.953125 303.261719 L 174.566406 301.636719 L 146.582031 301.636719 L 140.324219 303.257812 L 131.308594 303.257812 L 149.273438 300.964844 L 172 300.960938 L 160.667969 298.054688 L 160.542969 298.050781 L 160.417969 298.066406 L 149.210938 300.960938 L 149.273438 300.964844 Z M 131.308594 303.257812 "/>
<path style=" stroke:none;fill-rule:nonzero;fill:rgb(14.509804%,36.078431%,60%);fill-opacity:1;" d="M 131.308594 310.722656 L 131.378906 310.722656 L 131.378906 310.667969 L 131.59375 310.578125 L 132.09375 310.46875 L 132.59375 310.390625 L 133.882812 310.253906 L 135.667969 310.125 L 137.523438 310.023438 L 138.882812 309.964844 L 140.097656 309.917969 L 142.882812 309.832031 L 144.671875 309.789062 L 146.601562 309.75 L 148.957031 309.710938 L 150.671875 309.6875 L 154.53125 309.648438 L 157.390625 309.632812 L 159.605469 309.625 L 164.394531 309.625 L 167.25 309.636719 L 169.324219 309.648438 L 171.609375 309.664062 L 173.539062 309.6875 L 176.898438 309.738281 L 179.898438 309.800781 L 181.257812 309.839844 L 183.402344 309.910156 L 185.042969 309.980469 L 186.1875 310.039062 L 187.472656 310.125 L 188.617188 310.226562 L 189.476562 310.347656 L 189.902344 310.445312 L 179.898438 310.445312 L 179.398438 310.351562 L 178.828125 310.28125 L 177.757812 310.1875 L 176.683594 310.121094 L 175.183594 310.054688 L 173.824219 310.007812 L 171.96875 309.964844 L 170.324219 309.9375 L 168.609375 309.917969 L 166.964844 309.902344 L 163.820312 309.890625 L 160.175781 309.890625 L 158.820312 309.894531 L 156.03125 309.914062 L 154.53125 309.929688 L 152.386719 309.960938 L 150.886719 309.992188 L 149.101562 310.035156 L 147.886719 310.074219 L 146.386719 310.136719 L 145.3125 310.1875 L 144.097656 310.265625 L 143.386719 310.324219 L 142.742188 310.386719 L 142.171875 310.464844 L 141.742188 310.542969 L 141.457031 310.628906 L 141.3125 310.710938 L 141.3125 311.070312 L 141.457031 311.152344 L 141.8125 311.25 L 142.742188 311.390625 L 144.097656 311.511719 L 145.671875 311.609375 L 147.171875 311.679688 L 148.03125 311.710938 L 149.171875 311.746094 L 150.960938 311.792969 L 153.53125 311.839844 L 155.03125 311.859375 L 157.320312 311.878906 L 159.675781 311.886719 L 162.820312 311.886719 L 165.609375 311.878906 L 167.464844 311.867188 L 169.394531 311.847656 L 172.039062 311.808594 L 173.683594 311.769531 L 175.113281 311.726562 L 176.183594 311.683594 L 176.898438 311.644531 L 177.96875 311.574219 L 178.828125 311.496094 L 179.472656 311.414062 L 179.898438 311.335938 L 189.902344 311.335938 L 189.476562 311.429688 L 188.832031 311.519531 L 188.1875 311.585938 L 187.1875 311.667969 L 186.046875 311.738281 L 184.402344 311.820312 L 183.042969 311.871094 L 181.257812 311.929688 L 179.613281 311.972656 L 177.828125 312.011719 L 175.183594 312.058594 L 173.46875 312.082031 L 171.609375 312.101562 L 169.394531 312.121094 L 166.609375 312.136719 L 163.605469 312.148438 L 160.820312 312.148438 L 157.820312 312.144531 L 155.605469 312.136719 L 152.675781 312.113281 L 149.03125 312.074219 L 146.386719 312.027344 L 144.3125 311.984375 L 142.527344 311.9375 L 140.527344 311.878906 L 137.953125 311.777344 L 136.382812 311.695312 L 135.308594 311.632812 L 134.09375 311.542969 L 133.238281 311.460938 L 132.238281 311.332031 L 131.523438 311.167969 L 131.308594 311.042969 Z M 131.308594 310.722656 "/>
<path style=" stroke:none;fill-rule:nonzero;fill:rgb(96.862745%,70.196078%,16.862745%);fill-opacity:1;" d="M 131.308594 306.15625 L 131.378906 306.152344 L 131.378906 306.082031 L 131.664062 305.917969 L 132.378906 305.691406 L 133.308594 305.503906 L 134.308594 305.355469 L 134.953125 305.28125 L 136.023438 305.171875 L 136.953125 305.089844 L 139.3125 304.925781 L 142.3125 304.773438 L 143.957031 304.707031 L 145.8125 304.644531 L 148.457031 304.574219 L 149.671875 304.546875 L 153.390625 304.492188 L 157.605469 304.453125 L 162.25 304.441406 L 164.394531 304.445312 L 167.324219 304.460938 L 171.324219 304.5 L 173.613281 304.539062 L 175.398438 304.574219 L 177.253906 304.621094 L 179.542969 304.695312 L 181.6875 304.78125 L 183.402344 304.871094 L 185.117188 304.980469 L 186.546875 305.097656 L 187.761719 305.226562 L 188.832031 305.378906 L 189.476562 305.507812 L 189.902344 305.636719 L 179.972656 305.636719 L 179.398438 305.507812 L 178.757812 305.40625 L 177.683594 305.289062 L 176.613281 305.199219 L 175.539062 305.128906 L 173.539062 305.035156 L 171.824219 304.976562 L 169.679688 304.925781 L 167.609375 304.890625 L 165.25 304.871094 L 163.820312 304.863281 L 160.035156 304.863281 L 156.605469 304.890625 L 154.605469 304.917969 L 153.175781 304.949219 L 151.171875 305.003906 L 149.957031 305.046875 L 149.246094 305.074219 L 147.101562 305.1875 L 145.671875 305.292969 L 144.886719 305.359375 L 143.886719 305.46875 L 143.171875 305.570312 L 142.382812 305.714844 L 141.957031 305.824219 L 141.382812 306.074219 L 141.3125 306.730469 L 141.527344 306.871094 L 141.957031 307.019531 L 142.527344 307.152344 L 143.386719 307.292969 L 144.242188 307.398438 L 145.742188 307.539062 L 147.027344 307.636719 L 148.03125 307.695312 L 149.957031 307.796875 L 150.746094 307.828125 L 152.601562 307.894531 L 154.53125 307.945312 L 156.890625 307.988281 L 158.675781 308.011719 L 161.535156 308.03125 L 165.179688 308.03125 L 169.46875 308.007812 L 172.183594 307.980469 L 174.039062 307.949219 L 175.253906 307.921875 L 176.753906 307.882812 L 177.828125 307.847656 L 178.828125 307.808594 L 180.042969 307.746094 L 180.042969 306.871094 L 162.390625 306.867188 L 162.390625 306.457031 L 189.832031 306.453125 L 189.902344 307.882812 L 188.402344 307.980469 L 186.546875 308.078125 L 184.757812 308.152344 L 182.902344 308.210938 L 180.257812 308.28125 L 178.113281 308.324219 L 174.824219 308.378906 L 171.824219 308.410156 L 168.679688 308.433594 L 165.894531 308.441406 L 162.605469 308.445312 L 159.675781 308.4375 L 156.53125 308.417969 L 154.03125 308.386719 L 151.746094 308.351562 L 149.457031 308.304688 L 146.601562 308.226562 L 144.742188 308.164062 L 142.8125 308.089844 L 140.882812 307.996094 L 139.167969 307.898438 L 138.027344 307.820312 L 136.882812 307.734375 L 135.667969 307.625 L 134.523438 307.5 L 133.667969 307.386719 L 132.878906 307.257812 L 132.308594 307.136719 L 131.738281 306.972656 L 131.453125 306.839844 L 131.308594 306.726562 Z M 131.308594 306.15625 "/>
<path style=" stroke:none;fill-rule:nonzero;fill:rgb(83.921569%,15.686275%,22.352941%);fill-opacity:1;" d="M 131.308594 313.328125 L 189.902344 313.328125 L 189.902344 313.441406 L 165.484375 313.441406 L 165.484375 314.371094 L 155.65625 314.371094 L 155.65625 313.441406 L 131.308594 313.441406 Z M 131.308594 313.328125 "/>
<path style=" stroke:none;fill-rule:nonzero;fill:rgb(6.27451%,58.823529%,28.235294%);fill-opacity:1;" d="M 192.988281 314.363281 L 193.050781 314.351562 L 218.402344 304.726562 L 226.105469 304.726562 L 251.582031 314.371094 L 242.628906 314.371094 L 236.246094 311.851562 L 208.261719 311.851562 L 202.003906 314.363281 L 192.988281 314.363281 L 210.953125 310.8125 L 233.679688 310.804688 L 222.347656 306.300781 L 222.222656 306.292969 L 222.097656 306.320312 L 210.890625 310.804688 L 210.953125 310.8125 Z M 192.988281 314.363281 "/>
<path style=" stroke:none;fill-rule:nonzero;fill:rgb(14.509804%,36.078431%,60%);fill-opacity:1;" d="M 192.988281 245.246094 L 193.058594 245.207031 L 193.058594 244.203125 L 193.273438 242.613281 L 193.773438 240.609375 L 194.273438 239.230469 L 195.558594 236.761719 L 197.347656 234.378906 L 199.203125 232.542969 L 200.5625 231.453125 L 201.777344 230.617188 L 204.5625 229.074219 L 206.351562 228.277344 L 208.28125 227.566406 L 210.636719 226.859375 L 212.351562 226.441406 L 216.210938 225.769531 L 219.070312 225.476562 L 221.285156 225.351562 L 226.074219 225.351562 L 228.929688 225.519531 L 231.003906 225.730469 L 233.289062 226.0625 L 235.21875 226.441406 L 238.578125 227.359375 L 241.578125 228.527344 L 242.9375 229.199219 L 245.082031 230.492188 L 246.722656 231.746094 L 247.867188 232.835938 L 249.152344 234.378906 L 250.296875 236.261719 L 251.152344 238.394531 L 251.582031 240.191406 L 241.578125 240.191406 L 241.078125 238.519531 L 240.507812 237.222656 L 239.433594 235.507812 L 238.363281 234.296875 L 236.863281 233.085938 L 235.503906 232.289062 L 233.648438 231.496094 L 232.003906 230.996094 L 230.289062 230.617188 L 228.644531 230.367188 L 225.5 230.117188 L 221.855469 230.117188 L 220.5 230.199219 L 217.710938 230.535156 L 216.210938 230.828125 L 214.066406 231.414062 L 212.566406 231.957031 L 210.78125 232.792969 L 209.566406 233.503906 L 208.066406 234.589844 L 206.992188 235.550781 L 205.777344 236.929688 L 205.0625 237.976562 L 204.421875 239.144531 L 203.847656 240.523438 L 203.421875 241.988281 L 203.132812 243.535156 L 202.992188 245.039062 L 202.992188 251.515625 L 203.132812 253.019531 L 203.492188 254.777344 L 204.421875 257.324219 L 205.777344 259.539062 L 207.351562 261.296875 L 208.851562 262.550781 L 209.707031 263.136719 L 210.851562 263.804688 L 212.636719 264.640625 L 215.210938 265.476562 L 216.710938 265.808594 L 219 266.144531 L 221.355469 266.3125 L 224.5 266.3125 L 227.289062 266.144531 L 229.144531 265.933594 L 231.074219 265.601562 L 233.71875 264.890625 L 235.363281 264.222656 L 236.792969 263.425781 L 237.863281 262.632812 L 238.578125 261.964844 L 239.648438 260.667969 L 240.507812 259.25 L 241.148438 257.785156 L 241.578125 256.363281 L 251.582031 256.363281 L 251.152344 258.035156 L 250.511719 259.667969 L 249.867188 260.878906 L 248.867188 262.339844 L 247.722656 263.636719 L 246.082031 265.097656 L 244.722656 266.0625 L 242.9375 267.105469 L 241.292969 267.898438 L 239.507812 268.609375 L 236.863281 269.445312 L 235.148438 269.863281 L 233.289062 270.238281 L 231.074219 270.574219 L 228.289062 270.867188 L 225.285156 271.035156 L 222.5 271.074219 L 219.5 270.992188 L 217.285156 270.824219 L 214.351562 270.449219 L 210.710938 269.695312 L 208.066406 268.902344 L 205.992188 268.109375 L 204.207031 267.273438 L 202.207031 266.144531 L 199.632812 264.304688 L 198.0625 262.882812 L 196.988281 261.714844 L 195.773438 260.085938 L 194.917969 258.621094 L 193.917969 256.28125 L 193.203125 253.3125 L 192.988281 251.015625 Z M 192.988281 245.246094 "/>
<path style=" stroke:none;fill-rule:nonzero;fill:rgb(83.921569%,15.686275%,22.352941%);fill-opacity:1;" d="M 192.988281 272.253906 L 251.582031 272.253906 L 251.582031 275.605469 L 227.164062 275.632812 L 227.164062 303.546875 L 217.335938 303.546875 L 217.335938 275.664062 L 217.195312 275.605469 L 192.988281 275.605469 Z M 192.988281 272.253906 "/>
<path style=" stroke:none;fill-rule:nonzero;fill:rgb(6.27451%,58.823529%,28.235294%);fill-opacity:1;" d="M 254.667969 296.273438 L 254.730469 296.082031 L 280.082031 91.757812 L 287.78125 91.757812 L 313.261719 296.46875 L 304.308594 296.46875 L 297.925781 243.03125 L 269.941406 243.03125 L 263.679688 296.273438 L 254.667969 296.273438 L 272.632812 220.925781 L 295.359375 220.734375 L 284.027344 125.203125 L 283.902344 125.011719 L 283.777344 125.585938 L 272.570312 220.734375 L 272.632812 220.925781 Z M 254.667969 296.273438 "/>
<path style=" stroke:none;fill-rule:nonzero;fill:rgb(14.509804%,36.078431%,60%);fill-opacity:1;" d="M 254.667969 301.027344 L 254.738281 301.019531 L 254.738281 300.851562 L 254.953125 300.582031 L 255.453125 300.238281 L 255.953125 300.003906 L 257.238281 299.585938 L 259.027344 299.179688 L 260.882812 298.867188 L 262.242188 298.683594 L 263.457031 298.542969 L 266.242188 298.277344 L 268.03125 298.144531 L 269.957031 298.023438 L 272.316406 297.902344 L 274.03125 297.832031 L 277.890625 297.71875 L 280.75 297.667969 L 282.964844 297.648438 L 287.75 297.648438 L 290.609375 297.675781 L 292.683594 297.710938 L 294.96875 297.765625 L 296.898438 297.832031 L 300.257812 297.988281 L 303.257812 298.1875 L 304.617188 298.300781 L 306.757812 298.519531 L 308.402344 298.734375 L 309.546875 298.917969 L 310.832031 299.179688 L 311.976562 299.5 L 312.832031 299.863281 L 313.261719 300.167969 L 303.257812 300.167969 L 302.757812 299.882812 L 302.1875 299.664062 L 301.113281 299.375 L 300.042969 299.167969 L 298.542969 298.960938 L 297.183594 298.824219 L 295.328125 298.691406 L 293.683594 298.605469 L 291.96875 298.542969 L 290.324219 298.5 L 287.179688 298.457031 L 283.535156 298.457031 L 282.179688 298.472656 L 279.390625 298.527344 L 277.890625 298.578125 L 275.746094 298.675781 L 274.246094 298.769531 L 272.460938 298.910156 L 271.246094 299.03125 L 269.746094 299.21875 L 268.671875 299.378906 L 267.457031 299.613281 L 266.742188 299.792969 L 266.101562 299.992188 L 265.527344 300.226562 L 265.101562 300.472656 L 264.8125 300.738281 L 264.671875 300.992188 L 264.671875 302.09375 L 264.8125 302.351562 L 265.171875 302.648438 L 266.101562 303.082031 L 267.457031 303.457031 L 269.03125 303.757812 L 270.53125 303.96875 L 271.386719 304.070312 L 272.53125 304.183594 L 274.316406 304.324219 L 276.890625 304.46875 L 278.390625 304.523438 L 280.675781 304.582031 L 283.035156 304.609375 L 286.179688 304.609375 L 288.964844 304.582031 L 290.824219 304.546875 L 292.753906 304.488281 L 295.398438 304.367188 L 297.042969 304.253906 L 298.46875 304.117188 L 299.542969 303.984375 L 300.257812 303.871094 L 301.328125 303.648438 L 302.1875 303.410156 L 302.828125 303.160156 L 303.257812 302.917969 L 313.261719 302.917969 L 312.832031 303.203125 L 312.191406 303.480469 L 311.546875 303.683594 L 310.546875 303.933594 L 309.402344 304.15625 L 307.761719 304.402344 L 306.402344 304.566406 L 304.617188 304.742188 L 302.972656 304.878906 L 301.1875 305 L 298.542969 305.140625 L 296.828125 305.214844 L 294.96875 305.277344 L 292.753906 305.332031 L 289.96875 305.382812 L 286.964844 305.410156 L 284.179688 305.417969 L 281.175781 305.40625 L 278.960938 305.375 L 276.03125 305.3125 L 272.386719 305.183594 L 269.746094 305.050781 L 267.671875 304.914062 L 265.886719 304.773438 L 263.886719 304.582031 L 261.3125 304.269531 L 259.742188 304.027344 L 258.667969 303.828125 L 257.453125 303.550781 L 256.597656 303.300781 L 255.597656 302.902344 L 254.882812 302.398438 L 254.667969 302.007812 Z M 254.667969 301.027344 "/>
<path style=" stroke:none;fill-rule:nonzero;fill:rgb(96.862745%,70.196078%,16.862745%);fill-opacity:1;" d="M 254.667969 309.925781 L 254.738281 309.921875 L 254.738281 309.777344 L 255.023438 309.457031 L 255.738281 309.019531 L 256.667969 308.65625 L 257.667969 308.371094 L 258.3125 308.222656 L 259.382812 308.011719 L 260.3125 307.855469 L 262.671875 307.535156 L 265.671875 307.238281 L 267.316406 307.109375 L 269.171875 306.988281 L 271.816406 306.855469 L 273.03125 306.804688 L 276.746094 306.691406 L 280.964844 306.621094 L 285.609375 306.597656 L 287.75 306.605469 L 290.679688 306.632812 L 294.683594 306.710938 L 296.96875 306.78125 L 298.757812 306.855469 L 300.613281 306.945312 L 302.902344 307.089844 L 305.042969 307.257812 L 306.757812 307.429688 L 308.472656 307.640625 L 309.902344 307.867188 L 311.117188 308.117188 L 312.191406 308.414062 L 312.832031 308.664062 L 313.261719 308.914062 L 303.328125 308.914062 L 302.757812 308.664062 L 302.113281 308.472656 L 301.042969 308.238281 L 299.972656 308.066406 L 298.898438 307.933594 L 296.898438 307.75 L 295.183594 307.636719 L 293.039062 307.535156 L 290.96875 307.472656 L 288.609375 307.429688 L 287.179688 307.414062 L 283.394531 307.414062 L 279.960938 307.464844 L 277.960938 307.519531 L 276.53125 307.578125 L 274.53125 307.683594 L 273.316406 307.769531 L 272.601562 307.828125 L 270.457031 308.046875 L 269.03125 308.246094 L 268.242188 308.378906 L 267.242188 308.59375 L 266.527344 308.785156 L 265.742188 309.070312 L 265.3125 309.28125 L 264.742188 309.765625 L 264.671875 311.042969 L 264.886719 311.3125 L 265.3125 311.601562 L 265.886719 311.859375 L 266.742188 312.128906 L 267.601562 312.332031 L 269.101562 312.609375 L 270.386719 312.796875 L 271.386719 312.914062 L 273.316406 313.105469 L 274.101562 313.171875 L 275.960938 313.300781 L 277.890625 313.398438 L 280.25 313.484375 L 282.035156 313.527344 L 284.894531 313.5625 L 288.539062 313.5625 L 292.824219 313.519531 L 295.539062 313.460938 L 297.398438 313.40625 L 298.613281 313.355469 L 300.113281 313.277344 L 301.1875 313.207031 L 302.1875 313.128906 L 303.402344 313.007812 L 303.402344 311.3125 L 285.75 311.304688 L 285.75 310.507812 L 313.191406 310.503906 L 313.261719 313.277344 L 311.761719 313.46875 L 309.902344 313.652344 L 308.117188 313.796875 L 306.257812 313.917969 L 303.617188 314.050781 L 301.472656 314.136719 L 298.183594 314.234375 L 295.183594 314.300781 L 292.039062 314.34375 L 289.253906 314.363281 L 285.964844 314.371094 L 283.035156 314.355469 L 279.890625 314.3125 L 277.390625 314.257812 L 275.105469 314.1875 L 272.816406 314.09375 L 269.957031 313.945312 L 268.101562 313.824219 L 266.171875 313.675781 L 264.242188 313.496094 L 262.527344 313.304688 L 261.382812 313.15625 L 260.242188 312.988281 L 259.027344 312.773438 L 257.882812 312.53125 L 257.023438 312.3125 L 256.238281 312.0625 L 255.667969 311.828125 L 255.09375 311.511719 L 254.808594 311.253906 L 254.667969 311.035156 Z M 254.667969 309.925781 "/>
<path style=" stroke:none;fill-rule:nonzero;fill:rgb(6.27451%,58.823529%,28.235294%);fill-opacity:1;" d="M 316.347656 314.09375 L 316.410156 313.820312 L 341.761719 20.664062 L 349.460938 20.664062 L 374.941406 314.371094 L 365.988281 314.371094 L 359.605469 237.703125 L 331.621094 237.703125 L 325.359375 314.09375 L 316.347656 314.09375 L 334.3125 205.988281 L 357.039062 205.710938 L 345.707031 68.648438 L 345.582031 68.375 L 345.457031 69.199219 L 334.25 205.710938 L 334.3125 205.988281 Z M 316.347656 314.09375 "/>
<path style=" stroke:none;fill-rule:nonzero;fill:rgb(6.27451%,58.823529%,28.235294%);fill-opacity:1;" d="M 378.023438 314.363281 L 378.085938 314.351562 L 403.441406 305.183594 L 411.140625 305.183594 L 436.621094 314.371094 L 427.667969 314.371094 L 421.28125 311.972656 L 393.300781 311.972656 L 387.039062 314.363281 L 378.023438 314.363281 L 395.992188 310.980469 L 418.714844 310.972656 L 407.386719 306.683594 L 407.261719 306.675781 L 407.136719 306.703125 L 395.929688 310.972656 L 395.992188 310.980469 Z M 378.023438 314.363281 "/>
<path style=" stroke:none;fill-rule:nonzero;fill:rgb(14.509804%,36.078431%,60%);fill-opacity:1;" d="M 378.023438 164.125 L 378.097656 163.898438 L 378.097656 158.46875 L 378.3125 149.867188 L 378.8125 139 L 379.3125 131.53125 L 380.597656 118.179688 L 382.382812 105.277344 L 384.242188 95.316406 L 385.601562 89.433594 L 386.8125 84.90625 L 389.601562 76.53125 L 391.386719 72.230469 L 393.316406 68.382812 L 395.675781 64.535156 L 397.390625 62.273438 L 401.25 58.652344 L 404.105469 57.066406 L 406.324219 56.386719 L 411.109375 56.386719 L 413.96875 57.292969 L 416.039062 58.425781 L 418.328125 60.234375 L 420.257812 62.273438 L 423.613281 67.25 L 426.617188 73.589844 L 427.972656 77.210938 L 430.117188 84.226562 L 431.761719 91.015625 L 432.90625 96.902344 L 434.191406 105.277344 L 435.335938 115.460938 L 436.191406 127.003906 L 436.621094 136.738281 L 426.617188 136.738281 L 426.117188 127.683594 L 425.542969 120.667969 L 424.472656 111.386719 L 423.402344 104.824219 L 421.898438 98.261719 L 420.542969 93.960938 L 418.683594 89.660156 L 417.039062 86.945312 L 415.324219 84.90625 L 413.683594 83.546875 L 410.539062 82.191406 L 406.894531 82.191406 L 405.535156 82.644531 L 402.75 84.453125 L 401.25 86.039062 L 399.105469 89.207031 L 397.605469 92.148438 L 395.816406 96.675781 L 394.601562 100.523438 L 393.101562 106.410156 L 392.03125 111.613281 L 390.816406 119.082031 L 390.101562 124.742188 L 389.457031 131.078125 L 388.886719 138.550781 L 388.457031 146.472656 L 388.171875 154.84375 L 388.027344 162.992188 L 388.027344 198.078125 L 388.171875 206.226562 L 388.53125 215.730469 L 389.457031 229.539062 L 390.816406 241.535156 L 392.386719 251.039062 L 393.890625 257.832031 L 394.746094 261 L 395.890625 264.621094 L 397.675781 269.148438 L 400.25 273.675781 L 401.75 275.484375 L 404.035156 277.296875 L 406.394531 278.203125 L 409.539062 278.203125 L 412.324219 277.296875 L 414.183594 276.164062 L 416.113281 274.351562 L 418.757812 270.503906 L 420.398438 266.882812 L 421.828125 262.582031 L 422.902344 258.285156 L 423.613281 254.660156 L 424.6875 247.644531 L 425.542969 239.949219 L 426.1875 232.027344 L 426.617188 224.332031 L 436.621094 224.332031 L 436.191406 233.386719 L 435.546875 242.214844 L 434.90625 248.777344 L 433.90625 256.699219 L 432.761719 263.714844 L 431.117188 271.636719 L 429.761719 276.84375 L 427.972656 282.5 L 426.332031 286.800781 L 424.542969 290.648438 L 421.898438 295.175781 L 420.183594 297.441406 L 418.328125 299.476562 L 416.113281 301.289062 L 413.324219 302.871094 L 410.324219 303.777344 L 407.539062 304.003906 L 404.535156 303.550781 L 402.320312 302.644531 L 399.390625 300.609375 L 395.746094 296.535156 L 393.101562 292.234375 L 391.03125 287.933594 L 389.242188 283.40625 L 387.242188 277.296875 L 384.671875 267.335938 L 383.097656 259.640625 L 382.027344 253.304688 L 380.8125 244.476562 L 379.953125 236.554688 L 378.953125 223.878906 L 378.238281 207.808594 L 378.023438 195.359375 Z M 378.023438 164.125 "/>
<path style=" stroke:none;fill-rule:nonzero;fill:rgb(6.27451%,58.823529%,28.235294%);fill-opacity:1;" d="M 439.703125 309.898438 L 439.765625 309.890625 L 465.121094 304.378906 L 472.820312 304.378906 L 498.300781 309.902344 L 489.347656 309.902344 L 482.960938 308.460938 L 454.980469 308.460938 L 448.71875 309.898438 L 439.703125 309.898438 L 457.671875 307.863281 L 480.394531 307.859375 L 469.066406 305.28125 L 468.9375 305.277344 L 468.8125 305.292969 L 457.609375 307.859375 L 457.671875 307.863281 Z M 439.703125 309.898438 "/>
<path style=" stroke:none;fill-rule:nonzero;fill:rgb(14.509804%,36.078431%,60%);fill-opacity:1;" d="M 439.703125 272.789062 L 439.777344 272.761719 L 439.777344 272.101562 L 439.988281 271.054688 L 440.492188 269.734375 L 440.992188 268.828125 L 442.277344 267.203125 L 444.0625 265.632812 L 445.921875 264.425781 L 447.277344 263.707031 L 448.492188 263.160156 L 451.28125 262.140625 L 453.066406 261.617188 L 454.996094 261.148438 L 457.355469 260.683594 L 459.070312 260.40625 L 462.929688 259.964844 L 465.785156 259.773438 L 468 259.691406 L 472.789062 259.691406 L 475.648438 259.800781 L 477.71875 259.9375 L 480.007812 260.160156 L 481.9375 260.40625 L 485.292969 261.011719 L 488.296875 261.78125 L 489.652344 262.222656 L 491.796875 263.074219 L 493.441406 263.902344 L 494.582031 264.617188 L 495.871094 265.632812 L 497.011719 266.871094 L 497.871094 268.277344 L 498.300781 269.460938 L 488.296875 269.460938 L 487.796875 268.359375 L 487.222656 267.503906 L 486.152344 266.378906 L 485.078125 265.578125 L 483.578125 264.78125 L 482.222656 264.257812 L 480.363281 263.734375 L 478.71875 263.40625 L 477.003906 263.160156 L 475.363281 262.992188 L 472.21875 262.828125 L 468.574219 262.828125 L 467.214844 262.882812 L 464.429688 263.101562 L 462.929688 263.296875 L 460.785156 263.679688 L 459.285156 264.039062 L 457.496094 264.589844 L 456.28125 265.058594 L 454.78125 265.773438 L 453.710938 266.40625 L 452.496094 267.3125 L 451.78125 268 L 451.136719 268.769531 L 450.566406 269.679688 L 450.136719 270.640625 L 449.851562 271.660156 L 449.707031 272.652344 L 449.707031 276.914062 L 449.851562 277.90625 L 450.207031 279.0625 L 451.136719 280.742188 L 452.496094 282.199219 L 454.066406 283.355469 L 455.566406 284.179688 L 456.425781 284.566406 L 457.570312 285.003906 L 459.355469 285.554688 L 461.925781 286.105469 L 463.429688 286.324219 L 465.714844 286.546875 L 468.074219 286.65625 L 471.21875 286.65625 L 474.003906 286.546875 L 475.863281 286.410156 L 477.792969 286.1875 L 480.433594 285.71875 L 482.078125 285.28125 L 483.507812 284.757812 L 484.578125 284.234375 L 485.292969 283.792969 L 486.367188 282.941406 L 487.222656 282.007812 L 487.867188 281.042969 L 488.296875 280.109375 L 498.300781 280.109375 L 497.871094 281.207031 L 497.226562 282.28125 L 496.585938 283.078125 L 495.585938 284.042969 L 494.441406 284.894531 L 492.796875 285.859375 L 491.441406 286.492188 L 489.652344 287.179688 L 488.007812 287.703125 L 486.222656 288.167969 L 483.578125 288.71875 L 481.863281 288.996094 L 480.007812 289.242188 L 477.792969 289.460938 L 475.003906 289.65625 L 472.003906 289.765625 L 469.214844 289.792969 L 466.214844 289.738281 L 464 289.628906 L 461.070312 289.378906 L 457.425781 288.882812 L 454.78125 288.363281 L 452.710938 287.839844 L 450.921875 287.289062 L 448.921875 286.546875 L 446.351562 285.335938 L 444.777344 284.398438 L 443.707031 283.628906 L 442.492188 282.554688 L 441.632812 281.59375 L 440.632812 280.050781 L 439.917969 278.097656 L 439.703125 276.585938 Z M 439.703125 272.789062 "/>
<path style=" stroke:none;fill-rule:nonzero;fill:rgb(96.862745%,70.196078%,16.862745%);fill-opacity:1;" d="M 439.703125 296.210938 L 439.777344 296.199219 L 439.777344 295.972656 L 440.0625 295.472656 L 440.777344 294.78125 L 441.707031 294.210938 L 442.707031 293.765625 L 443.347656 293.527344 L 444.421875 293.195312 L 445.347656 292.949219 L 447.707031 292.445312 L 450.707031 291.976562 L 452.351562 291.777344 L 454.210938 291.585938 L 456.855469 291.375 L 458.070312 291.296875 L 461.785156 291.117188 L 466 291.003906 L 470.644531 290.972656 L 472.789062 290.984375 L 475.71875 291.027344 L 479.71875 291.152344 L 482.007812 291.261719 L 483.792969 291.375 L 485.652344 291.519531 L 487.9375 291.742188 L 490.082031 292.011719 L 491.796875 292.277344 L 493.511719 292.613281 L 494.941406 292.972656 L 496.15625 293.363281 L 497.226562 293.832031 L 497.871094 294.222656 L 498.300781 294.613281 L 488.367188 294.613281 L 487.796875 294.222656 L 487.152344 293.921875 L 486.082031 293.550781 L 485.007812 293.285156 L 483.9375 293.070312 L 481.9375 292.78125 L 480.222656 292.601562 L 478.078125 292.445312 L 476.003906 292.34375 L 473.648438 292.277344 L 472.21875 292.257812 L 468.429688 292.257812 L 465 292.335938 L 463 292.425781 L 461.570312 292.511719 L 459.570312 292.679688 L 458.355469 292.816406 L 457.640625 292.902344 L 455.496094 293.25 L 454.066406 293.5625 L 453.28125 293.773438 L 452.28125 294.109375 L 451.566406 294.410156 L 450.78125 294.859375 L 450.351562 295.191406 L 449.78125 295.953125 L 449.707031 297.960938 L 449.921875 298.386719 L 450.351562 298.84375 L 450.921875 299.246094 L 451.78125 299.671875 L 452.636719 299.996094 L 454.140625 300.429688 L 455.425781 300.71875 L 456.425781 300.910156 L 458.355469 301.210938 L 459.140625 301.3125 L 461 301.511719 L 462.929688 301.667969 L 465.285156 301.804688 L 467.074219 301.871094 L 469.929688 301.925781 L 473.574219 301.925781 L 477.863281 301.859375 L 480.578125 301.769531 L 482.4375 301.679688 L 483.652344 301.601562 L 485.152344 301.480469 L 486.222656 301.367188 L 487.222656 301.246094 L 488.4375 301.054688 L 488.4375 298.386719 L 470.789062 298.375 L 470.789062 297.125 L 498.226562 297.113281 L 498.300781 301.480469 L 496.800781 301.78125 L 494.941406 302.070312 L 493.15625 302.292969 L 491.296875 302.484375 L 488.652344 302.695312 L 486.507812 302.832031 L 483.222656 302.988281 L 480.222656 303.085938 L 477.078125 303.152344 L 474.289062 303.1875 L 471.003906 303.199219 L 468.074219 303.175781 L 464.929688 303.109375 L 462.429688 303.019531 L 460.140625 302.910156 L 457.855469 302.761719 L 454.996094 302.527344 L 453.136719 302.339844 L 451.210938 302.105469 L 449.28125 301.824219 L 447.566406 301.523438 L 446.421875 301.289062 L 445.277344 301.023438 L 444.0625 300.6875 L 442.921875 300.308594 L 442.0625 299.960938 L 441.277344 299.570312 L 440.703125 299.203125 L 440.132812 298.699219 L 439.847656 298.296875 L 439.703125 297.949219 Z M 439.703125 296.210938 "/>
<path style=" stroke:none;fill-rule:nonzero;fill:rgb(83.921569%,15.686275%,22.352941%);fill-opacity:1;" d="M 439.703125 311.082031 L 498.300781 311.082031 L 498.300781 311.433594 L 473.878906 311.4375 L 473.878906 314.371094 L 464.054688 314.371094 L 464.054688 311.441406 L 463.910156 311.433594 L 439.703125 311.433594 Z M 439.703125 311.082031 "/>
<path style=" stroke:none;fill-rule:nonzero;fill:rgb(6.27451%,58.823529%,28.235294%);fill-opacity:1;" d="M 501.382812 314.332031 L 501.445312 314.292969 L 526.800781 272.910156 L 534.5 272.910156 L 559.980469 314.371094 L 551.027344 314.371094 L 544.640625 303.546875 L 516.660156 303.546875 L 510.398438 314.332031 L 501.382812 314.332031 L 519.351562 299.070312 L 542.074219 299.03125 L 530.742188 279.683594 L 530.617188 279.644531 L 530.492188 279.761719 L 519.289062 299.03125 L 519.351562 299.070312 Z M 501.382812 314.332031 "/>
<path style=" stroke:none;fill-rule:nonzero;fill:rgb(96.862745%,70.196078%,16.862745%);fill-opacity:1;" d="M 501.382812 195.214844 L 501.453125 195.089844 L 501.453125 192.648438 L 501.742188 187.144531 L 502.457031 179.566406 L 503.382812 173.335938 L 504.382812 168.445312 L 505.027344 165.878906 L 506.101562 162.210938 L 507.027344 159.523438 L 509.386719 154.019531 L 512.386719 148.886719 L 514.03125 146.6875 L 515.890625 144.609375 L 518.535156 142.285156 L 519.75 141.429688 L 523.464844 139.476562 L 527.679688 138.253906 L 532.324219 137.886719 L 534.46875 138.007812 L 537.398438 138.496094 L 541.398438 139.84375 L 543.6875 141.066406 L 545.472656 142.285156 L 547.332031 143.875 L 549.617188 146.320312 L 551.761719 149.253906 L 553.476562 152.1875 L 555.191406 155.855469 L 556.621094 159.765625 L 557.835938 164.042969 L 558.90625 169.179688 L 559.550781 173.457031 L 559.980469 177.734375 L 550.046875 177.734375 L 549.472656 173.457031 L 548.832031 170.15625 L 547.757812 166.121094 L 546.6875 163.1875 L 545.617188 160.867188 L 543.613281 157.6875 L 541.898438 155.734375 L 539.757812 154.019531 L 537.683594 152.921875 L 535.324219 152.1875 L 533.898438 151.941406 L 530.109375 151.941406 L 526.679688 152.800781 L 524.679688 153.777344 L 523.25 154.753906 L 521.25 156.589844 L 520.035156 158.054688 L 519.320312 159.03125 L 517.175781 162.820312 L 515.746094 166.246094 L 514.960938 168.566406 L 513.960938 172.234375 L 513.246094 175.535156 L 512.460938 180.421875 L 512.03125 184.089844 L 511.460938 192.402344 L 511.386719 214.402344 L 511.601562 219.050781 L 512.03125 224.0625 L 512.601562 228.460938 L 513.460938 233.105469 L 514.316406 236.652344 L 515.816406 241.417969 L 517.105469 244.597656 L 518.105469 246.671875 L 520.035156 249.972656 L 520.820312 251.074219 L 522.679688 253.273438 L 524.605469 254.984375 L 526.964844 256.453125 L 528.75 257.1875 L 531.609375 257.796875 L 535.253906 257.796875 L 539.542969 257.0625 L 542.257812 256.085938 L 544.113281 255.109375 L 545.328125 254.253906 L 546.832031 252.90625 L 547.902344 251.683594 L 548.902344 250.339844 L 550.117188 248.261719 L 550.117188 219.050781 L 532.46875 218.925781 L 532.46875 205.238281 L 559.90625 205.113281 L 559.980469 252.90625 L 558.476562 256.207031 L 556.621094 259.386719 L 554.832031 261.832031 L 552.976562 263.910156 L 550.332031 266.230469 L 548.1875 267.699219 L 544.902344 269.410156 L 541.898438 270.507812 L 538.753906 271.242188 L 535.96875 271.609375 L 532.683594 271.730469 L 529.753906 271.488281 L 526.609375 270.753906 L 524.105469 269.777344 L 521.820312 268.554688 L 519.535156 266.964844 L 516.675781 264.398438 L 514.816406 262.320312 L 512.886719 259.753906 L 510.957031 256.695312 L 509.242188 253.394531 L 508.101562 250.828125 L 506.957031 247.894531 L 505.742188 244.230469 L 504.597656 240.074219 L 503.742188 236.285156 L 502.957031 232.003906 L 502.382812 227.972656 L 501.8125 222.472656 L 501.527344 218.070312 L 501.382812 214.28125 Z M 501.382812 195.214844 "/>
<path style=" stroke:none;fill-rule:nonzero;fill:rgb(6.27451%,58.823529%,28.235294%);fill-opacity:1;" d="M 563.0625 301.910156 L 563.125 301.878906 L 588.480469 272.03125 L 596.179688 272.03125 L 621.65625 301.9375 L 612.707031 301.9375 L 606.320312 294.128906 L 578.335938 294.128906 L 572.078125 301.910156 L 563.0625 301.910156 L 581.03125 290.902344 L 603.753906 290.875 L 592.421875 276.917969 L 592.296875 276.890625 L 592.171875 276.972656 L 580.964844 290.875 L 581.03125 290.902344 Z M 563.0625 301.910156 "/>
<path style=" stroke:none;fill-rule:nonzero;fill:rgb(14.509804%,36.078431%,60%);fill-opacity:1;" d="M 563.0625 252.203125 L 563.132812 252.171875 L 563.132812 251.449219 L 563.347656 250.300781 L 563.847656 248.851562 L 564.347656 247.855469 L 565.636719 246.078125 L 567.421875 244.355469 L 569.28125 243.027344 L 570.636719 242.242188 L 571.851562 241.640625 L 574.640625 240.523438 L 576.425781 239.949219 L 578.355469 239.4375 L 580.710938 238.925781 L 582.425781 238.621094 L 586.285156 238.140625 L 589.144531 237.929688 L 591.359375 237.835938 L 596.148438 237.835938 L 599.003906 237.957031 L 601.078125 238.109375 L 603.363281 238.351562 L 605.292969 238.621094 L 608.652344 239.285156 L 611.652344 240.132812 L 613.011719 240.613281 L 615.15625 241.550781 L 616.796875 242.453125 L 617.941406 243.238281 L 619.226562 244.355469 L 620.371094 245.714844 L 621.230469 247.253906 L 621.65625 248.550781 L 611.652344 248.550781 L 611.152344 247.34375 L 610.582031 246.40625 L 609.511719 245.171875 L 608.4375 244.296875 L 606.9375 243.421875 L 605.578125 242.847656 L 603.722656 242.273438 L 602.078125 241.910156 L 600.363281 241.640625 L 598.71875 241.460938 L 595.574219 241.277344 L 591.929688 241.277344 L 590.574219 241.339844 L 587.785156 241.578125 L 586.285156 241.792969 L 584.144531 242.214844 L 582.640625 242.605469 L 580.855469 243.210938 L 579.640625 243.722656 L 578.140625 244.507812 L 577.066406 245.199219 L 575.855469 246.195312 L 575.140625 246.953125 L 574.496094 247.796875 L 573.925781 248.792969 L 573.496094 249.847656 L 573.210938 250.964844 L 573.066406 252.050781 L 573.066406 256.730469 L 573.210938 257.816406 L 573.566406 259.082031 L 574.496094 260.921875 L 575.855469 262.523438 L 577.425781 263.789062 L 578.925781 264.695312 L 579.785156 265.117188 L 580.925781 265.601562 L 582.714844 266.203125 L 585.285156 266.808594 L 586.785156 267.050781 L 589.074219 267.289062 L 591.429688 267.410156 L 594.574219 267.410156 L 597.363281 267.289062 L 599.21875 267.140625 L 601.148438 266.898438 L 603.792969 266.386719 L 605.4375 265.902344 L 606.867188 265.328125 L 607.9375 264.757812 L 608.652344 264.273438 L 609.722656 263.335938 L 610.582031 262.3125 L 611.226562 261.253906 L 611.652344 260.230469 L 621.65625 260.230469 L 621.230469 261.4375 L 620.585938 262.613281 L 619.941406 263.488281 L 618.941406 264.542969 L 617.800781 265.480469 L 616.15625 266.535156 L 614.796875 267.230469 L 613.011719 267.984375 L 611.367188 268.558594 L 609.582031 269.070312 L 606.9375 269.675781 L 605.222656 269.976562 L 603.363281 270.25 L 601.148438 270.488281 L 598.363281 270.699219 L 595.363281 270.820312 L 592.574219 270.851562 L 589.574219 270.792969 L 587.359375 270.671875 L 584.429688 270.398438 L 580.785156 269.855469 L 578.140625 269.28125 L 576.066406 268.710938 L 574.28125 268.105469 L 572.28125 267.289062 L 569.707031 265.964844 L 568.136719 264.9375 L 567.0625 264.09375 L 565.847656 262.914062 L 564.992188 261.859375 L 563.992188 260.167969 L 563.277344 258.027344 L 563.0625 256.367188 Z M 563.0625 252.203125 "/>
<path style=" stroke:none;fill-rule:nonzero;fill:rgb(83.921569%,15.686275%,22.352941%);fill-opacity:1;" d="M 563.0625 303.117188 L 621.65625 303.117188 L 621.65625 304.320312 L 597.238281 304.332031 L 597.238281 314.371094 L 587.410156 314.371094 L 587.410156 304.34375 L 587.269531 304.320312 L 563.0625 304.320312 Z M 563.0625 303.117188 "/>
<path style=" stroke:none;fill-rule:nonzero;fill:rgb(6.27451%,58.823529%,28.235294%);fill-opacity:1;" d="M 624.742188 308.15625 L 624.804688 308.128906 L 650.15625 278.429688 L 657.859375 278.429688 L 683.335938 308.183594 L 674.386719 308.183594 L 668 300.417969 L 640.015625 300.417969 L 633.757812 308.15625 L 624.742188 308.15625 L 642.707031 297.203125 L 665.433594 297.175781 L 654.101562 283.292969 L 653.976562 283.265625 L 653.851562 283.347656 L 642.644531 297.175781 L 642.707031 297.203125 Z M 624.742188 308.15625 "/>
<path style=" stroke:none;fill-rule:nonzero;fill:rgb(14.509804%,36.078431%,60%);fill-opacity:1;" d="M 624.742188 211.519531 L 624.8125 211.410156 L 624.8125 208.859375 L 625.027344 204.816406 L 625.527344 199.710938 L 626.027344 196.203125 L 627.3125 189.925781 L 629.101562 183.863281 L 630.957031 179.183594 L 632.316406 176.417969 L 633.53125 174.289062 L 636.316406 170.355469 L 638.105469 168.335938 L 640.035156 166.527344 L 642.390625 164.71875 L 644.105469 163.652344 L 647.964844 161.953125 L 650.824219 161.207031 L 653.039062 160.886719 L 657.828125 160.886719 L 660.683594 161.3125 L 662.757812 161.847656 L 665.042969 162.695312 L 666.972656 163.652344 L 670.332031 165.992188 L 673.332031 168.972656 L 674.691406 170.675781 L 676.835938 173.972656 L 678.476562 177.164062 L 679.621094 179.929688 L 680.90625 183.863281 L 682.050781 188.648438 L 682.910156 194.074219 L 683.335938 198.648438 L 673.332031 198.648438 L 672.832031 194.394531 L 672.261719 191.097656 L 671.1875 186.734375 L 670.117188 183.652344 L 668.617188 180.566406 L 667.257812 178.546875 L 665.402344 176.523438 L 663.757812 175.246094 L 662.042969 174.289062 L 660.398438 173.652344 L 657.253906 173.015625 L 653.609375 173.015625 L 652.253906 173.226562 L 649.464844 174.078125 L 647.964844 174.824219 L 645.820312 176.3125 L 644.320312 177.695312 L 642.535156 179.820312 L 641.320312 181.628906 L 639.820312 184.394531 L 638.746094 186.839844 L 637.53125 190.351562 L 636.816406 193.011719 L 636.175781 195.988281 L 635.601562 199.5 L 635.175781 203.222656 L 634.890625 207.15625 L 634.746094 210.988281 L 634.746094 227.472656 L 634.890625 231.300781 L 635.246094 235.769531 L 636.175781 242.257812 L 637.53125 247.894531 L 639.105469 252.363281 L 640.605469 255.554688 L 641.464844 257.042969 L 642.605469 258.746094 L 644.394531 260.871094 L 646.964844 263 L 648.464844 263.851562 L 650.753906 264.699219 L 653.109375 265.125 L 656.253906 265.125 L 659.042969 264.699219 L 660.898438 264.167969 L 662.828125 263.316406 L 665.472656 261.511719 L 667.117188 259.808594 L 668.546875 257.785156 L 669.617188 255.765625 L 670.332031 254.0625 L 671.402344 250.765625 L 672.261719 247.152344 L 672.902344 243.429688 L 673.332031 239.8125 L 683.335938 239.8125 L 682.910156 244.066406 L 682.265625 248.214844 L 681.621094 251.296875 L 680.621094 255.023438 L 679.476562 258.320312 L 677.835938 262.042969 L 676.476562 264.488281 L 674.691406 267.148438 L 673.046875 269.167969 L 671.261719 270.976562 L 668.617188 273.105469 L 666.902344 274.167969 L 665.042969 275.125 L 662.828125 275.976562 L 660.042969 276.71875 L 657.039062 277.144531 L 654.253906 277.25 L 651.253906 277.039062 L 649.039062 276.613281 L 646.109375 275.65625 L 642.464844 273.742188 L 639.820312 271.722656 L 637.746094 269.699219 L 635.960938 267.574219 L 633.960938 264.699219 L 631.386719 260.019531 L 629.816406 256.40625 L 628.742188 253.425781 L 627.527344 249.277344 L 626.671875 245.554688 L 625.671875 239.597656 L 624.957031 232.046875 L 624.742188 226.195312 Z M 624.742188 211.519531 "/>
<path style=" stroke:none;fill-rule:nonzero;fill:rgb(96.862745%,70.196078%,16.862745%);fill-opacity:1;" d="M 624.742188 311.507812 L 624.8125 311.503906 L 624.8125 311.414062 L 625.097656 311.207031 L 625.8125 310.921875 L 626.742188 310.691406 L 627.742188 310.507812 L 628.386719 310.410156 L 629.457031 310.273438 L 630.386719 310.171875 L 632.746094 309.96875 L 635.746094 309.773438 L 637.390625 309.691406 L 639.246094 309.613281 L 641.890625 309.527344 L 643.105469 309.496094 L 646.820312 309.421875 L 651.039062 309.378906 L 655.683594 309.363281 L 657.828125 309.367188 L 660.757812 309.386719 L 664.757812 309.4375 L 667.042969 309.484375 L 668.832031 309.527344 L 670.6875 309.585938 L 672.976562 309.679688 L 675.121094 309.789062 L 676.835938 309.898438 L 678.550781 310.035156 L 679.980469 310.183594 L 681.191406 310.34375 L 682.265625 310.535156 L 682.910156 310.695312 L 683.335938 310.855469 L 673.40625 310.855469 L 672.832031 310.695312 L 672.191406 310.570312 L 671.117188 310.421875 L 670.046875 310.308594 L 668.972656 310.222656 L 666.972656 310.105469 L 665.257812 310.03125 L 663.113281 309.96875 L 661.042969 309.925781 L 658.683594 309.898438 L 657.253906 309.890625 L 653.46875 309.890625 L 650.039062 309.921875 L 648.035156 309.957031 L 646.609375 309.996094 L 644.605469 310.0625 L 643.390625 310.117188 L 642.675781 310.15625 L 640.535156 310.296875 L 639.105469 310.425781 L 638.320312 310.511719 L 637.316406 310.648438 L 636.605469 310.773438 L 635.816406 310.953125 L 635.390625 311.09375 L 634.816406 311.402344 L 634.746094 312.226562 L 634.960938 312.398438 L 635.390625 312.585938 L 635.960938 312.753906 L 636.816406 312.925781 L 637.675781 313.058594 L 639.175781 313.238281 L 640.460938 313.355469 L 641.464844 313.433594 L 643.390625 313.558594 L 644.179688 313.597656 L 646.035156 313.679688 L 647.964844 313.746094 L 650.324219 313.800781 L 652.109375 313.828125 L 654.96875 313.847656 L 658.613281 313.847656 L 662.898438 313.820312 L 665.617188 313.785156 L 667.472656 313.75 L 668.6875 313.714844 L 670.1875 313.667969 L 671.261719 313.621094 L 672.261719 313.570312 L 673.476562 313.492188 L 673.476562 312.398438 L 655.824219 312.394531 L 655.824219 311.882812 L 683.265625 311.878906 L 683.335938 313.667969 L 681.835938 313.789062 L 679.980469 313.910156 L 678.191406 314 L 676.335938 314.078125 L 673.691406 314.164062 L 671.546875 314.21875 L 668.257812 314.285156 L 665.257812 314.324219 L 662.113281 314.351562 L 659.328125 314.367188 L 656.039062 314.371094 L 653.109375 314.363281 L 649.964844 314.335938 L 647.464844 314.296875 L 645.179688 314.25 L 642.890625 314.191406 L 640.035156 314.097656 L 638.175781 314.019531 L 636.246094 313.921875 L 634.316406 313.808594 L 632.601562 313.683594 L 631.457031 313.589844 L 630.316406 313.480469 L 629.101562 313.34375 L 627.957031 313.1875 L 627.101562 313.042969 L 626.3125 312.882812 L 625.742188 312.734375 L 625.171875 312.527344 L 624.882812 312.363281 L 624.742188 312.222656 Z M 624.742188 311.507812 "/>
<g style="fill:rgb(0%,0%,0%);fill-opacity:1;">
  <use xlink:href="#glyph0-1" x="21.957031" y="318.198242"/>
  <use xlink:href="#glyph0-2" x="27.291016" y="318.198242"/>
  <use xlink:href="#glyph0-1" x="29.958008" y="318.198242"/>
</g>
<g style="fill:rgb(0%,0%,0%);fill-opacity:1;">
  <use xlink:href="#glyph0-1" x="21.957031" y="244.475586"/>
  <use xlink:href="#glyph0-2" x="27.291016" y="244.475586"/>
  <use xlink:href="#glyph0-3" x="29.958008" y="244.475586"/>
</g>
<g style="fill:rgb(0%,0%,0%);fill-opacity:1;">
  <use xlink:href="#glyph0-4" x="21.957031" y="170.75293"/>
  <use xlink:href="#glyph0-2" x="27.291016" y="170.75293"/>
  <use xlink:href="#glyph0-1" x="29.958008" y="170.75293"/>
</g>
<g style="fill:rgb(0%,0%,0%);fill-opacity:1;">
  <use xlink:href="#glyph0-4" x="21.957031" y="97.03418"/>
  <use xlink:href="#glyph0-2" x="27.291016" y="97.03418"/>
  <use xlink:href="#glyph0-3" x="29.958008" y="97.03418"/>
</g>
<g style="fill:rgb(0%,0%,0%);fill-opacity:1;">
  <use xlink:href="#glyph0-5" x="21.957031" y="23.311523"/>
  <use xlink:href="#glyph0-2" x="27.291016" y="23.311523"/>
  <use xlink:href="#glyph0-1" x="29.958008" y="23.311523"/>
</g>
<g style="fill:rgb(0%,0%,0%);fill-opacity:1;">
  <use xlink:href="#glyph0-4" x="95.925781" y="338.19043"/>
</g>
<g style="fill:rgb(0%,0%,0%);fill-opacity:1;">
  <use xlink:href="#glyph0-5" x="157.605469" y="338.19043"/>
</g>
<g style="fill:rgb(0%,0%,0%);fill-opacity:1;">
  <use xlink:href="#glyph0-6" x="219.285156" y="338.19043"/>
</g>
<g style="fill:rgb(0%,0%,0%);fill-opacity:1;">
  <use xlink:href="#glyph0-7" x="280.964844" y="338.19043"/>
</g>
<g style="fill:rgb(0%,0%,0%);fill-opacity:1;">
  <use xlink:href="#glyph0-3" x="342.644531" y="338.19043"/>
</g>
<g style="fill:rgb(0%,0%,0%);fill-opacity:1;">
  <use xlink:href="#glyph0-8" x="404.324219" y="338.19043"/>
</g>
<g style="fill:rgb(0%,0%,0%);fill-opacity:1;">
  <use xlink:href="#glyph0-9" x="466" y="338.19043"/>
</g>
<g style="fill:rgb(0%,0%,0%);fill-opacity:1;">
  <use xlink:href="#glyph0-10" x="527.679688" y="338.19043"/>
</g>
<g style="fill:rgb(0%,0%,0%);fill-opacity:1;">
  <use xlink:href="#glyph0-11" x="589.359375" y="338.19043"/>
</g>
<g style="fill:rgb(0%,0%,0%);fill-opacity:1;">
  <use xlink:href="#glyph0-4" x="648.539062" y="338.19043"/>
  <use xlink:href="#glyph0-1" x="653.873047" y="338.19043"/>
</g>
<g style="fill:rgb(0%,0%,0%);fill-opacity:1;">
  <use xlink:href="#glyph1-1" x="14.412109" y="178.015625"/>
  <use xlink:href="#glyph1-2" x="14.412109" y="170.011719"/>
  <use xlink:href="#glyph1-3" x="14.412109" y="167.347656"/>
  <use xlink:href="#glyph1-4" x="14.412109" y="164.011719"/>
</g>
</g>
</svg>
