<?xml version="1.0" encoding="UTF-8"?>
<svg xmlns="http://www.w3.org/2000/svg" xmlns:xlink="http://www.w3.org/1999/xlink" width="720pt" height="360pt" viewBox="0 0 720 360" version="1.1">
<defs>
<g>
<symbol overflow="visible" id="glyph0-0">
<path style="stroke:none;" d=""/>
</symbol>
<symbol overflow="visible" id="glyph0-1">
<path style="stroke:none;" d="M 2.640625 -6.796875 C 2 -6.796875 1.421875 -6.53125 1.078125 -6.046875 C 0.640625 -5.453125 0.40625 -4.546875 0.40625 -3.296875 C 0.40625 -1 1.1875 0.21875 2.640625 0.21875 C 4.078125 0.21875 4.859375 -1 4.859375 -3.234375 C 4.859375 -4.5625 4.65625 -5.4375 4.203125 -6.046875 C 3.84375 -6.53125 3.28125 -6.796875 2.640625 -6.796875 Z M 2.640625 -6.046875 C 3.546875 -6.046875 4 -5.125 4 -3.3125 C 4 -1.375 3.5625 -0.484375 2.625 -0.484375 C 1.734375 -0.484375 1.28125 -1.421875 1.28125 -3.28125 C 1.28125 -5.140625 1.734375 -6.046875 2.640625 -6.046875 Z M 2.640625 -6.046875 "/>
</symbol>
<symbol overflow="visible" id="glyph0-2">
<path style="stroke:none;" d="M 1.828125 -1 L 0.828125 -1 L 0.828125 0 L 1.828125 0 Z M 1.828125 -1 "/>
</symbol>
<symbol overflow="visible" id="glyph0-3">
<path style="stroke:none;" d="M 4.5625 -6.796875 L 1.0625 -6.796875 L 0.546875 -3.09375 L 1.328125 -3.09375 C 1.71875 -3.5625 2.046875 -3.734375 2.578125 -3.734375 C 3.484375 -3.734375 4.0625 -3.109375 4.0625 -2.09375 C 4.0625 -1.125 3.484375 -0.53125 2.578125 -0.53125 C 1.828125 -0.53125 1.375 -0.90625 1.1875 -1.671875 L 0.328125 -1.671875 C 0.453125 -1.109375 0.546875 -0.84375 0.75 -0.59375 C 1.125 -0.078125 1.828125 0.21875 2.59375 0.21875 C 3.96875 0.21875 4.921875 -0.78125 4.921875 -2.21875 C 4.921875 -3.5625 4.03125 -4.484375 2.71875 -4.484375 C 2.25 -4.484375 1.859375 -4.359375 1.46875 -4.0625 L 1.734375 -5.96875 L 4.5625 -5.96875 Z M 4.5625 -6.796875 "/>
</symbol>
<symbol overflow="visible" id="glyph0-4">
<path style="stroke:none;" d="M 2.484375 -4.84375 L 2.484375 0 L 3.328125 0 L 3.328125 -6.796875 L 2.765625 -6.796875 C 2.46875 -5.75 2.28125 -5.609375 0.984375 -5.453125 L 0.984375 -4.84375 Z M 2.484375 -4.84375 "/>
</symbol>
<symbol overflow="visible" id="glyph0-5">
<path style="stroke:none;" d="M 4.859375 -0.828125 L 1.28125 -0.828125 C 1.359375 -1.390625 1.671875 -1.75 2.5 -2.234375 L 3.46875 -2.75 C 4.40625 -3.265625 4.90625 -3.96875 4.90625 -4.8125 C 4.90625 -5.375 4.671875 -5.90625 4.265625 -6.265625 C 3.859375 -6.625 3.375 -6.796875 2.71875 -6.796875 C 1.859375 -6.796875 1.21875 -6.5 0.84375 -5.921875 C 0.609375 -5.5625 0.5 -5.125 0.484375 -4.4375 L 1.328125 -4.4375 C 1.359375 -4.90625 1.40625 -5.1875 1.53125 -5.40625 C 1.75 -5.8125 2.1875 -6.0625 2.703125 -6.0625 C 3.46875 -6.0625 4.03125 -5.515625 4.03125 -4.78125 C 4.03125 -4.25 3.71875 -3.796875 3.125 -3.4375 L 2.234375 -2.9375 C 0.8125 -2.140625 0.40625 -1.5 0.328125 0 L 4.859375 0 Z M 4.859375 -0.828125 "/>
</symbol>
<symbol overflow="visible" id="glyph0-6">
<path style="stroke:none;" d="M 2.125 -3.125 L 2.578125 -3.125 C 3.515625 -3.125 3.984375 -2.703125 3.984375 -1.890625 C 3.984375 -1.03125 3.46875 -0.53125 2.578125 -0.53125 C 1.65625 -0.53125 1.203125 -0.984375 1.15625 -1.96875 L 0.3125 -1.96875 C 0.34375 -1.421875 0.4375 -1.078125 0.609375 -0.765625 C 0.953125 -0.109375 1.625 0.21875 2.546875 0.21875 C 3.953125 0.21875 4.859375 -0.609375 4.859375 -1.90625 C 4.859375 -2.765625 4.515625 -3.25 3.703125 -3.515625 C 4.34375 -3.765625 4.65625 -4.25 4.65625 -4.9375 C 4.65625 -6.109375 3.875 -6.796875 2.578125 -6.796875 C 1.203125 -6.796875 0.484375 -6.046875 0.453125 -4.609375 L 1.296875 -4.609375 C 1.3125 -5.015625 1.34375 -5.25 1.453125 -5.453125 C 1.640625 -5.828125 2.0625 -6.0625 2.59375 -6.0625 C 3.34375 -6.0625 3.796875 -5.625 3.796875 -4.90625 C 3.796875 -4.421875 3.609375 -4.140625 3.25 -3.984375 C 3.015625 -3.890625 2.71875 -3.84375 2.125 -3.84375 Z M 2.125 -3.125 "/>
</symbol>
<symbol overflow="visible" id="glyph0-7">
<path style="stroke:none;" d="M 3.140625 -1.625 L 3.140625 0 L 3.984375 0 L 3.984375 -1.625 L 4.984375 -1.625 L 4.984375 -2.390625 L 3.984375 -2.390625 L 3.984375 -6.796875 L 3.359375 -6.796875 L 0.265625 -2.515625 L 0.265625 -1.625 Z M 3.140625 -2.390625 L 1 -2.390625 L 3.140625 -5.359375 Z M 3.140625 -2.390625 "/>
</symbol>
<symbol overflow="visible" id="glyph0-8">
<path style="stroke:none;" d="M 4.78125 -5.03125 C 4.609375 -6.140625 3.890625 -6.796875 2.84375 -6.796875 C 2.09375 -6.796875 1.421875 -6.4375 1.03125 -5.828125 C 0.609375 -5.171875 0.40625 -4.34375 0.40625 -3.09375 C 0.40625 -1.953125 0.578125 -1.234375 0.984375 -0.625 C 1.359375 -0.078125 1.953125 0.21875 2.703125 0.21875 C 3.984375 0.21875 4.921875 -0.734375 4.921875 -2.078125 C 4.921875 -3.34375 4.0625 -4.234375 2.84375 -4.234375 C 2.171875 -4.234375 1.640625 -3.96875 1.28125 -3.46875 C 1.28125 -5.125 1.828125 -6.046875 2.796875 -6.046875 C 3.390625 -6.046875 3.796875 -5.671875 3.9375 -5.03125 Z M 2.734375 -3.484375 C 3.546875 -3.484375 4.0625 -2.921875 4.0625 -2 C 4.0625 -1.15625 3.484375 -0.53125 2.703125 -0.53125 C 1.921875 -0.53125 1.328125 -1.1875 1.328125 -2.046875 C 1.328125 -2.890625 1.90625 -3.484375 2.734375 -3.484375 Z M 2.734375 -3.484375 "/>
</symbol>
<symbol overflow="visible" id="glyph0-9">
<path style="stroke:none;" d="M 4.984375 -6.796875 L 0.4375 -6.796875 L 0.4375 -5.96875 L 4.109375 -5.96875 C 2.5 -3.65625 1.828125 -2.234375 1.328125 0 L 2.21875 0 C 2.59375 -2.171875 3.453125 -4.046875 4.984375 -6.09375 Z M 4.984375 -6.796875 "/>
</symbol>
<symbol overflow="visible" id="glyph0-10">
<path style="stroke:none;" d="M 3.75 -3.578125 C 4.453125 -4 4.6875 -4.34375 4.6875 -4.984375 C 4.6875 -6.046875 3.84375 -6.796875 2.640625 -6.796875 C 1.4375 -6.796875 0.59375 -6.046875 0.59375 -4.984375 C 0.59375 -4.359375 0.828125 -4.015625 1.515625 -3.578125 C 0.734375 -3.203125 0.359375 -2.640625 0.359375 -1.890625 C 0.359375 -0.640625 1.296875 0.21875 2.640625 0.21875 C 3.984375 0.21875 4.921875 -0.640625 4.921875 -1.875 C 4.921875 -2.640625 4.53125 -3.203125 3.75 -3.578125 Z M 2.640625 -6.046875 C 3.359375 -6.046875 3.8125 -5.625 3.8125 -4.96875 C 3.8125 -4.34375 3.34375 -3.921875 2.640625 -3.921875 C 1.921875 -3.921875 1.453125 -4.34375 1.453125 -4.984375 C 1.453125 -5.625 1.921875 -6.046875 2.640625 -6.046875 Z M 2.640625 -3.203125 C 3.484375 -3.203125 4.0625 -2.671875 4.0625 -1.875 C 4.0625 -1.0625 3.484375 -0.53125 2.625 -0.53125 C 1.796875 -0.53125 1.21875 -1.078125 1.21875 -1.875 C 1.21875 -2.671875 1.796875 -3.203125 2.640625 -3.203125 Z M 2.640625 -3.203125 "/>
</symbol>
<symbol overflow="visible" id="glyph1-0">
<path style="stroke:none;" d=""/>
</symbol>
<symbol overflow="visible" id="glyph1-1">
<path style="stroke:none;" d="M 0 -0.953125 L 0 -4.890625 C 0 -5.71875 -0.234375 -6.34375 -0.734375 -6.796875 C -1.1875 -7.234375 -1.8125 -7.46875 -2.5 -7.46875 C -3.546875 -7.46875 -4.1875 -7 -4.625 -5.875 C -4.984375 -6.671875 -5.640625 -7.09375 -6.53125 -7.09375 C -7.15625 -7.09375 -7.734375 -6.859375 -8.140625 -6.390625 C -8.5625 -5.9375 -8.75 -5.34375 -8.75 -4.5 L -8.75 -0.953125 Z M -4.984375 -2.0625 L -7.765625 -2.0625 L -7.765625 -4.21875 C -7.765625 -4.84375 -7.6875 -5.203125 -7.453125 -5.5 C -7.21875 -5.8125 -6.859375 -5.96875 -6.375 -5.96875 C -5.90625 -5.96875 -5.53125 -5.8125 -5.296875 -5.5 C -5.0625 -5.203125 -4.984375 -4.84375 -4.984375 -4.21875 Z M -0.984375 -2.0625 L -4 -2.0625 L -4 -4.78125 C -4 -5.328125 -3.859375 -5.6875 -3.578125 -5.953125 C -3.296875 -6.21875 -2.921875 -6.359375 -2.484375 -6.359375 C -2.0625 -6.359375 -1.6875 -6.21875 -1.40625 -5.953125 C -1.109375 -5.6875 -0.984375 -5.328125 -0.984375 -4.78125 Z M -0.984375 -2.0625 "/>
</symbol>
<symbol overflow="visible" id="glyph1-2">
<path style="stroke:none;" d="M -6.28125 -1.796875 L -6.28125 -0.796875 L 0 -0.796875 L 0 -1.796875 Z M -8.75 -1.796875 L -8.75 -0.796875 L -7.484375 -0.796875 L -7.484375 -1.796875 Z M -8.75 -1.796875 "/>
</symbol>
<symbol overflow="visible" id="glyph1-3">
<path style="stroke:none;" d="M -6.28125 -3.046875 L -6.28125 -2.015625 L -8.015625 -2.015625 L -8.015625 -1.015625 L -6.28125 -1.015625 L -6.28125 -0.171875 L -5.46875 -0.171875 L -5.46875 -1.015625 L -0.71875 -1.015625 C -0.078125 -1.015625 0.28125 -1.453125 0.28125 -2.234375 C 0.28125 -2.46875 0.25 -2.71875 0.1875 -3.046875 L -0.640625 -3.046875 C -0.609375 -2.921875 -0.59375 -2.765625 -0.59375 -2.5625 C -0.59375 -2.140625 -0.71875 -2.015625 -1.15625 -2.015625 L -5.46875 -2.015625 L -5.46875 -3.046875 Z M -6.28125 -3.046875 "/>
</symbol>
<symbol overflow="visible" id="glyph1-4">
<path style="stroke:none;" d="M -4.53125 -5.25 C -5.765625 -5.25 -6.46875 -4.421875 -6.46875 -2.96875 C -6.46875 -1.515625 -5.71875 -0.5625 -4.546875 -0.5625 C -3.5625 -0.5625 -3.09375 -1.0625 -2.734375 -2.5625 L -2.515625 -3.484375 C -2.34375 -4.1875 -2.09375 -4.46875 -1.625 -4.46875 C -1.046875 -4.46875 -0.640625 -3.875 -0.640625 -3 C -0.640625 -2.453125 -0.796875 -2 -1.0625 -1.75 C -1.25 -1.59375 -1.421875 -1.53125 -1.875 -1.46875 L -1.875 -0.40625 C -0.421875 -0.453125 0.28125 -1.265625 0.28125 -2.921875 C 0.28125 -4.5 -0.5 -5.515625 -1.71875 -5.515625 C -2.65625 -5.515625 -3.171875 -4.984375 -3.46875 -3.734375 L -3.703125 -2.765625 C -3.890625 -1.953125 -4.15625 -1.609375 -4.59375 -1.609375 C -5.171875 -1.609375 -5.546875 -2.125 -5.546875 -2.9375 C -5.546875 -3.75 -5.203125 -4.171875 -4.53125 -4.203125 Z M -4.53125 -5.25 "/>
</symbol>
</g>
</defs>
<g id="surface1567">
<rect x="0" y="0" width="720" height="360" style="fill:rgb(100%,100%,100%);fill-opacity:1;stroke:none;"/>
<path style=" stroke:none;fill-rule:nonzero;fill:rgb(6.27451%,58.823529%,28.235294%);fill-opacity:1;" d="M 146.824219 313.195312 L 146.902344 313.195312 L 178.636719 312.21875 L 188.273438 312.21875 L 220.160156 313.195312 L 208.957031 313.195312 L 200.964844 312.941406 L 165.941406 312.941406 L 158.109375 313.195312 L 146.824219 313.195312 L 169.3125 312.835938 L 197.753906 312.835938 L 183.570312 312.378906 L 183.414062 312.378906 L 183.257812 312.382812 L 169.234375 312.835938 L 169.3125 312.835938 Z M 146.824219 313.195312 "/>
<path style=" stroke:none;fill-rule:nonzero;fill:rgb(14.509804%,36.078431%,60%);fill-opacity:1;" d="M 146.824219 305.445312 L 146.914062 305.441406 L 146.914062 305.351562 L 147.183594 305.203125 L 147.808594 305.019531 L 148.433594 304.894531 L 150.042969 304.667969 L 152.28125 304.449219 L 154.605469 304.277344 L 156.304688 304.179688 L 157.824219 304.101562 L 161.3125 303.960938 L 163.550781 303.886719 L 165.964844 303.824219 L 168.914062 303.757812 L 171.0625 303.71875 L 175.890625 303.65625 L 179.46875 303.628906 L 182.242188 303.617188 L 188.234375 303.617188 L 191.8125 303.632812 L 194.40625 303.652344 L 197.265625 303.683594 L 199.679688 303.71875 L 203.882812 303.804688 L 207.640625 303.910156 L 209.339844 303.972656 L 212.023438 304.089844 L 214.078125 304.207031 L 215.511719 304.304688 L 217.121094 304.449219 L 218.550781 304.621094 L 219.625 304.816406 L 220.160156 304.980469 L 207.640625 304.980469 L 207.015625 304.828125 L 206.300781 304.710938 L 204.957031 304.550781 L 203.617188 304.441406 L 201.738281 304.328125 L 200.039062 304.257812 L 197.714844 304.183594 L 195.65625 304.136719 L 193.511719 304.101562 L 191.453125 304.078125 L 187.519531 304.054688 L 182.957031 304.054688 L 181.257812 304.0625 L 177.769531 304.09375 L 175.890625 304.121094 L 173.207031 304.175781 L 171.332031 304.226562 L 169.09375 304.300781 L 167.574219 304.367188 L 165.695312 304.46875 L 164.355469 304.554688 L 162.835938 304.683594 L 161.941406 304.777344 L 161.136719 304.886719 L 160.417969 305.011719 L 159.882812 305.148438 L 159.523438 305.289062 L 159.347656 305.425781 L 159.347656 306.023438 L 159.523438 306.160156 L 159.972656 306.320312 L 161.136719 306.554688 L 162.835938 306.761719 L 164.800781 306.921875 L 166.679688 307.035156 L 167.753906 307.089844 L 169.183594 307.152344 L 171.417969 307.226562 L 174.640625 307.304688 L 176.515625 307.335938 L 179.378906 307.367188 L 182.332031 307.382812 L 186.265625 307.382812 L 189.753906 307.367188 L 192.078125 307.347656 L 194.492188 307.316406 L 197.804688 307.25 L 199.859375 307.191406 L 201.648438 307.117188 L 202.988281 307.042969 L 203.882812 306.984375 L 205.226562 306.863281 L 206.300781 306.734375 L 207.105469 306.597656 L 207.640625 306.46875 L 220.160156 306.46875 L 219.625 306.621094 L 218.820312 306.773438 L 218.015625 306.882812 L 216.761719 307.015625 L 215.332031 307.136719 L 213.273438 307.269531 L 211.574219 307.359375 L 209.339844 307.453125 L 207.28125 307.527344 L 205.046875 307.59375 L 201.738281 307.671875 L 199.589844 307.707031 L 197.265625 307.742188 L 194.492188 307.773438 L 191.003906 307.800781 L 187.25 307.816406 L 183.761719 307.820312 L 180.003906 307.8125 L 177.234375 307.796875 L 173.566406 307.761719 L 169.003906 307.691406 L 165.695312 307.621094 L 163.101562 307.546875 L 160.867188 307.46875 L 158.363281 307.367188 L 155.144531 307.199219 L 153.175781 307.066406 L 151.832031 306.960938 L 150.3125 306.808594 L 149.238281 306.675781 L 147.988281 306.460938 L 147.09375 306.1875 L 146.824219 305.976562 Z M 146.824219 305.445312 "/>
<path style=" stroke:none;fill-rule:nonzero;fill:rgb(96.862745%,70.196078%,16.862745%);fill-opacity:1;" d="M 146.824219 299.425781 L 146.914062 299.421875 L 146.914062 299.328125 L 147.273438 299.109375 L 148.167969 298.8125 L 149.328125 298.566406 L 150.582031 298.371094 L 151.386719 298.269531 L 152.726562 298.125 L 153.890625 298.019531 L 156.84375 297.804688 L 160.597656 297.601562 L 162.65625 297.515625 L 164.980469 297.433594 L 168.289062 297.339844 L 169.808594 297.308594 L 174.460938 297.230469 L 179.738281 297.183594 L 185.550781 297.167969 L 188.234375 297.171875 L 191.898438 297.191406 L 196.910156 297.246094 L 199.769531 297.292969 L 202.007812 297.339844 L 204.332031 297.402344 L 207.195312 297.5 L 209.875 297.617188 L 212.023438 297.730469 L 214.167969 297.875 L 215.957031 298.03125 L 217.476562 298.199219 L 218.820312 298.402344 L 219.625 298.570312 L 220.160156 298.738281 L 207.730469 298.738281 L 207.015625 298.570312 L 206.210938 298.441406 L 204.867188 298.28125 L 203.527344 298.164062 L 202.183594 298.074219 L 199.679688 297.949219 L 197.535156 297.871094 L 194.851562 297.804688 L 192.257812 297.761719 L 189.304688 297.730469 L 187.519531 297.722656 L 182.777344 297.722656 L 178.484375 297.753906 L 175.980469 297.792969 L 174.191406 297.832031 L 171.6875 297.90625 L 170.167969 297.960938 L 169.273438 298 L 166.589844 298.152344 L 164.800781 298.285156 L 163.816406 298.378906 L 162.566406 298.523438 L 161.671875 298.652344 L 160.6875 298.84375 L 160.152344 298.988281 L 159.433594 299.316406 L 159.347656 300.183594 L 159.613281 300.367188 L 160.152344 300.566406 L 160.867188 300.738281 L 161.941406 300.921875 L 163.011719 301.0625 L 164.890625 301.25 L 166.5 301.375 L 167.753906 301.457031 L 170.167969 301.585938 L 171.152344 301.628906 L 173.476562 301.714844 L 175.890625 301.785156 L 178.84375 301.839844 L 181.078125 301.871094 L 184.65625 301.894531 L 189.21875 301.894531 L 194.582031 301.867188 L 197.980469 301.828125 L 200.308594 301.789062 L 201.828125 301.753906 L 203.707031 301.703125 L 205.046875 301.652344 L 206.300781 301.601562 L 207.820312 301.519531 L 207.820312 300.367188 L 185.730469 300.363281 L 185.730469 299.824219 L 220.070312 299.816406 L 220.160156 301.703125 L 218.285156 301.832031 L 215.957031 301.957031 L 213.722656 302.054688 L 211.398438 302.136719 L 208.085938 302.226562 L 205.40625 302.285156 L 201.289062 302.351562 L 197.535156 302.394531 L 193.597656 302.425781 L 190.113281 302.4375 L 185.996094 302.445312 L 182.332031 302.433594 L 178.394531 302.40625 L 175.265625 302.367188 L 172.402344 302.320312 L 169.542969 302.257812 L 165.964844 302.15625 L 163.640625 302.074219 L 161.222656 301.972656 L 158.808594 301.851562 L 156.664062 301.722656 L 155.230469 301.621094 L 153.800781 301.503906 L 152.28125 301.359375 L 150.851562 301.195312 L 149.777344 301.046875 L 148.792969 300.878906 L 148.078125 300.71875 L 147.363281 300.503906 L 147.003906 300.328125 L 146.824219 300.179688 Z M 146.824219 299.425781 "/>
<path style=" stroke:none;fill-rule:nonzero;fill:rgb(83.921569%,15.686275%,22.352941%);fill-opacity:1;" d="M 146.824219 308.996094 L 220.160156 308.996094 L 220.160156 309.214844 L 189.597656 309.214844 L 189.597656 311.046875 L 177.300781 311.046875 L 177.300781 309.21875 L 177.121094 309.214844 L 146.824219 309.214844 Z M 146.824219 308.996094 "/>
<path style=" stroke:none;fill-rule:nonzero;fill:rgb(6.27451%,58.823529%,28.235294%);fill-opacity:1;" d="M 301.21875 295.292969 L 301.296875 295.285156 L 333.027344 285.738281 L 342.664062 285.738281 L 374.554688 295.300781 L 363.347656 295.300781 L 355.355469 292.804688 L 320.335938 292.804688 L 312.5 295.292969 L 301.21875 295.292969 L 323.703125 291.773438 L 352.144531 291.765625 L 337.964844 287.300781 L 337.808594 287.292969 L 337.648438 287.320312 L 323.625 291.765625 L 323.703125 291.773438 Z M 301.21875 295.292969 "/>
<path style=" stroke:none;fill-rule:nonzero;fill:rgb(14.509804%,36.078431%,60%);fill-opacity:1;" d="M 301.21875 308.027344 L 301.304688 308.019531 L 301.304688 307.890625 L 301.574219 307.683594 L 302.199219 307.417969 L 302.828125 307.238281 L 304.4375 306.917969 L 306.671875 306.605469 L 308.996094 306.363281 L 310.695312 306.222656 L 312.21875 306.113281 L 315.707031 305.910156 L 317.941406 305.804688 L 320.355469 305.714844 L 323.308594 305.621094 L 325.453125 305.566406 L 330.285156 305.476562 L 333.859375 305.441406 L 336.632812 305.421875 L 342.625 305.421875 L 346.203125 305.445312 L 348.796875 305.472656 L 351.65625 305.515625 L 354.074219 305.566406 L 358.277344 305.6875 L 362.03125 305.839844 L 363.730469 305.925781 L 366.414062 306.097656 L 368.472656 306.261719 L 369.902344 306.402344 L 371.511719 306.605469 L 372.945312 306.851562 L 374.015625 307.128906 L 374.554688 307.363281 L 362.03125 307.363281 L 361.40625 307.144531 L 360.691406 306.976562 L 359.347656 306.753906 L 358.007812 306.59375 L 356.128906 306.433594 L 354.429688 306.332031 L 352.105469 306.226562 L 350.046875 306.160156 L 347.902344 306.113281 L 345.84375 306.078125 L 341.910156 306.046875 L 337.347656 306.046875 L 335.648438 306.058594 L 332.160156 306.101562 L 330.285156 306.140625 L 327.601562 306.214844 L 325.722656 306.289062 L 323.484375 306.398438 L 321.964844 306.488281 L 320.085938 306.632812 L 318.746094 306.757812 L 317.226562 306.9375 L 316.332031 307.074219 L 315.527344 307.226562 L 314.8125 307.410156 L 314.273438 307.601562 L 313.917969 307.800781 L 313.738281 308 L 313.738281 308.847656 L 313.917969 309.042969 L 314.363281 309.273438 L 315.527344 309.605469 L 317.226562 309.898438 L 319.195312 310.125 L 321.070312 310.289062 L 322.144531 310.367188 L 323.574219 310.453125 L 325.8125 310.5625 L 329.03125 310.671875 L 330.910156 310.71875 L 333.769531 310.761719 L 336.722656 310.78125 L 340.65625 310.78125 L 344.144531 310.761719 L 346.472656 310.734375 L 348.886719 310.691406 L 352.195312 310.597656 L 354.25 310.507812 L 356.039062 310.40625 L 357.382812 310.300781 L 358.277344 310.214844 L 359.617188 310.042969 L 360.691406 309.859375 L 361.496094 309.667969 L 362.03125 309.480469 L 374.554688 309.480469 L 374.015625 309.699219 L 373.210938 309.914062 L 372.40625 310.070312 L 371.15625 310.261719 L 369.722656 310.433594 L 367.667969 310.625 L 365.96875 310.75 L 363.730469 310.886719 L 361.675781 310.992188 L 359.4375 311.082031 L 356.128906 311.191406 L 353.984375 311.246094 L 351.65625 311.296875 L 348.886719 311.339844 L 345.398438 311.378906 L 341.640625 311.402344 L 338.152344 311.40625 L 334.398438 311.394531 L 331.625 311.375 L 327.957031 311.324219 L 323.398438 311.226562 L 320.085938 311.121094 L 317.496094 311.019531 L 315.257812 310.910156 L 312.753906 310.761719 L 309.535156 310.519531 L 307.566406 310.335938 L 306.226562 310.179688 L 304.707031 309.96875 L 303.632812 309.777344 L 302.378906 309.46875 L 301.484375 309.082031 L 301.21875 308.78125 Z M 301.21875 308.027344 "/>
<path style=" stroke:none;fill-rule:nonzero;fill:rgb(96.862745%,70.196078%,16.862745%);fill-opacity:1;" d="M 301.21875 299.804688 L 301.304688 299.796875 L 301.304688 299.65625 L 301.664062 299.335938 L 302.558594 298.898438 L 303.722656 298.535156 L 304.972656 298.25 L 305.777344 298.101562 L 307.121094 297.890625 L 308.28125 297.734375 L 311.234375 297.414062 L 314.988281 297.113281 L 317.046875 296.988281 L 319.371094 296.867188 L 322.679688 296.730469 L 324.203125 296.683594 L 328.851562 296.570312 L 334.128906 296.496094 L 339.941406 296.476562 L 342.625 296.484375 L 346.292969 296.511719 L 351.300781 296.589844 L 354.164062 296.660156 L 356.398438 296.730469 L 358.722656 296.824219 L 361.585938 296.964844 L 364.269531 297.136719 L 366.414062 297.308594 L 368.5625 297.519531 L 370.351562 297.746094 L 371.871094 297.996094 L 373.210938 298.292969 L 374.015625 298.542969 L 374.554688 298.789062 L 362.121094 298.789062 L 361.40625 298.542969 L 360.601562 298.351562 L 359.261719 298.117188 L 357.917969 297.945312 L 356.578125 297.8125 L 354.074219 297.625 L 351.925781 297.511719 L 349.242188 297.414062 L 346.648438 297.347656 L 343.699219 297.308594 L 341.910156 297.292969 L 337.167969 297.292969 L 332.875 297.34375 L 330.371094 297.398438 L 328.585938 297.457031 L 326.078125 297.5625 L 324.558594 297.648438 L 323.664062 297.703125 L 320.980469 297.925781 L 319.195312 298.121094 L 318.210938 298.257812 L 316.957031 298.472656 L 316.0625 298.664062 L 315.078125 298.945312 L 314.542969 299.160156 L 313.828125 299.640625 L 313.738281 300.917969 L 314.007812 301.1875 L 314.542969 301.480469 L 315.257812 301.734375 L 316.332031 302.003906 L 317.40625 302.210938 L 319.28125 302.488281 L 320.894531 302.671875 L 322.144531 302.792969 L 324.558594 302.984375 L 325.542969 303.050781 L 327.867188 303.175781 L 330.285156 303.277344 L 333.234375 303.363281 L 335.46875 303.402344 L 339.046875 303.4375 L 343.609375 303.4375 L 348.976562 303.398438 L 352.375 303.339844 L 354.699219 303.285156 L 356.21875 303.234375 L 358.097656 303.15625 L 359.4375 303.085938 L 360.691406 303.007812 L 362.210938 302.886719 L 362.210938 301.1875 L 340.121094 301.183594 L 340.121094 300.386719 L 374.464844 300.378906 L 374.554688 303.15625 L 372.675781 303.347656 L 370.351562 303.53125 L 368.113281 303.671875 L 365.789062 303.792969 L 362.480469 303.929688 L 359.796875 304.015625 L 355.683594 304.113281 L 351.925781 304.175781 L 347.992188 304.21875 L 344.503906 304.242188 L 340.390625 304.25 L 336.722656 304.234375 L 332.789062 304.191406 L 329.65625 304.136719 L 326.796875 304.0625 L 323.933594 303.972656 L 320.355469 303.824219 L 318.03125 303.703125 L 315.617188 303.554688 L 313.203125 303.375 L 311.054688 303.183594 L 309.625 303.035156 L 308.191406 302.863281 L 306.671875 302.652344 L 305.242188 302.410156 L 304.167969 302.191406 L 303.183594 301.941406 L 302.46875 301.707031 L 301.753906 301.386719 L 301.394531 301.132812 L 301.21875 300.914062 Z M 301.21875 299.804688 "/>
<path style=" stroke:none;fill-rule:nonzero;fill:rgb(83.921569%,15.686275%,22.352941%);fill-opacity:1;" d="M 301.21875 312.582031 L 374.554688 312.582031 L 374.554688 312.648438 L 343.988281 312.648438 L 343.988281 313.195312 L 331.691406 313.195312 L 331.691406 312.648438 L 301.21875 312.648438 Z M 301.21875 312.582031 "/>
<path style=" stroke:none;fill-rule:nonzero;fill:rgb(6.27451%,58.823529%,28.235294%);fill-opacity:1;" d="M 378.414062 300.765625 L 378.492188 300.757812 L 410.222656 292.285156 L 419.859375 292.285156 L 451.75 300.773438 L 440.546875 300.773438 L 432.554688 298.554688 L 397.53125 298.554688 L 389.695312 300.765625 L 378.414062 300.765625 L 400.898438 297.640625 L 429.339844 297.632812 L 415.160156 293.671875 L 415.003906 293.664062 L 414.847656 293.6875 L 400.820312 297.632812 L 400.898438 297.640625 Z M 378.414062 300.765625 "/>
<path style=" stroke:none;fill-rule:nonzero;fill:rgb(14.509804%,36.078431%,60%);fill-opacity:1;" d="M 378.414062 308.757812 L 378.503906 308.757812 L 378.503906 308.691406 L 378.769531 308.589844 L 379.398438 308.457031 L 380.023438 308.367188 L 381.632812 308.207031 L 383.867188 308.054688 L 386.195312 307.933594 L 387.894531 307.863281 L 389.414062 307.808594 L 392.902344 307.710938 L 395.136719 307.660156 L 397.550781 307.613281 L 400.503906 307.566406 L 402.648438 307.539062 L 407.480469 307.496094 L 411.054688 307.476562 L 413.828125 307.46875 L 419.820312 307.46875 L 423.398438 307.480469 L 425.992188 307.492188 L 428.855469 307.515625 L 431.269531 307.539062 L 435.472656 307.597656 L 439.226562 307.675781 L 440.925781 307.71875 L 443.609375 307.800781 L 445.667969 307.882812 L 447.097656 307.953125 L 448.707031 308.054688 L 450.140625 308.175781 L 451.210938 308.316406 L 451.75 308.429688 L 439.226562 308.429688 L 438.601562 308.324219 L 437.886719 308.238281 L 436.546875 308.128906 L 435.203125 308.050781 L 433.324219 307.96875 L 431.625 307.917969 L 429.300781 307.867188 L 427.246094 307.835938 L 425.097656 307.808594 L 423.039062 307.792969 L 419.105469 307.777344 L 414.542969 307.777344 L 412.84375 307.78125 L 409.355469 307.804688 L 407.480469 307.824219 L 404.796875 307.863281 L 402.917969 307.898438 L 400.683594 307.953125 L 399.160156 307.996094 L 397.285156 308.066406 L 395.941406 308.128906 L 394.421875 308.21875 L 393.527344 308.289062 L 392.722656 308.363281 L 392.007812 308.453125 L 391.46875 308.546875 L 391.113281 308.648438 L 390.933594 308.746094 L 390.933594 309.164062 L 391.113281 309.261719 L 391.558594 309.378906 L 392.722656 309.542969 L 394.421875 309.6875 L 396.390625 309.800781 L 398.265625 309.882812 L 399.339844 309.917969 L 400.773438 309.964844 L 403.007812 310.015625 L 406.226562 310.070312 L 408.105469 310.09375 L 410.96875 310.113281 L 413.917969 310.125 L 417.855469 310.125 L 421.339844 310.113281 L 423.667969 310.101562 L 426.082031 310.078125 L 429.390625 310.035156 L 431.449219 309.992188 L 433.234375 309.9375 L 434.578125 309.886719 L 435.472656 309.84375 L 436.8125 309.761719 L 437.886719 309.667969 L 438.691406 309.574219 L 439.226562 309.480469 L 451.75 309.480469 L 451.210938 309.589844 L 450.40625 309.695312 L 449.601562 309.773438 L 448.351562 309.867188 L 446.917969 309.953125 L 444.863281 310.046875 L 443.164062 310.109375 L 440.925781 310.175781 L 438.871094 310.230469 L 436.636719 310.273438 L 433.324219 310.328125 L 431.179688 310.355469 L 428.855469 310.378906 L 426.082031 310.402344 L 422.59375 310.421875 L 418.835938 310.433594 L 415.347656 310.433594 L 411.59375 310.429688 L 408.820312 310.417969 L 405.152344 310.394531 L 400.59375 310.34375 L 397.285156 310.292969 L 394.691406 310.242188 L 392.453125 310.1875 L 389.949219 310.113281 L 386.730469 309.996094 L 384.761719 309.902344 L 383.421875 309.828125 L 381.902344 309.722656 L 380.828125 309.628906 L 379.574219 309.476562 L 378.679688 309.28125 L 378.414062 309.132812 Z M 378.414062 308.757812 "/>
<path style=" stroke:none;fill-rule:nonzero;fill:rgb(96.862745%,70.196078%,16.862745%);fill-opacity:1;" d="M 378.414062 312.289062 L 378.503906 312.289062 L 378.503906 312.257812 L 378.859375 312.195312 L 379.753906 312.105469 L 380.917969 312.03125 L 382.167969 311.972656 L 382.972656 311.941406 L 384.316406 311.898438 L 385.476562 311.867188 L 388.429688 311.800781 L 392.1875 311.738281 L 394.242188 311.714844 L 396.566406 311.691406 L 399.878906 311.660156 L 401.398438 311.652344 L 406.046875 311.628906 L 411.324219 311.613281 L 417.136719 311.609375 L 419.820312 311.609375 L 423.488281 311.617188 L 428.496094 311.632812 L 431.359375 311.648438 L 433.59375 311.660156 L 435.917969 311.679688 L 438.78125 311.710938 L 441.464844 311.746094 L 443.609375 311.78125 L 445.757812 311.824219 L 447.546875 311.867188 L 449.066406 311.917969 L 450.40625 311.980469 L 451.210938 312.03125 L 451.75 312.082031 L 439.316406 312.082031 L 438.601562 312.03125 L 437.796875 311.992188 L 436.457031 311.945312 L 435.113281 311.910156 L 433.773438 311.882812 L 431.269531 311.84375 L 429.121094 311.820312 L 426.4375 311.800781 L 423.847656 311.789062 L 420.894531 311.78125 L 419.105469 311.777344 L 414.367188 311.777344 L 410.074219 311.785156 L 407.570312 311.796875 L 405.78125 311.808594 L 403.277344 311.832031 L 401.753906 311.847656 L 400.859375 311.859375 L 398.179688 311.90625 L 396.390625 311.945312 L 395.40625 311.972656 L 394.152344 312.015625 L 393.257812 312.054688 L 392.277344 312.113281 L 391.738281 312.15625 L 391.023438 312.253906 L 390.933594 312.515625 L 391.203125 312.570312 L 391.738281 312.632812 L 392.453125 312.683594 L 393.527344 312.738281 L 394.601562 312.78125 L 396.480469 312.835938 L 398.089844 312.875 L 399.339844 312.898438 L 401.753906 312.9375 L 402.738281 312.949219 L 405.066406 312.976562 L 407.480469 312.996094 L 410.429688 313.015625 L 412.667969 313.023438 L 416.242188 313.03125 L 420.804688 313.03125 L 426.171875 313.023438 L 429.570312 313.011719 L 431.894531 313 L 433.414062 312.988281 L 435.292969 312.972656 L 436.636719 312.957031 L 437.886719 312.941406 L 439.40625 312.917969 L 439.40625 312.570312 L 417.316406 312.570312 L 417.316406 312.40625 L 451.660156 312.40625 L 451.75 312.972656 L 449.871094 313.011719 L 447.546875 313.050781 L 445.308594 313.078125 L 442.984375 313.101562 L 439.675781 313.128906 L 436.992188 313.148438 L 432.878906 313.167969 L 429.121094 313.179688 L 425.1875 313.191406 L 421.699219 313.195312 L 417.585938 313.195312 L 413.917969 313.191406 L 409.984375 313.183594 L 406.851562 313.171875 L 403.992188 313.15625 L 401.128906 313.140625 L 397.550781 313.109375 L 395.226562 313.085938 L 392.8125 313.054688 L 390.398438 313.019531 L 388.25 312.980469 L 386.820312 312.949219 L 385.390625 312.914062 L 383.867188 312.871094 L 382.4375 312.820312 L 381.363281 312.777344 L 380.378906 312.726562 L 379.664062 312.675781 L 378.949219 312.613281 L 378.59375 312.558594 L 378.414062 312.515625 Z M 378.414062 312.289062 "/>
<path style=" stroke:none;fill-rule:nonzero;fill:rgb(83.921569%,15.686275%,22.352941%);fill-opacity:1;" d="M 378.414062 301.945312 L 451.75 301.945312 L 451.75 302.414062 L 421.183594 302.417969 L 421.183594 306.292969 L 408.886719 306.292969 L 408.886719 302.421875 L 408.710938 302.414062 L 378.414062 302.414062 Z M 378.414062 301.945312 "/>
<path style=" stroke:none;fill-rule:nonzero;fill:rgb(96.862745%,70.196078%,16.862745%);fill-opacity:1;" d="M 455.609375 145.957031 L 455.699219 145.691406 L 455.699219 140.347656 L 456.054688 128.324219 L 456.949219 111.761719 L 458.113281 98.136719 L 459.367188 87.453125 L 460.171875 81.839844 L 461.511719 73.828125 L 462.675781 67.949219 L 465.625 55.925781 L 469.382812 44.707031 L 471.4375 39.898438 L 473.765625 35.355469 L 477.074219 30.28125 L 478.59375 28.410156 L 483.246094 24.136719 L 488.519531 21.464844 L 494.335938 20.664062 L 497.015625 20.929688 L 500.683594 22 L 505.691406 24.9375 L 508.554688 27.609375 L 510.789062 30.28125 L 513.117188 33.753906 L 515.976562 39.097656 L 518.660156 45.507812 L 520.804688 51.917969 L 522.953125 59.933594 L 524.742188 68.484375 L 526.261719 77.832031 L 527.605469 89.054688 L 528.410156 98.40625 L 528.945312 107.753906 L 516.515625 107.753906 L 515.796875 98.40625 L 514.992188 91.191406 L 513.652344 82.375 L 512.308594 75.964844 L 510.96875 70.886719 L 508.464844 63.941406 L 506.316406 59.667969 L 503.636719 55.925781 L 501.042969 53.523438 L 498.089844 51.917969 L 496.300781 51.386719 L 491.5625 51.386719 L 487.269531 53.253906 L 484.765625 55.394531 L 482.976562 57.53125 L 480.472656 61.539062 L 478.953125 64.742188 L 478.058594 66.878906 L 475.375 75.164062 L 473.585938 82.640625 L 472.601562 87.71875 L 471.347656 95.734375 L 470.457031 102.945312 L 469.472656 113.632812 L 468.933594 121.648438 L 468.21875 139.8125 L 468.128906 187.902344 L 468.398438 198.054688 L 468.933594 209.007812 L 469.648438 218.625 L 470.722656 228.773438 L 471.796875 236.523438 L 473.675781 246.941406 L 475.285156 253.886719 L 476.535156 258.429688 L 478.953125 265.640625 L 479.933594 268.046875 L 482.261719 272.855469 L 484.675781 276.597656 L 487.625 279.800781 L 489.863281 281.40625 L 493.441406 282.742188 L 498 282.742188 L 503.367188 281.136719 L 506.765625 279 L 509.089844 276.863281 L 510.609375 274.992188 L 512.488281 272.054688 L 513.832031 269.382812 L 515.082031 266.445312 L 516.601562 261.902344 L 516.601562 198.054688 L 494.511719 197.785156 L 494.511719 167.863281 L 528.855469 167.597656 L 528.945312 272.054688 L 527.066406 279.265625 L 524.742188 286.214844 L 522.507812 291.554688 L 520.179688 296.097656 L 516.871094 301.175781 L 514.1875 304.378906 L 510.074219 308.121094 L 506.316406 310.523438 L 502.382812 312.128906 L 498.894531 312.929688 L 494.78125 313.195312 L 491.113281 312.660156 L 487.179688 311.058594 L 484.050781 308.921875 L 481.1875 306.25 L 478.324219 302.777344 L 474.746094 297.167969 L 472.421875 292.625 L 470.007812 287.015625 L 467.59375 280.335938 L 465.445312 273.121094 L 464.015625 267.511719 L 462.585938 261.101562 L 461.066406 253.085938 L 459.632812 244.003906 L 458.558594 235.722656 L 457.578125 226.371094 L 456.859375 217.554688 L 456.144531 205.53125 L 455.789062 195.914062 L 455.609375 187.632812 Z M 455.609375 145.957031 "/>
<path style=" stroke:none;fill-rule:nonzero;fill:rgb(83.921569%,15.686275%,22.352941%);fill-opacity:1;" d="M 532.804688 20.664062 L 606.140625 20.664062 L 606.140625 51.976562 L 575.578125 52.25 L 575.578125 313.195312 L 563.28125 313.195312 L 563.28125 52.527344 L 563.101562 51.976562 L 532.804688 51.976562 Z M 532.804688 20.664062 "/>
<path style=" stroke:none;fill-rule:nonzero;fill:rgb(6.27451%,58.823529%,28.235294%);fill-opacity:1;" d="M 610 312.921875 L 610.078125 312.644531 L 641.8125 20.664062 L 651.449219 20.664062 L 683.335938 313.195312 L 672.132812 313.195312 L 664.140625 236.835938 L 629.117188 236.835938 L 621.285156 312.921875 L 610 312.921875 L 632.488281 205.246094 L 660.929688 204.972656 L 646.746094 68.457031 L 646.589844 68.183594 L 646.433594 69.007812 L 632.410156 204.972656 L 632.488281 205.246094 Z M 610 312.921875 "/>
<g style="fill:rgb(0%,0%,0%);fill-opacity:1;">
  <use xlink:href="#glyph0-1" x="21.957031" y="317.018555"/>
  <use xlink:href="#glyph0-2" x="27.291016" y="317.018555"/>
  <use xlink:href="#glyph0-1" x="29.958008" y="317.018555"/>
</g>
<g style="fill:rgb(0%,0%,0%);fill-opacity:1;">
  <use xlink:href="#glyph0-1" x="21.957031" y="243.592773"/>
  <use xlink:href="#glyph0-2" x="27.291016" y="243.592773"/>
  <use xlink:href="#glyph0-3" x="29.958008" y="243.592773"/>
</g>
<g style="fill:rgb(0%,0%,0%);fill-opacity:1;">
  <use xlink:href="#glyph0-4" x="21.957031" y="170.163086"/>
  <use xlink:href="#glyph0-2" x="27.291016" y="170.163086"/>
  <use xlink:href="#glyph0-1" x="29.958008" y="170.163086"/>
</g>
<g style="fill:rgb(0%,0%,0%);fill-opacity:1;">
  <use xlink:href="#glyph0-4" x="21.957031" y="96.737305"/>
  <use xlink:href="#glyph0-2" x="27.291016" y="96.737305"/>
  <use xlink:href="#glyph0-3" x="29.958008" y="96.737305"/>
</g>
<g style="fill:rgb(0%,0%,0%);fill-opacity:1;">
  <use xlink:href="#glyph0-5" x="21.957031" y="23.311523"/>
  <use xlink:href="#glyph0-2" x="27.291016" y="23.311523"/>
  <use xlink:href="#glyph0-1" x="29.958008" y="23.311523"/>
</g>
<g style="fill:rgb(0%,0%,0%);fill-opacity:1;">
  <use xlink:href="#glyph0-4" x="103.296875" y="338.19043"/>
</g>
<g style="fill:rgb(0%,0%,0%);fill-opacity:1;">
  <use xlink:href="#glyph0-5" x="180.492188" y="338.19043"/>
</g>
<g style="fill:rgb(0%,0%,0%);fill-opacity:1;">
  <use xlink:href="#glyph0-6" x="257.6875" y="338.19043"/>
</g>
<g style="fill:rgb(0%,0%,0%);fill-opacity:1;">
  <use xlink:href="#glyph0-7" x="334.886719" y="338.19043"/>
</g>
<g style="fill:rgb(0%,0%,0%);fill-opacity:1;">
  <use xlink:href="#glyph0-3" x="412.082031" y="338.19043"/>
</g>
<g style="fill:rgb(0%,0%,0%);fill-opacity:1;">
  <use xlink:href="#glyph0-8" x="489.277344" y="338.19043"/>
</g>
<g style="fill:rgb(0%,0%,0%);fill-opacity:1;">
  <use xlink:href="#glyph0-9" x="566.472656" y="338.19043"/>
</g>
<g style="fill:rgb(0%,0%,0%);fill-opacity:1;">
  <use xlink:href="#glyph0-10" x="643.667969" y="338.19043"/>
</g>
<g style="fill:rgb(0%,0%,0%);fill-opacity:1;">
  <use xlink:href="#glyph1-1" x="14.412109" y="178.015625"/>
  <use xlink:href="#glyph1-2" x="14.412109" y="170.011719"/>
  <use xlink:href="#glyph1-3" x="14.412109" y="167.347656"/>
  <use xlink:href="#glyph1-4" x="14.412109" y="164.011719"/>
</g>
</g>
</svg>
