<?xml version="1.0" encoding="UTF-8"?>
<svg xmlns="http://www.w3.org/2000/svg" xmlns:xlink="http://www.w3.org/1999/xlink" width="720pt" height="360pt" viewBox="0 0 720 360" version="1.1">
<defs>
<g>
<symbol overflow="visible" id="glyph0-0">
<path style="stroke:none;" d=""/>
</symbol>
<symbol overflow="visible" id="glyph0-1">
<path style="stroke:none;" d="M 2.640625 -6.796875 C 2 -6.796875 1.421875 -6.53125 1.078125 -6.046875 C 0.640625 -5.453125 0.40625 -4.546875 0.40625 -3.296875 C 0.40625 -1 1.1875 0.21875 2.640625 0.21875 C 4.078125 0.21875 4.859375 -1 4.859375 -3.234375 C 4.859375 -4.5625 4.65625 -5.4375 4.203125 -6.046875 C 3.84375 -6.53125 3.28125 -6.796875 2.640625 -6.796875 Z M 2.640625 -6.046875 C 3.546875 -6.046875 4 -5.125 4 -3.3125 C 4 -1.375 3.5625 -0.484375 2.625 -0.484375 C 1.734375 -0.484375 1.28125 -1.421875 1.28125 -3.28125 C 1.28125 -5.140625 1.734375 -6.046875 2.640625 -6.046875 Z M 2.640625 -6.046875 "/>
</symbol>
<symbol overflow="visible" id="glyph0-2">
<path style="stroke:none;" d="M 1.828125 -1 L 0.828125 -1 L 0.828125 0 L 1.828125 0 Z M 1.828125 -1 "/>
</symbol>
<symbol overflow="visible" id="glyph0-3">
<path style="stroke:none;" d="M 4.5625 -6.796875 L 1.0625 -6.796875 L 0.546875 -3.09375 L 1.328125 -3.09375 C 1.71875 -3.5625 2.046875 -3.734375 2.578125 -3.734375 C 3.484375 -3.734375 4.0625 -3.109375 4.0625 -2.09375 C 4.0625 -1.125 3.484375 -0.53125 2.578125 -0.53125 C 1.828125 -0.53125 1.375 -0.90625 1.1875 -1.671875 L 0.328125 -1.671875 C 0.453125 -1.109375 0.546875 -0.84375 0.75 -0.59375 C 1.125 -0.078125 1.828125 0.21875 2.59375 0.21875 C 3.96875 0.21875 4.921875 -0.78125 4.921875 -2.21875 C 4.921875 -3.5625 4.03125 -4.484375 2.71875 -4.484375 C 2.25 -4.484375 1.859375 -4.359375 1.46875 -4.0625 L 1.734375 -5.96875 L 4.5625 -5.96875 Z M 4.5625 -6.796875 "/>
</symbol>
<symbol overflow="visible" id="glyph0-4">
<path style="stroke:none;" d="M 2.484375 -4.84375 L 2.484375 0 L 3.328125 0 L 3.328125 -6.796875 L 2.765625 -6.796875 C 2.46875 -5.75 2.28125 -5.609375 0.984375 -5.453125 L 0.984375 -4.84375 Z M 2.484375 -4.84375 "/>
</symbol>
<symbol overflow="visible" id="glyph0-5">
<path style="stroke:none;" d="M 4.859375 -0.828125 L 1.28125 -0.828125 C 1.359375 -1.390625 1.671875 -1.75 2.5 -2.234375 L 3.46875 -2.75 C 4.40625 -3.265625 4.90625 -3.96875 4.90625 -4.8125 C 4.90625 -5.375 4.671875 -5.90625 4.265625 -6.265625 C 3.859375 -6.625 3.375 -6.796875 2.71875 -6.796875 C 1.859375 -6.796875 1.21875 -6.5 0.84375 -5.921875 C 0.609375 -5.5625 0.5 -5.125 0.484375 -4.4375 L 1.328125 -4.4375 C 1.359375 -4.90625 1.40625 -5.1875 1.53125 -5.40625 C 1.75 -5.8125 2.1875 -6.0625 2.703125 -6.0625 C 3.46875 -6.0625 4.03125 -5.515625 4.03125 -4.78125 C 4.03125 -4.25 3.71875 -3.796875 3.125 -3.4375 L 2.234375 -2.9375 C 0.8125 -2.140625 0.40625 -1.5 0.328125 0 L 4.859375 0 Z M 4.859375 -0.828125 "/>
</symbol>
<symbol overflow="visible" id="glyph0-6">
<path style="stroke:none;" d="M 2.125 -3.125 L 2.578125 -3.125 C 3.515625 -3.125 3.984375 -2.703125 3.984375 -1.890625 C 3.984375 -1.03125 3.46875 -0.53125 2.578125 -0.53125 C 1.65625 -0.53125 1.203125 -0.984375 1.15625 -1.96875 L 0.3125 -1.96875 C 0.34375 -1.421875 0.4375 -1.078125 0.609375 -0.765625 C 0.953125 -0.109375 1.625 0.21875 2.546875 0.21875 C 3.953125 0.21875 4.859375 -0.609375 4.859375 -1.90625 C 4.859375 -2.765625 4.515625 -3.25 3.703125 -3.515625 C 4.34375 -3.765625 4.65625 -4.25 4.65625 -4.9375 C 4.65625 -6.109375 3.875 -6.796875 2.578125 -6.796875 C 1.203125 -6.796875 0.484375 -6.046875 0.453125 -4.609375 L 1.296875 -4.609375 C 1.3125 -5.015625 1.34375 -5.25 1.453125 -5.453125 C 1.640625 -5.828125 2.0625 -6.0625 2.59375 -6.0625 C 3.34375 -6.0625 3.796875 -5.625 3.796875 -4.90625 C 3.796875 -4.421875 3.609375 -4.140625 3.25 -3.984375 C 3.015625 -3.890625 2.71875 -3.84375 2.125 -3.84375 Z M 2.125 -3.125 "/>
</symbol>
<symbol overflow="visible" id="glyph0-7">
<path style="stroke:none;" d="M 3.140625 -1.625 L 3.140625 0 L 3.984375 0 L 3.984375 -1.625 L 4.984375 -1.625 L 4.984375 -2.390625 L 3.984375 -2.390625 L 3.984375 -6.796875 L 3.359375 -6.796875 L 0.265625 -2.515625 L 0.265625 -1.625 Z M 3.140625 -2.390625 L 1 -2.390625 L 3.140625 -5.359375 Z M 3.140625 -2.390625 "/>
</symbol>
<symbol overflow="visible" id="glyph0-8">
<path style="stroke:none;" d="M 4.78125 -5.03125 C 4.609375 -6.140625 3.890625 -6.796875 2.84375 -6.796875 C 2.09375 -6.796875 1.421875 -6.4375 1.03125 -5.828125 C 0.609375 -5.171875 0.40625 -4.34375 0.40625 -3.09375 C 0.40625 -1.953125 0.578125 -1.234375 0.984375 -0.625 C 1.359375 -0.078125 1.953125 0.21875 2.703125 0.21875 C 3.984375 0.21875 4.921875 -0.734375 4.921875 -2.078125 C 4.921875 -3.34375 4.0625 -4.234375 2.84375 -4.234375 C 2.171875 -4.234375 1.640625 -3.96875 1.28125 -3.46875 C 1.28125 -5.125 1.828125 -6.046875 2.796875 -6.046875 C 3.390625 -6.046875 3.796875 -5.671875 3.9375 -5.03125 Z M 2.734375 -3.484375 C 3.546875 -3.484375 4.0625 -2.921875 4.0625 -2 C 4.0625 -1.15625 3.484375 -0.53125 2.703125 -0.53125 C 1.921875 -0.53125 1.328125 -1.1875 1.328125 -2.046875 C 1.328125 -2.890625 1.90625 -3.484375 2.734375 -3.484375 Z M 2.734375 -3.484375 "/>
</symbol>
<symbol overflow="visible" id="glyph0-9">
<path style="stroke:none;" d="M 4.984375 -6.796875 L 0.4375 -6.796875 L 0.4375 -5.96875 L 4.109375 -5.96875 C 2.5 -3.65625 1.828125 -2.234375 1.328125 0 L 2.21875 0 C 2.59375 -2.171875 3.453125 -4.046875 4.984375 -6.09375 Z M 4.984375 -6.796875 "/>
</symbol>
<symbol overflow="visible" id="glyph0-10">
<path style="stroke:none;" d="M 3.75 -3.578125 C 4.453125 -4 4.6875 -4.34375 4.6875 -4.984375 C 4.6875 -6.046875 3.84375 -6.796875 2.640625 -6.796875 C 1.4375 -6.796875 0.59375 -6.046875 0.59375 -4.984375 C 0.59375 -4.359375 0.828125 -4.015625 1.515625 -3.578125 C 0.734375 -3.203125 0.359375 -2.640625 0.359375 -1.890625 C 0.359375 -0.640625 1.296875 0.21875 2.640625 0.21875 C 3.984375 0.21875 4.921875 -0.640625 4.921875 -1.875 C 4.921875 -2.640625 4.53125 -3.203125 3.75 -3.578125 Z M 2.640625 -6.046875 C 3.359375 -6.046875 3.8125 -5.625 3.8125 -4.96875 C 3.8125 -4.34375 3.34375 -3.921875 2.640625 -3.921875 C 1.921875 -3.921875 1.453125 -4.34375 1.453125 -4.984375 C 1.453125 -5.625 1.921875 -6.046875 2.640625 -6.046875 Z M 2.640625 -3.203125 C 3.484375 -3.203125 4.0625 -2.671875 4.0625 -1.875 C 4.0625 -1.0625 3.484375 -0.53125 2.625 -0.53125 C 1.796875 -0.53125 1.21875 -1.078125 1.21875 -1.875 C 1.21875 -2.671875 1.796875 -3.203125 2.640625 -3.203125 Z M 2.640625 -3.203125 "/>
</symbol>
<symbol overflow="visible" id="glyph0-11">
<path style="stroke:none;" d="M 0.515625 -1.546875 C 0.671875 -0.4375 1.40625 0.21875 2.4375 0.21875 C 3.1875 0.21875 3.859375 -0.140625 4.265625 -0.75 C 4.6875 -1.40625 4.890625 -2.25 4.890625 -3.484375 C 4.890625 -4.625 4.703125 -5.359375 4.3125 -5.953125 C 3.9375 -6.5 3.34375 -6.796875 2.59375 -6.796875 C 1.296875 -6.796875 0.359375 -5.84375 0.359375 -4.515625 C 0.359375 -3.25 1.234375 -2.34375 2.453125 -2.34375 C 3.09375 -2.34375 3.5625 -2.578125 4.015625 -3.109375 C 4 -1.453125 3.46875 -0.53125 2.5 -0.53125 C 1.90625 -0.53125 1.484375 -0.90625 1.359375 -1.546875 Z M 2.578125 -6.0625 C 3.375 -6.0625 3.96875 -5.40625 3.96875 -4.53125 C 3.96875 -3.6875 3.375 -3.09375 2.546875 -3.09375 C 1.734375 -3.09375 1.234375 -3.671875 1.234375 -4.578125 C 1.234375 -5.4375 1.796875 -6.0625 2.578125 -6.0625 Z M 2.578125 -6.0625 "/>
</symbol>
<symbol overflow="visible" id="glyph1-0">
<path style="stroke:none;" d=""/>
</symbol>
<symbol overflow="visible" id="glyph1-1">
<path style="stroke:none;" d="M 0 -0.953125 L 0 -4.890625 C 0 -5.71875 -0.234375 -6.34375 -0.734375 -6.796875 C -1.1875 -7.234375 -1.8125 -7.46875 -2.5 -7.46875 C -3.546875 -7.46875 -4.1875 -7 -4.625 -5.875 C -4.984375 -6.671875 -5.640625 -7.09375 -6.53125 -7.09375 C -7.15625 -7.09375 -7.734375 -6.859375 -8.140625 -6.390625 C -8.5625 -5.9375 -8.75 -5.34375 -8.75 -4.5 L -8.75 -0.953125 Z M -4.984375 -2.0625 L -7.765625 -2.0625 L -7.765625 -4.21875 C -7.765625 -4.84375 -7.6875 -5.203125 -7.453125 -5.5 C -7.21875 -5.8125 -6.859375 -5.96875 -6.375 -5.96875 C -5.90625 -5.96875 -5.53125 -5.8125 -5.296875 -5.5 C -5.0625 -5.203125 -4.984375 -4.84375 -4.984375 -4.21875 Z M -0.984375 -2.0625 L -4 -2.0625 L -4 -4.78125 C -4 -5.328125 -3.859375 -5.6875 -3.578125 -5.953125 C -3.296875 -6.21875 -2.921875 -6.359375 -2.484375 -6.359375 C -2.0625 -6.359375 -1.6875 -6.21875 -1.40625 -5.953125 C -1.109375 -5.6875 -0.984375 -5.328125 -0.984375 -4.78125 Z M -0.984375 -2.0625 "/>
</symbol>
<symbol overflow="visible" id="glyph1-2">
<path style="stroke:none;" d="M -6.28125 -1.796875 L -6.28125 -0.796875 L 0 -0.796875 L 0 -1.796875 Z M -8.75 -1.796875 L -8.75 -0.796875 L -7.484375 -0.796875 L -7.484375 -1.796875 Z M -8.75 -1.796875 "/>
</symbol>
<symbol overflow="visible" id="glyph1-3">
<path style="stroke:none;" d="M -6.28125 -3.046875 L -6.28125 -2.015625 L -8.015625 -2.015625 L -8.015625 -1.015625 L -6.28125 -1.015625 L -6.28125 -0.171875 L -5.46875 -0.171875 L -5.46875 -1.015625 L -0.71875 -1.015625 C -0.078125 -1.015625 0.28125 -1.453125 0.28125 -2.234375 C 0.28125 -2.46875 0.25 -2.71875 0.1875 -3.046875 L -0.640625 -3.046875 C -0.609375 -2.921875 -0.59375 -2.765625 -0.59375 -2.5625 C -0.59375 -2.140625 -0.71875 -2.015625 -1.15625 -2.015625 L -5.46875 -2.015625 L -5.46875 -3.046875 Z M -6.28125 -3.046875 "/>
</symbol>
<symbol overflow="visible" id="glyph1-4">
<path style="stroke:none;" d="M -4.53125 -5.25 C -5.765625 -5.25 -6.46875 -4.421875 -6.46875 -2.96875 C -6.46875 -1.515625 -5.71875 -0.5625 -4.546875 -0.5625 C -3.5625 -0.5625 -3.09375 -1.0625 -2.734375 -2.5625 L -2.515625 -3.484375 C -2.34375 -4.1875 -2.09375 -4.46875 -1.625 -4.46875 C -1.046875 -4.46875 -0.640625 -3.875 -0.640625 -3 C -0.640625 -2.453125 -0.796875 -2 -1.0625 -1.75 C -1.25 -1.59375 -1.421875 -1.53125 -1.875 -1.46875 L -1.875 -0.40625 C -0.421875 -0.453125 0.28125 -1.265625 0.28125 -2.921875 C 0.28125 -4.5 -0.5 -5.515625 -1.71875 -5.515625 C -2.65625 -5.515625 -3.171875 -4.984375 -3.46875 -3.734375 L -3.703125 -2.765625 C -3.890625 -1.953125 -4.15625 -1.609375 -4.59375 -1.609375 C -5.171875 -1.609375 -5.546875 -2.125 -5.546875 -2.9375 C -5.546875 -3.75 -5.203125 -4.171875 -4.53125 -4.203125 Z M -4.53125 -5.25 "/>
</symbol>
</g>
</defs>
<g id="surface110807">
<rect x="0" y="0" width="720" height="360" style="fill:rgb(100%,100%,100%);fill-opacity:1;stroke:none;"/>
<path style=" stroke:none;fill-rule:nonzero;fill:rgb(6.27451%,58.823529%,28.235294%);fill-opacity:1;" d="M 69.628906 303.519531 L 69.679688 303.503906 L 90.792969 286.972656 L 97.203125 286.972656 L 118.417969 303.535156 L 110.964844 303.535156 L 105.648438 299.210938 L 82.347656 299.210938 L 77.136719 303.519531 L 69.628906 303.519531 L 84.589844 297.421875 L 103.511719 297.40625 L 94.074219 289.675781 L 93.972656 289.660156 L 93.867188 289.707031 L 84.535156 297.40625 L 84.589844 297.421875 Z M 69.628906 303.519531 "/>
<path style=" stroke:none;fill-rule:nonzero;fill:rgb(14.509804%,36.078431%,60%);fill-opacity:1;" d="M 69.628906 306.757812 L 69.6875 306.753906 L 69.6875 306.652344 L 69.867188 306.488281 L 70.285156 306.28125 L 70.699219 306.140625 L 71.769531 305.886719 L 73.257812 305.640625 L 74.804688 305.453125 L 75.9375 305.339844 L 76.949219 305.253906 L 79.269531 305.09375 L 80.753906 305.011719 L 82.363281 304.941406 L 84.324219 304.867188 L 85.753906 304.824219 L 88.964844 304.753906 L 91.347656 304.722656 L 93.191406 304.710938 L 97.175781 304.710938 L 99.558594 304.730469 L 101.28125 304.75 L 103.1875 304.785156 L 104.792969 304.824219 L 107.589844 304.917969 L 110.089844 305.039062 L 111.21875 305.109375 L 113.003906 305.242188 L 114.371094 305.371094 L 115.324219 305.480469 L 116.394531 305.640625 L 117.347656 305.835938 L 118.0625 306.054688 L 118.417969 306.238281 L 110.089844 306.238281 L 109.671875 306.066406 L 109.195312 305.933594 L 108.304688 305.757812 L 107.410156 305.632812 L 106.160156 305.507812 L 105.03125 305.425781 L 103.484375 305.34375 L 102.117188 305.292969 L 100.6875 305.253906 L 99.320312 305.226562 L 96.699219 305.203125 L 93.667969 305.203125 L 92.535156 305.210938 L 90.214844 305.246094 L 88.964844 305.273438 L 87.179688 305.335938 L 85.933594 305.390625 L 84.445312 305.476562 L 83.433594 305.550781 L 82.183594 305.664062 L 81.289062 305.761719 L 80.28125 305.902344 L 79.683594 306.011719 L 79.148438 306.132812 L 78.671875 306.273438 L 78.316406 306.421875 L 78.078125 306.582031 L 77.960938 306.738281 L 77.960938 307.40625 L 78.078125 307.558594 L 78.375 307.738281 L 79.148438 308.003906 L 80.28125 308.230469 L 81.589844 308.410156 L 82.839844 308.539062 L 83.550781 308.601562 L 84.503906 308.667969 L 85.992188 308.753906 L 88.132812 308.839844 L 89.382812 308.875 L 91.285156 308.910156 L 93.25 308.925781 L 95.867188 308.925781 L 98.1875 308.910156 L 99.734375 308.886719 L 101.34375 308.855469 L 103.542969 308.78125 L 104.910156 308.710938 L 106.101562 308.628906 L 106.996094 308.546875 L 107.589844 308.480469 L 108.480469 308.347656 L 109.195312 308.199219 L 109.730469 308.050781 L 110.089844 307.902344 L 118.417969 307.902344 L 118.0625 308.074219 L 117.523438 308.242188 L 116.988281 308.367188 L 116.15625 308.519531 L 115.203125 308.652344 L 113.835938 308.800781 L 112.707031 308.902344 L 111.21875 309.007812 L 109.851562 309.089844 L 108.363281 309.164062 L 106.160156 309.25 L 104.734375 309.292969 L 103.1875 309.332031 L 101.34375 309.367188 L 99.019531 309.394531 L 96.523438 309.414062 L 94.203125 309.417969 L 91.703125 309.410156 L 89.859375 309.390625 L 87.417969 309.351562 L 84.386719 309.277344 L 82.183594 309.195312 L 80.457031 309.113281 L 78.96875 309.027344 L 77.304688 308.910156 L 75.164062 308.722656 L 73.855469 308.574219 L 72.960938 308.453125 L 71.949219 308.285156 L 71.234375 308.136719 L 70.402344 307.894531 L 69.808594 307.589844 L 69.628906 307.351562 Z M 69.628906 306.757812 "/>
<path style=" stroke:none;fill-rule:nonzero;fill:rgb(96.862745%,70.196078%,16.862745%);fill-opacity:1;" d="M 69.628906 275.613281 L 69.6875 275.59375 L 69.6875 275.269531 L 69.925781 274.539062 L 70.523438 273.527344 L 71.296875 272.699219 L 72.128906 272.046875 L 72.664062 271.707031 L 73.554688 271.21875 L 74.328125 270.859375 L 76.292969 270.128906 L 78.792969 269.445312 L 80.160156 269.152344 L 81.707031 268.875 L 83.910156 268.566406 L 84.921875 268.453125 L 88.015625 268.191406 L 91.523438 268.03125 L 95.390625 267.980469 L 97.175781 267.996094 L 99.617188 268.0625 L 102.949219 268.242188 L 104.851562 268.40625 L 106.339844 268.566406 L 107.886719 268.777344 L 109.789062 269.105469 L 111.574219 269.496094 L 113.003906 269.886719 L 114.429688 270.371094 L 115.621094 270.894531 L 116.632812 271.464844 L 117.523438 272.144531 L 118.0625 272.714844 L 118.417969 273.285156 L 110.148438 273.285156 L 109.671875 272.714844 L 109.136719 272.277344 L 108.242188 271.738281 L 107.351562 271.347656 L 106.457031 271.039062 L 104.792969 270.617188 L 103.363281 270.355469 L 101.578125 270.128906 L 99.855469 269.984375 L 97.890625 269.886719 L 96.699219 269.851562 L 93.546875 269.851562 L 90.691406 269.964844 L 89.027344 270.097656 L 87.835938 270.226562 L 86.167969 270.46875 L 85.160156 270.664062 L 84.5625 270.796875 L 82.777344 271.300781 L 81.589844 271.753906 L 80.933594 272.066406 L 80.101562 272.554688 L 79.507812 272.992188 L 78.851562 273.644531 L 78.496094 274.132812 L 78.019531 275.238281 L 77.960938 278.164062 L 78.136719 278.785156 L 78.496094 279.449219 L 78.96875 280.035156 L 79.683594 280.65625 L 80.398438 281.125 L 81.648438 281.761719 L 82.71875 282.183594 L 83.550781 282.460938 L 85.160156 282.898438 L 85.8125 283.046875 L 87.359375 283.339844 L 88.964844 283.566406 L 90.929688 283.761719 L 92.417969 283.859375 L 94.796875 283.941406 L 97.832031 283.941406 L 101.402344 283.84375 L 103.664062 283.714844 L 105.210938 283.582031 L 106.21875 283.46875 L 107.46875 283.289062 L 108.363281 283.128906 L 109.195312 282.949219 L 110.207031 282.671875 L 110.207031 278.785156 L 95.511719 278.769531 L 95.511719 276.945312 L 118.359375 276.929688 L 118.417969 283.289062 L 117.167969 283.730469 L 115.621094 284.152344 L 114.132812 284.476562 L 112.585938 284.753906 L 110.386719 285.0625 L 108.601562 285.257812 L 105.863281 285.488281 L 103.363281 285.632812 L 100.746094 285.730469 L 98.425781 285.78125 L 95.691406 285.796875 L 93.25 285.761719 L 90.632812 285.664062 L 88.550781 285.535156 L 86.644531 285.371094 L 84.742188 285.160156 L 82.363281 284.820312 L 80.816406 284.542969 L 79.207031 284.203125 L 77.601562 283.792969 L 76.175781 283.355469 L 75.222656 283.015625 L 74.269531 282.625 L 73.257812 282.136719 L 72.308594 281.582031 L 71.59375 281.078125 L 70.9375 280.507812 L 70.460938 279.972656 L 69.988281 279.238281 L 69.75 278.652344 L 69.628906 278.148438 Z M 69.628906 275.613281 "/>
<path style=" stroke:none;fill-rule:nonzero;fill:rgb(83.921569%,15.686275%,22.352941%);fill-opacity:1;" d="M 69.628906 310.59375 L 118.417969 310.59375 L 118.417969 310.871094 L 98.085938 310.875 L 98.085938 313.195312 L 89.902344 313.195312 L 89.902344 310.875 L 89.785156 310.871094 L 69.628906 310.871094 Z M 69.628906 310.59375 "/>
<path style=" stroke:none;fill-rule:nonzero;fill:rgb(6.27451%,58.823529%,28.235294%);fill-opacity:1;" d="M 120.984375 296.691406 L 121.039062 296.679688 L 142.148438 284.78125 L 148.558594 284.78125 L 169.773438 296.703125 L 162.320312 296.703125 L 157.003906 293.589844 L 133.703125 293.589844 L 128.492188 296.691406 L 120.984375 296.691406 L 135.945312 292.304688 L 154.867188 292.292969 L 145.433594 286.730469 L 145.328125 286.71875 L 145.222656 286.75 L 135.894531 292.292969 L 135.945312 292.304688 Z M 120.984375 296.691406 "/>
<path style=" stroke:none;fill-rule:nonzero;fill:rgb(14.509804%,36.078431%,60%);fill-opacity:1;" d="M 120.984375 312.109375 L 121.046875 312.105469 L 121.046875 312.0625 L 121.222656 311.996094 L 121.640625 311.910156 L 122.054688 311.855469 L 123.128906 311.75 L 124.613281 311.648438 L 126.160156 311.570312 L 127.292969 311.527344 L 128.304688 311.492188 L 130.625 311.425781 L 132.113281 311.390625 L 133.71875 311.363281 L 135.683594 311.332031 L 137.109375 311.316406 L 140.324219 311.285156 L 142.703125 311.273438 L 144.546875 311.269531 L 148.535156 311.269531 L 150.914062 311.277344 L 152.636719 311.285156 L 154.542969 311.300781 L 156.148438 311.316406 L 158.945312 311.355469 L 161.445312 311.402344 L 162.574219 311.429688 L 164.359375 311.484375 L 165.726562 311.539062 L 166.679688 311.585938 L 167.75 311.648438 L 168.703125 311.730469 L 169.417969 311.820312 L 169.773438 311.894531 L 161.445312 311.894531 L 161.027344 311.824219 L 160.550781 311.769531 L 159.660156 311.695312 L 158.765625 311.644531 L 157.515625 311.59375 L 156.386719 311.5625 L 154.839844 311.527344 L 153.472656 311.507812 L 152.042969 311.492188 L 150.675781 311.480469 L 148.058594 311.46875 L 145.023438 311.46875 L 143.890625 311.472656 L 141.570312 311.488281 L 140.324219 311.5 L 138.539062 311.523438 L 137.289062 311.546875 L 135.800781 311.582031 L 134.789062 311.613281 L 133.539062 311.660156 L 132.648438 311.699219 L 131.636719 311.757812 L 131.039062 311.800781 L 130.503906 311.851562 L 130.03125 311.910156 L 129.671875 311.96875 L 129.433594 312.035156 L 129.316406 312.097656 L 129.316406 312.371094 L 129.433594 312.433594 L 129.730469 312.507812 L 130.503906 312.617188 L 131.636719 312.710938 L 132.945312 312.785156 L 134.195312 312.835938 L 134.90625 312.859375 L 135.859375 312.890625 L 137.347656 312.925781 L 139.488281 312.960938 L 140.738281 312.972656 L 142.644531 312.988281 L 144.605469 312.996094 L 147.222656 312.996094 L 149.542969 312.988281 L 151.089844 312.980469 L 152.699219 312.964844 L 154.898438 312.933594 L 156.269531 312.90625 L 157.457031 312.875 L 158.351562 312.839844 L 158.945312 312.8125 L 159.839844 312.757812 L 160.550781 312.699219 L 161.085938 312.636719 L 161.445312 312.574219 L 169.773438 312.574219 L 169.417969 312.644531 L 168.882812 312.714844 L 168.347656 312.765625 L 167.511719 312.828125 L 166.5625 312.882812 L 165.191406 312.945312 L 164.0625 312.984375 L 162.574219 313.027344 L 161.207031 313.0625 L 159.71875 313.09375 L 157.515625 313.128906 L 156.089844 313.144531 L 154.542969 313.160156 L 152.699219 313.175781 L 150.378906 313.1875 L 147.878906 313.195312 L 145.558594 313.195312 L 143.058594 313.191406 L 141.214844 313.183594 L 138.777344 313.167969 L 135.742188 313.136719 L 133.539062 313.105469 L 131.8125 313.070312 L 130.328125 313.035156 L 128.660156 312.988281 L 126.519531 312.910156 L 125.210938 312.851562 L 124.316406 312.800781 L 123.304688 312.734375 L 122.59375 312.671875 L 121.757812 312.574219 L 121.164062 312.449219 L 120.984375 312.351562 Z M 120.984375 312.109375 "/>
<path style=" stroke:none;fill-rule:nonzero;fill:rgb(96.862745%,70.196078%,16.862745%);fill-opacity:1;" d="M 120.984375 300.550781 L 121.046875 300.546875 L 121.046875 300.433594 L 121.28125 300.175781 L 121.878906 299.824219 L 122.652344 299.53125 L 123.484375 299.304688 L 124.019531 299.183594 L 124.914062 299.011719 L 125.6875 298.886719 L 127.648438 298.628906 L 130.148438 298.390625 L 131.515625 298.289062 L 133.0625 298.191406 L 135.265625 298.082031 L 136.277344 298.042969 L 139.371094 297.953125 L 142.882812 297.894531 L 146.75 297.878906 L 148.535156 297.882812 L 150.972656 297.90625 L 154.304688 297.96875 L 156.207031 298.027344 L 157.695312 298.082031 L 159.242188 298.15625 L 161.148438 298.273438 L 162.933594 298.410156 L 164.359375 298.546875 L 165.789062 298.714844 L 166.976562 298.898438 L 167.988281 299.097656 L 168.882812 299.335938 L 169.417969 299.539062 L 169.773438 299.738281 L 161.503906 299.738281 L 161.027344 299.539062 L 160.492188 299.382812 L 159.601562 299.195312 L 158.707031 299.058594 L 157.816406 298.949219 L 156.148438 298.800781 L 154.722656 298.710938 L 152.9375 298.628906 L 151.210938 298.578125 L 149.246094 298.546875 L 148.058594 298.535156 L 144.902344 298.535156 L 142.046875 298.574219 L 140.382812 298.621094 L 139.191406 298.664062 L 137.527344 298.75 L 136.515625 298.820312 L 135.917969 298.863281 L 134.132812 299.042969 L 132.945312 299.199219 L 132.289062 299.308594 L 131.457031 299.480469 L 130.863281 299.632812 L 130.207031 299.863281 L 129.851562 300.035156 L 129.375 300.421875 L 129.316406 301.449219 L 129.492188 301.664062 L 129.851562 301.898438 L 130.328125 302.101562 L 131.039062 302.320312 L 131.753906 302.484375 L 133.003906 302.707031 L 134.074219 302.855469 L 134.90625 302.953125 L 136.515625 303.105469 L 137.167969 303.15625 L 138.714844 303.261719 L 140.324219 303.339844 L 142.285156 303.410156 L 143.773438 303.441406 L 146.152344 303.472656 L 149.1875 303.472656 L 152.757812 303.4375 L 155.019531 303.390625 L 156.566406 303.347656 L 157.578125 303.304688 L 158.828125 303.242188 L 159.71875 303.1875 L 160.550781 303.125 L 161.5625 303.027344 L 161.5625 301.664062 L 146.867188 301.660156 L 146.867188 301.019531 L 169.714844 301.015625 L 169.773438 303.242188 L 168.523438 303.398438 L 166.976562 303.546875 L 165.492188 303.660156 L 163.941406 303.757812 L 161.742188 303.863281 L 159.957031 303.933594 L 157.21875 304.011719 L 154.722656 304.066406 L 152.101562 304.097656 L 149.78125 304.117188 L 147.046875 304.121094 L 144.605469 304.109375 L 141.988281 304.078125 L 139.90625 304.03125 L 138.003906 303.972656 L 136.097656 303.898438 L 133.71875 303.78125 L 132.171875 303.683594 L 130.566406 303.5625 L 128.957031 303.421875 L 127.53125 303.265625 L 126.578125 303.148438 L 125.625 303.011719 L 124.613281 302.839844 L 123.664062 302.644531 L 122.949219 302.46875 L 122.292969 302.269531 L 121.820312 302.082031 L 121.34375 301.824219 L 121.105469 301.617188 L 120.984375 301.441406 Z M 120.984375 300.550781 "/>
<path style=" stroke:none;fill-rule:nonzero;fill:rgb(83.921569%,15.686275%,22.352941%);fill-opacity:1;" d="M 120.984375 305.296875 L 169.773438 305.296875 L 169.773438 305.808594 L 149.441406 305.816406 L 149.441406 310.09375 L 141.261719 310.09375 L 141.261719 305.820312 L 141.140625 305.808594 L 120.984375 305.808594 Z M 120.984375 305.296875 "/>
<path style=" stroke:none;fill-rule:nonzero;fill:rgb(6.27451%,58.823529%,28.235294%);fill-opacity:1;" d="M 172.34375 311.230469 L 172.394531 311.230469 L 193.503906 309.460938 L 199.914062 309.460938 L 221.128906 311.230469 L 213.675781 311.230469 L 208.359375 310.769531 L 185.058594 310.769531 L 179.847656 311.230469 L 172.34375 311.230469 L 187.300781 310.578125 L 206.222656 310.578125 L 196.789062 309.75 L 196.683594 309.75 L 196.578125 309.753906 L 187.25 310.578125 L 187.300781 310.578125 Z M 172.34375 311.230469 "/>
<path style=" stroke:none;fill-rule:nonzero;fill:rgb(14.509804%,36.078431%,60%);fill-opacity:1;" d="M 172.34375 294.988281 L 172.402344 294.96875 L 172.402344 294.453125 L 172.578125 293.632812 L 172.996094 292.601562 L 173.414062 291.890625 L 174.484375 290.621094 L 175.972656 289.394531 L 177.519531 288.449219 L 178.648438 287.890625 L 179.660156 287.460938 L 181.980469 286.664062 L 183.46875 286.253906 L 185.074219 285.890625 L 187.039062 285.523438 L 188.464844 285.308594 L 191.679688 284.964844 L 194.058594 284.8125 L 195.902344 284.75 L 199.890625 284.75 L 202.269531 284.835938 L 203.996094 284.941406 L 205.898438 285.113281 L 207.503906 285.308594 L 210.300781 285.78125 L 212.800781 286.382812 L 213.929688 286.726562 L 215.714844 287.394531 L 217.085938 288.039062 L 218.035156 288.601562 L 219.109375 289.394531 L 220.058594 290.363281 L 220.773438 291.460938 L 221.128906 292.386719 L 212.800781 292.386719 L 212.382812 291.527344 L 211.90625 290.859375 L 211.015625 289.976562 L 210.125 289.351562 L 208.875 288.730469 L 207.742188 288.320312 L 206.195312 287.910156 L 204.828125 287.652344 L 203.398438 287.460938 L 202.03125 287.332031 L 199.414062 287.203125 L 196.378906 287.203125 L 195.25 287.246094 L 192.929688 287.417969 L 191.679688 287.566406 L 189.894531 287.867188 L 188.644531 288.148438 L 187.15625 288.578125 L 186.144531 288.945312 L 184.894531 289.503906 L 184.003906 290 L 182.992188 290.707031 L 182.398438 291.246094 L 181.863281 291.847656 L 181.386719 292.558594 L 181.027344 293.3125 L 180.789062 294.109375 L 180.671875 294.882812 L 180.671875 298.21875 L 180.789062 298.992188 L 181.089844 299.894531 L 181.863281 301.207031 L 182.992188 302.347656 L 184.300781 303.25 L 185.550781 303.898438 L 186.265625 304.199219 L 187.214844 304.542969 L 188.703125 304.972656 L 190.847656 305.402344 L 192.09375 305.574219 L 194 305.746094 L 195.960938 305.832031 L 198.582031 305.832031 L 200.902344 305.746094 L 202.449219 305.640625 L 204.054688 305.46875 L 206.257812 305.101562 L 207.625 304.757812 L 208.8125 304.347656 L 209.707031 303.941406 L 210.300781 303.597656 L 211.195312 302.929688 L 211.90625 302.199219 L 212.445312 301.445312 L 212.800781 300.710938 L 221.128906 300.710938 L 220.773438 301.574219 L 220.238281 302.414062 L 219.703125 303.035156 L 218.871094 303.789062 L 217.917969 304.457031 L 216.550781 305.210938 L 215.417969 305.703125 L 213.929688 306.242188 L 212.5625 306.652344 L 211.074219 307.015625 L 208.875 307.445312 L 207.445312 307.664062 L 205.898438 307.855469 L 204.054688 308.027344 L 201.734375 308.179688 L 199.234375 308.265625 L 196.914062 308.285156 L 194.414062 308.242188 L 192.570312 308.15625 L 190.132812 307.964844 L 187.097656 307.574219 L 184.894531 307.167969 L 183.171875 306.757812 L 181.683594 306.328125 L 180.015625 305.746094 L 177.875 304.800781 L 176.566406 304.070312 L 175.671875 303.464844 L 174.664062 302.628906 L 173.949219 301.875 L 173.117188 300.667969 L 172.519531 299.140625 L 172.34375 297.957031 Z M 172.34375 294.988281 "/>
<path style=" stroke:none;fill-rule:nonzero;fill:rgb(96.862745%,70.196078%,16.862745%);fill-opacity:1;" d="M 172.34375 169.070312 L 172.402344 168.886719 L 172.402344 165.230469 L 172.640625 157 L 173.234375 145.660156 L 174.007812 136.328125 L 174.839844 129.011719 L 175.375 125.171875 L 176.269531 119.683594 L 177.042969 115.660156 L 179.003906 107.429688 L 181.503906 99.746094 L 182.875 96.457031 L 184.421875 93.34375 L 186.621094 89.871094 L 187.632812 88.589844 L 190.726562 85.664062 L 194.238281 83.835938 L 198.105469 83.285156 L 199.890625 83.46875 L 202.328125 84.199219 L 205.660156 86.210938 L 207.566406 88.042969 L 209.050781 89.871094 L 210.597656 92.25 L 212.503906 95.90625 L 214.289062 100.296875 L 215.714844 104.6875 L 217.144531 110.171875 L 218.335938 116.027344 L 219.34375 122.429688 L 220.238281 130.109375 L 220.773438 136.511719 L 221.128906 142.914062 L 212.859375 142.914062 L 212.382812 136.511719 L 211.847656 131.574219 L 210.957031 125.539062 L 210.0625 121.148438 L 209.171875 117.671875 L 207.503906 112.917969 L 206.078125 109.992188 L 204.292969 107.429688 L 202.566406 105.785156 L 200.605469 104.6875 L 199.414062 104.320312 L 196.261719 104.320312 L 193.402344 105.601562 L 191.738281 107.0625 L 190.546875 108.527344 L 188.882812 111.269531 L 187.871094 113.464844 L 187.277344 114.929688 L 185.492188 120.597656 L 184.300781 125.722656 L 183.648438 129.195312 L 182.8125 134.683594 L 182.21875 139.621094 L 181.5625 146.9375 L 181.207031 152.425781 L 180.730469 164.863281 L 180.671875 197.789062 L 180.851562 204.738281 L 181.207031 212.238281 L 181.683594 218.824219 L 182.398438 225.773438 L 183.109375 231.078125 L 184.359375 238.210938 L 185.429688 242.96875 L 186.265625 246.078125 L 187.871094 251.015625 L 188.527344 252.660156 L 190.074219 255.953125 L 191.679688 258.515625 L 193.640625 260.710938 L 195.128906 261.808594 L 197.507812 262.722656 L 200.542969 262.722656 L 204.113281 261.625 L 206.375 260.160156 L 207.921875 258.699219 L 208.933594 257.417969 L 210.183594 255.40625 L 211.074219 253.578125 L 211.90625 251.5625 L 212.917969 248.453125 L 212.917969 204.738281 L 198.222656 204.554688 L 198.222656 184.070312 L 221.070312 183.886719 L 221.128906 255.40625 L 219.882812 260.34375 L 218.335938 265.101562 L 216.847656 268.757812 L 215.300781 271.867188 L 213.097656 275.34375 L 211.3125 277.539062 L 208.578125 280.097656 L 206.078125 281.746094 L 203.460938 282.84375 L 201.140625 283.390625 L 198.402344 283.574219 L 195.960938 283.207031 L 193.34375 282.109375 L 191.261719 280.648438 L 189.359375 278.816406 L 187.453125 276.441406 L 185.074219 272.597656 L 183.527344 269.488281 L 181.921875 265.648438 L 180.316406 261.074219 L 178.886719 256.136719 L 177.933594 252.296875 L 176.984375 247.90625 L 175.972656 242.417969 L 175.019531 236.199219 L 174.304688 230.53125 L 173.652344 224.128906 L 173.175781 218.089844 L 172.699219 209.859375 L 172.460938 203.277344 L 172.34375 197.605469 Z M 172.34375 169.070312 "/>
<path style=" stroke:none;fill-rule:nonzero;fill:rgb(83.921569%,15.686275%,22.352941%);fill-opacity:1;" d="M 172.34375 312.40625 L 221.128906 312.40625 L 221.128906 312.492188 L 200.796875 312.492188 L 200.796875 313.195312 L 192.617188 313.195312 L 192.617188 312.492188 L 172.34375 312.492188 Z M 172.34375 312.40625 "/>
<path style=" stroke:none;fill-rule:nonzero;fill:rgb(6.27451%,58.823529%,28.235294%);fill-opacity:1;" d="M 223.699219 313.195312 L 223.75 313.191406 L 244.859375 311.265625 L 251.273438 311.265625 L 272.488281 313.195312 L 265.03125 313.195312 L 259.714844 312.691406 L 236.417969 312.691406 L 231.203125 313.195312 L 223.699219 313.195312 L 238.65625 312.484375 L 257.578125 312.480469 L 248.144531 311.582031 L 248.039062 311.578125 L 247.9375 311.585938 L 238.605469 312.480469 L 238.65625 312.484375 Z M 223.699219 313.195312 "/>
<path style=" stroke:none;fill-rule:nonzero;fill:rgb(14.509804%,36.078431%,60%);fill-opacity:1;" d="M 223.699219 166.101562 L 223.757812 165.902344 L 223.757812 161.097656 L 223.9375 153.496094 L 224.351562 143.894531 L 224.769531 137.292969 L 225.839844 125.488281 L 227.328125 114.082031 L 228.875 105.28125 L 230.003906 100.078125 L 231.015625 96.078125 L 233.335938 88.675781 L 234.824219 84.875 L 236.429688 81.472656 L 238.394531 78.070312 L 239.820312 76.070312 L 243.035156 72.871094 L 245.414062 71.46875 L 247.257812 70.871094 L 251.246094 70.871094 L 253.625 71.667969 L 255.351562 72.667969 L 257.253906 74.269531 L 258.863281 76.070312 L 261.65625 80.472656 L 264.15625 86.074219 L 265.289062 89.277344 L 267.074219 95.476562 L 268.441406 101.480469 L 269.394531 106.679688 L 270.464844 114.082031 L 271.414062 123.085938 L 272.128906 133.289062 L 272.488281 141.894531 L 264.15625 141.894531 L 263.742188 133.890625 L 263.265625 127.6875 L 262.371094 119.484375 L 261.480469 113.683594 L 260.230469 107.882812 L 259.101562 104.082031 L 257.550781 100.277344 L 256.183594 97.878906 L 254.757812 96.078125 L 253.386719 94.878906 L 250.769531 93.675781 L 247.734375 93.675781 L 246.605469 94.078125 L 244.285156 95.675781 L 243.035156 97.078125 L 241.25 99.878906 L 240 102.480469 L 238.511719 106.480469 L 237.5 109.882812 L 236.253906 115.085938 L 235.359375 119.6875 L 234.347656 126.289062 L 233.753906 131.289062 L 233.21875 136.890625 L 232.742188 143.492188 L 232.386719 150.496094 L 232.148438 157.898438 L 232.027344 165.101562 L 232.027344 196.109375 L 232.148438 203.3125 L 232.445312 211.714844 L 233.21875 223.921875 L 234.347656 234.523438 L 235.65625 242.925781 L 236.90625 248.929688 L 237.621094 251.730469 L 238.574219 254.929688 L 240.058594 258.933594 L 242.203125 262.933594 L 243.453125 264.535156 L 245.355469 266.132812 L 247.320312 266.933594 L 249.9375 266.933594 L 252.257812 266.132812 L 253.804688 265.132812 L 255.410156 263.535156 L 257.613281 260.132812 L 258.980469 256.929688 L 260.171875 253.128906 L 261.0625 249.328125 L 261.65625 246.128906 L 262.550781 239.925781 L 263.265625 233.125 L 263.800781 226.121094 L 264.15625 219.320312 L 272.488281 219.320312 L 272.128906 227.320312 L 271.59375 235.125 L 271.058594 240.925781 L 270.226562 247.929688 L 269.273438 254.128906 L 267.90625 261.132812 L 266.773438 265.734375 L 265.289062 270.734375 L 263.917969 274.539062 L 262.429688 277.9375 L 260.230469 281.941406 L 258.800781 283.941406 L 257.253906 285.742188 L 255.410156 287.339844 L 253.089844 288.742188 L 250.589844 289.542969 L 248.269531 289.742188 L 245.773438 289.34375 L 243.925781 288.542969 L 241.488281 286.742188 L 238.453125 283.140625 L 236.253906 279.339844 L 234.527344 275.539062 L 233.039062 271.535156 L 231.375 266.132812 L 229.230469 257.332031 L 227.921875 250.53125 L 227.03125 244.925781 L 226.019531 237.125 L 225.304688 230.121094 L 224.472656 218.917969 L 223.875 204.714844 L 223.699219 193.710938 Z M 223.699219 166.101562 "/>
<path style=" stroke:none;fill-rule:nonzero;fill:rgb(96.862745%,70.196078%,16.862745%);fill-opacity:1;" d="M 223.699219 307.410156 L 223.757812 307.40625 L 223.757812 307.320312 L 223.996094 307.128906 L 224.589844 306.863281 L 225.363281 306.644531 L 226.195312 306.472656 L 226.734375 306.382812 L 227.625 306.253906 L 228.398438 306.160156 L 230.363281 305.96875 L 232.859375 305.789062 L 234.230469 305.710938 L 235.777344 305.640625 L 237.976562 305.558594 L 238.988281 305.527344 L 242.082031 305.457031 L 245.59375 305.417969 L 249.460938 305.402344 L 251.246094 305.40625 L 253.683594 305.425781 L 257.015625 305.472656 L 258.921875 305.515625 L 260.410156 305.558594 L 261.957031 305.613281 L 263.859375 305.699219 L 265.644531 305.800781 L 267.074219 305.902344 L 268.5 306.03125 L 269.691406 306.167969 L 270.703125 306.320312 L 271.59375 306.5 L 272.128906 306.648438 L 272.488281 306.800781 L 264.214844 306.800781 L 263.742188 306.648438 L 263.203125 306.535156 L 262.3125 306.390625 L 261.421875 306.289062 L 260.527344 306.207031 L 258.863281 306.097656 L 257.433594 306.027344 L 255.648438 305.96875 L 253.921875 305.929688 L 251.960938 305.902344 L 250.769531 305.894531 L 247.617188 305.894531 L 244.761719 305.925781 L 243.09375 305.960938 L 241.90625 305.992188 L 240.238281 306.058594 L 239.226562 306.109375 L 238.632812 306.144531 L 236.847656 306.277344 L 235.65625 306.398438 L 235.003906 306.476562 L 234.167969 306.605469 L 233.574219 306.722656 L 232.921875 306.894531 L 232.5625 307.023438 L 232.085938 307.3125 L 232.027344 308.082031 L 232.207031 308.246094 L 232.5625 308.421875 L 233.039062 308.574219 L 233.753906 308.738281 L 234.46875 308.863281 L 235.71875 309.03125 L 236.789062 309.140625 L 237.621094 309.214844 L 239.226562 309.328125 L 239.882812 309.367188 L 241.429688 309.445312 L 243.035156 309.503906 L 245 309.554688 L 246.484375 309.582031 L 248.867188 309.605469 L 251.898438 309.605469 L 255.46875 309.578125 L 257.730469 309.542969 L 259.277344 309.507812 L 260.289062 309.480469 L 261.539062 309.433594 L 262.429688 309.390625 L 263.265625 309.34375 L 264.277344 309.269531 L 264.277344 308.246094 L 249.578125 308.242188 L 249.578125 307.761719 L 272.425781 307.757812 L 272.488281 309.433594 L 271.238281 309.546875 L 269.691406 309.660156 L 268.203125 309.746094 L 266.65625 309.816406 L 264.453125 309.898438 L 262.667969 309.949219 L 259.933594 310.011719 L 257.433594 310.050781 L 254.816406 310.074219 L 252.496094 310.085938 L 249.757812 310.089844 L 247.320312 310.082031 L 244.699219 310.058594 L 242.617188 310.023438 L 240.714844 309.980469 L 238.8125 309.925781 L 236.429688 309.835938 L 234.882812 309.761719 L 233.277344 309.671875 L 231.671875 309.566406 L 230.242188 309.449219 L 229.292969 309.359375 L 228.339844 309.257812 L 227.328125 309.128906 L 226.375 308.984375 L 225.660156 308.851562 L 225.007812 308.699219 L 224.53125 308.558594 L 224.054688 308.367188 L 223.816406 308.210938 L 223.699219 308.078125 Z M 223.699219 307.410156 "/>
<path style=" stroke:none;fill-rule:nonzero;fill:rgb(83.921569%,15.686275%,22.352941%);fill-opacity:1;" d="M 223.699219 290.917969 L 272.488281 290.917969 L 272.488281 292.34375 L 252.152344 292.355469 L 252.152344 304.226562 L 243.972656 304.226562 L 243.972656 292.367188 L 243.855469 292.34375 L 223.699219 292.34375 Z M 223.699219 290.917969 "/>
<path style=" stroke:none;fill-rule:nonzero;fill:rgb(6.27451%,58.823529%,28.235294%);fill-opacity:1;" d="M 275.054688 303.851562 L 275.105469 303.835938 L 296.21875 287.191406 L 302.628906 287.191406 L 323.84375 303.867188 L 316.390625 303.867188 L 311.074219 299.515625 L 287.773438 299.515625 L 282.558594 303.851562 L 275.054688 303.851562 L 290.015625 297.714844 L 308.933594 297.699219 L 299.5 289.914062 L 299.398438 289.898438 L 299.292969 289.945312 L 289.960938 297.699219 L 290.015625 297.714844 Z M 275.054688 303.851562 "/>
<path style=" stroke:none;fill-rule:nonzero;fill:rgb(14.509804%,36.078431%,60%);fill-opacity:1;" d="M 275.054688 306.980469 L 275.113281 306.976562 L 275.113281 306.878906 L 275.292969 306.722656 L 275.710938 306.527344 L 276.125 306.394531 L 277.195312 306.152344 L 278.683594 305.921875 L 280.230469 305.742188 L 281.359375 305.636719 L 282.371094 305.554688 L 284.691406 305.40625 L 286.179688 305.328125 L 287.789062 305.257812 L 289.75 305.1875 L 291.179688 305.148438 L 294.390625 305.082031 L 296.769531 305.054688 L 298.617188 305.042969 L 302.601562 305.042969 L 304.980469 305.058594 L 306.707031 305.078125 L 308.613281 305.113281 L 310.21875 305.148438 L 313.015625 305.238281 L 315.511719 305.351562 L 316.644531 305.417969 L 318.429688 305.542969 L 319.796875 305.664062 L 320.75 305.769531 L 321.820312 305.921875 L 322.773438 306.105469 L 323.484375 306.3125 L 323.84375 306.488281 L 315.511719 306.488281 L 315.097656 306.324219 L 314.621094 306.199219 L 313.726562 306.03125 L 312.835938 305.914062 L 311.585938 305.796875 L 310.457031 305.71875 L 308.910156 305.640625 L 307.539062 305.59375 L 306.113281 305.554688 L 304.742188 305.53125 L 302.125 305.507812 L 299.089844 305.507812 L 297.960938 305.515625 L 295.640625 305.546875 L 294.390625 305.574219 L 292.605469 305.632812 L 291.355469 305.6875 L 289.871094 305.765625 L 288.859375 305.835938 L 287.609375 305.941406 L 286.714844 306.035156 L 285.703125 306.171875 L 285.109375 306.273438 L 284.574219 306.386719 L 284.097656 306.519531 L 283.742188 306.664062 L 283.503906 306.8125 L 283.382812 306.960938 L 283.382812 307.589844 L 283.503906 307.738281 L 283.800781 307.910156 L 284.574219 308.15625 L 285.703125 308.371094 L 287.011719 308.542969 L 288.261719 308.667969 L 288.976562 308.722656 L 289.929688 308.789062 L 291.417969 308.871094 L 293.558594 308.949219 L 294.808594 308.984375 L 296.710938 309.015625 L 298.675781 309.03125 L 301.292969 309.03125 L 303.613281 309.015625 L 305.160156 308.996094 L 306.765625 308.964844 L 308.96875 308.894531 L 310.335938 308.828125 L 311.527344 308.75 L 312.417969 308.675781 L 313.015625 308.609375 L 313.90625 308.484375 L 314.621094 308.34375 L 315.15625 308.203125 L 315.511719 308.0625 L 323.84375 308.0625 L 323.484375 308.226562 L 322.949219 308.386719 L 322.414062 308.503906 L 321.582031 308.644531 L 320.628906 308.773438 L 319.261719 308.914062 L 318.132812 309.007812 L 316.644531 309.109375 L 315.273438 309.1875 L 313.789062 309.257812 L 311.585938 309.335938 L 310.160156 309.378906 L 308.613281 309.414062 L 306.765625 309.449219 L 304.445312 309.476562 L 301.949219 309.492188 L 299.628906 309.496094 L 297.128906 309.488281 L 295.285156 309.472656 L 292.84375 309.4375 L 289.808594 309.363281 L 287.609375 309.285156 L 285.882812 309.207031 L 284.394531 309.125 L 282.730469 309.015625 L 280.585938 308.835938 L 279.277344 308.699219 L 278.386719 308.585938 L 277.375 308.425781 L 276.660156 308.285156 L 275.828125 308.054688 L 275.234375 307.765625 L 275.054688 307.542969 Z M 275.054688 306.980469 "/>
<path style=" stroke:none;fill-rule:nonzero;fill:rgb(96.862745%,70.196078%,16.862745%);fill-opacity:1;" d="M 275.054688 172.398438 L 275.113281 172.214844 L 275.113281 168.585938 L 275.351562 160.417969 L 275.945312 149.164062 L 276.71875 139.90625 L 277.554688 132.648438 L 278.089844 128.835938 L 278.980469 123.390625 L 279.753906 119.398438 L 281.71875 111.230469 L 284.21875 103.609375 L 285.585938 100.339844 L 287.132812 97.257812 L 289.335938 93.808594 L 290.34375 92.535156 L 293.4375 89.632812 L 296.949219 87.816406 L 300.816406 87.273438 L 302.601562 87.453125 L 305.042969 88.179688 L 308.375 90.175781 L 310.277344 91.992188 L 311.765625 93.808594 L 313.3125 96.167969 L 315.214844 99.796875 L 317 104.152344 L 318.429688 108.507812 L 319.855469 113.953125 L 321.046875 119.761719 L 322.058594 126.113281 L 322.949219 133.738281 L 323.484375 140.089844 L 323.84375 146.441406 L 315.574219 146.441406 L 315.097656 140.089844 L 314.5625 135.1875 L 313.667969 129.199219 L 312.777344 124.84375 L 311.882812 121.394531 L 310.21875 116.675781 L 308.789062 113.773438 L 307.003906 111.230469 L 305.28125 109.597656 L 303.316406 108.507812 L 302.125 108.144531 L 298.972656 108.144531 L 296.117188 109.417969 L 294.449219 110.867188 L 293.261719 112.320312 L 291.59375 115.042969 L 290.582031 117.222656 L 289.988281 118.671875 L 288.203125 124.300781 L 287.011719 129.382812 L 286.359375 132.828125 L 285.527344 138.273438 L 284.929688 143.175781 L 284.277344 150.433594 L 283.917969 155.878906 L 283.445312 168.222656 L 283.382812 200.890625 L 283.5625 207.789062 L 283.917969 215.230469 L 284.394531 221.765625 L 285.109375 228.660156 L 285.824219 233.925781 L 287.074219 241.003906 L 288.144531 245.722656 L 288.976562 248.808594 L 290.582031 253.707031 L 291.238281 255.339844 L 292.785156 258.609375 L 294.390625 261.148438 L 296.355469 263.328125 L 297.84375 264.417969 L 300.222656 265.324219 L 303.257812 265.324219 L 306.828125 264.234375 L 309.085938 262.78125 L 310.632812 261.332031 L 311.644531 260.0625 L 312.894531 258.0625 L 313.789062 256.25 L 314.621094 254.253906 L 315.632812 251.167969 L 315.632812 207.789062 L 300.9375 207.605469 L 300.9375 187.28125 L 323.785156 187.097656 L 323.84375 258.0625 L 322.59375 262.964844 L 321.046875 267.683594 L 319.558594 271.3125 L 318.011719 274.398438 L 315.8125 277.847656 L 314.027344 280.027344 L 311.289062 282.566406 L 308.789062 284.199219 L 306.171875 285.289062 L 303.851562 285.832031 L 301.113281 286.015625 L 298.675781 285.652344 L 296.058594 284.5625 L 293.976562 283.109375 L 292.070312 281.296875 L 290.167969 278.9375 L 287.789062 275.125 L 286.238281 272.039062 L 284.632812 268.226562 L 283.027344 263.691406 L 281.597656 258.789062 L 280.648438 254.980469 L 279.695312 250.621094 L 278.683594 245.175781 L 277.730469 239.007812 L 277.019531 233.378906 L 276.363281 227.027344 L 275.886719 221.039062 L 275.410156 212.871094 L 275.171875 206.335938 L 275.054688 200.710938 Z M 275.054688 172.398438 "/>
<path style=" stroke:none;fill-rule:nonzero;fill:rgb(83.921569%,15.686275%,22.352941%);fill-opacity:1;" d="M 275.054688 310.671875 L 323.84375 310.671875 L 323.84375 310.941406 L 303.507812 310.945312 L 303.507812 313.195312 L 295.328125 313.195312 L 295.328125 310.945312 L 295.210938 310.941406 L 275.054688 310.941406 Z M 275.054688 310.671875 "/>
<path style=" stroke:none;fill-rule:nonzero;fill:rgb(6.27451%,58.823529%,28.235294%);fill-opacity:1;" d="M 326.410156 296.332031 L 326.464844 296.320312 L 347.574219 284.09375 L 353.984375 284.09375 L 375.199219 296.34375 L 367.746094 296.34375 L 362.429688 293.144531 L 339.128906 293.144531 L 333.917969 296.332031 L 326.410156 296.332031 L 341.371094 291.824219 L 360.292969 291.8125 L 350.855469 286.097656 L 350.753906 286.085938 L 350.648438 286.117188 L 341.320312 291.8125 L 341.371094 291.824219 Z M 326.410156 296.332031 "/>
<path style=" stroke:none;fill-rule:nonzero;fill:rgb(14.509804%,36.078431%,60%);fill-opacity:1;" d="M 326.410156 302.476562 L 326.46875 302.464844 L 326.46875 302.214844 L 326.648438 301.820312 L 327.066406 301.320312 L 327.480469 300.976562 L 328.554688 300.363281 L 330.039062 299.769531 L 331.585938 299.308594 L 332.71875 299.039062 L 333.730469 298.832031 L 336.050781 298.445312 L 337.535156 298.246094 L 339.144531 298.070312 L 341.105469 297.894531 L 342.535156 297.789062 L 345.746094 297.621094 L 348.128906 297.550781 L 349.972656 297.519531 L 353.957031 297.519531 L 356.339844 297.558594 L 358.0625 297.613281 L 359.96875 297.695312 L 361.574219 297.789062 L 364.371094 298.019531 L 366.871094 298.308594 L 368 298.476562 L 369.785156 298.800781 L 371.152344 299.113281 L 372.105469 299.382812 L 373.175781 299.769531 L 374.128906 300.238281 L 374.84375 300.769531 L 375.199219 301.214844 L 366.871094 301.214844 L 366.453125 300.800781 L 365.976562 300.476562 L 365.085938 300.050781 L 364.191406 299.746094 L 362.941406 299.445312 L 361.8125 299.246094 L 360.265625 299.050781 L 358.898438 298.925781 L 357.46875 298.832031 L 356.101562 298.769531 L 353.484375 298.707031 L 350.449219 298.707031 L 349.316406 298.726562 L 346.996094 298.808594 L 345.746094 298.882812 L 343.960938 299.027344 L 342.714844 299.164062 L 341.226562 299.371094 L 340.214844 299.550781 L 338.964844 299.820312 L 338.074219 300.058594 L 337.0625 300.402344 L 336.464844 300.664062 L 335.929688 300.957031 L 335.453125 301.300781 L 335.097656 301.664062 L 334.859375 302.046875 L 334.742188 302.421875 L 334.742188 304.039062 L 334.859375 304.414062 L 335.15625 304.851562 L 335.929688 305.484375 L 337.0625 306.039062 L 338.371094 306.476562 L 339.621094 306.785156 L 340.332031 306.933594 L 341.285156 307.097656 L 342.773438 307.308594 L 344.914062 307.515625 L 346.164062 307.597656 L 348.066406 307.683594 L 350.03125 307.722656 L 352.648438 307.722656 L 354.96875 307.683594 L 356.515625 307.628906 L 358.125 307.546875 L 360.324219 307.371094 L 361.691406 307.203125 L 362.882812 307.003906 L 363.777344 306.808594 L 364.371094 306.640625 L 365.261719 306.320312 L 365.976562 305.964844 L 366.511719 305.601562 L 366.871094 305.246094 L 375.199219 305.246094 L 374.84375 305.664062 L 374.308594 306.070312 L 373.769531 306.371094 L 372.9375 306.734375 L 371.988281 307.058594 L 370.617188 307.421875 L 369.488281 307.660156 L 368 307.921875 L 366.632812 308.121094 L 365.144531 308.296875 L 362.941406 308.503906 L 361.515625 308.609375 L 359.96875 308.703125 L 358.125 308.785156 L 355.804688 308.859375 L 353.304688 308.902344 L 350.984375 308.910156 L 348.484375 308.890625 L 346.640625 308.847656 L 344.199219 308.753906 L 341.167969 308.566406 L 338.964844 308.371094 L 337.238281 308.171875 L 335.753906 307.964844 L 334.085938 307.683594 L 331.945312 307.222656 L 330.636719 306.871094 L 329.742188 306.578125 L 328.730469 306.171875 L 328.015625 305.808594 L 327.183594 305.226562 L 326.589844 304.484375 L 326.410156 303.914062 Z M 326.410156 302.476562 "/>
<path style=" stroke:none;fill-rule:nonzero;fill:rgb(96.862745%,70.196078%,16.862745%);fill-opacity:1;" d="M 326.410156 311.417969 L 326.46875 311.414062 L 326.46875 311.359375 L 326.707031 311.230469 L 327.304688 311.054688 L 328.078125 310.910156 L 328.910156 310.796875 L 329.445312 310.738281 L 330.335938 310.652344 L 331.109375 310.589844 L 333.074219 310.460938 L 335.574219 310.34375 L 336.941406 310.289062 L 338.488281 310.242188 L 340.691406 310.1875 L 341.703125 310.167969 L 344.796875 310.125 L 348.304688 310.09375 L 352.171875 310.085938 L 353.957031 310.089844 L 356.398438 310.101562 L 359.730469 310.132812 L 361.632812 310.160156 L 363.121094 310.1875 L 364.667969 310.226562 L 366.570312 310.28125 L 368.355469 310.351562 L 369.785156 310.417969 L 371.214844 310.503906 L 372.402344 310.59375 L 373.414062 310.695312 L 374.308594 310.8125 L 374.84375 310.914062 L 375.199219 311.011719 L 366.929688 311.011719 L 366.453125 310.914062 L 365.917969 310.835938 L 365.023438 310.742188 L 364.132812 310.675781 L 363.238281 310.621094 L 361.574219 310.546875 L 360.144531 310.5 L 358.359375 310.460938 L 356.636719 310.4375 L 354.671875 310.417969 L 353.484375 310.414062 L 350.328125 310.414062 L 347.472656 310.433594 L 345.808594 310.457031 L 344.617188 310.476562 L 342.953125 310.519531 L 341.941406 310.554688 L 341.34375 310.578125 L 339.558594 310.664062 L 338.371094 310.746094 L 337.714844 310.800781 L 336.882812 310.882812 L 336.289062 310.960938 L 335.632812 311.074219 L 335.277344 311.160156 L 334.800781 311.351562 L 334.742188 311.863281 L 334.917969 311.972656 L 335.277344 312.089844 L 335.753906 312.191406 L 336.464844 312.296875 L 337.179688 312.378906 L 338.429688 312.492188 L 339.5 312.566406 L 340.332031 312.613281 L 341.941406 312.691406 L 342.59375 312.714844 L 344.140625 312.765625 L 345.746094 312.808594 L 347.710938 312.839844 L 349.199219 312.859375 L 351.578125 312.871094 L 354.613281 312.871094 L 358.183594 312.855469 L 360.445312 312.832031 L 361.992188 312.808594 L 363.003906 312.789062 L 364.25 312.757812 L 365.144531 312.730469 L 365.976562 312.699219 L 366.988281 312.652344 L 366.988281 311.972656 L 352.292969 311.96875 L 352.292969 311.652344 L 375.140625 311.648438 L 375.199219 312.757812 L 373.949219 312.835938 L 372.402344 312.910156 L 370.914062 312.964844 L 369.367188 313.015625 L 367.167969 313.066406 L 365.382812 313.101562 L 362.644531 313.140625 L 360.144531 313.167969 L 357.527344 313.183594 L 355.207031 313.191406 L 352.472656 313.195312 L 350.03125 313.191406 L 347.414062 313.171875 L 345.332031 313.148438 L 343.425781 313.121094 L 341.523438 313.085938 L 339.144531 313.027344 L 337.597656 312.976562 L 335.988281 312.917969 L 334.382812 312.847656 L 332.957031 312.769531 L 332.003906 312.710938 L 331.050781 312.640625 L 330.039062 312.558594 L 329.089844 312.460938 L 328.375 312.371094 L 327.71875 312.273438 L 327.242188 312.179688 L 326.769531 312.050781 L 326.53125 311.949219 L 326.410156 311.859375 Z M 326.410156 311.417969 "/>
<path style=" stroke:none;fill-rule:nonzero;fill:rgb(83.921569%,15.686275%,22.352941%);fill-opacity:1;" d="M 326.410156 112.71875 L 375.199219 112.71875 L 375.199219 130.9375 L 354.867188 131.097656 L 354.867188 282.917969 L 346.683594 282.917969 L 346.683594 131.257812 L 346.566406 130.9375 L 326.410156 130.9375 Z M 326.410156 112.71875 "/>
<path style=" stroke:none;fill-rule:nonzero;fill:rgb(6.27451%,58.823529%,28.235294%);fill-opacity:1;" d="M 377.765625 312.363281 L 377.820312 312.359375 L 398.929688 310.210938 L 405.339844 310.210938 L 426.554688 312.363281 L 419.101562 312.363281 L 413.785156 311.800781 L 390.484375 311.800781 L 385.273438 312.363281 L 377.765625 312.363281 L 392.726562 311.570312 L 411.648438 311.566406 L 402.214844 310.5625 L 402.109375 310.558594 L 402.003906 310.566406 L 392.675781 311.566406 L 392.726562 311.570312 Z M 377.765625 312.363281 "/>
<path style=" stroke:none;fill-rule:nonzero;fill:rgb(14.509804%,36.078431%,60%);fill-opacity:1;" d="M 377.765625 305.351562 L 377.828125 305.347656 L 377.828125 305.203125 L 378.003906 304.976562 L 378.421875 304.691406 L 378.839844 304.492188 L 379.910156 304.140625 L 381.394531 303.800781 L 382.945312 303.539062 L 384.074219 303.382812 L 385.085938 303.265625 L 387.40625 303.042969 L 388.894531 302.929688 L 390.5 302.832031 L 392.464844 302.730469 L 393.890625 302.667969 L 397.105469 302.574219 L 399.484375 302.53125 L 401.328125 302.515625 L 405.316406 302.515625 L 407.695312 302.539062 L 409.421875 302.566406 L 411.324219 302.617188 L 412.929688 302.667969 L 415.726562 302.800781 L 418.226562 302.96875 L 419.355469 303.0625 L 421.140625 303.246094 L 422.507812 303.425781 L 423.460938 303.582031 L 424.53125 303.800781 L 425.484375 304.070312 L 426.199219 304.375 L 426.554688 304.628906 L 418.226562 304.628906 L 417.808594 304.390625 L 417.332031 304.207031 L 416.441406 303.960938 L 415.546875 303.789062 L 414.300781 303.617188 L 413.167969 303.503906 L 411.621094 303.390625 L 410.253906 303.320312 L 408.824219 303.265625 L 407.457031 303.230469 L 404.839844 303.195312 L 401.804688 303.195312 L 400.675781 303.207031 L 398.351562 303.253906 L 397.105469 303.296875 L 395.320312 303.378906 L 394.070312 303.457031 L 392.582031 303.574219 L 391.570312 303.675781 L 390.320312 303.832031 L 389.429688 303.96875 L 388.417969 304.164062 L 387.824219 304.3125 L 387.285156 304.480469 L 386.8125 304.679688 L 386.453125 304.886719 L 386.214844 305.105469 L 386.097656 305.320312 L 386.097656 306.246094 L 386.214844 306.460938 L 386.511719 306.710938 L 387.285156 307.074219 L 388.417969 307.390625 L 389.726562 307.640625 L 390.976562 307.820312 L 391.691406 307.902344 L 392.640625 308 L 394.128906 308.117188 L 396.269531 308.238281 L 397.519531 308.285156 L 399.425781 308.332031 L 401.386719 308.355469 L 404.003906 308.355469 L 406.328125 308.332031 L 407.875 308.300781 L 409.480469 308.253906 L 411.679688 308.152344 L 413.050781 308.058594 L 414.238281 307.945312 L 415.132812 307.832031 L 415.726562 307.734375 L 416.621094 307.550781 L 417.332031 307.347656 L 417.867188 307.140625 L 418.226562 306.9375 L 426.554688 306.9375 L 426.199219 307.175781 L 425.664062 307.410156 L 425.128906 307.582031 L 424.292969 307.789062 L 423.34375 307.972656 L 421.972656 308.183594 L 420.84375 308.320312 L 419.355469 308.46875 L 417.988281 308.582031 L 416.5 308.683594 L 414.300781 308.804688 L 412.871094 308.863281 L 411.324219 308.917969 L 409.480469 308.964844 L 407.160156 309.003906 L 404.660156 309.03125 L 402.339844 309.035156 L 399.839844 309.023438 L 397.996094 309 L 395.558594 308.945312 L 392.523438 308.839844 L 390.320312 308.726562 L 388.597656 308.613281 L 387.109375 308.492188 L 385.441406 308.332031 L 383.300781 308.070312 L 381.992188 307.867188 L 381.097656 307.699219 L 380.085938 307.46875 L 379.375 307.257812 L 378.539062 306.925781 L 377.945312 306.503906 L 377.765625 306.175781 Z M 377.765625 305.351562 "/>
<path style=" stroke:none;fill-rule:nonzero;fill:rgb(96.862745%,70.196078%,16.862745%);fill-opacity:1;" d="M 377.765625 140.878906 L 377.828125 140.625 L 377.828125 135.496094 L 378.066406 123.960938 L 378.660156 108.070312 L 379.433594 94.996094 L 380.265625 84.746094 L 380.800781 79.363281 L 381.695312 71.671875 L 382.46875 66.03125 L 384.429688 54.496094 L 386.929688 43.730469 L 388.296875 39.117188 L 389.84375 34.761719 L 392.046875 29.890625 L 393.058594 28.097656 L 396.152344 23.996094 L 399.664062 21.433594 L 403.53125 20.664062 L 405.316406 20.917969 L 407.753906 21.945312 L 411.085938 24.765625 L 412.988281 27.328125 L 414.476562 29.890625 L 416.023438 33.222656 L 417.929688 38.347656 L 419.714844 44.5 L 421.140625 50.652344 L 422.570312 58.34375 L 423.757812 66.546875 L 424.769531 75.515625 L 425.664062 86.28125 L 426.199219 95.253906 L 426.554688 104.226562 L 418.285156 104.226562 L 417.808594 95.253906 L 417.273438 88.332031 L 416.382812 79.875 L 415.488281 73.722656 L 414.597656 68.851562 L 412.929688 62.1875 L 411.503906 58.085938 L 409.71875 54.496094 L 407.992188 52.191406 L 406.027344 50.652344 L 404.839844 50.140625 L 401.683594 50.140625 L 398.828125 51.933594 L 397.164062 53.984375 L 395.972656 56.035156 L 394.308594 59.878906 L 393.296875 62.957031 L 392.699219 65.007812 L 390.917969 72.953125 L 389.726562 80.128906 L 389.070312 85 L 388.238281 92.691406 L 387.644531 99.609375 L 386.988281 109.863281 L 386.632812 117.554688 L 386.15625 134.984375 L 386.097656 181.121094 L 386.273438 190.863281 L 386.632812 201.371094 L 387.109375 210.601562 L 387.824219 220.339844 L 388.535156 227.773438 L 389.785156 237.769531 L 390.855469 244.433594 L 391.691406 248.792969 L 393.296875 255.714844 L 393.949219 258.019531 L 395.496094 262.632812 L 397.105469 266.222656 L 399.066406 269.296875 L 400.554688 270.835938 L 402.933594 272.117188 L 405.96875 272.117188 L 409.539062 270.582031 L 411.800781 268.53125 L 413.347656 266.480469 L 414.359375 264.683594 L 415.609375 261.863281 L 416.5 259.300781 L 417.332031 256.480469 L 418.34375 252.125 L 418.34375 190.863281 L 403.648438 190.605469 L 403.648438 161.898438 L 426.496094 161.640625 L 426.554688 261.863281 L 425.304688 268.785156 L 423.757812 275.449219 L 422.273438 280.578125 L 420.726562 284.933594 L 418.523438 289.804688 L 416.738281 292.878906 L 414 296.46875 L 411.503906 298.777344 L 408.882812 300.3125 L 406.5625 301.082031 L 403.828125 301.339844 L 401.386719 300.828125 L 398.769531 299.289062 L 396.6875 297.238281 L 394.785156 294.675781 L 392.878906 291.34375 L 390.5 285.960938 L 388.953125 281.601562 L 387.347656 276.21875 L 385.738281 269.8125 L 384.3125 262.890625 L 383.359375 257.507812 L 382.40625 251.355469 L 381.394531 243.667969 L 380.445312 234.949219 L 379.730469 227.003906 L 379.074219 218.035156 L 378.601562 209.574219 L 378.125 198.039062 L 377.886719 188.8125 L 377.765625 180.867188 Z M 377.765625 140.878906 "/>
<path style=" stroke:none;fill-rule:nonzero;fill:rgb(6.27451%,58.823529%,28.235294%);fill-opacity:1;" d="M 429.125 286.535156 L 429.175781 286.351562 L 450.285156 93.136719 L 456.695312 93.136719 L 477.910156 286.714844 L 470.457031 286.714844 L 465.140625 236.1875 L 441.839844 236.1875 L 436.628906 286.535156 L 429.125 286.535156 L 444.082031 215.285156 L 463.003906 215.101562 L 453.570312 124.765625 L 453.464844 124.582031 L 453.359375 125.128906 L 444.03125 215.101562 L 444.082031 215.285156 Z M 429.125 286.535156 "/>
<path style=" stroke:none;fill-rule:nonzero;fill:rgb(14.509804%,36.078431%,60%);fill-opacity:1;" d="M 429.125 310.40625 L 429.183594 310.402344 L 429.183594 310.292969 L 429.363281 310.125 L 429.777344 309.90625 L 430.195312 309.757812 L 431.265625 309.492188 L 432.753906 309.234375 L 434.300781 309.035156 L 435.429688 308.917969 L 436.441406 308.828125 L 438.761719 308.660156 L 440.25 308.574219 L 441.855469 308.5 L 443.820312 308.421875 L 445.246094 308.378906 L 448.460938 308.304688 L 450.839844 308.273438 L 452.683594 308.261719 L 456.671875 308.261719 L 459.050781 308.277344 L 460.777344 308.300781 L 462.679688 308.335938 L 464.285156 308.378906 L 467.082031 308.476562 L 469.582031 308.601562 L 470.710938 308.675781 L 472.496094 308.816406 L 473.867188 308.949219 L 474.816406 309.066406 L 475.890625 309.234375 L 476.839844 309.4375 L 477.554688 309.667969 L 477.910156 309.863281 L 469.582031 309.863281 L 469.164062 309.679688 L 468.691406 309.542969 L 467.796875 309.355469 L 466.90625 309.226562 L 465.65625 309.09375 L 464.523438 309.007812 L 462.976562 308.921875 L 461.609375 308.871094 L 460.179688 308.828125 L 458.8125 308.800781 L 456.195312 308.773438 L 453.160156 308.773438 L 452.03125 308.785156 L 449.710938 308.820312 L 448.460938 308.851562 L 446.675781 308.914062 L 445.425781 308.972656 L 443.9375 309.0625 L 442.925781 309.140625 L 441.675781 309.257812 L 440.785156 309.359375 L 439.773438 309.511719 L 439.179688 309.621094 L 438.644531 309.75 L 438.167969 309.898438 L 437.808594 310.054688 L 437.570312 310.222656 L 437.453125 310.386719 L 437.453125 311.085938 L 437.570312 311.246094 L 437.871094 311.4375 L 438.644531 311.710938 L 439.773438 311.949219 L 441.082031 312.140625 L 442.332031 312.277344 L 443.046875 312.339844 L 443.996094 312.410156 L 445.484375 312.5 L 447.628906 312.589844 L 448.875 312.628906 L 450.78125 312.664062 L 452.746094 312.679688 L 455.363281 312.679688 L 457.683594 312.664062 L 459.230469 312.640625 L 460.835938 312.605469 L 463.039062 312.527344 L 464.40625 312.457031 L 465.597656 312.371094 L 466.488281 312.285156 L 467.082031 312.210938 L 467.976562 312.074219 L 468.691406 311.917969 L 469.226562 311.761719 L 469.582031 311.609375 L 477.910156 311.609375 L 477.554688 311.789062 L 477.019531 311.964844 L 476.484375 312.09375 L 475.652344 312.253906 L 474.699219 312.394531 L 473.332031 312.550781 L 472.199219 312.65625 L 470.710938 312.765625 L 469.34375 312.851562 L 467.855469 312.929688 L 465.65625 313.019531 L 464.226562 313.066406 L 462.679688 313.105469 L 460.835938 313.140625 L 458.515625 313.171875 L 456.015625 313.191406 L 453.695312 313.195312 L 451.195312 313.1875 L 449.351562 313.167969 L 446.914062 313.128906 L 443.878906 313.046875 L 441.675781 312.960938 L 439.953125 312.875 L 438.464844 312.785156 L 436.796875 312.664062 L 434.65625 312.464844 L 433.347656 312.3125 L 432.457031 312.183594 L 431.445312 312.007812 L 430.730469 311.851562 L 429.898438 311.597656 L 429.300781 311.277344 L 429.125 311.03125 Z M 429.125 310.40625 "/>
<path style=" stroke:none;fill-rule:nonzero;fill:rgb(96.862745%,70.196078%,16.862745%);fill-opacity:1;" d="M 429.125 292.085938 L 429.183594 292.078125 L 429.183594 291.898438 L 429.421875 291.496094 L 430.015625 290.941406 L 430.789062 290.484375 L 431.621094 290.128906 L 432.15625 289.941406 L 433.050781 289.671875 L 433.824219 289.472656 L 435.789062 289.070312 L 438.285156 288.695312 L 439.65625 288.535156 L 441.203125 288.382812 L 443.402344 288.214844 L 444.414062 288.152344 L 447.507812 288.007812 L 451.019531 287.917969 L 454.886719 287.890625 L 456.671875 287.902344 L 459.109375 287.9375 L 462.441406 288.035156 L 464.347656 288.125 L 465.832031 288.214844 L 467.378906 288.328125 L 469.285156 288.507812 L 471.070312 288.722656 L 472.496094 288.9375 L 473.925781 289.207031 L 475.117188 289.492188 L 476.125 289.804688 L 477.019531 290.179688 L 477.554688 290.492188 L 477.910156 290.808594 L 469.640625 290.808594 L 469.164062 290.492188 L 468.628906 290.253906 L 467.738281 289.957031 L 466.84375 289.742188 L 465.953125 289.574219 L 464.285156 289.339844 L 462.859375 289.199219 L 461.074219 289.070312 L 459.347656 288.992188 L 457.386719 288.9375 L 456.195312 288.921875 L 453.042969 288.921875 L 450.1875 288.984375 L 448.519531 289.054688 L 447.328125 289.125 L 445.664062 289.261719 L 444.652344 289.367188 L 444.058594 289.4375 L 442.273438 289.714844 L 441.082031 289.964844 L 440.429688 290.136719 L 439.59375 290.40625 L 439 290.644531 L 438.34375 291.003906 L 437.988281 291.273438 L 437.511719 291.878906 L 437.453125 293.488281 L 437.632812 293.828125 L 437.988281 294.195312 L 438.464844 294.519531 L 439.179688 294.859375 L 439.890625 295.117188 L 441.140625 295.464844 L 442.214844 295.699219 L 443.046875 295.851562 L 444.652344 296.09375 L 445.308594 296.171875 L 446.855469 296.335938 L 448.460938 296.460938 L 450.421875 296.566406 L 451.910156 296.621094 L 454.292969 296.664062 L 457.324219 296.664062 L 460.894531 296.609375 L 463.15625 296.539062 L 464.703125 296.46875 L 465.714844 296.40625 L 466.964844 296.308594 L 467.855469 296.21875 L 468.691406 296.121094 L 469.699219 295.96875 L 469.699219 293.828125 L 455.003906 293.820312 L 455.003906 292.820312 L 477.851562 292.808594 L 477.910156 296.308594 L 476.664062 296.546875 L 475.117188 296.78125 L 473.628906 296.960938 L 472.082031 297.113281 L 469.878906 297.28125 L 468.09375 297.390625 L 465.359375 297.515625 L 462.859375 297.59375 L 460.242188 297.648438 L 457.921875 297.675781 L 455.183594 297.683594 L 452.746094 297.667969 L 450.125 297.613281 L 448.042969 297.542969 L 446.140625 297.453125 L 444.234375 297.335938 L 441.855469 297.148438 L 440.308594 296.996094 L 438.703125 296.808594 L 437.097656 296.585938 L 435.667969 296.34375 L 434.714844 296.15625 L 433.765625 295.941406 L 432.753906 295.671875 L 431.800781 295.367188 L 431.085938 295.089844 L 430.433594 294.777344 L 429.957031 294.484375 L 429.480469 294.082031 L 429.242188 293.757812 L 429.125 293.480469 Z M 429.125 292.085938 "/>
<path style=" stroke:none;fill-rule:nonzero;fill:rgb(83.921569%,15.686275%,22.352941%);fill-opacity:1;" d="M 429.125 298.859375 L 477.910156 298.859375 L 477.910156 299.738281 L 457.578125 299.746094 L 457.578125 307.085938 L 449.398438 307.085938 L 449.398438 299.753906 L 449.277344 299.738281 L 429.125 299.738281 Z M 429.125 298.859375 "/>
<path style=" stroke:none;fill-rule:nonzero;fill:rgb(6.27451%,58.823529%,28.235294%);fill-opacity:1;" d="M 480.480469 309.894531 L 480.53125 309.890625 L 501.640625 305.214844 L 508.054688 305.214844 L 529.269531 309.898438 L 521.8125 309.898438 L 516.496094 308.675781 L 493.199219 308.675781 L 487.984375 309.894531 L 480.480469 309.894531 L 495.4375 308.167969 L 514.359375 308.164062 L 504.925781 305.980469 L 504.820312 305.972656 L 504.71875 305.988281 L 495.386719 308.164062 L 495.4375 308.167969 Z M 480.480469 309.894531 "/>
<path style=" stroke:none;fill-rule:nonzero;fill:rgb(14.509804%,36.078431%,60%);fill-opacity:1;" d="M 480.480469 159.246094 L 480.539062 159.027344 L 480.539062 153.808594 L 480.71875 145.546875 L 481.132812 135.113281 L 481.550781 127.9375 L 482.621094 115.113281 L 484.109375 102.71875 L 485.65625 93.152344 L 486.785156 87.5 L 487.796875 83.152344 L 490.117188 75.109375 L 491.605469 70.980469 L 493.210938 67.285156 L 495.175781 63.585938 L 496.605469 61.414062 L 499.816406 57.933594 L 502.195312 56.414062 L 504.039062 55.761719 L 508.027344 55.761719 L 510.40625 56.628906 L 512.132812 57.71875 L 514.035156 59.457031 L 515.644531 61.414062 L 518.441406 66.195312 L 520.9375 72.285156 L 522.070312 75.761719 L 523.855469 82.5 L 525.222656 89.023438 L 526.175781 94.675781 L 527.246094 102.71875 L 528.195312 112.503906 L 528.910156 123.589844 L 529.269531 132.9375 L 520.9375 132.9375 L 520.523438 124.242188 L 520.046875 117.503906 L 519.152344 108.589844 L 518.261719 102.285156 L 517.011719 95.980469 L 515.882812 91.851562 L 514.335938 87.71875 L 512.964844 85.109375 L 511.539062 83.152344 L 510.167969 81.847656 L 507.550781 80.542969 L 504.515625 80.542969 L 503.386719 80.980469 L 501.066406 82.71875 L 499.816406 84.242188 L 498.03125 87.285156 L 496.78125 90.109375 L 495.292969 94.457031 L 494.285156 98.15625 L 493.035156 103.808594 L 492.140625 108.808594 L 491.128906 115.980469 L 490.535156 121.417969 L 490 127.503906 L 489.523438 134.679688 L 489.167969 142.285156 L 488.929688 150.332031 L 488.808594 158.15625 L 488.808594 191.855469 L 488.929688 199.679688 L 489.226562 208.8125 L 490 222.074219 L 491.128906 233.597656 L 492.4375 242.726562 L 493.6875 249.25 L 494.402344 252.292969 L 495.355469 255.769531 L 496.839844 260.117188 L 498.984375 264.464844 L 500.234375 266.207031 L 502.136719 267.945312 L 504.101562 268.816406 L 506.71875 268.816406 L 509.039062 267.945312 L 510.585938 266.859375 L 512.191406 265.117188 L 514.394531 261.421875 L 515.761719 257.945312 L 516.953125 253.8125 L 517.84375 249.683594 L 518.441406 246.203125 L 519.332031 239.464844 L 520.046875 232.074219 L 520.582031 224.464844 L 520.9375 217.074219 L 529.269531 217.074219 L 528.910156 225.769531 L 528.375 234.246094 L 527.839844 240.550781 L 527.007812 248.160156 L 526.054688 254.902344 L 524.6875 262.511719 L 523.554688 267.511719 L 522.070312 272.945312 L 520.699219 277.074219 L 519.214844 280.773438 L 517.011719 285.121094 L 515.582031 287.292969 L 514.035156 289.25 L 512.191406 290.988281 L 509.871094 292.511719 L 507.371094 293.382812 L 505.050781 293.597656 L 502.554688 293.164062 L 500.710938 292.292969 L 498.269531 290.335938 L 495.234375 286.425781 L 493.035156 282.292969 L 491.308594 278.164062 L 489.820312 273.816406 L 488.15625 267.945312 L 486.011719 258.378906 L 484.703125 250.988281 L 483.8125 244.902344 L 482.800781 236.421875 L 482.085938 228.8125 L 481.253906 216.636719 L 480.65625 201.203125 L 480.480469 189.246094 Z M 480.480469 159.246094 "/>
<path style=" stroke:none;fill-rule:nonzero;fill:rgb(96.862745%,70.196078%,16.862745%);fill-opacity:1;" d="M 480.480469 298.742188 L 480.539062 298.734375 L 480.539062 298.5625 L 480.777344 298.183594 L 481.371094 297.660156 L 482.144531 297.226562 L 482.980469 296.890625 L 483.515625 296.710938 L 484.40625 296.457031 L 485.179688 296.269531 L 487.144531 295.890625 L 489.640625 295.535156 L 491.011719 295.382812 L 492.558594 295.238281 L 494.757812 295.078125 L 495.769531 295.019531 L 498.863281 294.882812 L 502.375 294.800781 L 506.242188 294.773438 L 508.027344 294.78125 L 510.464844 294.816406 L 513.796875 294.910156 L 515.703125 294.992188 L 517.191406 295.078125 L 518.738281 295.1875 L 520.640625 295.355469 L 522.425781 295.558594 L 523.855469 295.761719 L 525.28125 296.015625 L 526.472656 296.289062 L 527.484375 296.585938 L 528.375 296.941406 L 528.910156 297.234375 L 529.269531 297.53125 L 520.996094 297.53125 L 520.523438 297.234375 L 519.988281 297.007812 L 519.09375 296.726562 L 518.203125 296.523438 L 517.308594 296.363281 L 515.644531 296.144531 L 514.214844 296.007812 L 512.429688 295.890625 L 510.703125 295.8125 L 508.742188 295.761719 L 507.550781 295.746094 L 504.398438 295.746094 L 501.542969 295.804688 L 499.875 295.875 L 498.6875 295.941406 L 497.019531 296.066406 L 496.007812 296.167969 L 495.414062 296.238281 L 493.628906 296.5 L 492.4375 296.738281 L 491.785156 296.898438 L 490.953125 297.152344 L 490.355469 297.378906 L 489.703125 297.71875 L 489.34375 297.972656 L 488.867188 298.546875 L 488.808594 300.070312 L 488.988281 300.390625 L 489.34375 300.738281 L 489.820312 301.042969 L 490.535156 301.363281 L 491.25 301.609375 L 492.5 301.941406 L 493.570312 302.160156 L 494.402344 302.304688 L 496.007812 302.53125 L 496.664062 302.609375 L 498.210938 302.761719 L 499.816406 302.878906 L 501.78125 302.980469 L 503.265625 303.03125 L 505.648438 303.074219 L 508.683594 303.074219 L 512.25 303.023438 L 514.511719 302.957031 L 516.058594 302.886719 L 517.070312 302.828125 L 518.320312 302.734375 L 519.214844 302.652344 L 520.046875 302.558594 L 521.058594 302.414062 L 521.058594 300.390625 L 506.363281 300.382812 L 506.363281 299.433594 L 529.207031 299.425781 L 529.269531 302.734375 L 528.019531 302.964844 L 526.472656 303.183594 L 524.984375 303.351562 L 523.4375 303.496094 L 521.234375 303.65625 L 519.449219 303.757812 L 516.714844 303.878906 L 514.214844 303.953125 L 511.597656 304.003906 L 509.277344 304.03125 L 506.539062 304.039062 L 504.101562 304.019531 L 501.484375 303.96875 L 499.398438 303.902344 L 497.496094 303.816406 L 495.59375 303.707031 L 493.210938 303.53125 L 491.664062 303.386719 L 490.058594 303.210938 L 488.453125 302.996094 L 487.023438 302.769531 L 486.074219 302.589844 L 485.121094 302.386719 L 484.109375 302.132812 L 483.15625 301.847656 L 482.441406 301.585938 L 481.789062 301.289062 L 481.3125 301.007812 L 480.835938 300.628906 L 480.597656 300.324219 L 480.480469 300.0625 Z M 480.480469 298.742188 "/>
<path style=" stroke:none;fill-rule:nonzero;fill:rgb(83.921569%,15.686275%,22.352941%);fill-opacity:1;" d="M 480.480469 311.074219 L 529.269531 311.074219 L 529.269531 311.300781 L 508.933594 311.304688 L 508.933594 313.195312 L 500.753906 313.195312 L 500.753906 311.304688 L 500.636719 311.300781 L 480.480469 311.300781 Z M 480.480469 311.074219 "/>
<path style=" stroke:none;fill-rule:nonzero;fill:rgb(6.27451%,58.823529%,28.235294%);fill-opacity:1;" d="M 531.835938 313.191406 L 531.886719 313.183594 L 553 307.167969 L 559.410156 307.167969 L 580.625 313.195312 L 573.171875 313.195312 L 567.855469 311.621094 L 544.554688 311.621094 L 539.34375 313.191406 L 531.835938 313.191406 L 546.796875 310.972656 L 565.71875 310.964844 L 556.28125 308.152344 L 556.179688 308.148438 L 556.074219 308.164062 L 546.742188 310.964844 L 546.796875 310.972656 Z M 531.835938 313.191406 "/>
<path style=" stroke:none;fill-rule:nonzero;fill:rgb(14.509804%,36.078431%,60%);fill-opacity:1;" d="M 531.835938 215.582031 L 531.894531 215.480469 L 531.894531 213.03125 L 532.074219 209.152344 L 532.492188 204.253906 L 532.90625 200.886719 L 533.976562 194.863281 L 535.464844 189.046875 L 537.011719 184.558594 L 538.144531 181.90625 L 539.152344 179.863281 L 541.476562 176.085938 L 542.960938 174.148438 L 544.570312 172.414062 L 546.53125 170.679688 L 547.960938 169.65625 L 551.171875 168.023438 L 553.554688 167.3125 L 555.398438 167.003906 L 559.382812 167.003906 L 561.761719 167.414062 L 563.488281 167.921875 L 565.394531 168.738281 L 567 169.65625 L 569.796875 171.902344 L 572.292969 174.761719 L 573.425781 176.394531 L 575.210938 179.558594 L 576.578125 182.617188 L 577.53125 185.273438 L 578.601562 189.046875 L 579.554688 193.640625 L 580.265625 198.84375 L 580.625 203.234375 L 572.292969 203.234375 L 571.878906 199.152344 L 571.402344 195.988281 L 570.507812 191.804688 L 569.617188 188.84375 L 568.367188 185.882812 L 567.238281 183.945312 L 565.691406 182.007812 L 564.320312 180.78125 L 562.894531 179.863281 L 561.527344 179.25 L 558.90625 178.640625 L 555.875 178.640625 L 554.742188 178.84375 L 552.421875 179.660156 L 551.171875 180.375 L 549.386719 181.800781 L 548.136719 183.128906 L 546.652344 185.171875 L 545.640625 186.90625 L 544.390625 189.558594 L 543.496094 191.90625 L 542.484375 195.273438 L 541.890625 197.824219 L 541.355469 200.683594 L 540.878906 204.050781 L 540.523438 207.621094 L 540.285156 211.398438 L 540.164062 215.070312 L 540.164062 230.890625 L 540.285156 234.5625 L 540.582031 238.851562 L 541.355469 245.074219 L 542.484375 250.484375 L 543.796875 254.769531 L 545.042969 257.832031 L 545.757812 259.261719 L 546.710938 260.894531 L 548.199219 262.933594 L 550.339844 264.976562 L 551.589844 265.792969 L 553.492188 266.609375 L 555.457031 267.015625 L 558.074219 267.015625 L 560.394531 266.609375 L 561.941406 266.097656 L 563.546875 265.28125 L 565.75 263.546875 L 567.117188 261.914062 L 568.308594 259.976562 L 569.199219 258.035156 L 569.796875 256.402344 L 570.6875 253.238281 L 571.402344 249.769531 L 571.9375 246.199219 L 572.292969 242.726562 L 580.625 242.726562 L 580.265625 246.808594 L 579.730469 250.789062 L 579.195312 253.75 L 578.363281 257.320312 L 577.410156 260.484375 L 576.042969 264.058594 L 574.914062 266.402344 L 573.425781 268.957031 L 572.058594 270.894531 L 570.570312 272.628906 L 568.367188 274.671875 L 566.941406 275.691406 L 565.394531 276.609375 L 563.546875 277.425781 L 561.226562 278.140625 L 558.730469 278.546875 L 556.410156 278.652344 L 553.910156 278.445312 L 552.066406 278.039062 L 549.625 277.121094 L 546.589844 275.28125 L 544.390625 273.34375 L 542.664062 271.40625 L 541.175781 269.363281 L 539.511719 266.609375 L 537.371094 262.117188 L 536.058594 258.648438 L 535.167969 255.789062 L 534.15625 251.8125 L 533.441406 248.238281 L 532.609375 242.523438 L 532.015625 235.277344 L 531.835938 229.664062 Z M 531.835938 215.582031 "/>
<path style=" stroke:none;fill-rule:nonzero;fill:rgb(96.862745%,70.196078%,16.862745%);fill-opacity:1;" d="M 531.835938 299.625 L 531.894531 299.617188 L 531.894531 299.410156 L 532.132812 298.953125 L 532.726562 298.324219 L 533.5 297.804688 L 534.335938 297.398438 L 534.871094 297.183594 L 535.761719 296.878906 L 536.535156 296.65625 L 538.5 296.195312 L 541 295.769531 L 542.367188 295.585938 L 543.914062 295.414062 L 546.117188 295.21875 L 547.128906 295.148438 L 550.222656 294.984375 L 553.730469 294.882812 L 557.597656 294.855469 L 559.382812 294.863281 L 561.824219 294.90625 L 565.15625 295.015625 L 567.058594 295.117188 L 568.546875 295.21875 L 570.09375 295.351562 L 571.996094 295.554688 L 573.78125 295.800781 L 575.210938 296.042969 L 576.636719 296.351562 L 577.828125 296.675781 L 578.839844 297.03125 L 579.730469 297.457031 L 580.265625 297.816406 L 580.625 298.171875 L 572.355469 298.171875 L 571.878906 297.816406 L 571.34375 297.539062 L 570.449219 297.203125 L 569.558594 296.960938 L 568.664062 296.765625 L 567 296.503906 L 565.570312 296.339844 L 563.785156 296.195312 L 562.0625 296.105469 L 560.097656 296.042969 L 558.90625 296.023438 L 555.753906 296.023438 L 552.898438 296.09375 L 551.230469 296.175781 L 550.042969 296.257812 L 548.375 296.410156 L 547.363281 296.53125 L 546.769531 296.613281 L 544.984375 296.929688 L 543.796875 297.214844 L 543.140625 297.40625 L 542.308594 297.714844 L 541.710938 297.988281 L 541.058594 298.394531 L 540.703125 298.699219 L 540.226562 299.390625 L 540.164062 301.222656 L 540.34375 301.609375 L 540.703125 302.027344 L 541.175781 302.394531 L 541.890625 302.78125 L 542.605469 303.074219 L 543.855469 303.472656 L 544.925781 303.734375 L 545.757812 303.910156 L 547.363281 304.183594 L 548.019531 304.273438 L 549.566406 304.457031 L 551.171875 304.601562 L 553.136719 304.722656 L 554.625 304.785156 L 557.003906 304.835938 L 560.039062 304.835938 L 563.609375 304.773438 L 565.867188 304.691406 L 567.414062 304.609375 L 568.425781 304.539062 L 569.675781 304.425781 L 570.570312 304.324219 L 571.402344 304.214844 L 572.414062 304.042969 L 572.414062 301.609375 L 557.71875 301.597656 L 557.71875 300.460938 L 580.566406 300.449219 L 580.625 304.425781 L 579.375 304.703125 L 577.828125 304.96875 L 576.339844 305.171875 L 574.792969 305.34375 L 572.59375 305.535156 L 570.808594 305.660156 L 568.070312 305.800781 L 565.570312 305.894531 L 562.953125 305.953125 L 560.632812 305.984375 L 557.894531 305.996094 L 555.457031 305.972656 L 552.839844 305.914062 L 550.757812 305.832031 L 548.851562 305.730469 L 546.949219 305.597656 L 544.570312 305.382812 L 543.023438 305.210938 L 541.414062 304.996094 L 539.808594 304.742188 L 538.378906 304.46875 L 537.429688 304.253906 L 536.476562 304.011719 L 535.464844 303.707031 L 534.511719 303.359375 L 533.800781 303.042969 L 533.144531 302.6875 L 532.667969 302.351562 L 532.191406 301.894531 L 531.953125 301.527344 L 531.835938 301.210938 Z M 531.835938 299.625 "/>
<path style=" stroke:none;fill-rule:nonzero;fill:rgb(83.921569%,15.686275%,22.352941%);fill-opacity:1;" d="M 531.835938 279.824219 L 580.625 279.824219 L 580.625 281.308594 L 560.289062 281.320312 L 560.289062 293.679688 L 552.109375 293.679688 L 552.109375 281.335938 L 551.992188 281.308594 L 531.835938 281.308594 Z M 531.835938 279.824219 "/>
<g style="fill:rgb(0%,0%,0%);fill-opacity:1;">
  <use xlink:href="#glyph0-1" x="21.957031" y="317.018555"/>
  <use xlink:href="#glyph0-2" x="27.291016" y="317.018555"/>
  <use xlink:href="#glyph0-1" x="29.958008" y="317.018555"/>
</g>
<g style="fill:rgb(0%,0%,0%);fill-opacity:1;">
  <use xlink:href="#glyph0-1" x="21.957031" y="231.041992"/>
  <use xlink:href="#glyph0-2" x="27.291016" y="231.041992"/>
  <use xlink:href="#glyph0-3" x="29.958008" y="231.041992"/>
</g>
<g style="fill:rgb(0%,0%,0%);fill-opacity:1;">
  <use xlink:href="#glyph0-4" x="21.957031" y="145.06543"/>
  <use xlink:href="#glyph0-2" x="27.291016" y="145.06543"/>
  <use xlink:href="#glyph0-1" x="29.958008" y="145.06543"/>
</g>
<g style="fill:rgb(0%,0%,0%);fill-opacity:1;">
  <use xlink:href="#glyph0-4" x="21.957031" y="59.084961"/>
  <use xlink:href="#glyph0-2" x="27.291016" y="59.084961"/>
  <use xlink:href="#glyph0-3" x="29.958008" y="59.084961"/>
</g>
<g style="fill:rgb(0%,0%,0%);fill-opacity:1;">
  <use xlink:href="#glyph0-4" x="91.023438" y="338.19043"/>
</g>
<g style="fill:rgb(0%,0%,0%);fill-opacity:1;">
  <use xlink:href="#glyph0-5" x="142.378906" y="338.19043"/>
</g>
<g style="fill:rgb(0%,0%,0%);fill-opacity:1;">
  <use xlink:href="#glyph0-6" x="193.734375" y="338.19043"/>
</g>
<g style="fill:rgb(0%,0%,0%);fill-opacity:1;">
  <use xlink:href="#glyph0-7" x="245.09375" y="338.19043"/>
</g>
<g style="fill:rgb(0%,0%,0%);fill-opacity:1;">
  <use xlink:href="#glyph0-3" x="296.449219" y="338.19043"/>
</g>
<g style="fill:rgb(0%,0%,0%);fill-opacity:1;">
  <use xlink:href="#glyph0-8" x="347.804688" y="338.19043"/>
</g>
<g style="fill:rgb(0%,0%,0%);fill-opacity:1;">
  <use xlink:href="#glyph0-9" x="399.160156" y="338.19043"/>
</g>
<g style="fill:rgb(0%,0%,0%);fill-opacity:1;">
  <use xlink:href="#glyph0-10" x="450.519531" y="338.19043"/>
</g>
<g style="fill:rgb(0%,0%,0%);fill-opacity:1;">
  <use xlink:href="#glyph0-11" x="501.875" y="338.19043"/>
</g>
<g style="fill:rgb(0%,0%,0%);fill-opacity:1;">
  <use xlink:href="#glyph0-4" x="550.730469" y="338.19043"/>
  <use xlink:href="#glyph0-1" x="556.064453" y="338.19043"/>
</g>
<g style="fill:rgb(0%,0%,0%);fill-opacity:1;">
  <use xlink:href="#glyph0-4" x="602.085938" y="338.19043"/>
  <use xlink:href="#glyph0-4" x="607.419922" y="338.19043"/>
</g>
<g style="fill:rgb(0%,0%,0%);fill-opacity:1;">
  <use xlink:href="#glyph0-4" x="653.441406" y="338.19043"/>
  <use xlink:href="#glyph0-5" x="658.775391" y="338.19043"/>
</g>
<g style="fill:rgb(0%,0%,0%);fill-opacity:1;">
  <use xlink:href="#glyph1-1" x="14.412109" y="178.015625"/>
  <use xlink:href="#glyph1-2" x="14.412109" y="170.011719"/>
  <use xlink:href="#glyph1-3" x="14.412109" y="167.347656"/>
  <use xlink:href="#glyph1-4" x="14.412109" y="164.011719"/>
</g>
</g>
</svg>
