<?xml version="1.0" encoding="UTF-8"?>
<svg xmlns="http://www.w3.org/2000/svg" xmlns:xlink="http://www.w3.org/1999/xlink" width="720pt" height="360pt" viewBox="0 0 720 360" version="1.1">
<defs>
<g>
<symbol overflow="visible" id="glyph0-0">
<path style="stroke:none;" d=""/>
</symbol>
<symbol overflow="visible" id="glyph0-1">
<path style="stroke:none;" d="M 2.640625 -6.796875 C 2 -6.796875 1.421875 -6.53125 1.078125 -6.046875 C 0.640625 -5.453125 0.40625 -4.546875 0.40625 -3.296875 C 0.40625 -1 1.1875 0.21875 2.640625 0.21875 C 4.078125 0.21875 4.859375 -1 4.859375 -3.234375 C 4.859375 -4.5625 4.65625 -5.4375 4.203125 -6.046875 C 3.84375 -6.53125 3.28125 -6.796875 2.640625 -6.796875 Z M 2.640625 -6.046875 C 3.546875 -6.046875 4 -5.125 4 -3.3125 C 4 -1.375 3.5625 -0.484375 2.625 -0.484375 C 1.734375 -0.484375 1.28125 -1.421875 1.28125 -3.28125 C 1.28125 -5.140625 1.734375 -6.046875 2.640625 -6.046875 Z M 2.640625 -6.046875 "/>
</symbol>
<symbol overflow="visible" id="glyph0-2">
<path style="stroke:none;" d="M 1.828125 -1 L 0.828125 -1 L 0.828125 0 L 1.828125 0 Z M 1.828125 -1 "/>
</symbol>
<symbol overflow="visible" id="glyph0-3">
<path style="stroke:none;" d="M 4.5625 -6.796875 L 1.0625 -6.796875 L 0.546875 -3.09375 L 1.328125 -3.09375 C 1.71875 -3.5625 2.046875 -3.734375 2.578125 -3.734375 C 3.484375 -3.734375 4.0625 -3.109375 4.0625 -2.09375 C 4.0625 -1.125 3.484375 -0.53125 2.578125 -0.53125 C 1.828125 -0.53125 1.375 -0.90625 1.1875 -1.671875 L 0.328125 -1.671875 C 0.453125 -1.109375 0.546875 -0.84375 0.75 -0.59375 C 1.125 -0.078125 1.828125 0.21875 2.59375 0.21875 C 3.96875 0.21875 4.921875 -0.78125 4.921875 -2.21875 C 4.921875 -3.5625 4.03125 -4.484375 2.71875 -4.484375 C 2.25 -4.484375 1.859375 -4.359375 1.46875 -4.0625 L 1.734375 -5.96875 L 4.5625 -5.96875 Z M 4.5625 -6.796875 "/>
</symbol>
<symbol overflow="visible" id="glyph0-4">
<path style="stroke:none;" d="M 2.484375 -4.84375 L 2.484375 0 L 3.328125 0 L 3.328125 -6.796875 L 2.765625 -6.796875 C 2.46875 -5.75 2.28125 -5.609375 0.984375 -5.453125 L 0.984375 -4.84375 Z M 2.484375 -4.84375 "/>
</symbol>
<symbol overflow="visible" id="glyph0-5">
<path style="stroke:none;" d="M 4.859375 -0.828125 L 1.28125 -0.828125 C 1.359375 -1.390625 1.671875 -1.75 2.5 -2.234375 L 3.46875 -2.75 C 4.40625 -3.265625 4.90625 -3.96875 4.90625 -4.8125 C 4.90625 -5.375 4.671875 -5.90625 4.265625 -6.265625 C 3.859375 -6.625 3.375 -6.796875 2.71875 -6.796875 C 1.859375 -6.796875 1.21875 -6.5 0.84375 -5.921875 C 0.609375 -5.5625 0.5 -5.125 0.484375 -4.4375 L 1.328125 -4.4375 C 1.359375 -4.90625 1.40625 -5.1875 1.53125 -5.40625 C 1.75 -5.8125 2.1875 -6.0625 2.703125 -6.0625 C 3.46875 -6.0625 4.03125 -5.515625 4.03125 -4.78125 C 4.03125 -4.25 3.71875 -3.796875 3.125 -3.4375 L 2.234375 -2.9375 C 0.8125 -2.140625 0.40625 -1.5 0.328125 0 L 4.859375 0 Z M 4.859375 -0.828125 "/>
</symbol>
<symbol overflow="visible" id="glyph0-6">
<path style="stroke:none;" d="M 2.125 -3.125 L 2.578125 -3.125 C 3.515625 -3.125 3.984375 -2.703125 3.984375 -1.890625 C 3.984375 -1.03125 3.46875 -0.53125 2.578125 -0.53125 C 1.65625 -0.53125 1.203125 -0.984375 1.15625 -1.96875 L 0.3125 -1.96875 C 0.34375 -1.421875 0.4375 -1.078125 0.609375 -0.765625 C 0.953125 -0.109375 1.625 0.21875 2.546875 0.21875 C 3.953125 0.21875 4.859375 -0.609375 4.859375 -1.90625 C 4.859375 -2.765625 4.515625 -3.25 3.703125 -3.515625 C 4.34375 -3.765625 4.65625 -4.25 4.65625 -4.9375 C 4.65625 -6.109375 3.875 -6.796875 2.578125 -6.796875 C 1.203125 -6.796875 0.484375 -6.046875 0.453125 -4.609375 L 1.296875 -4.609375 C 1.3125 -5.015625 1.34375 -5.25 1.453125 -5.453125 C 1.640625 -5.828125 2.0625 -6.0625 2.59375 -6.0625 C 3.34375 -6.0625 3.796875 -5.625 3.796875 -4.90625 C 3.796875 -4.421875 3.609375 -4.140625 3.25 -3.984375 C 3.015625 -3.890625 2.71875 -3.84375 2.125 -3.84375 Z M 2.125 -3.125 "/>
</symbol>
<symbol overflow="visible" id="glyph0-7">
<path style="stroke:none;" d="M 3.140625 -1.625 L 3.140625 0 L 3.984375 0 L 3.984375 -1.625 L 4.984375 -1.625 L 4.984375 -2.390625 L 3.984375 -2.390625 L 3.984375 -6.796875 L 3.359375 -6.796875 L 0.265625 -2.515625 L 0.265625 -1.625 Z M 3.140625 -2.390625 L 1 -2.390625 L 3.140625 -5.359375 Z M 3.140625 -2.390625 "/>
</symbol>
<symbol overflow="visible" id="glyph0-8">
<path style="stroke:none;" d="M 4.78125 -5.03125 C 4.609375 -6.140625 3.890625 -6.796875 2.84375 -6.796875 C 2.09375 -6.796875 1.421875 -6.4375 1.03125 -5.828125 C 0.609375 -5.171875 0.40625 -4.34375 0.40625 -3.09375 C 0.40625 -1.953125 0.578125 -1.234375 0.984375 -0.625 C 1.359375 -0.078125 1.953125 0.21875 2.703125 0.21875 C 3.984375 0.21875 4.921875 -0.734375 4.921875 -2.078125 C 4.921875 -3.34375 4.0625 -4.234375 2.84375 -4.234375 C 2.171875 -4.234375 1.640625 -3.96875 1.28125 -3.46875 C 1.28125 -5.125 1.828125 -6.046875 2.796875 -6.046875 C 3.390625 -6.046875 3.796875 -5.671875 3.9375 -5.03125 Z M 2.734375 -3.484375 C 3.546875 -3.484375 4.0625 -2.921875 4.0625 -2 C 4.0625 -1.15625 3.484375 -0.53125 2.703125 -0.53125 C 1.921875 -0.53125 1.328125 -1.1875 1.328125 -2.046875 C 1.328125 -2.890625 1.90625 -3.484375 2.734375 -3.484375 Z M 2.734375 -3.484375 "/>
</symbol>
<symbol overflow="visible" id="glyph0-9">
<path style="stroke:none;" d="M 4.984375 -6.796875 L 0.4375 -6.796875 L 0.4375 -5.96875 L 4.109375 -5.96875 C 2.5 -3.65625 1.828125 -2.234375 1.328125 0 L 2.21875 0 C 2.59375 -2.171875 3.453125 -4.046875 4.984375 -6.09375 Z M 4.984375 -6.796875 "/>
</symbol>
<symbol overflow="visible" id="glyph1-0">
<path style="stroke:none;" d=""/>
</symbol>
<symbol overflow="visible" id="glyph1-1">
<path style="stroke:none;" d="M 0 -0.953125 L 0 -4.890625 C 0 -5.71875 -0.234375 -6.34375 -0.734375 -6.796875 C -1.1875 -7.234375 -1.8125 -7.46875 -2.5 -7.46875 C -3.546875 -7.46875 -4.1875 -7 -4.625 -5.875 C -4.984375 -6.671875 -5.640625 -7.09375 -6.53125 -7.09375 C -7.15625 -7.09375 -7.734375 -6.859375 -8.140625 -6.390625 C -8.5625 -5.9375 -8.75 -5.34375 -8.75 -4.5 L -8.75 -0.953125 Z M -4.984375 -2.0625 L -7.765625 -2.0625 L -7.765625 -4.21875 C -7.765625 -4.84375 -7.6875 -5.203125 -7.453125 -5.5 C -7.21875 -5.8125 -6.859375 -5.96875 -6.375 -5.96875 C -5.90625 -5.96875 -5.53125 -5.8125 -5.296875 -5.5 C -5.0625 -5.203125 -4.984375 -4.84375 -4.984375 -4.21875 Z M -0.984375 -2.0625 L -4 -2.0625 L -4 -4.78125 C -4 -5.328125 -3.859375 -5.6875 -3.578125 -5.953125 C -3.296875 -6.21875 -2.921875 -6.359375 -2.484375 -6.359375 C -2.0625 -6.359375 -1.6875 -6.21875 -1.40625 -5.953125 C -1.109375 -5.6875 -0.984375 -5.328125 -0.984375 -4.78125 Z M -0.984375 -2.0625 "/>
</symbol>
<symbol overflow="visible" id="glyph1-2">
<path style="stroke:none;" d="M -6.28125 -1.796875 L -6.28125 -0.796875 L 0 -0.796875 L 0 -1.796875 Z M -8.75 -1.796875 L -8.75 -0.796875 L -7.484375 -0.796875 L -7.484375 -1.796875 Z M -8.75 -1.796875 "/>
</symbol>
<symbol overflow="visible" id="glyph1-3">
<path style="stroke:none;" d="M -6.28125 -3.046875 L -6.28125 -2.015625 L -8.015625 -2.015625 L -8.015625 -1.015625 L -6.28125 -1.015625 L -6.28125 -0.171875 L -5.46875 -0.171875 L -5.46875 -1.015625 L -0.71875 -1.015625 C -0.078125 -1.015625 0.28125 -1.453125 0.28125 -2.234375 C 0.28125 -2.46875 0.25 -2.71875 0.1875 -3.046875 L -0.640625 -3.046875 C -0.609375 -2.921875 -0.59375 -2.765625 -0.59375 -2.5625 C -0.59375 -2.140625 -0.71875 -2.015625 -1.15625 -2.015625 L -5.46875 -2.015625 L -5.46875 -3.046875 Z M -6.28125 -3.046875 "/>
</symbol>
<symbol overflow="visible" id="glyph1-4">
<path style="stroke:none;" d="M -4.53125 -5.25 C -5.765625 -5.25 -6.46875 -4.421875 -6.46875 -2.96875 C -6.46875 -1.515625 -5.71875 -0.5625 -4.546875 -0.5625 C -3.5625 -0.5625 -3.09375 -1.0625 -2.734375 -2.5625 L -2.515625 -3.484375 C -2.34375 -4.1875 -2.09375 -4.46875 -1.625 -4.46875 C -1.046875 -4.46875 -0.640625 -3.875 -0.640625 -3 C -0.640625 -2.453125 -0.796875 -2 -1.0625 -1.75 C -1.25 -1.59375 -1.421875 -1.53125 -1.875 -1.46875 L -1.875 -0.40625 C -0.421875 -0.453125 0.28125 -1.265625 0.28125 -2.921875 C 0.28125 -4.5 -0.5 -5.515625 -1.71875 -5.515625 C -2.65625 -5.515625 -3.171875 -4.984375 -3.46875 -3.734375 L -3.703125 -2.765625 C -3.890625 -1.953125 -4.15625 -1.609375 -4.59375 -1.609375 C -5.171875 -1.609375 -5.546875 -2.125 -5.546875 -2.9375 C -5.546875 -3.75 -5.203125 -4.171875 -4.53125 -4.203125 Z M -4.53125 -5.25 "/>
</symbol>
</g>
</defs>
<g id="surface9672">
<rect x="0" y="0" width="720" height="360" style="fill:rgb(100%,100%,100%);fill-opacity:1;stroke:none;"/>
<path style=" stroke:none;fill-rule:nonzero;fill:rgb(6.27451%,58.823529%,28.235294%);fill-opacity:1;" d="M 69.628906 305.609375 L 69.71875 305.589844 L 106.015625 285.824219 L 117.039062 285.824219 L 153.515625 305.628906 L 140.703125 305.628906 L 131.558594 300.457031 L 91.496094 300.457031 L 82.535156 305.609375 L 69.628906 305.609375 L 95.351562 298.320312 L 127.886719 298.300781 L 111.664062 289.058594 L 111.484375 289.042969 L 111.304688 289.097656 L 95.261719 298.300781 L 95.351562 298.320312 Z M 69.628906 305.609375 "/>
<path style=" stroke:none;fill-rule:nonzero;fill:rgb(14.509804%,36.078431%,60%);fill-opacity:1;" d="M 69.628906 313.0625 L 69.730469 313.058594 L 69.730469 313.007812 L 70.039062 312.929688 L 70.753906 312.828125 L 71.472656 312.757812 L 73.3125 312.632812 L 75.871094 312.511719 L 78.53125 312.417969 L 80.472656 312.363281 L 82.210938 312.320312 L 86.203125 312.242188 L 88.761719 312.203125 L 91.523438 312.164062 L 94.898438 312.128906 L 97.351562 312.109375 L 102.878906 312.074219 L 106.96875 312.058594 L 110.140625 312.054688 L 116.996094 312.054688 L 121.085938 312.0625 L 124.054688 312.070312 L 127.328125 312.089844 L 130.089844 312.109375 L 134.898438 312.15625 L 139.195312 312.214844 L 141.140625 312.246094 L 144.207031 312.3125 L 146.5625 312.378906 L 148.199219 312.433594 L 150.039062 312.511719 L 151.675781 312.605469 L 152.902344 312.714844 L 153.515625 312.804688 L 139.195312 312.804688 L 138.480469 312.71875 L 137.660156 312.65625 L 136.125 312.566406 L 134.589844 312.507812 L 132.441406 312.445312 L 130.5 312.40625 L 127.839844 312.363281 L 125.488281 312.339844 L 123.03125 312.320312 L 120.679688 312.308594 L 116.175781 312.292969 L 110.960938 312.292969 L 109.015625 312.296875 L 105.027344 312.316406 L 102.878906 312.332031 L 99.808594 312.359375 L 97.660156 312.386719 L 95.101562 312.429688 L 93.363281 312.464844 L 91.214844 312.519531 L 89.679688 312.570312 L 87.941406 312.640625 L 86.917969 312.691406 L 85.996094 312.753906 L 85.179688 312.820312 L 84.566406 312.894531 L 84.15625 312.972656 L 83.953125 313.050781 L 83.953125 313.378906 L 84.15625 313.457031 L 84.667969 313.542969 L 85.996094 313.671875 L 87.941406 313.785156 L 90.191406 313.875 L 92.339844 313.9375 L 93.566406 313.96875 L 95.203125 314.003906 L 97.761719 314.042969 L 101.445312 314.085938 L 103.59375 314.105469 L 106.867188 314.121094 L 110.242188 314.128906 L 114.746094 314.128906 L 118.734375 314.121094 L 121.394531 314.109375 L 124.15625 314.09375 L 127.941406 314.058594 L 130.292969 314.023438 L 132.339844 313.984375 L 133.875 313.941406 L 134.898438 313.910156 L 136.433594 313.84375 L 137.660156 313.769531 L 138.582031 313.695312 L 139.195312 313.625 L 153.515625 313.625 L 152.902344 313.710938 L 151.984375 313.792969 L 151.0625 313.855469 L 149.628906 313.929688 L 147.992188 313.992188 L 145.640625 314.066406 L 143.695312 314.117188 L 141.140625 314.167969 L 138.785156 314.210938 L 136.226562 314.246094 L 132.441406 314.289062 L 129.988281 314.308594 L 127.328125 314.328125 L 124.15625 314.34375 L 120.167969 314.359375 L 115.871094 314.367188 L 111.878906 314.371094 L 107.582031 314.367188 L 104.414062 314.359375 L 100.21875 314.339844 L 95 314.300781 L 91.214844 314.261719 L 88.25 314.21875 L 85.691406 314.179688 L 82.828125 314.121094 L 79.144531 314.027344 L 76.894531 313.957031 L 75.359375 313.894531 L 73.621094 313.8125 L 72.390625 313.738281 L 70.960938 313.621094 L 69.9375 313.46875 L 69.628906 313.355469 Z M 69.628906 313.0625 "/>
<path style=" stroke:none;fill-rule:nonzero;fill:rgb(96.862745%,70.196078%,16.862745%);fill-opacity:1;" d="M 69.628906 308.550781 L 69.730469 308.546875 L 69.730469 308.472656 L 70.140625 308.304688 L 71.164062 308.074219 L 72.492188 307.882812 L 73.925781 307.734375 L 74.847656 307.65625 L 76.382812 307.546875 L 77.710938 307.464844 L 81.085938 307.296875 L 85.382812 307.140625 L 87.738281 307.074219 L 90.398438 307.011719 L 94.183594 306.941406 L 95.921875 306.914062 L 101.242188 306.855469 L 107.277344 306.820312 L 113.925781 306.808594 L 116.996094 306.8125 L 121.191406 306.824219 L 126.917969 306.867188 L 130.191406 306.902344 L 132.75 306.941406 L 135.410156 306.988281 L 138.683594 307.0625 L 141.753906 307.152344 L 144.207031 307.242188 L 146.664062 307.351562 L 148.710938 307.472656 L 150.449219 307.601562 L 151.984375 307.757812 L 152.902344 307.886719 L 153.515625 308.019531 L 139.296875 308.019531 L 138.480469 307.886719 L 137.558594 307.789062 L 136.023438 307.664062 L 134.488281 307.574219 L 132.953125 307.503906 L 130.089844 307.410156 L 127.636719 307.347656 L 124.566406 307.296875 L 121.597656 307.265625 L 118.222656 307.242188 L 116.175781 307.234375 L 110.753906 307.234375 L 105.84375 307.261719 L 102.980469 307.289062 L 100.933594 307.320312 L 98.070312 307.375 L 96.332031 307.421875 L 95.308594 307.449219 L 92.238281 307.566406 L 90.191406 307.667969 L 89.066406 307.738281 L 87.632812 307.851562 L 86.613281 307.949219 L 85.484375 308.097656 L 84.871094 308.210938 L 84.054688 308.464844 L 83.953125 309.132812 L 84.257812 309.273438 L 84.871094 309.425781 L 85.691406 309.558594 L 86.917969 309.699219 L 88.144531 309.808594 L 90.292969 309.953125 L 92.136719 310.050781 L 93.566406 310.113281 L 96.332031 310.210938 L 97.457031 310.246094 L 100.117188 310.3125 L 102.878906 310.363281 L 106.253906 310.410156 L 108.8125 310.429688 L 112.902344 310.449219 L 118.121094 310.449219 L 124.257812 310.429688 L 128.144531 310.398438 L 130.804688 310.367188 L 132.546875 310.34375 L 134.695312 310.300781 L 136.226562 310.265625 L 137.660156 310.222656 L 139.398438 310.160156 L 139.398438 309.273438 L 114.132812 309.269531 L 114.132812 308.851562 L 153.414062 308.851562 L 153.515625 310.300781 L 151.367188 310.402344 L 148.710938 310.5 L 146.152344 310.574219 L 143.492188 310.636719 L 139.707031 310.707031 L 136.636719 310.75 L 131.929688 310.804688 L 127.636719 310.835938 L 123.132812 310.859375 L 119.144531 310.871094 L 114.4375 310.875 L 110.242188 310.867188 L 105.742188 310.84375 L 102.160156 310.8125 L 98.886719 310.777344 L 95.613281 310.730469 L 91.523438 310.652344 L 88.863281 310.585938 L 86.101562 310.507812 L 83.335938 310.417969 L 80.882812 310.316406 L 79.246094 310.238281 L 77.609375 310.148438 L 75.871094 310.039062 L 74.234375 309.910156 L 73.003906 309.796875 L 71.878906 309.667969 L 71.0625 309.542969 L 70.242188 309.378906 L 69.832031 309.242188 L 69.628906 309.128906 Z M 69.628906 308.550781 "/>
<path style=" stroke:none;fill-rule:nonzero;fill:rgb(83.921569%,15.686275%,22.352941%);fill-opacity:1;" d="M 69.628906 263.09375 L 153.515625 263.09375 L 153.515625 265.398438 L 118.554688 265.417969 L 118.554688 284.644531 L 104.488281 284.644531 L 104.488281 265.441406 L 104.285156 265.398438 L 69.628906 265.398438 Z M 69.628906 263.09375 "/>
<path style=" stroke:none;fill-rule:nonzero;fill:rgb(6.27451%,58.823529%,28.235294%);fill-opacity:1;" d="M 157.933594 309.332031 L 158.023438 309.300781 L 194.320312 275.507812 L 205.34375 275.507812 L 241.820312 309.367188 L 229.003906 309.367188 L 219.863281 300.527344 L 179.800781 300.527344 L 170.839844 309.332031 L 157.933594 309.332031 L 183.65625 296.871094 L 216.1875 296.839844 L 199.964844 281.039062 L 199.785156 281.007812 L 199.609375 281.101562 L 183.566406 296.839844 L 183.65625 296.871094 Z M 157.933594 309.332031 "/>
<path style=" stroke:none;fill-rule:nonzero;fill:rgb(14.509804%,36.078431%,60%);fill-opacity:1;" d="M 157.933594 312.210938 L 158.035156 312.207031 L 158.035156 312.121094 L 158.34375 311.988281 L 159.058594 311.820312 L 159.773438 311.707031 L 161.617188 311.5 L 164.171875 311.300781 L 166.832031 311.144531 L 168.777344 311.054688 L 170.515625 310.984375 L 174.503906 310.855469 L 177.0625 310.789062 L 179.824219 310.730469 L 183.203125 310.671875 L 185.65625 310.636719 L 191.179688 310.578125 L 195.273438 310.554688 L 198.445312 310.546875 L 205.296875 310.546875 L 209.390625 310.558594 L 212.359375 310.578125 L 215.632812 310.605469 L 218.394531 310.636719 L 223.203125 310.710938 L 227.5 310.8125 L 229.441406 310.867188 L 232.511719 310.976562 L 234.863281 311.078125 L 236.5 311.171875 L 238.34375 311.300781 L 239.980469 311.457031 L 241.207031 311.636719 L 241.820312 311.785156 L 227.5 311.785156 L 226.78125 311.648438 L 225.964844 311.539062 L 224.429688 311.394531 L 222.894531 311.292969 L 220.746094 311.191406 L 218.800781 311.125 L 216.144531 311.058594 L 213.789062 311.015625 L 211.335938 310.984375 L 208.980469 310.964844 L 204.480469 310.945312 L 199.261719 310.945312 L 197.320312 310.949219 L 193.328125 310.980469 L 191.179688 311.003906 L 188.113281 311.050781 L 185.964844 311.097656 L 183.40625 311.167969 L 181.667969 311.226562 L 179.519531 311.316406 L 177.984375 311.398438 L 176.246094 311.511719 L 175.222656 311.601562 L 174.300781 311.699219 L 173.484375 311.8125 L 172.867188 311.9375 L 172.460938 312.066406 L 172.253906 312.191406 L 172.253906 312.734375 L 172.460938 312.859375 L 172.972656 313.007812 L 174.300781 313.21875 L 176.246094 313.40625 L 178.496094 313.550781 L 180.644531 313.65625 L 181.871094 313.707031 L 183.507812 313.761719 L 186.066406 313.832031 L 189.75 313.902344 L 191.898438 313.929688 L 195.171875 313.957031 L 198.546875 313.972656 L 203.046875 313.972656 L 207.039062 313.957031 L 209.699219 313.941406 L 212.460938 313.914062 L 216.246094 313.851562 L 218.597656 313.796875 L 220.644531 313.730469 L 222.179688 313.664062 L 223.203125 313.609375 L 224.734375 313.5 L 225.964844 313.382812 L 226.882812 313.257812 L 227.5 313.140625 L 241.820312 313.140625 L 241.207031 313.28125 L 240.285156 313.414062 L 239.367188 313.515625 L 237.933594 313.640625 L 236.296875 313.75 L 233.945312 313.871094 L 232 313.949219 L 229.441406 314.039062 L 227.089844 314.105469 L 224.53125 314.164062 L 220.746094 314.234375 L 218.292969 314.269531 L 215.632812 314.300781 L 212.460938 314.328125 L 208.46875 314.351562 L 204.171875 314.367188 L 200.183594 314.371094 L 195.886719 314.363281 L 192.714844 314.351562 L 188.519531 314.316406 L 183.304688 314.253906 L 179.519531 314.1875 L 176.550781 314.121094 L 173.992188 314.050781 L 171.128906 313.957031 L 167.445312 313.804688 L 165.195312 313.683594 L 163.660156 313.585938 L 161.921875 313.449219 L 160.695312 313.328125 L 159.261719 313.132812 L 158.238281 312.882812 L 157.933594 312.691406 Z M 157.933594 312.210938 "/>
<path style=" stroke:none;fill-rule:nonzero;fill:rgb(83.921569%,15.686275%,22.352941%);fill-opacity:1;" d="M 157.933594 165.390625 L 241.820312 165.390625 L 241.820312 177.054688 L 206.859375 177.15625 L 206.859375 274.328125 L 192.792969 274.328125 L 192.792969 177.257812 L 192.589844 177.054688 L 157.933594 177.054688 Z M 157.933594 165.390625 "/>
<path style=" stroke:none;fill-rule:nonzero;fill:rgb(6.27451%,58.823529%,28.235294%);fill-opacity:1;" d="M 246.234375 314.3125 L 246.324219 314.25 L 282.625 250.835938 L 293.648438 250.835938 L 330.125 314.371094 L 317.308594 314.371094 L 308.167969 297.785156 L 268.105469 297.785156 L 259.140625 314.3125 L 246.234375 314.3125 L 271.957031 290.925781 L 304.492188 290.867188 L 288.269531 261.214844 L 288.089844 261.15625 L 287.910156 261.335938 L 271.867188 290.867188 L 271.957031 290.925781 Z M 246.234375 314.3125 "/>
<path style=" stroke:none;fill-rule:nonzero;fill:rgb(83.921569%,15.686275%,22.352941%);fill-opacity:1;" d="M 246.234375 166.210938 L 330.125 166.210938 L 330.125 175.140625 L 295.160156 175.222656 L 295.160156 249.65625 L 281.097656 249.65625 L 281.097656 175.300781 L 280.890625 175.140625 L 246.234375 175.140625 Z M 246.234375 166.210938 "/>
<path style=" stroke:none;fill-rule:nonzero;fill:rgb(6.27451%,58.823529%,28.235294%);fill-opacity:1;" d="M 334.539062 314.09375 L 334.628906 313.820312 L 370.925781 20.664062 L 381.949219 20.664062 L 418.425781 314.371094 L 405.609375 314.371094 L 396.46875 237.703125 L 356.40625 237.703125 L 347.445312 314.09375 L 334.539062 314.09375 L 360.261719 205.988281 L 392.792969 205.710938 L 376.574219 68.648438 L 376.394531 68.375 L 376.214844 69.199219 L 360.171875 205.710938 L 360.261719 205.988281 Z M 334.539062 314.09375 "/>
<path style=" stroke:none;fill-rule:nonzero;fill:rgb(83.921569%,15.686275%,22.352941%);fill-opacity:1;" d="M 422.84375 20.664062 L 506.730469 20.664062 L 506.730469 52.101562 L 471.769531 52.378906 L 471.769531 314.371094 L 457.703125 314.371094 L 457.703125 52.652344 L 457.5 52.101562 L 422.84375 52.101562 Z M 422.84375 20.664062 "/>
<path style=" stroke:none;fill-rule:nonzero;fill:rgb(96.862745%,70.196078%,16.862745%);fill-opacity:1;" d="M 511.144531 293.5 L 511.246094 293.464844 L 511.246094 292.796875 L 511.65625 291.296875 L 512.679688 289.230469 L 514.011719 287.53125 L 515.441406 286.195312 L 516.363281 285.496094 L 517.898438 284.496094 L 519.226562 283.761719 L 522.605469 282.261719 L 526.898438 280.863281 L 529.253906 280.261719 L 531.914062 279.695312 L 535.699219 279.0625 L 537.4375 278.828125 L 542.757812 278.296875 L 548.792969 277.960938 L 555.441406 277.863281 L 558.511719 277.894531 L 562.707031 278.027344 L 568.433594 278.394531 L 571.707031 278.726562 L 574.265625 279.0625 L 576.925781 279.496094 L 580.199219 280.160156 L 583.269531 280.960938 L 585.722656 281.761719 L 588.179688 282.761719 L 590.226562 283.828125 L 591.964844 284.996094 L 593.5 286.398438 L 594.421875 287.5625 L 595.035156 288.730469 L 580.8125 288.730469 L 579.996094 287.5625 L 579.074219 286.664062 L 577.539062 285.5625 L 576.003906 284.761719 L 574.472656 284.128906 L 571.605469 283.261719 L 569.152344 282.730469 L 566.082031 282.261719 L 563.117188 281.960938 L 559.738281 281.761719 L 557.691406 281.695312 L 552.269531 281.695312 L 547.359375 281.929688 L 544.496094 282.195312 L 542.449219 282.460938 L 539.585938 282.960938 L 537.847656 283.363281 L 536.824219 283.628906 L 533.753906 284.664062 L 531.707031 285.597656 L 530.582031 286.230469 L 529.152344 287.230469 L 528.128906 288.128906 L 527.003906 289.464844 L 526.390625 290.464844 L 525.570312 292.730469 L 525.46875 298.734375 L 525.773438 300 L 526.390625 301.367188 L 527.207031 302.566406 L 528.433594 303.835938 L 529.664062 304.800781 L 531.8125 306.101562 L 533.652344 306.96875 L 535.085938 307.535156 L 537.847656 308.4375 L 538.972656 308.734375 L 541.632812 309.335938 L 544.394531 309.804688 L 547.769531 310.203125 L 550.328125 310.402344 L 554.417969 310.570312 L 559.636719 310.570312 L 565.773438 310.371094 L 569.664062 310.101562 L 572.324219 309.835938 L 574.0625 309.601562 L 576.210938 309.234375 L 577.746094 308.902344 L 579.175781 308.535156 L 580.914062 307.96875 L 580.914062 300 L 555.648438 299.96875 L 555.648438 296.234375 L 594.929688 296.199219 L 595.035156 309.234375 L 592.886719 310.136719 L 590.226562 311.003906 L 587.667969 311.671875 L 585.007812 312.238281 L 581.222656 312.871094 L 578.152344 313.269531 L 573.449219 313.738281 L 569.152344 314.039062 L 564.648438 314.238281 L 560.660156 314.335938 L 555.953125 314.371094 L 551.761719 314.304688 L 547.257812 314.105469 L 543.679688 313.835938 L 540.402344 313.503906 L 537.128906 313.070312 L 533.039062 312.371094 L 530.378906 311.804688 L 527.617188 311.101562 L 524.855469 310.269531 L 522.398438 309.371094 L 520.761719 308.667969 L 519.125 307.867188 L 517.386719 306.867188 L 515.75 305.734375 L 514.523438 304.703125 L 513.394531 303.535156 L 512.578125 302.433594 L 511.757812 300.933594 L 511.351562 299.734375 L 511.144531 298.699219 Z M 511.144531 293.5 "/>
<path style=" stroke:none;fill-rule:nonzero;fill:rgb(83.921569%,15.686275%,22.352941%);fill-opacity:1;" d="M 511.144531 127.105469 L 595.035156 127.105469 L 595.035156 143.117188 L 560.070312 143.257812 L 560.070312 276.683594 L 546.003906 276.683594 L 546.003906 143.398438 L 545.800781 143.117188 L 511.144531 143.117188 Z M 511.144531 127.105469 "/>
<path style=" stroke:none;fill-rule:nonzero;fill:rgb(6.27451%,58.823529%,28.235294%);fill-opacity:1;" d="M 599.449219 314.300781 L 599.539062 314.234375 L 635.835938 241.828125 L 646.859375 241.828125 L 683.335938 314.371094 L 670.519531 314.371094 L 661.378906 295.433594 L 621.316406 295.433594 L 612.355469 314.300781 L 599.449219 314.300781 L 625.171875 287.601562 L 657.703125 287.535156 L 641.484375 253.679688 L 641.304688 253.613281 L 641.125 253.816406 L 625.082031 287.535156 L 625.171875 287.601562 Z M 599.449219 314.300781 "/>
<path style=" stroke:none;fill-rule:nonzero;fill:rgb(96.862745%,70.196078%,16.862745%);fill-opacity:1;" d="M 599.449219 199.175781 L 599.550781 199.109375 L 599.550781 197.785156 L 599.960938 194.804688 L 600.984375 190.699219 L 602.3125 187.320312 L 603.746094 184.667969 L 604.667969 183.277344 L 606.199219 181.289062 L 607.53125 179.832031 L 610.90625 176.851562 L 615.203125 174.070312 L 617.554688 172.875 L 620.214844 171.75 L 624 170.492188 L 625.742188 170.027344 L 631.058594 168.96875 L 637.097656 168.304688 L 643.746094 168.105469 L 646.816406 168.171875 L 651.007812 168.4375 L 656.738281 169.167969 L 660.011719 169.828125 L 662.570312 170.492188 L 665.230469 171.351562 L 668.503906 172.679688 L 671.570312 174.269531 L 674.027344 175.859375 L 676.484375 177.84375 L 678.527344 179.964844 L 680.269531 182.285156 L 681.800781 185.066406 L 682.722656 187.386719 L 683.335938 189.703125 L 669.117188 189.703125 L 668.296875 187.386719 L 667.378906 185.597656 L 665.84375 183.410156 L 664.308594 181.820312 L 662.773438 180.5625 L 659.910156 178.839844 L 657.453125 177.777344 L 654.386719 176.851562 L 651.417969 176.253906 L 648.042969 175.859375 L 645.996094 175.726562 L 640.574219 175.726562 L 635.664062 176.1875 L 632.800781 176.71875 L 630.753906 177.25 L 627.890625 178.242188 L 626.148438 179.039062 L 625.125 179.566406 L 622.058594 181.621094 L 620.011719 183.476562 L 618.886719 184.734375 L 617.453125 186.722656 L 616.429688 188.511719 L 615.304688 191.160156 L 614.691406 193.148438 L 613.875 197.652344 L 613.769531 209.578125 L 614.078125 212.09375 L 614.691406 214.8125 L 615.511719 217.195312 L 616.738281 219.714844 L 617.964844 221.636719 L 620.113281 224.21875 L 621.957031 225.941406 L 623.386719 227.066406 L 626.148438 228.855469 L 627.273438 229.453125 L 629.933594 230.644531 L 632.695312 231.574219 L 636.074219 232.367188 L 638.628906 232.765625 L 642.722656 233.097656 L 647.941406 233.097656 L 654.078125 232.699219 L 657.964844 232.167969 L 660.625 231.640625 L 662.363281 231.175781 L 664.511719 230.445312 L 666.046875 229.785156 L 667.480469 229.054688 L 669.21875 227.929688 L 669.21875 212.09375 L 643.949219 212.03125 L 643.949219 204.609375 L 683.234375 204.542969 L 683.335938 230.445312 L 681.1875 232.234375 L 678.527344 233.957031 L 675.972656 235.28125 L 673.3125 236.410156 L 669.527344 237.667969 L 666.457031 238.460938 L 661.75 239.390625 L 657.453125 239.988281 L 652.953125 240.382812 L 648.964844 240.582031 L 644.257812 240.648438 L 640.0625 240.515625 L 635.5625 240.117188 L 631.980469 239.589844 L 628.707031 238.925781 L 625.433594 238.066406 L 621.339844 236.675781 L 618.683594 235.546875 L 615.917969 234.15625 L 613.15625 232.5 L 610.703125 230.710938 L 609.066406 229.320312 L 607.429688 227.730469 L 605.6875 225.742188 L 604.050781 223.492188 L 602.824219 221.4375 L 601.699219 219.117188 L 600.882812 216.933594 L 600.0625 213.949219 L 599.652344 211.566406 L 599.449219 209.511719 Z M 599.449219 199.175781 "/>
<g style="fill:rgb(0%,0%,0%);fill-opacity:1;">
  <use xlink:href="#glyph0-1" x="21.957031" y="318.198242"/>
  <use xlink:href="#glyph0-2" x="27.291016" y="318.198242"/>
  <use xlink:href="#glyph0-1" x="29.958008" y="318.198242"/>
</g>
<g style="fill:rgb(0%,0%,0%);fill-opacity:1;">
  <use xlink:href="#glyph0-1" x="21.957031" y="244.475586"/>
  <use xlink:href="#glyph0-2" x="27.291016" y="244.475586"/>
  <use xlink:href="#glyph0-3" x="29.958008" y="244.475586"/>
</g>
<g style="fill:rgb(0%,0%,0%);fill-opacity:1;">
  <use xlink:href="#glyph0-4" x="21.957031" y="170.75293"/>
  <use xlink:href="#glyph0-2" x="27.291016" y="170.75293"/>
  <use xlink:href="#glyph0-1" x="29.958008" y="170.75293"/>
</g>
<g style="fill:rgb(0%,0%,0%);fill-opacity:1;">
  <use xlink:href="#glyph0-4" x="21.957031" y="97.03418"/>
  <use xlink:href="#glyph0-2" x="27.291016" y="97.03418"/>
  <use xlink:href="#glyph0-3" x="29.958008" y="97.03418"/>
</g>
<g style="fill:rgb(0%,0%,0%);fill-opacity:1;">
  <use xlink:href="#glyph0-5" x="21.957031" y="23.311523"/>
  <use xlink:href="#glyph0-2" x="27.291016" y="23.311523"/>
  <use xlink:href="#glyph0-1" x="29.958008" y="23.311523"/>
</g>
<g style="fill:rgb(0%,0%,0%);fill-opacity:1;">
  <use xlink:href="#glyph0-4" x="108.574219" y="338.19043"/>
</g>
<g style="fill:rgb(0%,0%,0%);fill-opacity:1;">
  <use xlink:href="#glyph0-5" x="196.875" y="338.19043"/>
</g>
<g style="fill:rgb(0%,0%,0%);fill-opacity:1;">
  <use xlink:href="#glyph0-6" x="285.179688" y="338.19043"/>
</g>
<g style="fill:rgb(0%,0%,0%);fill-opacity:1;">
  <use xlink:href="#glyph0-7" x="373.484375" y="338.19043"/>
</g>
<g style="fill:rgb(0%,0%,0%);fill-opacity:1;">
  <use xlink:href="#glyph0-3" x="461.785156" y="338.19043"/>
</g>
<g style="fill:rgb(0%,0%,0%);fill-opacity:1;">
  <use xlink:href="#glyph0-8" x="550.089844" y="338.19043"/>
</g>
<g style="fill:rgb(0%,0%,0%);fill-opacity:1;">
  <use xlink:href="#glyph0-9" x="638.394531" y="338.19043"/>
</g>
<g style="fill:rgb(0%,0%,0%);fill-opacity:1;">
  <use xlink:href="#glyph1-1" x="14.412109" y="178.015625"/>
  <use xlink:href="#glyph1-2" x="14.412109" y="170.011719"/>
  <use xlink:href="#glyph1-3" x="14.412109" y="167.347656"/>
  <use xlink:href="#glyph1-4" x="14.412109" y="164.011719"/>
</g>
</g>
</svg>
