<?xml version="1.0" encoding="UTF-8"?>
<svg xmlns="http://www.w3.org/2000/svg" xmlns:xlink="http://www.w3.org/1999/xlink" width="720pt" height="360pt" viewBox="0 0 720 360" version="1.1">
<defs>
<g>
<symbol overflow="visible" id="glyph0-0">
<path style="stroke:none;" d=""/>
</symbol>
<symbol overflow="visible" id="glyph0-1">
<path style="stroke:none;" d="M 2.640625 -6.796875 C 2 -6.796875 1.421875 -6.53125 1.078125 -6.046875 C 0.640625 -5.453125 0.40625 -4.546875 0.40625 -3.296875 C 0.40625 -1 1.1875 0.21875 2.640625 0.21875 C 4.078125 0.21875 4.859375 -1 4.859375 -3.234375 C 4.859375 -4.5625 4.65625 -5.4375 4.203125 -6.046875 C 3.84375 -6.53125 3.28125 -6.796875 2.640625 -6.796875 Z M 2.640625 -6.046875 C 3.546875 -6.046875 4 -5.125 4 -3.3125 C 4 -1.375 3.5625 -0.484375 2.625 -0.484375 C 1.734375 -0.484375 1.28125 -1.421875 1.28125 -3.28125 C 1.28125 -5.140625 1.734375 -6.046875 2.640625 -6.046875 Z M 2.640625 -6.046875 "/>
</symbol>
<symbol overflow="visible" id="glyph0-2">
<path style="stroke:none;" d="M 1.828125 -1 L 0.828125 -1 L 0.828125 0 L 1.828125 0 Z M 1.828125 -1 "/>
</symbol>
<symbol overflow="visible" id="glyph0-3">
<path style="stroke:none;" d="M 4.5625 -6.796875 L 1.0625 -6.796875 L 0.546875 -3.09375 L 1.328125 -3.09375 C 1.71875 -3.5625 2.046875 -3.734375 2.578125 -3.734375 C 3.484375 -3.734375 4.0625 -3.109375 4.0625 -2.09375 C 4.0625 -1.125 3.484375 -0.53125 2.578125 -0.53125 C 1.828125 -0.53125 1.375 -0.90625 1.1875 -1.671875 L 0.328125 -1.671875 C 0.453125 -1.109375 0.546875 -0.84375 0.75 -0.59375 C 1.125 -0.078125 1.828125 0.21875 2.59375 0.21875 C 3.96875 0.21875 4.921875 -0.78125 4.921875 -2.21875 C 4.921875 -3.5625 4.03125 -4.484375 2.71875 -4.484375 C 2.25 -4.484375 1.859375 -4.359375 1.46875 -4.0625 L 1.734375 -5.96875 L 4.5625 -5.96875 Z M 4.5625 -6.796875 "/>
</symbol>
<symbol overflow="visible" id="glyph0-4">
<path style="stroke:none;" d="M 2.484375 -4.84375 L 2.484375 0 L 3.328125 0 L 3.328125 -6.796875 L 2.765625 -6.796875 C 2.46875 -5.75 2.28125 -5.609375 0.984375 -5.453125 L 0.984375 -4.84375 Z M 2.484375 -4.84375 "/>
</symbol>
<symbol overflow="visible" id="glyph0-5">
<path style="stroke:none;" d="M 4.859375 -0.828125 L 1.28125 -0.828125 C 1.359375 -1.390625 1.671875 -1.75 2.5 -2.234375 L 3.46875 -2.75 C 4.40625 -3.265625 4.90625 -3.96875 4.90625 -4.8125 C 4.90625 -5.375 4.671875 -5.90625 4.265625 -6.265625 C 3.859375 -6.625 3.375 -6.796875 2.71875 -6.796875 C 1.859375 -6.796875 1.21875 -6.5 0.84375 -5.921875 C 0.609375 -5.5625 0.5 -5.125 0.484375 -4.4375 L 1.328125 -4.4375 C 1.359375 -4.90625 1.40625 -5.1875 1.53125 -5.40625 C 1.75 -5.8125 2.1875 -6.0625 2.703125 -6.0625 C 3.46875 -6.0625 4.03125 -5.515625 4.03125 -4.78125 C 4.03125 -4.25 3.71875 -3.796875 3.125 -3.4375 L 2.234375 -2.9375 C 0.8125 -2.140625 0.40625 -1.5 0.328125 0 L 4.859375 0 Z M 4.859375 -0.828125 "/>
</symbol>
<symbol overflow="visible" id="glyph0-6">
<path style="stroke:none;" d="M 2.125 -3.125 L 2.578125 -3.125 C 3.515625 -3.125 3.984375 -2.703125 3.984375 -1.890625 C 3.984375 -1.03125 3.46875 -0.53125 2.578125 -0.53125 C 1.65625 -0.53125 1.203125 -0.984375 1.15625 -1.96875 L 0.3125 -1.96875 C 0.34375 -1.421875 0.4375 -1.078125 0.609375 -0.765625 C 0.953125 -0.109375 1.625 0.21875 2.546875 0.21875 C 3.953125 0.21875 4.859375 -0.609375 4.859375 -1.90625 C 4.859375 -2.765625 4.515625 -3.25 3.703125 -3.515625 C 4.34375 -3.765625 4.65625 -4.25 4.65625 -4.9375 C 4.65625 -6.109375 3.875 -6.796875 2.578125 -6.796875 C 1.203125 -6.796875 0.484375 -6.046875 0.453125 -4.609375 L 1.296875 -4.609375 C 1.3125 -5.015625 1.34375 -5.25 1.453125 -5.453125 C 1.640625 -5.828125 2.0625 -6.0625 2.59375 -6.0625 C 3.34375 -6.0625 3.796875 -5.625 3.796875 -4.90625 C 3.796875 -4.421875 3.609375 -4.140625 3.25 -3.984375 C 3.015625 -3.890625 2.71875 -3.84375 2.125 -3.84375 Z M 2.125 -3.125 "/>
</symbol>
<symbol overflow="visible" id="glyph0-7">
<path style="stroke:none;" d="M 3.140625 -1.625 L 3.140625 0 L 3.984375 0 L 3.984375 -1.625 L 4.984375 -1.625 L 4.984375 -2.390625 L 3.984375 -2.390625 L 3.984375 -6.796875 L 3.359375 -6.796875 L 0.265625 -2.515625 L 0.265625 -1.625 Z M 3.140625 -2.390625 L 1 -2.390625 L 3.140625 -5.359375 Z M 3.140625 -2.390625 "/>
</symbol>
<symbol overflow="visible" id="glyph0-8">
<path style="stroke:none;" d="M 4.78125 -5.03125 C 4.609375 -6.140625 3.890625 -6.796875 2.84375 -6.796875 C 2.09375 -6.796875 1.421875 -6.4375 1.03125 -5.828125 C 0.609375 -5.171875 0.40625 -4.34375 0.40625 -3.09375 C 0.40625 -1.953125 0.578125 -1.234375 0.984375 -0.625 C 1.359375 -0.078125 1.953125 0.21875 2.703125 0.21875 C 3.984375 0.21875 4.921875 -0.734375 4.921875 -2.078125 C 4.921875 -3.34375 4.0625 -4.234375 2.84375 -4.234375 C 2.171875 -4.234375 1.640625 -3.96875 1.28125 -3.46875 C 1.28125 -5.125 1.828125 -6.046875 2.796875 -6.046875 C 3.390625 -6.046875 3.796875 -5.671875 3.9375 -5.03125 Z M 2.734375 -3.484375 C 3.546875 -3.484375 4.0625 -2.921875 4.0625 -2 C 4.0625 -1.15625 3.484375 -0.53125 2.703125 -0.53125 C 1.921875 -0.53125 1.328125 -1.1875 1.328125 -2.046875 C 1.328125 -2.890625 1.90625 -3.484375 2.734375 -3.484375 Z M 2.734375 -3.484375 "/>
</symbol>
<symbol overflow="visible" id="glyph0-9">
<path style="stroke:none;" d="M 4.984375 -6.796875 L 0.4375 -6.796875 L 0.4375 -5.96875 L 4.109375 -5.96875 C 2.5 -3.65625 1.828125 -2.234375 1.328125 0 L 2.21875 0 C 2.59375 -2.171875 3.453125 -4.046875 4.984375 -6.09375 Z M 4.984375 -6.796875 "/>
</symbol>
<symbol overflow="visible" id="glyph1-0">
<path style="stroke:none;" d=""/>
</symbol>
<symbol overflow="visible" id="glyph1-1">
<path style="stroke:none;" d="M 0 -0.953125 L 0 -4.890625 C 0 -5.71875 -0.234375 -6.34375 -0.734375 -6.796875 C -1.1875 -7.234375 -1.8125 -7.46875 -2.5 -7.46875 C -3.546875 -7.46875 -4.1875 -7 -4.625 -5.875 C -4.984375 -6.671875 -5.640625 -7.09375 -6.53125 -7.09375 C -7.15625 -7.09375 -7.734375 -6.859375 -8.140625 -6.390625 C -8.5625 -5.9375 -8.75 -5.34375 -8.75 -4.5 L -8.75 -0.953125 Z M -4.984375 -2.0625 L -7.765625 -2.0625 L -7.765625 -4.21875 C -7.765625 -4.84375 -7.6875 -5.203125 -7.453125 -5.5 C -7.21875 -5.8125 -6.859375 -5.96875 -6.375 -5.96875 C -5.90625 -5.96875 -5.53125 -5.8125 -5.296875 -5.5 C -5.0625 -5.203125 -4.984375 -4.84375 -4.984375 -4.21875 Z M -0.984375 -2.0625 L -4 -2.0625 L -4 -4.78125 C -4 -5.328125 -3.859375 -5.6875 -3.578125 -5.953125 C -3.296875 -6.21875 -2.921875 -6.359375 -2.484375 -6.359375 C -2.0625 -6.359375 -1.6875 -6.21875 -1.40625 -5.953125 C -1.109375 -5.6875 -0.984375 -5.328125 -0.984375 -4.78125 Z M -0.984375 -2.0625 "/>
</symbol>
<symbol overflow="visible" id="glyph1-2">
<path style="stroke:none;" d="M -6.28125 -1.796875 L -6.28125 -0.796875 L 0 -0.796875 L 0 -1.796875 Z M -8.75 -1.796875 L -8.75 -0.796875 L -7.484375 -0.796875 L -7.484375 -1.796875 Z M -8.75 -1.796875 "/>
</symbol>
<symbol overflow="visible" id="glyph1-3">
<path style="stroke:none;" d="M -6.28125 -3.046875 L -6.28125 -2.015625 L -8.015625 -2.015625 L -8.015625 -1.015625 L -6.28125 -1.015625 L -6.28125 -0.171875 L -5.46875 -0.171875 L -5.46875 -1.015625 L -0.71875 -1.015625 C -0.078125 -1.015625 0.28125 -1.453125 0.28125 -2.234375 C 0.28125 -2.46875 0.25 -2.71875 0.1875 -3.046875 L -0.640625 -3.046875 C -0.609375 -2.921875 -0.59375 -2.765625 -0.59375 -2.5625 C -0.59375 -2.140625 -0.71875 -2.015625 -1.15625 -2.015625 L -5.46875 -2.015625 L -5.46875 -3.046875 Z M -6.28125 -3.046875 "/>
</symbol>
<symbol overflow="visible" id="glyph1-4">
<path style="stroke:none;" d="M -4.53125 -5.25 C -5.765625 -5.25 -6.46875 -4.421875 -6.46875 -2.96875 C -6.46875 -1.515625 -5.71875 -0.5625 -4.546875 -0.5625 C -3.5625 -0.5625 -3.09375 -1.0625 -2.734375 -2.5625 L -2.515625 -3.484375 C -2.34375 -4.1875 -2.09375 -4.46875 -1.625 -4.46875 C -1.046875 -4.46875 -0.640625 -3.875 -0.640625 -3 C -0.640625 -2.453125 -0.796875 -2 -1.0625 -1.75 C -1.25 -1.59375 -1.421875 -1.53125 -1.875 -1.46875 L -1.875 -0.40625 C -0.421875 -0.453125 0.28125 -1.265625 0.28125 -2.921875 C 0.28125 -4.5 -0.5 -5.515625 -1.71875 -5.515625 C -2.65625 -5.515625 -3.171875 -4.984375 -3.46875 -3.734375 L -3.703125 -2.765625 C -3.890625 -1.953125 -4.15625 -1.609375 -4.59375 -1.609375 C -5.171875 -1.609375 -5.546875 -2.125 -5.546875 -2.9375 C -5.546875 -3.75 -5.203125 -4.171875 -4.53125 -4.203125 Z M -4.53125 -5.25 "/>
</symbol>
</g>
</defs>
<g id="surface9940">
<rect x="0" y="0" width="720" height="360" style="fill:rgb(100%,100%,100%);fill-opacity:1;stroke:none;"/>
<path style=" stroke:none;fill-rule:nonzero;fill:rgb(83.921569%,15.686275%,22.352941%);fill-opacity:1;" d="M 69.628906 20.664062 L 153.515625 20.664062 L 153.515625 52.101562 L 118.554688 52.378906 L 118.554688 314.371094 L 104.488281 314.371094 L 104.488281 52.652344 L 104.285156 52.101562 L 69.628906 52.101562 Z M 69.628906 20.664062 "/>
<path style=" stroke:none;fill-rule:nonzero;fill:rgb(6.27451%,58.823529%,28.235294%);fill-opacity:1;" d="M 157.933594 314.09375 L 158.023438 313.820312 L 194.320312 20.664062 L 205.34375 20.664062 L 241.820312 314.371094 L 229.003906 314.371094 L 219.863281 237.703125 L 179.800781 237.703125 L 170.839844 314.09375 L 157.933594 314.09375 L 183.65625 205.988281 L 216.1875 205.710938 L 199.964844 68.648438 L 199.785156 68.375 L 199.609375 69.199219 L 183.566406 205.710938 L 183.65625 205.988281 Z M 157.933594 314.09375 "/>
<path style=" stroke:none;fill-rule:nonzero;fill:rgb(6.27451%,58.823529%,28.235294%);fill-opacity:1;" d="M 246.234375 314.09375 L 246.324219 313.820312 L 282.625 20.664062 L 293.648438 20.664062 L 330.125 314.371094 L 317.308594 314.371094 L 308.167969 237.703125 L 268.105469 237.703125 L 259.140625 314.09375 L 246.234375 314.09375 L 271.957031 205.988281 L 304.492188 205.710938 L 288.269531 68.648438 L 288.089844 68.375 L 287.910156 69.199219 L 271.867188 205.710938 L 271.957031 205.988281 Z M 246.234375 314.09375 "/>
<path style=" stroke:none;fill-rule:nonzero;fill:rgb(83.921569%,15.686275%,22.352941%);fill-opacity:1;" d="M 334.539062 20.664062 L 418.425781 20.664062 L 418.425781 52.101562 L 383.464844 52.378906 L 383.464844 314.371094 L 369.398438 314.371094 L 369.398438 52.652344 L 369.195312 52.101562 L 334.539062 52.101562 Z M 334.539062 20.664062 "/>
<path style=" stroke:none;fill-rule:nonzero;fill:rgb(83.921569%,15.686275%,22.352941%);fill-opacity:1;" d="M 422.84375 20.664062 L 506.730469 20.664062 L 506.730469 52.101562 L 471.769531 52.378906 L 471.769531 314.371094 L 457.703125 314.371094 L 457.703125 52.652344 L 457.5 52.101562 L 422.84375 52.101562 Z M 422.84375 20.664062 "/>
<path style=" stroke:none;fill-rule:nonzero;fill:rgb(6.27451%,58.823529%,28.235294%);fill-opacity:1;" d="M 511.144531 314.332031 L 511.234375 314.292969 L 547.53125 273.136719 L 558.558594 273.136719 L 595.035156 314.371094 L 582.21875 314.371094 L 573.074219 303.609375 L 533.015625 303.609375 L 524.050781 314.332031 L 511.144531 314.332031 L 536.867188 299.15625 L 569.402344 299.117188 L 553.179688 279.875 L 553 279.835938 L 552.820312 279.953125 L 536.777344 299.117188 L 536.867188 299.15625 Z M 511.144531 314.332031 "/>
<path style=" stroke:none;fill-rule:nonzero;fill:rgb(96.862745%,70.196078%,16.862745%);fill-opacity:1;" d="M 511.144531 195.042969 L 511.246094 194.917969 L 511.246094 192.460938 L 511.65625 186.933594 L 512.679688 179.316406 L 514.011719 173.050781 L 515.441406 168.132812 L 516.363281 165.554688 L 517.898438 161.867188 L 519.226562 159.164062 L 522.605469 153.636719 L 526.898438 148.476562 L 529.253906 146.265625 L 531.914062 144.175781 L 535.699219 141.839844 L 537.4375 140.980469 L 542.757812 139.015625 L 548.792969 137.785156 L 555.441406 137.417969 L 558.511719 137.539062 L 562.707031 138.03125 L 568.433594 139.382812 L 571.707031 140.613281 L 574.265625 141.839844 L 576.925781 143.4375 L 580.199219 145.894531 L 583.269531 148.84375 L 585.722656 151.792969 L 588.179688 155.480469 L 590.226562 159.410156 L 591.964844 163.710938 L 593.5 168.871094 L 594.421875 173.171875 L 595.035156 177.472656 L 580.8125 177.472656 L 579.996094 173.171875 L 579.074219 169.855469 L 577.539062 165.800781 L 576.003906 162.851562 L 574.472656 160.515625 L 571.605469 157.320312 L 569.152344 155.355469 L 566.082031 153.636719 L 563.117188 152.53125 L 559.738281 151.792969 L 557.691406 151.546875 L 552.269531 151.546875 L 547.359375 152.40625 L 544.496094 153.390625 L 542.449219 154.375 L 539.585938 156.214844 L 537.847656 157.691406 L 536.824219 158.671875 L 533.753906 162.484375 L 531.707031 165.921875 L 530.582031 168.257812 L 529.152344 171.945312 L 528.128906 175.261719 L 527.003906 180.175781 L 526.390625 183.863281 L 525.570312 192.214844 L 525.46875 214.332031 L 525.773438 219 L 526.390625 224.039062 L 527.207031 228.460938 L 528.433594 233.132812 L 529.664062 236.695312 L 531.8125 241.488281 L 533.652344 244.679688 L 535.085938 246.769531 L 537.847656 250.085938 L 538.972656 251.195312 L 541.632812 253.40625 L 544.394531 255.125 L 547.769531 256.597656 L 550.328125 257.335938 L 554.417969 257.949219 L 559.636719 257.949219 L 565.773438 257.214844 L 569.664062 256.230469 L 572.324219 255.246094 L 574.0625 254.386719 L 576.210938 253.035156 L 577.746094 251.808594 L 579.175781 250.457031 L 580.914062 248.367188 L 580.914062 219 L 555.648438 218.878906 L 555.648438 205.117188 L 594.929688 204.996094 L 595.035156 253.035156 L 592.886719 256.355469 L 590.226562 259.546875 L 587.667969 262.003906 L 585.007812 264.09375 L 581.222656 266.429688 L 578.152344 267.902344 L 573.449219 269.625 L 569.152344 270.730469 L 564.648438 271.464844 L 560.660156 271.835938 L 555.953125 271.957031 L 551.761719 271.710938 L 547.257812 270.976562 L 543.679688 269.992188 L 540.402344 268.761719 L 537.128906 267.167969 L 533.039062 264.585938 L 530.378906 262.496094 L 527.617188 259.917969 L 524.855469 256.84375 L 522.398438 253.527344 L 520.761719 250.949219 L 519.125 248 L 517.386719 244.3125 L 515.75 240.136719 L 514.523438 236.328125 L 513.394531 232.027344 L 512.578125 227.972656 L 511.757812 222.441406 L 511.351562 218.019531 L 511.144531 214.210938 Z M 511.144531 195.042969 "/>
<path style=" stroke:none;fill-rule:nonzero;fill:rgb(6.27451%,58.823529%,28.235294%);fill-opacity:1;" d="M 599.449219 314.367188 L 599.539062 314.363281 L 635.835938 311.078125 L 646.859375 311.078125 L 683.335938 314.371094 L 670.519531 314.371094 L 661.378906 313.511719 L 621.316406 313.511719 L 612.355469 314.367188 L 599.449219 314.367188 L 625.171875 313.15625 L 657.703125 313.152344 L 641.484375 311.617188 L 641.304688 311.613281 L 641.125 311.621094 L 625.082031 313.152344 L 625.171875 313.15625 Z M 599.449219 314.367188 "/>
<path style=" stroke:none;fill-rule:nonzero;fill:rgb(14.509804%,36.078431%,60%);fill-opacity:1;" d="M 599.449219 290.933594 L 599.550781 290.910156 L 599.550781 290.347656 L 599.859375 289.457031 L 600.574219 288.332031 L 601.289062 287.554688 L 603.132812 286.171875 L 605.6875 284.835938 L 608.347656 283.804688 L 610.292969 283.195312 L 612.03125 282.726562 L 616.023438 281.859375 L 618.578125 281.414062 L 621.339844 281.015625 L 624.71875 280.617188 L 627.171875 280.378906 L 632.695312 280.003906 L 636.789062 279.839844 L 639.960938 279.769531 L 646.816406 279.769531 L 650.90625 279.863281 L 653.875 279.980469 L 657.148438 280.167969 L 659.910156 280.378906 L 664.71875 280.898438 L 669.015625 281.554688 L 670.957031 281.929688 L 674.027344 282.65625 L 676.378906 283.359375 L 678.015625 283.96875 L 679.859375 284.835938 L 681.496094 285.890625 L 682.722656 287.085938 L 683.335938 288.097656 L 669.015625 288.097656 L 668.296875 287.15625 L 667.480469 286.429688 L 665.945312 285.46875 L 664.410156 284.789062 L 662.261719 284.109375 L 660.320312 283.664062 L 657.660156 283.21875 L 655.304688 282.9375 L 652.851562 282.726562 L 650.496094 282.585938 L 645.996094 282.445312 L 640.777344 282.445312 L 638.835938 282.492188 L 634.84375 282.679688 L 632.695312 282.84375 L 629.628906 283.171875 L 627.480469 283.476562 L 624.921875 283.945312 L 623.183594 284.34375 L 621.035156 284.953125 L 619.5 285.492188 L 617.761719 286.265625 L 616.738281 286.851562 L 615.816406 287.507812 L 615 288.285156 L 614.386719 289.105469 L 613.976562 289.972656 L 613.769531 290.816406 L 613.769531 294.449219 L 613.976562 295.296875 L 614.488281 296.28125 L 615.816406 297.710938 L 617.761719 298.953125 L 620.011719 299.9375 L 622.160156 300.640625 L 623.386719 300.96875 L 625.023438 301.34375 L 627.582031 301.816406 L 631.265625 302.285156 L 633.414062 302.472656 L 636.6875 302.660156 L 640.0625 302.753906 L 644.5625 302.753906 L 648.554688 302.660156 L 651.214844 302.542969 L 653.976562 302.355469 L 657.761719 301.957031 L 660.113281 301.578125 L 662.160156 301.132812 L 663.695312 300.6875 L 664.71875 300.3125 L 666.253906 299.585938 L 667.480469 298.789062 L 668.402344 297.96875 L 669.015625 297.171875 L 683.335938 297.171875 L 682.722656 298.109375 L 681.800781 299.023438 L 680.882812 299.703125 L 679.449219 300.523438 L 677.8125 301.25 L 675.460938 302.074219 L 673.515625 302.613281 L 670.957031 303.199219 L 668.605469 303.644531 L 666.046875 304.042969 L 662.261719 304.511719 L 659.808594 304.746094 L 657.148438 304.957031 L 653.976562 305.144531 L 649.988281 305.308594 L 645.691406 305.402344 L 641.699219 305.425781 L 637.402344 305.378906 L 634.230469 305.285156 L 630.039062 305.074219 L 624.820312 304.652344 L 621.035156 304.207031 L 618.066406 303.761719 L 615.511719 303.292969 L 612.644531 302.660156 L 608.964844 301.625 L 606.710938 300.828125 L 605.179688 300.171875 L 603.4375 299.257812 L 602.210938 298.4375 L 600.777344 297.125 L 599.753906 295.460938 L 599.449219 294.167969 Z M 599.449219 290.933594 "/>
<path style=" stroke:none;fill-rule:nonzero;fill:rgb(96.862745%,70.196078%,16.862745%);fill-opacity:1;" d="M 599.449219 246.027344 L 599.550781 245.976562 L 599.550781 244.933594 L 599.960938 242.59375 L 600.984375 239.367188 L 602.3125 236.714844 L 603.746094 234.636719 L 604.667969 233.542969 L 606.199219 231.980469 L 607.53125 230.835938 L 610.90625 228.496094 L 615.203125 226.3125 L 617.554688 225.375 L 620.214844 224.492188 L 624 223.503906 L 625.742188 223.136719 L 631.058594 222.304688 L 637.097656 221.785156 L 643.746094 221.628906 L 646.816406 221.683594 L 651.007812 221.890625 L 656.738281 222.460938 L 660.011719 222.980469 L 662.570312 223.503906 L 665.230469 224.179688 L 668.503906 225.21875 L 671.570312 226.46875 L 674.027344 227.714844 L 676.484375 229.277344 L 678.527344 230.941406 L 680.269531 232.761719 L 681.800781 234.945312 L 682.722656 236.769531 L 683.335938 238.589844 L 669.117188 238.589844 L 668.296875 236.769531 L 667.378906 235.363281 L 665.84375 233.644531 L 664.308594 232.398438 L 662.773438 231.410156 L 659.910156 230.058594 L 657.453125 229.226562 L 654.386719 228.496094 L 651.417969 228.027344 L 648.042969 227.714844 L 645.996094 227.613281 L 640.574219 227.613281 L 635.664062 227.976562 L 632.800781 228.390625 L 630.753906 228.808594 L 627.890625 229.589844 L 626.148438 230.214844 L 625.125 230.628906 L 622.058594 232.242188 L 620.011719 233.699219 L 618.886719 234.6875 L 617.453125 236.246094 L 616.429688 237.652344 L 615.304688 239.734375 L 614.691406 241.292969 L 613.875 244.832031 L 613.769531 254.195312 L 614.078125 256.171875 L 614.691406 258.304688 L 615.511719 260.175781 L 616.738281 262.152344 L 617.964844 263.660156 L 620.113281 265.691406 L 621.957031 267.042969 L 623.386719 267.925781 L 626.148438 269.332031 L 627.273438 269.800781 L 629.933594 270.738281 L 632.695312 271.464844 L 636.074219 272.089844 L 638.628906 272.402344 L 642.722656 272.660156 L 647.941406 272.660156 L 654.078125 272.347656 L 657.964844 271.933594 L 660.625 271.515625 L 662.363281 271.152344 L 664.511719 270.582031 L 666.046875 270.058594 L 667.480469 269.488281 L 669.21875 268.605469 L 669.21875 256.171875 L 643.949219 256.117188 L 643.949219 250.292969 L 683.234375 250.242188 L 683.335938 270.582031 L 681.1875 271.984375 L 678.527344 273.335938 L 675.972656 274.378906 L 673.3125 275.261719 L 669.527344 276.25 L 666.457031 276.875 L 661.75 277.601562 L 657.453125 278.070312 L 652.953125 278.382812 L 648.964844 278.539062 L 644.257812 278.589844 L 640.0625 278.488281 L 635.5625 278.175781 L 631.980469 277.757812 L 628.707031 277.238281 L 625.433594 276.5625 L 621.339844 275.46875 L 618.683594 274.585938 L 615.917969 273.492188 L 613.15625 272.191406 L 610.703125 270.789062 L 609.066406 269.695312 L 607.429688 268.449219 L 605.6875 266.886719 L 604.050781 265.117188 L 602.824219 263.503906 L 601.699219 261.683594 L 600.882812 259.96875 L 600.0625 257.628906 L 599.652344 255.753906 L 599.449219 254.140625 Z M 599.449219 246.027344 "/>
<path style=" stroke:none;fill-rule:nonzero;fill:rgb(83.921569%,15.686275%,22.352941%);fill-opacity:1;" d="M 599.449219 306.605469 L 683.335938 306.605469 L 683.335938 306.957031 L 648.375 306.960938 L 648.375 309.898438 L 634.308594 309.898438 L 634.308594 306.964844 L 634.105469 306.957031 L 599.449219 306.957031 Z M 599.449219 306.605469 "/>
<g style="fill:rgb(0%,0%,0%);fill-opacity:1;">
  <use xlink:href="#glyph0-1" x="21.957031" y="318.198242"/>
  <use xlink:href="#glyph0-2" x="27.291016" y="318.198242"/>
  <use xlink:href="#glyph0-1" x="29.958008" y="318.198242"/>
</g>
<g style="fill:rgb(0%,0%,0%);fill-opacity:1;">
  <use xlink:href="#glyph0-1" x="21.957031" y="244.475586"/>
  <use xlink:href="#glyph0-2" x="27.291016" y="244.475586"/>
  <use xlink:href="#glyph0-3" x="29.958008" y="244.475586"/>
</g>
<g style="fill:rgb(0%,0%,0%);fill-opacity:1;">
  <use xlink:href="#glyph0-4" x="21.957031" y="170.75293"/>
  <use xlink:href="#glyph0-2" x="27.291016" y="170.75293"/>
  <use xlink:href="#glyph0-1" x="29.958008" y="170.75293"/>
</g>
<g style="fill:rgb(0%,0%,0%);fill-opacity:1;">
  <use xlink:href="#glyph0-4" x="21.957031" y="97.03418"/>
  <use xlink:href="#glyph0-2" x="27.291016" y="97.03418"/>
  <use xlink:href="#glyph0-3" x="29.958008" y="97.03418"/>
</g>
<g style="fill:rgb(0%,0%,0%);fill-opacity:1;">
  <use xlink:href="#glyph0-5" x="21.957031" y="23.311523"/>
  <use xlink:href="#glyph0-2" x="27.291016" y="23.311523"/>
  <use xlink:href="#glyph0-1" x="29.958008" y="23.311523"/>
</g>
<g style="fill:rgb(0%,0%,0%);fill-opacity:1;">
  <use xlink:href="#glyph0-4" x="108.574219" y="338.19043"/>
</g>
<g style="fill:rgb(0%,0%,0%);fill-opacity:1;">
  <use xlink:href="#glyph0-5" x="196.875" y="338.19043"/>
</g>
<g style="fill:rgb(0%,0%,0%);fill-opacity:1;">
  <use xlink:href="#glyph0-6" x="285.179688" y="338.19043"/>
</g>
<g style="fill:rgb(0%,0%,0%);fill-opacity:1;">
  <use xlink:href="#glyph0-7" x="373.484375" y="338.19043"/>
</g>
<g style="fill:rgb(0%,0%,0%);fill-opacity:1;">
  <use xlink:href="#glyph0-3" x="461.785156" y="338.19043"/>
</g>
<g style="fill:rgb(0%,0%,0%);fill-opacity:1;">
  <use xlink:href="#glyph0-8" x="550.089844" y="338.19043"/>
</g>
<g style="fill:rgb(0%,0%,0%);fill-opacity:1;">
  <use xlink:href="#glyph0-9" x="638.394531" y="338.19043"/>
</g>
<g style="fill:rgb(0%,0%,0%);fill-opacity:1;">
  <use xlink:href="#glyph1-1" x="14.412109" y="178.015625"/>
  <use xlink:href="#glyph1-2" x="14.412109" y="170.011719"/>
  <use xlink:href="#glyph1-3" x="14.412109" y="167.347656"/>
  <use xlink:href="#glyph1-4" x="14.412109" y="164.011719"/>
</g>
</g>
</svg>
