<?xml version="1.0" encoding="UTF-8"?>
<svg xmlns="http://www.w3.org/2000/svg" xmlns:xlink="http://www.w3.org/1999/xlink" width="720pt" height="360pt" viewBox="0 0 720 360" version="1.1">
<defs>
<g>
<symbol overflow="visible" id="glyph0-0">
<path style="stroke:none;" d=""/>
</symbol>
<symbol overflow="visible" id="glyph0-1">
<path style="stroke:none;" d="M 2.640625 -6.796875 C 2 -6.796875 1.421875 -6.53125 1.078125 -6.046875 C 0.640625 -5.453125 0.40625 -4.546875 0.40625 -3.296875 C 0.40625 -1 1.1875 0.21875 2.640625 0.21875 C 4.078125 0.21875 4.859375 -1 4.859375 -3.234375 C 4.859375 -4.5625 4.65625 -5.4375 4.203125 -6.046875 C 3.84375 -6.53125 3.28125 -6.796875 2.640625 -6.796875 Z M 2.640625 -6.046875 C 3.546875 -6.046875 4 -5.125 4 -3.3125 C 4 -1.375 3.5625 -0.484375 2.625 -0.484375 C 1.734375 -0.484375 1.28125 -1.421875 1.28125 -3.28125 C 1.28125 -5.140625 1.734375 -6.046875 2.640625 -6.046875 Z M 2.640625 -6.046875 "/>
</symbol>
<symbol overflow="visible" id="glyph0-2">
<path style="stroke:none;" d="M 1.828125 -1 L 0.828125 -1 L 0.828125 0 L 1.828125 0 Z M 1.828125 -1 "/>
</symbol>
<symbol overflow="visible" id="glyph0-3">
<path style="stroke:none;" d="M 4.5625 -6.796875 L 1.0625 -6.796875 L 0.546875 -3.09375 L 1.328125 -3.09375 C 1.71875 -3.5625 2.046875 -3.734375 2.578125 -3.734375 C 3.484375 -3.734375 4.0625 -3.109375 4.0625 -2.09375 C 4.0625 -1.125 3.484375 -0.53125 2.578125 -0.53125 C 1.828125 -0.53125 1.375 -0.90625 1.1875 -1.671875 L 0.328125 -1.671875 C 0.453125 -1.109375 0.546875 -0.84375 0.75 -0.59375 C 1.125 -0.078125 1.828125 0.21875 2.59375 0.21875 C 3.96875 0.21875 4.921875 -0.78125 4.921875 -2.21875 C 4.921875 -3.5625 4.03125 -4.484375 2.71875 -4.484375 C 2.25 -4.484375 1.859375 -4.359375 1.46875 -4.0625 L 1.734375 -5.96875 L 4.5625 -5.96875 Z M 4.5625 -6.796875 "/>
</symbol>
<symbol overflow="visible" id="glyph0-4">
<path style="stroke:none;" d="M 2.484375 -4.84375 L 2.484375 0 L 3.328125 0 L 3.328125 -6.796875 L 2.765625 -6.796875 C 2.46875 -5.75 2.28125 -5.609375 0.984375 -5.453125 L 0.984375 -4.84375 Z M 2.484375 -4.84375 "/>
</symbol>
<symbol overflow="visible" id="glyph0-5">
<path style="stroke:none;" d="M 4.859375 -0.828125 L 1.28125 -0.828125 C 1.359375 -1.390625 1.671875 -1.75 2.5 -2.234375 L 3.46875 -2.75 C 4.40625 -3.265625 4.90625 -3.96875 4.90625 -4.8125 C 4.90625 -5.375 4.671875 -5.90625 4.265625 -6.265625 C 3.859375 -6.625 3.375 -6.796875 2.71875 -6.796875 C 1.859375 -6.796875 1.21875 -6.5 0.84375 -5.921875 C 0.609375 -5.5625 0.5 -5.125 0.484375 -4.4375 L 1.328125 -4.4375 C 1.359375 -4.90625 1.40625 -5.1875 1.53125 -5.40625 C 1.75 -5.8125 2.1875 -6.0625 2.703125 -6.0625 C 3.46875 -6.0625 4.03125 -5.515625 4.03125 -4.78125 C 4.03125 -4.25 3.71875 -3.796875 3.125 -3.4375 L 2.234375 -2.9375 C 0.8125 -2.140625 0.40625 -1.5 0.328125 0 L 4.859375 0 Z M 4.859375 -0.828125 "/>
</symbol>
<symbol overflow="visible" id="glyph0-6">
<path style="stroke:none;" d="M 2.125 -3.125 L 2.578125 -3.125 C 3.515625 -3.125 3.984375 -2.703125 3.984375 -1.890625 C 3.984375 -1.03125 3.46875 -0.53125 2.578125 -0.53125 C 1.65625 -0.53125 1.203125 -0.984375 1.15625 -1.96875 L 0.3125 -1.96875 C 0.34375 -1.421875 0.4375 -1.078125 0.609375 -0.765625 C 0.953125 -0.109375 1.625 0.21875 2.546875 0.21875 C 3.953125 0.21875 4.859375 -0.609375 4.859375 -1.90625 C 4.859375 -2.765625 4.515625 -3.25 3.703125 -3.515625 C 4.34375 -3.765625 4.65625 -4.25 4.65625 -4.9375 C 4.65625 -6.109375 3.875 -6.796875 2.578125 -6.796875 C 1.203125 -6.796875 0.484375 -6.046875 0.453125 -4.609375 L 1.296875 -4.609375 C 1.3125 -5.015625 1.34375 -5.25 1.453125 -5.453125 C 1.640625 -5.828125 2.0625 -6.0625 2.59375 -6.0625 C 3.34375 -6.0625 3.796875 -5.625 3.796875 -4.90625 C 3.796875 -4.421875 3.609375 -4.140625 3.25 -3.984375 C 3.015625 -3.890625 2.71875 -3.84375 2.125 -3.84375 Z M 2.125 -3.125 "/>
</symbol>
<symbol overflow="visible" id="glyph0-7">
<path style="stroke:none;" d="M 3.140625 -1.625 L 3.140625 0 L 3.984375 0 L 3.984375 -1.625 L 4.984375 -1.625 L 4.984375 -2.390625 L 3.984375 -2.390625 L 3.984375 -6.796875 L 3.359375 -6.796875 L 0.265625 -2.515625 L 0.265625 -1.625 Z M 3.140625 -2.390625 L 1 -2.390625 L 3.140625 -5.359375 Z M 3.140625 -2.390625 "/>
</symbol>
<symbol overflow="visible" id="glyph0-8">
<path style="stroke:none;" d="M 4.78125 -5.03125 C 4.609375 -6.140625 3.890625 -6.796875 2.84375 -6.796875 C 2.09375 -6.796875 1.421875 -6.4375 1.03125 -5.828125 C 0.609375 -5.171875 0.40625 -4.34375 0.40625 -3.09375 C 0.40625 -1.953125 0.578125 -1.234375 0.984375 -0.625 C 1.359375 -0.078125 1.953125 0.21875 2.703125 0.21875 C 3.984375 0.21875 4.921875 -0.734375 4.921875 -2.078125 C 4.921875 -3.34375 4.0625 -4.234375 2.84375 -4.234375 C 2.171875 -4.234375 1.640625 -3.96875 1.28125 -3.46875 C 1.28125 -5.125 1.828125 -6.046875 2.796875 -6.046875 C 3.390625 -6.046875 3.796875 -5.671875 3.9375 -5.03125 Z M 2.734375 -3.484375 C 3.546875 -3.484375 4.0625 -2.921875 4.0625 -2 C 4.0625 -1.15625 3.484375 -0.53125 2.703125 -0.53125 C 1.921875 -0.53125 1.328125 -1.1875 1.328125 -2.046875 C 1.328125 -2.890625 1.90625 -3.484375 2.734375 -3.484375 Z M 2.734375 -3.484375 "/>
</symbol>
<symbol overflow="visible" id="glyph0-9">
<path style="stroke:none;" d="M 4.984375 -6.796875 L 0.4375 -6.796875 L 0.4375 -5.96875 L 4.109375 -5.96875 C 2.5 -3.65625 1.828125 -2.234375 1.328125 0 L 2.21875 0 C 2.59375 -2.171875 3.453125 -4.046875 4.984375 -6.09375 Z M 4.984375 -6.796875 "/>
</symbol>
<symbol overflow="visible" id="glyph0-10">
<path style="stroke:none;" d="M 3.75 -3.578125 C 4.453125 -4 4.6875 -4.34375 4.6875 -4.984375 C 4.6875 -6.046875 3.84375 -6.796875 2.640625 -6.796875 C 1.4375 -6.796875 0.59375 -6.046875 0.59375 -4.984375 C 0.59375 -4.359375 0.828125 -4.015625 1.515625 -3.578125 C 0.734375 -3.203125 0.359375 -2.640625 0.359375 -1.890625 C 0.359375 -0.640625 1.296875 0.21875 2.640625 0.21875 C 3.984375 0.21875 4.921875 -0.640625 4.921875 -1.875 C 4.921875 -2.640625 4.53125 -3.203125 3.75 -3.578125 Z M 2.640625 -6.046875 C 3.359375 -6.046875 3.8125 -5.625 3.8125 -4.96875 C 3.8125 -4.34375 3.34375 -3.921875 2.640625 -3.921875 C 1.921875 -3.921875 1.453125 -4.34375 1.453125 -4.984375 C 1.453125 -5.625 1.921875 -6.046875 2.640625 -6.046875 Z M 2.640625 -3.203125 C 3.484375 -3.203125 4.0625 -2.671875 4.0625 -1.875 C 4.0625 -1.0625 3.484375 -0.53125 2.625 -0.53125 C 1.796875 -0.53125 1.21875 -1.078125 1.21875 -1.875 C 1.21875 -2.671875 1.796875 -3.203125 2.640625 -3.203125 Z M 2.640625 -3.203125 "/>
</symbol>
<symbol overflow="visible" id="glyph0-11">
<path style="stroke:none;" d="M 0.515625 -1.546875 C 0.671875 -0.4375 1.40625 0.21875 2.4375 0.21875 C 3.1875 0.21875 3.859375 -0.140625 4.265625 -0.75 C 4.6875 -1.40625 4.890625 -2.25 4.890625 -3.484375 C 4.890625 -4.625 4.703125 -5.359375 4.3125 -5.953125 C 3.9375 -6.5 3.34375 -6.796875 2.59375 -6.796875 C 1.296875 -6.796875 0.359375 -5.84375 0.359375 -4.515625 C 0.359375 -3.25 1.234375 -2.34375 2.453125 -2.34375 C 3.09375 -2.34375 3.5625 -2.578125 4.015625 -3.109375 C 4 -1.453125 3.46875 -0.53125 2.5 -0.53125 C 1.90625 -0.53125 1.484375 -0.90625 1.359375 -1.546875 Z M 2.578125 -6.0625 C 3.375 -6.0625 3.96875 -5.40625 3.96875 -4.53125 C 3.96875 -3.6875 3.375 -3.09375 2.546875 -3.09375 C 1.734375 -3.09375 1.234375 -3.671875 1.234375 -4.578125 C 1.234375 -5.4375 1.796875 -6.0625 2.578125 -6.0625 Z M 2.578125 -6.0625 "/>
</symbol>
<symbol overflow="visible" id="glyph1-0">
<path style="stroke:none;" d=""/>
</symbol>
<symbol overflow="visible" id="glyph1-1">
<path style="stroke:none;" d="M 0 -0.953125 L 0 -4.890625 C 0 -5.71875 -0.234375 -6.34375 -0.734375 -6.796875 C -1.1875 -7.234375 -1.8125 -7.46875 -2.5 -7.46875 C -3.546875 -7.46875 -4.1875 -7 -4.625 -5.875 C -4.984375 -6.671875 -5.640625 -7.09375 -6.53125 -7.09375 C -7.15625 -7.09375 -7.734375 -6.859375 -8.140625 -6.390625 C -8.5625 -5.9375 -8.75 -5.34375 -8.75 -4.5 L -8.75 -0.953125 Z M -4.984375 -2.0625 L -7.765625 -2.0625 L -7.765625 -4.21875 C -7.765625 -4.84375 -7.6875 -5.203125 -7.453125 -5.5 C -7.21875 -5.8125 -6.859375 -5.96875 -6.375 -5.96875 C -5.90625 -5.96875 -5.53125 -5.8125 -5.296875 -5.5 C -5.0625 -5.203125 -4.984375 -4.84375 -4.984375 -4.21875 Z M -0.984375 -2.0625 L -4 -2.0625 L -4 -4.78125 C -4 -5.328125 -3.859375 -5.6875 -3.578125 -5.953125 C -3.296875 -6.21875 -2.921875 -6.359375 -2.484375 -6.359375 C -2.0625 -6.359375 -1.6875 -6.21875 -1.40625 -5.953125 C -1.109375 -5.6875 -0.984375 -5.328125 -0.984375 -4.78125 Z M -0.984375 -2.0625 "/>
</symbol>
<symbol overflow="visible" id="glyph1-2">
<path style="stroke:none;" d="M -6.28125 -1.796875 L -6.28125 -0.796875 L 0 -0.796875 L 0 -1.796875 Z M -8.75 -1.796875 L -8.75 -0.796875 L -7.484375 -0.796875 L -7.484375 -1.796875 Z M -8.75 -1.796875 "/>
</symbol>
<symbol overflow="visible" id="glyph1-3">
<path style="stroke:none;" d="M -6.28125 -3.046875 L -6.28125 -2.015625 L -8.015625 -2.015625 L -8.015625 -1.015625 L -6.28125 -1.015625 L -6.28125 -0.171875 L -5.46875 -0.171875 L -5.46875 -1.015625 L -0.71875 -1.015625 C -0.078125 -1.015625 0.28125 -1.453125 0.28125 -2.234375 C 0.28125 -2.46875 0.25 -2.71875 0.1875 -3.046875 L -0.640625 -3.046875 C -0.609375 -2.921875 -0.59375 -2.765625 -0.59375 -2.5625 C -0.59375 -2.140625 -0.71875 -2.015625 -1.15625 -2.015625 L -5.46875 -2.015625 L -5.46875 -3.046875 Z M -6.28125 -3.046875 "/>
</symbol>
<symbol overflow="visible" id="glyph1-4">
<path style="stroke:none;" d="M -4.53125 -5.25 C -5.765625 -5.25 -6.46875 -4.421875 -6.46875 -2.96875 C -6.46875 -1.515625 -5.71875 -0.5625 -4.546875 -0.5625 C -3.5625 -0.5625 -3.09375 -1.0625 -2.734375 -2.5625 L -2.515625 -3.484375 C -2.34375 -4.1875 -2.09375 -4.46875 -1.625 -4.46875 C -1.046875 -4.46875 -0.640625 -3.875 -0.640625 -3 C -0.640625 -2.453125 -0.796875 -2 -1.0625 -1.75 C -1.25 -1.59375 -1.421875 -1.53125 -1.875 -1.46875 L -1.875 -0.40625 C -0.421875 -0.453125 0.28125 -1.265625 0.28125 -2.921875 C 0.28125 -4.5 -0.5 -5.515625 -1.71875 -5.515625 C -2.65625 -5.515625 -3.171875 -4.984375 -3.46875 -3.734375 L -3.703125 -2.765625 C -3.890625 -1.953125 -4.15625 -1.609375 -4.59375 -1.609375 C -5.171875 -1.609375 -5.546875 -2.125 -5.546875 -2.9375 C -5.546875 -3.75 -5.203125 -4.171875 -4.53125 -4.203125 Z M -4.53125 -5.25 "/>
</symbol>
</g>
</defs>
<g id="surface5907">
<rect x="0" y="0" width="720" height="360" style="fill:rgb(100%,100%,100%);fill-opacity:1;stroke:none;"/>
<path style=" stroke:none;fill-rule:nonzero;fill:rgb(6.27451%,58.823529%,28.235294%);fill-opacity:1;" d="M 69.628906 314.371094 L 69.699219 314.371094 L 97.886719 313.980469 L 106.445312 313.980469 L 134.773438 314.371094 L 124.820312 314.371094 L 117.71875 314.269531 L 86.609375 314.269531 L 79.652344 314.371094 L 69.628906 314.371094 L 89.601562 314.226562 L 114.867188 314.226562 L 102.269531 314.042969 L 101.992188 314.042969 L 89.535156 314.226562 L 89.601562 314.226562 Z M 69.628906 314.371094 "/>
<path style=" stroke:none;fill-rule:nonzero;fill:rgb(14.509804%,36.078431%,60%);fill-opacity:1;" d="M 69.628906 311.691406 L 69.707031 311.6875 L 69.707031 311.644531 L 69.945312 311.578125 L 70.503906 311.492188 L 71.058594 311.429688 L 72.488281 311.324219 L 74.476562 311.222656 L 76.539062 311.144531 L 78.050781 311.097656 L 79.402344 311.0625 L 82.5 310.996094 L 84.484375 310.960938 L 86.628906 310.929688 L 89.25 310.898438 L 91.15625 310.882812 L 95.449219 310.855469 L 98.625 310.839844 L 101.089844 310.835938 L 106.410156 310.835938 L 109.589844 310.84375 L 111.890625 310.851562 L 114.433594 310.867188 L 116.578125 310.882812 L 120.3125 310.921875 L 123.648438 310.972656 L 125.160156 311 L 127.542969 311.054688 L 129.371094 311.109375 L 130.640625 311.15625 L 132.070312 311.222656 L 133.339844 311.304688 L 134.292969 311.394531 L 134.773438 311.472656 L 123.648438 311.472656 L 123.09375 311.402344 L 122.457031 311.34375 L 121.265625 311.273438 L 120.074219 311.21875 L 118.40625 311.167969 L 116.898438 311.132812 L 114.832031 311.097656 L 113.003906 311.078125 L 111.097656 311.0625 L 109.269531 311.050781 L 105.773438 311.039062 L 101.722656 311.039062 L 100.214844 311.042969 L 97.117188 311.058594 L 95.449219 311.070312 L 93.066406 311.097656 L 91.394531 311.121094 L 89.410156 311.15625 L 88.058594 311.1875 L 86.390625 311.230469 L 85.199219 311.273438 L 83.847656 311.332031 L 83.054688 311.378906 L 82.339844 311.429688 L 81.703125 311.488281 L 81.226562 311.550781 L 80.910156 311.617188 L 80.75 311.679688 L 80.75 311.960938 L 80.910156 312.023438 L 81.308594 312.097656 L 82.339844 312.207031 L 83.847656 312.304688 L 85.597656 312.378906 L 87.265625 312.433594 L 88.21875 312.457031 L 89.488281 312.488281 L 91.476562 312.523438 L 94.335938 312.558594 L 96.003906 312.574219 L 98.546875 312.585938 L 101.167969 312.59375 L 104.664062 312.59375 L 107.761719 312.585938 L 109.828125 312.578125 L 111.972656 312.5625 L 114.910156 312.535156 L 116.738281 312.503906 L 118.328125 312.472656 L 119.519531 312.4375 L 120.3125 312.40625 L 121.503906 312.351562 L 122.457031 312.292969 L 123.171875 312.226562 L 123.648438 312.167969 L 134.773438 312.167969 L 134.292969 312.238281 L 133.578125 312.308594 L 132.863281 312.359375 L 131.753906 312.425781 L 130.480469 312.480469 L 128.65625 312.542969 L 127.144531 312.582031 L 125.160156 312.628906 L 123.332031 312.664062 L 121.347656 312.691406 L 118.40625 312.730469 L 116.5 312.746094 L 114.433594 312.761719 L 111.972656 312.777344 L 108.875 312.789062 L 105.535156 312.796875 L 102.4375 312.800781 L 99.101562 312.796875 L 96.640625 312.789062 L 93.382812 312.773438 L 89.332031 312.738281 L 86.390625 312.707031 L 84.085938 312.671875 L 82.101562 312.636719 L 79.878906 312.585938 L 77.015625 312.507812 L 75.269531 312.449219 L 74.078125 312.398438 L 72.726562 312.328125 L 71.773438 312.265625 L 70.660156 312.164062 L 69.867188 312.035156 L 69.628906 311.9375 Z M 69.628906 311.691406 "/>
<path style=" stroke:none;fill-rule:nonzero;fill:rgb(96.862745%,70.196078%,16.862745%);fill-opacity:1;" d="M 69.628906 303.730469 L 69.707031 303.726562 L 69.707031 303.667969 L 70.027344 303.535156 L 70.820312 303.351562 L 71.855469 303.203125 L 72.964844 303.085938 L 73.679688 303.023438 L 74.871094 302.933594 L 75.90625 302.871094 L 78.527344 302.738281 L 81.863281 302.613281 L 83.691406 302.5625 L 85.757812 302.511719 L 88.695312 302.457031 L 90.046875 302.433594 L 94.175781 302.386719 L 98.863281 302.359375 L 104.027344 302.347656 L 106.410156 302.351562 L 109.667969 302.363281 L 114.117188 302.398438 L 116.660156 302.425781 L 118.644531 302.457031 L 120.710938 302.492188 L 123.253906 302.550781 L 125.636719 302.625 L 127.542969 302.695312 L 129.449219 302.78125 L 131.039062 302.875 L 132.386719 302.980469 L 133.578125 303.101562 L 134.292969 303.207031 L 134.773438 303.308594 L 123.730469 303.308594 L 123.09375 303.207031 L 122.378906 303.125 L 121.1875 303.027344 L 119.996094 302.957031 L 118.804688 302.902344 L 116.578125 302.824219 L 114.671875 302.777344 L 112.289062 302.738281 L 109.984375 302.710938 L 107.363281 302.695312 L 105.773438 302.6875 L 101.566406 302.6875 L 97.75 302.707031 L 95.527344 302.730469 L 93.9375 302.753906 L 91.714844 302.800781 L 90.363281 302.835938 L 89.570312 302.859375 L 87.1875 302.949219 L 85.597656 303.03125 L 84.722656 303.085938 L 83.609375 303.175781 L 82.816406 303.253906 L 81.941406 303.375 L 81.464844 303.460938 L 80.832031 303.660156 L 80.75 304.191406 L 80.988281 304.300781 L 81.464844 304.421875 L 82.101562 304.527344 L 83.054688 304.640625 L 84.007812 304.726562 L 85.675781 304.839844 L 87.105469 304.917969 L 88.21875 304.96875 L 90.363281 305.046875 L 91.238281 305.074219 L 93.304688 305.125 L 95.449219 305.167969 L 98.070312 305.203125 L 100.054688 305.21875 L 103.234375 305.234375 L 107.285156 305.234375 L 112.050781 305.21875 L 115.070312 305.195312 L 117.136719 305.171875 L 118.484375 305.148438 L 120.152344 305.117188 L 121.347656 305.085938 L 122.457031 305.054688 L 123.808594 305.003906 L 123.808594 304.300781 L 104.1875 304.300781 L 104.1875 303.96875 L 134.691406 303.96875 L 134.773438 305.117188 L 133.101562 305.195312 L 131.039062 305.273438 L 129.050781 305.332031 L 126.984375 305.382812 L 124.046875 305.4375 L 121.664062 305.472656 L 118.007812 305.515625 L 114.671875 305.539062 L 111.175781 305.558594 L 108.078125 305.566406 L 104.425781 305.570312 L 101.167969 305.5625 L 97.671875 305.546875 L 94.890625 305.523438 L 92.351562 305.492188 L 89.808594 305.457031 L 86.628906 305.394531 L 84.5625 305.34375 L 82.417969 305.28125 L 80.273438 305.207031 L 78.367188 305.128906 L 77.097656 305.066406 L 75.824219 304.996094 L 74.476562 304.910156 L 73.203125 304.808594 L 72.25 304.71875 L 71.378906 304.613281 L 70.742188 304.515625 L 70.105469 304.386719 L 69.789062 304.277344 L 69.628906 304.1875 Z M 69.628906 303.730469 "/>
<path style=" stroke:none;fill-rule:nonzero;fill:rgb(83.921569%,15.686275%,22.352941%);fill-opacity:1;" d="M 69.628906 306.75 L 134.773438 306.75 L 134.773438 307.0625 L 107.621094 307.0625 L 107.621094 309.65625 L 96.699219 309.65625 L 96.699219 307.066406 L 96.542969 307.0625 L 69.628906 307.0625 Z M 69.628906 306.75 "/>
<path style=" stroke:none;fill-rule:nonzero;fill:rgb(6.27451%,58.823529%,28.235294%);fill-opacity:1;" d="M 138.199219 292.925781 L 138.269531 292.914062 L 166.457031 276.421875 L 175.015625 276.421875 L 203.34375 292.941406 L 193.390625 292.941406 L 186.292969 288.628906 L 155.179688 288.628906 L 148.222656 292.925781 L 138.199219 292.925781 L 158.175781 286.847656 L 183.4375 286.832031 L 170.839844 279.121094 L 170.703125 279.105469 L 170.5625 279.152344 L 158.105469 286.832031 L 158.175781 286.847656 Z M 138.199219 292.925781 "/>
<path style=" stroke:none;fill-rule:nonzero;fill:rgb(14.509804%,36.078431%,60%);fill-opacity:1;" d="M 138.199219 312.933594 L 138.28125 312.929688 L 138.28125 312.875 L 138.519531 312.785156 L 139.074219 312.671875 L 139.628906 312.597656 L 141.058594 312.460938 L 143.046875 312.328125 L 145.113281 312.222656 L 146.621094 312.164062 L 147.972656 312.117188 L 151.070312 312.03125 L 153.054688 311.988281 L 155.199219 311.945312 L 157.820312 311.90625 L 159.730469 311.882812 L 164.019531 311.847656 L 167.195312 311.832031 L 169.660156 311.824219 L 174.980469 311.824219 L 178.160156 311.832031 L 180.464844 311.84375 L 183.003906 311.863281 L 185.148438 311.882812 L 188.882812 311.933594 L 192.21875 312 L 193.730469 312.039062 L 196.113281 312.109375 L 197.941406 312.179688 L 199.210938 312.242188 L 200.640625 312.328125 L 201.914062 312.429688 L 202.867188 312.550781 L 203.34375 312.648438 L 192.21875 312.648438 L 191.664062 312.558594 L 191.027344 312.484375 L 189.835938 312.390625 L 188.644531 312.320312 L 186.976562 312.253906 L 185.46875 312.210938 L 183.402344 312.164062 L 181.574219 312.136719 L 179.667969 312.117188 L 177.839844 312.101562 L 174.347656 312.089844 L 170.292969 312.089844 L 168.785156 312.09375 L 165.6875 312.113281 L 164.019531 312.128906 L 161.636719 312.160156 L 159.96875 312.191406 L 157.980469 312.238281 L 156.628906 312.277344 L 154.960938 312.339844 L 153.769531 312.390625 L 152.421875 312.46875 L 151.625 312.527344 L 150.910156 312.59375 L 150.273438 312.667969 L 149.796875 312.75 L 149.480469 312.835938 L 149.320312 312.921875 L 149.320312 313.28125 L 149.480469 313.363281 L 149.878906 313.460938 L 150.910156 313.605469 L 152.421875 313.726562 L 154.167969 313.824219 L 155.835938 313.894531 L 156.789062 313.929688 L 158.058594 313.964844 L 160.046875 314.011719 L 162.90625 314.058594 L 164.574219 314.078125 L 167.117188 314.097656 L 169.738281 314.105469 L 173.234375 314.105469 L 176.332031 314.097656 L 178.398438 314.085938 L 180.542969 314.066406 L 183.480469 314.027344 L 185.308594 313.988281 L 186.898438 313.945312 L 188.089844 313.898438 L 188.882812 313.863281 L 190.074219 313.789062 L 191.027344 313.710938 L 191.742188 313.628906 L 192.21875 313.550781 L 203.34375 313.550781 L 202.867188 313.644531 L 202.152344 313.734375 L 201.4375 313.800781 L 200.324219 313.882812 L 199.050781 313.957031 L 197.226562 314.039062 L 195.714844 314.089844 L 193.730469 314.148438 L 191.902344 314.195312 L 189.917969 314.234375 L 186.976562 314.28125 L 185.070312 314.304688 L 183.003906 314.324219 L 180.542969 314.34375 L 177.445312 314.359375 L 174.109375 314.367188 L 171.007812 314.371094 L 167.671875 314.367188 L 165.210938 314.355469 L 161.953125 314.335938 L 157.902344 314.292969 L 154.960938 314.25 L 152.660156 314.207031 L 150.671875 314.160156 L 148.449219 314.097656 L 145.589844 313.992188 L 143.839844 313.914062 L 142.648438 313.847656 L 141.296875 313.757812 L 140.34375 313.675781 L 139.234375 313.546875 L 138.4375 313.382812 L 138.199219 313.253906 Z M 138.199219 312.933594 "/>
<path style=" stroke:none;fill-rule:nonzero;fill:rgb(96.862745%,70.196078%,16.862745%);fill-opacity:1;" d="M 138.199219 299.203125 L 138.28125 299.191406 L 138.28125 298.976562 L 138.597656 298.488281 L 139.390625 297.816406 L 140.425781 297.265625 L 141.535156 296.832031 L 142.25 296.605469 L 143.441406 296.277344 L 144.476562 296.039062 L 147.097656 295.554688 L 150.433594 295.097656 L 152.261719 294.902344 L 154.328125 294.71875 L 157.265625 294.511719 L 158.617188 294.4375 L 162.746094 294.261719 L 167.433594 294.15625 L 172.597656 294.121094 L 174.980469 294.132812 L 178.238281 294.175781 L 182.6875 294.296875 L 185.230469 294.40625 L 187.214844 294.511719 L 189.28125 294.652344 L 191.824219 294.871094 L 194.207031 295.128906 L 196.113281 295.390625 L 198.019531 295.714844 L 199.609375 296.0625 L 200.957031 296.441406 L 202.152344 296.894531 L 202.867188 297.277344 L 203.34375 297.65625 L 192.300781 297.65625 L 191.664062 297.277344 L 190.949219 296.984375 L 189.757812 296.625 L 188.566406 296.367188 L 187.375 296.160156 L 185.148438 295.878906 L 183.242188 295.703125 L 180.859375 295.554688 L 178.554688 295.457031 L 175.933594 295.390625 L 174.347656 295.367188 L 170.136719 295.367188 L 166.324219 295.445312 L 164.097656 295.53125 L 162.507812 295.617188 L 160.285156 295.78125 L 158.933594 295.910156 L 158.140625 295.996094 L 155.757812 296.332031 L 154.167969 296.636719 L 153.292969 296.84375 L 152.183594 297.167969 L 151.386719 297.460938 L 150.511719 297.894531 L 150.035156 298.21875 L 149.402344 298.953125 L 149.320312 300.90625 L 149.558594 301.316406 L 150.035156 301.761719 L 150.671875 302.152344 L 151.625 302.5625 L 152.578125 302.875 L 154.246094 303.300781 L 155.675781 303.582031 L 156.789062 303.765625 L 158.933594 304.058594 L 159.808594 304.15625 L 161.875 304.351562 L 164.019531 304.5 L 166.640625 304.632812 L 168.625 304.695312 L 171.804688 304.75 L 175.855469 304.75 L 180.621094 304.6875 L 183.640625 304.597656 L 185.707031 304.511719 L 187.058594 304.4375 L 188.726562 304.316406 L 189.917969 304.210938 L 191.027344 304.089844 L 192.378906 303.90625 L 192.378906 301.316406 L 172.757812 301.304688 L 172.757812 300.09375 L 203.261719 300.082031 L 203.34375 304.316406 L 201.675781 304.609375 L 199.609375 304.890625 L 197.621094 305.109375 L 195.558594 305.292969 L 192.617188 305.5 L 190.234375 305.628906 L 186.578125 305.78125 L 183.242188 305.878906 L 179.746094 305.941406 L 176.648438 305.976562 L 172.996094 305.984375 L 169.738281 305.964844 L 166.242188 305.898438 L 163.460938 305.8125 L 160.921875 305.703125 L 158.378906 305.5625 L 155.199219 305.335938 L 153.136719 305.152344 L 150.988281 304.925781 L 148.84375 304.652344 L 146.9375 304.359375 L 145.667969 304.132812 L 144.398438 303.875 L 143.046875 303.546875 L 141.773438 303.179688 L 140.820312 302.84375 L 139.949219 302.464844 L 139.3125 302.109375 L 138.675781 301.621094 L 138.359375 301.230469 L 138.199219 300.894531 Z M 138.199219 299.203125 "/>
<path style=" stroke:none;fill-rule:nonzero;fill:rgb(83.921569%,15.686275%,22.352941%);fill-opacity:1;" d="M 138.199219 307.164062 L 203.34375 307.164062 L 203.34375 307.539062 L 176.191406 307.542969 L 176.191406 310.644531 L 165.269531 310.644531 L 165.269531 307.542969 L 165.113281 307.539062 L 138.199219 307.539062 Z M 138.199219 307.164062 "/>
<path style=" stroke:none;fill-rule:nonzero;fill:rgb(6.27451%,58.823529%,28.235294%);fill-opacity:1;" d="M 206.769531 308.355469 L 206.839844 308.351562 L 235.027344 302.03125 L 243.585938 302.03125 L 271.914062 308.363281 L 261.960938 308.363281 L 254.863281 306.710938 L 223.753906 306.710938 L 216.792969 308.355469 L 206.769531 308.355469 L 226.746094 306.027344 L 252.007812 306.019531 L 239.410156 303.066406 L 239.273438 303.058594 L 239.132812 303.078125 L 226.675781 306.019531 L 226.746094 306.027344 Z M 206.769531 308.355469 "/>
<path style=" stroke:none;fill-rule:nonzero;fill:rgb(14.509804%,36.078431%,60%);fill-opacity:1;" d="M 206.769531 297.273438 L 206.851562 297.269531 L 206.851562 297.128906 L 207.089844 296.910156 L 207.644531 296.632812 L 208.199219 296.441406 L 209.628906 296.101562 L 211.617188 295.769531 L 213.683594 295.515625 L 215.191406 295.363281 L 216.542969 295.25 L 219.640625 295.035156 L 221.625 294.925781 L 223.769531 294.828125 L 226.394531 294.726562 L 228.300781 294.671875 L 232.589844 294.578125 L 235.765625 294.539062 L 238.230469 294.519531 L 243.550781 294.519531 L 246.730469 294.542969 L 249.035156 294.570312 L 251.574219 294.617188 L 253.722656 294.671875 L 257.453125 294.796875 L 260.792969 294.960938 L 262.300781 295.050781 L 264.683594 295.230469 L 266.511719 295.40625 L 267.78125 295.554688 L 269.210938 295.769531 L 270.484375 296.03125 L 271.4375 296.324219 L 271.914062 296.574219 L 260.792969 296.574219 L 260.234375 296.34375 L 259.597656 296.164062 L 258.40625 295.925781 L 257.214844 295.757812 L 255.546875 295.589844 L 254.039062 295.480469 L 251.972656 295.371094 L 250.144531 295.300781 L 248.238281 295.25 L 246.414062 295.214844 L 242.917969 295.179688 L 238.863281 295.179688 L 237.355469 295.191406 L 234.257812 295.238281 L 232.589844 295.277344 L 230.207031 295.359375 L 228.539062 295.433594 L 226.550781 295.550781 L 225.203125 295.648438 L 223.53125 295.800781 L 222.339844 295.933594 L 220.992188 296.125 L 220.195312 296.269531 L 219.480469 296.429688 L 218.847656 296.621094 L 218.371094 296.824219 L 218.050781 297.039062 L 217.890625 297.246094 L 217.890625 298.144531 L 218.050781 298.351562 L 218.449219 298.59375 L 219.480469 298.949219 L 220.992188 299.253906 L 222.738281 299.496094 L 224.40625 299.671875 L 225.359375 299.75 L 226.632812 299.84375 L 228.617188 299.960938 L 231.476562 300.074219 L 233.144531 300.121094 L 235.6875 300.167969 L 238.308594 300.191406 L 241.804688 300.191406 L 244.902344 300.167969 L 246.96875 300.140625 L 249.113281 300.09375 L 252.050781 299.996094 L 253.878906 299.902344 L 255.46875 299.792969 L 256.660156 299.683594 L 257.453125 299.589844 L 258.644531 299.410156 L 259.597656 299.214844 L 260.3125 299.011719 L 260.792969 298.8125 L 271.914062 298.8125 L 271.4375 299.046875 L 270.722656 299.269531 L 270.007812 299.4375 L 268.894531 299.640625 L 267.621094 299.820312 L 265.796875 300.023438 L 264.285156 300.15625 L 262.300781 300.300781 L 260.472656 300.410156 L 258.488281 300.511719 L 255.546875 300.625 L 253.640625 300.683594 L 251.574219 300.734375 L 249.113281 300.78125 L 246.015625 300.824219 L 242.679688 300.84375 L 239.582031 300.851562 L 236.242188 300.839844 L 233.78125 300.816406 L 230.523438 300.765625 L 226.472656 300.660156 L 223.53125 300.550781 L 221.230469 300.441406 L 219.242188 300.324219 L 217.019531 300.167969 L 214.160156 299.914062 L 212.410156 299.71875 L 211.21875 299.554688 L 209.867188 299.328125 L 208.914062 299.125 L 207.804688 298.800781 L 207.007812 298.390625 L 206.769531 298.074219 Z M 206.769531 297.273438 "/>
<path style=" stroke:none;fill-rule:nonzero;fill:rgb(96.862745%,70.196078%,16.862745%);fill-opacity:1;" d="M 206.769531 310.539062 L 206.851562 310.535156 L 206.851562 310.492188 L 207.167969 310.398438 L 207.960938 310.265625 L 208.996094 310.15625 L 210.105469 310.074219 L 210.820312 310.027344 L 212.015625 309.964844 L 213.046875 309.917969 L 215.667969 309.820312 L 219.003906 309.734375 L 220.832031 309.695312 L 222.898438 309.660156 L 225.835938 309.617188 L 227.1875 309.601562 L 231.316406 309.570312 L 236.003906 309.546875 L 241.167969 309.542969 L 243.550781 309.542969 L 246.808594 309.550781 L 251.257812 309.574219 L 253.800781 309.597656 L 255.785156 309.617188 L 257.851562 309.644531 L 260.394531 309.6875 L 262.777344 309.738281 L 264.683594 309.789062 L 266.589844 309.855469 L 268.179688 309.921875 L 269.53125 309.996094 L 270.722656 310.085938 L 271.4375 310.160156 L 271.914062 310.234375 L 260.871094 310.234375 L 260.234375 310.160156 L 259.519531 310.101562 L 258.328125 310.03125 L 257.136719 309.980469 L 255.945312 309.941406 L 253.722656 309.886719 L 251.8125 309.851562 L 249.429688 309.820312 L 247.128906 309.804688 L 244.503906 309.789062 L 242.917969 309.785156 L 238.707031 309.785156 L 234.894531 309.800781 L 232.667969 309.816406 L 231.078125 309.835938 L 228.855469 309.867188 L 227.503906 309.890625 L 226.710938 309.910156 L 224.328125 309.976562 L 222.738281 310.035156 L 221.863281 310.074219 L 220.753906 310.136719 L 219.957031 310.195312 L 219.085938 310.28125 L 218.609375 310.34375 L 217.972656 310.488281 L 217.890625 310.871094 L 218.132812 310.953125 L 218.609375 311.039062 L 219.242188 311.117188 L 220.195312 311.195312 L 221.148438 311.257812 L 222.816406 311.339844 L 224.246094 311.394531 L 225.359375 311.433594 L 227.503906 311.488281 L 228.378906 311.507812 L 230.445312 311.546875 L 232.589844 311.574219 L 235.210938 311.601562 L 237.195312 311.613281 L 240.375 311.625 L 244.425781 311.625 L 249.191406 311.613281 L 252.210938 311.59375 L 254.277344 311.578125 L 255.628906 311.5625 L 257.296875 311.539062 L 258.488281 311.519531 L 259.597656 311.496094 L 260.949219 311.460938 L 260.949219 310.953125 L 241.328125 310.949219 L 241.328125 310.710938 L 271.832031 310.710938 L 271.914062 311.539062 L 270.246094 311.597656 L 268.179688 311.652344 L 266.191406 311.695312 L 264.128906 311.730469 L 261.1875 311.773438 L 258.804688 311.796875 L 255.152344 311.828125 L 251.8125 311.847656 L 248.320312 311.859375 L 245.21875 311.863281 L 241.566406 311.867188 L 238.308594 311.863281 L 234.8125 311.851562 L 232.03125 311.832031 L 229.492188 311.8125 L 226.949219 311.785156 L 223.769531 311.738281 L 221.707031 311.703125 L 219.5625 311.660156 L 217.414062 311.605469 L 215.507812 311.546875 L 214.238281 311.503906 L 212.96875 311.453125 L 211.617188 311.390625 L 210.34375 311.316406 L 209.390625 311.25 L 208.519531 311.175781 L 207.882812 311.105469 L 207.246094 311.011719 L 206.929688 310.933594 L 206.769531 310.867188 Z M 206.769531 310.539062 "/>
<path style=" stroke:none;fill-rule:nonzero;fill:rgb(83.921569%,15.686275%,22.352941%);fill-opacity:1;" d="M 206.769531 313.046875 L 271.914062 313.046875 L 271.914062 313.1875 L 244.765625 313.191406 L 244.765625 314.371094 L 233.839844 314.371094 L 233.839844 313.191406 L 233.683594 313.1875 L 206.769531 313.1875 Z M 206.769531 313.046875 "/>
<path style=" stroke:none;fill-rule:nonzero;fill:rgb(14.509804%,36.078431%,60%);fill-opacity:1;" d="M 275.339844 148.457031 L 275.421875 148.1875 L 275.421875 141.742188 L 275.660156 131.542969 L 276.214844 118.65625 L 276.769531 109.796875 L 278.203125 93.957031 L 280.1875 78.652344 L 282.253906 66.839844 L 283.761719 59.859375 L 285.113281 54.492188 L 288.210938 44.558594 L 290.195312 39.457031 L 292.34375 34.890625 L 294.964844 30.328125 L 296.871094 27.644531 L 301.160156 23.347656 L 304.335938 21.46875 L 306.800781 20.664062 L 312.121094 20.664062 L 315.300781 21.738281 L 317.605469 23.078125 L 320.148438 25.226562 L 322.292969 27.644531 L 326.023438 33.550781 L 329.363281 41.066406 L 330.871094 45.363281 L 333.253906 53.683594 L 335.082031 61.738281 L 336.351562 68.71875 L 337.78125 78.652344 L 339.054688 90.734375 L 340.007812 104.425781 L 340.484375 115.96875 L 329.363281 115.96875 L 328.804688 105.230469 L 328.171875 96.910156 L 326.976562 85.902344 L 325.785156 78.117188 L 324.117188 70.332031 L 322.609375 65.230469 L 320.542969 60.128906 L 318.714844 56.90625 L 316.808594 54.492188 L 314.984375 52.878906 L 311.488281 51.269531 L 307.4375 51.269531 L 305.925781 51.804688 L 302.828125 53.953125 L 301.160156 55.832031 L 298.777344 59.589844 L 297.109375 63.082031 L 295.121094 68.449219 L 293.773438 73.015625 L 292.105469 79.996094 L 290.910156 86.171875 L 289.5625 95.03125 L 288.765625 101.742188 L 288.050781 109.257812 L 287.417969 118.117188 L 286.941406 127.515625 L 286.621094 137.449219 L 286.464844 147.113281 L 286.464844 188.726562 L 286.621094 198.390625 L 287.019531 209.667969 L 288.050781 226.042969 L 289.5625 240.273438 L 291.308594 251.546875 L 292.976562 259.601562 L 293.929688 263.359375 L 295.203125 267.65625 L 297.1875 273.027344 L 300.046875 278.394531 L 301.714844 280.542969 L 304.257812 282.691406 L 306.878906 283.765625 L 310.375 283.765625 L 313.472656 282.691406 L 315.539062 281.347656 L 317.683594 279.199219 L 320.625 274.636719 L 322.449219 270.339844 L 324.039062 265.242188 L 325.230469 260.140625 L 326.023438 255.84375 L 327.21875 247.519531 L 328.171875 238.394531 L 328.886719 228.996094 L 329.363281 219.867188 L 340.484375 219.867188 L 340.007812 230.609375 L 339.292969 241.078125 L 338.578125 248.863281 L 337.464844 258.261719 L 336.195312 266.582031 L 334.367188 275.980469 L 332.855469 282.152344 L 330.871094 288.867188 L 329.042969 293.96875 L 327.058594 298.53125 L 324.117188 303.898438 L 322.210938 306.585938 L 320.148438 309 L 317.683594 311.148438 L 314.585938 313.027344 L 311.25 314.101562 L 308.152344 314.371094 L 304.8125 313.832031 L 302.351562 312.761719 L 299.09375 310.34375 L 295.042969 305.511719 L 292.105469 300.410156 L 289.800781 295.308594 L 287.8125 289.941406 L 285.589844 282.691406 L 282.730469 270.878906 L 280.980469 261.75 L 279.789062 254.234375 L 278.441406 243.761719 L 277.488281 234.367188 L 276.375 219.332031 L 275.578125 200.269531 L 275.339844 185.503906 Z M 275.339844 148.457031 "/>
<path style=" stroke:none;fill-rule:nonzero;fill:rgb(6.27451%,58.823529%,28.235294%);fill-opacity:1;" d="M 343.914062 304.210938 L 343.980469 304.195312 L 372.167969 288.015625 L 380.730469 288.015625 L 409.054688 304.226562 L 399.101562 304.226562 L 392.003906 299.992188 L 360.894531 299.992188 L 353.933594 304.210938 L 343.914062 304.210938 L 363.886719 298.242188 L 389.148438 298.226562 L 376.554688 290.664062 L 376.414062 290.648438 L 376.273438 290.691406 L 363.816406 298.226562 L 363.886719 298.242188 Z M 343.914062 304.210938 "/>
<path style=" stroke:none;fill-rule:nonzero;fill:rgb(14.509804%,36.078431%,60%);fill-opacity:1;" d="M 343.914062 268.671875 L 343.992188 268.640625 L 343.992188 267.9375 L 344.230469 266.820312 L 344.785156 265.410156 L 345.34375 264.4375 L 346.773438 262.703125 L 348.757812 261.027344 L 350.824219 259.734375 L 352.332031 258.972656 L 353.683594 258.382812 L 356.78125 257.296875 L 358.769531 256.738281 L 360.914062 256.238281 L 363.535156 255.738281 L 365.441406 255.445312 L 369.730469 254.972656 L 372.910156 254.769531 L 375.371094 254.679688 L 380.695312 254.679688 L 383.871094 254.796875 L 386.175781 254.945312 L 388.71875 255.179688 L 390.863281 255.445312 L 394.597656 256.089844 L 397.933594 256.914062 L 399.441406 257.382812 L 401.824219 258.296875 L 403.652344 259.175781 L 404.921875 259.941406 L 406.351562 261.027344 L 407.625 262.351562 L 408.578125 263.851562 L 409.054688 265.113281 L 397.933594 265.113281 L 397.375 263.9375 L 396.742188 263.027344 L 395.550781 261.824219 L 394.359375 260.96875 L 392.6875 260.117188 L 391.179688 259.558594 L 389.113281 259 L 387.289062 258.648438 L 385.378906 258.382812 L 383.554688 258.207031 L 380.058594 258.03125 L 376.007812 258.03125 L 374.496094 258.089844 L 371.398438 258.324219 L 369.730469 258.53125 L 367.347656 258.941406 L 365.679688 259.324219 L 363.691406 259.910156 L 362.34375 260.410156 L 360.675781 261.175781 L 359.484375 261.851562 L 358.132812 262.820312 L 357.335938 263.554688 L 356.621094 264.378906 L 355.988281 265.347656 L 355.511719 266.378906 L 355.191406 267.464844 L 355.035156 268.523438 L 355.035156 273.078125 L 355.191406 274.136719 L 355.589844 275.371094 L 356.621094 277.164062 L 358.132812 278.722656 L 359.878906 279.957031 L 361.546875 280.839844 L 362.5 281.25 L 363.773438 281.71875 L 365.757812 282.308594 L 368.617188 282.894531 L 370.285156 283.132812 L 372.828125 283.367188 L 375.449219 283.484375 L 378.945312 283.484375 L 382.042969 283.367188 L 384.109375 283.21875 L 386.253906 282.984375 L 389.195312 282.484375 L 391.019531 282.015625 L 392.609375 281.457031 L 393.800781 280.898438 L 394.597656 280.425781 L 395.789062 279.515625 L 396.742188 278.515625 L 397.457031 277.488281 L 397.933594 276.488281 L 409.054688 276.488281 L 408.578125 277.664062 L 407.863281 278.8125 L 407.148438 279.664062 L 406.035156 280.691406 L 404.765625 281.601562 L 402.9375 282.632812 L 401.429688 283.308594 L 399.441406 284.042969 L 397.613281 284.601562 L 395.628906 285.101562 L 392.6875 285.6875 L 390.78125 285.980469 L 388.71875 286.246094 L 386.253906 286.480469 L 383.15625 286.6875 L 379.820312 286.804688 L 376.722656 286.835938 L 373.386719 286.777344 L 370.921875 286.65625 L 367.664062 286.394531 L 363.613281 285.863281 L 360.675781 285.304688 L 358.371094 284.746094 L 356.382812 284.160156 L 354.160156 283.367188 L 351.300781 282.074219 L 349.550781 281.074219 L 348.359375 280.25 L 347.011719 279.105469 L 346.058594 278.074219 L 344.945312 276.429688 L 344.152344 274.34375 L 343.914062 272.726562 Z M 343.914062 268.671875 "/>
<path style=" stroke:none;fill-rule:nonzero;fill:rgb(96.862745%,70.196078%,16.862745%);fill-opacity:1;" d="M 343.914062 307.382812 L 343.992188 307.378906 L 343.992188 307.292969 L 344.308594 307.105469 L 345.105469 306.84375 L 346.136719 306.628906 L 347.25 306.460938 L 347.964844 306.371094 L 349.15625 306.246094 L 350.1875 306.152344 L 352.808594 305.960938 L 356.144531 305.785156 L 357.972656 305.707031 L 360.039062 305.636719 L 362.976562 305.558594 L 364.328125 305.527344 L 368.460938 305.460938 L 373.148438 305.417969 L 378.308594 305.40625 L 380.695312 305.410156 L 383.949219 305.425781 L 388.398438 305.472656 L 390.941406 305.515625 L 392.925781 305.558594 L 394.992188 305.613281 L 397.535156 305.695312 L 399.917969 305.796875 L 401.824219 305.898438 L 403.730469 306.023438 L 405.320312 306.160156 L 406.671875 306.308594 L 407.863281 306.484375 L 408.578125 306.632812 L 409.054688 306.78125 L 398.011719 306.78125 L 397.375 306.632812 L 396.660156 306.519531 L 395.46875 306.378906 L 394.277344 306.277344 L 393.085938 306.199219 L 390.863281 306.089844 L 388.957031 306.019531 L 386.574219 305.960938 L 384.269531 305.925781 L 381.648438 305.898438 L 380.058594 305.890625 L 375.847656 305.890625 L 372.035156 305.917969 L 369.808594 305.953125 L 368.222656 305.988281 L 365.996094 306.050781 L 364.644531 306.101562 L 363.851562 306.136719 L 361.46875 306.265625 L 359.878906 306.382812 L 359.007812 306.464844 L 357.894531 306.589844 L 357.097656 306.703125 L 356.226562 306.871094 L 355.75 307 L 355.113281 307.285156 L 355.035156 308.046875 L 355.273438 308.207031 L 355.75 308.378906 L 356.382812 308.53125 L 357.335938 308.691406 L 358.292969 308.8125 L 359.960938 308.976562 L 361.390625 309.085938 L 362.5 309.160156 L 364.644531 309.273438 L 365.519531 309.308594 L 367.585938 309.386719 L 369.730469 309.445312 L 372.351562 309.496094 L 374.339844 309.519531 L 377.515625 309.542969 L 381.566406 309.542969 L 386.332031 309.515625 L 389.351562 309.484375 L 391.417969 309.449219 L 392.769531 309.417969 L 394.4375 309.375 L 395.628906 309.332031 L 396.742188 309.285156 L 398.089844 309.214844 L 398.089844 308.207031 L 378.46875 308.199219 L 378.46875 307.730469 L 408.976562 307.722656 L 409.054688 309.375 L 407.386719 309.488281 L 405.320312 309.597656 L 403.335938 309.679688 L 401.269531 309.753906 L 398.328125 309.832031 L 395.945312 309.882812 L 392.292969 309.941406 L 388.957031 309.980469 L 385.460938 310.007812 L 382.363281 310.019531 L 378.707031 310.023438 L 375.449219 310.015625 L 371.953125 309.988281 L 369.175781 309.957031 L 366.632812 309.914062 L 364.089844 309.859375 L 360.914062 309.769531 L 358.847656 309.699219 L 356.703125 309.609375 L 354.558594 309.503906 L 352.652344 309.390625 L 351.378906 309.300781 L 350.109375 309.199219 L 348.757812 309.074219 L 347.488281 308.929688 L 346.535156 308.800781 L 345.660156 308.652344 L 345.023438 308.511719 L 344.390625 308.324219 L 344.070312 308.171875 L 343.914062 308.039062 Z M 343.914062 307.382812 "/>
<path style=" stroke:none;fill-rule:nonzero;fill:rgb(83.921569%,15.686275%,22.352941%);fill-opacity:1;" d="M 343.914062 311.203125 L 409.054688 311.203125 L 409.054688 311.542969 L 381.90625 311.542969 L 381.90625 314.371094 L 370.980469 314.371094 L 370.980469 311.546875 L 370.824219 311.542969 L 343.914062 311.542969 Z M 343.914062 311.203125 "/>
<path style=" stroke:none;fill-rule:nonzero;fill:rgb(14.509804%,36.078431%,60%);fill-opacity:1;" d="M 412.484375 148.457031 L 412.5625 148.1875 L 412.5625 141.742188 L 412.800781 131.542969 L 413.355469 118.65625 L 413.914062 109.796875 L 415.34375 93.957031 L 417.328125 78.652344 L 419.394531 66.839844 L 420.902344 59.859375 L 422.253906 54.492188 L 425.351562 44.558594 L 427.339844 39.457031 L 429.484375 34.890625 L 432.105469 30.328125 L 434.011719 27.644531 L 438.300781 23.347656 L 441.480469 21.46875 L 443.941406 20.664062 L 449.265625 20.664062 L 452.441406 21.738281 L 454.746094 23.078125 L 457.289062 25.226562 L 459.433594 27.644531 L 463.167969 33.550781 L 466.503906 41.066406 L 468.011719 45.363281 L 470.394531 53.683594 L 472.222656 61.738281 L 473.492188 68.71875 L 474.925781 78.652344 L 476.195312 90.734375 L 477.148438 104.425781 L 477.625 115.96875 L 466.503906 115.96875 L 465.945312 105.230469 L 465.3125 96.910156 L 464.121094 85.902344 L 462.929688 78.117188 L 461.261719 70.332031 L 459.75 65.230469 L 457.683594 60.128906 L 455.859375 56.90625 L 453.953125 54.492188 L 452.125 52.878906 L 448.628906 51.269531 L 444.578125 51.269531 L 443.066406 51.804688 L 439.96875 53.953125 L 438.300781 55.832031 L 435.917969 59.589844 L 434.25 63.082031 L 432.265625 68.449219 L 430.914062 73.015625 L 429.246094 79.996094 L 428.054688 86.171875 L 426.703125 95.03125 L 425.910156 101.742188 L 425.195312 109.257812 L 424.558594 118.117188 L 424.082031 127.515625 L 423.761719 137.449219 L 423.605469 147.113281 L 423.605469 188.726562 L 423.761719 198.390625 L 424.160156 209.667969 L 425.195312 226.042969 L 426.703125 240.273438 L 428.449219 251.546875 L 430.117188 259.601562 L 431.070312 263.359375 L 432.34375 267.65625 L 434.328125 273.027344 L 437.1875 278.394531 L 438.859375 280.542969 L 441.398438 282.691406 L 444.019531 283.765625 L 447.515625 283.765625 L 450.613281 282.691406 L 452.679688 281.347656 L 454.824219 279.199219 L 457.765625 274.636719 L 459.589844 270.339844 L 461.179688 265.242188 L 462.371094 260.140625 L 463.167969 255.84375 L 464.359375 247.519531 L 465.3125 238.394531 L 466.027344 228.996094 L 466.503906 219.867188 L 477.625 219.867188 L 477.148438 230.609375 L 476.433594 241.078125 L 475.71875 248.863281 L 474.605469 258.261719 L 473.335938 266.582031 L 471.507812 275.980469 L 470 282.152344 L 468.011719 288.867188 L 466.183594 293.96875 L 464.199219 298.53125 L 461.261719 303.898438 L 459.351562 306.585938 L 457.289062 309 L 454.824219 311.148438 L 451.726562 313.027344 L 448.390625 314.101562 L 445.292969 314.371094 L 441.957031 313.832031 L 439.492188 312.761719 L 436.234375 310.34375 L 432.183594 305.511719 L 429.246094 300.410156 L 426.941406 295.308594 L 424.957031 289.941406 L 422.730469 282.691406 L 419.871094 270.878906 L 418.125 261.75 L 416.929688 254.234375 L 415.582031 243.761719 L 414.628906 234.367188 L 413.515625 219.332031 L 412.722656 200.269531 L 412.484375 185.503906 Z M 412.484375 148.457031 "/>
<path style=" stroke:none;fill-rule:nonzero;fill:rgb(14.509804%,36.078431%,60%);fill-opacity:1;" d="M 481.054688 148.457031 L 481.132812 148.1875 L 481.132812 141.742188 L 481.371094 131.542969 L 481.925781 118.65625 L 482.484375 109.796875 L 483.914062 93.957031 L 485.898438 78.652344 L 487.964844 66.839844 L 489.472656 59.859375 L 490.824219 54.492188 L 493.921875 44.558594 L 495.910156 39.457031 L 498.054688 34.890625 L 500.675781 30.328125 L 502.582031 27.644531 L 506.871094 23.347656 L 510.050781 21.46875 L 512.511719 20.664062 L 517.835938 20.664062 L 521.011719 21.738281 L 523.316406 23.078125 L 525.859375 25.226562 L 528.003906 27.644531 L 531.738281 33.550781 L 535.074219 41.066406 L 536.582031 45.363281 L 538.964844 53.683594 L 540.792969 61.738281 L 542.066406 68.71875 L 543.496094 78.652344 L 544.765625 90.734375 L 545.71875 104.425781 L 546.195312 115.96875 L 535.074219 115.96875 L 534.519531 105.230469 L 533.882812 96.910156 L 532.691406 85.902344 L 531.5 78.117188 L 529.832031 70.332031 L 528.320312 65.230469 L 526.253906 60.128906 L 524.429688 56.90625 L 522.523438 54.492188 L 520.695312 52.878906 L 517.199219 51.269531 L 513.148438 51.269531 L 511.636719 51.804688 L 508.539062 53.953125 L 506.871094 55.832031 L 504.488281 59.589844 L 502.820312 63.082031 L 500.835938 68.449219 L 499.484375 73.015625 L 497.816406 79.996094 L 496.625 86.171875 L 495.273438 95.03125 L 494.480469 101.742188 L 493.765625 109.257812 L 493.128906 118.117188 L 492.652344 127.515625 L 492.335938 137.449219 L 492.175781 147.113281 L 492.175781 188.726562 L 492.335938 198.390625 L 492.730469 209.667969 L 493.765625 226.042969 L 495.273438 240.273438 L 497.019531 251.546875 L 498.691406 259.601562 L 499.644531 263.359375 L 500.914062 267.65625 L 502.898438 273.027344 L 505.761719 278.394531 L 507.429688 280.542969 L 509.96875 282.691406 L 512.59375 283.765625 L 516.085938 283.765625 L 519.183594 282.691406 L 521.25 281.347656 L 523.394531 279.199219 L 526.335938 274.636719 L 528.164062 270.339844 L 529.75 265.242188 L 530.941406 260.140625 L 531.738281 255.84375 L 532.929688 247.519531 L 533.882812 238.394531 L 534.597656 228.996094 L 535.074219 219.867188 L 546.195312 219.867188 L 545.71875 230.609375 L 545.003906 241.078125 L 544.289062 248.863281 L 543.175781 258.261719 L 541.90625 266.582031 L 540.078125 275.980469 L 538.570312 282.152344 L 536.582031 288.867188 L 534.757812 293.96875 L 532.769531 298.53125 L 529.832031 303.898438 L 527.925781 306.585938 L 525.859375 309 L 523.394531 311.148438 L 520.296875 313.027344 L 516.960938 314.101562 L 513.863281 314.371094 L 510.527344 313.832031 L 508.0625 312.761719 L 504.804688 310.34375 L 500.753906 305.511719 L 497.816406 300.410156 L 495.511719 295.308594 L 493.527344 289.941406 L 491.300781 282.691406 L 488.441406 270.878906 L 486.695312 261.75 L 485.503906 254.234375 L 484.152344 243.761719 L 483.199219 234.367188 L 482.085938 219.332031 L 481.292969 200.269531 L 481.054688 185.503906 Z M 481.054688 148.457031 "/>
<path style=" stroke:none;fill-rule:nonzero;fill:rgb(6.27451%,58.823529%,28.235294%);fill-opacity:1;" d="M 549.625 311.671875 L 549.695312 311.664062 L 577.878906 302.097656 L 586.441406 302.097656 L 614.765625 311.679688 L 604.8125 311.679688 L 597.714844 309.179688 L 566.605469 309.179688 L 559.644531 311.671875 L 549.625 311.671875 L 569.597656 308.144531 L 594.863281 308.136719 L 582.265625 303.664062 L 582.125 303.65625 L 581.988281 303.683594 L 569.527344 308.136719 L 569.597656 308.144531 Z M 549.625 311.671875 "/>
<path style=" stroke:none;fill-rule:nonzero;fill:rgb(14.509804%,36.078431%,60%);fill-opacity:1;" d="M 549.625 272 L 549.703125 271.972656 L 549.703125 271.320312 L 549.941406 270.285156 L 550.496094 268.980469 L 551.054688 268.082031 L 552.484375 266.476562 L 554.46875 264.925781 L 556.535156 263.730469 L 558.046875 263.023438 L 559.394531 262.480469 L 562.492188 261.472656 L 564.480469 260.957031 L 566.625 260.492188 L 569.246094 260.03125 L 571.152344 259.757812 L 575.441406 259.324219 L 578.621094 259.132812 L 581.082031 259.050781 L 586.40625 259.050781 L 589.582031 259.160156 L 591.886719 259.296875 L 594.429688 259.515625 L 596.574219 259.757812 L 600.308594 260.355469 L 603.644531 261.117188 L 605.152344 261.554688 L 607.539062 262.398438 L 609.363281 263.214844 L 610.636719 263.921875 L 612.066406 264.925781 L 613.335938 266.152344 L 614.289062 267.539062 L 614.765625 268.707031 L 603.644531 268.707031 L 603.089844 267.621094 L 602.453125 266.777344 L 601.261719 265.660156 L 600.070312 264.871094 L 598.402344 264.085938 L 596.890625 263.566406 L 594.828125 263.050781 L 593 262.722656 L 591.09375 262.480469 L 589.265625 262.316406 L 585.769531 262.152344 L 581.71875 262.152344 L 580.210938 262.207031 L 577.109375 262.425781 L 575.441406 262.613281 L 573.058594 262.996094 L 571.390625 263.347656 L 569.40625 263.894531 L 568.054688 264.355469 L 566.386719 265.0625 L 565.195312 265.6875 L 563.84375 266.585938 L 563.050781 267.265625 L 562.335938 268.027344 L 561.699219 268.925781 L 561.222656 269.878906 L 560.90625 270.886719 L 560.746094 271.863281 L 560.746094 276.082031 L 560.90625 277.058594 L 561.300781 278.203125 L 562.335938 279.863281 L 563.84375 281.304688 L 565.59375 282.445312 L 567.261719 283.261719 L 568.214844 283.644531 L 569.484375 284.078125 L 571.46875 284.621094 L 574.332031 285.167969 L 576 285.382812 L 578.539062 285.601562 L 581.164062 285.710938 L 584.65625 285.710938 L 587.757812 285.601562 L 589.820312 285.464844 L 591.964844 285.25 L 594.90625 284.785156 L 596.734375 284.351562 L 598.320312 283.832031 L 599.511719 283.316406 L 600.308594 282.882812 L 601.5 282.039062 L 602.453125 281.113281 L 603.167969 280.160156 L 603.644531 279.234375 L 614.765625 279.234375 L 614.289062 280.324219 L 613.574219 281.386719 L 612.859375 282.175781 L 611.746094 283.125 L 610.476562 283.96875 L 608.648438 284.921875 L 607.140625 285.546875 L 605.152344 286.226562 L 603.328125 286.746094 L 601.339844 287.207031 L 598.402344 287.75 L 596.496094 288.023438 L 594.429688 288.269531 L 591.964844 288.484375 L 588.867188 288.675781 L 585.53125 288.785156 L 582.433594 288.8125 L 579.097656 288.757812 L 576.632812 288.648438 L 573.378906 288.402344 L 569.324219 287.914062 L 566.386719 287.398438 L 564.082031 286.878906 L 562.097656 286.335938 L 559.871094 285.601562 L 557.011719 284.40625 L 555.265625 283.480469 L 554.074219 282.71875 L 552.722656 281.65625 L 551.769531 280.707031 L 550.65625 279.183594 L 549.863281 277.25 L 549.625 275.753906 Z M 549.625 272 "/>
<path style=" stroke:none;fill-rule:nonzero;fill:rgb(96.862745%,70.196078%,16.862745%);fill-opacity:1;" d="M 549.625 313.507812 L 549.703125 313.503906 L 549.703125 313.476562 L 550.019531 313.414062 L 550.816406 313.332031 L 551.847656 313.261719 L 552.960938 313.203125 L 553.675781 313.175781 L 554.867188 313.132812 L 555.898438 313.105469 L 558.523438 313.042969 L 561.859375 312.984375 L 563.683594 312.960938 L 565.75 312.9375 L 568.691406 312.910156 L 570.039062 312.898438 L 574.171875 312.878906 L 578.859375 312.863281 L 584.023438 312.859375 L 586.40625 312.859375 L 589.664062 312.867188 L 594.113281 312.882812 L 596.652344 312.894531 L 598.640625 312.910156 L 600.707031 312.925781 L 603.246094 312.953125 L 605.628906 312.988281 L 607.539062 313.019531 L 609.445312 313.0625 L 611.03125 313.105469 L 612.382812 313.15625 L 613.574219 313.214844 L 614.289062 313.261719 L 614.765625 313.308594 L 603.722656 313.308594 L 603.089844 313.261719 L 602.375 313.222656 L 601.183594 313.179688 L 599.988281 313.144531 L 598.796875 313.121094 L 596.574219 313.082031 L 594.667969 313.0625 L 592.285156 313.042969 L 589.980469 313.03125 L 587.359375 313.019531 L 581.558594 313.019531 L 577.746094 313.027344 L 575.523438 313.039062 L 573.933594 313.050781 L 571.707031 313.070312 L 570.359375 313.085938 L 569.5625 313.097656 L 567.179688 313.140625 L 565.59375 313.179688 L 564.71875 313.207031 L 563.605469 313.246094 L 562.8125 313.285156 L 561.9375 313.339844 L 561.460938 313.382812 L 560.824219 313.476562 L 560.746094 313.722656 L 560.984375 313.777344 L 561.460938 313.832031 L 562.097656 313.882812 L 563.050781 313.933594 L 564.003906 313.976562 L 565.671875 314.027344 L 567.101562 314.0625 L 568.214844 314.085938 L 570.359375 314.125 L 571.230469 314.136719 L 573.296875 314.164062 L 575.441406 314.179688 L 578.0625 314.199219 L 580.050781 314.207031 L 583.226562 314.214844 L 587.28125 314.214844 L 592.046875 314.207031 L 595.066406 314.195312 L 597.128906 314.183594 L 598.480469 314.171875 L 600.148438 314.15625 L 601.339844 314.144531 L 602.453125 314.128906 L 603.804688 314.105469 L 603.804688 313.777344 L 584.179688 313.773438 L 584.179688 313.621094 L 614.6875 313.617188 L 614.765625 314.15625 L 613.097656 314.195312 L 611.03125 314.230469 L 609.046875 314.257812 L 606.980469 314.28125 L 604.042969 314.308594 L 601.660156 314.324219 L 598.003906 314.34375 L 594.667969 314.355469 L 591.171875 314.363281 L 588.074219 314.371094 L 584.417969 314.371094 L 581.164062 314.367188 L 577.667969 314.359375 L 574.886719 314.347656 L 572.34375 314.335938 L 569.800781 314.316406 L 566.625 314.289062 L 564.558594 314.265625 L 562.414062 314.234375 L 560.269531 314.199219 L 558.363281 314.164062 L 557.089844 314.132812 L 555.820312 314.101562 L 554.46875 314.058594 L 553.199219 314.011719 L 552.246094 313.96875 L 551.371094 313.921875 L 550.738281 313.875 L 550.101562 313.816406 L 549.78125 313.765625 L 549.625 313.722656 Z M 549.625 313.507812 "/>
<path style=" stroke:none;fill-rule:nonzero;fill:rgb(83.921569%,15.686275%,22.352941%);fill-opacity:1;" d="M 549.625 289.992188 L 614.765625 289.992188 L 614.765625 291.160156 L 587.617188 291.171875 L 587.617188 300.917969 L 576.695312 300.917969 L 576.695312 291.179688 L 576.535156 291.160156 L 549.625 291.160156 Z M 549.625 289.992188 "/>
<path style=" stroke:none;fill-rule:nonzero;fill:rgb(6.27451%,58.823529%,28.235294%);fill-opacity:1;" d="M 618.195312 298.617188 L 618.265625 298.609375 L 646.449219 290.113281 L 655.011719 290.113281 L 683.335938 298.625 L 673.382812 298.625 L 666.285156 296.402344 L 635.175781 296.402344 L 628.214844 298.617188 L 618.195312 298.617188 L 638.167969 295.484375 L 663.433594 295.476562 L 650.835938 291.503906 L 650.695312 291.496094 L 650.558594 291.519531 L 638.097656 295.476562 L 638.167969 295.484375 Z M 618.195312 298.617188 "/>
<path style=" stroke:none;fill-rule:nonzero;fill:rgb(14.509804%,36.078431%,60%);fill-opacity:1;" d="M 618.195312 309.957031 L 618.273438 309.953125 L 618.273438 309.898438 L 618.511719 309.816406 L 619.070312 309.707031 L 619.625 309.632812 L 621.054688 309.5 L 623.039062 309.371094 L 625.105469 309.273438 L 626.617188 309.214844 L 627.964844 309.171875 L 631.0625 309.089844 L 633.050781 309.046875 L 635.195312 309.007812 L 637.816406 308.96875 L 639.722656 308.945312 L 644.011719 308.910156 L 647.191406 308.894531 L 649.652344 308.886719 L 654.976562 308.886719 L 658.152344 308.898438 L 660.457031 308.910156 L 663 308.925781 L 665.144531 308.945312 L 668.878906 308.996094 L 672.214844 309.058594 L 673.722656 309.09375 L 676.109375 309.164062 L 677.933594 309.230469 L 679.207031 309.289062 L 680.636719 309.371094 L 681.90625 309.472656 L 682.859375 309.589844 L 683.335938 309.683594 L 672.214844 309.683594 L 671.660156 309.59375 L 671.023438 309.527344 L 669.832031 309.433594 L 668.640625 309.367188 L 666.972656 309.304688 L 665.460938 309.261719 L 663.398438 309.21875 L 661.570312 309.191406 L 659.664062 309.171875 L 657.835938 309.15625 L 654.339844 309.144531 L 650.289062 309.144531 L 648.78125 309.148438 L 645.683594 309.167969 L 644.011719 309.183594 L 641.628906 309.214844 L 639.960938 309.242188 L 637.976562 309.289062 L 636.625 309.324219 L 634.957031 309.382812 L 633.765625 309.4375 L 632.414062 309.511719 L 631.621094 309.566406 L 630.90625 309.628906 L 630.269531 309.703125 L 629.792969 309.78125 L 629.476562 309.863281 L 629.316406 309.945312 L 629.316406 310.292969 L 629.476562 310.375 L 629.871094 310.46875 L 630.90625 310.605469 L 632.414062 310.722656 L 634.164062 310.816406 L 635.832031 310.886719 L 636.785156 310.917969 L 638.054688 310.953125 L 640.042969 310.996094 L 642.902344 311.042969 L 644.570312 311.058594 L 647.113281 311.078125 L 649.734375 311.085938 L 653.230469 311.085938 L 656.328125 311.078125 L 658.390625 311.066406 L 660.539062 311.046875 L 663.476562 311.011719 L 665.304688 310.976562 L 666.894531 310.933594 L 668.085938 310.890625 L 668.878906 310.855469 L 670.070312 310.785156 L 671.023438 310.707031 L 671.738281 310.628906 L 672.214844 310.554688 L 683.335938 310.554688 L 682.859375 310.644531 L 682.144531 310.730469 L 681.429688 310.796875 L 680.316406 310.875 L 679.046875 310.941406 L 677.21875 311.023438 L 675.710938 311.074219 L 673.722656 311.128906 L 671.898438 311.171875 L 669.910156 311.210938 L 666.972656 311.253906 L 665.066406 311.277344 L 663 311.296875 L 660.539062 311.316406 L 657.4375 311.332031 L 654.101562 311.339844 L 651.003906 311.34375 L 647.667969 311.339844 L 645.203125 311.328125 L 641.949219 311.308594 L 637.894531 311.269531 L 634.957031 311.226562 L 632.652344 311.183594 L 630.667969 311.136719 L 628.441406 311.078125 L 625.582031 310.980469 L 623.835938 310.902344 L 622.644531 310.839844 L 621.292969 310.753906 L 620.339844 310.675781 L 619.226562 310.546875 L 618.433594 310.390625 L 618.195312 310.265625 Z M 618.195312 309.957031 "/>
<path style=" stroke:none;fill-rule:nonzero;fill:rgb(96.862745%,70.196078%,16.862745%);fill-opacity:1;" d="M 618.195312 303.191406 L 618.273438 303.183594 L 618.273438 303.039062 L 618.59375 302.714844 L 619.386719 302.265625 L 620.417969 301.898438 L 621.53125 301.609375 L 622.246094 301.457031 L 623.4375 301.242188 L 624.472656 301.082031 L 627.09375 300.757812 L 630.429688 300.453125 L 632.257812 300.324219 L 634.320312 300.203125 L 637.261719 300.0625 L 638.613281 300.015625 L 642.742188 299.898438 L 647.429688 299.824219 L 652.59375 299.804688 L 654.976562 299.8125 L 658.234375 299.839844 L 662.683594 299.917969 L 665.222656 299.992188 L 667.210938 300.0625 L 669.277344 300.15625 L 671.816406 300.300781 L 674.203125 300.476562 L 676.109375 300.648438 L 678.015625 300.867188 L 679.601562 301.097656 L 680.953125 301.347656 L 682.144531 301.652344 L 682.859375 301.90625 L 683.335938 302.15625 L 672.292969 302.15625 L 671.660156 301.90625 L 670.945312 301.710938 L 669.753906 301.472656 L 668.5625 301.296875 L 667.371094 301.160156 L 665.144531 300.972656 L 663.238281 300.859375 L 660.855469 300.757812 L 658.550781 300.691406 L 655.929688 300.648438 L 654.339844 300.632812 L 650.128906 300.632812 L 646.316406 300.683594 L 644.09375 300.742188 L 642.503906 300.800781 L 640.28125 300.910156 L 638.929688 300.996094 L 638.132812 301.054688 L 635.75 301.277344 L 634.164062 301.480469 L 633.289062 301.617188 L 632.175781 301.832031 L 631.382812 302.027344 L 630.507812 302.316406 L 630.03125 302.53125 L 629.394531 303.023438 L 629.316406 304.324219 L 629.554688 304.597656 L 630.03125 304.894531 L 630.667969 305.152344 L 631.621094 305.429688 L 632.574219 305.636719 L 634.242188 305.917969 L 635.671875 306.105469 L 636.785156 306.230469 L 638.929688 306.425781 L 639.804688 306.488281 L 641.867188 306.617188 L 644.011719 306.71875 L 646.636719 306.804688 L 648.621094 306.851562 L 651.796875 306.886719 L 655.851562 306.886719 L 660.617188 306.84375 L 663.636719 306.785156 L 665.699219 306.726562 L 667.050781 306.675781 L 668.71875 306.597656 L 669.910156 306.523438 L 671.023438 306.445312 L 672.375 306.324219 L 672.375 304.597656 L 652.753906 304.589844 L 652.753906 303.78125 L 683.257812 303.773438 L 683.335938 306.597656 L 681.667969 306.792969 L 679.601562 306.980469 L 677.617188 307.125 L 675.550781 307.246094 L 672.613281 307.382812 L 670.230469 307.472656 L 666.574219 307.570312 L 663.238281 307.636719 L 659.742188 307.679688 L 656.644531 307.703125 L 652.992188 307.707031 L 649.734375 307.695312 L 646.238281 307.652344 L 643.457031 307.59375 L 640.914062 307.519531 L 638.375 307.425781 L 635.195312 307.277344 L 633.128906 307.152344 L 630.984375 307 L 628.839844 306.820312 L 626.933594 306.625 L 625.664062 306.472656 L 624.390625 306.300781 L 623.039062 306.085938 L 621.769531 305.839844 L 620.816406 305.617188 L 619.941406 305.363281 L 619.308594 305.125 L 618.671875 304.800781 L 618.355469 304.539062 L 618.195312 304.316406 Z M 618.195312 303.191406 "/>
<path style=" stroke:none;fill-rule:nonzero;fill:rgb(83.921569%,15.686275%,22.352941%);fill-opacity:1;" d="M 618.195312 312.523438 L 683.335938 312.523438 L 683.335938 312.71875 L 656.1875 312.722656 L 656.1875 314.371094 L 645.265625 314.371094 L 645.265625 312.722656 L 645.105469 312.71875 L 618.195312 312.71875 Z M 618.195312 312.523438 "/>
<g style="fill:rgb(0%,0%,0%);fill-opacity:1;">
  <use xlink:href="#glyph0-1" x="21.957031" y="318.198242"/>
  <use xlink:href="#glyph0-2" x="27.291016" y="318.198242"/>
  <use xlink:href="#glyph0-1" x="29.958008" y="318.198242"/>
</g>
<g style="fill:rgb(0%,0%,0%);fill-opacity:1;">
  <use xlink:href="#glyph0-1" x="21.957031" y="244.475586"/>
  <use xlink:href="#glyph0-2" x="27.291016" y="244.475586"/>
  <use xlink:href="#glyph0-3" x="29.958008" y="244.475586"/>
</g>
<g style="fill:rgb(0%,0%,0%);fill-opacity:1;">
  <use xlink:href="#glyph0-4" x="21.957031" y="170.75293"/>
  <use xlink:href="#glyph0-2" x="27.291016" y="170.75293"/>
  <use xlink:href="#glyph0-1" x="29.958008" y="170.75293"/>
</g>
<g style="fill:rgb(0%,0%,0%);fill-opacity:1;">
  <use xlink:href="#glyph0-4" x="21.957031" y="97.03418"/>
  <use xlink:href="#glyph0-2" x="27.291016" y="97.03418"/>
  <use xlink:href="#glyph0-3" x="29.958008" y="97.03418"/>
</g>
<g style="fill:rgb(0%,0%,0%);fill-opacity:1;">
  <use xlink:href="#glyph0-5" x="21.957031" y="23.311523"/>
  <use xlink:href="#glyph0-2" x="27.291016" y="23.311523"/>
  <use xlink:href="#glyph0-1" x="29.958008" y="23.311523"/>
</g>
<g style="fill:rgb(0%,0%,0%);fill-opacity:1;">
  <use xlink:href="#glyph0-4" x="99.199219" y="338.19043"/>
</g>
<g style="fill:rgb(0%,0%,0%);fill-opacity:1;">
  <use xlink:href="#glyph0-5" x="167.769531" y="338.19043"/>
</g>
<g style="fill:rgb(0%,0%,0%);fill-opacity:1;">
  <use xlink:href="#glyph0-6" x="236.34375" y="338.19043"/>
</g>
<g style="fill:rgb(0%,0%,0%);fill-opacity:1;">
  <use xlink:href="#glyph0-7" x="304.914062" y="338.19043"/>
</g>
<g style="fill:rgb(0%,0%,0%);fill-opacity:1;">
  <use xlink:href="#glyph0-3" x="373.484375" y="338.19043"/>
</g>
<g style="fill:rgb(0%,0%,0%);fill-opacity:1;">
  <use xlink:href="#glyph0-8" x="442.054688" y="338.19043"/>
</g>
<g style="fill:rgb(0%,0%,0%);fill-opacity:1;">
  <use xlink:href="#glyph0-9" x="510.625" y="338.19043"/>
</g>
<g style="fill:rgb(0%,0%,0%);fill-opacity:1;">
  <use xlink:href="#glyph0-10" x="579.195312" y="338.19043"/>
</g>
<g style="fill:rgb(0%,0%,0%);fill-opacity:1;">
  <use xlink:href="#glyph0-11" x="647.765625" y="338.19043"/>
</g>
<g style="fill:rgb(0%,0%,0%);fill-opacity:1;">
  <use xlink:href="#glyph1-1" x="14.412109" y="178.015625"/>
  <use xlink:href="#glyph1-2" x="14.412109" y="170.011719"/>
  <use xlink:href="#glyph1-3" x="14.412109" y="167.347656"/>
  <use xlink:href="#glyph1-4" x="14.412109" y="164.011719"/>
</g>
</g>
</svg>
