<?xml version="1.0" encoding="UTF-8"?>
<svg xmlns="http://www.w3.org/2000/svg" xmlns:xlink="http://www.w3.org/1999/xlink" width="720pt" height="360pt" viewBox="0 0 720 360" version="1.1">
<defs>
<g>
<symbol overflow="visible" id="glyph0-0">
<path style="stroke:none;" d=""/>
</symbol>
<symbol overflow="visible" id="glyph0-1">
<path style="stroke:none;" d="M 2.640625 -6.796875 C 2 -6.796875 1.421875 -6.53125 1.078125 -6.046875 C 0.640625 -5.453125 0.40625 -4.546875 0.40625 -3.296875 C 0.40625 -1 1.1875 0.21875 2.640625 0.21875 C 4.078125 0.21875 4.859375 -1 4.859375 -3.234375 C 4.859375 -4.5625 4.65625 -5.4375 4.203125 -6.046875 C 3.84375 -6.53125 3.28125 -6.796875 2.640625 -6.796875 Z M 2.640625 -6.046875 C 3.546875 -6.046875 4 -5.125 4 -3.3125 C 4 -1.375 3.5625 -0.484375 2.625 -0.484375 C 1.734375 -0.484375 1.28125 -1.421875 1.28125 -3.28125 C 1.28125 -5.140625 1.734375 -6.046875 2.640625 -6.046875 Z M 2.640625 -6.046875 "/>
</symbol>
<symbol overflow="visible" id="glyph0-2">
<path style="stroke:none;" d="M 1.828125 -1 L 0.828125 -1 L 0.828125 0 L 1.828125 0 Z M 1.828125 -1 "/>
</symbol>
<symbol overflow="visible" id="glyph0-3">
<path style="stroke:none;" d="M 4.5625 -6.796875 L 1.0625 -6.796875 L 0.546875 -3.09375 L 1.328125 -3.09375 C 1.71875 -3.5625 2.046875 -3.734375 2.578125 -3.734375 C 3.484375 -3.734375 4.0625 -3.109375 4.0625 -2.09375 C 4.0625 -1.125 3.484375 -0.53125 2.578125 -0.53125 C 1.828125 -0.53125 1.375 -0.90625 1.1875 -1.671875 L 0.328125 -1.671875 C 0.453125 -1.109375 0.546875 -0.84375 0.75 -0.59375 C 1.125 -0.078125 1.828125 0.21875 2.59375 0.21875 C 3.96875 0.21875 4.921875 -0.78125 4.921875 -2.21875 C 4.921875 -3.5625 4.03125 -4.484375 2.71875 -4.484375 C 2.25 -4.484375 1.859375 -4.359375 1.46875 -4.0625 L 1.734375 -5.96875 L 4.5625 -5.96875 Z M 4.5625 -6.796875 "/>
</symbol>
<symbol overflow="visible" id="glyph0-4">
<path style="stroke:none;" d="M 2.484375 -4.84375 L 2.484375 0 L 3.328125 0 L 3.328125 -6.796875 L 2.765625 -6.796875 C 2.46875 -5.75 2.28125 -5.609375 0.984375 -5.453125 L 0.984375 -4.84375 Z M 2.484375 -4.84375 "/>
</symbol>
<symbol overflow="visible" id="glyph0-5">
<path style="stroke:none;" d="M 4.859375 -0.828125 L 1.28125 -0.828125 C 1.359375 -1.390625 1.671875 -1.75 2.5 -2.234375 L 3.46875 -2.75 C 4.40625 -3.265625 4.90625 -3.96875 4.90625 -4.8125 C 4.90625 -5.375 4.671875 -5.90625 4.265625 -6.265625 C 3.859375 -6.625 3.375 -6.796875 2.71875 -6.796875 C 1.859375 -6.796875 1.21875 -6.5 0.84375 -5.921875 C 0.609375 -5.5625 0.5 -5.125 0.484375 -4.4375 L 1.328125 -4.4375 C 1.359375 -4.90625 1.40625 -5.1875 1.53125 -5.40625 C 1.75 -5.8125 2.1875 -6.0625 2.703125 -6.0625 C 3.46875 -6.0625 4.03125 -5.515625 4.03125 -4.78125 C 4.03125 -4.25 3.71875 -3.796875 3.125 -3.4375 L 2.234375 -2.9375 C 0.8125 -2.140625 0.40625 -1.5 0.328125 0 L 4.859375 0 Z M 4.859375 -0.828125 "/>
</symbol>
<symbol overflow="visible" id="glyph0-6">
<path style="stroke:none;" d="M 2.125 -3.125 L 2.578125 -3.125 C 3.515625 -3.125 3.984375 -2.703125 3.984375 -1.890625 C 3.984375 -1.03125 3.46875 -0.53125 2.578125 -0.53125 C 1.65625 -0.53125 1.203125 -0.984375 1.15625 -1.96875 L 0.3125 -1.96875 C 0.34375 -1.421875 0.4375 -1.078125 0.609375 -0.765625 C 0.953125 -0.109375 1.625 0.21875 2.546875 0.21875 C 3.953125 0.21875 4.859375 -0.609375 4.859375 -1.90625 C 4.859375 -2.765625 4.515625 -3.25 3.703125 -3.515625 C 4.34375 -3.765625 4.65625 -4.25 4.65625 -4.9375 C 4.65625 -6.109375 3.875 -6.796875 2.578125 -6.796875 C 1.203125 -6.796875 0.484375 -6.046875 0.453125 -4.609375 L 1.296875 -4.609375 C 1.3125 -5.015625 1.34375 -5.25 1.453125 -5.453125 C 1.640625 -5.828125 2.0625 -6.0625 2.59375 -6.0625 C 3.34375 -6.0625 3.796875 -5.625 3.796875 -4.90625 C 3.796875 -4.421875 3.609375 -4.140625 3.25 -3.984375 C 3.015625 -3.890625 2.71875 -3.84375 2.125 -3.84375 Z M 2.125 -3.125 "/>
</symbol>
<symbol overflow="visible" id="glyph0-7">
<path style="stroke:none;" d="M 3.140625 -1.625 L 3.140625 0 L 3.984375 0 L 3.984375 -1.625 L 4.984375 -1.625 L 4.984375 -2.390625 L 3.984375 -2.390625 L 3.984375 -6.796875 L 3.359375 -6.796875 L 0.265625 -2.515625 L 0.265625 -1.625 Z M 3.140625 -2.390625 L 1 -2.390625 L 3.140625 -5.359375 Z M 3.140625 -2.390625 "/>
</symbol>
<symbol overflow="visible" id="glyph0-8">
<path style="stroke:none;" d="M 4.78125 -5.03125 C 4.609375 -6.140625 3.890625 -6.796875 2.84375 -6.796875 C 2.09375 -6.796875 1.421875 -6.4375 1.03125 -5.828125 C 0.609375 -5.171875 0.40625 -4.34375 0.40625 -3.09375 C 0.40625 -1.953125 0.578125 -1.234375 0.984375 -0.625 C 1.359375 -0.078125 1.953125 0.21875 2.703125 0.21875 C 3.984375 0.21875 4.921875 -0.734375 4.921875 -2.078125 C 4.921875 -3.34375 4.0625 -4.234375 2.84375 -4.234375 C 2.171875 -4.234375 1.640625 -3.96875 1.28125 -3.46875 C 1.28125 -5.125 1.828125 -6.046875 2.796875 -6.046875 C 3.390625 -6.046875 3.796875 -5.671875 3.9375 -5.03125 Z M 2.734375 -3.484375 C 3.546875 -3.484375 4.0625 -2.921875 4.0625 -2 C 4.0625 -1.15625 3.484375 -0.53125 2.703125 -0.53125 C 1.921875 -0.53125 1.328125 -1.1875 1.328125 -2.046875 C 1.328125 -2.890625 1.90625 -3.484375 2.734375 -3.484375 Z M 2.734375 -3.484375 "/>
</symbol>
<symbol overflow="visible" id="glyph0-9">
<path style="stroke:none;" d="M 4.984375 -6.796875 L 0.4375 -6.796875 L 0.4375 -5.96875 L 4.109375 -5.96875 C 2.5 -3.65625 1.828125 -2.234375 1.328125 0 L 2.21875 0 C 2.59375 -2.171875 3.453125 -4.046875 4.984375 -6.09375 Z M 4.984375 -6.796875 "/>
</symbol>
<symbol overflow="visible" id="glyph1-0">
<path style="stroke:none;" d=""/>
</symbol>
<symbol overflow="visible" id="glyph1-1">
<path style="stroke:none;" d="M 0 -0.953125 L 0 -4.890625 C 0 -5.71875 -0.234375 -6.34375 -0.734375 -6.796875 C -1.1875 -7.234375 -1.8125 -7.46875 -2.5 -7.46875 C -3.546875 -7.46875 -4.1875 -7 -4.625 -5.875 C -4.984375 -6.671875 -5.640625 -7.09375 -6.53125 -7.09375 C -7.15625 -7.09375 -7.734375 -6.859375 -8.140625 -6.390625 C -8.5625 -5.9375 -8.75 -5.34375 -8.75 -4.5 L -8.75 -0.953125 Z M -4.984375 -2.0625 L -7.765625 -2.0625 L -7.765625 -4.21875 C -7.765625 -4.84375 -7.6875 -5.203125 -7.453125 -5.5 C -7.21875 -5.8125 -6.859375 -5.96875 -6.375 -5.96875 C -5.90625 -5.96875 -5.53125 -5.8125 -5.296875 -5.5 C -5.0625 -5.203125 -4.984375 -4.84375 -4.984375 -4.21875 Z M -0.984375 -2.0625 L -4 -2.0625 L -4 -4.78125 C -4 -5.328125 -3.859375 -5.6875 -3.578125 -5.953125 C -3.296875 -6.21875 -2.921875 -6.359375 -2.484375 -6.359375 C -2.0625 -6.359375 -1.6875 -6.21875 -1.40625 -5.953125 C -1.109375 -5.6875 -0.984375 -5.328125 -0.984375 -4.78125 Z M -0.984375 -2.0625 "/>
</symbol>
<symbol overflow="visible" id="glyph1-2">
<path style="stroke:none;" d="M -6.28125 -1.796875 L -6.28125 -0.796875 L 0 -0.796875 L 0 -1.796875 Z M -8.75 -1.796875 L -8.75 -0.796875 L -7.484375 -0.796875 L -7.484375 -1.796875 Z M -8.75 -1.796875 "/>
</symbol>
<symbol overflow="visible" id="glyph1-3">
<path style="stroke:none;" d="M -6.28125 -3.046875 L -6.28125 -2.015625 L -8.015625 -2.015625 L -8.015625 -1.015625 L -6.28125 -1.015625 L -6.28125 -0.171875 L -5.46875 -0.171875 L -5.46875 -1.015625 L -0.71875 -1.015625 C -0.078125 -1.015625 0.28125 -1.453125 0.28125 -2.234375 C 0.28125 -2.46875 0.25 -2.71875 0.1875 -3.046875 L -0.640625 -3.046875 C -0.609375 -2.921875 -0.59375 -2.765625 -0.59375 -2.5625 C -0.59375 -2.140625 -0.71875 -2.015625 -1.15625 -2.015625 L -5.46875 -2.015625 L -5.46875 -3.046875 Z M -6.28125 -3.046875 "/>
</symbol>
<symbol overflow="visible" id="glyph1-4">
<path style="stroke:none;" d="M -4.53125 -5.25 C -5.765625 -5.25 -6.46875 -4.421875 -6.46875 -2.96875 C -6.46875 -1.515625 -5.71875 -0.5625 -4.546875 -0.5625 C -3.5625 -0.5625 -3.09375 -1.0625 -2.734375 -2.5625 L -2.515625 -3.484375 C -2.34375 -4.1875 -2.09375 -4.46875 -1.625 -4.46875 C -1.046875 -4.46875 -0.640625 -3.875 -0.640625 -3 C -0.640625 -2.453125 -0.796875 -2 -1.0625 -1.75 C -1.25 -1.59375 -1.421875 -1.53125 -1.875 -1.46875 L -1.875 -0.40625 C -0.421875 -0.453125 0.28125 -1.265625 0.28125 -2.921875 C 0.28125 -4.5 -0.5 -5.515625 -1.71875 -5.515625 C -2.65625 -5.515625 -3.171875 -4.984375 -3.46875 -3.734375 L -3.703125 -2.765625 C -3.890625 -1.953125 -4.15625 -1.609375 -4.59375 -1.609375 C -5.171875 -1.609375 -5.546875 -2.125 -5.546875 -2.9375 C -5.546875 -3.75 -5.203125 -4.171875 -4.53125 -4.203125 Z M -4.53125 -5.25 "/>
</symbol>
</g>
</defs>
<g id="surface12023">
<rect x="0" y="0" width="720" height="360" style="fill:rgb(100%,100%,100%);fill-opacity:1;stroke:none;"/>
<path style=" stroke:none;fill-rule:nonzero;fill:rgb(83.921569%,15.686275%,22.352941%);fill-opacity:1;" d="M 69.628906 20.664062 L 153.515625 20.664062 L 153.515625 52.101562 L 118.554688 52.378906 L 118.554688 314.371094 L 104.488281 314.371094 L 104.488281 52.652344 L 104.285156 52.101562 L 69.628906 52.101562 Z M 69.628906 20.664062 "/>
<path style=" stroke:none;fill-rule:nonzero;fill:rgb(6.27451%,58.823529%,28.235294%);fill-opacity:1;" d="M 157.933594 246.378906 L 158.023438 246.304688 L 194.320312 167.367188 L 205.34375 167.367188 L 241.820312 246.453125 L 229.003906 246.453125 L 219.863281 225.808594 L 179.800781 225.808594 L 170.839844 246.378906 L 157.933594 246.378906 L 183.65625 217.269531 L 216.1875 217.195312 L 199.964844 180.289062 L 199.785156 180.214844 L 199.609375 180.4375 L 183.566406 217.195312 L 183.65625 217.269531 Z M 157.933594 246.378906 "/>
<path style=" stroke:none;fill-rule:nonzero;fill:rgb(14.509804%,36.078431%,60%);fill-opacity:1;" d="M 157.933594 276.671875 L 158.035156 276.609375 L 158.035156 275.144531 L 158.34375 272.828125 L 159.058594 269.898438 L 159.773438 267.886719 L 161.617188 264.285156 L 164.171875 260.808594 L 166.832031 258.125 L 168.777344 256.539062 L 170.515625 255.320312 L 174.503906 253.0625 L 177.0625 251.902344 L 179.824219 250.867188 L 183.203125 249.828125 L 185.65625 249.21875 L 191.179688 248.242188 L 195.273438 247.816406 L 198.445312 247.632812 L 205.296875 247.632812 L 209.390625 247.878906 L 212.359375 248.183594 L 215.632812 248.671875 L 218.394531 249.21875 L 223.203125 250.5625 L 227.5 252.269531 L 229.441406 253.246094 L 232.511719 255.136719 L 234.863281 256.964844 L 236.5 258.550781 L 238.34375 260.808594 L 239.980469 263.554688 L 241.207031 266.667969 L 241.820312 269.289062 L 227.5 269.289062 L 226.78125 266.847656 L 225.964844 264.957031 L 224.429688 262.457031 L 222.894531 260.6875 L 220.746094 258.917969 L 218.800781 257.757812 L 216.144531 256.601562 L 213.789062 255.867188 L 211.335938 255.320312 L 208.980469 254.953125 L 204.480469 254.585938 L 199.261719 254.585938 L 197.320312 254.710938 L 193.328125 255.199219 L 191.179688 255.625 L 188.113281 256.476562 L 185.964844 257.273438 L 183.40625 258.492188 L 181.667969 259.527344 L 179.519531 261.113281 L 177.984375 262.519531 L 176.246094 264.53125 L 175.222656 266.054688 L 174.300781 267.765625 L 173.484375 269.777344 L 172.867188 271.914062 L 172.460938 274.167969 L 172.253906 276.367188 L 172.253906 285.820312 L 172.460938 288.015625 L 172.972656 290.578125 L 174.300781 294.300781 L 176.246094 297.535156 L 178.496094 300.097656 L 180.644531 301.925781 L 181.871094 302.78125 L 183.507812 303.757812 L 186.066406 304.976562 L 189.75 306.195312 L 191.898438 306.683594 L 195.171875 307.171875 L 198.546875 307.417969 L 203.046875 307.417969 L 207.039062 307.171875 L 209.699219 306.867188 L 212.460938 306.378906 L 216.246094 305.34375 L 218.597656 304.367188 L 220.644531 303.207031 L 222.179688 302.046875 L 223.203125 301.070312 L 224.734375 299.179688 L 225.964844 297.105469 L 226.882812 294.972656 L 227.5 292.898438 L 241.820312 292.898438 L 241.207031 295.335938 L 240.285156 297.714844 L 239.367188 299.484375 L 237.933594 301.621094 L 236.296875 303.511719 L 233.945312 305.648438 L 232 307.050781 L 229.441406 308.574219 L 227.089844 309.734375 L 224.53125 310.769531 L 220.746094 311.992188 L 218.292969 312.601562 L 215.632812 313.152344 L 212.460938 313.636719 L 208.46875 314.066406 L 204.171875 314.308594 L 200.183594 314.371094 L 195.886719 314.25 L 192.714844 314.003906 L 188.519531 313.457031 L 183.304688 312.359375 L 179.519531 311.199219 L 176.550781 310.039062 L 173.992188 308.820312 L 171.128906 307.171875 L 167.445312 304.488281 L 165.195312 302.414062 L 163.660156 300.707031 L 161.921875 298.328125 L 160.695312 296.191406 L 159.261719 292.777344 L 158.238281 288.445312 L 157.933594 285.089844 Z M 157.933594 276.671875 "/>
<path style=" stroke:none;fill-rule:nonzero;fill:rgb(6.27451%,58.823529%,28.235294%);fill-opacity:1;" d="M 246.234375 314.09375 L 246.324219 313.820312 L 282.625 20.664062 L 293.648438 20.664062 L 330.125 314.371094 L 317.308594 314.371094 L 308.167969 237.703125 L 268.105469 237.703125 L 259.140625 314.09375 L 246.234375 314.09375 L 271.957031 205.988281 L 304.492188 205.710938 L 288.269531 68.648438 L 288.089844 68.375 L 287.910156 69.199219 L 271.867188 205.710938 L 271.957031 205.988281 Z M 246.234375 314.09375 "/>
<path style=" stroke:none;fill-rule:nonzero;fill:rgb(83.921569%,15.686275%,22.352941%);fill-opacity:1;" d="M 334.539062 20.664062 L 418.425781 20.664062 L 418.425781 52.101562 L 383.464844 52.378906 L 383.464844 314.371094 L 369.398438 314.371094 L 369.398438 52.652344 L 369.195312 52.101562 L 334.539062 52.101562 Z M 334.539062 20.664062 "/>
<path style=" stroke:none;fill-rule:nonzero;fill:rgb(83.921569%,15.686275%,22.352941%);fill-opacity:1;" d="M 422.84375 20.664062 L 506.730469 20.664062 L 506.730469 52.101562 L 471.769531 52.378906 L 471.769531 314.371094 L 457.703125 314.371094 L 457.703125 52.652344 L 457.5 52.101562 L 422.84375 52.101562 Z M 422.84375 20.664062 "/>
<path style=" stroke:none;fill-rule:nonzero;fill:rgb(6.27451%,58.823529%,28.235294%);fill-opacity:1;" d="M 511.144531 314.09375 L 511.234375 313.820312 L 547.53125 20.664062 L 558.558594 20.664062 L 595.035156 314.371094 L 582.21875 314.371094 L 573.074219 237.703125 L 533.015625 237.703125 L 524.050781 314.09375 L 511.144531 314.09375 L 536.867188 205.988281 L 569.402344 205.710938 L 553.179688 68.648438 L 553 68.375 L 552.820312 69.199219 L 536.777344 205.710938 L 536.867188 205.988281 Z M 511.144531 314.09375 "/>
<path style=" stroke:none;fill-rule:nonzero;fill:rgb(6.27451%,58.823529%,28.235294%);fill-opacity:1;" d="M 599.449219 272.597656 L 599.539062 272.5625 L 635.835938 238.488281 L 646.859375 238.488281 L 683.335938 272.628906 L 670.519531 272.628906 L 661.378906 263.714844 L 621.316406 263.714844 L 612.355469 272.597656 L 599.449219 272.597656 L 625.171875 260.027344 L 657.703125 259.996094 L 641.484375 244.066406 L 641.304688 244.03125 L 641.125 244.128906 L 625.082031 259.996094 L 625.171875 260.027344 Z M 599.449219 272.597656 "/>
<path style=" stroke:none;fill-rule:nonzero;fill:rgb(96.862745%,70.196078%,16.862745%);fill-opacity:1;" d="M 599.449219 285.679688 L 599.550781 285.65625 L 599.550781 285.148438 L 599.960938 284.007812 L 600.984375 282.441406 L 602.3125 281.148438 L 603.746094 280.136719 L 604.667969 279.605469 L 606.199219 278.84375 L 607.53125 278.289062 L 610.90625 277.148438 L 615.203125 276.085938 L 617.554688 275.628906 L 620.214844 275.199219 L 624 274.71875 L 625.742188 274.542969 L 631.058594 274.136719 L 637.097656 273.882812 L 643.746094 273.808594 L 646.816406 273.832031 L 651.007812 273.933594 L 656.738281 274.210938 L 660.011719 274.464844 L 662.570312 274.71875 L 665.230469 275.046875 L 668.503906 275.554688 L 671.570312 276.160156 L 674.027344 276.769531 L 676.484375 277.527344 L 678.527344 278.339844 L 680.269531 279.226562 L 681.800781 280.289062 L 682.722656 281.175781 L 683.335938 282.058594 L 669.117188 282.058594 L 668.296875 281.175781 L 667.378906 280.492188 L 665.84375 279.65625 L 664.308594 279.046875 L 662.773438 278.566406 L 659.910156 277.910156 L 657.453125 277.503906 L 654.386719 277.148438 L 651.417969 276.921875 L 648.042969 276.769531 L 645.996094 276.71875 L 640.574219 276.71875 L 635.664062 276.894531 L 632.800781 277.097656 L 630.753906 277.300781 L 627.890625 277.679688 L 626.148438 277.984375 L 625.125 278.1875 L 622.058594 278.972656 L 620.011719 279.679688 L 618.886719 280.160156 L 617.453125 280.921875 L 616.429688 281.605469 L 615.304688 282.617188 L 614.691406 283.375 L 613.875 285.097656 L 613.769531 289.652344 L 614.078125 290.617188 L 614.691406 291.652344 L 615.511719 292.566406 L 616.738281 293.527344 L 617.964844 294.261719 L 620.113281 295.25 L 621.957031 295.90625 L 623.386719 296.335938 L 626.148438 297.019531 L 627.273438 297.25 L 629.933594 297.703125 L 632.695312 298.058594 L 636.074219 298.363281 L 638.628906 298.515625 L 642.722656 298.640625 L 647.941406 298.640625 L 654.078125 298.488281 L 657.964844 298.285156 L 660.625 298.082031 L 662.363281 297.90625 L 664.511719 297.628906 L 666.046875 297.375 L 667.480469 297.097656 L 669.21875 296.667969 L 669.21875 290.617188 L 643.949219 290.589844 L 643.949219 287.753906 L 683.234375 287.730469 L 683.335938 297.628906 L 681.1875 298.3125 L 678.527344 298.96875 L 675.972656 299.476562 L 673.3125 299.90625 L 669.527344 300.386719 L 666.457031 300.691406 L 661.75 301.046875 L 657.453125 301.273438 L 652.953125 301.425781 L 648.964844 301.5 L 644.257812 301.527344 L 640.0625 301.476562 L 635.5625 301.324219 L 631.980469 301.121094 L 628.707031 300.867188 L 625.433594 300.539062 L 621.339844 300.007812 L 618.683594 299.578125 L 615.917969 299.046875 L 613.15625 298.414062 L 610.703125 297.730469 L 609.066406 297.199219 L 607.429688 296.589844 L 605.6875 295.832031 L 604.050781 294.96875 L 602.824219 294.183594 L 601.699219 293.300781 L 600.882812 292.464844 L 600.0625 291.324219 L 599.652344 290.414062 L 599.449219 289.628906 Z M 599.449219 285.679688 "/>
<path style=" stroke:none;fill-rule:nonzero;fill:rgb(83.921569%,15.686275%,22.352941%);fill-opacity:1;" d="M 599.449219 302.707031 L 683.335938 302.707031 L 683.335938 303.953125 L 648.375 303.964844 L 648.375 314.371094 L 634.308594 314.371094 L 634.308594 303.976562 L 634.105469 303.953125 L 599.449219 303.953125 Z M 599.449219 302.707031 "/>
<g style="fill:rgb(0%,0%,0%);fill-opacity:1;">
  <use xlink:href="#glyph0-1" x="21.957031" y="318.198242"/>
  <use xlink:href="#glyph0-2" x="27.291016" y="318.198242"/>
  <use xlink:href="#glyph0-1" x="29.958008" y="318.198242"/>
</g>
<g style="fill:rgb(0%,0%,0%);fill-opacity:1;">
  <use xlink:href="#glyph0-1" x="21.957031" y="244.475586"/>
  <use xlink:href="#glyph0-2" x="27.291016" y="244.475586"/>
  <use xlink:href="#glyph0-3" x="29.958008" y="244.475586"/>
</g>
<g style="fill:rgb(0%,0%,0%);fill-opacity:1;">
  <use xlink:href="#glyph0-4" x="21.957031" y="170.75293"/>
  <use xlink:href="#glyph0-2" x="27.291016" y="170.75293"/>
  <use xlink:href="#glyph0-1" x="29.958008" y="170.75293"/>
</g>
<g style="fill:rgb(0%,0%,0%);fill-opacity:1;">
  <use xlink:href="#glyph0-4" x="21.957031" y="97.03418"/>
  <use xlink:href="#glyph0-2" x="27.291016" y="97.03418"/>
  <use xlink:href="#glyph0-3" x="29.958008" y="97.03418"/>
</g>
<g style="fill:rgb(0%,0%,0%);fill-opacity:1;">
  <use xlink:href="#glyph0-5" x="21.957031" y="23.311523"/>
  <use xlink:href="#glyph0-2" x="27.291016" y="23.311523"/>
  <use xlink:href="#glyph0-1" x="29.958008" y="23.311523"/>
</g>
<g style="fill:rgb(0%,0%,0%);fill-opacity:1;">
  <use xlink:href="#glyph0-4" x="108.574219" y="338.19043"/>
</g>
<g style="fill:rgb(0%,0%,0%);fill-opacity:1;">
  <use xlink:href="#glyph0-5" x="196.875" y="338.19043"/>
</g>
<g style="fill:rgb(0%,0%,0%);fill-opacity:1;">
  <use xlink:href="#glyph0-6" x="285.179688" y="338.19043"/>
</g>
<g style="fill:rgb(0%,0%,0%);fill-opacity:1;">
  <use xlink:href="#glyph0-7" x="373.484375" y="338.19043"/>
</g>
<g style="fill:rgb(0%,0%,0%);fill-opacity:1;">
  <use xlink:href="#glyph0-3" x="461.785156" y="338.19043"/>
</g>
<g style="fill:rgb(0%,0%,0%);fill-opacity:1;">
  <use xlink:href="#glyph0-8" x="550.089844" y="338.19043"/>
</g>
<g style="fill:rgb(0%,0%,0%);fill-opacity:1;">
  <use xlink:href="#glyph0-9" x="638.394531" y="338.19043"/>
</g>
<g style="fill:rgb(0%,0%,0%);fill-opacity:1;">
  <use xlink:href="#glyph1-1" x="14.412109" y="178.015625"/>
  <use xlink:href="#glyph1-2" x="14.412109" y="170.011719"/>
  <use xlink:href="#glyph1-3" x="14.412109" y="167.347656"/>
  <use xlink:href="#glyph1-4" x="14.412109" y="164.011719"/>
</g>
</g>
</svg>
