<?xml version="1.0" encoding="UTF-8"?>
<svg xmlns="http://www.w3.org/2000/svg" xmlns:xlink="http://www.w3.org/1999/xlink" width="720pt" height="360pt" viewBox="0 0 720 360" version="1.1">
<defs>
<g>
<symbol overflow="visible" id="glyph0-0">
<path style="stroke:none;" d=""/>
</symbol>
<symbol overflow="visible" id="glyph0-1">
<path style="stroke:none;" d="M 2.640625 -6.796875 C 2 -6.796875 1.421875 -6.53125 1.078125 -6.046875 C 0.640625 -5.453125 0.40625 -4.546875 0.40625 -3.296875 C 0.40625 -1 1.1875 0.21875 2.640625 0.21875 C 4.078125 0.21875 4.859375 -1 4.859375 -3.234375 C 4.859375 -4.5625 4.65625 -5.4375 4.203125 -6.046875 C 3.84375 -6.53125 3.28125 -6.796875 2.640625 -6.796875 Z M 2.640625 -6.046875 C 3.546875 -6.046875 4 -5.125 4 -3.3125 C 4 -1.375 3.5625 -0.484375 2.625 -0.484375 C 1.734375 -0.484375 1.28125 -1.421875 1.28125 -3.28125 C 1.28125 -5.140625 1.734375 -6.046875 2.640625 -6.046875 Z M 2.640625 -6.046875 "/>
</symbol>
<symbol overflow="visible" id="glyph0-2">
<path style="stroke:none;" d="M 1.828125 -1 L 0.828125 -1 L 0.828125 0 L 1.828125 0 Z M 1.828125 -1 "/>
</symbol>
<symbol overflow="visible" id="glyph0-3">
<path style="stroke:none;" d="M 4.5625 -6.796875 L 1.0625 -6.796875 L 0.546875 -3.09375 L 1.328125 -3.09375 C 1.71875 -3.5625 2.046875 -3.734375 2.578125 -3.734375 C 3.484375 -3.734375 4.0625 -3.109375 4.0625 -2.09375 C 4.0625 -1.125 3.484375 -0.53125 2.578125 -0.53125 C 1.828125 -0.53125 1.375 -0.90625 1.1875 -1.671875 L 0.328125 -1.671875 C 0.453125 -1.109375 0.546875 -0.84375 0.75 -0.59375 C 1.125 -0.078125 1.828125 0.21875 2.59375 0.21875 C 3.96875 0.21875 4.921875 -0.78125 4.921875 -2.21875 C 4.921875 -3.5625 4.03125 -4.484375 2.71875 -4.484375 C 2.25 -4.484375 1.859375 -4.359375 1.46875 -4.0625 L 1.734375 -5.96875 L 4.5625 -5.96875 Z M 4.5625 -6.796875 "/>
</symbol>
<symbol overflow="visible" id="glyph0-4">
<path style="stroke:none;" d="M 2.484375 -4.84375 L 2.484375 0 L 3.328125 0 L 3.328125 -6.796875 L 2.765625 -6.796875 C 2.46875 -5.75 2.28125 -5.609375 0.984375 -5.453125 L 0.984375 -4.84375 Z M 2.484375 -4.84375 "/>
</symbol>
<symbol overflow="visible" id="glyph0-5">
<path style="stroke:none;" d="M 4.859375 -0.828125 L 1.28125 -0.828125 C 1.359375 -1.390625 1.671875 -1.75 2.5 -2.234375 L 3.46875 -2.75 C 4.40625 -3.265625 4.90625 -3.96875 4.90625 -4.8125 C 4.90625 -5.375 4.671875 -5.90625 4.265625 -6.265625 C 3.859375 -6.625 3.375 -6.796875 2.71875 -6.796875 C 1.859375 -6.796875 1.21875 -6.5 0.84375 -5.921875 C 0.609375 -5.5625 0.5 -5.125 0.484375 -4.4375 L 1.328125 -4.4375 C 1.359375 -4.90625 1.40625 -5.1875 1.53125 -5.40625 C 1.75 -5.8125 2.1875 -6.0625 2.703125 -6.0625 C 3.46875 -6.0625 4.03125 -5.515625 4.03125 -4.78125 C 4.03125 -4.25 3.71875 -3.796875 3.125 -3.4375 L 2.234375 -2.9375 C 0.8125 -2.140625 0.40625 -1.5 0.328125 0 L 4.859375 0 Z M 4.859375 -0.828125 "/>
</symbol>
<symbol overflow="visible" id="glyph0-6">
<path style="stroke:none;" d="M 2.125 -3.125 L 2.578125 -3.125 C 3.515625 -3.125 3.984375 -2.703125 3.984375 -1.890625 C 3.984375 -1.03125 3.46875 -0.53125 2.578125 -0.53125 C 1.65625 -0.53125 1.203125 -0.984375 1.15625 -1.96875 L 0.3125 -1.96875 C 0.34375 -1.421875 0.4375 -1.078125 0.609375 -0.765625 C 0.953125 -0.109375 1.625 0.21875 2.546875 0.21875 C 3.953125 0.21875 4.859375 -0.609375 4.859375 -1.90625 C 4.859375 -2.765625 4.515625 -3.25 3.703125 -3.515625 C 4.34375 -3.765625 4.65625 -4.25 4.65625 -4.9375 C 4.65625 -6.109375 3.875 -6.796875 2.578125 -6.796875 C 1.203125 -6.796875 0.484375 -6.046875 0.453125 -4.609375 L 1.296875 -4.609375 C 1.3125 -5.015625 1.34375 -5.25 1.453125 -5.453125 C 1.640625 -5.828125 2.0625 -6.0625 2.59375 -6.0625 C 3.34375 -6.0625 3.796875 -5.625 3.796875 -4.90625 C 3.796875 -4.421875 3.609375 -4.140625 3.25 -3.984375 C 3.015625 -3.890625 2.71875 -3.84375 2.125 -3.84375 Z M 2.125 -3.125 "/>
</symbol>
<symbol overflow="visible" id="glyph0-7">
<path style="stroke:none;" d="M 3.140625 -1.625 L 3.140625 0 L 3.984375 0 L 3.984375 -1.625 L 4.984375 -1.625 L 4.984375 -2.390625 L 3.984375 -2.390625 L 3.984375 -6.796875 L 3.359375 -6.796875 L 0.265625 -2.515625 L 0.265625 -1.625 Z M 3.140625 -2.390625 L 1 -2.390625 L 3.140625 -5.359375 Z M 3.140625 -2.390625 "/>
</symbol>
<symbol overflow="visible" id="glyph0-8">
<path style="stroke:none;" d="M 4.78125 -5.03125 C 4.609375 -6.140625 3.890625 -6.796875 2.84375 -6.796875 C 2.09375 -6.796875 1.421875 -6.4375 1.03125 -5.828125 C 0.609375 -5.171875 0.40625 -4.34375 0.40625 -3.09375 C 0.40625 -1.953125 0.578125 -1.234375 0.984375 -0.625 C 1.359375 -0.078125 1.953125 0.21875 2.703125 0.21875 C 3.984375 0.21875 4.921875 -0.734375 4.921875 -2.078125 C 4.921875 -3.34375 4.0625 -4.234375 2.84375 -4.234375 C 2.171875 -4.234375 1.640625 -3.96875 1.28125 -3.46875 C 1.28125 -5.125 1.828125 -6.046875 2.796875 -6.046875 C 3.390625 -6.046875 3.796875 -5.671875 3.9375 -5.03125 Z M 2.734375 -3.484375 C 3.546875 -3.484375 4.0625 -2.921875 4.0625 -2 C 4.0625 -1.15625 3.484375 -0.53125 2.703125 -0.53125 C 1.921875 -0.53125 1.328125 -1.1875 1.328125 -2.046875 C 1.328125 -2.890625 1.90625 -3.484375 2.734375 -3.484375 Z M 2.734375 -3.484375 "/>
</symbol>
<symbol overflow="visible" id="glyph0-9">
<path style="stroke:none;" d="M 4.984375 -6.796875 L 0.4375 -6.796875 L 0.4375 -5.96875 L 4.109375 -5.96875 C 2.5 -3.65625 1.828125 -2.234375 1.328125 0 L 2.21875 0 C 2.59375 -2.171875 3.453125 -4.046875 4.984375 -6.09375 Z M 4.984375 -6.796875 "/>
</symbol>
<symbol overflow="visible" id="glyph0-10">
<path style="stroke:none;" d="M 3.75 -3.578125 C 4.453125 -4 4.6875 -4.34375 4.6875 -4.984375 C 4.6875 -6.046875 3.84375 -6.796875 2.640625 -6.796875 C 1.4375 -6.796875 0.59375 -6.046875 0.59375 -4.984375 C 0.59375 -4.359375 0.828125 -4.015625 1.515625 -3.578125 C 0.734375 -3.203125 0.359375 -2.640625 0.359375 -1.890625 C 0.359375 -0.640625 1.296875 0.21875 2.640625 0.21875 C 3.984375 0.21875 4.921875 -0.640625 4.921875 -1.875 C 4.921875 -2.640625 4.53125 -3.203125 3.75 -3.578125 Z M 2.640625 -6.046875 C 3.359375 -6.046875 3.8125 -5.625 3.8125 -4.96875 C 3.8125 -4.34375 3.34375 -3.921875 2.640625 -3.921875 C 1.921875 -3.921875 1.453125 -4.34375 1.453125 -4.984375 C 1.453125 -5.625 1.921875 -6.046875 2.640625 -6.046875 Z M 2.640625 -3.203125 C 3.484375 -3.203125 4.0625 -2.671875 4.0625 -1.875 C 4.0625 -1.0625 3.484375 -0.53125 2.625 -0.53125 C 1.796875 -0.53125 1.21875 -1.078125 1.21875 -1.875 C 1.21875 -2.671875 1.796875 -3.203125 2.640625 -3.203125 Z M 2.640625 -3.203125 "/>
</symbol>
<symbol overflow="visible" id="glyph0-11">
<path style="stroke:none;" d="M 0.515625 -1.546875 C 0.671875 -0.4375 1.40625 0.21875 2.4375 0.21875 C 3.1875 0.21875 3.859375 -0.140625 4.265625 -0.75 C 4.6875 -1.40625 4.890625 -2.25 4.890625 -3.484375 C 4.890625 -4.625 4.703125 -5.359375 4.3125 -5.953125 C 3.9375 -6.5 3.34375 -6.796875 2.59375 -6.796875 C 1.296875 -6.796875 0.359375 -5.84375 0.359375 -4.515625 C 0.359375 -3.25 1.234375 -2.34375 2.453125 -2.34375 C 3.09375 -2.34375 3.5625 -2.578125 4.015625 -3.109375 C 4 -1.453125 3.46875 -0.53125 2.5 -0.53125 C 1.90625 -0.53125 1.484375 -0.90625 1.359375 -1.546875 Z M 2.578125 -6.0625 C 3.375 -6.0625 3.96875 -5.40625 3.96875 -4.53125 C 3.96875 -3.6875 3.375 -3.09375 2.546875 -3.09375 C 1.734375 -3.09375 1.234375 -3.671875 1.234375 -4.578125 C 1.234375 -5.4375 1.796875 -6.0625 2.578125 -6.0625 Z M 2.578125 -6.0625 "/>
</symbol>
<symbol overflow="visible" id="glyph1-0">
<path style="stroke:none;" d=""/>
</symbol>
<symbol overflow="visible" id="glyph1-1">
<path style="stroke:none;" d="M 0 -0.953125 L 0 -4.890625 C 0 -5.71875 -0.234375 -6.34375 -0.734375 -6.796875 C -1.1875 -7.234375 -1.8125 -7.46875 -2.5 -7.46875 C -3.546875 -7.46875 -4.1875 -7 -4.625 -5.875 C -4.984375 -6.671875 -5.640625 -7.09375 -6.53125 -7.09375 C -7.15625 -7.09375 -7.734375 -6.859375 -8.140625 -6.390625 C -8.5625 -5.9375 -8.75 -5.34375 -8.75 -4.5 L -8.75 -0.953125 Z M -4.984375 -2.0625 L -7.765625 -2.0625 L -7.765625 -4.21875 C -7.765625 -4.84375 -7.6875 -5.203125 -7.453125 -5.5 C -7.21875 -5.8125 -6.859375 -5.96875 -6.375 -5.96875 C -5.90625 -5.96875 -5.53125 -5.8125 -5.296875 -5.5 C -5.0625 -5.203125 -4.984375 -4.84375 -4.984375 -4.21875 Z M -0.984375 -2.0625 L -4 -2.0625 L -4 -4.78125 C -4 -5.328125 -3.859375 -5.6875 -3.578125 -5.953125 C -3.296875 -6.21875 -2.921875 -6.359375 -2.484375 -6.359375 C -2.0625 -6.359375 -1.6875 -6.21875 -1.40625 -5.953125 C -1.109375 -5.6875 -0.984375 -5.328125 -0.984375 -4.78125 Z M -0.984375 -2.0625 "/>
</symbol>
<symbol overflow="visible" id="glyph1-2">
<path style="stroke:none;" d="M -6.28125 -1.796875 L -6.28125 -0.796875 L 0 -0.796875 L 0 -1.796875 Z M -8.75 -1.796875 L -8.75 -0.796875 L -7.484375 -0.796875 L -7.484375 -1.796875 Z M -8.75 -1.796875 "/>
</symbol>
<symbol overflow="visible" id="glyph1-3">
<path style="stroke:none;" d="M -6.28125 -3.046875 L -6.28125 -2.015625 L -8.015625 -2.015625 L -8.015625 -1.015625 L -6.28125 -1.015625 L -6.28125 -0.171875 L -5.46875 -0.171875 L -5.46875 -1.015625 L -0.71875 -1.015625 C -0.078125 -1.015625 0.28125 -1.453125 0.28125 -2.234375 C 0.28125 -2.46875 0.25 -2.71875 0.1875 -3.046875 L -0.640625 -3.046875 C -0.609375 -2.921875 -0.59375 -2.765625 -0.59375 -2.5625 C -0.59375 -2.140625 -0.71875 -2.015625 -1.15625 -2.015625 L -5.46875 -2.015625 L -5.46875 -3.046875 Z M -6.28125 -3.046875 "/>
</symbol>
<symbol overflow="visible" id="glyph1-4">
<path style="stroke:none;" d="M -4.53125 -5.25 C -5.765625 -5.25 -6.46875 -4.421875 -6.46875 -2.96875 C -6.46875 -1.515625 -5.71875 -0.5625 -4.546875 -0.5625 C -3.5625 -0.5625 -3.09375 -1.0625 -2.734375 -2.5625 L -2.515625 -3.484375 C -2.34375 -4.1875 -2.09375 -4.46875 -1.625 -4.46875 C -1.046875 -4.46875 -0.640625 -3.875 -0.640625 -3 C -0.640625 -2.453125 -0.796875 -2 -1.0625 -1.75 C -1.25 -1.59375 -1.421875 -1.53125 -1.875 -1.46875 L -1.875 -0.40625 C -0.421875 -0.453125 0.28125 -1.265625 0.28125 -2.921875 C 0.28125 -4.5 -0.5 -5.515625 -1.71875 -5.515625 C -2.65625 -5.515625 -3.171875 -4.984375 -3.46875 -3.734375 L -3.703125 -2.765625 C -3.890625 -1.953125 -4.15625 -1.609375 -4.59375 -1.609375 C -5.171875 -1.609375 -5.546875 -2.125 -5.546875 -2.9375 C -5.546875 -3.75 -5.203125 -4.171875 -4.53125 -4.203125 Z M -4.53125 -5.25 "/>
</symbol>
</g>
</defs>
<g id="surface14397">
<rect x="0" y="0" width="720" height="360" style="fill:rgb(100%,100%,100%);fill-opacity:1;stroke:none;"/>
<path style=" stroke:none;fill-rule:nonzero;fill:rgb(14.509804%,36.078431%,60%);fill-opacity:1;" d="M 69.628906 194.488281 L 69.695312 194.359375 L 69.695312 191.277344 L 69.890625 186.394531 L 70.34375 180.230469 L 70.796875 175.988281 L 71.96875 168.410156 L 73.589844 161.089844 L 75.277344 155.4375 L 76.511719 152.097656 L 77.617188 149.527344 L 80.148438 144.773438 L 81.773438 142.332031 L 83.523438 140.148438 L 85.667969 137.964844 L 87.226562 136.679688 L 90.730469 134.625 L 93.328125 133.726562 L 95.34375 133.339844 L 99.691406 133.339844 L 102.289062 133.855469 L 104.171875 134.496094 L 106.25 135.523438 L 108.003906 136.679688 L 111.054688 139.507812 L 113.78125 143.101562 L 115.015625 145.160156 L 116.964844 149.140625 L 118.457031 152.996094 L 119.496094 156.335938 L 120.664062 161.089844 L 121.703125 166.867188 L 122.484375 173.421875 L 122.875 178.945312 L 113.78125 178.945312 L 113.328125 173.804688 L 112.808594 169.824219 L 111.835938 164.558594 L 110.859375 160.832031 L 109.496094 157.105469 L 108.265625 154.664062 L 106.574219 152.222656 L 105.082031 150.683594 L 103.523438 149.527344 L 102.03125 148.753906 L 99.171875 147.984375 L 95.863281 147.984375 L 94.628906 148.242188 L 92.097656 149.269531 L 90.730469 150.167969 L 88.785156 151.96875 L 87.421875 153.636719 L 85.796875 156.207031 L 84.695312 158.390625 L 83.328125 161.730469 L 82.355469 164.683594 L 81.253906 168.925781 L 80.601562 172.136719 L 80.019531 175.734375 L 79.5 179.972656 L 79.109375 184.46875 L 78.851562 189.222656 L 78.71875 193.847656 L 78.71875 213.757812 L 78.851562 218.382812 L 79.175781 223.777344 L 80.019531 231.613281 L 81.253906 238.421875 L 82.679688 243.820312 L 84.042969 247.671875 L 84.824219 249.472656 L 85.863281 251.527344 L 87.484375 254.097656 L 89.824219 256.664062 L 91.1875 257.691406 L 93.265625 258.722656 L 95.40625 259.234375 L 98.265625 259.234375 L 100.796875 258.722656 L 102.484375 258.078125 L 104.238281 257.050781 L 106.640625 254.867188 L 108.132812 252.8125 L 109.433594 250.371094 L 110.40625 247.929688 L 111.054688 245.875 L 112.03125 241.890625 L 112.808594 237.523438 L 113.394531 233.027344 L 113.78125 228.660156 L 122.875 228.660156 L 122.484375 233.796875 L 121.898438 238.808594 L 121.316406 242.535156 L 120.40625 247.03125 L 119.367188 251.011719 L 117.875 255.507812 L 116.640625 258.464844 L 115.015625 261.675781 L 113.523438 264.117188 L 111.898438 266.300781 L 109.496094 268.871094 L 107.9375 270.152344 L 106.25 271.308594 L 104.238281 272.339844 L 101.707031 273.238281 L 98.976562 273.75 L 96.445312 273.878906 L 93.71875 273.621094 L 91.707031 273.109375 L 89.042969 271.953125 L 85.730469 269.640625 L 83.328125 267.199219 L 81.445312 264.757812 L 79.824219 262.1875 L 78.003906 258.722656 L 75.667969 253.070312 L 74.238281 248.699219 L 73.265625 245.105469 L 72.160156 240.09375 L 71.382812 235.597656 L 70.472656 228.402344 L 69.824219 219.28125 L 69.628906 212.21875 Z M 69.628906 194.488281 "/>
<path style=" stroke:none;fill-rule:nonzero;fill:rgb(83.921569%,15.686275%,22.352941%);fill-opacity:1;" d="M 69.628906 275.058594 L 122.875 275.058594 L 122.875 279.265625 L 100.683594 279.304688 L 100.683594 314.371094 L 91.753906 314.371094 L 91.753906 279.339844 L 91.625 279.265625 L 69.628906 279.265625 Z M 69.628906 275.058594 "/>
<path style=" stroke:none;fill-rule:nonzero;fill:rgb(6.27451%,58.823529%,28.235294%);fill-opacity:1;" d="M 125.675781 248.179688 L 125.734375 248.101562 L 148.769531 166.789062 L 155.769531 166.789062 L 178.917969 248.253906 L 170.785156 248.253906 L 164.984375 226.992188 L 139.554688 226.992188 L 133.867188 248.179688 L 125.675781 248.179688 L 142 218.195312 L 162.652344 218.117188 L 152.355469 180.101562 L 152.242188 180.023438 L 152.128906 180.253906 L 141.945312 218.117188 L 142 218.195312 Z M 125.675781 248.179688 "/>
<path style=" stroke:none;fill-rule:nonzero;fill:rgb(83.921569%,15.686275%,22.352941%);fill-opacity:1;" d="M 125.675781 249.433594 L 178.917969 249.433594 L 178.917969 256.386719 L 156.730469 256.445312 L 156.730469 314.371094 L 147.800781 314.371094 L 147.800781 256.507812 L 147.671875 256.386719 L 125.675781 256.386719 Z M 125.675781 249.433594 "/>
<path style=" stroke:none;fill-rule:nonzero;fill:rgb(14.509804%,36.078431%,60%);fill-opacity:1;" d="M 181.722656 292.164062 L 181.785156 292.128906 L 181.785156 291.265625 L 181.980469 289.898438 L 182.4375 288.175781 L 182.890625 286.988281 L 184.058594 284.867188 L 185.683594 282.820312 L 187.371094 281.238281 L 188.605469 280.304688 L 189.707031 279.585938 L 192.242188 278.257812 L 193.863281 277.574219 L 195.617188 276.964844 L 197.761719 276.351562 L 199.320312 275.992188 L 202.824219 275.417969 L 205.421875 275.167969 L 207.433594 275.058594 L 211.785156 275.058594 L 214.382812 275.203125 L 216.265625 275.382812 L 218.34375 275.671875 L 220.097656 275.992188 L 223.148438 276.785156 L 225.875 277.789062 L 227.109375 278.363281 L 229.058594 279.480469 L 230.550781 280.558594 L 231.589844 281.492188 L 232.757812 282.820312 L 233.796875 284.4375 L 234.578125 286.269531 L 234.964844 287.816406 L 225.875 287.816406 L 225.421875 286.378906 L 224.902344 285.265625 L 223.925781 283.789062 L 222.953125 282.75 L 221.589844 281.707031 L 220.355469 281.023438 L 218.667969 280.339844 L 217.175781 279.910156 L 215.617188 279.585938 L 214.121094 279.371094 L 211.265625 279.15625 L 207.953125 279.15625 L 206.722656 279.226562 L 204.1875 279.515625 L 202.824219 279.765625 L 200.875 280.269531 L 199.511719 280.738281 L 197.890625 281.457031 L 196.785156 282.066406 L 195.421875 283 L 194.449219 283.828125 L 193.34375 285.011719 L 192.695312 285.910156 L 192.109375 286.917969 L 191.589844 288.101562 L 191.203125 289.359375 L 190.941406 290.691406 L 190.8125 291.984375 L 190.8125 297.554688 L 190.941406 298.847656 L 191.265625 300.355469 L 192.109375 302.546875 L 193.34375 304.453125 L 194.773438 305.960938 L 196.136719 307.039062 L 196.917969 307.542969 L 197.953125 308.117188 L 199.578125 308.835938 L 201.914062 309.554688 L 203.28125 309.84375 L 205.355469 310.128906 L 207.5 310.273438 L 210.355469 310.273438 L 212.890625 310.128906 L 214.578125 309.949219 L 216.332031 309.664062 L 218.734375 309.050781 L 220.226562 308.476562 L 221.523438 307.792969 L 222.5 307.113281 L 223.148438 306.535156 L 224.121094 305.421875 L 224.902344 304.203125 L 225.484375 302.945312 L 225.875 301.722656 L 234.964844 301.722656 L 234.578125 303.160156 L 233.992188 304.5625 L 233.40625 305.601562 L 232.5 306.859375 L 231.460938 307.972656 L 229.964844 309.230469 L 228.734375 310.058594 L 227.109375 310.957031 L 225.617188 311.640625 L 223.992188 312.25 L 221.589844 312.96875 L 220.03125 313.328125 L 218.34375 313.652344 L 216.332031 313.9375 L 213.796875 314.191406 L 211.070312 314.335938 L 208.539062 314.371094 L 205.8125 314.296875 L 203.800781 314.15625 L 201.136719 313.832031 L 197.824219 313.183594 L 195.421875 312.503906 L 193.539062 311.820312 L 191.917969 311.101562 L 190.097656 310.128906 L 187.761719 308.550781 L 186.332031 307.328125 L 185.359375 306.320312 L 184.253906 304.921875 L 183.476562 303.664062 L 182.566406 301.648438 L 181.917969 299.097656 L 181.722656 297.121094 Z M 181.722656 292.164062 "/>
<path style=" stroke:none;fill-rule:nonzero;fill:rgb(83.921569%,15.686275%,22.352941%);fill-opacity:1;" d="M 181.722656 133.339844 L 234.964844 133.339844 L 234.964844 148.382812 L 212.777344 148.515625 L 212.777344 273.878906 L 203.847656 273.878906 L 203.847656 148.648438 L 203.71875 148.382812 L 181.722656 148.382812 Z M 181.722656 133.339844 "/>
<path style=" stroke:none;fill-rule:nonzero;fill:rgb(83.921569%,15.686275%,22.352941%);fill-opacity:1;" d="M 237.769531 20.664062 L 291.011719 20.664062 L 291.011719 52.101562 L 268.820312 52.378906 L 268.820312 314.371094 L 259.894531 314.371094 L 259.894531 52.652344 L 259.765625 52.101562 L 237.769531 52.101562 Z M 237.769531 20.664062 "/>
<path style=" stroke:none;fill-rule:nonzero;fill:rgb(83.921569%,15.686275%,22.352941%);fill-opacity:1;" d="M 293.816406 20.664062 L 347.058594 20.664062 L 347.058594 52.101562 L 324.867188 52.378906 L 324.867188 314.371094 L 315.941406 314.371094 L 315.941406 52.652344 L 315.8125 52.101562 L 293.816406 52.101562 Z M 293.816406 20.664062 "/>
<path style=" stroke:none;fill-rule:nonzero;fill:rgb(14.509804%,36.078431%,60%);fill-opacity:1;" d="M 349.859375 242.746094 L 349.925781 242.707031 L 349.925781 241.859375 L 350.121094 240.519531 L 350.574219 238.824219 L 351.03125 237.65625 L 352.199219 235.570312 L 353.820312 233.558594 L 355.511719 232.003906 L 356.742188 231.085938 L 357.847656 230.378906 L 360.378906 229.070312 L 362.003906 228.398438 L 363.757812 227.796875 L 365.898438 227.199219 L 367.457031 226.84375 L 370.964844 226.28125 L 373.5625 226.03125 L 375.574219 225.925781 L 379.925781 225.925781 L 382.523438 226.066406 L 384.40625 226.246094 L 386.484375 226.527344 L 388.234375 226.84375 L 391.289062 227.621094 L 394.015625 228.613281 L 395.25 229.175781 L 397.195312 230.273438 L 398.691406 231.332031 L 399.730469 232.25 L 400.898438 233.558594 L 401.9375 235.148438 L 402.714844 236.949219 L 403.105469 238.46875 L 394.015625 238.46875 L 393.558594 237.054688 L 393.039062 235.960938 L 392.066406 234.511719 L 391.09375 233.488281 L 389.730469 232.460938 L 388.496094 231.792969 L 386.808594 231.121094 L 385.3125 230.695312 L 383.753906 230.378906 L 382.261719 230.167969 L 379.40625 229.953125 L 376.09375 229.953125 L 374.859375 230.023438 L 372.328125 230.308594 L 370.964844 230.554688 L 369.015625 231.050781 L 367.652344 231.507812 L 366.027344 232.214844 L 364.925781 232.816406 L 363.5625 233.734375 L 362.585938 234.546875 L 361.484375 235.714844 L 360.835938 236.597656 L 360.25 237.585938 L 359.730469 238.75 L 359.339844 239.988281 L 359.082031 241.296875 L 358.953125 242.566406 L 358.953125 248.042969 L 359.082031 249.316406 L 359.40625 250.800781 L 360.25 252.957031 L 361.484375 254.828125 L 362.914062 256.3125 L 364.277344 257.371094 L 365.054688 257.867188 L 366.09375 258.433594 L 367.71875 259.136719 L 370.054688 259.84375 L 371.417969 260.128906 L 373.496094 260.410156 L 375.640625 260.550781 L 378.496094 260.550781 L 381.027344 260.410156 L 382.714844 260.234375 L 384.46875 259.949219 L 386.871094 259.351562 L 388.367188 258.785156 L 389.664062 258.113281 L 390.636719 257.441406 L 391.289062 256.878906 L 392.261719 255.78125 L 393.039062 254.582031 L 393.625 253.34375 L 394.015625 252.144531 L 403.105469 252.144531 L 402.714844 253.554688 L 402.132812 254.933594 L 401.546875 255.957031 L 400.636719 257.195312 L 399.597656 258.289062 L 398.105469 259.527344 L 396.871094 260.339844 L 395.25 261.222656 L 393.753906 261.894531 L 392.132812 262.496094 L 389.730469 263.203125 L 388.171875 263.554688 L 386.484375 263.871094 L 384.46875 264.15625 L 381.9375 264.402344 L 379.210938 264.542969 L 376.679688 264.578125 L 373.949219 264.507812 L 371.9375 264.367188 L 369.277344 264.050781 L 365.964844 263.414062 L 363.5625 262.742188 L 361.679688 262.070312 L 360.054688 261.363281 L 358.238281 260.410156 L 355.898438 258.855469 L 354.472656 257.65625 L 353.496094 256.664062 L 352.394531 255.289062 L 351.613281 254.050781 L 350.707031 252.070312 L 350.054688 249.5625 L 349.859375 247.621094 Z M 349.859375 242.746094 "/>
<path style=" stroke:none;fill-rule:nonzero;fill:rgb(96.862745%,70.196078%,16.862745%);fill-opacity:1;" d="M 349.859375 309.351562 L 349.925781 309.34375 L 349.925781 309.183594 L 350.1875 308.824219 L 350.835938 308.324219 L 351.679688 307.917969 L 352.589844 307.597656 L 353.171875 307.429688 L 354.148438 307.1875 L 354.992188 307.011719 L 357.132812 306.648438 L 359.859375 306.3125 L 361.355469 306.167969 L 363.042969 306.03125 L 365.445312 305.878906 L 366.546875 305.824219 L 369.925781 305.695312 L 373.757812 305.617188 L 377.976562 305.59375 L 379.925781 305.601562 L 382.585938 305.632812 L 386.222656 305.71875 L 388.300781 305.800781 L 389.925781 305.878906 L 391.613281 305.984375 L 393.691406 306.144531 L 395.636719 306.335938 L 397.195312 306.53125 L 398.753906 306.769531 L 400.054688 307.027344 L 401.15625 307.308594 L 402.132812 307.644531 L 402.714844 307.925781 L 403.105469 308.207031 L 394.078125 308.207031 L 393.558594 307.925781 L 392.976562 307.707031 L 392 307.445312 L 391.027344 307.25 L 390.054688 307.097656 L 388.234375 306.890625 L 386.675781 306.761719 L 384.730469 306.648438 L 382.847656 306.578125 L 380.703125 306.53125 L 379.40625 306.515625 L 375.964844 306.515625 L 372.847656 306.570312 L 371.027344 306.632812 L 369.730469 306.699219 L 367.914062 306.820312 L 366.808594 306.914062 L 366.160156 306.980469 L 364.210938 307.226562 L 362.914062 307.453125 L 362.199219 307.605469 L 361.289062 307.84375 L 360.640625 308.0625 L 359.925781 308.382812 L 359.535156 308.621094 L 359.015625 309.167969 L 358.953125 310.609375 L 359.144531 310.914062 L 359.535156 311.242188 L 360.054688 311.53125 L 360.835938 311.835938 L 361.613281 312.070312 L 362.976562 312.382812 L 364.144531 312.589844 L 365.054688 312.726562 L 366.808594 312.945312 L 367.523438 313.015625 L 369.210938 313.160156 L 370.964844 313.273438 L 373.105469 313.367188 L 374.730469 313.417969 L 377.328125 313.457031 L 380.640625 313.457031 L 384.535156 313.410156 L 387.003906 313.34375 L 388.691406 313.28125 L 389.792969 313.222656 L 391.15625 313.136719 L 392.132812 313.054688 L 393.039062 312.96875 L 394.144531 312.832031 L 394.144531 310.914062 L 378.105469 310.90625 L 378.105469 310.007812 L 403.039062 310 L 403.105469 313.136719 L 401.742188 313.351562 L 400.054688 313.5625 L 398.429688 313.722656 L 396.742188 313.859375 L 394.339844 314.011719 L 392.390625 314.105469 L 389.40625 314.21875 L 386.675781 314.289062 L 383.820312 314.339844 L 381.289062 314.363281 L 378.300781 314.371094 L 375.640625 314.355469 L 372.78125 314.304688 L 370.507812 314.242188 L 368.433594 314.164062 L 366.355469 314.058594 L 363.757812 313.890625 L 362.066406 313.753906 L 360.316406 313.585938 L 358.5625 313.382812 L 357.003906 313.167969 L 355.964844 313 L 354.925781 312.808594 L 353.820312 312.566406 L 352.78125 312.292969 L 352.003906 312.046875 L 351.289062 311.765625 L 350.769531 311.5 L 350.25 311.140625 L 349.992188 310.851562 L 349.859375 310.601562 Z M 349.859375 309.351562 "/>
<path style=" stroke:none;fill-rule:nonzero;fill:rgb(83.921569%,15.686275%,22.352941%);fill-opacity:1;" d="M 349.859375 265.757812 L 403.105469 265.757812 L 403.105469 269.898438 L 380.914062 269.933594 L 380.914062 304.414062 L 371.988281 304.414062 L 371.988281 269.96875 L 371.859375 269.898438 L 349.859375 269.898438 Z M 349.859375 265.757812 "/>
<path style=" stroke:none;fill-rule:nonzero;fill:rgb(14.509804%,36.078431%,60%);fill-opacity:1;" d="M 405.90625 285.003906 L 405.972656 284.957031 L 405.972656 283.816406 L 406.167969 282.011719 L 406.621094 279.730469 L 407.078125 278.164062 L 408.246094 275.359375 L 409.867188 272.652344 L 411.554688 270.558594 L 412.789062 269.324219 L 413.894531 268.375 L 416.425781 266.617188 L 418.050781 265.714844 L 419.804688 264.90625 L 421.945312 264.097656 L 423.503906 263.621094 L 427.011719 262.863281 L 429.609375 262.53125 L 431.621094 262.386719 L 435.972656 262.386719 L 438.566406 262.578125 L 440.453125 262.8125 L 442.527344 263.195312 L 444.28125 263.621094 L 447.335938 264.667969 L 450.0625 266 L 451.292969 266.757812 L 453.242188 268.230469 L 454.734375 269.65625 L 455.773438 270.890625 L 456.945312 272.652344 L 457.984375 274.789062 L 458.761719 277.210938 L 459.152344 279.253906 L 450.0625 279.253906 L 449.605469 277.355469 L 449.085938 275.882812 L 448.113281 273.933594 L 447.140625 272.554688 L 445.777344 271.175781 L 444.542969 270.273438 L 442.855469 269.371094 L 441.359375 268.800781 L 439.800781 268.375 L 438.308594 268.089844 L 435.453125 267.804688 L 432.140625 267.804688 L 430.90625 267.898438 L 428.375 268.277344 L 427.011719 268.613281 L 425.0625 269.277344 L 423.699219 269.894531 L 422.074219 270.84375 L 420.972656 271.652344 L 419.609375 272.886719 L 418.632812 273.980469 L 417.53125 275.550781 L 416.882812 276.738281 L 416.296875 278.066406 L 415.777344 279.636719 L 415.386719 281.296875 L 415.128906 283.058594 L 414.996094 284.765625 L 414.996094 292.132812 L 415.128906 293.84375 L 415.453125 295.839844 L 416.296875 298.738281 L 417.53125 301.257812 L 418.957031 303.25 L 420.324219 304.675781 L 421.101562 305.34375 L 422.140625 306.101562 L 423.765625 307.054688 L 426.101562 308.003906 L 427.464844 308.382812 L 429.542969 308.761719 L 431.683594 308.953125 L 434.542969 308.953125 L 437.074219 308.761719 L 438.761719 308.527344 L 440.515625 308.144531 L 442.917969 307.339844 L 444.410156 306.578125 L 445.710938 305.675781 L 446.683594 304.773438 L 447.335938 304.011719 L 448.308594 302.539062 L 449.085938 300.921875 L 449.671875 299.261719 L 450.0625 297.644531 L 459.152344 297.644531 L 458.761719 299.546875 L 458.175781 301.398438 L 457.59375 302.777344 L 456.683594 304.441406 L 455.644531 305.914062 L 454.152344 307.574219 L 452.917969 308.667969 L 451.292969 309.855469 L 449.800781 310.757812 L 448.179688 311.566406 L 445.777344 312.515625 L 444.21875 312.992188 L 442.527344 313.421875 L 440.515625 313.800781 L 437.984375 314.132812 L 435.257812 314.324219 L 432.722656 314.371094 L 429.996094 314.277344 L 427.984375 314.085938 L 425.320312 313.65625 L 422.011719 312.800781 L 419.609375 311.898438 L 417.726562 310.996094 L 416.101562 310.046875 L 414.285156 308.761719 L 411.945312 306.671875 L 410.519531 305.058594 L 409.542969 303.726562 L 408.441406 301.875 L 407.660156 300.210938 L 406.75 297.550781 L 406.101562 294.175781 L 405.90625 291.5625 Z M 405.90625 285.003906 "/>
<path style=" stroke:none;fill-rule:nonzero;fill:rgb(83.921569%,15.686275%,22.352941%);fill-opacity:1;" d="M 405.90625 156.058594 L 459.152344 156.058594 L 459.152344 167.316406 L 436.960938 167.414062 L 436.960938 261.207031 L 428.035156 261.207031 L 428.035156 167.511719 L 427.902344 167.316406 L 405.90625 167.316406 Z M 405.90625 156.058594 "/>
<path style=" stroke:none;fill-rule:nonzero;fill:rgb(96.862745%,70.196078%,16.862745%);fill-opacity:1;" d="M 461.953125 193.535156 L 462.019531 193.40625 L 462.019531 190.839844 L 462.277344 185.0625 L 462.929688 177.105469 L 463.773438 170.558594 L 464.679688 165.425781 L 465.265625 162.730469 L 466.238281 158.882812 L 467.082031 156.058594 L 469.226562 150.28125 L 471.953125 144.890625 L 473.445312 142.582031 L 475.136719 140.398438 L 477.539062 137.960938 L 478.640625 137.0625 L 482.019531 135.007812 L 485.847656 133.726562 L 490.070312 133.339844 L 492.015625 133.46875 L 494.679688 133.980469 L 498.316406 135.394531 L 500.394531 136.675781 L 502.015625 137.960938 L 503.703125 139.628906 L 505.78125 142.195312 L 507.730469 145.277344 L 509.289062 148.355469 L 510.847656 152.207031 L 512.144531 156.3125 L 513.25 160.804688 L 514.222656 166.195312 L 514.808594 170.6875 L 515.199219 175.179688 L 506.171875 175.179688 L 505.652344 170.6875 L 505.070312 167.222656 L 504.09375 162.988281 L 503.121094 159.90625 L 502.148438 157.46875 L 500.328125 154.132812 L 498.769531 152.078125 L 496.820312 150.28125 L 494.9375 149.125 L 492.796875 148.355469 L 491.496094 148.101562 L 488.054688 148.101562 L 484.941406 149 L 483.121094 150.023438 L 481.824219 151.050781 L 480.003906 152.976562 L 478.902344 154.515625 L 478.25 155.542969 L 476.304688 159.523438 L 475.003906 163.117188 L 474.289062 165.554688 L 473.382812 169.40625 L 472.734375 172.871094 L 472.019531 178.003906 L 471.628906 181.855469 L 471.109375 190.582031 L 471.042969 213.683594 L 471.238281 218.5625 L 471.628906 223.824219 L 472.148438 228.445312 L 472.925781 233.320312 L 473.707031 237.042969 L 475.070312 242.050781 L 476.238281 245.386719 L 477.148438 247.570312 L 478.902344 251.035156 L 479.617188 252.1875 L 481.304688 254.5 L 483.058594 256.296875 L 485.199219 257.835938 L 486.824219 258.605469 L 489.421875 259.246094 L 492.730469 259.246094 L 496.628906 258.476562 L 499.09375 257.449219 L 500.78125 256.425781 L 501.886719 255.527344 L 503.25 254.113281 L 504.222656 252.832031 L 505.132812 251.417969 L 506.238281 249.238281 L 506.238281 218.5625 L 490.199219 218.433594 L 490.199219 204.058594 L 515.132812 203.929688 L 515.199219 254.113281 L 513.835938 257.578125 L 512.144531 260.917969 L 510.523438 263.484375 L 508.835938 265.664062 L 506.433594 268.105469 L 504.484375 269.644531 L 501.496094 271.441406 L 498.769531 272.597656 L 495.914062 273.367188 L 493.382812 273.75 L 490.394531 273.878906 L 487.730469 273.621094 L 484.875 272.851562 L 482.601562 271.824219 L 480.523438 270.542969 L 478.445312 268.875 L 475.847656 266.179688 L 474.160156 263.996094 L 472.40625 261.300781 L 470.65625 258.09375 L 469.097656 254.628906 L 468.058594 251.933594 L 467.019531 248.851562 L 465.914062 245 L 464.875 240.636719 L 464.097656 236.660156 L 463.382812 232.167969 L 462.863281 227.929688 L 462.34375 222.15625 L 462.082031 217.535156 L 461.953125 213.554688 Z M 461.953125 193.535156 "/>
<path style=" stroke:none;fill-rule:nonzero;fill:rgb(83.921569%,15.686275%,22.352941%);fill-opacity:1;" d="M 461.953125 275.058594 L 515.199219 275.058594 L 515.199219 279.265625 L 493.007812 279.304688 L 493.007812 314.371094 L 484.078125 314.371094 L 484.078125 279.339844 L 483.949219 279.265625 L 461.953125 279.265625 Z M 461.953125 275.058594 "/>
<path style=" stroke:none;fill-rule:nonzero;fill:rgb(14.509804%,36.078431%,60%);fill-opacity:1;" d="M 518 148.457031 L 518.066406 148.1875 L 518.066406 141.742188 L 518.261719 131.542969 L 518.714844 118.65625 L 519.167969 109.796875 L 520.335938 93.957031 L 521.960938 78.652344 L 523.648438 66.839844 L 524.882812 59.859375 L 525.988281 54.492188 L 528.519531 44.558594 L 530.140625 39.457031 L 531.894531 34.890625 L 534.039062 30.328125 L 535.597656 27.644531 L 539.101562 23.347656 L 541.699219 21.46875 L 543.714844 20.664062 L 548.0625 20.664062 L 550.660156 21.738281 L 552.542969 23.078125 L 554.621094 25.226562 L 556.375 27.644531 L 559.425781 33.550781 L 562.152344 41.066406 L 563.386719 45.363281 L 565.335938 53.683594 L 566.828125 61.738281 L 567.867188 68.71875 L 569.035156 78.652344 L 570.074219 90.734375 L 570.855469 104.425781 L 571.246094 115.96875 L 562.152344 115.96875 L 561.699219 105.230469 L 561.179688 96.910156 L 560.207031 85.902344 L 559.230469 78.117188 L 557.867188 70.332031 L 556.632812 65.230469 L 554.945312 60.128906 L 553.453125 56.90625 L 551.894531 54.492188 L 550.402344 52.878906 L 547.542969 51.269531 L 544.234375 51.269531 L 543 51.804688 L 540.464844 53.953125 L 539.101562 55.832031 L 537.15625 59.589844 L 535.792969 63.082031 L 534.167969 68.449219 L 533.0625 73.015625 L 531.699219 79.996094 L 530.726562 86.171875 L 529.621094 95.03125 L 528.972656 101.742188 L 528.390625 109.257812 L 527.871094 118.117188 L 527.480469 127.515625 L 527.21875 137.449219 L 527.089844 147.113281 L 527.089844 188.726562 L 527.21875 198.390625 L 527.546875 209.667969 L 528.390625 226.042969 L 529.621094 240.273438 L 531.050781 251.546875 L 532.414062 259.601562 L 533.195312 263.359375 L 534.234375 267.65625 L 535.855469 273.027344 L 538.195312 278.394531 L 539.558594 280.542969 L 541.636719 282.691406 L 543.777344 283.765625 L 546.636719 283.765625 L 549.167969 282.691406 L 550.855469 281.347656 L 552.609375 279.199219 L 555.011719 274.636719 L 556.503906 270.339844 L 557.804688 265.242188 L 558.777344 260.140625 L 559.425781 255.84375 L 560.402344 247.519531 L 561.179688 238.394531 L 561.765625 228.996094 L 562.152344 219.867188 L 571.246094 219.867188 L 570.855469 230.609375 L 570.269531 241.078125 L 569.6875 248.863281 L 568.777344 258.261719 L 567.738281 266.582031 L 566.246094 275.980469 L 565.011719 282.152344 L 563.386719 288.867188 L 561.894531 293.96875 L 560.269531 298.53125 L 557.867188 303.898438 L 556.308594 306.585938 L 554.621094 309 L 552.609375 311.148438 L 550.078125 313.027344 L 547.347656 314.101562 L 544.816406 314.371094 L 542.089844 313.832031 L 540.078125 312.761719 L 537.414062 310.34375 L 534.101562 305.511719 L 531.699219 300.410156 L 529.816406 295.308594 L 528.195312 289.941406 L 526.375 282.691406 L 524.039062 270.878906 L 522.609375 261.75 L 521.636719 254.234375 L 520.53125 243.761719 L 519.753906 234.367188 L 518.84375 219.332031 L 518.195312 200.269531 L 518 185.503906 Z M 518 148.457031 "/>
<path style=" stroke:none;fill-rule:nonzero;fill:rgb(83.921569%,15.686275%,22.352941%);fill-opacity:1;" d="M 574.046875 20.664062 L 627.289062 20.664062 L 627.289062 52.101562 L 605.101562 52.378906 L 605.101562 314.371094 L 596.171875 314.371094 L 596.171875 52.652344 L 596.042969 52.101562 L 574.046875 52.101562 Z M 574.046875 20.664062 "/>
<path style=" stroke:none;fill-rule:nonzero;fill:rgb(6.27451%,58.823529%,28.235294%);fill-opacity:1;" d="M 630.09375 314.332031 L 630.148438 314.296875 L 653.1875 275.058594 L 660.183594 275.058594 L 683.335938 314.371094 L 675.203125 314.371094 L 669.398438 304.109375 L 643.972656 304.109375 L 638.285156 314.332031 L 630.09375 314.332031 L 646.417969 299.863281 L 667.066406 299.828125 L 656.773438 281.480469 L 656.65625 281.445312 L 656.542969 281.554688 L 646.363281 299.828125 L 646.417969 299.863281 Z M 630.09375 314.332031 "/>
<path style=" stroke:none;fill-rule:nonzero;fill:rgb(96.862745%,70.196078%,16.862745%);fill-opacity:1;" d="M 630.09375 193.535156 L 630.15625 193.40625 L 630.15625 190.839844 L 630.417969 185.0625 L 631.066406 177.105469 L 631.910156 170.558594 L 632.820312 165.425781 L 633.40625 162.730469 L 634.378906 158.882812 L 635.222656 156.058594 L 637.367188 150.28125 L 640.09375 144.890625 L 641.585938 142.582031 L 643.273438 140.398438 L 645.675781 137.960938 L 646.78125 137.0625 L 650.15625 135.007812 L 653.988281 133.726562 L 658.207031 133.339844 L 660.15625 133.46875 L 662.820312 133.980469 L 666.453125 135.394531 L 668.53125 136.675781 L 670.15625 137.960938 L 671.84375 139.628906 L 673.921875 142.195312 L 675.871094 145.277344 L 677.429688 148.355469 L 678.988281 152.207031 L 680.285156 156.3125 L 681.390625 160.804688 L 682.363281 166.195312 L 682.949219 170.6875 L 683.335938 175.179688 L 674.3125 175.179688 L 673.792969 170.6875 L 673.207031 167.222656 L 672.234375 162.988281 L 671.257812 159.90625 L 670.285156 157.46875 L 668.46875 154.132812 L 666.910156 152.078125 L 664.960938 150.28125 L 663.078125 149.125 L 660.9375 148.355469 L 659.636719 148.101562 L 656.195312 148.101562 L 653.078125 149 L 651.261719 150.023438 L 649.960938 151.050781 L 648.144531 152.976562 L 647.039062 154.515625 L 646.390625 155.542969 L 644.441406 159.523438 L 643.144531 163.117188 L 642.429688 165.554688 L 641.519531 169.40625 L 640.871094 172.871094 L 640.15625 178.003906 L 639.769531 181.855469 L 639.25 190.582031 L 639.183594 213.683594 L 639.378906 218.5625 L 639.769531 223.824219 L 640.289062 228.445312 L 641.066406 233.320312 L 641.84375 237.042969 L 643.210938 242.050781 L 644.378906 245.386719 L 645.285156 247.570312 L 647.039062 251.035156 L 647.753906 252.1875 L 649.441406 254.5 L 651.195312 256.296875 L 653.339844 257.835938 L 654.960938 258.605469 L 657.558594 259.246094 L 660.871094 259.246094 L 664.765625 258.476562 L 667.234375 257.449219 L 668.921875 256.425781 L 670.027344 255.527344 L 671.390625 254.113281 L 672.363281 252.832031 L 673.273438 251.417969 L 674.375 249.238281 L 674.375 218.5625 L 658.339844 218.433594 L 658.339844 204.058594 L 683.273438 203.929688 L 683.335938 254.113281 L 681.972656 257.578125 L 680.285156 260.917969 L 678.660156 263.484375 L 676.972656 265.664062 L 674.570312 268.105469 L 672.625 269.644531 L 669.636719 271.441406 L 666.910156 272.597656 L 664.050781 273.367188 L 661.519531 273.75 L 658.53125 273.878906 L 655.871094 273.621094 L 653.015625 272.851562 L 650.742188 271.824219 L 648.664062 270.542969 L 646.585938 268.875 L 643.988281 266.179688 L 642.300781 263.996094 L 640.546875 261.300781 L 638.792969 258.09375 L 637.234375 254.628906 L 636.195312 251.933594 L 635.15625 248.851562 L 634.054688 245 L 633.015625 240.636719 L 632.234375 236.660156 L 631.523438 232.167969 L 631.003906 227.929688 L 630.484375 222.15625 L 630.222656 217.535156 L 630.09375 213.554688 Z M 630.09375 193.535156 "/>
<g style="fill:rgb(0%,0%,0%);fill-opacity:1;">
  <use xlink:href="#glyph0-1" x="21.957031" y="318.198242"/>
  <use xlink:href="#glyph0-2" x="27.291016" y="318.198242"/>
  <use xlink:href="#glyph0-1" x="29.958008" y="318.198242"/>
</g>
<g style="fill:rgb(0%,0%,0%);fill-opacity:1;">
  <use xlink:href="#glyph0-1" x="21.957031" y="244.475586"/>
  <use xlink:href="#glyph0-2" x="27.291016" y="244.475586"/>
  <use xlink:href="#glyph0-3" x="29.958008" y="244.475586"/>
</g>
<g style="fill:rgb(0%,0%,0%);fill-opacity:1;">
  <use xlink:href="#glyph0-4" x="21.957031" y="170.75293"/>
  <use xlink:href="#glyph0-2" x="27.291016" y="170.75293"/>
  <use xlink:href="#glyph0-1" x="29.958008" y="170.75293"/>
</g>
<g style="fill:rgb(0%,0%,0%);fill-opacity:1;">
  <use xlink:href="#glyph0-4" x="21.957031" y="97.03418"/>
  <use xlink:href="#glyph0-2" x="27.291016" y="97.03418"/>
  <use xlink:href="#glyph0-3" x="29.958008" y="97.03418"/>
</g>
<g style="fill:rgb(0%,0%,0%);fill-opacity:1;">
  <use xlink:href="#glyph0-5" x="21.957031" y="23.311523"/>
  <use xlink:href="#glyph0-2" x="27.291016" y="23.311523"/>
  <use xlink:href="#glyph0-1" x="29.958008" y="23.311523"/>
</g>
<g style="fill:rgb(0%,0%,0%);fill-opacity:1;">
  <use xlink:href="#glyph0-4" x="93.25" y="338.19043"/>
</g>
<g style="fill:rgb(0%,0%,0%);fill-opacity:1;">
  <use xlink:href="#glyph0-5" x="149.296875" y="338.19043"/>
</g>
<g style="fill:rgb(0%,0%,0%);fill-opacity:1;">
  <use xlink:href="#glyph0-6" x="205.34375" y="338.19043"/>
</g>
<g style="fill:rgb(0%,0%,0%);fill-opacity:1;">
  <use xlink:href="#glyph0-7" x="261.390625" y="338.19043"/>
</g>
<g style="fill:rgb(0%,0%,0%);fill-opacity:1;">
  <use xlink:href="#glyph0-3" x="317.4375" y="338.19043"/>
</g>
<g style="fill:rgb(0%,0%,0%);fill-opacity:1;">
  <use xlink:href="#glyph0-8" x="373.484375" y="338.19043"/>
</g>
<g style="fill:rgb(0%,0%,0%);fill-opacity:1;">
  <use xlink:href="#glyph0-9" x="429.53125" y="338.19043"/>
</g>
<g style="fill:rgb(0%,0%,0%);fill-opacity:1;">
  <use xlink:href="#glyph0-10" x="485.574219" y="338.19043"/>
</g>
<g style="fill:rgb(0%,0%,0%);fill-opacity:1;">
  <use xlink:href="#glyph0-11" x="541.621094" y="338.19043"/>
</g>
<g style="fill:rgb(0%,0%,0%);fill-opacity:1;">
  <use xlink:href="#glyph0-4" x="595.167969" y="338.19043"/>
  <use xlink:href="#glyph0-1" x="600.501953" y="338.19043"/>
</g>
<g style="fill:rgb(0%,0%,0%);fill-opacity:1;">
  <use xlink:href="#glyph0-4" x="651.214844" y="338.19043"/>
  <use xlink:href="#glyph0-4" x="656.548828" y="338.19043"/>
</g>
<g style="fill:rgb(0%,0%,0%);fill-opacity:1;">
  <use xlink:href="#glyph1-1" x="14.412109" y="178.015625"/>
  <use xlink:href="#glyph1-2" x="14.412109" y="170.011719"/>
  <use xlink:href="#glyph1-3" x="14.412109" y="167.347656"/>
  <use xlink:href="#glyph1-4" x="14.412109" y="164.011719"/>
</g>
</g>
</svg>
