<?xml version="1.0" encoding="UTF-8"?>
<svg xmlns="http://www.w3.org/2000/svg" xmlns:xlink="http://www.w3.org/1999/xlink" width="720pt" height="360pt" viewBox="0 0 720 360" version="1.1">
<defs>
<g>
<symbol overflow="visible" id="glyph0-0">
<path style="stroke:none;" d=""/>
</symbol>
<symbol overflow="visible" id="glyph0-1">
<path style="stroke:none;" d="M 2.640625 -6.796875 C 2 -6.796875 1.421875 -6.53125 1.078125 -6.046875 C 0.640625 -5.453125 0.40625 -4.546875 0.40625 -3.296875 C 0.40625 -1 1.1875 0.21875 2.640625 0.21875 C 4.078125 0.21875 4.859375 -1 4.859375 -3.234375 C 4.859375 -4.5625 4.65625 -5.4375 4.203125 -6.046875 C 3.84375 -6.53125 3.28125 -6.796875 2.640625 -6.796875 Z M 2.640625 -6.046875 C 3.546875 -6.046875 4 -5.125 4 -3.3125 C 4 -1.375 3.5625 -0.484375 2.625 -0.484375 C 1.734375 -0.484375 1.28125 -1.421875 1.28125 -3.28125 C 1.28125 -5.140625 1.734375 -6.046875 2.640625 -6.046875 Z M 2.640625 -6.046875 "/>
</symbol>
<symbol overflow="visible" id="glyph0-2">
<path style="stroke:none;" d="M 1.828125 -1 L 0.828125 -1 L 0.828125 0 L 1.828125 0 Z M 1.828125 -1 "/>
</symbol>
<symbol overflow="visible" id="glyph0-3">
<path style="stroke:none;" d="M 4.5625 -6.796875 L 1.0625 -6.796875 L 0.546875 -3.09375 L 1.328125 -3.09375 C 1.71875 -3.5625 2.046875 -3.734375 2.578125 -3.734375 C 3.484375 -3.734375 4.0625 -3.109375 4.0625 -2.09375 C 4.0625 -1.125 3.484375 -0.53125 2.578125 -0.53125 C 1.828125 -0.53125 1.375 -0.90625 1.1875 -1.671875 L 0.328125 -1.671875 C 0.453125 -1.109375 0.546875 -0.84375 0.75 -0.59375 C 1.125 -0.078125 1.828125 0.21875 2.59375 0.21875 C 3.96875 0.21875 4.921875 -0.78125 4.921875 -2.21875 C 4.921875 -3.5625 4.03125 -4.484375 2.71875 -4.484375 C 2.25 -4.484375 1.859375 -4.359375 1.46875 -4.0625 L 1.734375 -5.96875 L 4.5625 -5.96875 Z M 4.5625 -6.796875 "/>
</symbol>
<symbol overflow="visible" id="glyph0-4">
<path style="stroke:none;" d="M 2.484375 -4.84375 L 2.484375 0 L 3.328125 0 L 3.328125 -6.796875 L 2.765625 -6.796875 C 2.46875 -5.75 2.28125 -5.609375 0.984375 -5.453125 L 0.984375 -4.84375 Z M 2.484375 -4.84375 "/>
</symbol>
<symbol overflow="visible" id="glyph0-5">
<path style="stroke:none;" d="M 4.859375 -0.828125 L 1.28125 -0.828125 C 1.359375 -1.390625 1.671875 -1.75 2.5 -2.234375 L 3.46875 -2.75 C 4.40625 -3.265625 4.90625 -3.96875 4.90625 -4.8125 C 4.90625 -5.375 4.671875 -5.90625 4.265625 -6.265625 C 3.859375 -6.625 3.375 -6.796875 2.71875 -6.796875 C 1.859375 -6.796875 1.21875 -6.5 0.84375 -5.921875 C 0.609375 -5.5625 0.5 -5.125 0.484375 -4.4375 L 1.328125 -4.4375 C 1.359375 -4.90625 1.40625 -5.1875 1.53125 -5.40625 C 1.75 -5.8125 2.1875 -6.0625 2.703125 -6.0625 C 3.46875 -6.0625 4.03125 -5.515625 4.03125 -4.78125 C 4.03125 -4.25 3.71875 -3.796875 3.125 -3.4375 L 2.234375 -2.9375 C 0.8125 -2.140625 0.40625 -1.5 0.328125 0 L 4.859375 0 Z M 4.859375 -0.828125 "/>
</symbol>
<symbol overflow="visible" id="glyph0-6">
<path style="stroke:none;" d="M 2.125 -3.125 L 2.578125 -3.125 C 3.515625 -3.125 3.984375 -2.703125 3.984375 -1.890625 C 3.984375 -1.03125 3.46875 -0.53125 2.578125 -0.53125 C 1.65625 -0.53125 1.203125 -0.984375 1.15625 -1.96875 L 0.3125 -1.96875 C 0.34375 -1.421875 0.4375 -1.078125 0.609375 -0.765625 C 0.953125 -0.109375 1.625 0.21875 2.546875 0.21875 C 3.953125 0.21875 4.859375 -0.609375 4.859375 -1.90625 C 4.859375 -2.765625 4.515625 -3.25 3.703125 -3.515625 C 4.34375 -3.765625 4.65625 -4.25 4.65625 -4.9375 C 4.65625 -6.109375 3.875 -6.796875 2.578125 -6.796875 C 1.203125 -6.796875 0.484375 -6.046875 0.453125 -4.609375 L 1.296875 -4.609375 C 1.3125 -5.015625 1.34375 -5.25 1.453125 -5.453125 C 1.640625 -5.828125 2.0625 -6.0625 2.59375 -6.0625 C 3.34375 -6.0625 3.796875 -5.625 3.796875 -4.90625 C 3.796875 -4.421875 3.609375 -4.140625 3.25 -3.984375 C 3.015625 -3.890625 2.71875 -3.84375 2.125 -3.84375 Z M 2.125 -3.125 "/>
</symbol>
<symbol overflow="visible" id="glyph0-7">
<path style="stroke:none;" d="M 3.140625 -1.625 L 3.140625 0 L 3.984375 0 L 3.984375 -1.625 L 4.984375 -1.625 L 4.984375 -2.390625 L 3.984375 -2.390625 L 3.984375 -6.796875 L 3.359375 -6.796875 L 0.265625 -2.515625 L 0.265625 -1.625 Z M 3.140625 -2.390625 L 1 -2.390625 L 3.140625 -5.359375 Z M 3.140625 -2.390625 "/>
</symbol>
<symbol overflow="visible" id="glyph0-8">
<path style="stroke:none;" d="M 4.78125 -5.03125 C 4.609375 -6.140625 3.890625 -6.796875 2.84375 -6.796875 C 2.09375 -6.796875 1.421875 -6.4375 1.03125 -5.828125 C 0.609375 -5.171875 0.40625 -4.34375 0.40625 -3.09375 C 0.40625 -1.953125 0.578125 -1.234375 0.984375 -0.625 C 1.359375 -0.078125 1.953125 0.21875 2.703125 0.21875 C 3.984375 0.21875 4.921875 -0.734375 4.921875 -2.078125 C 4.921875 -3.34375 4.0625 -4.234375 2.84375 -4.234375 C 2.171875 -4.234375 1.640625 -3.96875 1.28125 -3.46875 C 1.28125 -5.125 1.828125 -6.046875 2.796875 -6.046875 C 3.390625 -6.046875 3.796875 -5.671875 3.9375 -5.03125 Z M 2.734375 -3.484375 C 3.546875 -3.484375 4.0625 -2.921875 4.0625 -2 C 4.0625 -1.15625 3.484375 -0.53125 2.703125 -0.53125 C 1.921875 -0.53125 1.328125 -1.1875 1.328125 -2.046875 C 1.328125 -2.890625 1.90625 -3.484375 2.734375 -3.484375 Z M 2.734375 -3.484375 "/>
</symbol>
<symbol overflow="visible" id="glyph0-9">
<path style="stroke:none;" d="M 4.984375 -6.796875 L 0.4375 -6.796875 L 0.4375 -5.96875 L 4.109375 -5.96875 C 2.5 -3.65625 1.828125 -2.234375 1.328125 0 L 2.21875 0 C 2.59375 -2.171875 3.453125 -4.046875 4.984375 -6.09375 Z M 4.984375 -6.796875 "/>
</symbol>
<symbol overflow="visible" id="glyph0-10">
<path style="stroke:none;" d="M 3.75 -3.578125 C 4.453125 -4 4.6875 -4.34375 4.6875 -4.984375 C 4.6875 -6.046875 3.84375 -6.796875 2.640625 -6.796875 C 1.4375 -6.796875 0.59375 -6.046875 0.59375 -4.984375 C 0.59375 -4.359375 0.828125 -4.015625 1.515625 -3.578125 C 0.734375 -3.203125 0.359375 -2.640625 0.359375 -1.890625 C 0.359375 -0.640625 1.296875 0.21875 2.640625 0.21875 C 3.984375 0.21875 4.921875 -0.640625 4.921875 -1.875 C 4.921875 -2.640625 4.53125 -3.203125 3.75 -3.578125 Z M 2.640625 -6.046875 C 3.359375 -6.046875 3.8125 -5.625 3.8125 -4.96875 C 3.8125 -4.34375 3.34375 -3.921875 2.640625 -3.921875 C 1.921875 -3.921875 1.453125 -4.34375 1.453125 -4.984375 C 1.453125 -5.625 1.921875 -6.046875 2.640625 -6.046875 Z M 2.640625 -3.203125 C 3.484375 -3.203125 4.0625 -2.671875 4.0625 -1.875 C 4.0625 -1.0625 3.484375 -0.53125 2.625 -0.53125 C 1.796875 -0.53125 1.21875 -1.078125 1.21875 -1.875 C 1.21875 -2.671875 1.796875 -3.203125 2.640625 -3.203125 Z M 2.640625 -3.203125 "/>
</symbol>
<symbol overflow="visible" id="glyph1-0">
<path style="stroke:none;" d=""/>
</symbol>
<symbol overflow="visible" id="glyph1-1">
<path style="stroke:none;" d="M 0 -0.953125 L 0 -4.890625 C 0 -5.71875 -0.234375 -6.34375 -0.734375 -6.796875 C -1.1875 -7.234375 -1.8125 -7.46875 -2.5 -7.46875 C -3.546875 -7.46875 -4.1875 -7 -4.625 -5.875 C -4.984375 -6.671875 -5.640625 -7.09375 -6.53125 -7.09375 C -7.15625 -7.09375 -7.734375 -6.859375 -8.140625 -6.390625 C -8.5625 -5.9375 -8.75 -5.34375 -8.75 -4.5 L -8.75 -0.953125 Z M -4.984375 -2.0625 L -7.765625 -2.0625 L -7.765625 -4.21875 C -7.765625 -4.84375 -7.6875 -5.203125 -7.453125 -5.5 C -7.21875 -5.8125 -6.859375 -5.96875 -6.375 -5.96875 C -5.90625 -5.96875 -5.53125 -5.8125 -5.296875 -5.5 C -5.0625 -5.203125 -4.984375 -4.84375 -4.984375 -4.21875 Z M -0.984375 -2.0625 L -4 -2.0625 L -4 -4.78125 C -4 -5.328125 -3.859375 -5.6875 -3.578125 -5.953125 C -3.296875 -6.21875 -2.921875 -6.359375 -2.484375 -6.359375 C -2.0625 -6.359375 -1.6875 -6.21875 -1.40625 -5.953125 C -1.109375 -5.6875 -0.984375 -5.328125 -0.984375 -4.78125 Z M -0.984375 -2.0625 "/>
</symbol>
<symbol overflow="visible" id="glyph1-2">
<path style="stroke:none;" d="M -6.28125 -1.796875 L -6.28125 -0.796875 L 0 -0.796875 L 0 -1.796875 Z M -8.75 -1.796875 L -8.75 -0.796875 L -7.484375 -0.796875 L -7.484375 -1.796875 Z M -8.75 -1.796875 "/>
</symbol>
<symbol overflow="visible" id="glyph1-3">
<path style="stroke:none;" d="M -6.28125 -3.046875 L -6.28125 -2.015625 L -8.015625 -2.015625 L -8.015625 -1.015625 L -6.28125 -1.015625 L -6.28125 -0.171875 L -5.46875 -0.171875 L -5.46875 -1.015625 L -0.71875 -1.015625 C -0.078125 -1.015625 0.28125 -1.453125 0.28125 -2.234375 C 0.28125 -2.46875 0.25 -2.71875 0.1875 -3.046875 L -0.640625 -3.046875 C -0.609375 -2.921875 -0.59375 -2.765625 -0.59375 -2.5625 C -0.59375 -2.140625 -0.71875 -2.015625 -1.15625 -2.015625 L -5.46875 -2.015625 L -5.46875 -3.046875 Z M -6.28125 -3.046875 "/>
</symbol>
<symbol overflow="visible" id="glyph1-4">
<path style="stroke:none;" d="M -4.53125 -5.25 C -5.765625 -5.25 -6.46875 -4.421875 -6.46875 -2.96875 C -6.46875 -1.515625 -5.71875 -0.5625 -4.546875 -0.5625 C -3.5625 -0.5625 -3.09375 -1.0625 -2.734375 -2.5625 L -2.515625 -3.484375 C -2.34375 -4.1875 -2.09375 -4.46875 -1.625 -4.46875 C -1.046875 -4.46875 -0.640625 -3.875 -0.640625 -3 C -0.640625 -2.453125 -0.796875 -2 -1.0625 -1.75 C -1.25 -1.59375 -1.421875 -1.53125 -1.875 -1.46875 L -1.875 -0.40625 C -0.421875 -0.453125 0.28125 -1.265625 0.28125 -2.921875 C 0.28125 -4.5 -0.5 -5.515625 -1.71875 -5.515625 C -2.65625 -5.515625 -3.171875 -4.984375 -3.46875 -3.734375 L -3.703125 -2.765625 C -3.890625 -1.953125 -4.15625 -1.609375 -4.59375 -1.609375 C -5.171875 -1.609375 -5.546875 -2.125 -5.546875 -2.9375 C -5.546875 -3.75 -5.203125 -4.171875 -4.53125 -4.203125 Z M -4.53125 -5.25 "/>
</symbol>
</g>
</defs>
<g id="surface17567">
<rect x="0" y="0" width="720" height="360" style="fill:rgb(100%,100%,100%);fill-opacity:1;stroke:none;"/>
<path style=" stroke:none;fill-rule:nonzero;fill:rgb(6.27451%,58.823529%,28.235294%);fill-opacity:1;" d="M 69.628906 314.367188 L 69.707031 314.367188 L 101.441406 312.304688 L 111.078125 312.304688 L 142.964844 314.371094 L 131.761719 314.371094 L 123.769531 313.832031 L 88.746094 313.832031 L 80.910156 314.367188 L 69.628906 314.367188 L 92.117188 313.609375 L 120.558594 313.605469 L 106.375 312.640625 L 106.21875 312.640625 L 106.0625 312.644531 L 92.039062 313.605469 L 92.117188 313.609375 Z M 69.628906 314.367188 "/>
<path style=" stroke:none;fill-rule:nonzero;fill:rgb(14.509804%,36.078431%,60%);fill-opacity:1;" d="M 69.628906 299.28125 L 69.71875 299.273438 L 69.71875 299.046875 L 69.988281 298.695312 L 70.613281 298.246094 L 71.238281 297.941406 L 72.847656 297.390625 L 75.085938 296.859375 L 77.410156 296.449219 L 79.109375 296.207031 L 80.628906 296.023438 L 84.117188 295.679688 L 86.355469 295.5 L 88.769531 295.34375 L 91.71875 295.183594 L 93.867188 295.089844 L 98.695312 294.941406 L 102.273438 294.878906 L 105.046875 294.847656 L 111.039062 294.847656 L 114.613281 294.886719 L 117.207031 294.933594 L 120.070312 295.007812 L 122.484375 295.089844 L 126.6875 295.296875 L 130.445312 295.558594 L 132.144531 295.707031 L 134.828125 295.996094 L 136.882812 296.273438 L 138.316406 296.515625 L 139.925781 296.859375 L 141.355469 297.28125 L 142.429688 297.753906 L 142.964844 298.15625 L 130.445312 298.15625 L 129.820312 297.78125 L 129.101562 297.492188 L 127.761719 297.113281 L 126.421875 296.84375 L 124.542969 296.570312 L 122.84375 296.394531 L 120.515625 296.21875 L 118.460938 296.105469 L 116.3125 296.023438 L 114.257812 295.964844 L 110.320312 295.910156 L 105.761719 295.910156 L 104.0625 295.929688 L 100.574219 296.003906 L 98.695312 296.070312 L 96.011719 296.199219 L 94.132812 296.320312 L 91.898438 296.507812 L 90.378906 296.664062 L 88.5 296.90625 L 87.160156 297.121094 L 85.636719 297.429688 L 84.742188 297.660156 L 83.9375 297.921875 L 83.222656 298.230469 L 82.6875 298.554688 L 82.328125 298.898438 L 82.148438 299.234375 L 82.148438 300.675781 L 82.328125 301.011719 L 82.777344 301.402344 L 83.9375 301.972656 L 85.636719 302.464844 L 87.605469 302.855469 L 89.484375 303.136719 L 90.558594 303.265625 L 91.988281 303.414062 L 94.222656 303.601562 L 97.445312 303.789062 L 99.320312 303.863281 L 102.183594 303.9375 L 105.136719 303.972656 L 109.070312 303.972656 L 112.558594 303.9375 L 114.882812 303.890625 L 117.296875 303.816406 L 120.605469 303.65625 L 122.664062 303.507812 L 124.453125 303.332031 L 125.792969 303.15625 L 126.6875 303.003906 L 128.03125 302.714844 L 129.101562 302.398438 L 129.90625 302.074219 L 130.445312 301.757812 L 142.964844 301.757812 L 142.429688 302.128906 L 141.625 302.492188 L 140.820312 302.761719 L 139.566406 303.089844 L 138.136719 303.378906 L 136.078125 303.703125 L 134.378906 303.917969 L 132.144531 304.152344 L 130.085938 304.328125 L 127.851562 304.484375 L 124.542969 304.671875 L 122.394531 304.765625 L 120.070312 304.847656 L 117.296875 304.921875 L 113.808594 304.988281 L 110.054688 305.027344 L 106.566406 305.035156 L 102.808594 305.015625 L 100.035156 304.980469 L 96.371094 304.894531 L 91.808594 304.726562 L 88.5 304.550781 L 85.90625 304.375 L 83.671875 304.1875 L 81.167969 303.9375 L 77.945312 303.527344 L 75.980469 303.210938 L 74.636719 302.949219 L 73.117188 302.585938 L 72.042969 302.261719 L 70.792969 301.738281 L 69.898438 301.078125 L 69.628906 300.566406 Z M 69.628906 299.28125 "/>
<path style=" stroke:none;fill-rule:nonzero;fill:rgb(96.862745%,70.196078%,16.862745%);fill-opacity:1;" d="M 69.628906 308.316406 L 69.71875 308.3125 L 69.71875 308.222656 L 70.078125 308.019531 L 70.972656 307.742188 L 72.132812 307.515625 L 73.386719 307.335938 L 74.191406 307.242188 L 75.53125 307.105469 L 76.695312 307.007812 L 79.644531 306.804688 L 83.402344 306.617188 L 85.460938 306.539062 L 87.785156 306.460938 L 91.09375 306.375 L 92.613281 306.34375 L 97.265625 306.273438 L 102.542969 306.226562 L 108.355469 306.214844 L 111.039062 306.21875 L 114.703125 306.238281 L 119.710938 306.285156 L 122.574219 306.332031 L 124.808594 306.375 L 127.136719 306.433594 L 129.996094 306.523438 L 132.679688 306.632812 L 134.828125 306.738281 L 136.972656 306.875 L 138.761719 307.015625 L 140.28125 307.175781 L 141.625 307.363281 L 142.429688 307.519531 L 142.964844 307.675781 L 130.535156 307.675781 L 129.820312 307.519531 L 129.015625 307.398438 L 127.671875 307.25 L 126.332031 307.140625 L 124.988281 307.058594 L 122.484375 306.941406 L 120.339844 306.867188 L 117.65625 306.804688 L 115.0625 306.765625 L 112.109375 306.738281 L 110.320312 306.730469 L 105.582031 306.730469 L 101.289062 306.761719 L 98.785156 306.796875 L 96.996094 306.832031 L 94.492188 306.902344 L 92.972656 306.953125 L 92.078125 306.988281 L 89.394531 307.128906 L 87.605469 307.253906 L 86.621094 307.339844 L 85.371094 307.472656 L 84.476562 307.59375 L 83.492188 307.773438 L 82.953125 307.910156 L 82.238281 308.214844 L 82.148438 309.019531 L 82.417969 309.191406 L 82.953125 309.375 L 83.671875 309.535156 L 84.742188 309.707031 L 85.816406 309.835938 L 87.695312 310.011719 L 89.304688 310.128906 L 90.558594 310.203125 L 92.972656 310.324219 L 93.957031 310.367188 L 96.28125 310.445312 L 98.695312 310.507812 L 101.648438 310.5625 L 103.882812 310.589844 L 107.460938 310.613281 L 112.019531 310.613281 L 117.386719 310.585938 L 120.785156 310.550781 L 123.109375 310.515625 L 124.632812 310.480469 L 126.507812 310.433594 L 127.851562 310.386719 L 129.101562 310.339844 L 130.625 310.261719 L 130.625 309.191406 L 108.535156 309.1875 L 108.535156 308.683594 L 142.875 308.679688 L 142.964844 310.433594 L 141.085938 310.554688 L 138.761719 310.671875 L 136.527344 310.761719 L 134.199219 310.835938 L 130.890625 310.921875 L 128.207031 310.976562 L 124.09375 311.039062 L 120.339844 311.078125 L 116.402344 311.105469 L 112.914062 311.117188 L 108.800781 311.125 L 105.136719 311.113281 L 101.199219 311.085938 L 98.070312 311.050781 L 95.207031 311.007812 L 92.34375 310.949219 L 88.769531 310.855469 L 86.441406 310.777344 L 84.027344 310.683594 L 81.613281 310.570312 L 79.46875 310.449219 L 78.035156 310.355469 L 76.605469 310.25 L 75.085938 310.113281 L 73.652344 309.960938 L 72.582031 309.824219 L 71.597656 309.667969 L 70.882812 309.519531 L 70.164062 309.316406 L 69.808594 309.15625 L 69.628906 309.015625 Z M 69.628906 308.316406 "/>
<path style=" stroke:none;fill-rule:nonzero;fill:rgb(83.921569%,15.686275%,22.352941%);fill-opacity:1;" d="M 69.628906 275.367188 L 142.964844 275.367188 L 142.964844 277.324219 L 112.402344 277.34375 L 112.402344 293.667969 L 100.105469 293.667969 L 100.105469 277.359375 L 99.925781 277.324219 L 69.628906 277.324219 Z M 69.628906 275.367188 "/>
<path style=" stroke:none;fill-rule:nonzero;fill:rgb(14.509804%,36.078431%,60%);fill-opacity:1;" d="M 146.824219 148.457031 L 146.914062 148.1875 L 146.914062 141.742188 L 147.183594 131.542969 L 147.808594 118.65625 L 148.433594 109.796875 L 150.042969 93.957031 L 152.28125 78.652344 L 154.605469 66.839844 L 156.304688 59.859375 L 157.824219 54.492188 L 161.3125 44.558594 L 163.550781 39.457031 L 165.964844 34.890625 L 168.914062 30.328125 L 171.0625 27.644531 L 175.890625 23.347656 L 179.46875 21.46875 L 182.242188 20.664062 L 188.234375 20.664062 L 191.8125 21.738281 L 194.40625 23.078125 L 197.265625 25.226562 L 199.679688 27.644531 L 203.882812 33.550781 L 207.640625 41.066406 L 209.339844 45.363281 L 212.023438 53.683594 L 214.078125 61.738281 L 215.511719 68.71875 L 217.121094 78.652344 L 218.550781 90.734375 L 219.625 104.425781 L 220.160156 115.96875 L 207.640625 115.96875 L 207.015625 105.230469 L 206.300781 96.910156 L 204.957031 85.902344 L 203.617188 78.117188 L 201.738281 70.332031 L 200.039062 65.230469 L 197.714844 60.128906 L 195.65625 56.90625 L 193.511719 54.492188 L 191.453125 52.878906 L 187.519531 51.269531 L 182.957031 51.269531 L 181.257812 51.804688 L 177.769531 53.953125 L 175.890625 55.832031 L 173.207031 59.589844 L 171.332031 63.082031 L 169.09375 68.449219 L 167.574219 73.015625 L 165.695312 79.996094 L 164.355469 86.171875 L 162.835938 95.03125 L 161.941406 101.742188 L 161.136719 109.257812 L 160.417969 118.117188 L 159.882812 127.515625 L 159.523438 137.449219 L 159.347656 147.113281 L 159.347656 188.726562 L 159.523438 198.390625 L 159.972656 209.667969 L 161.136719 226.042969 L 162.835938 240.273438 L 164.800781 251.546875 L 166.679688 259.601562 L 167.753906 263.359375 L 169.183594 267.65625 L 171.417969 273.027344 L 174.640625 278.394531 L 176.515625 280.542969 L 179.378906 282.691406 L 182.332031 283.765625 L 186.265625 283.765625 L 189.753906 282.691406 L 192.078125 281.347656 L 194.492188 279.199219 L 197.804688 274.636719 L 199.859375 270.339844 L 201.648438 265.242188 L 202.988281 260.140625 L 203.882812 255.84375 L 205.226562 247.519531 L 206.300781 238.394531 L 207.105469 228.996094 L 207.640625 219.867188 L 220.160156 219.867188 L 219.625 230.609375 L 218.820312 241.078125 L 218.015625 248.863281 L 216.761719 258.261719 L 215.332031 266.582031 L 213.273438 275.980469 L 211.574219 282.152344 L 209.339844 288.867188 L 207.28125 293.96875 L 205.046875 298.53125 L 201.738281 303.898438 L 199.589844 306.585938 L 197.265625 309 L 194.492188 311.148438 L 191.003906 313.027344 L 187.25 314.101562 L 183.761719 314.371094 L 180.003906 313.832031 L 177.234375 312.761719 L 173.566406 310.34375 L 169.003906 305.511719 L 165.695312 300.410156 L 163.101562 295.308594 L 160.867188 289.941406 L 158.363281 282.691406 L 155.144531 270.878906 L 153.175781 261.75 L 151.832031 254.234375 L 150.3125 243.761719 L 149.238281 234.367188 L 147.988281 219.332031 L 147.09375 200.269531 L 146.824219 185.503906 Z M 146.824219 148.457031 "/>
<path style=" stroke:none;fill-rule:nonzero;fill:rgb(14.509804%,36.078431%,60%);fill-opacity:1;" d="M 224.019531 148.457031 L 224.109375 148.1875 L 224.109375 141.742188 L 224.378906 131.542969 L 225.003906 118.65625 L 225.632812 109.796875 L 227.242188 93.957031 L 229.476562 78.652344 L 231.800781 66.839844 L 233.5 59.859375 L 235.023438 54.492188 L 238.507812 44.558594 L 240.746094 39.457031 L 243.160156 34.890625 L 246.113281 30.328125 L 248.257812 27.644531 L 253.085938 23.347656 L 256.664062 21.46875 L 259.4375 20.664062 L 265.429688 20.664062 L 269.007812 21.738281 L 271.601562 23.078125 L 274.460938 25.226562 L 276.875 27.644531 L 281.082031 33.550781 L 284.835938 41.066406 L 286.535156 45.363281 L 289.21875 53.683594 L 291.277344 61.738281 L 292.707031 68.71875 L 294.316406 78.652344 L 295.746094 90.734375 L 296.820312 104.425781 L 297.355469 115.96875 L 284.835938 115.96875 L 284.210938 105.230469 L 283.496094 96.910156 L 282.152344 85.902344 L 280.8125 78.117188 L 278.933594 70.332031 L 277.234375 65.230469 L 274.910156 60.128906 L 272.851562 56.90625 L 270.707031 54.492188 L 268.648438 52.878906 L 264.714844 51.269531 L 260.152344 51.269531 L 258.453125 51.804688 L 254.964844 53.953125 L 253.085938 55.832031 L 250.40625 59.589844 L 248.527344 63.082031 L 246.289062 68.449219 L 244.769531 73.015625 L 242.890625 79.996094 L 241.550781 86.171875 L 240.03125 95.03125 L 239.136719 101.742188 L 238.332031 109.257812 L 237.613281 118.117188 L 237.078125 127.515625 L 236.722656 137.449219 L 236.542969 147.113281 L 236.542969 188.726562 L 236.722656 198.390625 L 237.167969 209.667969 L 238.332031 226.042969 L 240.03125 240.273438 L 241.996094 251.546875 L 243.875 259.601562 L 244.949219 263.359375 L 246.378906 267.65625 L 248.617188 273.027344 L 251.835938 278.394531 L 253.714844 280.542969 L 256.574219 282.691406 L 259.527344 283.765625 L 263.460938 283.765625 L 266.949219 282.691406 L 269.273438 281.347656 L 271.691406 279.199219 L 275 274.636719 L 277.054688 270.339844 L 278.84375 265.242188 L 280.1875 260.140625 L 281.082031 255.84375 L 282.421875 247.519531 L 283.496094 238.394531 L 284.300781 228.996094 L 284.835938 219.867188 L 297.355469 219.867188 L 296.820312 230.609375 L 296.015625 241.078125 L 295.210938 248.863281 L 293.957031 258.261719 L 292.527344 266.582031 L 290.472656 275.980469 L 288.773438 282.152344 L 286.535156 288.867188 L 284.480469 293.96875 L 282.242188 298.53125 L 278.933594 303.898438 L 276.789062 306.585938 L 274.460938 309 L 271.691406 311.148438 L 268.203125 313.027344 L 264.445312 314.101562 L 260.957031 314.371094 L 257.203125 313.832031 L 254.429688 312.761719 L 250.761719 310.34375 L 246.199219 305.511719 L 242.890625 300.410156 L 240.296875 295.308594 L 238.0625 289.941406 L 235.558594 282.691406 L 232.339844 270.878906 L 230.371094 261.75 L 229.03125 254.234375 L 227.507812 243.761719 L 226.4375 234.367188 L 225.183594 219.332031 L 224.289062 200.269531 L 224.019531 185.503906 Z M 224.019531 148.457031 "/>
<path style=" stroke:none;fill-rule:nonzero;fill:rgb(6.27451%,58.823529%,28.235294%);fill-opacity:1;" d="M 301.21875 314.347656 L 301.296875 314.320312 L 333.027344 287.898438 L 342.664062 287.898438 L 374.554688 314.371094 L 363.347656 314.371094 L 355.355469 307.460938 L 320.335938 307.460938 L 312.5 314.347656 L 301.21875 314.347656 L 323.703125 304.601562 L 352.144531 304.578125 L 337.964844 292.222656 L 337.808594 292.199219 L 337.648438 292.273438 L 323.625 304.578125 L 323.703125 304.601562 Z M 301.21875 314.347656 "/>
<path style=" stroke:none;fill-rule:nonzero;fill:rgb(96.862745%,70.196078%,16.862745%);fill-opacity:1;" d="M 301.21875 181.605469 L 301.304688 181.4375 L 301.304688 178.078125 L 301.664062 170.523438 L 302.558594 160.113281 L 303.722656 151.550781 L 304.972656 144.832031 L 305.777344 141.304688 L 307.121094 136.269531 L 308.28125 132.574219 L 311.234375 125.019531 L 314.988281 117.964844 L 317.046875 114.945312 L 319.371094 112.089844 L 322.679688 108.898438 L 324.203125 107.722656 L 328.851562 105.035156 L 334.128906 103.355469 L 339.941406 102.855469 L 342.625 103.023438 L 346.292969 103.691406 L 351.300781 105.539062 L 354.164062 107.21875 L 356.398438 108.898438 L 358.722656 111.082031 L 361.585938 114.441406 L 364.269531 118.46875 L 366.414062 122.5 L 368.5625 127.539062 L 370.351562 132.910156 L 371.871094 138.789062 L 373.210938 145.839844 L 374.015625 151.71875 L 374.554688 157.59375 L 362.121094 157.59375 L 361.40625 151.71875 L 360.601562 147.183594 L 359.261719 141.640625 L 357.917969 137.613281 L 356.578125 134.421875 L 354.074219 130.054688 L 351.925781 127.371094 L 349.242188 125.019531 L 346.648438 123.507812 L 343.699219 122.5 L 341.910156 122.164062 L 337.167969 122.164062 L 332.875 123.339844 L 330.371094 124.683594 L 328.585938 126.027344 L 326.078125 128.542969 L 324.558594 130.558594 L 323.664062 131.902344 L 320.980469 137.109375 L 319.195312 141.808594 L 318.210938 145 L 316.957031 150.039062 L 316.0625 154.570312 L 315.078125 161.289062 L 314.542969 166.324219 L 313.828125 177.742188 L 313.738281 207.96875 L 314.007812 214.347656 L 314.542969 221.234375 L 315.257812 227.277344 L 316.332031 233.660156 L 317.40625 238.527344 L 319.28125 245.078125 L 320.894531 249.441406 L 322.144531 252.296875 L 324.558594 256.832031 L 325.542969 258.34375 L 327.867188 261.363281 L 330.285156 263.714844 L 333.234375 265.730469 L 335.46875 266.738281 L 339.046875 267.578125 L 343.609375 267.578125 L 348.976562 266.570312 L 352.375 265.226562 L 354.699219 263.882812 L 356.21875 262.707031 L 358.097656 260.859375 L 359.4375 259.183594 L 360.691406 257.335938 L 362.210938 254.480469 L 362.210938 214.347656 L 340.121094 214.179688 L 340.121094 195.375 L 374.464844 195.207031 L 374.554688 260.859375 L 372.675781 265.394531 L 370.351562 269.761719 L 368.113281 273.117188 L 365.789062 275.972656 L 362.480469 279.164062 L 359.796875 281.179688 L 355.683594 283.53125 L 351.925781 285.039062 L 347.992188 286.046875 L 344.503906 286.550781 L 340.390625 286.71875 L 336.722656 286.382812 L 332.789062 285.375 L 329.65625 284.035156 L 326.796875 282.355469 L 323.933594 280.171875 L 320.355469 276.644531 L 318.03125 273.789062 L 315.617188 270.265625 L 313.203125 266.066406 L 311.054688 261.53125 L 309.625 258.007812 L 308.191406 253.976562 L 306.671875 248.9375 L 305.242188 243.230469 L 304.167969 238.023438 L 303.183594 232.148438 L 302.46875 226.605469 L 301.753906 219.050781 L 301.394531 213.003906 L 301.21875 207.800781 Z M 301.21875 181.605469 "/>
<path style=" stroke:none;fill-rule:nonzero;fill:rgb(6.27451%,58.823529%,28.235294%);fill-opacity:1;" d="M 378.414062 314.367188 L 378.492188 314.367188 L 410.222656 311.65625 L 419.859375 311.65625 L 451.75 314.371094 L 440.546875 314.371094 L 432.554688 313.664062 L 397.53125 313.664062 L 389.695312 314.367188 L 378.414062 314.367188 L 400.898438 313.367188 L 429.339844 313.367188 L 415.160156 312.101562 L 415.003906 312.097656 L 414.847656 312.105469 L 400.820312 313.367188 L 400.898438 313.367188 Z M 378.414062 314.367188 "/>
<path style=" stroke:none;fill-rule:nonzero;fill:rgb(14.509804%,36.078431%,60%);fill-opacity:1;" d="M 378.414062 194.890625 L 378.503906 194.734375 L 378.503906 191.003906 L 378.769531 185.09375 L 379.398438 177.628906 L 380.023438 172.496094 L 381.632812 163.320312 L 383.867188 154.453125 L 386.195312 147.609375 L 387.894531 143.566406 L 389.414062 140.457031 L 392.902344 134.703125 L 395.136719 131.746094 L 397.550781 129.101562 L 400.503906 126.457031 L 402.648438 124.902344 L 407.480469 122.414062 L 411.054688 121.324219 L 413.828125 120.859375 L 419.820312 120.859375 L 423.398438 121.480469 L 425.992188 122.257812 L 428.855469 123.503906 L 431.269531 124.902344 L 435.472656 128.324219 L 439.226562 132.679688 L 440.925781 135.167969 L 443.609375 139.988281 L 445.667969 144.65625 L 447.097656 148.699219 L 448.707031 154.453125 L 450.140625 161.453125 L 451.210938 169.382812 L 451.75 176.070312 L 439.226562 176.070312 L 438.601562 169.851562 L 437.886719 165.03125 L 436.546875 158.652344 L 435.203125 154.140625 L 433.324219 149.632812 L 431.625 146.675781 L 429.300781 143.722656 L 427.246094 141.855469 L 425.097656 140.457031 L 423.039062 139.523438 L 419.105469 138.589844 L 414.542969 138.589844 L 412.84375 138.902344 L 409.355469 140.144531 L 407.480469 141.234375 L 404.796875 143.410156 L 402.917969 145.433594 L 400.683594 148.542969 L 399.160156 151.1875 L 397.285156 155.230469 L 395.941406 158.808594 L 394.421875 163.941406 L 393.527344 167.828125 L 392.722656 172.183594 L 392.007812 177.316406 L 391.46875 182.757812 L 391.113281 188.515625 L 390.933594 194.113281 L 390.933594 218.21875 L 391.113281 223.820312 L 391.558594 230.351562 L 392.722656 239.839844 L 394.421875 248.082031 L 396.390625 254.613281 L 398.265625 259.28125 L 399.339844 261.457031 L 400.773438 263.945312 L 403.007812 267.054688 L 406.226562 270.167969 L 408.105469 271.410156 L 410.96875 272.65625 L 413.917969 273.277344 L 417.855469 273.277344 L 421.339844 272.65625 L 423.667969 271.878906 L 426.082031 270.632812 L 429.390625 267.988281 L 431.449219 265.5 L 433.234375 262.546875 L 434.578125 259.589844 L 435.472656 257.101562 L 436.8125 252.28125 L 437.886719 246.992188 L 438.691406 241.550781 L 439.226562 236.261719 L 451.75 236.261719 L 451.210938 242.484375 L 450.40625 248.546875 L 449.601562 253.058594 L 448.351562 258.503906 L 446.917969 263.324219 L 444.863281 268.765625 L 443.164062 272.34375 L 440.925781 276.234375 L 438.871094 279.1875 L 436.636719 281.832031 L 433.324219 284.941406 L 431.179688 286.496094 L 428.855469 287.898438 L 426.082031 289.140625 L 422.59375 290.230469 L 418.835938 290.851562 L 415.347656 291.007812 L 411.59375 290.695312 L 408.820312 290.074219 L 405.152344 288.675781 L 400.59375 285.875 L 397.285156 282.921875 L 394.691406 279.964844 L 392.453125 276.855469 L 389.949219 272.65625 L 386.730469 265.8125 L 384.761719 260.523438 L 383.421875 256.167969 L 381.902344 250.105469 L 380.828125 244.660156 L 379.574219 235.949219 L 378.679688 224.90625 L 378.414062 216.355469 Z M 378.414062 194.890625 "/>
<path style=" stroke:none;fill-rule:nonzero;fill:rgb(96.862745%,70.196078%,16.862745%);fill-opacity:1;" d="M 378.414062 298.351562 L 378.503906 298.339844 L 378.503906 298.078125 L 378.859375 297.484375 L 379.753906 296.671875 L 380.917969 296 L 382.167969 295.472656 L 382.972656 295.199219 L 384.316406 294.804688 L 385.476562 294.515625 L 388.429688 293.921875 L 392.1875 293.371094 L 394.242188 293.132812 L 396.566406 292.910156 L 399.878906 292.660156 L 401.398438 292.570312 L 406.046875 292.359375 L 411.324219 292.226562 L 417.136719 292.1875 L 419.820312 292.199219 L 423.488281 292.253906 L 428.496094 292.398438 L 431.359375 292.527344 L 433.59375 292.660156 L 435.917969 292.832031 L 438.78125 293.09375 L 441.464844 293.410156 L 443.609375 293.726562 L 445.757812 294.121094 L 447.546875 294.539062 L 449.066406 295 L 450.40625 295.554688 L 451.210938 296.011719 L 451.75 296.472656 L 439.316406 296.472656 L 438.601562 296.011719 L 437.796875 295.65625 L 436.457031 295.222656 L 435.113281 294.910156 L 433.773438 294.660156 L 431.269531 294.316406 L 429.121094 294.105469 L 426.4375 293.921875 L 423.847656 293.804688 L 420.894531 293.726562 L 419.105469 293.699219 L 414.367188 293.699219 L 410.074219 293.792969 L 407.570312 293.894531 L 405.78125 294 L 403.277344 294.199219 L 401.753906 294.355469 L 400.859375 294.460938 L 398.179688 294.871094 L 396.390625 295.238281 L 395.40625 295.488281 L 394.152344 295.882812 L 393.257812 296.238281 L 392.277344 296.761719 L 391.738281 297.15625 L 391.023438 298.050781 L 390.933594 300.417969 L 391.203125 300.917969 L 391.738281 301.457031 L 392.453125 301.929688 L 393.527344 302.429688 L 394.601562 302.808594 L 396.480469 303.324219 L 398.089844 303.664062 L 399.339844 303.886719 L 401.753906 304.242188 L 402.738281 304.359375 L 405.066406 304.597656 L 407.480469 304.78125 L 410.429688 304.941406 L 412.667969 305.019531 L 416.242188 305.085938 L 420.804688 305.085938 L 426.171875 305.003906 L 429.570312 304.898438 L 431.894531 304.796875 L 433.414062 304.703125 L 435.292969 304.558594 L 436.636719 304.425781 L 437.886719 304.28125 L 439.40625 304.058594 L 439.40625 300.917969 L 417.316406 300.902344 L 417.316406 299.429688 L 451.660156 299.417969 L 451.75 304.558594 L 449.871094 304.914062 L 447.546875 305.253906 L 445.308594 305.519531 L 442.984375 305.742188 L 439.675781 305.992188 L 436.992188 306.148438 L 432.878906 306.332031 L 429.121094 306.453125 L 425.1875 306.53125 L 421.699219 306.570312 L 417.585938 306.582031 L 413.917969 306.558594 L 409.984375 306.476562 L 406.851562 306.371094 L 403.992188 306.242188 L 401.128906 306.070312 L 397.550781 305.792969 L 395.226562 305.570312 L 392.8125 305.292969 L 390.398438 304.964844 L 388.25 304.609375 L 386.820312 304.335938 L 385.390625 304.019531 L 383.867188 303.625 L 382.4375 303.179688 L 381.363281 302.769531 L 380.378906 302.308594 L 379.664062 301.875 L 378.949219 301.285156 L 378.59375 300.8125 L 378.414062 300.402344 Z M 378.414062 298.351562 "/>
<path style=" stroke:none;fill-rule:nonzero;fill:rgb(83.921569%,15.686275%,22.352941%);fill-opacity:1;" d="M 378.414062 307.761719 L 451.75 307.761719 L 451.75 308.054688 L 421.183594 308.054688 L 421.183594 310.476562 L 408.886719 310.476562 L 408.886719 308.058594 L 408.710938 308.054688 L 378.414062 308.054688 Z M 378.414062 307.761719 "/>
<path style=" stroke:none;fill-rule:nonzero;fill:rgb(6.27451%,58.823529%,28.235294%);fill-opacity:1;" d="M 455.609375 306.570312 L 455.6875 306.554688 L 487.417969 292.1875 L 497.054688 292.1875 L 528.945312 306.582031 L 517.742188 306.582031 L 509.75 302.824219 L 474.726562 302.824219 L 466.890625 306.570312 L 455.609375 306.570312 L 478.09375 301.269531 L 506.535156 301.257812 L 492.355469 294.539062 L 492.199219 294.527344 L 492.042969 294.566406 L 478.015625 301.257812 L 478.09375 301.269531 Z M 455.609375 306.570312 "/>
<path style=" stroke:none;fill-rule:nonzero;fill:rgb(14.509804%,36.078431%,60%);fill-opacity:1;" d="M 455.609375 308.945312 L 455.699219 308.941406 L 455.699219 308.882812 L 455.964844 308.789062 L 456.59375 308.667969 L 457.21875 308.585938 L 458.828125 308.441406 L 461.066406 308.296875 L 463.390625 308.1875 L 465.089844 308.125 L 466.609375 308.074219 L 470.097656 307.984375 L 472.332031 307.9375 L 474.746094 307.894531 L 477.699219 307.851562 L 479.847656 307.828125 L 484.675781 307.789062 L 488.253906 307.769531 L 491.023438 307.761719 L 497.015625 307.761719 L 500.59375 307.773438 L 503.1875 307.785156 L 506.050781 307.804688 L 508.464844 307.828125 L 512.667969 307.882812 L 516.425781 307.949219 L 518.125 307.992188 L 520.804688 308.066406 L 522.863281 308.140625 L 524.292969 308.207031 L 525.90625 308.296875 L 527.335938 308.410156 L 528.410156 308.535156 L 528.945312 308.644531 L 516.425781 308.644531 L 515.796875 308.542969 L 515.082031 308.46875 L 513.742188 308.367188 L 512.398438 308.292969 L 510.523438 308.222656 L 508.824219 308.175781 L 506.496094 308.128906 L 504.441406 308.097656 L 502.292969 308.074219 L 500.238281 308.058594 L 496.300781 308.046875 L 491.742188 308.046875 L 490.042969 308.050781 L 486.554688 308.070312 L 484.675781 308.085938 L 481.992188 308.121094 L 480.113281 308.15625 L 477.878906 308.203125 L 476.359375 308.246094 L 474.480469 308.3125 L 473.136719 308.367188 L 471.617188 308.449219 L 470.722656 308.511719 L 469.917969 308.582031 L 469.203125 308.664062 L 468.667969 308.75 L 468.308594 308.84375 L 468.128906 308.929688 L 468.128906 309.316406 L 468.308594 309.40625 L 468.757812 309.507812 L 469.917969 309.660156 L 471.617188 309.792969 L 473.585938 309.894531 L 475.464844 309.96875 L 476.535156 310.003906 L 477.96875 310.046875 L 480.203125 310.09375 L 483.421875 310.144531 L 485.300781 310.164062 L 488.164062 310.183594 L 491.113281 310.195312 L 495.050781 310.195312 L 498.539062 310.183594 L 500.863281 310.171875 L 503.277344 310.152344 L 506.585938 310.109375 L 508.644531 310.070312 L 510.433594 310.023438 L 511.773438 309.976562 L 512.667969 309.9375 L 514.007812 309.859375 L 515.082031 309.773438 L 515.886719 309.6875 L 516.425781 309.601562 L 528.945312 309.601562 L 528.410156 309.703125 L 527.605469 309.800781 L 526.796875 309.871094 L 525.546875 309.957031 L 524.117188 310.035156 L 522.058594 310.121094 L 520.359375 310.179688 L 518.125 310.242188 L 516.066406 310.289062 L 513.832031 310.332031 L 510.523438 310.378906 L 508.375 310.40625 L 506.050781 310.425781 L 503.277344 310.445312 L 499.789062 310.464844 L 496.035156 310.472656 L 492.546875 310.476562 L 488.789062 310.472656 L 486.015625 310.460938 L 482.351562 310.441406 L 477.789062 310.394531 L 474.480469 310.347656 L 471.886719 310.300781 L 469.648438 310.25 L 467.144531 310.183594 L 463.925781 310.074219 L 461.957031 309.992188 L 460.617188 309.921875 L 459.097656 309.824219 L 458.023438 309.738281 L 456.773438 309.597656 L 455.878906 309.421875 L 455.609375 309.285156 Z M 455.609375 308.945312 "/>
<path style=" stroke:none;fill-rule:nonzero;fill:rgb(96.862745%,70.196078%,16.862745%);fill-opacity:1;" d="M 455.609375 193.734375 L 455.699219 193.582031 L 455.699219 190.472656 L 456.054688 183.480469 L 456.949219 173.847656 L 458.113281 165.921875 L 459.367188 159.707031 L 460.171875 156.441406 L 461.511719 151.78125 L 462.675781 148.363281 L 465.625 141.371094 L 469.382812 134.84375 L 471.4375 132.046875 L 473.765625 129.40625 L 477.074219 126.453125 L 478.59375 125.367188 L 483.246094 122.878906 L 488.519531 121.324219 L 494.335938 120.859375 L 497.015625 121.015625 L 500.683594 121.636719 L 505.691406 123.34375 L 508.554688 124.898438 L 510.789062 126.453125 L 513.117188 128.472656 L 515.976562 131.582031 L 518.660156 135.308594 L 520.804688 139.039062 L 522.953125 143.699219 L 524.742188 148.671875 L 526.261719 154.113281 L 527.605469 160.636719 L 528.410156 166.078125 L 528.945312 171.515625 L 516.515625 171.515625 L 515.796875 166.078125 L 514.992188 161.882812 L 513.652344 156.753906 L 512.308594 153.023438 L 510.96875 150.070312 L 508.464844 146.03125 L 506.316406 143.546875 L 503.636719 141.371094 L 501.042969 139.972656 L 498.089844 139.039062 L 496.300781 138.730469 L 491.5625 138.730469 L 487.269531 139.816406 L 484.765625 141.058594 L 482.976562 142.300781 L 480.472656 144.632812 L 478.953125 146.496094 L 478.058594 147.742188 L 475.375 152.558594 L 473.585938 156.910156 L 472.601562 159.859375 L 471.347656 164.523438 L 470.457031 168.71875 L 469.472656 174.933594 L 468.933594 179.59375 L 468.21875 190.160156 L 468.128906 218.132812 L 468.398438 224.035156 L 468.933594 230.40625 L 469.648438 236 L 470.722656 241.90625 L 471.796875 246.410156 L 473.675781 252.472656 L 475.285156 256.511719 L 476.535156 259.152344 L 478.953125 263.347656 L 479.933594 264.746094 L 482.261719 267.542969 L 484.675781 269.71875 L 487.625 271.585938 L 489.863281 272.515625 L 493.441406 273.292969 L 498 273.292969 L 503.367188 272.359375 L 506.765625 271.117188 L 509.089844 269.875 L 510.609375 268.789062 L 512.488281 267.078125 L 513.832031 265.523438 L 515.082031 263.816406 L 516.601562 261.171875 L 516.601562 224.035156 L 494.511719 223.878906 L 494.511719 206.476562 L 528.855469 206.320312 L 528.945312 267.078125 L 527.066406 271.273438 L 524.742188 275.3125 L 522.507812 278.421875 L 520.179688 281.0625 L 516.871094 284.015625 L 514.1875 285.878906 L 510.074219 288.054688 L 506.316406 289.453125 L 502.382812 290.386719 L 498.894531 290.851562 L 494.78125 291.007812 L 491.113281 290.695312 L 487.179688 289.765625 L 484.050781 288.523438 L 481.1875 286.96875 L 478.324219 284.949219 L 474.746094 281.683594 L 472.421875 279.042969 L 470.007812 275.78125 L 467.59375 271.894531 L 465.445312 267.699219 L 464.015625 264.4375 L 462.585938 260.707031 L 461.066406 256.046875 L 459.632812 250.761719 L 458.558594 245.945312 L 457.578125 240.507812 L 456.859375 235.378906 L 456.144531 228.386719 L 455.789062 222.792969 L 455.609375 217.976562 Z M 455.609375 193.734375 "/>
<path style=" stroke:none;fill-rule:nonzero;fill:rgb(83.921569%,15.686275%,22.352941%);fill-opacity:1;" d="M 455.609375 311.65625 L 528.945312 311.65625 L 528.945312 311.945312 L 498.382812 311.949219 L 498.382812 314.371094 L 486.085938 314.371094 L 486.085938 311.953125 L 485.90625 311.945312 L 455.609375 311.945312 Z M 455.609375 311.65625 "/>
<path style=" stroke:none;fill-rule:nonzero;fill:rgb(6.27451%,58.823529%,28.235294%);fill-opacity:1;" d="M 532.804688 304.105469 L 532.882812 304.089844 L 564.617188 288.21875 L 574.253906 288.21875 L 606.140625 304.121094 L 594.9375 304.121094 L 586.945312 299.96875 L 551.921875 299.96875 L 544.085938 304.105469 L 532.804688 304.105469 L 555.292969 298.253906 L 583.734375 298.238281 L 569.550781 290.816406 L 569.394531 290.800781 L 569.238281 290.847656 L 555.214844 298.238281 L 555.292969 298.253906 Z M 532.804688 304.105469 "/>
<path style=" stroke:none;fill-rule:nonzero;fill:rgb(14.509804%,36.078431%,60%);fill-opacity:1;" d="M 532.804688 307.015625 L 532.894531 307.015625 L 532.894531 306.925781 L 533.164062 306.789062 L 533.789062 306.617188 L 534.414062 306.5 L 536.023438 306.285156 L 538.261719 306.078125 L 540.585938 305.921875 L 542.285156 305.828125 L 543.804688 305.753906 L 547.292969 305.621094 L 549.527344 305.554688 L 551.945312 305.492188 L 554.894531 305.429688 L 557.042969 305.394531 L 561.871094 305.335938 L 565.449219 305.3125 L 568.222656 305.300781 L 574.214844 305.300781 L 577.789062 305.316406 L 580.382812 305.332031 L 583.246094 305.363281 L 585.660156 305.394531 L 589.863281 305.472656 L 593.621094 305.574219 L 595.320312 305.632812 L 598.003906 305.746094 L 600.058594 305.851562 L 601.492188 305.945312 L 603.101562 306.078125 L 604.53125 306.242188 L 605.605469 306.425781 L 606.140625 306.582031 L 593.621094 306.582031 L 592.996094 306.4375 L 592.277344 306.324219 L 590.9375 306.175781 L 589.597656 306.074219 L 587.71875 305.96875 L 586.019531 305.898438 L 583.691406 305.832031 L 581.636719 305.789062 L 579.488281 305.753906 L 577.433594 305.734375 L 573.496094 305.710938 L 568.9375 305.710938 L 567.238281 305.71875 L 563.75 305.746094 L 561.871094 305.773438 L 559.1875 305.824219 L 557.308594 305.871094 L 555.074219 305.941406 L 553.554688 306.003906 L 551.675781 306.097656 L 550.335938 306.179688 L 548.8125 306.300781 L 547.917969 306.390625 L 547.113281 306.492188 L 546.398438 306.609375 L 545.863281 306.734375 L 545.503906 306.871094 L 545.324219 307 L 545.324219 307.558594 L 545.503906 307.6875 L 545.953125 307.839844 L 547.113281 308.058594 L 548.8125 308.25 L 550.78125 308.402344 L 552.660156 308.511719 L 553.734375 308.5625 L 555.164062 308.617188 L 557.398438 308.691406 L 560.617188 308.761719 L 562.496094 308.792969 L 565.359375 308.820312 L 568.308594 308.835938 L 572.246094 308.835938 L 575.734375 308.820312 L 578.058594 308.800781 L 580.472656 308.773438 L 583.78125 308.710938 L 585.839844 308.65625 L 587.628906 308.585938 L 588.96875 308.515625 L 589.863281 308.460938 L 591.207031 308.347656 L 592.277344 308.226562 L 593.082031 308.097656 L 593.621094 307.976562 L 606.140625 307.976562 L 605.605469 308.121094 L 604.800781 308.261719 L 603.996094 308.367188 L 602.742188 308.492188 L 601.3125 308.605469 L 599.253906 308.730469 L 597.554688 308.8125 L 595.320312 308.902344 L 593.261719 308.972656 L 591.027344 309.03125 L 587.71875 309.105469 L 585.570312 309.140625 L 583.246094 309.175781 L 580.472656 309.203125 L 576.984375 309.226562 L 573.230469 309.242188 L 569.742188 309.246094 L 565.984375 309.238281 L 563.210938 309.222656 L 559.546875 309.191406 L 554.984375 309.128906 L 551.675781 309.058594 L 549.082031 308.988281 L 546.847656 308.917969 L 544.34375 308.820312 L 541.121094 308.660156 L 539.15625 308.539062 L 537.8125 308.4375 L 536.292969 308.296875 L 535.21875 308.171875 L 533.96875 307.96875 L 533.074219 307.714844 L 532.804688 307.515625 Z M 532.804688 307.015625 "/>
<path style=" stroke:none;fill-rule:nonzero;fill:rgb(96.862745%,70.196078%,16.862745%);fill-opacity:1;" d="M 532.804688 206.65625 L 532.894531 206.527344 L 532.894531 203.960938 L 533.253906 198.183594 L 534.144531 190.222656 L 535.308594 183.671875 L 536.5625 178.535156 L 537.367188 175.839844 L 538.707031 171.988281 L 539.871094 169.164062 L 542.820312 163.386719 L 546.578125 157.992188 L 548.636719 155.679688 L 550.960938 153.496094 L 554.269531 151.058594 L 555.789062 150.160156 L 560.441406 148.105469 L 565.714844 146.820312 L 571.53125 146.433594 L 574.214844 146.5625 L 577.878906 147.078125 L 582.886719 148.488281 L 585.75 149.773438 L 587.984375 151.058594 L 590.3125 152.726562 L 593.171875 155.296875 L 595.855469 158.378906 L 598.003906 161.457031 L 600.148438 165.3125 L 601.9375 169.417969 L 603.457031 173.914062 L 604.800781 179.308594 L 605.605469 183.800781 L 606.140625 188.296875 L 593.710938 188.296875 L 592.996094 183.800781 L 592.1875 180.335938 L 590.847656 176.097656 L 589.507812 173.015625 L 588.164062 170.574219 L 585.660156 167.238281 L 583.515625 165.183594 L 580.832031 163.386719 L 578.238281 162.230469 L 575.285156 161.457031 L 573.496094 161.203125 L 568.757812 161.203125 L 564.464844 162.101562 L 561.960938 163.128906 L 560.171875 164.15625 L 557.667969 166.082031 L 556.148438 167.621094 L 555.253906 168.648438 L 552.570312 172.628906 L 550.78125 176.226562 L 549.796875 178.664062 L 548.546875 182.515625 L 547.652344 185.984375 L 546.667969 191.121094 L 546.128906 194.972656 L 545.414062 203.703125 L 545.324219 226.816406 L 545.59375 231.695312 L 546.128906 236.960938 L 546.847656 241.582031 L 547.917969 246.464844 L 548.992188 250.1875 L 550.871094 255.195312 L 552.480469 258.53125 L 553.734375 260.714844 L 556.148438 264.183594 L 557.132812 265.339844 L 559.457031 267.648438 L 561.871094 269.449219 L 564.824219 270.988281 L 567.058594 271.757812 L 570.636719 272.402344 L 575.195312 272.402344 L 580.5625 271.628906 L 583.960938 270.601562 L 586.285156 269.574219 L 587.808594 268.675781 L 589.683594 267.265625 L 591.027344 265.980469 L 592.277344 264.566406 L 593.800781 262.386719 L 593.800781 231.695312 L 571.707031 231.566406 L 571.707031 217.1875 L 606.050781 217.058594 L 606.140625 267.265625 L 604.261719 270.730469 L 601.9375 274.070312 L 599.703125 276.636719 L 597.375 278.820312 L 594.066406 281.261719 L 591.382812 282.800781 L 587.269531 284.597656 L 583.515625 285.753906 L 579.578125 286.523438 L 576.089844 286.910156 L 571.976562 287.039062 L 568.308594 286.78125 L 564.375 286.011719 L 561.246094 284.984375 L 558.382812 283.699219 L 555.519531 282.03125 L 551.945312 279.335938 L 549.617188 277.152344 L 547.203125 274.457031 L 544.789062 271.246094 L 542.644531 267.777344 L 541.210938 265.082031 L 539.78125 262 L 538.261719 258.148438 L 536.828125 253.78125 L 535.757812 249.800781 L 534.773438 245.308594 L 534.058594 241.070312 L 533.339844 235.292969 L 532.984375 230.667969 L 532.804688 226.6875 Z M 532.804688 206.65625 "/>
<path style=" stroke:none;fill-rule:nonzero;fill:rgb(83.921569%,15.686275%,22.352941%);fill-opacity:1;" d="M 532.804688 310.425781 L 606.140625 310.425781 L 606.140625 310.847656 L 575.578125 310.851562 L 575.578125 314.371094 L 563.28125 314.371094 L 563.28125 310.855469 L 563.101562 310.847656 L 532.804688 310.847656 Z M 532.804688 310.425781 "/>
<path style=" stroke:none;fill-rule:nonzero;fill:rgb(6.27451%,58.823529%,28.235294%);fill-opacity:1;" d="M 610 285.820312 L 610.078125 285.777344 L 641.8125 240.527344 L 651.449219 240.527344 L 683.335938 285.863281 L 672.132812 285.863281 L 664.140625 274.027344 L 629.117188 274.027344 L 621.285156 285.820312 L 610 285.820312 L 632.488281 269.132812 L 660.929688 269.089844 L 646.746094 247.933594 L 646.589844 247.890625 L 646.433594 248.019531 L 632.410156 269.089844 L 632.488281 269.132812 Z M 610 285.820312 "/>
<path style=" stroke:none;fill-rule:nonzero;fill:rgb(14.509804%,36.078431%,60%);fill-opacity:1;" d="M 610 305.644531 L 610.089844 305.640625 L 610.089844 305.535156 L 610.359375 305.367188 L 610.984375 305.15625 L 611.609375 305.011719 L 613.21875 304.75 L 615.457031 304.5 L 617.78125 304.304688 L 619.480469 304.191406 L 621 304.101562 L 624.488281 303.9375 L 626.726562 303.855469 L 629.140625 303.78125 L 632.089844 303.707031 L 634.238281 303.660156 L 639.066406 303.589844 L 642.644531 303.558594 L 645.417969 303.546875 L 651.410156 303.546875 L 654.988281 303.5625 L 657.578125 303.585938 L 660.441406 303.621094 L 662.855469 303.660156 L 667.058594 303.757812 L 670.816406 303.882812 L 672.515625 303.953125 L 675.199219 304.089844 L 677.253906 304.222656 L 678.6875 304.335938 L 680.296875 304.5 L 681.726562 304.695312 L 682.800781 304.921875 L 683.335938 305.113281 L 670.816406 305.113281 L 670.191406 304.933594 L 669.476562 304.796875 L 668.132812 304.617188 L 666.792969 304.488281 L 664.914062 304.363281 L 663.214844 304.277344 L 660.890625 304.195312 L 658.832031 304.140625 L 656.6875 304.101562 L 654.628906 304.074219 L 650.695312 304.050781 L 646.132812 304.050781 L 644.433594 304.058594 L 640.945312 304.09375 L 639.066406 304.125 L 636.382812 304.1875 L 634.507812 304.242188 L 632.269531 304.332031 L 630.75 304.40625 L 628.871094 304.519531 L 627.53125 304.621094 L 626.007812 304.769531 L 625.117188 304.878906 L 624.308594 305 L 623.59375 305.148438 L 623.058594 305.300781 L 622.699219 305.464844 L 622.523438 305.621094 L 622.523438 306.304688 L 622.699219 306.464844 L 623.148438 306.648438 L 624.308594 306.917969 L 626.007812 307.152344 L 627.976562 307.335938 L 629.855469 307.46875 L 630.929688 307.53125 L 632.359375 307.601562 L 634.59375 307.691406 L 637.816406 307.777344 L 639.691406 307.8125 L 642.554688 307.847656 L 645.507812 307.867188 L 649.441406 307.867188 L 652.929688 307.847656 L 655.253906 307.828125 L 657.667969 307.792969 L 660.976562 307.714844 L 663.035156 307.644531 L 664.824219 307.5625 L 666.164062 307.476562 L 667.058594 307.40625 L 668.402344 307.269531 L 669.476562 307.121094 L 670.28125 306.96875 L 670.816406 306.816406 L 683.335938 306.816406 L 682.800781 306.992188 L 681.996094 307.164062 L 681.191406 307.292969 L 679.9375 307.449219 L 678.507812 307.585938 L 676.449219 307.738281 L 674.75 307.839844 L 672.515625 307.949219 L 670.457031 308.035156 L 668.222656 308.109375 L 664.914062 308.195312 L 662.765625 308.242188 L 660.441406 308.28125 L 657.667969 308.316406 L 654.179688 308.347656 L 650.425781 308.363281 L 646.9375 308.367188 L 643.179688 308.359375 L 640.410156 308.34375 L 636.742188 308.304688 L 632.179688 308.222656 L 628.871094 308.140625 L 626.277344 308.054688 L 624.042969 307.96875 L 621.539062 307.847656 L 618.316406 307.65625 L 616.351562 307.503906 L 615.007812 307.382812 L 613.488281 307.210938 L 612.414062 307.054688 L 611.164062 306.808594 L 610.269531 306.496094 L 610 306.253906 Z M 610 305.644531 "/>
<path style=" stroke:none;fill-rule:nonzero;fill:rgb(96.862745%,70.196078%,16.862745%);fill-opacity:1;" d="M 610 293.605469 L 610.089844 293.589844 L 610.089844 293.3125 L 610.449219 292.683594 L 611.34375 291.8125 L 612.503906 291.101562 L 613.757812 290.539062 L 614.5625 290.246094 L 615.902344 289.828125 L 617.066406 289.519531 L 620.015625 288.890625 L 623.773438 288.300781 L 625.832031 288.050781 L 628.15625 287.8125 L 631.464844 287.546875 L 632.984375 287.449219 L 637.636719 287.222656 L 642.914062 287.082031 L 648.726562 287.042969 L 651.410156 287.054688 L 655.074219 287.113281 L 660.085938 287.265625 L 662.945312 287.40625 L 665.183594 287.546875 L 667.507812 287.726562 L 670.367188 288.007812 L 673.050781 288.34375 L 675.199219 288.679688 L 677.34375 289.097656 L 679.132812 289.546875 L 680.652344 290.035156 L 681.996094 290.625 L 682.800781 291.113281 L 683.335938 291.605469 L 670.90625 291.605469 L 670.191406 291.113281 L 669.386719 290.738281 L 668.042969 290.273438 L 666.703125 289.9375 L 665.359375 289.671875 L 662.855469 289.308594 L 660.710938 289.085938 L 658.027344 288.890625 L 655.433594 288.761719 L 652.480469 288.679688 L 650.695312 288.652344 L 645.953125 288.652344 L 641.660156 288.75 L 639.15625 288.859375 L 637.367188 288.972656 L 634.863281 289.183594 L 633.34375 289.351562 L 632.449219 289.464844 L 629.765625 289.898438 L 627.976562 290.289062 L 626.992188 290.554688 L 625.742188 290.972656 L 624.847656 291.351562 L 623.863281 291.914062 L 623.328125 292.332031 L 622.609375 293.285156 L 622.523438 295.804688 L 622.789062 296.335938 L 623.328125 296.910156 L 624.042969 297.414062 L 625.117188 297.945312 L 626.1875 298.351562 L 628.066406 298.894531 L 629.675781 299.261719 L 630.929688 299.496094 L 633.34375 299.875 L 634.328125 300 L 636.652344 300.253906 L 639.066406 300.449219 L 642.019531 300.617188 L 644.253906 300.703125 L 647.832031 300.773438 L 652.394531 300.773438 L 657.757812 300.6875 L 661.15625 300.574219 L 663.484375 300.464844 L 665.003906 300.367188 L 666.882812 300.210938 L 668.222656 300.070312 L 669.476562 299.917969 L 670.996094 299.679688 L 670.996094 296.335938 L 648.90625 296.320312 L 648.90625 294.753906 L 683.246094 294.738281 L 683.335938 300.210938 L 681.457031 300.589844 L 679.132812 300.953125 L 676.898438 301.234375 L 674.574219 301.472656 L 671.261719 301.738281 L 668.582031 301.90625 L 664.464844 302.101562 L 660.710938 302.226562 L 656.773438 302.3125 L 653.285156 302.351562 L 649.171875 302.367188 L 645.507812 302.339844 L 641.570312 302.253906 L 638.441406 302.144531 L 635.578125 302.003906 L 632.71875 301.820312 L 629.140625 301.527344 L 626.816406 301.289062 L 624.398438 300.996094 L 621.984375 300.644531 L 619.839844 300.269531 L 618.40625 299.972656 L 616.976562 299.636719 L 615.457031 299.21875 L 614.027344 298.742188 L 612.953125 298.308594 L 611.96875 297.820312 L 611.253906 297.355469 L 610.539062 296.726562 L 610.179688 296.222656 L 610 295.789062 Z M 610 293.605469 "/>
<path style=" stroke:none;fill-rule:nonzero;fill:rgb(83.921569%,15.686275%,22.352941%);fill-opacity:1;" d="M 610 309.546875 L 683.335938 309.546875 L 683.335938 310.066406 L 652.773438 310.070312 L 652.773438 314.371094 L 640.476562 314.371094 L 640.476562 310.074219 L 640.296875 310.066406 L 610 310.066406 Z M 610 309.546875 "/>
<g style="fill:rgb(0%,0%,0%);fill-opacity:1;">
  <use xlink:href="#glyph0-1" x="21.957031" y="318.198242"/>
  <use xlink:href="#glyph0-2" x="27.291016" y="318.198242"/>
  <use xlink:href="#glyph0-1" x="29.958008" y="318.198242"/>
</g>
<g style="fill:rgb(0%,0%,0%);fill-opacity:1;">
  <use xlink:href="#glyph0-1" x="21.957031" y="244.475586"/>
  <use xlink:href="#glyph0-2" x="27.291016" y="244.475586"/>
  <use xlink:href="#glyph0-3" x="29.958008" y="244.475586"/>
</g>
<g style="fill:rgb(0%,0%,0%);fill-opacity:1;">
  <use xlink:href="#glyph0-4" x="21.957031" y="170.75293"/>
  <use xlink:href="#glyph0-2" x="27.291016" y="170.75293"/>
  <use xlink:href="#glyph0-1" x="29.958008" y="170.75293"/>
</g>
<g style="fill:rgb(0%,0%,0%);fill-opacity:1;">
  <use xlink:href="#glyph0-4" x="21.957031" y="97.03418"/>
  <use xlink:href="#glyph0-2" x="27.291016" y="97.03418"/>
  <use xlink:href="#glyph0-3" x="29.958008" y="97.03418"/>
</g>
<g style="fill:rgb(0%,0%,0%);fill-opacity:1;">
  <use xlink:href="#glyph0-5" x="21.957031" y="23.311523"/>
  <use xlink:href="#glyph0-2" x="27.291016" y="23.311523"/>
  <use xlink:href="#glyph0-1" x="29.958008" y="23.311523"/>
</g>
<g style="fill:rgb(0%,0%,0%);fill-opacity:1;">
  <use xlink:href="#glyph0-4" x="103.296875" y="338.19043"/>
</g>
<g style="fill:rgb(0%,0%,0%);fill-opacity:1;">
  <use xlink:href="#glyph0-5" x="180.492188" y="338.19043"/>
</g>
<g style="fill:rgb(0%,0%,0%);fill-opacity:1;">
  <use xlink:href="#glyph0-6" x="257.6875" y="338.19043"/>
</g>
<g style="fill:rgb(0%,0%,0%);fill-opacity:1;">
  <use xlink:href="#glyph0-7" x="334.886719" y="338.19043"/>
</g>
<g style="fill:rgb(0%,0%,0%);fill-opacity:1;">
  <use xlink:href="#glyph0-3" x="412.082031" y="338.19043"/>
</g>
<g style="fill:rgb(0%,0%,0%);fill-opacity:1;">
  <use xlink:href="#glyph0-8" x="489.277344" y="338.19043"/>
</g>
<g style="fill:rgb(0%,0%,0%);fill-opacity:1;">
  <use xlink:href="#glyph0-9" x="566.472656" y="338.19043"/>
</g>
<g style="fill:rgb(0%,0%,0%);fill-opacity:1;">
  <use xlink:href="#glyph0-10" x="643.667969" y="338.19043"/>
</g>
<g style="fill:rgb(0%,0%,0%);fill-opacity:1;">
  <use xlink:href="#glyph1-1" x="14.412109" y="178.015625"/>
  <use xlink:href="#glyph1-2" x="14.412109" y="170.011719"/>
  <use xlink:href="#glyph1-3" x="14.412109" y="167.347656"/>
  <use xlink:href="#glyph1-4" x="14.412109" y="164.011719"/>
</g>
</g>
</svg>
