<?xml version="1.0" encoding="UTF-8"?>
<svg xmlns="http://www.w3.org/2000/svg" xmlns:xlink="http://www.w3.org/1999/xlink" width="720pt" height="360pt" viewBox="0 0 720 360" version="1.1">
<defs>
<g>
<symbol overflow="visible" id="glyph0-0">
<path style="stroke:none;" d=""/>
</symbol>
<symbol overflow="visible" id="glyph0-1">
<path style="stroke:none;" d="M 2.640625 -6.796875 C 2 -6.796875 1.421875 -6.53125 1.078125 -6.046875 C 0.640625 -5.453125 0.40625 -4.546875 0.40625 -3.296875 C 0.40625 -1 1.1875 0.21875 2.640625 0.21875 C 4.078125 0.21875 4.859375 -1 4.859375 -3.234375 C 4.859375 -4.5625 4.65625 -5.4375 4.203125 -6.046875 C 3.84375 -6.53125 3.28125 -6.796875 2.640625 -6.796875 Z M 2.640625 -6.046875 C 3.546875 -6.046875 4 -5.125 4 -3.3125 C 4 -1.375 3.5625 -0.484375 2.625 -0.484375 C 1.734375 -0.484375 1.28125 -1.421875 1.28125 -3.28125 C 1.28125 -5.140625 1.734375 -6.046875 2.640625 -6.046875 Z M 2.640625 -6.046875 "/>
</symbol>
<symbol overflow="visible" id="glyph0-2">
<path style="stroke:none;" d="M 1.828125 -1 L 0.828125 -1 L 0.828125 0 L 1.828125 0 Z M 1.828125 -1 "/>
</symbol>
<symbol overflow="visible" id="glyph0-3">
<path style="stroke:none;" d="M 4.5625 -6.796875 L 1.0625 -6.796875 L 0.546875 -3.09375 L 1.328125 -3.09375 C 1.71875 -3.5625 2.046875 -3.734375 2.578125 -3.734375 C 3.484375 -3.734375 4.0625 -3.109375 4.0625 -2.09375 C 4.0625 -1.125 3.484375 -0.53125 2.578125 -0.53125 C 1.828125 -0.53125 1.375 -0.90625 1.1875 -1.671875 L 0.328125 -1.671875 C 0.453125 -1.109375 0.546875 -0.84375 0.75 -0.59375 C 1.125 -0.078125 1.828125 0.21875 2.59375 0.21875 C 3.96875 0.21875 4.921875 -0.78125 4.921875 -2.21875 C 4.921875 -3.5625 4.03125 -4.484375 2.71875 -4.484375 C 2.25 -4.484375 1.859375 -4.359375 1.46875 -4.0625 L 1.734375 -5.96875 L 4.5625 -5.96875 Z M 4.5625 -6.796875 "/>
</symbol>
<symbol overflow="visible" id="glyph0-4">
<path style="stroke:none;" d="M 2.484375 -4.84375 L 2.484375 0 L 3.328125 0 L 3.328125 -6.796875 L 2.765625 -6.796875 C 2.46875 -5.75 2.28125 -5.609375 0.984375 -5.453125 L 0.984375 -4.84375 Z M 2.484375 -4.84375 "/>
</symbol>
<symbol overflow="visible" id="glyph0-5">
<path style="stroke:none;" d="M 4.859375 -0.828125 L 1.28125 -0.828125 C 1.359375 -1.390625 1.671875 -1.75 2.5 -2.234375 L 3.46875 -2.75 C 4.40625 -3.265625 4.90625 -3.96875 4.90625 -4.8125 C 4.90625 -5.375 4.671875 -5.90625 4.265625 -6.265625 C 3.859375 -6.625 3.375 -6.796875 2.71875 -6.796875 C 1.859375 -6.796875 1.21875 -6.5 0.84375 -5.921875 C 0.609375 -5.5625 0.5 -5.125 0.484375 -4.4375 L 1.328125 -4.4375 C 1.359375 -4.90625 1.40625 -5.1875 1.53125 -5.40625 C 1.75 -5.8125 2.1875 -6.0625 2.703125 -6.0625 C 3.46875 -6.0625 4.03125 -5.515625 4.03125 -4.78125 C 4.03125 -4.25 3.71875 -3.796875 3.125 -3.4375 L 2.234375 -2.9375 C 0.8125 -2.140625 0.40625 -1.5 0.328125 0 L 4.859375 0 Z M 4.859375 -0.828125 "/>
</symbol>
<symbol overflow="visible" id="glyph0-6">
<path style="stroke:none;" d="M 2.125 -3.125 L 2.578125 -3.125 C 3.515625 -3.125 3.984375 -2.703125 3.984375 -1.890625 C 3.984375 -1.03125 3.46875 -0.53125 2.578125 -0.53125 C 1.65625 -0.53125 1.203125 -0.984375 1.15625 -1.96875 L 0.3125 -1.96875 C 0.34375 -1.421875 0.4375 -1.078125 0.609375 -0.765625 C 0.953125 -0.109375 1.625 0.21875 2.546875 0.21875 C 3.953125 0.21875 4.859375 -0.609375 4.859375 -1.90625 C 4.859375 -2.765625 4.515625 -3.25 3.703125 -3.515625 C 4.34375 -3.765625 4.65625 -4.25 4.65625 -4.9375 C 4.65625 -6.109375 3.875 -6.796875 2.578125 -6.796875 C 1.203125 -6.796875 0.484375 -6.046875 0.453125 -4.609375 L 1.296875 -4.609375 C 1.3125 -5.015625 1.34375 -5.25 1.453125 -5.453125 C 1.640625 -5.828125 2.0625 -6.0625 2.59375 -6.0625 C 3.34375 -6.0625 3.796875 -5.625 3.796875 -4.90625 C 3.796875 -4.421875 3.609375 -4.140625 3.25 -3.984375 C 3.015625 -3.890625 2.71875 -3.84375 2.125 -3.84375 Z M 2.125 -3.125 "/>
</symbol>
<symbol overflow="visible" id="glyph0-7">
<path style="stroke:none;" d="M 3.140625 -1.625 L 3.140625 0 L 3.984375 0 L 3.984375 -1.625 L 4.984375 -1.625 L 4.984375 -2.390625 L 3.984375 -2.390625 L 3.984375 -6.796875 L 3.359375 -6.796875 L 0.265625 -2.515625 L 0.265625 -1.625 Z M 3.140625 -2.390625 L 1 -2.390625 L 3.140625 -5.359375 Z M 3.140625 -2.390625 "/>
</symbol>
<symbol overflow="visible" id="glyph0-8">
<path style="stroke:none;" d="M 4.78125 -5.03125 C 4.609375 -6.140625 3.890625 -6.796875 2.84375 -6.796875 C 2.09375 -6.796875 1.421875 -6.4375 1.03125 -5.828125 C 0.609375 -5.171875 0.40625 -4.34375 0.40625 -3.09375 C 0.40625 -1.953125 0.578125 -1.234375 0.984375 -0.625 C 1.359375 -0.078125 1.953125 0.21875 2.703125 0.21875 C 3.984375 0.21875 4.921875 -0.734375 4.921875 -2.078125 C 4.921875 -3.34375 4.0625 -4.234375 2.84375 -4.234375 C 2.171875 -4.234375 1.640625 -3.96875 1.28125 -3.46875 C 1.28125 -5.125 1.828125 -6.046875 2.796875 -6.046875 C 3.390625 -6.046875 3.796875 -5.671875 3.9375 -5.03125 Z M 2.734375 -3.484375 C 3.546875 -3.484375 4.0625 -2.921875 4.0625 -2 C 4.0625 -1.15625 3.484375 -0.53125 2.703125 -0.53125 C 1.921875 -0.53125 1.328125 -1.1875 1.328125 -2.046875 C 1.328125 -2.890625 1.90625 -3.484375 2.734375 -3.484375 Z M 2.734375 -3.484375 "/>
</symbol>
<symbol overflow="visible" id="glyph0-9">
<path style="stroke:none;" d="M 4.984375 -6.796875 L 0.4375 -6.796875 L 0.4375 -5.96875 L 4.109375 -5.96875 C 2.5 -3.65625 1.828125 -2.234375 1.328125 0 L 2.21875 0 C 2.59375 -2.171875 3.453125 -4.046875 4.984375 -6.09375 Z M 4.984375 -6.796875 "/>
</symbol>
<symbol overflow="visible" id="glyph0-10">
<path style="stroke:none;" d="M 3.75 -3.578125 C 4.453125 -4 4.6875 -4.34375 4.6875 -4.984375 C 4.6875 -6.046875 3.84375 -6.796875 2.640625 -6.796875 C 1.4375 -6.796875 0.59375 -6.046875 0.59375 -4.984375 C 0.59375 -4.359375 0.828125 -4.015625 1.515625 -3.578125 C 0.734375 -3.203125 0.359375 -2.640625 0.359375 -1.890625 C 0.359375 -0.640625 1.296875 0.21875 2.640625 0.21875 C 3.984375 0.21875 4.921875 -0.640625 4.921875 -1.875 C 4.921875 -2.640625 4.53125 -3.203125 3.75 -3.578125 Z M 2.640625 -6.046875 C 3.359375 -6.046875 3.8125 -5.625 3.8125 -4.96875 C 3.8125 -4.34375 3.34375 -3.921875 2.640625 -3.921875 C 1.921875 -3.921875 1.453125 -4.34375 1.453125 -4.984375 C 1.453125 -5.625 1.921875 -6.046875 2.640625 -6.046875 Z M 2.640625 -3.203125 C 3.484375 -3.203125 4.0625 -2.671875 4.0625 -1.875 C 4.0625 -1.0625 3.484375 -0.53125 2.625 -0.53125 C 1.796875 -0.53125 1.21875 -1.078125 1.21875 -1.875 C 1.21875 -2.671875 1.796875 -3.203125 2.640625 -3.203125 Z M 2.640625 -3.203125 "/>
</symbol>
<symbol overflow="visible" id="glyph0-11">
<path style="stroke:none;" d="M 0.515625 -1.546875 C 0.671875 -0.4375 1.40625 0.21875 2.4375 0.21875 C 3.1875 0.21875 3.859375 -0.140625 4.265625 -0.75 C 4.6875 -1.40625 4.890625 -2.25 4.890625 -3.484375 C 4.890625 -4.625 4.703125 -5.359375 4.3125 -5.953125 C 3.9375 -6.5 3.34375 -6.796875 2.59375 -6.796875 C 1.296875 -6.796875 0.359375 -5.84375 0.359375 -4.515625 C 0.359375 -3.25 1.234375 -2.34375 2.453125 -2.34375 C 3.09375 -2.34375 3.5625 -2.578125 4.015625 -3.109375 C 4 -1.453125 3.46875 -0.53125 2.5 -0.53125 C 1.90625 -0.53125 1.484375 -0.90625 1.359375 -1.546875 Z M 2.578125 -6.0625 C 3.375 -6.0625 3.96875 -5.40625 3.96875 -4.53125 C 3.96875 -3.6875 3.375 -3.09375 2.546875 -3.09375 C 1.734375 -3.09375 1.234375 -3.671875 1.234375 -4.578125 C 1.234375 -5.4375 1.796875 -6.0625 2.578125 -6.0625 Z M 2.578125 -6.0625 "/>
</symbol>
<symbol overflow="visible" id="glyph1-0">
<path style="stroke:none;" d=""/>
</symbol>
<symbol overflow="visible" id="glyph1-1">
<path style="stroke:none;" d="M 0 -0.953125 L 0 -4.890625 C 0 -5.71875 -0.234375 -6.34375 -0.734375 -6.796875 C -1.1875 -7.234375 -1.8125 -7.46875 -2.5 -7.46875 C -3.546875 -7.46875 -4.1875 -7 -4.625 -5.875 C -4.984375 -6.671875 -5.640625 -7.09375 -6.53125 -7.09375 C -7.15625 -7.09375 -7.734375 -6.859375 -8.140625 -6.390625 C -8.5625 -5.9375 -8.75 -5.34375 -8.75 -4.5 L -8.75 -0.953125 Z M -4.984375 -2.0625 L -7.765625 -2.0625 L -7.765625 -4.21875 C -7.765625 -4.84375 -7.6875 -5.203125 -7.453125 -5.5 C -7.21875 -5.8125 -6.859375 -5.96875 -6.375 -5.96875 C -5.90625 -5.96875 -5.53125 -5.8125 -5.296875 -5.5 C -5.0625 -5.203125 -4.984375 -4.84375 -4.984375 -4.21875 Z M -0.984375 -2.0625 L -4 -2.0625 L -4 -4.78125 C -4 -5.328125 -3.859375 -5.6875 -3.578125 -5.953125 C -3.296875 -6.21875 -2.921875 -6.359375 -2.484375 -6.359375 C -2.0625 -6.359375 -1.6875 -6.21875 -1.40625 -5.953125 C -1.109375 -5.6875 -0.984375 -5.328125 -0.984375 -4.78125 Z M -0.984375 -2.0625 "/>
</symbol>
<symbol overflow="visible" id="glyph1-2">
<path style="stroke:none;" d="M -6.28125 -1.796875 L -6.28125 -0.796875 L 0 -0.796875 L 0 -1.796875 Z M -8.75 -1.796875 L -8.75 -0.796875 L -7.484375 -0.796875 L -7.484375 -1.796875 Z M -8.75 -1.796875 "/>
</symbol>
<symbol overflow="visible" id="glyph1-3">
<path style="stroke:none;" d="M -6.28125 -3.046875 L -6.28125 -2.015625 L -8.015625 -2.015625 L -8.015625 -1.015625 L -6.28125 -1.015625 L -6.28125 -0.171875 L -5.46875 -0.171875 L -5.46875 -1.015625 L -0.71875 -1.015625 C -0.078125 -1.015625 0.28125 -1.453125 0.28125 -2.234375 C 0.28125 -2.46875 0.25 -2.71875 0.1875 -3.046875 L -0.640625 -3.046875 C -0.609375 -2.921875 -0.59375 -2.765625 -0.59375 -2.5625 C -0.59375 -2.140625 -0.71875 -2.015625 -1.15625 -2.015625 L -5.46875 -2.015625 L -5.46875 -3.046875 Z M -6.28125 -3.046875 "/>
</symbol>
<symbol overflow="visible" id="glyph1-4">
<path style="stroke:none;" d="M -4.53125 -5.25 C -5.765625 -5.25 -6.46875 -4.421875 -6.46875 -2.96875 C -6.46875 -1.515625 -5.71875 -0.5625 -4.546875 -0.5625 C -3.5625 -0.5625 -3.09375 -1.0625 -2.734375 -2.5625 L -2.515625 -3.484375 C -2.34375 -4.1875 -2.09375 -4.46875 -1.625 -4.46875 C -1.046875 -4.46875 -0.640625 -3.875 -0.640625 -3 C -0.640625 -2.453125 -0.796875 -2 -1.0625 -1.75 C -1.25 -1.59375 -1.421875 -1.53125 -1.875 -1.46875 L -1.875 -0.40625 C -0.421875 -0.453125 0.28125 -1.265625 0.28125 -2.921875 C 0.28125 -4.5 -0.5 -5.515625 -1.71875 -5.515625 C -2.65625 -5.515625 -3.171875 -4.984375 -3.46875 -3.734375 L -3.703125 -2.765625 C -3.890625 -1.953125 -4.15625 -1.609375 -4.59375 -1.609375 C -5.171875 -1.609375 -5.546875 -2.125 -5.546875 -2.9375 C -5.546875 -3.75 -5.203125 -4.171875 -4.53125 -4.203125 Z M -4.53125 -5.25 "/>
</symbol>
</g>
</defs>
<g id="surface15140">
<rect x="0" y="0" width="720" height="360" style="fill:rgb(100%,100%,100%);fill-opacity:1;stroke:none;"/>
<path style=" stroke:none;fill-rule:nonzero;fill:rgb(83.921569%,15.686275%,22.352941%);fill-opacity:1;" d="M 69.628906 311.566406 L 122.875 311.566406 L 122.875 311.582031 L 100.683594 311.582031 L 100.683594 311.714844 L 91.753906 311.714844 L 91.753906 311.582031 L 69.628906 311.582031 Z M 69.628906 311.566406 "/>
<path style=" stroke:none;fill-rule:nonzero;fill:rgb(6.27451%,58.823529%,28.235294%);fill-opacity:1;" d="M 181.722656 314.371094 L 181.777344 314.367188 L 204.816406 313.429688 L 211.8125 313.429688 L 234.964844 314.371094 L 226.832031 314.371094 L 221.03125 314.125 L 195.601562 314.125 L 189.914062 314.371094 L 181.722656 314.371094 L 198.046875 314.023438 L 218.695312 314.023438 L 208.402344 313.582031 L 208.289062 313.582031 L 208.171875 313.585938 L 197.992188 314.023438 L 198.046875 314.023438 Z M 181.722656 314.371094 "/>
<path style=" stroke:none;fill-rule:nonzero;fill:rgb(14.509804%,36.078431%,60%);fill-opacity:1;" d="M 181.722656 308.800781 L 181.785156 308.800781 L 181.785156 308.761719 L 181.980469 308.703125 L 182.4375 308.628906 L 182.890625 308.578125 L 184.058594 308.488281 L 185.683594 308.402344 L 187.371094 308.332031 L 188.605469 308.292969 L 189.707031 308.261719 L 192.242188 308.203125 L 193.863281 308.175781 L 195.617188 308.148438 L 197.761719 308.121094 L 199.320312 308.105469 L 202.824219 308.082031 L 205.421875 308.070312 L 207.433594 308.066406 L 211.785156 308.066406 L 214.382812 308.074219 L 216.265625 308.082031 L 218.34375 308.09375 L 220.097656 308.105469 L 223.148438 308.140625 L 225.875 308.183594 L 227.109375 308.210938 L 229.058594 308.257812 L 230.550781 308.304688 L 231.589844 308.34375 L 232.757812 308.402344 L 233.796875 308.46875 L 234.578125 308.546875 L 234.964844 308.613281 L 225.875 308.613281 L 225.421875 308.554688 L 224.902344 308.503906 L 223.925781 308.441406 L 222.953125 308.398438 L 221.589844 308.351562 L 220.355469 308.324219 L 218.667969 308.292969 L 217.175781 308.277344 L 215.617188 308.261719 L 214.121094 308.253906 L 211.265625 308.242188 L 207.953125 308.242188 L 206.722656 308.246094 L 204.1875 308.257812 L 202.824219 308.269531 L 200.875 308.289062 L 199.511719 308.3125 L 197.890625 308.339844 L 196.785156 308.367188 L 195.421875 308.40625 L 194.449219 308.445312 L 193.34375 308.496094 L 192.695312 308.535156 L 192.109375 308.578125 L 191.589844 308.628906 L 191.203125 308.679688 L 190.941406 308.738281 L 190.8125 308.792969 L 190.8125 309.035156 L 190.941406 309.089844 L 191.265625 309.152344 L 192.109375 309.25 L 193.34375 309.328125 L 194.773438 309.394531 L 196.136719 309.441406 L 196.917969 309.460938 L 197.953125 309.488281 L 199.578125 309.519531 L 201.914062 309.550781 L 203.28125 309.5625 L 205.355469 309.574219 L 207.5 309.578125 L 210.355469 309.578125 L 212.890625 309.574219 L 214.578125 309.566406 L 216.332031 309.554688 L 218.734375 309.527344 L 220.226562 309.503906 L 221.523438 309.472656 L 222.5 309.445312 L 223.148438 309.417969 L 224.121094 309.371094 L 224.902344 309.320312 L 225.484375 309.265625 L 225.875 309.210938 L 234.964844 309.210938 L 234.578125 309.273438 L 233.992188 309.335938 L 233.40625 309.378906 L 232.5 309.433594 L 231.460938 309.480469 L 229.964844 309.535156 L 228.734375 309.570312 L 227.109375 309.609375 L 225.617188 309.636719 L 223.992188 309.664062 L 221.589844 309.695312 L 220.03125 309.710938 L 218.34375 309.726562 L 216.332031 309.738281 L 213.796875 309.75 L 211.070312 309.753906 L 208.539062 309.757812 L 205.8125 309.753906 L 203.800781 309.746094 L 201.136719 309.734375 L 197.824219 309.703125 L 195.421875 309.675781 L 193.539062 309.644531 L 191.917969 309.617188 L 190.097656 309.574219 L 187.761719 309.507812 L 186.332031 309.453125 L 185.359375 309.410156 L 184.253906 309.351562 L 183.476562 309.296875 L 182.566406 309.210938 L 181.917969 309.101562 L 181.722656 309.015625 Z M 181.722656 308.800781 "/>
<path style=" stroke:none;fill-rule:nonzero;fill:rgb(96.862745%,70.196078%,16.862745%);fill-opacity:1;" d="M 181.722656 311.5 L 181.785156 311.496094 L 181.785156 311.472656 L 182.046875 311.417969 L 182.695312 311.34375 L 183.539062 311.285156 L 184.449219 311.234375 L 185.035156 311.210938 L 186.007812 311.175781 L 186.851562 311.148438 L 188.996094 311.09375 L 191.722656 311.042969 L 193.214844 311.023438 L 194.902344 311 L 197.304688 310.980469 L 198.410156 310.96875 L 201.785156 310.949219 L 205.617188 310.9375 L 209.835938 310.933594 L 211.785156 310.9375 L 214.449219 310.941406 L 218.082031 310.953125 L 220.160156 310.964844 L 221.785156 310.980469 L 223.472656 310.996094 L 225.550781 311.019531 L 227.5 311.046875 L 229.058594 311.074219 L 230.617188 311.113281 L 231.914062 311.152344 L 233.019531 311.191406 L 233.992188 311.242188 L 234.578125 311.285156 L 234.964844 311.328125 L 225.941406 311.328125 L 225.421875 311.285156 L 224.835938 311.253906 L 223.863281 311.214844 L 222.890625 311.183594 L 221.914062 311.160156 L 220.097656 311.128906 L 218.539062 311.109375 L 216.589844 311.09375 L 214.707031 311.082031 L 212.566406 311.074219 L 207.824219 311.074219 L 204.707031 311.082031 L 202.890625 311.089844 L 201.589844 311.101562 L 199.773438 311.121094 L 198.667969 311.132812 L 198.019531 311.144531 L 196.070312 311.179688 L 194.773438 311.214844 L 194.058594 311.238281 L 193.148438 311.273438 L 192.5 311.304688 L 191.785156 311.351562 L 191.398438 311.390625 L 190.878906 311.472656 L 190.8125 311.6875 L 191.007812 311.734375 L 191.398438 311.78125 L 191.917969 311.824219 L 192.695312 311.871094 L 193.476562 311.90625 L 194.839844 311.953125 L 196.007812 311.984375 L 196.917969 312.003906 L 198.667969 312.035156 L 199.382812 312.046875 L 201.070312 312.070312 L 202.824219 312.085938 L 204.96875 312.101562 L 206.589844 312.109375 L 209.1875 312.113281 L 212.5 312.113281 L 216.394531 312.105469 L 218.863281 312.097656 L 220.550781 312.085938 L 221.65625 312.078125 L 223.019531 312.066406 L 223.992188 312.054688 L 224.902344 312.039062 L 226.003906 312.019531 L 226.003906 311.734375 L 209.96875 311.730469 L 209.96875 311.597656 L 234.902344 311.597656 L 234.964844 312.066406 L 233.601562 312.097656 L 231.914062 312.128906 L 230.292969 312.152344 L 228.601562 312.171875 L 226.199219 312.195312 L 224.253906 312.210938 L 221.265625 312.226562 L 218.539062 312.238281 L 215.679688 312.246094 L 213.148438 312.25 L 210.164062 312.25 L 207.5 312.246094 L 204.644531 312.242188 L 202.371094 312.230469 L 200.292969 312.21875 L 198.214844 312.203125 L 195.617188 312.179688 L 193.929688 312.15625 L 192.175781 312.132812 L 190.421875 312.101562 L 188.863281 312.070312 L 187.824219 312.046875 L 186.785156 312.015625 L 185.683594 311.980469 L 184.644531 311.9375 L 183.863281 311.902344 L 183.152344 311.859375 L 182.632812 311.820312 L 182.113281 311.765625 L 181.851562 311.722656 L 181.722656 311.6875 Z M 181.722656 311.5 "/>
<path style=" stroke:none;fill-rule:nonzero;fill:rgb(83.921569%,15.686275%,22.352941%);fill-opacity:1;" d="M 181.722656 303.078125 L 234.964844 303.078125 L 234.964844 303.484375 L 212.777344 303.488281 L 212.777344 306.886719 L 203.847656 306.886719 L 203.847656 303.492188 L 203.71875 303.484375 L 181.722656 303.484375 Z M 181.722656 303.078125 "/>
<path style=" stroke:none;fill-rule:nonzero;fill:rgb(6.27451%,58.823529%,28.235294%);fill-opacity:1;" d="M 237.769531 276.84375 L 237.824219 276.78125 L 260.863281 211.476562 L 267.859375 211.476562 L 291.011719 276.90625 L 282.878906 276.90625 L 277.074219 259.824219 L 251.648438 259.824219 L 245.960938 276.84375 L 237.769531 276.84375 L 254.09375 252.761719 L 274.742188 252.699219 L 264.449219 222.167969 L 264.332031 222.105469 L 264.21875 222.289062 L 254.039062 252.699219 L 254.09375 252.761719 Z M 237.769531 276.84375 "/>
<path style=" stroke:none;fill-rule:nonzero;fill:rgb(14.509804%,36.078431%,60%);fill-opacity:1;" d="M 237.769531 313.273438 L 237.832031 313.273438 L 237.832031 313.230469 L 238.027344 313.160156 L 238.484375 313.074219 L 238.9375 313.015625 L 240.105469 312.914062 L 241.730469 312.8125 L 243.417969 312.734375 L 244.652344 312.6875 L 245.753906 312.652344 L 248.289062 312.585938 L 249.910156 312.550781 L 251.664062 312.523438 L 253.804688 312.492188 L 255.363281 312.472656 L 258.871094 312.445312 L 261.46875 312.433594 L 263.480469 312.429688 L 267.832031 312.429688 L 270.429688 312.433594 L 272.3125 312.445312 L 274.390625 312.457031 L 276.144531 312.472656 L 279.195312 312.511719 L 281.921875 312.5625 L 283.15625 312.589844 L 285.105469 312.644531 L 286.597656 312.699219 L 287.636719 312.746094 L 288.804688 312.8125 L 289.84375 312.890625 L 290.621094 312.980469 L 291.011719 313.058594 L 281.921875 313.058594 L 281.46875 312.988281 L 280.949219 312.933594 L 279.972656 312.859375 L 279 312.808594 L 277.636719 312.757812 L 276.402344 312.722656 L 274.714844 312.6875 L 273.222656 312.667969 L 271.664062 312.652344 L 270.167969 312.640625 L 267.3125 312.628906 L 264 312.628906 L 262.765625 312.632812 L 260.234375 312.648438 L 258.871094 312.660156 L 256.921875 312.683594 L 255.558594 312.707031 L 253.9375 312.742188 L 252.832031 312.773438 L 251.46875 312.820312 L 250.496094 312.859375 L 249.390625 312.917969 L 248.742188 312.964844 L 248.15625 313.015625 L 247.636719 313.074219 L 247.25 313.132812 L 246.988281 313.199219 L 246.859375 313.265625 L 246.859375 313.539062 L 246.988281 313.605469 L 247.3125 313.679688 L 248.15625 313.785156 L 249.390625 313.878906 L 250.820312 313.957031 L 252.183594 314.007812 L 252.960938 314.035156 L 254 314.0625 L 255.625 314.097656 L 257.960938 314.132812 L 259.324219 314.148438 L 261.402344 314.160156 L 263.546875 314.167969 L 266.402344 314.167969 L 268.9375 314.160156 L 270.625 314.152344 L 272.378906 314.136719 L 274.78125 314.109375 L 276.273438 314.078125 L 277.570312 314.046875 L 278.546875 314.011719 L 279.195312 313.984375 L 280.167969 313.929688 L 280.949219 313.867188 L 281.53125 313.804688 L 281.921875 313.746094 L 291.011719 313.746094 L 290.621094 313.816406 L 290.039062 313.886719 L 289.453125 313.9375 L 288.546875 314 L 287.507812 314.054688 L 286.011719 314.117188 L 284.777344 314.15625 L 283.15625 314.203125 L 281.664062 314.234375 L 280.039062 314.265625 L 277.636719 314.300781 L 276.078125 314.320312 L 274.390625 314.335938 L 272.378906 314.347656 L 269.84375 314.363281 L 267.117188 314.367188 L 264.585938 314.371094 L 261.859375 314.367188 L 259.84375 314.359375 L 257.183594 314.34375 L 253.871094 314.3125 L 251.46875 314.277344 L 249.585938 314.246094 L 247.960938 314.210938 L 246.144531 314.160156 L 243.808594 314.082031 L 242.378906 314.023438 L 241.40625 313.972656 L 240.300781 313.902344 L 239.523438 313.839844 L 238.613281 313.742188 L 237.964844 313.617188 L 237.769531 313.519531 Z M 237.769531 313.273438 "/>
<path style=" stroke:none;fill-rule:nonzero;fill:rgb(96.862745%,70.196078%,16.862745%);fill-opacity:1;" d="M 237.769531 290.058594 L 237.832031 290.035156 L 237.832031 289.523438 L 238.09375 288.375 L 238.742188 286.792969 L 239.585938 285.488281 L 240.496094 284.46875 L 241.078125 283.929688 L 242.054688 283.164062 L 242.898438 282.605469 L 245.039062 281.453125 L 247.769531 280.382812 L 249.261719 279.921875 L 250.949219 279.488281 L 253.351562 279.003906 L 254.457031 278.824219 L 257.832031 278.414062 L 261.664062 278.160156 L 265.882812 278.082031 L 267.832031 278.109375 L 270.492188 278.210938 L 274.128906 278.492188 L 276.207031 278.746094 L 277.832031 279.003906 L 279.519531 279.335938 L 281.597656 279.847656 L 283.546875 280.457031 L 285.105469 281.070312 L 286.660156 281.835938 L 287.960938 282.65625 L 289.066406 283.546875 L 290.039062 284.621094 L 290.621094 285.515625 L 291.011719 286.410156 L 281.988281 286.410156 L 281.46875 285.515625 L 280.882812 284.824219 L 279.910156 283.984375 L 278.933594 283.371094 L 277.960938 282.882812 L 276.144531 282.21875 L 274.585938 281.8125 L 272.636719 281.453125 L 270.753906 281.226562 L 268.609375 281.070312 L 267.3125 281.019531 L 263.871094 281.019531 L 260.753906 281.199219 L 258.9375 281.402344 L 257.636719 281.609375 L 255.820312 281.992188 L 254.714844 282.296875 L 254.066406 282.5 L 252.117188 283.292969 L 250.820312 284.007812 L 250.105469 284.492188 L 249.195312 285.257812 L 248.546875 285.949219 L 247.832031 286.96875 L 247.441406 287.734375 L 246.921875 289.472656 L 246.859375 294.070312 L 247.054688 295.039062 L 247.441406 296.085938 L 247.960938 297.003906 L 248.742188 297.976562 L 249.519531 298.714844 L 250.882812 299.710938 L 252.054688 300.375 L 252.960938 300.808594 L 254.714844 301.5 L 255.429688 301.730469 L 257.117188 302.1875 L 258.871094 302.546875 L 261.015625 302.851562 L 262.636719 303.007812 L 265.234375 303.132812 L 268.546875 303.132812 L 272.441406 302.980469 L 274.910156 302.777344 L 276.597656 302.570312 L 277.703125 302.394531 L 279.066406 302.113281 L 280.039062 301.855469 L 280.949219 301.578125 L 282.050781 301.140625 L 282.050781 295.039062 L 266.015625 295.015625 L 266.015625 292.152344 L 290.949219 292.128906 L 291.011719 302.113281 L 289.648438 302.800781 L 287.960938 303.464844 L 286.335938 303.976562 L 284.648438 304.410156 L 282.246094 304.894531 L 280.296875 305.203125 L 277.3125 305.558594 L 274.585938 305.789062 L 271.726562 305.941406 L 269.195312 306.019531 L 266.207031 306.042969 L 263.546875 305.992188 L 260.6875 305.839844 L 258.417969 305.636719 L 256.339844 305.382812 L 254.261719 305.050781 L 251.664062 304.511719 L 249.976562 304.078125 L 248.222656 303.542969 L 246.46875 302.902344 L 244.910156 302.214844 L 243.871094 301.679688 L 242.832031 301.066406 L 241.730469 300.300781 L 240.691406 299.429688 L 239.910156 298.640625 L 239.195312 297.746094 L 238.675781 296.902344 L 238.15625 295.753906 L 237.898438 294.835938 L 237.769531 294.042969 Z M 237.769531 290.058594 "/>
<path style=" stroke:none;fill-rule:nonzero;fill:rgb(83.921569%,15.686275%,22.352941%);fill-opacity:1;" d="M 237.769531 307.222656 L 291.011719 307.222656 L 291.011719 307.65625 L 268.820312 307.660156 L 268.820312 311.25 L 259.894531 311.25 L 259.894531 307.664062 L 259.765625 307.65625 L 237.769531 307.65625 Z M 237.769531 307.222656 "/>
<path style=" stroke:none;fill-rule:nonzero;fill:rgb(96.862745%,70.196078%,16.862745%);fill-opacity:1;" d="M 293.816406 146.460938 L 293.878906 146.191406 L 293.878906 140.828125 L 294.140625 128.757812 L 294.789062 112.128906 L 295.632812 98.449219 L 296.542969 87.71875 L 297.125 82.085938 L 298.101562 74.039062 L 298.945312 68.140625 L 301.085938 56.070312 L 303.8125 44.804688 L 305.308594 39.976562 L 306.996094 35.414062 L 309.398438 30.320312 L 310.503906 28.441406 L 313.878906 24.148438 L 317.710938 21.46875 L 321.929688 20.664062 L 323.878906 20.929688 L 326.539062 22.003906 L 330.175781 24.953125 L 332.253906 27.636719 L 333.878906 30.320312 L 335.566406 33.804688 L 337.644531 39.171875 L 339.589844 45.609375 L 341.148438 52.046875 L 342.707031 60.09375 L 344.007812 68.675781 L 345.109375 78.0625 L 346.085938 89.328125 L 346.667969 98.714844 L 347.058594 108.105469 L 338.035156 108.105469 L 337.515625 98.714844 L 336.929688 91.476562 L 335.957031 82.625 L 334.980469 76.1875 L 334.007812 71.089844 L 332.191406 64.117188 L 330.632812 59.824219 L 328.683594 56.070312 L 326.800781 53.65625 L 324.65625 52.046875 L 323.359375 51.507812 L 319.917969 51.507812 L 316.800781 53.386719 L 314.984375 55.53125 L 313.683594 57.679688 L 311.867188 61.703125 L 310.761719 64.921875 L 310.113281 67.066406 L 308.164062 75.382812 L 306.867188 82.890625 L 306.152344 87.988281 L 305.242188 96.035156 L 304.59375 103.277344 L 303.878906 114.003906 L 303.488281 122.050781 L 302.96875 140.292969 L 302.90625 188.574219 L 303.101562 198.765625 L 303.488281 209.761719 L 304.007812 219.417969 L 304.789062 229.609375 L 305.566406 237.390625 L 306.929688 247.851562 L 308.101562 254.824219 L 309.007812 259.382812 L 310.761719 266.625 L 311.476562 269.039062 L 313.164062 273.867188 L 314.917969 277.625 L 317.058594 280.84375 L 318.683594 282.453125 L 321.28125 283.792969 L 324.59375 283.792969 L 328.488281 282.183594 L 330.957031 280.039062 L 332.644531 277.890625 L 333.746094 276.015625 L 335.113281 273.0625 L 336.085938 270.382812 L 336.996094 267.429688 L 338.097656 262.871094 L 338.097656 198.765625 L 322.058594 198.496094 L 322.058594 168.457031 L 346.992188 168.1875 L 347.058594 273.0625 L 345.695312 280.304688 L 344.007812 287.28125 L 342.382812 292.644531 L 340.695312 297.203125 L 338.292969 302.300781 L 336.34375 305.519531 L 333.359375 309.273438 L 330.632812 311.6875 L 327.773438 313.296875 L 325.242188 314.101562 L 322.253906 314.371094 L 319.59375 313.835938 L 316.734375 312.226562 L 314.464844 310.078125 L 312.386719 307.398438 L 310.308594 303.910156 L 307.710938 298.277344 L 306.023438 293.71875 L 304.269531 288.085938 L 302.515625 281.378906 L 300.957031 274.136719 L 299.917969 268.503906 L 298.878906 262.066406 L 297.777344 254.019531 L 296.738281 244.898438 L 295.957031 236.585938 L 295.242188 227.195312 L 294.722656 218.34375 L 294.203125 206.277344 L 293.945312 196.621094 L 293.816406 188.304688 Z M 293.816406 146.460938 "/>
<path style=" stroke:none;fill-rule:nonzero;fill:rgb(6.27451%,58.823529%,28.235294%);fill-opacity:1;" d="M 349.859375 314.09375 L 349.917969 313.820312 L 372.957031 20.664062 L 379.953125 20.664062 L 403.105469 314.371094 L 394.972656 314.371094 L 389.167969 237.703125 L 363.742188 237.703125 L 358.050781 314.09375 L 349.859375 314.09375 L 366.1875 205.988281 L 386.835938 205.710938 L 376.539062 68.648438 L 376.425781 68.375 L 376.3125 69.199219 L 366.128906 205.710938 L 366.1875 205.988281 Z M 349.859375 314.09375 "/>
<path style=" stroke:none;fill-rule:nonzero;fill:rgb(6.27451%,58.823529%,28.235294%);fill-opacity:1;" d="M 405.90625 314.367188 L 405.964844 314.363281 L 429.003906 310.070312 L 436 310.070312 L 459.152344 314.371094 L 451.015625 314.371094 L 445.214844 313.246094 L 419.789062 313.246094 L 414.097656 314.367188 L 405.90625 314.367188 L 422.234375 312.785156 L 442.882812 312.78125 L 432.585938 310.773438 L 432.472656 310.769531 L 432.359375 310.78125 L 422.175781 312.78125 L 422.234375 312.785156 Z M 405.90625 314.367188 "/>
<path style=" stroke:none;fill-rule:nonzero;fill:rgb(83.921569%,15.686275%,22.352941%);fill-opacity:1;" d="M 405.90625 41.515625 L 459.152344 41.515625 L 459.152344 70.136719 L 436.960938 70.390625 L 436.960938 308.890625 L 428.035156 308.890625 L 428.035156 70.640625 L 427.902344 70.136719 L 405.90625 70.136719 Z M 405.90625 41.515625 "/>
<path style=" stroke:none;fill-rule:nonzero;fill:rgb(14.509804%,36.078431%,60%);fill-opacity:1;" d="M 461.953125 161.265625 L 462.019531 161.03125 L 462.019531 155.398438 L 462.214844 146.480469 L 462.667969 135.214844 L 463.121094 127.46875 L 464.292969 113.621094 L 465.914062 100.242188 L 467.601562 89.917969 L 468.835938 83.816406 L 469.941406 79.121094 L 472.472656 70.4375 L 474.097656 65.976562 L 475.847656 61.988281 L 477.992188 57.996094 L 479.550781 55.652344 L 483.058594 51.894531 L 485.652344 50.253906 L 487.667969 49.546875 L 492.015625 49.546875 L 494.613281 50.488281 L 496.496094 51.660156 L 498.574219 53.539062 L 500.328125 55.652344 L 503.378906 60.8125 L 506.109375 67.386719 L 507.339844 71.140625 L 509.289062 78.417969 L 510.78125 85.457031 L 511.820312 91.558594 L 512.992188 100.242188 L 514.027344 110.804688 L 514.808594 122.773438 L 515.199219 132.867188 L 506.109375 132.867188 L 505.652344 123.480469 L 505.132812 116.203125 L 504.160156 106.582031 L 503.1875 99.773438 L 501.820312 92.96875 L 500.589844 88.507812 L 498.898438 84.050781 L 497.40625 81.234375 L 495.847656 79.121094 L 494.355469 77.710938 L 491.496094 76.304688 L 488.1875 76.304688 L 486.953125 76.773438 L 484.421875 78.652344 L 483.058594 80.292969 L 481.109375 83.578125 L 479.746094 86.632812 L 478.121094 91.324219 L 477.019531 95.316406 L 475.65625 101.417969 L 474.679688 106.816406 L 473.578125 114.558594 L 472.925781 120.429688 L 472.34375 127 L 471.824219 134.746094 L 471.433594 142.960938 L 471.175781 151.644531 L 471.042969 160.09375 L 471.042969 196.46875 L 471.175781 204.917969 L 471.5 214.777344 L 472.34375 229.09375 L 473.578125 241.53125 L 475.003906 251.390625 L 476.367188 258.429688 L 477.148438 261.71875 L 478.1875 265.472656 L 479.808594 270.167969 L 482.148438 274.859375 L 483.511719 276.738281 L 485.589844 278.617188 L 487.730469 279.554688 L 490.589844 279.554688 L 493.121094 278.617188 L 494.808594 277.441406 L 496.5625 275.5625 L 498.964844 271.574219 L 500.457031 267.820312 L 501.757812 263.359375 L 502.730469 258.902344 L 503.378906 255.144531 L 504.355469 247.871094 L 505.132812 239.890625 L 505.71875 231.675781 L 506.109375 223.695312 L 515.199219 223.695312 L 514.808594 233.082031 L 514.222656 242.238281 L 513.640625 249.042969 L 512.730469 257.257812 L 511.691406 264.535156 L 510.199219 272.746094 L 508.964844 278.144531 L 507.339844 284.011719 L 505.847656 288.472656 L 504.222656 292.460938 L 501.820312 297.15625 L 500.261719 299.503906 L 498.574219 301.617188 L 496.5625 303.492188 L 494.03125 305.136719 L 491.304688 306.074219 L 488.769531 306.308594 L 486.042969 305.839844 L 484.03125 304.902344 L 481.367188 302.789062 L 478.058594 298.566406 L 475.65625 294.105469 L 473.769531 289.644531 L 472.148438 284.953125 L 470.332031 278.617188 L 467.992188 268.289062 L 466.5625 260.308594 L 465.589844 253.738281 L 464.484375 244.582031 L 463.707031 236.371094 L 462.796875 223.226562 L 462.148438 206.5625 L 461.953125 193.652344 Z M 461.953125 161.265625 "/>
<path style=" stroke:none;fill-rule:nonzero;fill:rgb(83.921569%,15.686275%,22.352941%);fill-opacity:1;" d="M 461.953125 307.488281 L 515.199219 307.488281 L 515.199219 308.226562 L 493.007812 308.234375 L 493.007812 314.371094 L 484.078125 314.371094 L 484.078125 308.238281 L 483.949219 308.226562 L 461.953125 308.226562 Z M 461.953125 307.488281 "/>
<path style=" stroke:none;fill-rule:nonzero;fill:rgb(6.27451%,58.823529%,28.235294%);fill-opacity:1;" d="M 518 314.367188 L 518.058594 314.363281 L 541.09375 309.628906 L 548.09375 309.628906 L 571.246094 314.371094 L 563.109375 314.371094 L 557.308594 313.132812 L 531.878906 313.132812 L 526.191406 314.367188 L 518 314.367188 L 534.324219 312.621094 L 554.976562 312.617188 L 544.679688 310.402344 L 544.566406 310.398438 L 544.453125 310.414062 L 534.269531 312.617188 L 534.324219 312.621094 Z M 518 314.367188 "/>
<path style=" stroke:none;fill-rule:nonzero;fill:rgb(14.509804%,36.078431%,60%);fill-opacity:1;" d="M 518 293.160156 L 518.066406 293.148438 L 518.066406 292.78125 L 518.261719 292.207031 L 518.714844 291.480469 L 519.167969 290.980469 L 520.335938 290.085938 L 521.960938 289.222656 L 523.648438 288.554688 L 524.882812 288.160156 L 525.988281 287.855469 L 528.519531 287.296875 L 530.140625 287.007812 L 531.894531 286.75 L 534.039062 286.492188 L 535.597656 286.339844 L 539.101562 286.097656 L 541.699219 285.992188 L 543.714844 285.945312 L 548.0625 285.945312 L 550.660156 286.007812 L 552.542969 286.082031 L 554.621094 286.203125 L 556.375 286.339844 L 559.425781 286.675781 L 562.152344 287.097656 L 563.386719 287.339844 L 565.335938 287.8125 L 566.828125 288.265625 L 567.867188 288.660156 L 569.035156 289.222656 L 570.074219 289.902344 L 570.855469 290.675781 L 571.246094 291.328125 L 562.152344 291.328125 L 561.699219 290.722656 L 561.179688 290.25 L 560.207031 289.628906 L 559.230469 289.191406 L 557.867188 288.75 L 556.632812 288.464844 L 554.945312 288.175781 L 553.453125 287.992188 L 551.894531 287.855469 L 550.402344 287.765625 L 547.542969 287.675781 L 544.234375 287.675781 L 543 287.707031 L 540.464844 287.828125 L 539.101562 287.933594 L 537.15625 288.144531 L 535.792969 288.34375 L 534.167969 288.644531 L 533.0625 288.902344 L 531.699219 289.296875 L 530.726562 289.644531 L 529.621094 290.144531 L 528.972656 290.523438 L 528.390625 290.949219 L 527.871094 291.449219 L 527.480469 291.980469 L 527.21875 292.539062 L 527.089844 293.085938 L 527.089844 295.4375 L 527.21875 295.980469 L 527.546875 296.617188 L 528.390625 297.542969 L 529.621094 298.347656 L 531.050781 298.984375 L 532.414062 299.4375 L 533.195312 299.648438 L 534.234375 299.890625 L 535.855469 300.195312 L 538.195312 300.5 L 539.558594 300.621094 L 541.636719 300.742188 L 543.777344 300.800781 L 546.636719 300.800781 L 549.167969 300.742188 L 550.855469 300.664062 L 552.609375 300.542969 L 555.011719 300.285156 L 556.503906 300.042969 L 557.804688 299.753906 L 558.777344 299.46875 L 559.425781 299.226562 L 560.402344 298.753906 L 561.179688 298.238281 L 561.765625 297.710938 L 562.152344 297.195312 L 571.246094 297.195312 L 570.855469 297.800781 L 570.269531 298.390625 L 569.6875 298.832031 L 568.777344 299.363281 L 567.738281 299.832031 L 566.246094 300.363281 L 565.011719 300.710938 L 563.386719 301.089844 L 561.894531 301.378906 L 560.269531 301.636719 L 557.867188 301.9375 L 556.308594 302.089844 L 554.621094 302.226562 L 552.609375 302.347656 L 550.078125 302.453125 L 547.347656 302.515625 L 544.816406 302.53125 L 542.089844 302.5 L 540.078125 302.4375 L 537.414062 302.300781 L 534.101562 302.027344 L 531.699219 301.742188 L 529.816406 301.453125 L 528.195312 301.148438 L 526.375 300.742188 L 524.039062 300.074219 L 522.609375 299.558594 L 521.636719 299.132812 L 520.53125 298.542969 L 519.753906 298.011719 L 518.84375 297.164062 L 518.195312 296.085938 L 518 295.253906 Z M 518 293.160156 "/>
<path style=" stroke:none;fill-rule:nonzero;fill:rgb(96.862745%,70.196078%,16.862745%);fill-opacity:1;" d="M 518 305.738281 L 518.066406 305.734375 L 518.066406 305.648438 L 518.324219 305.453125 L 518.972656 305.183594 L 519.816406 304.964844 L 520.726562 304.792969 L 521.3125 304.699219 L 522.285156 304.570312 L 523.128906 304.476562 L 525.273438 304.28125 L 528 304.097656 L 529.492188 304.019531 L 531.179688 303.945312 L 533.582031 303.863281 L 534.6875 303.835938 L 538.0625 303.765625 L 541.894531 303.722656 L 546.117188 303.707031 L 548.0625 303.714844 L 550.726562 303.730469 L 554.363281 303.777344 L 556.441406 303.820312 L 558.0625 303.863281 L 559.75 303.921875 L 561.828125 304.007812 L 563.777344 304.113281 L 565.335938 304.214844 L 566.894531 304.34375 L 568.191406 304.484375 L 569.296875 304.636719 L 570.269531 304.816406 L 570.855469 304.96875 L 571.246094 305.121094 L 562.21875 305.121094 L 561.699219 304.96875 L 561.113281 304.851562 L 560.140625 304.710938 L 559.167969 304.605469 L 558.191406 304.523438 L 556.375 304.410156 L 554.816406 304.339844 L 552.867188 304.28125 L 550.984375 304.242188 L 548.84375 304.214844 L 547.542969 304.207031 L 544.101562 304.207031 L 540.984375 304.238281 L 539.167969 304.273438 L 537.871094 304.304688 L 536.050781 304.371094 L 534.949219 304.421875 L 534.296875 304.457031 L 532.351562 304.59375 L 531.050781 304.714844 L 530.335938 304.796875 L 529.429688 304.925781 L 528.777344 305.042969 L 528.066406 305.214844 L 527.675781 305.34375 L 527.15625 305.640625 L 527.089844 306.417969 L 527.285156 306.582031 L 527.675781 306.761719 L 528.195312 306.917969 L 528.972656 307.082031 L 529.753906 307.207031 L 531.117188 307.375 L 532.285156 307.488281 L 533.195312 307.5625 L 534.949219 307.679688 L 535.660156 307.71875 L 537.351562 307.796875 L 539.101562 307.855469 L 541.246094 307.910156 L 542.867188 307.933594 L 545.464844 307.957031 L 548.777344 307.957031 L 552.671875 307.929688 L 555.140625 307.894531 L 556.828125 307.859375 L 557.933594 307.832031 L 559.296875 307.785156 L 560.269531 307.738281 L 561.179688 307.691406 L 562.285156 307.617188 L 562.285156 306.582031 L 546.246094 306.578125 L 546.246094 306.09375 L 571.179688 306.089844 L 571.246094 307.785156 L 569.878906 307.898438 L 568.191406 308.011719 L 566.570312 308.097656 L 564.882812 308.171875 L 562.476562 308.253906 L 560.53125 308.308594 L 557.542969 308.367188 L 554.816406 308.40625 L 551.960938 308.433594 L 549.425781 308.445312 L 546.441406 308.449219 L 543.777344 308.441406 L 540.921875 308.414062 L 538.648438 308.378906 L 536.570312 308.335938 L 534.492188 308.28125 L 531.894531 308.191406 L 530.207031 308.117188 L 528.453125 308.027344 L 526.699219 307.917969 L 525.144531 307.800781 L 524.105469 307.710938 L 523.066406 307.605469 L 521.960938 307.476562 L 520.921875 307.328125 L 520.144531 307.195312 L 519.429688 307.042969 L 518.910156 306.898438 L 518.390625 306.707031 L 518.128906 306.550781 L 518 306.414062 Z M 518 305.738281 "/>
<path style=" stroke:none;fill-rule:nonzero;fill:rgb(83.921569%,15.686275%,22.352941%);fill-opacity:1;" d="M 518 167.535156 L 571.246094 167.535156 L 571.246094 180.082031 L 549.054688 180.191406 L 549.054688 284.765625 L 540.125 284.765625 L 540.125 180.304688 L 539.996094 180.082031 L 518 180.082031 Z M 518 167.535156 "/>
<path style=" stroke:none;fill-rule:nonzero;fill:rgb(6.27451%,58.823529%,28.235294%);fill-opacity:1;" d="M 630.09375 314.371094 L 630.148438 314.371094 L 653.1875 314.292969 L 660.183594 314.292969 L 683.335938 314.371094 L 675.203125 314.371094 L 669.398438 314.351562 L 643.972656 314.351562 L 638.285156 314.371094 L 630.09375 314.371094 L 646.417969 314.339844 L 667.066406 314.339844 L 656.773438 314.304688 L 656.542969 314.304688 L 646.363281 314.339844 L 646.417969 314.339844 Z M 630.09375 314.371094 "/>
<path style=" stroke:none;fill-rule:nonzero;fill:rgb(14.509804%,36.078431%,60%);fill-opacity:1;" d="M 630.09375 311.601562 L 630.15625 311.601562 L 630.15625 311.597656 L 630.351562 311.585938 L 630.808594 311.570312 L 631.261719 311.558594 L 632.429688 311.542969 L 634.054688 311.523438 L 635.742188 311.511719 L 636.976562 311.503906 L 638.078125 311.496094 L 640.613281 311.484375 L 642.234375 311.480469 L 643.988281 311.476562 L 646.132812 311.46875 L 647.691406 311.46875 L 651.195312 311.460938 L 664.636719 311.460938 L 666.714844 311.464844 L 668.46875 311.46875 L 671.519531 311.472656 L 674.246094 311.480469 L 675.480469 311.488281 L 677.429688 311.496094 L 678.921875 311.503906 L 679.960938 311.511719 L 681.128906 311.523438 L 682.167969 311.539062 L 682.949219 311.554688 L 683.335938 311.566406 L 674.246094 311.566406 L 673.792969 311.554688 L 673.273438 311.546875 L 672.296875 311.53125 L 671.324219 311.523438 L 669.960938 311.515625 L 668.726562 311.507812 L 667.039062 311.503906 L 665.546875 311.5 L 663.988281 311.496094 L 662.492188 311.496094 L 659.636719 311.492188 L 656.324219 311.492188 L 655.089844 311.496094 L 652.558594 311.496094 L 651.195312 311.5 L 649.246094 311.503906 L 647.882812 311.507812 L 646.261719 311.511719 L 645.15625 311.519531 L 643.792969 311.527344 L 642.820312 311.53125 L 641.714844 311.542969 L 641.066406 311.550781 L 640.480469 311.558594 L 639.960938 311.570312 L 639.574219 311.578125 L 639.3125 311.589844 L 639.183594 311.601562 L 639.183594 311.648438 L 639.3125 311.660156 L 639.636719 311.671875 L 640.480469 311.691406 L 641.714844 311.707031 L 643.144531 311.71875 L 644.507812 311.730469 L 645.285156 311.734375 L 646.324219 311.738281 L 647.949219 311.742188 L 650.285156 311.75 L 651.648438 311.753906 L 662.949219 311.753906 L 664.703125 311.75 L 667.105469 311.746094 L 668.597656 311.742188 L 669.894531 311.734375 L 670.871094 311.730469 L 671.519531 311.722656 L 672.492188 311.714844 L 673.273438 311.703125 L 673.855469 311.695312 L 674.246094 311.683594 L 683.335938 311.683594 L 682.949219 311.695312 L 682.363281 311.707031 L 681.777344 311.714844 L 680.871094 311.726562 L 679.832031 311.738281 L 678.335938 311.746094 L 677.105469 311.753906 L 675.480469 311.761719 L 673.988281 311.765625 L 672.363281 311.773438 L 669.960938 311.777344 L 668.402344 311.78125 L 666.714844 311.785156 L 664.703125 311.785156 L 662.167969 311.789062 L 652.167969 311.789062 L 649.507812 311.785156 L 646.195312 311.78125 L 643.792969 311.773438 L 641.910156 311.769531 L 640.289062 311.761719 L 638.46875 311.753906 L 636.132812 311.742188 L 634.703125 311.730469 L 633.730469 311.722656 L 632.625 311.710938 L 631.847656 311.699219 L 630.9375 311.683594 L 630.289062 311.660156 L 630.09375 311.644531 Z M 630.09375 311.601562 "/>
<path style=" stroke:none;fill-rule:nonzero;fill:rgb(96.862745%,70.196078%,16.862745%);fill-opacity:1;" d="M 630.09375 313.03125 L 630.15625 313.03125 L 630.15625 313.027344 L 630.417969 313.023438 L 631.066406 313.015625 L 631.910156 313.007812 L 632.820312 313.003906 L 633.40625 313 L 634.378906 312.996094 L 635.222656 312.992188 L 637.367188 312.988281 L 640.09375 312.980469 L 641.585938 312.980469 L 643.273438 312.976562 L 645.675781 312.972656 L 650.15625 312.972656 L 653.988281 312.96875 L 662.820312 312.96875 L 666.453125 312.972656 L 670.15625 312.972656 L 671.84375 312.976562 L 673.921875 312.980469 L 675.871094 312.980469 L 678.988281 312.988281 L 680.285156 312.992188 L 681.390625 312.996094 L 682.363281 313.003906 L 682.949219 313.007812 L 683.335938 313.011719 L 674.3125 313.011719 L 673.792969 313.007812 L 673.207031 313.003906 L 672.234375 313 L 671.257812 312.996094 L 670.285156 312.996094 L 668.46875 312.992188 L 666.910156 312.988281 L 664.960938 312.988281 L 663.078125 312.984375 L 653.078125 312.984375 L 651.261719 312.988281 L 648.144531 312.988281 L 647.039062 312.992188 L 646.390625 312.992188 L 644.441406 312.996094 L 643.144531 313 L 642.429688 313.003906 L 641.519531 313.007812 L 640.871094 313.011719 L 640.15625 313.015625 L 639.769531 313.019531 L 639.25 313.027344 L 639.183594 313.050781 L 639.769531 313.0625 L 640.289062 313.066406 L 641.84375 313.074219 L 643.210938 313.078125 L 644.378906 313.082031 L 645.285156 313.085938 L 647.039062 313.089844 L 647.753906 313.089844 L 649.441406 313.09375 L 651.195312 313.09375 L 653.339844 313.097656 L 664.765625 313.097656 L 667.234375 313.09375 L 671.390625 313.09375 L 672.363281 313.089844 L 673.273438 313.089844 L 674.375 313.085938 L 674.375 313.054688 L 658.339844 313.054688 L 658.339844 313.042969 L 683.273438 313.042969 L 683.335938 313.09375 L 681.972656 313.09375 L 680.285156 313.097656 L 678.660156 313.101562 L 676.972656 313.105469 L 674.570312 313.105469 L 672.625 313.109375 L 666.910156 313.109375 L 664.050781 313.113281 L 655.871094 313.113281 L 653.015625 313.109375 L 648.664062 313.109375 L 646.585938 313.105469 L 643.988281 313.105469 L 642.300781 313.101562 L 640.546875 313.097656 L 638.792969 313.097656 L 637.234375 313.09375 L 635.15625 313.085938 L 634.054688 313.082031 L 633.015625 313.078125 L 632.234375 313.074219 L 631.523438 313.070312 L 631.003906 313.066406 L 630.484375 313.058594 L 630.222656 313.054688 L 630.09375 313.050781 Z M 630.09375 313.03125 "/>
<path style=" stroke:none;fill-rule:nonzero;fill:rgb(83.921569%,15.686275%,22.352941%);fill-opacity:1;" d="M 630.09375 309.195312 L 683.335938 309.195312 L 683.335938 309.308594 L 661.148438 309.3125 L 661.148438 310.28125 L 652.21875 310.28125 L 652.21875 309.3125 L 652.089844 309.308594 L 630.09375 309.308594 Z M 630.09375 309.195312 "/>
<g style="fill:rgb(0%,0%,0%);fill-opacity:1;">
  <use xlink:href="#glyph0-1" x="21.957031" y="318.198242"/>
  <use xlink:href="#glyph0-2" x="27.291016" y="318.198242"/>
  <use xlink:href="#glyph0-1" x="29.958008" y="318.198242"/>
</g>
<g style="fill:rgb(0%,0%,0%);fill-opacity:1;">
  <use xlink:href="#glyph0-1" x="21.957031" y="244.475586"/>
  <use xlink:href="#glyph0-2" x="27.291016" y="244.475586"/>
  <use xlink:href="#glyph0-3" x="29.958008" y="244.475586"/>
</g>
<g style="fill:rgb(0%,0%,0%);fill-opacity:1;">
  <use xlink:href="#glyph0-4" x="21.957031" y="170.75293"/>
  <use xlink:href="#glyph0-2" x="27.291016" y="170.75293"/>
  <use xlink:href="#glyph0-1" x="29.958008" y="170.75293"/>
</g>
<g style="fill:rgb(0%,0%,0%);fill-opacity:1;">
  <use xlink:href="#glyph0-4" x="21.957031" y="97.03418"/>
  <use xlink:href="#glyph0-2" x="27.291016" y="97.03418"/>
  <use xlink:href="#glyph0-3" x="29.958008" y="97.03418"/>
</g>
<g style="fill:rgb(0%,0%,0%);fill-opacity:1;">
  <use xlink:href="#glyph0-5" x="21.957031" y="23.311523"/>
  <use xlink:href="#glyph0-2" x="27.291016" y="23.311523"/>
  <use xlink:href="#glyph0-1" x="29.958008" y="23.311523"/>
</g>
<g style="fill:rgb(0%,0%,0%);fill-opacity:1;">
  <use xlink:href="#glyph0-4" x="93.25" y="338.19043"/>
</g>
<g style="fill:rgb(0%,0%,0%);fill-opacity:1;">
  <use xlink:href="#glyph0-5" x="149.296875" y="338.19043"/>
</g>
<g style="fill:rgb(0%,0%,0%);fill-opacity:1;">
  <use xlink:href="#glyph0-6" x="205.34375" y="338.19043"/>
</g>
<g style="fill:rgb(0%,0%,0%);fill-opacity:1;">
  <use xlink:href="#glyph0-7" x="261.390625" y="338.19043"/>
</g>
<g style="fill:rgb(0%,0%,0%);fill-opacity:1;">
  <use xlink:href="#glyph0-3" x="317.4375" y="338.19043"/>
</g>
<g style="fill:rgb(0%,0%,0%);fill-opacity:1;">
  <use xlink:href="#glyph0-8" x="373.484375" y="338.19043"/>
</g>
<g style="fill:rgb(0%,0%,0%);fill-opacity:1;">
  <use xlink:href="#glyph0-9" x="429.53125" y="338.19043"/>
</g>
<g style="fill:rgb(0%,0%,0%);fill-opacity:1;">
  <use xlink:href="#glyph0-10" x="485.574219" y="338.19043"/>
</g>
<g style="fill:rgb(0%,0%,0%);fill-opacity:1;">
  <use xlink:href="#glyph0-11" x="541.621094" y="338.19043"/>
</g>
<g style="fill:rgb(0%,0%,0%);fill-opacity:1;">
  <use xlink:href="#glyph0-4" x="595.167969" y="338.19043"/>
  <use xlink:href="#glyph0-1" x="600.501953" y="338.19043"/>
</g>
<g style="fill:rgb(0%,0%,0%);fill-opacity:1;">
  <use xlink:href="#glyph0-4" x="651.214844" y="338.19043"/>
  <use xlink:href="#glyph0-4" x="656.548828" y="338.19043"/>
</g>
<g style="fill:rgb(0%,0%,0%);fill-opacity:1;">
  <use xlink:href="#glyph1-1" x="14.412109" y="178.015625"/>
  <use xlink:href="#glyph1-2" x="14.412109" y="170.011719"/>
  <use xlink:href="#glyph1-3" x="14.412109" y="167.347656"/>
  <use xlink:href="#glyph1-4" x="14.412109" y="164.011719"/>
</g>
</g>
</svg>
