<?xml version="1.0" encoding="UTF-8"?>
<svg xmlns="http://www.w3.org/2000/svg" xmlns:xlink="http://www.w3.org/1999/xlink" width="720pt" height="360pt" viewBox="0 0 720 360" version="1.1">
<defs>
<g>
<symbol overflow="visible" id="glyph0-0">
<path style="stroke:none;" d=""/>
</symbol>
<symbol overflow="visible" id="glyph0-1">
<path style="stroke:none;" d="M 2.640625 -6.796875 C 2 -6.796875 1.421875 -6.53125 1.078125 -6.046875 C 0.640625 -5.453125 0.40625 -4.546875 0.40625 -3.296875 C 0.40625 -1 1.1875 0.21875 2.640625 0.21875 C 4.078125 0.21875 4.859375 -1 4.859375 -3.234375 C 4.859375 -4.5625 4.65625 -5.4375 4.203125 -6.046875 C 3.84375 -6.53125 3.28125 -6.796875 2.640625 -6.796875 Z M 2.640625 -6.046875 C 3.546875 -6.046875 4 -5.125 4 -3.3125 C 4 -1.375 3.5625 -0.484375 2.625 -0.484375 C 1.734375 -0.484375 1.28125 -1.421875 1.28125 -3.28125 C 1.28125 -5.140625 1.734375 -6.046875 2.640625 -6.046875 Z M 2.640625 -6.046875 "/>
</symbol>
<symbol overflow="visible" id="glyph0-2">
<path style="stroke:none;" d="M 1.828125 -1 L 0.828125 -1 L 0.828125 0 L 1.828125 0 Z M 1.828125 -1 "/>
</symbol>
<symbol overflow="visible" id="glyph0-3">
<path style="stroke:none;" d="M 4.5625 -6.796875 L 1.0625 -6.796875 L 0.546875 -3.09375 L 1.328125 -3.09375 C 1.71875 -3.5625 2.046875 -3.734375 2.578125 -3.734375 C 3.484375 -3.734375 4.0625 -3.109375 4.0625 -2.09375 C 4.0625 -1.125 3.484375 -0.53125 2.578125 -0.53125 C 1.828125 -0.53125 1.375 -0.90625 1.1875 -1.671875 L 0.328125 -1.671875 C 0.453125 -1.109375 0.546875 -0.84375 0.75 -0.59375 C 1.125 -0.078125 1.828125 0.21875 2.59375 0.21875 C 3.96875 0.21875 4.921875 -0.78125 4.921875 -2.21875 C 4.921875 -3.5625 4.03125 -4.484375 2.71875 -4.484375 C 2.25 -4.484375 1.859375 -4.359375 1.46875 -4.0625 L 1.734375 -5.96875 L 4.5625 -5.96875 Z M 4.5625 -6.796875 "/>
</symbol>
<symbol overflow="visible" id="glyph0-4">
<path style="stroke:none;" d="M 2.484375 -4.84375 L 2.484375 0 L 3.328125 0 L 3.328125 -6.796875 L 2.765625 -6.796875 C 2.46875 -5.75 2.28125 -5.609375 0.984375 -5.453125 L 0.984375 -4.84375 Z M 2.484375 -4.84375 "/>
</symbol>
<symbol overflow="visible" id="glyph0-5">
<path style="stroke:none;" d="M 4.859375 -0.828125 L 1.28125 -0.828125 C 1.359375 -1.390625 1.671875 -1.75 2.5 -2.234375 L 3.46875 -2.75 C 4.40625 -3.265625 4.90625 -3.96875 4.90625 -4.8125 C 4.90625 -5.375 4.671875 -5.90625 4.265625 -6.265625 C 3.859375 -6.625 3.375 -6.796875 2.71875 -6.796875 C 1.859375 -6.796875 1.21875 -6.5 0.84375 -5.921875 C 0.609375 -5.5625 0.5 -5.125 0.484375 -4.4375 L 1.328125 -4.4375 C 1.359375 -4.90625 1.40625 -5.1875 1.53125 -5.40625 C 1.75 -5.8125 2.1875 -6.0625 2.703125 -6.0625 C 3.46875 -6.0625 4.03125 -5.515625 4.03125 -4.78125 C 4.03125 -4.25 3.71875 -3.796875 3.125 -3.4375 L 2.234375 -2.9375 C 0.8125 -2.140625 0.40625 -1.5 0.328125 0 L 4.859375 0 Z M 4.859375 -0.828125 "/>
</symbol>
<symbol overflow="visible" id="glyph0-6">
<path style="stroke:none;" d="M 2.125 -3.125 L 2.578125 -3.125 C 3.515625 -3.125 3.984375 -2.703125 3.984375 -1.890625 C 3.984375 -1.03125 3.46875 -0.53125 2.578125 -0.53125 C 1.65625 -0.53125 1.203125 -0.984375 1.15625 -1.96875 L 0.3125 -1.96875 C 0.34375 -1.421875 0.4375 -1.078125 0.609375 -0.765625 C 0.953125 -0.109375 1.625 0.21875 2.546875 0.21875 C 3.953125 0.21875 4.859375 -0.609375 4.859375 -1.90625 C 4.859375 -2.765625 4.515625 -3.25 3.703125 -3.515625 C 4.34375 -3.765625 4.65625 -4.25 4.65625 -4.9375 C 4.65625 -6.109375 3.875 -6.796875 2.578125 -6.796875 C 1.203125 -6.796875 0.484375 -6.046875 0.453125 -4.609375 L 1.296875 -4.609375 C 1.3125 -5.015625 1.34375 -5.25 1.453125 -5.453125 C 1.640625 -5.828125 2.0625 -6.0625 2.59375 -6.0625 C 3.34375 -6.0625 3.796875 -5.625 3.796875 -4.90625 C 3.796875 -4.421875 3.609375 -4.140625 3.25 -3.984375 C 3.015625 -3.890625 2.71875 -3.84375 2.125 -3.84375 Z M 2.125 -3.125 "/>
</symbol>
<symbol overflow="visible" id="glyph0-7">
<path style="stroke:none;" d="M 3.140625 -1.625 L 3.140625 0 L 3.984375 0 L 3.984375 -1.625 L 4.984375 -1.625 L 4.984375 -2.390625 L 3.984375 -2.390625 L 3.984375 -6.796875 L 3.359375 -6.796875 L 0.265625 -2.515625 L 0.265625 -1.625 Z M 3.140625 -2.390625 L 1 -2.390625 L 3.140625 -5.359375 Z M 3.140625 -2.390625 "/>
</symbol>
<symbol overflow="visible" id="glyph0-8">
<path style="stroke:none;" d="M 4.78125 -5.03125 C 4.609375 -6.140625 3.890625 -6.796875 2.84375 -6.796875 C 2.09375 -6.796875 1.421875 -6.4375 1.03125 -5.828125 C 0.609375 -5.171875 0.40625 -4.34375 0.40625 -3.09375 C 0.40625 -1.953125 0.578125 -1.234375 0.984375 -0.625 C 1.359375 -0.078125 1.953125 0.21875 2.703125 0.21875 C 3.984375 0.21875 4.921875 -0.734375 4.921875 -2.078125 C 4.921875 -3.34375 4.0625 -4.234375 2.84375 -4.234375 C 2.171875 -4.234375 1.640625 -3.96875 1.28125 -3.46875 C 1.28125 -5.125 1.828125 -6.046875 2.796875 -6.046875 C 3.390625 -6.046875 3.796875 -5.671875 3.9375 -5.03125 Z M 2.734375 -3.484375 C 3.546875 -3.484375 4.0625 -2.921875 4.0625 -2 C 4.0625 -1.15625 3.484375 -0.53125 2.703125 -0.53125 C 1.921875 -0.53125 1.328125 -1.1875 1.328125 -2.046875 C 1.328125 -2.890625 1.90625 -3.484375 2.734375 -3.484375 Z M 2.734375 -3.484375 "/>
</symbol>
<symbol overflow="visible" id="glyph0-9">
<path style="stroke:none;" d="M 4.984375 -6.796875 L 0.4375 -6.796875 L 0.4375 -5.96875 L 4.109375 -5.96875 C 2.5 -3.65625 1.828125 -2.234375 1.328125 0 L 2.21875 0 C 2.59375 -2.171875 3.453125 -4.046875 4.984375 -6.09375 Z M 4.984375 -6.796875 "/>
</symbol>
<symbol overflow="visible" id="glyph0-10">
<path style="stroke:none;" d="M 3.75 -3.578125 C 4.453125 -4 4.6875 -4.34375 4.6875 -4.984375 C 4.6875 -6.046875 3.84375 -6.796875 2.640625 -6.796875 C 1.4375 -6.796875 0.59375 -6.046875 0.59375 -4.984375 C 0.59375 -4.359375 0.828125 -4.015625 1.515625 -3.578125 C 0.734375 -3.203125 0.359375 -2.640625 0.359375 -1.890625 C 0.359375 -0.640625 1.296875 0.21875 2.640625 0.21875 C 3.984375 0.21875 4.921875 -0.640625 4.921875 -1.875 C 4.921875 -2.640625 4.53125 -3.203125 3.75 -3.578125 Z M 2.640625 -6.046875 C 3.359375 -6.046875 3.8125 -5.625 3.8125 -4.96875 C 3.8125 -4.34375 3.34375 -3.921875 2.640625 -3.921875 C 1.921875 -3.921875 1.453125 -4.34375 1.453125 -4.984375 C 1.453125 -5.625 1.921875 -6.046875 2.640625 -6.046875 Z M 2.640625 -3.203125 C 3.484375 -3.203125 4.0625 -2.671875 4.0625 -1.875 C 4.0625 -1.0625 3.484375 -0.53125 2.625 -0.53125 C 1.796875 -0.53125 1.21875 -1.078125 1.21875 -1.875 C 1.21875 -2.671875 1.796875 -3.203125 2.640625 -3.203125 Z M 2.640625 -3.203125 "/>
</symbol>
<symbol overflow="visible" id="glyph1-0">
<path style="stroke:none;" d=""/>
</symbol>
<symbol overflow="visible" id="glyph1-1">
<path style="stroke:none;" d="M 0 -0.953125 L 0 -4.890625 C 0 -5.71875 -0.234375 -6.34375 -0.734375 -6.796875 C -1.1875 -7.234375 -1.8125 -7.46875 -2.5 -7.46875 C -3.546875 -7.46875 -4.1875 -7 -4.625 -5.875 C -4.984375 -6.671875 -5.640625 -7.09375 -6.53125 -7.09375 C -7.15625 -7.09375 -7.734375 -6.859375 -8.140625 -6.390625 C -8.5625 -5.9375 -8.75 -5.34375 -8.75 -4.5 L -8.75 -0.953125 Z M -4.984375 -2.0625 L -7.765625 -2.0625 L -7.765625 -4.21875 C -7.765625 -4.84375 -7.6875 -5.203125 -7.453125 -5.5 C -7.21875 -5.8125 -6.859375 -5.96875 -6.375 -5.96875 C -5.90625 -5.96875 -5.53125 -5.8125 -5.296875 -5.5 C -5.0625 -5.203125 -4.984375 -4.84375 -4.984375 -4.21875 Z M -0.984375 -2.0625 L -4 -2.0625 L -4 -4.78125 C -4 -5.328125 -3.859375 -5.6875 -3.578125 -5.953125 C -3.296875 -6.21875 -2.921875 -6.359375 -2.484375 -6.359375 C -2.0625 -6.359375 -1.6875 -6.21875 -1.40625 -5.953125 C -1.109375 -5.6875 -0.984375 -5.328125 -0.984375 -4.78125 Z M -0.984375 -2.0625 "/>
</symbol>
<symbol overflow="visible" id="glyph1-2">
<path style="stroke:none;" d="M -6.28125 -1.796875 L -6.28125 -0.796875 L 0 -0.796875 L 0 -1.796875 Z M -8.75 -1.796875 L -8.75 -0.796875 L -7.484375 -0.796875 L -7.484375 -1.796875 Z M -8.75 -1.796875 "/>
</symbol>
<symbol overflow="visible" id="glyph1-3">
<path style="stroke:none;" d="M -6.28125 -3.046875 L -6.28125 -2.015625 L -8.015625 -2.015625 L -8.015625 -1.015625 L -6.28125 -1.015625 L -6.28125 -0.171875 L -5.46875 -0.171875 L -5.46875 -1.015625 L -0.71875 -1.015625 C -0.078125 -1.015625 0.28125 -1.453125 0.28125 -2.234375 C 0.28125 -2.46875 0.25 -2.71875 0.1875 -3.046875 L -0.640625 -3.046875 C -0.609375 -2.921875 -0.59375 -2.765625 -0.59375 -2.5625 C -0.59375 -2.140625 -0.71875 -2.015625 -1.15625 -2.015625 L -5.46875 -2.015625 L -5.46875 -3.046875 Z M -6.28125 -3.046875 "/>
</symbol>
<symbol overflow="visible" id="glyph1-4">
<path style="stroke:none;" d="M -4.53125 -5.25 C -5.765625 -5.25 -6.46875 -4.421875 -6.46875 -2.96875 C -6.46875 -1.515625 -5.71875 -0.5625 -4.546875 -0.5625 C -3.5625 -0.5625 -3.09375 -1.0625 -2.734375 -2.5625 L -2.515625 -3.484375 C -2.34375 -4.1875 -2.09375 -4.46875 -1.625 -4.46875 C -1.046875 -4.46875 -0.640625 -3.875 -0.640625 -3 C -0.640625 -2.453125 -0.796875 -2 -1.0625 -1.75 C -1.25 -1.59375 -1.421875 -1.53125 -1.875 -1.46875 L -1.875 -0.40625 C -0.421875 -0.453125 0.28125 -1.265625 0.28125 -2.921875 C 0.28125 -4.5 -0.5 -5.515625 -1.71875 -5.515625 C -2.65625 -5.515625 -3.171875 -4.984375 -3.46875 -3.734375 L -3.703125 -2.765625 C -3.890625 -1.953125 -4.15625 -1.609375 -4.59375 -1.609375 C -5.171875 -1.609375 -5.546875 -2.125 -5.546875 -2.9375 C -5.546875 -3.75 -5.203125 -4.171875 -4.53125 -4.203125 Z M -4.53125 -5.25 "/>
</symbol>
</g>
</defs>
<g id="surface21736">
<rect x="0" y="0" width="720" height="360" style="fill:rgb(100%,100%,100%);fill-opacity:1;stroke:none;"/>
<path style=" stroke:none;fill-rule:nonzero;fill:rgb(6.27451%,58.823529%,28.235294%);fill-opacity:1;" d="M 69.628906 295.851562 L 69.707031 295.835938 L 101.441406 277.792969 L 111.078125 277.792969 L 142.964844 295.871094 L 131.761719 295.871094 L 123.769531 291.152344 L 88.746094 291.152344 L 80.910156 295.851562 L 69.628906 295.851562 L 92.117188 289.199219 L 120.558594 289.183594 L 106.375 280.746094 L 106.21875 280.730469 L 106.0625 280.78125 L 92.039062 289.183594 L 92.117188 289.199219 Z M 69.628906 295.851562 "/>
<path style=" stroke:none;fill-rule:nonzero;fill:rgb(14.509804%,36.078431%,60%);fill-opacity:1;" d="M 69.628906 307.683594 L 69.71875 307.679688 L 69.71875 307.582031 L 69.988281 307.425781 L 70.613281 307.230469 L 71.238281 307.09375 L 72.847656 306.851562 L 75.085938 306.617188 L 77.410156 306.4375 L 79.109375 306.332031 L 80.628906 306.25 L 84.117188 306.097656 L 86.355469 306.019531 L 88.769531 305.949219 L 91.71875 305.882812 L 93.867188 305.839844 L 98.695312 305.773438 L 102.273438 305.746094 L 105.046875 305.734375 L 111.039062 305.734375 L 114.613281 305.75 L 117.207031 305.769531 L 120.070312 305.804688 L 122.484375 305.839844 L 126.6875 305.929688 L 130.445312 306.046875 L 132.144531 306.109375 L 134.828125 306.238281 L 136.882812 306.359375 L 138.316406 306.46875 L 139.925781 306.617188 L 141.355469 306.804688 L 142.429688 307.011719 L 142.964844 307.1875 L 130.445312 307.1875 L 129.820312 307.023438 L 129.101562 306.898438 L 127.761719 306.730469 L 126.421875 306.609375 L 124.542969 306.492188 L 122.84375 306.414062 L 120.515625 306.335938 L 118.460938 306.285156 L 116.3125 306.25 L 114.257812 306.226562 L 110.320312 306.199219 L 105.761719 306.199219 L 104.0625 306.210938 L 100.574219 306.242188 L 98.695312 306.269531 L 96.011719 306.328125 L 94.132812 306.382812 L 91.898438 306.464844 L 90.378906 306.53125 L 88.5 306.640625 L 87.160156 306.734375 L 85.636719 306.867188 L 84.742188 306.972656 L 83.9375 307.085938 L 83.222656 307.222656 L 82.6875 307.363281 L 82.328125 307.515625 L 82.148438 307.664062 L 82.148438 308.300781 L 82.328125 308.445312 L 82.777344 308.617188 L 83.9375 308.867188 L 85.636719 309.085938 L 87.605469 309.257812 L 89.484375 309.382812 L 90.558594 309.4375 L 91.988281 309.503906 L 94.222656 309.585938 L 97.445312 309.667969 L 99.320312 309.699219 L 102.183594 309.734375 L 105.136719 309.75 L 109.070312 309.75 L 112.558594 309.734375 L 114.882812 309.714844 L 117.296875 309.679688 L 120.605469 309.609375 L 122.664062 309.546875 L 124.453125 309.46875 L 125.792969 309.390625 L 126.6875 309.324219 L 128.03125 309.195312 L 129.101562 309.058594 L 129.90625 308.914062 L 130.445312 308.773438 L 142.964844 308.773438 L 142.429688 308.9375 L 141.625 309.097656 L 140.820312 309.21875 L 139.566406 309.359375 L 138.136719 309.488281 L 136.078125 309.632812 L 134.378906 309.726562 L 132.144531 309.828125 L 130.085938 309.90625 L 127.851562 309.976562 L 124.542969 310.058594 L 122.394531 310.097656 L 120.070312 310.136719 L 117.296875 310.167969 L 113.808594 310.195312 L 110.054688 310.214844 L 106.566406 310.21875 L 102.808594 310.210938 L 100.035156 310.191406 L 96.371094 310.15625 L 91.808594 310.082031 L 88.5 310.003906 L 85.90625 309.925781 L 83.671875 309.84375 L 81.167969 309.734375 L 77.945312 309.554688 L 75.980469 309.414062 L 74.636719 309.300781 L 73.117188 309.140625 L 72.042969 308.996094 L 70.792969 308.765625 L 69.898438 308.476562 L 69.628906 308.25 Z M 69.628906 307.683594 "/>
<path style=" stroke:none;fill-rule:nonzero;fill:rgb(96.862745%,70.196078%,16.862745%);fill-opacity:1;" d="M 69.628906 300.265625 L 69.71875 300.257812 L 69.71875 300.121094 L 70.078125 299.8125 L 70.972656 299.386719 L 72.132812 299.039062 L 73.386719 298.761719 L 74.191406 298.621094 L 75.53125 298.414062 L 76.695312 298.261719 L 79.644531 297.953125 L 83.402344 297.667969 L 85.460938 297.542969 L 87.785156 297.425781 L 91.09375 297.296875 L 92.613281 297.25 L 97.265625 297.140625 L 102.542969 297.070312 L 108.355469 297.050781 L 111.039062 297.054688 L 114.703125 297.085938 L 119.710938 297.160156 L 122.574219 297.226562 L 124.808594 297.296875 L 127.136719 297.386719 L 129.996094 297.523438 L 132.679688 297.6875 L 134.828125 297.851562 L 136.972656 298.058594 L 138.761719 298.277344 L 140.28125 298.515625 L 141.625 298.804688 L 142.429688 299.042969 L 142.964844 299.285156 L 130.535156 299.285156 L 129.820312 299.042969 L 129.015625 298.859375 L 127.671875 298.632812 L 126.332031 298.46875 L 124.988281 298.339844 L 122.484375 298.160156 L 120.339844 298.050781 L 117.65625 297.953125 L 115.0625 297.894531 L 112.109375 297.851562 L 110.320312 297.835938 L 105.582031 297.835938 L 101.289062 297.886719 L 98.785156 297.941406 L 96.996094 297.996094 L 94.492188 298.097656 L 92.972656 298.179688 L 92.078125 298.234375 L 89.394531 298.449219 L 87.605469 298.640625 L 86.621094 298.769531 L 85.371094 298.976562 L 84.476562 299.160156 L 83.492188 299.433594 L 82.953125 299.640625 L 82.238281 300.105469 L 82.148438 301.339844 L 82.417969 301.601562 L 82.953125 301.882812 L 83.671875 302.128906 L 84.742188 302.386719 L 85.816406 302.585938 L 87.695312 302.855469 L 89.304688 303.03125 L 90.558594 303.148438 L 92.972656 303.335938 L 93.957031 303.394531 L 96.28125 303.519531 L 98.695312 303.613281 L 101.648438 303.699219 L 103.882812 303.738281 L 107.460938 303.773438 L 112.019531 303.773438 L 117.386719 303.730469 L 120.785156 303.675781 L 123.109375 303.621094 L 124.632812 303.574219 L 126.507812 303.5 L 127.851562 303.429688 L 129.101562 303.355469 L 130.625 303.238281 L 130.625 301.601562 L 108.535156 301.59375 L 108.535156 300.824219 L 142.875 300.820312 L 142.964844 303.5 L 141.085938 303.683594 L 138.761719 303.863281 L 136.527344 304 L 134.199219 304.117188 L 130.890625 304.246094 L 128.207031 304.328125 L 124.09375 304.425781 L 120.339844 304.484375 L 116.402344 304.527344 L 112.914062 304.546875 L 108.800781 304.554688 L 105.136719 304.539062 L 101.199219 304.5 L 98.070312 304.445312 L 95.207031 304.375 L 92.34375 304.285156 L 88.769531 304.144531 L 86.441406 304.027344 L 84.027344 303.882812 L 81.613281 303.710938 L 79.46875 303.527344 L 78.035156 303.382812 L 76.605469 303.21875 L 75.085938 303.011719 L 73.652344 302.777344 L 72.582031 302.566406 L 71.597656 302.328125 L 70.882812 302.101562 L 70.164062 301.792969 L 69.808594 301.546875 L 69.628906 301.332031 Z M 69.628906 300.265625 "/>
<path style=" stroke:none;fill-rule:nonzero;fill:rgb(83.921569%,15.686275%,22.352941%);fill-opacity:1;" d="M 69.628906 311.398438 L 142.964844 311.398438 L 142.964844 311.714844 L 112.402344 311.71875 L 112.402344 314.371094 L 100.105469 314.371094 L 100.105469 311.722656 L 99.925781 311.714844 L 69.628906 311.714844 Z M 69.628906 311.398438 "/>
<path style=" stroke:none;fill-rule:nonzero;fill:rgb(6.27451%,58.823529%,28.235294%);fill-opacity:1;" d="M 146.824219 314.367188 L 146.902344 314.363281 L 178.636719 310.898438 L 188.273438 310.898438 L 220.160156 314.371094 L 208.957031 314.371094 L 200.964844 313.464844 L 165.941406 313.464844 L 158.109375 314.367188 L 146.824219 314.367188 L 169.3125 313.089844 L 197.753906 313.085938 L 183.570312 311.464844 L 183.414062 311.460938 L 183.257812 311.472656 L 169.234375 313.085938 L 169.3125 313.089844 Z M 146.824219 314.367188 "/>
<path style=" stroke:none;fill-rule:nonzero;fill:rgb(14.509804%,36.078431%,60%);fill-opacity:1;" d="M 146.824219 177.578125 L 146.914062 177.378906 L 146.914062 172.609375 L 147.183594 165.054688 L 147.808594 155.515625 L 148.433594 148.953125 L 150.042969 137.226562 L 152.28125 125.898438 L 154.605469 117.152344 L 156.304688 111.984375 L 157.824219 108.007812 L 161.3125 100.65625 L 163.550781 96.878906 L 165.964844 93.5 L 168.914062 90.121094 L 171.0625 88.132812 L 175.890625 84.953125 L 179.46875 83.558594 L 182.242188 82.964844 L 188.234375 82.964844 L 191.8125 83.757812 L 194.40625 84.753906 L 197.265625 86.34375 L 199.679688 88.132812 L 203.882812 92.503906 L 207.640625 98.070312 L 209.339844 101.25 L 212.023438 107.414062 L 214.078125 113.375 L 215.511719 118.542969 L 217.121094 125.898438 L 218.550781 134.84375 L 219.625 144.980469 L 220.160156 153.527344 L 207.640625 153.527344 L 207.015625 145.574219 L 206.300781 139.414062 L 204.957031 131.265625 L 203.617188 125.5 L 201.738281 119.734375 L 200.039062 115.960938 L 197.714844 112.183594 L 195.65625 109.796875 L 193.511719 108.007812 L 191.453125 106.816406 L 187.519531 105.625 L 182.957031 105.625 L 181.257812 106.019531 L 177.769531 107.609375 L 175.890625 109.003906 L 173.207031 111.785156 L 171.332031 114.371094 L 169.09375 118.34375 L 167.574219 121.722656 L 165.695312 126.890625 L 164.355469 131.464844 L 162.835938 138.023438 L 161.941406 142.992188 L 161.136719 148.558594 L 160.417969 155.117188 L 159.882812 162.074219 L 159.523438 169.429688 L 159.347656 176.582031 L 159.347656 207.390625 L 159.523438 214.546875 L 159.972656 222.894531 L 161.136719 235.019531 L 162.835938 245.554688 L 164.800781 253.902344 L 166.679688 259.867188 L 167.753906 262.648438 L 169.183594 265.828125 L 171.417969 269.804688 L 174.640625 273.78125 L 176.515625 275.371094 L 179.378906 276.960938 L 182.332031 277.757812 L 186.265625 277.757812 L 189.753906 276.960938 L 192.078125 275.96875 L 194.492188 274.378906 L 197.804688 270.996094 L 199.859375 267.816406 L 201.648438 264.042969 L 202.988281 260.265625 L 203.882812 257.085938 L 205.226562 250.921875 L 206.300781 244.164062 L 207.105469 237.207031 L 207.640625 230.449219 L 220.160156 230.449219 L 219.625 238.398438 L 218.820312 246.152344 L 218.015625 251.917969 L 216.761719 258.875 L 215.332031 265.035156 L 213.273438 271.992188 L 211.574219 276.5625 L 209.339844 281.53125 L 207.28125 285.308594 L 205.046875 288.6875 L 201.738281 292.664062 L 199.589844 294.652344 L 197.265625 296.441406 L 194.492188 298.03125 L 191.003906 299.421875 L 187.25 300.214844 L 183.761719 300.414062 L 180.003906 300.019531 L 177.234375 299.222656 L 173.566406 297.433594 L 169.003906 293.855469 L 165.695312 290.078125 L 163.101562 286.304688 L 160.867188 282.328125 L 158.363281 276.960938 L 155.144531 268.214844 L 153.175781 261.457031 L 151.832031 255.890625 L 150.3125 248.140625 L 149.238281 241.183594 L 147.988281 230.050781 L 147.09375 215.9375 L 146.824219 205.007812 Z M 146.824219 177.578125 "/>
<path style=" stroke:none;fill-rule:nonzero;fill:rgb(96.862745%,70.196078%,16.862745%);fill-opacity:1;" d="M 146.824219 303.082031 L 146.914062 303.078125 L 146.914062 303.015625 L 147.273438 302.871094 L 148.167969 302.675781 L 149.328125 302.515625 L 150.582031 302.386719 L 151.386719 302.320312 L 152.726562 302.226562 L 153.890625 302.15625 L 156.84375 302.011719 L 160.597656 301.878906 L 162.65625 301.824219 L 164.980469 301.769531 L 168.289062 301.710938 L 169.808594 301.6875 L 174.460938 301.636719 L 179.738281 301.605469 L 185.550781 301.59375 L 188.234375 301.597656 L 191.898438 301.609375 L 196.910156 301.644531 L 199.769531 301.675781 L 202.007812 301.710938 L 204.332031 301.75 L 207.195312 301.8125 L 209.875 301.890625 L 212.023438 301.964844 L 214.167969 302.0625 L 215.957031 302.164062 L 217.476562 302.273438 L 218.820312 302.40625 L 219.625 302.519531 L 220.160156 302.628906 L 207.730469 302.628906 L 207.015625 302.519531 L 206.210938 302.433594 L 204.867188 302.328125 L 203.527344 302.25 L 202.183594 302.191406 L 199.679688 302.109375 L 197.535156 302.058594 L 194.851562 302.011719 L 192.257812 301.984375 L 189.304688 301.964844 L 187.519531 301.960938 L 182.777344 301.960938 L 178.484375 301.980469 L 175.980469 302.007812 L 174.191406 302.03125 L 171.6875 302.082031 L 170.167969 302.117188 L 169.273438 302.144531 L 166.589844 302.242188 L 164.800781 302.332031 L 163.816406 302.390625 L 162.566406 302.484375 L 161.671875 302.570312 L 160.6875 302.699219 L 160.152344 302.792969 L 159.433594 303.007812 L 159.347656 303.578125 L 159.613281 303.699219 L 160.152344 303.832031 L 160.867188 303.945312 L 161.941406 304.066406 L 163.011719 304.15625 L 164.890625 304.28125 L 166.5 304.363281 L 167.753906 304.417969 L 170.167969 304.503906 L 171.152344 304.53125 L 173.476562 304.589844 L 175.890625 304.632812 L 178.84375 304.671875 L 181.078125 304.691406 L 184.65625 304.707031 L 189.21875 304.707031 L 194.582031 304.6875 L 197.980469 304.660156 L 200.308594 304.636719 L 201.828125 304.613281 L 203.707031 304.578125 L 205.046875 304.546875 L 206.300781 304.511719 L 207.820312 304.457031 L 207.820312 303.699219 L 185.730469 303.699219 L 185.730469 303.34375 L 220.070312 303.339844 L 220.160156 304.578125 L 218.285156 304.664062 L 215.957031 304.746094 L 213.722656 304.808594 L 211.398438 304.863281 L 208.085938 304.925781 L 205.40625 304.960938 L 201.289062 305.007812 L 197.535156 305.035156 L 193.597656 305.054688 L 190.113281 305.0625 L 185.996094 305.066406 L 182.332031 305.0625 L 178.394531 305.042969 L 175.265625 305.015625 L 172.402344 304.984375 L 169.542969 304.945312 L 165.964844 304.878906 L 163.640625 304.824219 L 161.222656 304.757812 L 158.808594 304.675781 L 156.664062 304.589844 L 155.230469 304.523438 L 153.800781 304.449219 L 152.28125 304.355469 L 150.851562 304.246094 L 149.777344 304.148438 L 148.792969 304.035156 L 148.078125 303.933594 L 147.363281 303.789062 L 147.003906 303.675781 L 146.824219 303.578125 Z M 146.824219 303.082031 "/>
<path style=" stroke:none;fill-rule:nonzero;fill:rgb(83.921569%,15.686275%,22.352941%);fill-opacity:1;" d="M 146.824219 306.246094 L 220.160156 306.246094 L 220.160156 306.617188 L 189.597656 306.621094 L 189.597656 309.71875 L 177.300781 309.71875 L 177.300781 306.625 L 177.121094 306.617188 L 146.824219 306.617188 Z M 146.824219 306.246094 "/>
<path style=" stroke:none;fill-rule:nonzero;fill:rgb(96.862745%,70.196078%,16.862745%);fill-opacity:1;" d="M 224.019531 146.460938 L 224.109375 146.191406 L 224.109375 140.828125 L 224.46875 128.757812 L 225.363281 112.128906 L 226.523438 98.449219 L 227.777344 87.71875 L 228.582031 82.085938 L 229.925781 74.039062 L 231.085938 68.140625 L 234.039062 56.070312 L 237.792969 44.804688 L 239.851562 39.976562 L 242.175781 35.414062 L 245.484375 30.320312 L 247.003906 28.441406 L 251.65625 24.148438 L 256.933594 21.46875 L 262.746094 20.664062 L 265.429688 20.929688 L 269.097656 22.003906 L 274.105469 24.953125 L 276.964844 27.636719 L 279.203125 30.320312 L 281.527344 33.804688 L 284.390625 39.171875 L 287.074219 45.609375 L 289.21875 52.046875 L 291.367188 60.09375 L 293.152344 68.675781 L 294.675781 78.0625 L 296.015625 89.328125 L 296.820312 98.714844 L 297.355469 108.105469 L 284.925781 108.105469 L 284.210938 98.714844 L 283.40625 91.476562 L 282.0625 82.625 L 280.722656 76.1875 L 279.382812 71.089844 L 276.875 64.117188 L 274.730469 59.824219 L 272.046875 56.070312 L 269.453125 53.65625 L 266.503906 52.046875 L 264.714844 51.507812 L 259.972656 51.507812 L 255.679688 53.386719 L 253.175781 55.53125 L 251.386719 57.679688 L 248.882812 61.703125 L 247.363281 64.921875 L 246.46875 67.066406 L 243.785156 75.382812 L 241.996094 82.890625 L 241.015625 87.988281 L 239.761719 96.035156 L 238.867188 103.277344 L 237.882812 114.003906 L 237.347656 122.050781 L 236.632812 140.292969 L 236.542969 188.574219 L 236.808594 198.765625 L 237.347656 209.761719 L 238.0625 219.417969 L 239.136719 229.609375 L 240.207031 237.390625 L 242.085938 247.851562 L 243.695312 254.824219 L 244.949219 259.382812 L 247.363281 266.625 L 248.347656 269.039062 L 250.671875 273.867188 L 253.085938 277.625 L 256.039062 280.84375 L 258.273438 282.453125 L 261.851562 283.792969 L 266.414062 283.792969 L 271.777344 282.183594 L 275.175781 280.039062 L 277.503906 277.890625 L 279.023438 276.015625 L 280.902344 273.0625 L 282.242188 270.382812 L 283.496094 267.429688 L 285.015625 262.871094 L 285.015625 198.765625 L 262.925781 198.496094 L 262.925781 168.457031 L 297.269531 168.1875 L 297.355469 273.0625 L 295.480469 280.304688 L 293.152344 287.28125 L 290.917969 292.644531 L 288.59375 297.203125 L 285.285156 302.300781 L 282.601562 305.519531 L 278.488281 309.273438 L 274.730469 311.6875 L 270.796875 313.296875 L 267.308594 314.101562 L 263.195312 314.371094 L 259.527344 313.835938 L 255.589844 312.226562 L 252.460938 310.078125 L 249.597656 307.398438 L 246.738281 303.910156 L 243.160156 298.277344 L 240.835938 293.71875 L 238.421875 288.085938 L 236.003906 281.378906 L 233.859375 274.136719 L 232.429688 268.503906 L 230.996094 262.066406 L 229.476562 254.019531 L 228.046875 244.898438 L 226.972656 236.585938 L 225.988281 227.195312 L 225.273438 218.34375 L 224.558594 206.277344 L 224.199219 196.621094 L 224.019531 188.304688 Z M 224.019531 146.460938 "/>
<path style=" stroke:none;fill-rule:nonzero;fill:rgb(96.862745%,70.196078%,16.862745%);fill-opacity:1;" d="M 301.21875 146.460938 L 301.304688 146.191406 L 301.304688 140.828125 L 301.664062 128.757812 L 302.558594 112.128906 L 303.722656 98.449219 L 304.972656 87.71875 L 305.777344 82.085938 L 307.121094 74.039062 L 308.28125 68.140625 L 311.234375 56.070312 L 314.988281 44.804688 L 317.046875 39.976562 L 319.371094 35.414062 L 322.679688 30.320312 L 324.203125 28.441406 L 328.851562 24.148438 L 334.128906 21.46875 L 339.941406 20.664062 L 342.625 20.929688 L 346.292969 22.003906 L 351.300781 24.953125 L 354.164062 27.636719 L 356.398438 30.320312 L 358.722656 33.804688 L 361.585938 39.171875 L 364.269531 45.609375 L 366.414062 52.046875 L 368.5625 60.09375 L 370.351562 68.675781 L 371.871094 78.0625 L 373.210938 89.328125 L 374.015625 98.714844 L 374.554688 108.105469 L 362.121094 108.105469 L 361.40625 98.714844 L 360.601562 91.476562 L 359.261719 82.625 L 357.917969 76.1875 L 356.578125 71.089844 L 354.074219 64.117188 L 351.925781 59.824219 L 349.242188 56.070312 L 346.648438 53.65625 L 343.699219 52.046875 L 341.910156 51.507812 L 337.167969 51.507812 L 332.875 53.386719 L 330.371094 55.53125 L 328.585938 57.679688 L 326.078125 61.703125 L 324.558594 64.921875 L 323.664062 67.066406 L 320.980469 75.382812 L 319.195312 82.890625 L 318.210938 87.988281 L 316.957031 96.035156 L 316.0625 103.277344 L 315.078125 114.003906 L 314.542969 122.050781 L 313.828125 140.292969 L 313.738281 188.574219 L 314.007812 198.765625 L 314.542969 209.761719 L 315.257812 219.417969 L 316.332031 229.609375 L 317.40625 237.390625 L 319.28125 247.851562 L 320.894531 254.824219 L 322.144531 259.382812 L 324.558594 266.625 L 325.542969 269.039062 L 327.867188 273.867188 L 330.285156 277.625 L 333.234375 280.84375 L 335.46875 282.453125 L 339.046875 283.792969 L 343.609375 283.792969 L 348.976562 282.183594 L 352.375 280.039062 L 354.699219 277.890625 L 356.21875 276.015625 L 358.097656 273.0625 L 359.4375 270.382812 L 360.691406 267.429688 L 362.210938 262.871094 L 362.210938 198.765625 L 340.121094 198.496094 L 340.121094 168.457031 L 374.464844 168.1875 L 374.554688 273.0625 L 372.675781 280.304688 L 370.351562 287.28125 L 368.113281 292.644531 L 365.789062 297.203125 L 362.480469 302.300781 L 359.796875 305.519531 L 355.683594 309.273438 L 351.925781 311.6875 L 347.992188 313.296875 L 344.503906 314.101562 L 340.390625 314.371094 L 336.722656 313.835938 L 332.789062 312.226562 L 329.65625 310.078125 L 326.796875 307.398438 L 323.933594 303.910156 L 320.355469 298.277344 L 318.03125 293.71875 L 315.617188 288.085938 L 313.203125 281.378906 L 311.054688 274.136719 L 309.625 268.503906 L 308.191406 262.066406 L 306.671875 254.019531 L 305.242188 244.898438 L 304.167969 236.585938 L 303.183594 227.195312 L 302.46875 218.34375 L 301.753906 206.277344 L 301.394531 196.621094 L 301.21875 188.304688 Z M 301.21875 146.460938 "/>
<path style=" stroke:none;fill-rule:nonzero;fill:rgb(6.27451%,58.823529%,28.235294%);fill-opacity:1;" d="M 378.414062 314.09375 L 378.492188 313.820312 L 410.222656 20.664062 L 419.859375 20.664062 L 451.75 314.371094 L 440.546875 314.371094 L 432.554688 237.703125 L 397.53125 237.703125 L 389.695312 314.09375 L 378.414062 314.09375 L 400.898438 205.988281 L 429.339844 205.710938 L 415.160156 68.648438 L 415.003906 68.375 L 414.847656 69.199219 L 400.820312 205.710938 L 400.898438 205.988281 Z M 378.414062 314.09375 "/>
<path style=" stroke:none;fill-rule:nonzero;fill:rgb(6.27451%,58.823529%,28.235294%);fill-opacity:1;" d="M 455.609375 290.707031 L 455.6875 290.675781 L 487.417969 256.472656 L 497.054688 256.472656 L 528.945312 290.738281 L 517.742188 290.738281 L 509.75 281.796875 L 474.726562 281.796875 L 466.890625 290.707031 L 455.609375 290.707031 L 478.09375 278.09375 L 506.535156 278.0625 L 492.355469 262.074219 L 492.199219 262.039062 L 492.042969 262.136719 L 478.015625 278.0625 L 478.09375 278.09375 Z M 455.609375 290.707031 "/>
<path style=" stroke:none;fill-rule:nonzero;fill:rgb(14.509804%,36.078431%,60%);fill-opacity:1;" d="M 455.609375 303.941406 L 455.699219 303.9375 L 455.699219 303.808594 L 455.964844 303.601562 L 456.59375 303.34375 L 457.21875 303.164062 L 458.828125 302.847656 L 461.066406 302.539062 L 463.390625 302.300781 L 465.089844 302.160156 L 466.609375 302.050781 L 470.097656 301.851562 L 472.332031 301.75 L 474.746094 301.660156 L 477.699219 301.566406 L 479.847656 301.511719 L 484.675781 301.425781 L 488.253906 301.386719 L 491.023438 301.371094 L 497.015625 301.371094 L 500.59375 301.394531 L 503.1875 301.421875 L 506.050781 301.464844 L 508.464844 301.511719 L 512.667969 301.632812 L 516.425781 301.78125 L 518.125 301.867188 L 520.804688 302.035156 L 522.863281 302.199219 L 524.292969 302.339844 L 525.90625 302.539062 L 527.335938 302.78125 L 528.410156 303.058594 L 528.945312 303.289062 L 516.425781 303.289062 L 515.796875 303.074219 L 515.082031 302.90625 L 513.742188 302.683594 L 512.398438 302.527344 L 510.523438 302.371094 L 508.824219 302.269531 L 506.496094 302.164062 L 504.441406 302.101562 L 502.292969 302.050781 L 500.238281 302.019531 L 496.300781 301.988281 L 491.742188 301.988281 L 490.042969 302 L 486.554688 302.042969 L 484.675781 302.078125 L 481.992188 302.15625 L 480.113281 302.226562 L 477.878906 302.332031 L 476.359375 302.425781 L 474.480469 302.566406 L 473.136719 302.691406 L 471.617188 302.867188 L 470.722656 303.003906 L 469.917969 303.15625 L 469.203125 303.332031 L 468.667969 303.523438 L 468.308594 303.722656 L 468.128906 303.917969 L 468.128906 304.753906 L 468.308594 304.949219 L 468.757812 305.175781 L 469.917969 305.503906 L 471.617188 305.789062 L 473.585938 306.015625 L 475.464844 306.179688 L 476.535156 306.253906 L 477.96875 306.339844 L 480.203125 306.449219 L 483.421875 306.558594 L 485.300781 306.601562 L 488.164062 306.644531 L 491.113281 306.664062 L 495.050781 306.664062 L 498.539062 306.644531 L 500.863281 306.617188 L 503.277344 306.574219 L 506.585938 306.480469 L 508.644531 306.394531 L 510.433594 306.292969 L 511.773438 306.191406 L 512.667969 306.105469 L 514.007812 305.9375 L 515.082031 305.753906 L 515.886719 305.5625 L 516.425781 305.378906 L 528.945312 305.378906 L 528.410156 305.597656 L 527.605469 305.808594 L 526.796875 305.964844 L 525.546875 306.152344 L 524.117188 306.320312 L 522.058594 306.507812 L 520.359375 306.632812 L 518.125 306.769531 L 516.066406 306.871094 L 513.832031 306.960938 L 510.523438 307.070312 L 508.375 307.125 L 506.050781 307.171875 L 503.277344 307.214844 L 499.789062 307.253906 L 496.035156 307.277344 L 492.546875 307.28125 L 488.789062 307.269531 L 486.015625 307.25 L 482.351562 307.199219 L 477.789062 307.101562 L 474.480469 307 L 471.886719 306.898438 L 469.648438 306.789062 L 467.144531 306.644531 L 463.925781 306.40625 L 461.957031 306.222656 L 460.617188 306.070312 L 459.097656 305.859375 L 458.023438 305.671875 L 456.773438 305.371094 L 455.878906 304.984375 L 455.609375 304.6875 Z M 455.609375 303.941406 "/>
<path style=" stroke:none;fill-rule:nonzero;fill:rgb(96.862745%,70.196078%,16.862745%);fill-opacity:1;" d="M 455.609375 295.464844 L 455.699219 295.457031 L 455.699219 295.304688 L 456.054688 294.964844 L 456.949219 294.496094 L 458.113281 294.109375 L 459.367188 293.808594 L 460.171875 293.648438 L 461.511719 293.421875 L 462.675781 293.257812 L 465.625 292.917969 L 469.382812 292.601562 L 471.4375 292.464844 L 473.765625 292.335938 L 477.074219 292.191406 L 478.59375 292.140625 L 483.246094 292.019531 L 488.519531 291.941406 L 494.335938 291.917969 L 497.015625 291.925781 L 500.683594 291.957031 L 505.691406 292.039062 L 508.554688 292.117188 L 510.789062 292.191406 L 513.117188 292.289062 L 515.976562 292.441406 L 518.660156 292.621094 L 520.804688 292.804688 L 522.953125 293.03125 L 524.742188 293.273438 L 526.261719 293.535156 L 527.605469 293.855469 L 528.410156 294.117188 L 528.945312 294.382812 L 516.515625 294.382812 L 515.796875 294.117188 L 514.992188 293.914062 L 513.652344 293.664062 L 512.308594 293.484375 L 510.96875 293.339844 L 508.464844 293.144531 L 506.316406 293.023438 L 503.636719 292.917969 L 501.042969 292.847656 L 498.089844 292.804688 L 496.300781 292.789062 L 491.5625 292.789062 L 487.269531 292.839844 L 484.765625 292.902344 L 482.976562 292.960938 L 480.472656 293.074219 L 478.953125 293.167969 L 478.058594 293.226562 L 475.375 293.460938 L 473.585938 293.671875 L 472.601562 293.816406 L 471.347656 294.042969 L 470.457031 294.246094 L 469.472656 294.550781 L 468.933594 294.777344 L 468.21875 295.289062 L 468.128906 296.648438 L 468.398438 296.9375 L 468.933594 297.246094 L 469.648438 297.519531 L 470.722656 297.804688 L 471.796875 298.023438 L 473.675781 298.320312 L 475.285156 298.515625 L 476.535156 298.644531 L 478.953125 298.847656 L 479.933594 298.914062 L 482.261719 299.050781 L 484.675781 299.15625 L 487.625 299.246094 L 489.863281 299.292969 L 493.441406 299.332031 L 498 299.332031 L 503.367188 299.285156 L 506.765625 299.226562 L 509.089844 299.164062 L 510.609375 299.113281 L 512.488281 299.027344 L 513.832031 298.953125 L 515.082031 298.871094 L 516.601562 298.742188 L 516.601562 296.9375 L 494.511719 296.929688 L 494.511719 296.082031 L 528.855469 296.074219 L 528.945312 299.027344 L 527.066406 299.234375 L 524.742188 299.429688 L 522.507812 299.582031 L 520.179688 299.707031 L 516.871094 299.851562 L 514.1875 299.941406 L 510.074219 300.050781 L 506.316406 300.117188 L 502.382812 300.164062 L 498.894531 300.183594 L 494.78125 300.191406 L 491.113281 300.175781 L 487.179688 300.132812 L 484.050781 300.070312 L 481.1875 299.996094 L 478.324219 299.898438 L 474.746094 299.738281 L 472.421875 299.609375 L 470.007812 299.453125 L 467.59375 299.261719 L 465.445312 299.058594 L 464.015625 298.902344 L 462.585938 298.71875 L 461.066406 298.492188 L 459.632812 298.234375 L 458.558594 298 L 457.578125 297.738281 L 456.859375 297.488281 L 456.144531 297.148438 L 455.789062 296.875 L 455.609375 296.640625 Z M 455.609375 295.464844 "/>
<path style=" stroke:none;fill-rule:nonzero;fill:rgb(83.921569%,15.686275%,22.352941%);fill-opacity:1;" d="M 455.609375 308.460938 L 528.945312 308.460938 L 528.945312 309.09375 L 498.382812 309.097656 L 498.382812 314.371094 L 486.085938 314.371094 L 486.085938 309.105469 L 485.90625 309.09375 L 455.609375 309.09375 Z M 455.609375 308.460938 "/>
<path style=" stroke:none;fill-rule:nonzero;fill:rgb(6.27451%,58.823529%,28.235294%);fill-opacity:1;" d="M 532.804688 298.136719 L 532.882812 297.9375 L 564.617188 86.472656 L 574.253906 86.472656 L 606.140625 298.335938 L 594.9375 298.335938 L 586.945312 243.03125 L 551.921875 243.03125 L 544.085938 298.136719 L 532.804688 298.136719 L 555.292969 220.15625 L 583.734375 219.957031 L 569.550781 121.085938 L 569.394531 120.886719 L 569.238281 121.484375 L 555.214844 219.957031 L 555.292969 220.15625 Z M 532.804688 298.136719 "/>
<path style=" stroke:none;fill-rule:nonzero;fill:rgb(14.509804%,36.078431%,60%);fill-opacity:1;" d="M 532.804688 311.453125 L 532.894531 311.449219 L 532.894531 311.425781 L 533.164062 311.386719 L 533.789062 311.339844 L 534.414062 311.304688 L 536.023438 311.246094 L 538.261719 311.1875 L 540.585938 311.144531 L 542.285156 311.117188 L 543.804688 311.097656 L 547.292969 311.058594 L 549.527344 311.039062 L 551.945312 311.023438 L 554.894531 311.003906 L 557.042969 310.996094 L 561.871094 310.980469 L 565.449219 310.972656 L 568.222656 310.96875 L 574.214844 310.96875 L 577.789062 310.972656 L 580.382812 310.976562 L 583.246094 310.984375 L 585.660156 310.996094 L 589.863281 311.015625 L 593.621094 311.046875 L 595.320312 311.0625 L 598.003906 311.09375 L 600.058594 311.125 L 601.492188 311.152344 L 603.101562 311.1875 L 604.53125 311.234375 L 605.605469 311.285156 L 606.140625 311.328125 L 593.621094 311.328125 L 592.996094 311.289062 L 592.277344 311.257812 L 590.9375 311.214844 L 589.597656 311.1875 L 587.71875 311.15625 L 586.019531 311.136719 L 583.691406 311.117188 L 581.636719 311.105469 L 579.488281 311.097656 L 577.433594 311.089844 L 573.496094 311.085938 L 567.238281 311.085938 L 563.75 311.09375 L 561.871094 311.101562 L 559.1875 311.117188 L 557.308594 311.128906 L 555.074219 311.148438 L 553.554688 311.167969 L 551.675781 311.191406 L 550.335938 311.214844 L 548.8125 311.25 L 547.917969 311.277344 L 547.113281 311.304688 L 546.398438 311.335938 L 545.863281 311.371094 L 545.503906 311.410156 L 545.324219 311.445312 L 545.324219 311.605469 L 545.503906 311.640625 L 545.953125 311.683594 L 547.113281 311.746094 L 548.8125 311.800781 L 550.78125 311.84375 L 552.660156 311.871094 L 553.734375 311.886719 L 555.164062 311.902344 L 557.398438 311.921875 L 560.617188 311.945312 L 562.496094 311.953125 L 565.359375 311.960938 L 568.308594 311.964844 L 572.246094 311.964844 L 575.734375 311.960938 L 578.058594 311.953125 L 580.472656 311.945312 L 583.78125 311.929688 L 585.839844 311.914062 L 587.628906 311.894531 L 588.96875 311.875 L 589.863281 311.859375 L 591.207031 311.828125 L 592.277344 311.792969 L 593.082031 311.757812 L 593.621094 311.722656 L 606.140625 311.722656 L 605.605469 311.761719 L 604.800781 311.800781 L 603.996094 311.832031 L 602.742188 311.867188 L 601.3125 311.898438 L 599.253906 311.933594 L 597.554688 311.957031 L 595.320312 311.984375 L 593.261719 312.003906 L 591.027344 312.019531 L 587.71875 312.039062 L 585.570312 312.050781 L 583.246094 312.058594 L 580.472656 312.066406 L 576.984375 312.074219 L 573.230469 312.078125 L 565.984375 312.078125 L 563.210938 312.074219 L 559.546875 312.066406 L 554.984375 312.046875 L 551.675781 312.027344 L 549.082031 312.007812 L 546.847656 311.988281 L 544.34375 311.960938 L 541.121094 311.914062 L 539.15625 311.878906 L 537.8125 311.851562 L 536.292969 311.8125 L 535.21875 311.777344 L 533.96875 311.71875 L 533.074219 311.648438 L 532.804688 311.59375 Z M 532.804688 311.453125 "/>
<path style=" stroke:none;fill-rule:nonzero;fill:rgb(96.862745%,70.196078%,16.862745%);fill-opacity:1;" d="M 532.804688 313.734375 L 532.894531 313.734375 L 532.894531 313.714844 L 533.253906 313.667969 L 534.144531 313.605469 L 535.308594 313.554688 L 536.5625 313.511719 L 537.367188 313.492188 L 538.707031 313.460938 L 539.871094 313.4375 L 542.820312 313.394531 L 546.578125 313.351562 L 548.636719 313.332031 L 550.960938 313.316406 L 554.269531 313.296875 L 555.789062 313.289062 L 560.441406 313.273438 L 565.714844 313.261719 L 571.53125 313.257812 L 574.214844 313.261719 L 577.878906 313.265625 L 582.886719 313.277344 L 585.75 313.285156 L 587.984375 313.296875 L 590.3125 313.308594 L 593.171875 313.328125 L 595.855469 313.355469 L 598.003906 313.378906 L 600.148438 313.410156 L 601.9375 313.441406 L 603.457031 313.476562 L 604.800781 313.519531 L 605.605469 313.554688 L 606.140625 313.589844 L 593.710938 313.589844 L 592.996094 313.554688 L 592.1875 313.527344 L 590.847656 313.492188 L 589.507812 313.46875 L 588.164062 313.449219 L 585.660156 313.425781 L 583.515625 313.40625 L 580.832031 313.394531 L 578.238281 313.382812 L 575.285156 313.378906 L 573.496094 313.375 L 568.757812 313.375 L 564.464844 313.382812 L 561.960938 313.390625 L 560.171875 313.398438 L 557.667969 313.414062 L 556.148438 313.425781 L 555.253906 313.433594 L 552.570312 313.464844 L 550.78125 313.496094 L 549.796875 313.515625 L 548.546875 313.542969 L 547.652344 313.570312 L 546.667969 313.613281 L 546.128906 313.644531 L 545.414062 313.710938 L 545.324219 313.894531 L 545.59375 313.933594 L 546.128906 313.976562 L 546.847656 314.011719 L 547.917969 314.050781 L 548.992188 314.078125 L 550.871094 314.117188 L 552.480469 314.144531 L 553.734375 314.164062 L 556.148438 314.191406 L 557.132812 314.199219 L 559.457031 314.21875 L 561.871094 314.230469 L 564.824219 314.242188 L 567.058594 314.25 L 570.636719 314.253906 L 575.195312 314.253906 L 580.5625 314.25 L 583.960938 314.242188 L 586.285156 314.234375 L 587.808594 314.226562 L 589.683594 314.214844 L 591.027344 314.203125 L 592.277344 314.191406 L 593.800781 314.175781 L 593.800781 313.933594 L 571.707031 313.933594 L 571.707031 313.820312 L 606.050781 313.816406 L 606.140625 314.214844 L 604.261719 314.242188 L 601.9375 314.269531 L 599.703125 314.289062 L 597.375 314.304688 L 594.066406 314.324219 L 591.382812 314.335938 L 587.269531 314.351562 L 583.515625 314.359375 L 579.578125 314.367188 L 576.089844 314.371094 L 571.976562 314.371094 L 568.308594 314.367188 L 564.375 314.363281 L 561.246094 314.355469 L 555.519531 314.332031 L 551.945312 314.308594 L 549.617188 314.292969 L 544.789062 314.246094 L 542.644531 314.21875 L 541.210938 314.195312 L 539.78125 314.171875 L 538.261719 314.140625 L 536.828125 314.109375 L 535.757812 314.078125 L 534.773438 314.039062 L 534.058594 314.007812 L 533.339844 313.960938 L 532.984375 313.925781 L 532.804688 313.894531 Z M 532.804688 313.734375 "/>
<path style=" stroke:none;fill-rule:nonzero;fill:rgb(83.921569%,15.686275%,22.352941%);fill-opacity:1;" d="M 532.804688 299.515625 L 606.140625 299.515625 L 606.140625 300.613281 L 575.578125 300.625 L 575.578125 309.789062 L 563.28125 309.789062 L 563.28125 300.632812 L 563.101562 300.613281 L 532.804688 300.613281 Z M 532.804688 299.515625 "/>
<path style=" stroke:none;fill-rule:nonzero;fill:rgb(6.27451%,58.823529%,28.235294%);fill-opacity:1;" d="M 610 299.234375 L 610.078125 299.222656 L 641.8125 285.304688 L 651.449219 285.304688 L 683.335938 299.246094 L 672.132812 299.246094 L 664.140625 295.605469 L 629.117188 295.605469 L 621.285156 299.234375 L 610 299.234375 L 632.488281 294.101562 L 660.929688 294.089844 L 646.746094 287.582031 L 646.589844 287.566406 L 646.433594 287.609375 L 632.410156 294.089844 L 632.488281 294.101562 Z M 610 299.234375 "/>
<path style=" stroke:none;fill-rule:nonzero;fill:rgb(14.509804%,36.078431%,60%);fill-opacity:1;" d="M 610 304.300781 L 610.089844 304.292969 L 610.089844 304.097656 L 610.359375 303.789062 L 610.984375 303.398438 L 611.609375 303.128906 L 613.21875 302.648438 L 615.457031 302.183594 L 617.78125 301.828125 L 619.480469 301.613281 L 621 301.453125 L 624.488281 301.152344 L 626.726562 300.996094 L 629.140625 300.859375 L 632.089844 300.71875 L 634.238281 300.636719 L 639.066406 300.507812 L 642.644531 300.449219 L 645.417969 300.425781 L 651.410156 300.425781 L 654.988281 300.460938 L 657.578125 300.5 L 660.441406 300.566406 L 662.855469 300.636719 L 667.058594 300.816406 L 670.816406 301.046875 L 672.515625 301.175781 L 675.199219 301.425781 L 677.253906 301.671875 L 678.6875 301.882812 L 680.296875 302.183594 L 681.726562 302.550781 L 682.800781 302.964844 L 683.335938 303.316406 L 670.816406 303.316406 L 670.191406 302.988281 L 669.476562 302.738281 L 668.132812 302.402344 L 666.792969 302.167969 L 664.914062 301.933594 L 663.214844 301.777344 L 660.890625 301.621094 L 658.832031 301.523438 L 656.6875 301.453125 L 654.628906 301.402344 L 650.695312 301.355469 L 646.132812 301.355469 L 644.433594 301.371094 L 640.945312 301.4375 L 639.066406 301.492188 L 636.382812 301.605469 L 634.507812 301.710938 L 632.269531 301.875 L 630.75 302.011719 L 628.871094 302.226562 L 627.53125 302.414062 L 626.007812 302.679688 L 625.117188 302.882812 L 624.308594 303.113281 L 623.59375 303.378906 L 623.058594 303.664062 L 622.699219 303.964844 L 622.523438 304.257812 L 622.523438 305.519531 L 622.699219 305.8125 L 623.148438 306.15625 L 624.308594 306.652344 L 626.007812 307.082031 L 627.976562 307.425781 L 629.855469 307.667969 L 630.929688 307.785156 L 632.359375 307.914062 L 634.59375 308.078125 L 637.816406 308.238281 L 639.691406 308.304688 L 642.554688 308.371094 L 645.507812 308.402344 L 649.441406 308.402344 L 652.929688 308.371094 L 655.253906 308.328125 L 657.667969 308.261719 L 660.976562 308.125 L 663.035156 307.996094 L 664.824219 307.839844 L 666.164062 307.6875 L 667.058594 307.554688 L 668.402344 307.304688 L 669.476562 307.027344 L 670.28125 306.742188 L 670.816406 306.464844 L 683.335938 306.464844 L 682.800781 306.789062 L 681.996094 307.109375 L 681.191406 307.34375 L 679.9375 307.628906 L 678.507812 307.882812 L 676.449219 308.164062 L 674.75 308.351562 L 672.515625 308.554688 L 670.457031 308.710938 L 668.222656 308.847656 L 664.914062 309.011719 L 662.765625 309.09375 L 660.441406 309.167969 L 657.667969 309.230469 L 654.179688 309.289062 L 650.425781 309.320312 L 646.9375 309.328125 L 643.179688 309.3125 L 640.410156 309.28125 L 636.742188 309.207031 L 632.179688 309.0625 L 628.871094 308.90625 L 626.277344 308.75 L 624.042969 308.589844 L 621.539062 308.371094 L 618.316406 308.011719 L 616.351562 307.734375 L 615.007812 307.507812 L 613.488281 307.1875 L 612.414062 306.90625 L 611.164062 306.449219 L 610.269531 305.871094 L 610 305.421875 Z M 610 304.300781 "/>
<path style=" stroke:none;fill-rule:nonzero;fill:rgb(96.862745%,70.196078%,16.862745%);fill-opacity:1;" d="M 610 312.164062 L 610.089844 312.160156 L 610.089844 312.089844 L 610.449219 311.929688 L 611.34375 311.710938 L 612.503906 311.53125 L 613.757812 311.390625 L 614.5625 311.316406 L 615.902344 311.210938 L 617.066406 311.132812 L 620.015625 310.972656 L 623.773438 310.828125 L 625.832031 310.761719 L 628.15625 310.703125 L 631.464844 310.636719 L 632.984375 310.609375 L 637.636719 310.554688 L 642.914062 310.519531 L 648.726562 310.507812 L 651.410156 310.511719 L 655.074219 310.527344 L 660.085938 310.566406 L 662.945312 310.601562 L 665.183594 310.636719 L 667.507812 310.683594 L 670.367188 310.753906 L 673.050781 310.835938 L 675.199219 310.921875 L 677.34375 311.027344 L 679.132812 311.140625 L 680.652344 311.265625 L 681.996094 311.410156 L 682.800781 311.535156 L 683.335938 311.660156 L 670.90625 311.660156 L 670.191406 311.535156 L 669.386719 311.441406 L 668.042969 311.324219 L 666.703125 311.238281 L 665.359375 311.171875 L 662.855469 311.082031 L 660.710938 311.023438 L 658.027344 310.972656 L 655.433594 310.941406 L 652.480469 310.921875 L 650.695312 310.914062 L 645.953125 310.914062 L 641.660156 310.9375 L 639.15625 310.96875 L 637.367188 310.996094 L 634.863281 311.046875 L 633.34375 311.089844 L 632.449219 311.117188 L 629.765625 311.226562 L 627.976562 311.328125 L 626.992188 311.394531 L 625.742188 311.5 L 624.847656 311.59375 L 623.863281 311.734375 L 623.328125 311.84375 L 622.609375 312.082031 L 622.523438 312.714844 L 622.789062 312.851562 L 623.328125 312.996094 L 624.042969 313.121094 L 625.117188 313.257812 L 626.1875 313.359375 L 628.066406 313.496094 L 629.675781 313.585938 L 630.929688 313.648438 L 633.34375 313.742188 L 634.328125 313.773438 L 636.652344 313.839844 L 639.066406 313.886719 L 642.019531 313.929688 L 644.253906 313.949219 L 647.832031 313.96875 L 652.394531 313.96875 L 657.757812 313.949219 L 661.15625 313.917969 L 663.484375 313.890625 L 665.003906 313.867188 L 666.882812 313.828125 L 668.222656 313.792969 L 669.476562 313.753906 L 670.996094 313.695312 L 670.996094 312.851562 L 648.90625 312.847656 L 648.90625 312.453125 L 683.246094 312.449219 L 683.335938 313.828125 L 681.457031 313.921875 L 679.132812 314.015625 L 676.898438 314.085938 L 674.574219 314.144531 L 671.261719 314.210938 L 668.582031 314.253906 L 664.464844 314.304688 L 660.710938 314.335938 L 656.773438 314.355469 L 653.285156 314.367188 L 649.171875 314.371094 L 645.507812 314.363281 L 641.570312 314.34375 L 638.441406 314.3125 L 635.578125 314.277344 L 632.71875 314.234375 L 629.140625 314.160156 L 626.816406 314.097656 L 624.398438 314.023438 L 621.984375 313.9375 L 619.839844 313.839844 L 618.40625 313.769531 L 616.976562 313.683594 L 615.457031 313.578125 L 614.027344 313.457031 L 612.953125 313.347656 L 611.96875 313.222656 L 611.253906 313.109375 L 610.539062 312.949219 L 610.179688 312.824219 L 610 312.714844 Z M 610 312.164062 "/>
<path style=" stroke:none;fill-rule:nonzero;fill:rgb(83.921569%,15.686275%,22.352941%);fill-opacity:1;" d="M 610 189.519531 L 683.335938 189.519531 L 683.335938 199.648438 L 652.773438 199.734375 L 652.773438 284.125 L 640.476562 284.125 L 640.476562 199.824219 L 640.296875 199.648438 L 610 199.648438 Z M 610 189.519531 "/>
<g style="fill:rgb(0%,0%,0%);fill-opacity:1;">
  <use xlink:href="#glyph0-1" x="21.957031" y="318.198242"/>
  <use xlink:href="#glyph0-2" x="27.291016" y="318.198242"/>
  <use xlink:href="#glyph0-1" x="29.958008" y="318.198242"/>
</g>
<g style="fill:rgb(0%,0%,0%);fill-opacity:1;">
  <use xlink:href="#glyph0-1" x="21.957031" y="244.475586"/>
  <use xlink:href="#glyph0-2" x="27.291016" y="244.475586"/>
  <use xlink:href="#glyph0-3" x="29.958008" y="244.475586"/>
</g>
<g style="fill:rgb(0%,0%,0%);fill-opacity:1;">
  <use xlink:href="#glyph0-4" x="21.957031" y="170.75293"/>
  <use xlink:href="#glyph0-2" x="27.291016" y="170.75293"/>
  <use xlink:href="#glyph0-1" x="29.958008" y="170.75293"/>
</g>
<g style="fill:rgb(0%,0%,0%);fill-opacity:1;">
  <use xlink:href="#glyph0-4" x="21.957031" y="97.03418"/>
  <use xlink:href="#glyph0-2" x="27.291016" y="97.03418"/>
  <use xlink:href="#glyph0-3" x="29.958008" y="97.03418"/>
</g>
<g style="fill:rgb(0%,0%,0%);fill-opacity:1;">
  <use xlink:href="#glyph0-5" x="21.957031" y="23.311523"/>
  <use xlink:href="#glyph0-2" x="27.291016" y="23.311523"/>
  <use xlink:href="#glyph0-1" x="29.958008" y="23.311523"/>
</g>
<g style="fill:rgb(0%,0%,0%);fill-opacity:1;">
  <use xlink:href="#glyph0-4" x="103.296875" y="338.19043"/>
</g>
<g style="fill:rgb(0%,0%,0%);fill-opacity:1;">
  <use xlink:href="#glyph0-5" x="180.492188" y="338.19043"/>
</g>
<g style="fill:rgb(0%,0%,0%);fill-opacity:1;">
  <use xlink:href="#glyph0-6" x="257.6875" y="338.19043"/>
</g>
<g style="fill:rgb(0%,0%,0%);fill-opacity:1;">
  <use xlink:href="#glyph0-7" x="334.886719" y="338.19043"/>
</g>
<g style="fill:rgb(0%,0%,0%);fill-opacity:1;">
  <use xlink:href="#glyph0-3" x="412.082031" y="338.19043"/>
</g>
<g style="fill:rgb(0%,0%,0%);fill-opacity:1;">
  <use xlink:href="#glyph0-8" x="489.277344" y="338.19043"/>
</g>
<g style="fill:rgb(0%,0%,0%);fill-opacity:1;">
  <use xlink:href="#glyph0-9" x="566.472656" y="338.19043"/>
</g>
<g style="fill:rgb(0%,0%,0%);fill-opacity:1;">
  <use xlink:href="#glyph0-10" x="643.667969" y="338.19043"/>
</g>
<g style="fill:rgb(0%,0%,0%);fill-opacity:1;">
  <use xlink:href="#glyph1-1" x="14.412109" y="178.015625"/>
  <use xlink:href="#glyph1-2" x="14.412109" y="170.011719"/>
  <use xlink:href="#glyph1-3" x="14.412109" y="167.347656"/>
  <use xlink:href="#glyph1-4" x="14.412109" y="164.011719"/>
</g>
</g>
</svg>
