<?xml version="1.0" encoding="UTF-8"?>
<svg xmlns="http://www.w3.org/2000/svg" xmlns:xlink="http://www.w3.org/1999/xlink" width="720pt" height="360pt" viewBox="0 0 720 360" version="1.1">
<defs>
<g>
<symbol overflow="visible" id="glyph0-0">
<path style="stroke:none;" d=""/>
</symbol>
<symbol overflow="visible" id="glyph0-1">
<path style="stroke:none;" d="M 2.640625 -6.796875 C 2 -6.796875 1.421875 -6.53125 1.078125 -6.046875 C 0.640625 -5.453125 0.40625 -4.546875 0.40625 -3.296875 C 0.40625 -1 1.1875 0.21875 2.640625 0.21875 C 4.078125 0.21875 4.859375 -1 4.859375 -3.234375 C 4.859375 -4.5625 4.65625 -5.4375 4.203125 -6.046875 C 3.84375 -6.53125 3.28125 -6.796875 2.640625 -6.796875 Z M 2.640625 -6.046875 C 3.546875 -6.046875 4 -5.125 4 -3.3125 C 4 -1.375 3.5625 -0.484375 2.625 -0.484375 C 1.734375 -0.484375 1.28125 -1.421875 1.28125 -3.28125 C 1.28125 -5.140625 1.734375 -6.046875 2.640625 -6.046875 Z M 2.640625 -6.046875 "/>
</symbol>
<symbol overflow="visible" id="glyph0-2">
<path style="stroke:none;" d="M 1.828125 -1 L 0.828125 -1 L 0.828125 0 L 1.828125 0 Z M 1.828125 -1 "/>
</symbol>
<symbol overflow="visible" id="glyph0-3">
<path style="stroke:none;" d="M 4.5625 -6.796875 L 1.0625 -6.796875 L 0.546875 -3.09375 L 1.328125 -3.09375 C 1.71875 -3.5625 2.046875 -3.734375 2.578125 -3.734375 C 3.484375 -3.734375 4.0625 -3.109375 4.0625 -2.09375 C 4.0625 -1.125 3.484375 -0.53125 2.578125 -0.53125 C 1.828125 -0.53125 1.375 -0.90625 1.1875 -1.671875 L 0.328125 -1.671875 C 0.453125 -1.109375 0.546875 -0.84375 0.75 -0.59375 C 1.125 -0.078125 1.828125 0.21875 2.59375 0.21875 C 3.96875 0.21875 4.921875 -0.78125 4.921875 -2.21875 C 4.921875 -3.5625 4.03125 -4.484375 2.71875 -4.484375 C 2.25 -4.484375 1.859375 -4.359375 1.46875 -4.0625 L 1.734375 -5.96875 L 4.5625 -5.96875 Z M 4.5625 -6.796875 "/>
</symbol>
<symbol overflow="visible" id="glyph0-4">
<path style="stroke:none;" d="M 2.484375 -4.84375 L 2.484375 0 L 3.328125 0 L 3.328125 -6.796875 L 2.765625 -6.796875 C 2.46875 -5.75 2.28125 -5.609375 0.984375 -5.453125 L 0.984375 -4.84375 Z M 2.484375 -4.84375 "/>
</symbol>
<symbol overflow="visible" id="glyph0-5">
<path style="stroke:none;" d="M 4.859375 -0.828125 L 1.28125 -0.828125 C 1.359375 -1.390625 1.671875 -1.75 2.5 -2.234375 L 3.46875 -2.75 C 4.40625 -3.265625 4.90625 -3.96875 4.90625 -4.8125 C 4.90625 -5.375 4.671875 -5.90625 4.265625 -6.265625 C 3.859375 -6.625 3.375 -6.796875 2.71875 -6.796875 C 1.859375 -6.796875 1.21875 -6.5 0.84375 -5.921875 C 0.609375 -5.5625 0.5 -5.125 0.484375 -4.4375 L 1.328125 -4.4375 C 1.359375 -4.90625 1.40625 -5.1875 1.53125 -5.40625 C 1.75 -5.8125 2.1875 -6.0625 2.703125 -6.0625 C 3.46875 -6.0625 4.03125 -5.515625 4.03125 -4.78125 C 4.03125 -4.25 3.71875 -3.796875 3.125 -3.4375 L 2.234375 -2.9375 C 0.8125 -2.140625 0.40625 -1.5 0.328125 0 L 4.859375 0 Z M 4.859375 -0.828125 "/>
</symbol>
<symbol overflow="visible" id="glyph0-6">
<path style="stroke:none;" d="M 2.125 -3.125 L 2.578125 -3.125 C 3.515625 -3.125 3.984375 -2.703125 3.984375 -1.890625 C 3.984375 -1.03125 3.46875 -0.53125 2.578125 -0.53125 C 1.65625 -0.53125 1.203125 -0.984375 1.15625 -1.96875 L 0.3125 -1.96875 C 0.34375 -1.421875 0.4375 -1.078125 0.609375 -0.765625 C 0.953125 -0.109375 1.625 0.21875 2.546875 0.21875 C 3.953125 0.21875 4.859375 -0.609375 4.859375 -1.90625 C 4.859375 -2.765625 4.515625 -3.25 3.703125 -3.515625 C 4.34375 -3.765625 4.65625 -4.25 4.65625 -4.9375 C 4.65625 -6.109375 3.875 -6.796875 2.578125 -6.796875 C 1.203125 -6.796875 0.484375 -6.046875 0.453125 -4.609375 L 1.296875 -4.609375 C 1.3125 -5.015625 1.34375 -5.25 1.453125 -5.453125 C 1.640625 -5.828125 2.0625 -6.0625 2.59375 -6.0625 C 3.34375 -6.0625 3.796875 -5.625 3.796875 -4.90625 C 3.796875 -4.421875 3.609375 -4.140625 3.25 -3.984375 C 3.015625 -3.890625 2.71875 -3.84375 2.125 -3.84375 Z M 2.125 -3.125 "/>
</symbol>
<symbol overflow="visible" id="glyph0-7">
<path style="stroke:none;" d="M 3.140625 -1.625 L 3.140625 0 L 3.984375 0 L 3.984375 -1.625 L 4.984375 -1.625 L 4.984375 -2.390625 L 3.984375 -2.390625 L 3.984375 -6.796875 L 3.359375 -6.796875 L 0.265625 -2.515625 L 0.265625 -1.625 Z M 3.140625 -2.390625 L 1 -2.390625 L 3.140625 -5.359375 Z M 3.140625 -2.390625 "/>
</symbol>
<symbol overflow="visible" id="glyph0-8">
<path style="stroke:none;" d="M 4.78125 -5.03125 C 4.609375 -6.140625 3.890625 -6.796875 2.84375 -6.796875 C 2.09375 -6.796875 1.421875 -6.4375 1.03125 -5.828125 C 0.609375 -5.171875 0.40625 -4.34375 0.40625 -3.09375 C 0.40625 -1.953125 0.578125 -1.234375 0.984375 -0.625 C 1.359375 -0.078125 1.953125 0.21875 2.703125 0.21875 C 3.984375 0.21875 4.921875 -0.734375 4.921875 -2.078125 C 4.921875 -3.34375 4.0625 -4.234375 2.84375 -4.234375 C 2.171875 -4.234375 1.640625 -3.96875 1.28125 -3.46875 C 1.28125 -5.125 1.828125 -6.046875 2.796875 -6.046875 C 3.390625 -6.046875 3.796875 -5.671875 3.9375 -5.03125 Z M 2.734375 -3.484375 C 3.546875 -3.484375 4.0625 -2.921875 4.0625 -2 C 4.0625 -1.15625 3.484375 -0.53125 2.703125 -0.53125 C 1.921875 -0.53125 1.328125 -1.1875 1.328125 -2.046875 C 1.328125 -2.890625 1.90625 -3.484375 2.734375 -3.484375 Z M 2.734375 -3.484375 "/>
</symbol>
<symbol overflow="visible" id="glyph0-9">
<path style="stroke:none;" d="M 4.984375 -6.796875 L 0.4375 -6.796875 L 0.4375 -5.96875 L 4.109375 -5.96875 C 2.5 -3.65625 1.828125 -2.234375 1.328125 0 L 2.21875 0 C 2.59375 -2.171875 3.453125 -4.046875 4.984375 -6.09375 Z M 4.984375 -6.796875 "/>
</symbol>
<symbol overflow="visible" id="glyph0-10">
<path style="stroke:none;" d="M 3.75 -3.578125 C 4.453125 -4 4.6875 -4.34375 4.6875 -4.984375 C 4.6875 -6.046875 3.84375 -6.796875 2.640625 -6.796875 C 1.4375 -6.796875 0.59375 -6.046875 0.59375 -4.984375 C 0.59375 -4.359375 0.828125 -4.015625 1.515625 -3.578125 C 0.734375 -3.203125 0.359375 -2.640625 0.359375 -1.890625 C 0.359375 -0.640625 1.296875 0.21875 2.640625 0.21875 C 3.984375 0.21875 4.921875 -0.640625 4.921875 -1.875 C 4.921875 -2.640625 4.53125 -3.203125 3.75 -3.578125 Z M 2.640625 -6.046875 C 3.359375 -6.046875 3.8125 -5.625 3.8125 -4.96875 C 3.8125 -4.34375 3.34375 -3.921875 2.640625 -3.921875 C 1.921875 -3.921875 1.453125 -4.34375 1.453125 -4.984375 C 1.453125 -5.625 1.921875 -6.046875 2.640625 -6.046875 Z M 2.640625 -3.203125 C 3.484375 -3.203125 4.0625 -2.671875 4.0625 -1.875 C 4.0625 -1.0625 3.484375 -0.53125 2.625 -0.53125 C 1.796875 -0.53125 1.21875 -1.078125 1.21875 -1.875 C 1.21875 -2.671875 1.796875 -3.203125 2.640625 -3.203125 Z M 2.640625 -3.203125 "/>
</symbol>
<symbol overflow="visible" id="glyph1-0">
<path style="stroke:none;" d=""/>
</symbol>
<symbol overflow="visible" id="glyph1-1">
<path style="stroke:none;" d="M 0 -0.953125 L 0 -4.890625 C 0 -5.71875 -0.234375 -6.34375 -0.734375 -6.796875 C -1.1875 -7.234375 -1.8125 -7.46875 -2.5 -7.46875 C -3.546875 -7.46875 -4.1875 -7 -4.625 -5.875 C -4.984375 -6.671875 -5.640625 -7.09375 -6.53125 -7.09375 C -7.15625 -7.09375 -7.734375 -6.859375 -8.140625 -6.390625 C -8.5625 -5.9375 -8.75 -5.34375 -8.75 -4.5 L -8.75 -0.953125 Z M -4.984375 -2.0625 L -7.765625 -2.0625 L -7.765625 -4.21875 C -7.765625 -4.84375 -7.6875 -5.203125 -7.453125 -5.5 C -7.21875 -5.8125 -6.859375 -5.96875 -6.375 -5.96875 C -5.90625 -5.96875 -5.53125 -5.8125 -5.296875 -5.5 C -5.0625 -5.203125 -4.984375 -4.84375 -4.984375 -4.21875 Z M -0.984375 -2.0625 L -4 -2.0625 L -4 -4.78125 C -4 -5.328125 -3.859375 -5.6875 -3.578125 -5.953125 C -3.296875 -6.21875 -2.921875 -6.359375 -2.484375 -6.359375 C -2.0625 -6.359375 -1.6875 -6.21875 -1.40625 -5.953125 C -1.109375 -5.6875 -0.984375 -5.328125 -0.984375 -4.78125 Z M -0.984375 -2.0625 "/>
</symbol>
<symbol overflow="visible" id="glyph1-2">
<path style="stroke:none;" d="M -6.28125 -1.796875 L -6.28125 -0.796875 L 0 -0.796875 L 0 -1.796875 Z M -8.75 -1.796875 L -8.75 -0.796875 L -7.484375 -0.796875 L -7.484375 -1.796875 Z M -8.75 -1.796875 "/>
</symbol>
<symbol overflow="visible" id="glyph1-3">
<path style="stroke:none;" d="M -6.28125 -3.046875 L -6.28125 -2.015625 L -8.015625 -2.015625 L -8.015625 -1.015625 L -6.28125 -1.015625 L -6.28125 -0.171875 L -5.46875 -0.171875 L -5.46875 -1.015625 L -0.71875 -1.015625 C -0.078125 -1.015625 0.28125 -1.453125 0.28125 -2.234375 C 0.28125 -2.46875 0.25 -2.71875 0.1875 -3.046875 L -0.640625 -3.046875 C -0.609375 -2.921875 -0.59375 -2.765625 -0.59375 -2.5625 C -0.59375 -2.140625 -0.71875 -2.015625 -1.15625 -2.015625 L -5.46875 -2.015625 L -5.46875 -3.046875 Z M -6.28125 -3.046875 "/>
</symbol>
<symbol overflow="visible" id="glyph1-4">
<path style="stroke:none;" d="M -4.53125 -5.25 C -5.765625 -5.25 -6.46875 -4.421875 -6.46875 -2.96875 C -6.46875 -1.515625 -5.71875 -0.5625 -4.546875 -0.5625 C -3.5625 -0.5625 -3.09375 -1.0625 -2.734375 -2.5625 L -2.515625 -3.484375 C -2.34375 -4.1875 -2.09375 -4.46875 -1.625 -4.46875 C -1.046875 -4.46875 -0.640625 -3.875 -0.640625 -3 C -0.640625 -2.453125 -0.796875 -2 -1.0625 -1.75 C -1.25 -1.59375 -1.421875 -1.53125 -1.875 -1.46875 L -1.875 -0.40625 C -0.421875 -0.453125 0.28125 -1.265625 0.28125 -2.921875 C 0.28125 -4.5 -0.5 -5.515625 -1.71875 -5.515625 C -2.65625 -5.515625 -3.171875 -4.984375 -3.46875 -3.734375 L -3.703125 -2.765625 C -3.890625 -1.953125 -4.15625 -1.609375 -4.59375 -1.609375 C -5.171875 -1.609375 -5.546875 -2.125 -5.546875 -2.9375 C -5.546875 -3.75 -5.203125 -4.171875 -4.53125 -4.203125 Z M -4.53125 -5.25 "/>
</symbol>
</g>
</defs>
<g id="surface20164">
<rect x="0" y="0" width="720" height="360" style="fill:rgb(100%,100%,100%);fill-opacity:1;stroke:none;"/>
<path style=" stroke:none;fill-rule:nonzero;fill:rgb(6.27451%,58.823529%,28.235294%);fill-opacity:1;" d="M 69.628906 314.367188 L 69.707031 314.359375 L 101.441406 309.3125 L 111.078125 309.3125 L 142.964844 314.371094 L 131.761719 314.371094 L 123.769531 313.050781 L 88.746094 313.050781 L 80.910156 314.367188 L 69.628906 314.367188 L 92.117188 312.503906 L 120.558594 312.5 L 106.375 310.140625 L 106.21875 310.136719 L 106.0625 310.148438 L 92.039062 312.5 L 92.117188 312.503906 Z M 69.628906 314.367188 "/>
<path style=" stroke:none;fill-rule:nonzero;fill:rgb(14.509804%,36.078431%,60%);fill-opacity:1;" d="M 69.628906 305.277344 L 69.71875 305.273438 L 69.71875 305.160156 L 69.988281 304.984375 L 70.613281 304.765625 L 71.238281 304.613281 L 72.847656 304.339844 L 75.085938 304.074219 L 77.410156 303.871094 L 79.109375 303.75 L 80.628906 303.660156 L 84.117188 303.488281 L 86.355469 303.398438 L 88.769531 303.320312 L 91.71875 303.242188 L 93.867188 303.195312 L 98.695312 303.121094 L 102.273438 303.089844 L 105.046875 303.078125 L 111.039062 303.078125 L 114.613281 303.09375 L 117.207031 303.117188 L 120.070312 303.15625 L 122.484375 303.195312 L 126.6875 303.296875 L 130.445312 303.429688 L 132.144531 303.503906 L 134.828125 303.644531 L 136.882812 303.785156 L 138.316406 303.902344 L 139.925781 304.074219 L 141.355469 304.285156 L 142.429688 304.519531 L 142.964844 304.71875 L 130.445312 304.71875 L 129.820312 304.53125 L 129.101562 304.390625 L 127.761719 304.199219 L 126.421875 304.066406 L 124.542969 303.933594 L 122.84375 303.84375 L 120.515625 303.757812 L 118.460938 303.699219 L 116.3125 303.660156 L 114.257812 303.632812 L 110.320312 303.605469 L 105.761719 303.605469 L 104.0625 303.613281 L 100.574219 303.648438 L 98.695312 303.683594 L 96.011719 303.746094 L 94.132812 303.808594 L 91.898438 303.898438 L 90.378906 303.976562 L 88.5 304.097656 L 87.160156 304.203125 L 85.636719 304.355469 L 84.742188 304.472656 L 83.9375 304.601562 L 83.222656 304.753906 L 82.6875 304.917969 L 82.328125 305.085938 L 82.148438 305.253906 L 82.148438 305.96875 L 82.328125 306.136719 L 82.777344 306.332031 L 83.9375 306.613281 L 85.636719 306.859375 L 87.605469 307.050781 L 89.484375 307.191406 L 90.558594 307.253906 L 91.988281 307.328125 L 94.222656 307.421875 L 97.445312 307.515625 L 99.320312 307.550781 L 102.183594 307.589844 L 105.136719 307.605469 L 109.070312 307.605469 L 112.558594 307.589844 L 114.882812 307.566406 L 117.296875 307.527344 L 120.605469 307.449219 L 122.664062 307.375 L 124.453125 307.289062 L 125.792969 307.199219 L 126.6875 307.125 L 128.03125 306.984375 L 129.101562 306.824219 L 129.90625 306.664062 L 130.445312 306.507812 L 142.964844 306.507812 L 142.429688 306.691406 L 141.625 306.871094 L 140.820312 307.007812 L 139.566406 307.167969 L 138.136719 307.3125 L 136.078125 307.472656 L 134.378906 307.578125 L 132.144531 307.695312 L 130.085938 307.78125 L 127.851562 307.859375 L 124.542969 307.953125 L 122.394531 308 L 120.070312 308.042969 L 117.296875 308.078125 L 113.808594 308.109375 L 110.054688 308.128906 L 106.566406 308.132812 L 102.808594 308.125 L 100.035156 308.105469 L 96.371094 308.066406 L 91.808594 307.980469 L 88.5 307.894531 L 85.90625 307.804688 L 83.671875 307.714844 L 81.167969 307.589844 L 77.945312 307.386719 L 75.980469 307.226562 L 74.636719 307.097656 L 73.117188 306.917969 L 72.042969 306.757812 L 70.792969 306.496094 L 69.898438 306.167969 L 69.628906 305.914062 Z M 69.628906 305.277344 "/>
<path style=" stroke:none;fill-rule:nonzero;fill:rgb(96.862745%,70.196078%,16.862745%);fill-opacity:1;" d="M 69.628906 230.378906 L 69.71875 230.292969 L 69.71875 228.609375 L 70.078125 224.8125 L 70.972656 219.582031 L 72.132812 215.277344 L 73.386719 211.90625 L 74.191406 210.132812 L 75.53125 207.601562 L 76.695312 205.746094 L 79.644531 201.949219 L 83.402344 198.40625 L 85.460938 196.890625 L 87.785156 195.453125 L 91.09375 193.851562 L 92.613281 193.261719 L 97.265625 191.910156 L 102.542969 191.066406 L 108.355469 190.816406 L 111.039062 190.898438 L 114.703125 191.238281 L 119.710938 192.164062 L 122.574219 193.007812 L 124.808594 193.851562 L 127.136719 194.949219 L 129.996094 196.636719 L 132.679688 198.660156 L 134.828125 200.683594 L 136.972656 203.214844 L 138.761719 205.914062 L 140.28125 208.867188 L 141.625 212.410156 L 142.429688 215.363281 L 142.964844 218.316406 L 130.535156 218.316406 L 129.820312 215.363281 L 129.015625 213.085938 L 127.671875 210.300781 L 126.332031 208.277344 L 124.988281 206.675781 L 122.484375 204.480469 L 120.339844 203.132812 L 117.65625 201.949219 L 115.0625 201.191406 L 112.109375 200.683594 L 110.320312 200.515625 L 105.582031 200.515625 L 101.289062 201.105469 L 98.785156 201.78125 L 96.996094 202.457031 L 94.492188 203.722656 L 92.972656 204.734375 L 92.078125 205.410156 L 89.394531 208.023438 L 87.605469 210.386719 L 86.621094 211.988281 L 85.371094 214.519531 L 84.476562 216.796875 L 83.492188 220.171875 L 82.953125 222.703125 L 82.238281 228.4375 L 82.148438 243.625 L 82.417969 246.828125 L 82.953125 250.289062 L 83.671875 253.324219 L 84.742188 256.53125 L 85.816406 258.976562 L 87.695312 262.265625 L 89.304688 264.460938 L 90.558594 265.894531 L 92.972656 268.171875 L 93.957031 268.929688 L 96.28125 270.449219 L 98.695312 271.628906 L 101.648438 272.640625 L 103.882812 273.148438 L 107.460938 273.570312 L 112.019531 273.570312 L 117.386719 273.0625 L 120.785156 272.390625 L 123.109375 271.714844 L 124.632812 271.125 L 126.507812 270.195312 L 127.851562 269.351562 L 129.101562 268.425781 L 130.625 266.988281 L 130.625 246.828125 L 108.535156 246.746094 L 108.535156 237.296875 L 142.875 237.210938 L 142.964844 270.195312 L 141.085938 272.472656 L 138.761719 274.667969 L 136.527344 276.355469 L 134.199219 277.789062 L 130.890625 279.390625 L 128.207031 280.402344 L 124.09375 281.585938 L 120.339844 282.34375 L 116.402344 282.847656 L 112.914062 283.101562 L 108.800781 283.1875 L 105.136719 283.019531 L 101.199219 282.511719 L 98.070312 281.835938 L 95.207031 280.992188 L 92.34375 279.898438 L 88.769531 278.125 L 86.441406 276.691406 L 84.027344 274.917969 L 81.613281 272.8125 L 79.46875 270.535156 L 78.035156 268.761719 L 76.605469 266.738281 L 75.085938 264.207031 L 73.652344 261.339844 L 72.582031 258.722656 L 71.597656 255.769531 L 70.882812 252.988281 L 70.164062 249.191406 L 69.808594 246.152344 L 69.628906 243.539062 Z M 69.628906 230.378906 "/>
<path style=" stroke:none;fill-rule:nonzero;fill:rgb(83.921569%,15.686275%,22.352941%);fill-opacity:1;" d="M 69.628906 284.367188 L 142.964844 284.367188 L 142.964844 286.242188 L 112.402344 286.257812 L 112.402344 301.898438 L 100.105469 301.898438 L 100.105469 286.277344 L 99.925781 286.242188 L 69.628906 286.242188 Z M 69.628906 284.367188 "/>
<path style=" stroke:none;fill-rule:nonzero;fill:rgb(14.509804%,36.078431%,60%);fill-opacity:1;" d="M 146.824219 148.457031 L 146.914062 148.1875 L 146.914062 141.742188 L 147.183594 131.542969 L 147.808594 118.65625 L 148.433594 109.796875 L 150.042969 93.957031 L 152.28125 78.652344 L 154.605469 66.839844 L 156.304688 59.859375 L 157.824219 54.492188 L 161.3125 44.558594 L 163.550781 39.457031 L 165.964844 34.890625 L 168.914062 30.328125 L 171.0625 27.644531 L 175.890625 23.347656 L 179.46875 21.46875 L 182.242188 20.664062 L 188.234375 20.664062 L 191.8125 21.738281 L 194.40625 23.078125 L 197.265625 25.226562 L 199.679688 27.644531 L 203.882812 33.550781 L 207.640625 41.066406 L 209.339844 45.363281 L 212.023438 53.683594 L 214.078125 61.738281 L 215.511719 68.71875 L 217.121094 78.652344 L 218.550781 90.734375 L 219.625 104.425781 L 220.160156 115.96875 L 207.640625 115.96875 L 207.015625 105.230469 L 206.300781 96.910156 L 204.957031 85.902344 L 203.617188 78.117188 L 201.738281 70.332031 L 200.039062 65.230469 L 197.714844 60.128906 L 195.65625 56.90625 L 193.511719 54.492188 L 191.453125 52.878906 L 187.519531 51.269531 L 182.957031 51.269531 L 181.257812 51.804688 L 177.769531 53.953125 L 175.890625 55.832031 L 173.207031 59.589844 L 171.332031 63.082031 L 169.09375 68.449219 L 167.574219 73.015625 L 165.695312 79.996094 L 164.355469 86.171875 L 162.835938 95.03125 L 161.941406 101.742188 L 161.136719 109.257812 L 160.417969 118.117188 L 159.882812 127.515625 L 159.523438 137.449219 L 159.347656 147.113281 L 159.347656 188.726562 L 159.523438 198.390625 L 159.972656 209.667969 L 161.136719 226.042969 L 162.835938 240.273438 L 164.800781 251.546875 L 166.679688 259.601562 L 167.753906 263.359375 L 169.183594 267.65625 L 171.417969 273.027344 L 174.640625 278.394531 L 176.515625 280.542969 L 179.378906 282.691406 L 182.332031 283.765625 L 186.265625 283.765625 L 189.753906 282.691406 L 192.078125 281.347656 L 194.492188 279.199219 L 197.804688 274.636719 L 199.859375 270.339844 L 201.648438 265.242188 L 202.988281 260.140625 L 203.882812 255.84375 L 205.226562 247.519531 L 206.300781 238.394531 L 207.105469 228.996094 L 207.640625 219.867188 L 220.160156 219.867188 L 219.625 230.609375 L 218.820312 241.078125 L 218.015625 248.863281 L 216.761719 258.261719 L 215.332031 266.582031 L 213.273438 275.980469 L 211.574219 282.152344 L 209.339844 288.867188 L 207.28125 293.96875 L 205.046875 298.53125 L 201.738281 303.898438 L 199.589844 306.585938 L 197.265625 309 L 194.492188 311.148438 L 191.003906 313.027344 L 187.25 314.101562 L 183.761719 314.371094 L 180.003906 313.832031 L 177.234375 312.761719 L 173.566406 310.34375 L 169.003906 305.511719 L 165.695312 300.410156 L 163.101562 295.308594 L 160.867188 289.941406 L 158.363281 282.691406 L 155.144531 270.878906 L 153.175781 261.75 L 151.832031 254.234375 L 150.3125 243.761719 L 149.238281 234.367188 L 147.988281 219.332031 L 147.09375 200.269531 L 146.824219 185.503906 Z M 146.824219 148.457031 "/>
<path style=" stroke:none;fill-rule:nonzero;fill:rgb(96.862745%,70.196078%,16.862745%);fill-opacity:1;" d="M 224.019531 146.460938 L 224.109375 146.191406 L 224.109375 140.828125 L 224.46875 128.757812 L 225.363281 112.128906 L 226.523438 98.449219 L 227.777344 87.71875 L 228.582031 82.085938 L 229.925781 74.039062 L 231.085938 68.140625 L 234.039062 56.070312 L 237.792969 44.804688 L 239.851562 39.976562 L 242.175781 35.414062 L 245.484375 30.320312 L 247.003906 28.441406 L 251.65625 24.148438 L 256.933594 21.46875 L 262.746094 20.664062 L 265.429688 20.929688 L 269.097656 22.003906 L 274.105469 24.953125 L 276.964844 27.636719 L 279.203125 30.320312 L 281.527344 33.804688 L 284.390625 39.171875 L 287.074219 45.609375 L 289.21875 52.046875 L 291.367188 60.09375 L 293.152344 68.675781 L 294.675781 78.0625 L 296.015625 89.328125 L 296.820312 98.714844 L 297.355469 108.105469 L 284.925781 108.105469 L 284.210938 98.714844 L 283.40625 91.476562 L 282.0625 82.625 L 280.722656 76.1875 L 279.382812 71.089844 L 276.875 64.117188 L 274.730469 59.824219 L 272.046875 56.070312 L 269.453125 53.65625 L 266.503906 52.046875 L 264.714844 51.507812 L 259.972656 51.507812 L 255.679688 53.386719 L 253.175781 55.53125 L 251.386719 57.679688 L 248.882812 61.703125 L 247.363281 64.921875 L 246.46875 67.066406 L 243.785156 75.382812 L 241.996094 82.890625 L 241.015625 87.988281 L 239.761719 96.035156 L 238.867188 103.277344 L 237.882812 114.003906 L 237.347656 122.050781 L 236.632812 140.292969 L 236.542969 188.574219 L 236.808594 198.765625 L 237.347656 209.761719 L 238.0625 219.417969 L 239.136719 229.609375 L 240.207031 237.390625 L 242.085938 247.851562 L 243.695312 254.824219 L 244.949219 259.382812 L 247.363281 266.625 L 248.347656 269.039062 L 250.671875 273.867188 L 253.085938 277.625 L 256.039062 280.84375 L 258.273438 282.453125 L 261.851562 283.792969 L 266.414062 283.792969 L 271.777344 282.183594 L 275.175781 280.039062 L 277.503906 277.890625 L 279.023438 276.015625 L 280.902344 273.0625 L 282.242188 270.382812 L 283.496094 267.429688 L 285.015625 262.871094 L 285.015625 198.765625 L 262.925781 198.496094 L 262.925781 168.457031 L 297.269531 168.1875 L 297.355469 273.0625 L 295.480469 280.304688 L 293.152344 287.28125 L 290.917969 292.644531 L 288.59375 297.203125 L 285.285156 302.300781 L 282.601562 305.519531 L 278.488281 309.273438 L 274.730469 311.6875 L 270.796875 313.296875 L 267.308594 314.101562 L 263.195312 314.371094 L 259.527344 313.835938 L 255.589844 312.226562 L 252.460938 310.078125 L 249.597656 307.398438 L 246.738281 303.910156 L 243.160156 298.277344 L 240.835938 293.71875 L 238.421875 288.085938 L 236.003906 281.378906 L 233.859375 274.136719 L 232.429688 268.503906 L 230.996094 262.066406 L 229.476562 254.019531 L 228.046875 244.898438 L 226.972656 236.585938 L 225.988281 227.195312 L 225.273438 218.34375 L 224.558594 206.277344 L 224.199219 196.621094 L 224.019531 188.304688 Z M 224.019531 146.460938 "/>
<path style=" stroke:none;fill-rule:nonzero;fill:rgb(14.509804%,36.078431%,60%);fill-opacity:1;" d="M 301.21875 280.753906 L 301.304688 280.699219 L 301.304688 279.394531 L 301.574219 277.324219 L 302.199219 274.714844 L 302.828125 272.917969 L 304.4375 269.710938 L 306.671875 266.609375 L 308.996094 264.214844 L 310.695312 262.800781 L 312.21875 261.714844 L 315.707031 259.699219 L 317.941406 258.667969 L 320.355469 257.742188 L 323.308594 256.816406 L 325.453125 256.273438 L 330.285156 255.402344 L 333.859375 255.023438 L 336.632812 254.859375 L 342.625 254.859375 L 346.203125 255.078125 L 348.796875 255.347656 L 351.65625 255.785156 L 354.074219 256.273438 L 358.277344 257.46875 L 362.03125 258.992188 L 363.730469 259.863281 L 366.414062 261.550781 L 368.472656 263.183594 L 369.902344 264.597656 L 371.511719 266.609375 L 372.945312 269.058594 L 374.015625 271.832031 L 374.554688 274.171875 L 362.03125 274.171875 L 361.40625 271.996094 L 360.691406 270.308594 L 359.347656 268.078125 L 358.007812 266.5 L 356.128906 264.921875 L 354.429688 263.890625 L 352.105469 262.855469 L 350.046875 262.203125 L 347.902344 261.714844 L 345.84375 261.386719 L 341.910156 261.0625 L 337.347656 261.0625 L 335.648438 261.167969 L 332.160156 261.605469 L 330.285156 261.984375 L 327.601562 262.746094 L 325.722656 263.453125 L 323.484375 264.542969 L 321.964844 265.46875 L 320.085938 266.882812 L 318.746094 268.132812 L 317.226562 269.925781 L 316.332031 271.289062 L 315.527344 272.8125 L 314.8125 274.605469 L 314.273438 276.511719 L 313.917969 278.523438 L 313.738281 280.480469 L 313.738281 288.914062 L 313.917969 290.871094 L 314.363281 293.15625 L 315.527344 296.472656 L 317.226562 299.355469 L 319.195312 301.640625 L 321.070312 303.273438 L 322.144531 304.035156 L 323.574219 304.90625 L 325.8125 305.992188 L 329.03125 307.082031 L 330.910156 307.515625 L 333.769531 307.953125 L 336.722656 308.167969 L 340.65625 308.167969 L 344.144531 307.953125 L 346.472656 307.679688 L 348.886719 307.246094 L 352.195312 306.320312 L 354.25 305.449219 L 356.039062 304.414062 L 357.382812 303.382812 L 358.277344 302.511719 L 359.617188 300.824219 L 360.691406 298.976562 L 361.496094 297.070312 L 362.03125 295.222656 L 374.554688 295.222656 L 374.015625 297.398438 L 373.210938 299.519531 L 372.40625 301.097656 L 371.15625 303 L 369.722656 304.6875 L 367.667969 306.589844 L 365.96875 307.84375 L 363.730469 309.203125 L 361.675781 310.238281 L 359.4375 311.160156 L 356.128906 312.25 L 353.984375 312.792969 L 351.65625 313.28125 L 348.886719 313.71875 L 345.398438 314.097656 L 341.640625 314.316406 L 338.152344 314.371094 L 334.398438 314.261719 L 331.625 314.042969 L 327.957031 313.554688 L 323.398438 312.574219 L 320.085938 311.542969 L 317.496094 310.507812 L 315.257812 309.421875 L 312.753906 307.953125 L 309.535156 305.558594 L 307.566406 303.707031 L 306.226562 302.1875 L 304.707031 300.0625 L 303.632812 298.160156 L 302.378906 295.113281 L 301.484375 291.25 L 301.21875 288.257812 Z M 301.21875 280.753906 "/>
<path style=" stroke:none;fill-rule:nonzero;fill:rgb(96.862745%,70.196078%,16.862745%);fill-opacity:1;" d="M 301.21875 202.308594 L 301.304688 202.226562 L 301.304688 200.585938 L 301.664062 196.894531 L 302.558594 191.804688 L 303.722656 187.621094 L 304.972656 184.339844 L 305.777344 182.617188 L 307.121094 180.152344 L 308.28125 178.347656 L 311.234375 174.65625 L 314.988281 171.207031 L 317.046875 169.730469 L 319.371094 168.335938 L 322.679688 166.777344 L 324.203125 166.203125 L 328.851562 164.890625 L 334.128906 164.070312 L 339.941406 163.824219 L 342.625 163.90625 L 346.292969 164.234375 L 351.300781 165.136719 L 354.164062 165.957031 L 356.398438 166.777344 L 358.722656 167.84375 L 361.585938 169.484375 L 364.269531 171.457031 L 366.414062 173.425781 L 368.5625 175.886719 L 370.351562 178.511719 L 371.871094 181.382812 L 373.210938 184.832031 L 374.015625 187.703125 L 374.554688 190.574219 L 362.121094 190.574219 L 361.40625 187.703125 L 360.601562 185.488281 L 359.261719 182.78125 L 357.917969 180.808594 L 356.578125 179.25 L 354.074219 177.117188 L 351.925781 175.804688 L 349.242188 174.65625 L 346.648438 173.917969 L 343.699219 173.425781 L 341.910156 173.261719 L 337.167969 173.261719 L 332.875 173.835938 L 330.371094 174.492188 L 328.585938 175.148438 L 326.078125 176.378906 L 324.558594 177.363281 L 323.664062 178.019531 L 320.980469 180.5625 L 319.195312 182.863281 L 318.210938 184.421875 L 316.957031 186.882812 L 316.0625 189.097656 L 315.078125 192.378906 L 314.542969 194.84375 L 313.828125 200.421875 L 313.738281 215.195312 L 314.007812 218.3125 L 314.542969 221.675781 L 315.257812 224.628906 L 316.332031 227.75 L 317.40625 230.128906 L 319.28125 233.328125 L 320.894531 235.460938 L 322.144531 236.859375 L 324.558594 239.074219 L 325.542969 239.8125 L 327.867188 241.289062 L 330.285156 242.4375 L 333.234375 243.421875 L 335.46875 243.914062 L 339.046875 244.324219 L 343.609375 244.324219 L 348.976562 243.832031 L 352.375 243.175781 L 354.699219 242.519531 L 356.21875 241.945312 L 358.097656 241.042969 L 359.4375 240.222656 L 360.691406 239.320312 L 362.210938 237.925781 L 362.210938 218.3125 L 340.121094 218.230469 L 340.121094 209.039062 L 374.464844 208.957031 L 374.554688 241.042969 L 372.675781 243.257812 L 370.351562 245.390625 L 368.113281 247.03125 L 365.789062 248.429688 L 362.480469 249.988281 L 359.796875 250.972656 L 355.683594 252.121094 L 351.925781 252.859375 L 347.992188 253.351562 L 344.503906 253.597656 L 340.390625 253.679688 L 336.722656 253.515625 L 332.789062 253.023438 L 329.65625 252.367188 L 326.796875 251.546875 L 323.933594 250.480469 L 320.355469 248.757812 L 318.03125 247.359375 L 315.617188 245.636719 L 313.203125 243.585938 L 311.054688 241.371094 L 309.625 239.648438 L 308.191406 237.679688 L 306.671875 235.214844 L 305.242188 232.425781 L 304.167969 229.882812 L 303.183594 227.011719 L 302.46875 224.300781 L 301.753906 220.609375 L 301.394531 217.65625 L 301.21875 215.113281 Z M 301.21875 202.308594 "/>
<path style=" stroke:none;fill-rule:nonzero;fill:rgb(6.27451%,58.823529%,28.235294%);fill-opacity:1;" d="M 378.414062 314.300781 L 378.492188 314.234375 L 410.222656 241.828125 L 419.859375 241.828125 L 451.75 314.371094 L 440.546875 314.371094 L 432.554688 295.433594 L 397.53125 295.433594 L 389.695312 314.300781 L 378.414062 314.300781 L 400.898438 287.601562 L 429.339844 287.535156 L 415.160156 253.679688 L 415.003906 253.613281 L 414.847656 253.816406 L 400.820312 287.535156 L 400.898438 287.601562 Z M 378.414062 314.300781 "/>
<path style=" stroke:none;fill-rule:nonzero;fill:rgb(96.862745%,70.196078%,16.862745%);fill-opacity:1;" d="M 378.414062 199.175781 L 378.503906 199.109375 L 378.503906 197.785156 L 378.859375 194.804688 L 379.753906 190.699219 L 380.917969 187.320312 L 382.167969 184.667969 L 382.972656 183.277344 L 384.316406 181.289062 L 385.476562 179.832031 L 388.429688 176.851562 L 392.1875 174.070312 L 394.242188 172.875 L 396.566406 171.75 L 399.878906 170.492188 L 401.398438 170.027344 L 406.046875 168.96875 L 411.324219 168.304688 L 417.136719 168.105469 L 419.820312 168.171875 L 423.488281 168.4375 L 428.496094 169.167969 L 431.359375 169.828125 L 433.59375 170.492188 L 435.917969 171.351562 L 438.78125 172.679688 L 441.464844 174.269531 L 443.609375 175.859375 L 445.757812 177.84375 L 447.546875 179.964844 L 449.066406 182.285156 L 450.40625 185.066406 L 451.210938 187.386719 L 451.75 189.703125 L 439.316406 189.703125 L 438.601562 187.386719 L 437.796875 185.597656 L 436.457031 183.410156 L 435.113281 181.820312 L 433.773438 180.5625 L 431.269531 178.839844 L 429.121094 177.777344 L 426.4375 176.851562 L 423.847656 176.253906 L 420.894531 175.859375 L 419.105469 175.726562 L 414.367188 175.726562 L 410.074219 176.1875 L 407.570312 176.71875 L 405.78125 177.25 L 403.277344 178.242188 L 401.753906 179.039062 L 400.859375 179.566406 L 398.179688 181.621094 L 396.390625 183.476562 L 395.40625 184.734375 L 394.152344 186.722656 L 393.257812 188.511719 L 392.277344 191.160156 L 391.738281 193.148438 L 391.023438 197.652344 L 390.933594 209.578125 L 391.203125 212.09375 L 391.738281 214.8125 L 392.453125 217.195312 L 393.527344 219.714844 L 394.601562 221.636719 L 396.480469 224.21875 L 398.089844 225.941406 L 399.339844 227.066406 L 401.753906 228.855469 L 402.738281 229.453125 L 405.066406 230.644531 L 407.480469 231.574219 L 410.429688 232.367188 L 412.667969 232.765625 L 416.242188 233.097656 L 420.804688 233.097656 L 426.171875 232.699219 L 429.570312 232.167969 L 431.894531 231.640625 L 433.414062 231.175781 L 435.292969 230.445312 L 436.636719 229.785156 L 437.886719 229.054688 L 439.40625 227.929688 L 439.40625 212.09375 L 417.316406 212.03125 L 417.316406 204.609375 L 451.660156 204.542969 L 451.75 230.445312 L 449.871094 232.234375 L 447.546875 233.957031 L 445.308594 235.28125 L 442.984375 236.410156 L 439.675781 237.667969 L 436.992188 238.460938 L 432.878906 239.390625 L 429.121094 239.988281 L 425.1875 240.382812 L 421.699219 240.582031 L 417.585938 240.648438 L 413.917969 240.515625 L 409.984375 240.117188 L 406.851562 239.589844 L 403.992188 238.925781 L 401.128906 238.066406 L 397.550781 236.675781 L 395.226562 235.546875 L 392.8125 234.15625 L 390.398438 232.5 L 388.25 230.710938 L 386.820312 229.320312 L 385.390625 227.730469 L 383.867188 225.742188 L 382.4375 223.492188 L 381.363281 221.4375 L 380.378906 219.117188 L 379.664062 216.933594 L 378.949219 213.949219 L 378.59375 211.566406 L 378.414062 209.511719 Z M 378.414062 199.175781 "/>
<path style=" stroke:none;fill-rule:nonzero;fill:rgb(14.509804%,36.078431%,60%);fill-opacity:1;" d="M 455.609375 192.1875 L 455.699219 192.050781 L 455.699219 188.769531 L 455.964844 183.574219 L 456.59375 177.011719 L 457.21875 172.5 L 458.828125 164.433594 L 461.066406 156.640625 L 463.390625 150.625 L 465.089844 147.066406 L 466.609375 144.332031 L 470.097656 139.273438 L 472.332031 136.675781 L 474.746094 134.351562 L 477.699219 132.027344 L 479.847656 130.660156 L 484.675781 128.472656 L 488.253906 127.515625 L 491.023438 127.105469 L 497.015625 127.105469 L 500.59375 127.652344 L 503.1875 128.335938 L 506.050781 129.429688 L 508.464844 130.660156 L 512.667969 133.667969 L 516.425781 137.496094 L 518.125 139.683594 L 520.804688 143.921875 L 522.863281 148.023438 L 524.292969 151.582031 L 525.90625 156.640625 L 527.335938 162.792969 L 528.410156 169.765625 L 528.945312 175.644531 L 516.425781 175.644531 L 515.796875 170.175781 L 515.082031 165.9375 L 513.742188 160.332031 L 512.398438 156.367188 L 510.523438 152.402344 L 508.824219 149.800781 L 506.496094 147.203125 L 504.441406 145.5625 L 502.292969 144.332031 L 500.238281 143.511719 L 496.300781 142.691406 L 491.742188 142.691406 L 490.042969 142.964844 L 486.554688 144.058594 L 484.675781 145.015625 L 481.992188 146.929688 L 480.113281 148.707031 L 477.878906 151.445312 L 476.359375 153.769531 L 474.480469 157.324219 L 473.136719 160.46875 L 471.617188 164.980469 L 470.722656 168.398438 L 469.917969 172.226562 L 469.203125 176.738281 L 468.667969 181.523438 L 468.308594 186.582031 L 468.128906 191.503906 L 468.128906 212.695312 L 468.308594 217.617188 L 468.757812 223.359375 L 469.917969 231.699219 L 471.617188 238.945312 L 473.585938 244.6875 L 475.464844 248.789062 L 476.535156 250.703125 L 477.96875 252.890625 L 480.203125 255.625 L 483.421875 258.359375 L 485.300781 259.453125 L 488.164062 260.546875 L 491.113281 261.09375 L 495.050781 261.09375 L 498.539062 260.546875 L 500.863281 259.863281 L 503.277344 258.769531 L 506.585938 256.445312 L 508.644531 254.257812 L 510.433594 251.660156 L 511.773438 249.0625 L 512.667969 246.875 L 514.007812 242.636719 L 515.082031 237.988281 L 515.886719 233.203125 L 516.425781 228.554688 L 528.945312 228.554688 L 528.410156 234.023438 L 527.605469 239.355469 L 526.796875 243.320312 L 525.546875 248.105469 L 524.117188 252.34375 L 522.058594 257.128906 L 520.359375 260.273438 L 518.125 263.691406 L 516.066406 266.289062 L 513.832031 268.617188 L 510.523438 271.351562 L 508.375 272.71875 L 506.050781 273.949219 L 503.277344 275.042969 L 499.789062 276 L 496.035156 276.546875 L 492.546875 276.683594 L 488.789062 276.410156 L 486.015625 275.863281 L 482.351562 274.632812 L 477.789062 272.171875 L 474.480469 269.574219 L 471.886719 266.972656 L 469.648438 264.238281 L 467.144531 260.546875 L 463.925781 254.53125 L 461.957031 249.882812 L 460.617188 246.054688 L 459.097656 240.722656 L 458.023438 235.9375 L 456.773438 228.28125 L 455.878906 218.574219 L 455.609375 211.054688 Z M 455.609375 192.1875 "/>
<path style=" stroke:none;fill-rule:nonzero;fill:rgb(96.862745%,70.196078%,16.862745%);fill-opacity:1;" d="M 455.609375 293.5 L 455.699219 293.464844 L 455.699219 292.796875 L 456.054688 291.296875 L 456.949219 289.230469 L 458.113281 287.53125 L 459.367188 286.195312 L 460.171875 285.496094 L 461.511719 284.496094 L 462.675781 283.761719 L 465.625 282.261719 L 469.382812 280.863281 L 471.4375 280.261719 L 473.765625 279.695312 L 477.074219 279.0625 L 478.59375 278.828125 L 483.246094 278.296875 L 488.519531 277.960938 L 494.335938 277.863281 L 497.015625 277.894531 L 500.683594 278.027344 L 505.691406 278.394531 L 508.554688 278.726562 L 510.789062 279.0625 L 513.117188 279.496094 L 515.976562 280.160156 L 518.660156 280.960938 L 520.804688 281.761719 L 522.953125 282.761719 L 524.742188 283.828125 L 526.261719 284.996094 L 527.605469 286.398438 L 528.410156 287.5625 L 528.945312 288.730469 L 516.515625 288.730469 L 515.796875 287.5625 L 514.992188 286.664062 L 513.652344 285.5625 L 512.308594 284.761719 L 510.96875 284.128906 L 508.464844 283.261719 L 506.316406 282.730469 L 503.636719 282.261719 L 501.042969 281.960938 L 498.089844 281.761719 L 496.300781 281.695312 L 491.5625 281.695312 L 487.269531 281.929688 L 484.765625 282.195312 L 482.976562 282.460938 L 480.472656 282.960938 L 478.953125 283.363281 L 478.058594 283.628906 L 475.375 284.664062 L 473.585938 285.597656 L 472.601562 286.230469 L 471.347656 287.230469 L 470.457031 288.128906 L 469.472656 289.464844 L 468.933594 290.464844 L 468.21875 292.730469 L 468.128906 298.734375 L 468.398438 300 L 468.933594 301.367188 L 469.648438 302.566406 L 470.722656 303.835938 L 471.796875 304.800781 L 473.675781 306.101562 L 475.285156 306.96875 L 476.535156 307.535156 L 478.953125 308.4375 L 479.933594 308.734375 L 482.261719 309.335938 L 484.675781 309.804688 L 487.625 310.203125 L 489.863281 310.402344 L 493.441406 310.570312 L 498 310.570312 L 503.367188 310.371094 L 506.765625 310.101562 L 509.089844 309.835938 L 510.609375 309.601562 L 512.488281 309.234375 L 513.832031 308.902344 L 515.082031 308.535156 L 516.601562 307.96875 L 516.601562 300 L 494.511719 299.96875 L 494.511719 296.234375 L 528.855469 296.199219 L 528.945312 309.234375 L 527.066406 310.136719 L 524.742188 311.003906 L 522.507812 311.671875 L 520.179688 312.238281 L 516.871094 312.871094 L 514.1875 313.269531 L 510.074219 313.738281 L 506.316406 314.039062 L 502.382812 314.238281 L 498.894531 314.335938 L 494.78125 314.371094 L 491.113281 314.304688 L 487.179688 314.105469 L 484.050781 313.835938 L 481.1875 313.503906 L 478.324219 313.070312 L 474.746094 312.371094 L 472.421875 311.804688 L 470.007812 311.101562 L 467.59375 310.269531 L 465.445312 309.371094 L 464.015625 308.667969 L 462.585938 307.867188 L 461.066406 306.867188 L 459.632812 305.734375 L 458.558594 304.703125 L 457.578125 303.535156 L 456.859375 302.433594 L 456.144531 300.933594 L 455.789062 299.734375 L 455.609375 298.699219 Z M 455.609375 293.5 "/>
<path style=" stroke:none;fill-rule:nonzero;fill:rgb(6.27451%,58.823529%,28.235294%);fill-opacity:1;" d="M 532.804688 272.761719 L 532.882812 272.703125 L 564.617188 211.671875 L 574.253906 211.671875 L 606.140625 272.820312 L 594.9375 272.820312 L 586.945312 256.855469 L 551.921875 256.855469 L 544.085938 272.761719 L 532.804688 272.761719 L 555.292969 250.253906 L 583.734375 250.195312 L 569.550781 221.660156 L 569.394531 221.605469 L 569.238281 221.777344 L 555.214844 250.195312 L 555.292969 250.253906 Z M 532.804688 272.761719 "/>
<path style=" stroke:none;fill-rule:nonzero;fill:rgb(96.862745%,70.196078%,16.862745%);fill-opacity:1;" d="M 532.804688 309.105469 L 532.894531 309.097656 L 532.894531 308.929688 L 533.253906 308.550781 L 534.144531 308.03125 L 535.308594 307.601562 L 536.5625 307.265625 L 537.367188 307.089844 L 538.707031 306.835938 L 539.871094 306.652344 L 542.820312 306.273438 L 546.578125 305.917969 L 548.636719 305.769531 L 550.960938 305.625 L 554.269531 305.464844 L 555.789062 305.40625 L 560.441406 305.273438 L 565.714844 305.1875 L 571.53125 305.164062 L 574.214844 305.171875 L 577.878906 305.203125 L 582.886719 305.296875 L 585.75 305.382812 L 587.984375 305.464844 L 590.3125 305.574219 L 593.171875 305.742188 L 595.855469 305.945312 L 598.003906 306.144531 L 600.148438 306.398438 L 601.9375 306.667969 L 603.457031 306.960938 L 604.800781 307.316406 L 605.605469 307.609375 L 606.140625 307.902344 L 593.710938 307.902344 L 592.996094 307.609375 L 592.1875 307.382812 L 590.847656 307.105469 L 589.507812 306.902344 L 588.164062 306.742188 L 585.660156 306.523438 L 583.515625 306.390625 L 580.832031 306.273438 L 578.238281 306.195312 L 575.285156 306.144531 L 573.496094 306.128906 L 568.757812 306.128906 L 564.464844 306.1875 L 561.960938 306.253906 L 560.171875 306.324219 L 557.667969 306.449219 L 556.148438 306.550781 L 555.253906 306.617188 L 552.570312 306.878906 L 550.78125 307.113281 L 549.796875 307.273438 L 548.546875 307.523438 L 547.652344 307.753906 L 546.667969 308.089844 L 546.128906 308.339844 L 545.414062 308.914062 L 545.324219 310.425781 L 545.59375 310.746094 L 546.128906 311.089844 L 546.847656 311.394531 L 547.917969 311.714844 L 548.992188 311.957031 L 550.871094 312.285156 L 552.480469 312.503906 L 553.734375 312.648438 L 556.148438 312.875 L 557.132812 312.949219 L 559.457031 313.101562 L 561.871094 313.21875 L 564.824219 313.320312 L 567.058594 313.371094 L 570.636719 313.410156 L 575.195312 313.410156 L 580.5625 313.363281 L 583.960938 313.292969 L 586.285156 313.226562 L 587.808594 313.167969 L 589.683594 313.074219 L 591.027344 312.992188 L 592.277344 312.898438 L 593.800781 312.757812 L 593.800781 310.746094 L 571.707031 310.738281 L 571.707031 309.796875 L 606.050781 309.789062 L 606.140625 313.074219 L 604.261719 313.300781 L 601.9375 313.519531 L 599.703125 313.691406 L 597.375 313.832031 L 594.066406 313.992188 L 591.382812 314.09375 L 587.269531 314.210938 L 583.515625 314.285156 L 579.578125 314.335938 L 576.089844 314.363281 L 571.976562 314.371094 L 568.308594 314.355469 L 564.375 314.304688 L 561.246094 314.234375 L 558.382812 314.152344 L 555.519531 314.042969 L 551.945312 313.867188 L 549.617188 313.722656 L 547.203125 313.546875 L 544.789062 313.335938 L 542.644531 313.109375 L 541.210938 312.933594 L 539.78125 312.730469 L 538.261719 312.476562 L 536.828125 312.191406 L 535.757812 311.933594 L 534.773438 311.636719 L 534.058594 311.359375 L 533.339844 310.980469 L 532.984375 310.679688 L 532.804688 310.417969 Z M 532.804688 309.105469 "/>
<path style=" stroke:none;fill-rule:nonzero;fill:rgb(83.921569%,15.686275%,22.352941%);fill-opacity:1;" d="M 532.804688 274 L 606.140625 274 L 606.140625 277.207031 L 575.578125 277.234375 L 575.578125 303.984375 L 563.28125 303.984375 L 563.28125 277.265625 L 563.101562 277.207031 L 532.804688 277.207031 Z M 532.804688 274 "/>
<path style=" stroke:none;fill-rule:nonzero;fill:rgb(6.27451%,58.823529%,28.235294%);fill-opacity:1;" d="M 610 310.921875 L 610.078125 310.914062 L 641.8125 301.785156 L 651.449219 301.785156 L 683.335938 310.929688 L 672.132812 310.929688 L 664.140625 308.542969 L 629.117188 308.542969 L 621.285156 310.921875 L 610 310.921875 L 632.488281 307.554688 L 660.929688 307.546875 L 646.746094 303.277344 L 646.589844 303.269531 L 646.433594 303.296875 L 632.410156 307.546875 L 632.488281 307.554688 Z M 610 310.921875 "/>
<path style=" stroke:none;fill-rule:nonzero;fill:rgb(14.509804%,36.078431%,60%);fill-opacity:1;" d="M 610 293.496094 L 610.089844 293.484375 L 610.089844 293.207031 L 610.359375 292.769531 L 610.984375 292.21875 L 611.609375 291.839844 L 613.21875 291.160156 L 615.457031 290.503906 L 617.78125 290 L 619.480469 289.699219 L 621 289.46875 L 624.488281 289.042969 L 626.726562 288.824219 L 629.140625 288.628906 L 632.089844 288.433594 L 634.238281 288.320312 L 639.066406 288.136719 L 642.644531 288.054688 L 645.417969 288.019531 L 651.410156 288.019531 L 654.988281 288.066406 L 657.578125 288.125 L 660.441406 288.214844 L 662.855469 288.320312 L 667.058594 288.570312 L 670.816406 288.894531 L 672.515625 289.078125 L 675.199219 289.433594 L 677.253906 289.78125 L 678.6875 290.078125 L 680.296875 290.503906 L 681.726562 291.023438 L 682.800781 291.609375 L 683.335938 292.105469 L 670.816406 292.105469 L 670.191406 291.644531 L 669.476562 291.285156 L 668.132812 290.816406 L 666.792969 290.480469 L 664.914062 290.148438 L 663.214844 289.929688 L 660.890625 289.710938 L 658.832031 289.574219 L 656.6875 289.46875 L 654.628906 289.402344 L 650.695312 289.332031 L 646.132812 289.332031 L 644.433594 289.355469 L 640.945312 289.445312 L 639.066406 289.527344 L 636.382812 289.6875 L 634.507812 289.835938 L 632.269531 290.066406 L 630.75 290.261719 L 628.871094 290.5625 L 627.53125 290.828125 L 626.007812 291.207031 L 625.117188 291.496094 L 624.308594 291.816406 L 623.59375 292.195312 L 623.058594 292.597656 L 622.699219 293.023438 L 622.523438 293.4375 L 622.523438 295.222656 L 622.699219 295.636719 L 623.148438 296.117188 L 624.308594 296.820312 L 626.007812 297.429688 L 627.976562 297.914062 L 629.855469 298.257812 L 630.929688 298.417969 L 632.359375 298.605469 L 634.59375 298.832031 L 637.816406 299.0625 L 639.691406 299.15625 L 642.554688 299.246094 L 645.507812 299.292969 L 649.441406 299.292969 L 652.929688 299.246094 L 655.253906 299.191406 L 657.667969 299.097656 L 660.976562 298.902344 L 663.035156 298.71875 L 664.824219 298.5 L 666.164062 298.28125 L 667.058594 298.097656 L 668.402344 297.742188 L 669.476562 297.351562 L 670.28125 296.945312 L 670.816406 296.554688 L 683.335938 296.554688 L 682.800781 297.015625 L 681.996094 297.464844 L 681.191406 297.796875 L 679.9375 298.199219 L 678.507812 298.558594 L 676.449219 298.960938 L 674.75 299.226562 L 672.515625 299.511719 L 670.457031 299.730469 L 668.222656 299.925781 L 664.914062 300.15625 L 662.765625 300.273438 L 660.441406 300.375 L 657.667969 300.46875 L 654.179688 300.546875 L 650.425781 300.59375 L 646.9375 300.605469 L 643.179688 300.582031 L 640.410156 300.535156 L 636.742188 300.433594 L 632.179688 300.226562 L 628.871094 300.007812 L 626.277344 299.789062 L 624.042969 299.558594 L 621.539062 299.246094 L 618.316406 298.742188 L 616.351562 298.351562 L 615.007812 298.027344 L 613.488281 297.578125 L 612.414062 297.175781 L 611.164062 296.53125 L 610.269531 295.714844 L 610 295.082031 Z M 610 293.496094 "/>
<path style=" stroke:none;fill-rule:nonzero;fill:rgb(96.862745%,70.196078%,16.862745%);fill-opacity:1;" d="M 610 313.078125 L 610.089844 313.074219 L 610.089844 313.035156 L 610.449219 312.941406 L 611.34375 312.8125 L 612.503906 312.707031 L 613.757812 312.625 L 614.5625 312.582031 L 615.902344 312.519531 L 617.066406 312.472656 L 620.015625 312.382812 L 623.773438 312.292969 L 625.832031 312.257812 L 628.15625 312.222656 L 631.464844 312.183594 L 632.984375 312.167969 L 637.636719 312.136719 L 642.914062 312.113281 L 648.726562 312.109375 L 651.410156 312.109375 L 655.074219 312.121094 L 660.085938 312.140625 L 662.945312 312.164062 L 665.183594 312.183594 L 667.507812 312.210938 L 670.367188 312.25 L 673.050781 312.300781 L 675.199219 312.351562 L 677.34375 312.414062 L 679.132812 312.480469 L 680.652344 312.550781 L 681.996094 312.636719 L 682.800781 312.710938 L 683.335938 312.78125 L 670.90625 312.78125 L 670.191406 312.710938 L 669.386719 312.652344 L 668.042969 312.585938 L 666.703125 312.535156 L 665.359375 312.496094 L 662.855469 312.445312 L 660.710938 312.410156 L 658.027344 312.382812 L 655.433594 312.363281 L 652.480469 312.351562 L 650.695312 312.347656 L 645.953125 312.347656 L 641.660156 312.359375 L 639.15625 312.378906 L 637.367188 312.394531 L 634.863281 312.425781 L 633.34375 312.449219 L 632.449219 312.464844 L 629.765625 312.53125 L 627.976562 312.589844 L 626.992188 312.628906 L 625.742188 312.6875 L 624.847656 312.746094 L 623.863281 312.828125 L 623.328125 312.890625 L 622.609375 313.03125 L 622.523438 313.402344 L 622.789062 313.480469 L 623.328125 313.566406 L 624.042969 313.640625 L 625.117188 313.71875 L 626.1875 313.777344 L 628.066406 313.859375 L 629.675781 313.914062 L 630.929688 313.945312 L 633.34375 314.003906 L 634.328125 314.023438 L 636.652344 314.058594 L 639.066406 314.085938 L 642.019531 314.113281 L 644.253906 314.125 L 647.832031 314.136719 L 652.394531 314.136719 L 657.757812 314.121094 L 661.15625 314.105469 L 663.484375 314.089844 L 665.003906 314.074219 L 666.882812 314.050781 L 668.222656 314.03125 L 669.476562 314.007812 L 670.996094 313.972656 L 670.996094 313.480469 L 648.90625 313.476562 L 648.90625 313.246094 L 683.246094 313.246094 L 683.335938 314.050781 L 681.457031 314.109375 L 679.132812 314.160156 L 676.898438 314.203125 L 674.574219 314.238281 L 671.261719 314.277344 L 668.582031 314.300781 L 664.464844 314.332031 L 660.710938 314.351562 L 656.773438 314.363281 L 653.285156 314.367188 L 649.171875 314.371094 L 645.507812 314.367188 L 641.570312 314.355469 L 638.441406 314.335938 L 635.578125 314.316406 L 632.71875 314.289062 L 629.140625 314.246094 L 626.816406 314.210938 L 624.398438 314.167969 L 621.984375 314.117188 L 619.839844 314.0625 L 618.40625 314.015625 L 616.976562 313.96875 L 615.457031 313.90625 L 614.027344 313.835938 L 612.953125 313.773438 L 611.96875 313.699219 L 611.253906 313.632812 L 610.539062 313.539062 L 610.179688 313.464844 L 610 313.398438 Z M 610 313.078125 "/>
<path style=" stroke:none;fill-rule:nonzero;fill:rgb(83.921569%,15.686275%,22.352941%);fill-opacity:1;" d="M 610 246.722656 L 683.335938 246.722656 L 683.335938 251.019531 L 652.773438 251.054688 L 652.773438 286.839844 L 640.476562 286.839844 L 640.476562 251.09375 L 640.296875 251.019531 L 610 251.019531 Z M 610 246.722656 "/>
<g style="fill:rgb(0%,0%,0%);fill-opacity:1;">
  <use xlink:href="#glyph0-1" x="21.957031" y="318.198242"/>
  <use xlink:href="#glyph0-2" x="27.291016" y="318.198242"/>
  <use xlink:href="#glyph0-1" x="29.958008" y="318.198242"/>
</g>
<g style="fill:rgb(0%,0%,0%);fill-opacity:1;">
  <use xlink:href="#glyph0-1" x="21.957031" y="244.475586"/>
  <use xlink:href="#glyph0-2" x="27.291016" y="244.475586"/>
  <use xlink:href="#glyph0-3" x="29.958008" y="244.475586"/>
</g>
<g style="fill:rgb(0%,0%,0%);fill-opacity:1;">
  <use xlink:href="#glyph0-4" x="21.957031" y="170.75293"/>
  <use xlink:href="#glyph0-2" x="27.291016" y="170.75293"/>
  <use xlink:href="#glyph0-1" x="29.958008" y="170.75293"/>
</g>
<g style="fill:rgb(0%,0%,0%);fill-opacity:1;">
  <use xlink:href="#glyph0-4" x="21.957031" y="97.03418"/>
  <use xlink:href="#glyph0-2" x="27.291016" y="97.03418"/>
  <use xlink:href="#glyph0-3" x="29.958008" y="97.03418"/>
</g>
<g style="fill:rgb(0%,0%,0%);fill-opacity:1;">
  <use xlink:href="#glyph0-5" x="21.957031" y="23.311523"/>
  <use xlink:href="#glyph0-2" x="27.291016" y="23.311523"/>
  <use xlink:href="#glyph0-1" x="29.958008" y="23.311523"/>
</g>
<g style="fill:rgb(0%,0%,0%);fill-opacity:1;">
  <use xlink:href="#glyph0-4" x="103.296875" y="338.19043"/>
</g>
<g style="fill:rgb(0%,0%,0%);fill-opacity:1;">
  <use xlink:href="#glyph0-5" x="180.492188" y="338.19043"/>
</g>
<g style="fill:rgb(0%,0%,0%);fill-opacity:1;">
  <use xlink:href="#glyph0-6" x="257.6875" y="338.19043"/>
</g>
<g style="fill:rgb(0%,0%,0%);fill-opacity:1;">
  <use xlink:href="#glyph0-7" x="334.886719" y="338.19043"/>
</g>
<g style="fill:rgb(0%,0%,0%);fill-opacity:1;">
  <use xlink:href="#glyph0-3" x="412.082031" y="338.19043"/>
</g>
<g style="fill:rgb(0%,0%,0%);fill-opacity:1;">
  <use xlink:href="#glyph0-8" x="489.277344" y="338.19043"/>
</g>
<g style="fill:rgb(0%,0%,0%);fill-opacity:1;">
  <use xlink:href="#glyph0-9" x="566.472656" y="338.19043"/>
</g>
<g style="fill:rgb(0%,0%,0%);fill-opacity:1;">
  <use xlink:href="#glyph0-10" x="643.667969" y="338.19043"/>
</g>
<g style="fill:rgb(0%,0%,0%);fill-opacity:1;">
  <use xlink:href="#glyph1-1" x="14.412109" y="178.015625"/>
  <use xlink:href="#glyph1-2" x="14.412109" y="170.011719"/>
  <use xlink:href="#glyph1-3" x="14.412109" y="167.347656"/>
  <use xlink:href="#glyph1-4" x="14.412109" y="164.011719"/>
</g>
</g>
</svg>
