<?xml version="1.0" encoding="UTF-8"?>
<svg xmlns="http://www.w3.org/2000/svg" xmlns:xlink="http://www.w3.org/1999/xlink" width="720pt" height="360pt" viewBox="0 0 720 360" version="1.1">
<defs>
<g>
<symbol overflow="visible" id="glyph0-0">
<path style="stroke:none;" d=""/>
</symbol>
<symbol overflow="visible" id="glyph0-1">
<path style="stroke:none;" d="M 2.640625 -6.796875 C 2 -6.796875 1.421875 -6.53125 1.078125 -6.046875 C 0.640625 -5.453125 0.40625 -4.546875 0.40625 -3.296875 C 0.40625 -1 1.1875 0.21875 2.640625 0.21875 C 4.078125 0.21875 4.859375 -1 4.859375 -3.234375 C 4.859375 -4.5625 4.65625 -5.4375 4.203125 -6.046875 C 3.84375 -6.53125 3.28125 -6.796875 2.640625 -6.796875 Z M 2.640625 -6.046875 C 3.546875 -6.046875 4 -5.125 4 -3.3125 C 4 -1.375 3.5625 -0.484375 2.625 -0.484375 C 1.734375 -0.484375 1.28125 -1.421875 1.28125 -3.28125 C 1.28125 -5.140625 1.734375 -6.046875 2.640625 -6.046875 Z M 2.640625 -6.046875 "/>
</symbol>
<symbol overflow="visible" id="glyph0-2">
<path style="stroke:none;" d="M 1.828125 -1 L 0.828125 -1 L 0.828125 0 L 1.828125 0 Z M 1.828125 -1 "/>
</symbol>
<symbol overflow="visible" id="glyph0-3">
<path style="stroke:none;" d="M 4.5625 -6.796875 L 1.0625 -6.796875 L 0.546875 -3.09375 L 1.328125 -3.09375 C 1.71875 -3.5625 2.046875 -3.734375 2.578125 -3.734375 C 3.484375 -3.734375 4.0625 -3.109375 4.0625 -2.09375 C 4.0625 -1.125 3.484375 -0.53125 2.578125 -0.53125 C 1.828125 -0.53125 1.375 -0.90625 1.1875 -1.671875 L 0.328125 -1.671875 C 0.453125 -1.109375 0.546875 -0.84375 0.75 -0.59375 C 1.125 -0.078125 1.828125 0.21875 2.59375 0.21875 C 3.96875 0.21875 4.921875 -0.78125 4.921875 -2.21875 C 4.921875 -3.5625 4.03125 -4.484375 2.71875 -4.484375 C 2.25 -4.484375 1.859375 -4.359375 1.46875 -4.0625 L 1.734375 -5.96875 L 4.5625 -5.96875 Z M 4.5625 -6.796875 "/>
</symbol>
<symbol overflow="visible" id="glyph0-4">
<path style="stroke:none;" d="M 2.484375 -4.84375 L 2.484375 0 L 3.328125 0 L 3.328125 -6.796875 L 2.765625 -6.796875 C 2.46875 -5.75 2.28125 -5.609375 0.984375 -5.453125 L 0.984375 -4.84375 Z M 2.484375 -4.84375 "/>
</symbol>
<symbol overflow="visible" id="glyph0-5">
<path style="stroke:none;" d="M 4.859375 -0.828125 L 1.28125 -0.828125 C 1.359375 -1.390625 1.671875 -1.75 2.5 -2.234375 L 3.46875 -2.75 C 4.40625 -3.265625 4.90625 -3.96875 4.90625 -4.8125 C 4.90625 -5.375 4.671875 -5.90625 4.265625 -6.265625 C 3.859375 -6.625 3.375 -6.796875 2.71875 -6.796875 C 1.859375 -6.796875 1.21875 -6.5 0.84375 -5.921875 C 0.609375 -5.5625 0.5 -5.125 0.484375 -4.4375 L 1.328125 -4.4375 C 1.359375 -4.90625 1.40625 -5.1875 1.53125 -5.40625 C 1.75 -5.8125 2.1875 -6.0625 2.703125 -6.0625 C 3.46875 -6.0625 4.03125 -5.515625 4.03125 -4.78125 C 4.03125 -4.25 3.71875 -3.796875 3.125 -3.4375 L 2.234375 -2.9375 C 0.8125 -2.140625 0.40625 -1.5 0.328125 0 L 4.859375 0 Z M 4.859375 -0.828125 "/>
</symbol>
<symbol overflow="visible" id="glyph0-6">
<path style="stroke:none;" d="M 2.125 -3.125 L 2.578125 -3.125 C 3.515625 -3.125 3.984375 -2.703125 3.984375 -1.890625 C 3.984375 -1.03125 3.46875 -0.53125 2.578125 -0.53125 C 1.65625 -0.53125 1.203125 -0.984375 1.15625 -1.96875 L 0.3125 -1.96875 C 0.34375 -1.421875 0.4375 -1.078125 0.609375 -0.765625 C 0.953125 -0.109375 1.625 0.21875 2.546875 0.21875 C 3.953125 0.21875 4.859375 -0.609375 4.859375 -1.90625 C 4.859375 -2.765625 4.515625 -3.25 3.703125 -3.515625 C 4.34375 -3.765625 4.65625 -4.25 4.65625 -4.9375 C 4.65625 -6.109375 3.875 -6.796875 2.578125 -6.796875 C 1.203125 -6.796875 0.484375 -6.046875 0.453125 -4.609375 L 1.296875 -4.609375 C 1.3125 -5.015625 1.34375 -5.25 1.453125 -5.453125 C 1.640625 -5.828125 2.0625 -6.0625 2.59375 -6.0625 C 3.34375 -6.0625 3.796875 -5.625 3.796875 -4.90625 C 3.796875 -4.421875 3.609375 -4.140625 3.25 -3.984375 C 3.015625 -3.890625 2.71875 -3.84375 2.125 -3.84375 Z M 2.125 -3.125 "/>
</symbol>
<symbol overflow="visible" id="glyph0-7">
<path style="stroke:none;" d="M 3.140625 -1.625 L 3.140625 0 L 3.984375 0 L 3.984375 -1.625 L 4.984375 -1.625 L 4.984375 -2.390625 L 3.984375 -2.390625 L 3.984375 -6.796875 L 3.359375 -6.796875 L 0.265625 -2.515625 L 0.265625 -1.625 Z M 3.140625 -2.390625 L 1 -2.390625 L 3.140625 -5.359375 Z M 3.140625 -2.390625 "/>
</symbol>
<symbol overflow="visible" id="glyph0-8">
<path style="stroke:none;" d="M 4.78125 -5.03125 C 4.609375 -6.140625 3.890625 -6.796875 2.84375 -6.796875 C 2.09375 -6.796875 1.421875 -6.4375 1.03125 -5.828125 C 0.609375 -5.171875 0.40625 -4.34375 0.40625 -3.09375 C 0.40625 -1.953125 0.578125 -1.234375 0.984375 -0.625 C 1.359375 -0.078125 1.953125 0.21875 2.703125 0.21875 C 3.984375 0.21875 4.921875 -0.734375 4.921875 -2.078125 C 4.921875 -3.34375 4.0625 -4.234375 2.84375 -4.234375 C 2.171875 -4.234375 1.640625 -3.96875 1.28125 -3.46875 C 1.28125 -5.125 1.828125 -6.046875 2.796875 -6.046875 C 3.390625 -6.046875 3.796875 -5.671875 3.9375 -5.03125 Z M 2.734375 -3.484375 C 3.546875 -3.484375 4.0625 -2.921875 4.0625 -2 C 4.0625 -1.15625 3.484375 -0.53125 2.703125 -0.53125 C 1.921875 -0.53125 1.328125 -1.1875 1.328125 -2.046875 C 1.328125 -2.890625 1.90625 -3.484375 2.734375 -3.484375 Z M 2.734375 -3.484375 "/>
</symbol>
<symbol overflow="visible" id="glyph0-9">
<path style="stroke:none;" d="M 4.984375 -6.796875 L 0.4375 -6.796875 L 0.4375 -5.96875 L 4.109375 -5.96875 C 2.5 -3.65625 1.828125 -2.234375 1.328125 0 L 2.21875 0 C 2.59375 -2.171875 3.453125 -4.046875 4.984375 -6.09375 Z M 4.984375 -6.796875 "/>
</symbol>
<symbol overflow="visible" id="glyph0-10">
<path style="stroke:none;" d="M 3.75 -3.578125 C 4.453125 -4 4.6875 -4.34375 4.6875 -4.984375 C 4.6875 -6.046875 3.84375 -6.796875 2.640625 -6.796875 C 1.4375 -6.796875 0.59375 -6.046875 0.59375 -4.984375 C 0.59375 -4.359375 0.828125 -4.015625 1.515625 -3.578125 C 0.734375 -3.203125 0.359375 -2.640625 0.359375 -1.890625 C 0.359375 -0.640625 1.296875 0.21875 2.640625 0.21875 C 3.984375 0.21875 4.921875 -0.640625 4.921875 -1.875 C 4.921875 -2.640625 4.53125 -3.203125 3.75 -3.578125 Z M 2.640625 -6.046875 C 3.359375 -6.046875 3.8125 -5.625 3.8125 -4.96875 C 3.8125 -4.34375 3.34375 -3.921875 2.640625 -3.921875 C 1.921875 -3.921875 1.453125 -4.34375 1.453125 -4.984375 C 1.453125 -5.625 1.921875 -6.046875 2.640625 -6.046875 Z M 2.640625 -3.203125 C 3.484375 -3.203125 4.0625 -2.671875 4.0625 -1.875 C 4.0625 -1.0625 3.484375 -0.53125 2.625 -0.53125 C 1.796875 -0.53125 1.21875 -1.078125 1.21875 -1.875 C 1.21875 -2.671875 1.796875 -3.203125 2.640625 -3.203125 Z M 2.640625 -3.203125 "/>
</symbol>
<symbol overflow="visible" id="glyph0-11">
<path style="stroke:none;" d="M 0.515625 -1.546875 C 0.671875 -0.4375 1.40625 0.21875 2.4375 0.21875 C 3.1875 0.21875 3.859375 -0.140625 4.265625 -0.75 C 4.6875 -1.40625 4.890625 -2.25 4.890625 -3.484375 C 4.890625 -4.625 4.703125 -5.359375 4.3125 -5.953125 C 3.9375 -6.5 3.34375 -6.796875 2.59375 -6.796875 C 1.296875 -6.796875 0.359375 -5.84375 0.359375 -4.515625 C 0.359375 -3.25 1.234375 -2.34375 2.453125 -2.34375 C 3.09375 -2.34375 3.5625 -2.578125 4.015625 -3.109375 C 4 -1.453125 3.46875 -0.53125 2.5 -0.53125 C 1.90625 -0.53125 1.484375 -0.90625 1.359375 -1.546875 Z M 2.578125 -6.0625 C 3.375 -6.0625 3.96875 -5.40625 3.96875 -4.53125 C 3.96875 -3.6875 3.375 -3.09375 2.546875 -3.09375 C 1.734375 -3.09375 1.234375 -3.671875 1.234375 -4.578125 C 1.234375 -5.4375 1.796875 -6.0625 2.578125 -6.0625 Z M 2.578125 -6.0625 "/>
</symbol>
<symbol overflow="visible" id="glyph1-0">
<path style="stroke:none;" d=""/>
</symbol>
<symbol overflow="visible" id="glyph1-1">
<path style="stroke:none;" d="M 0 -0.953125 L 0 -4.890625 C 0 -5.71875 -0.234375 -6.34375 -0.734375 -6.796875 C -1.1875 -7.234375 -1.8125 -7.46875 -2.5 -7.46875 C -3.546875 -7.46875 -4.1875 -7 -4.625 -5.875 C -4.984375 -6.671875 -5.640625 -7.09375 -6.53125 -7.09375 C -7.15625 -7.09375 -7.734375 -6.859375 -8.140625 -6.390625 C -8.5625 -5.9375 -8.75 -5.34375 -8.75 -4.5 L -8.75 -0.953125 Z M -4.984375 -2.0625 L -7.765625 -2.0625 L -7.765625 -4.21875 C -7.765625 -4.84375 -7.6875 -5.203125 -7.453125 -5.5 C -7.21875 -5.8125 -6.859375 -5.96875 -6.375 -5.96875 C -5.90625 -5.96875 -5.53125 -5.8125 -5.296875 -5.5 C -5.0625 -5.203125 -4.984375 -4.84375 -4.984375 -4.21875 Z M -0.984375 -2.0625 L -4 -2.0625 L -4 -4.78125 C -4 -5.328125 -3.859375 -5.6875 -3.578125 -5.953125 C -3.296875 -6.21875 -2.921875 -6.359375 -2.484375 -6.359375 C -2.0625 -6.359375 -1.6875 -6.21875 -1.40625 -5.953125 C -1.109375 -5.6875 -0.984375 -5.328125 -0.984375 -4.78125 Z M -0.984375 -2.0625 "/>
</symbol>
<symbol overflow="visible" id="glyph1-2">
<path style="stroke:none;" d="M -6.28125 -1.796875 L -6.28125 -0.796875 L 0 -0.796875 L 0 -1.796875 Z M -8.75 -1.796875 L -8.75 -0.796875 L -7.484375 -0.796875 L -7.484375 -1.796875 Z M -8.75 -1.796875 "/>
</symbol>
<symbol overflow="visible" id="glyph1-3">
<path style="stroke:none;" d="M -6.28125 -3.046875 L -6.28125 -2.015625 L -8.015625 -2.015625 L -8.015625 -1.015625 L -6.28125 -1.015625 L -6.28125 -0.171875 L -5.46875 -0.171875 L -5.46875 -1.015625 L -0.71875 -1.015625 C -0.078125 -1.015625 0.28125 -1.453125 0.28125 -2.234375 C 0.28125 -2.46875 0.25 -2.71875 0.1875 -3.046875 L -0.640625 -3.046875 C -0.609375 -2.921875 -0.59375 -2.765625 -0.59375 -2.5625 C -0.59375 -2.140625 -0.71875 -2.015625 -1.15625 -2.015625 L -5.46875 -2.015625 L -5.46875 -3.046875 Z M -6.28125 -3.046875 "/>
</symbol>
<symbol overflow="visible" id="glyph1-4">
<path style="stroke:none;" d="M -4.53125 -5.25 C -5.765625 -5.25 -6.46875 -4.421875 -6.46875 -2.96875 C -6.46875 -1.515625 -5.71875 -0.5625 -4.546875 -0.5625 C -3.5625 -0.5625 -3.09375 -1.0625 -2.734375 -2.5625 L -2.515625 -3.484375 C -2.34375 -4.1875 -2.09375 -4.46875 -1.625 -4.46875 C -1.046875 -4.46875 -0.640625 -3.875 -0.640625 -3 C -0.640625 -2.453125 -0.796875 -2 -1.0625 -1.75 C -1.25 -1.59375 -1.421875 -1.53125 -1.875 -1.46875 L -1.875 -0.40625 C -0.421875 -0.453125 0.28125 -1.265625 0.28125 -2.921875 C 0.28125 -4.5 -0.5 -5.515625 -1.71875 -5.515625 C -2.65625 -5.515625 -3.171875 -4.984375 -3.46875 -3.734375 L -3.703125 -2.765625 C -3.890625 -1.953125 -4.15625 -1.609375 -4.59375 -1.609375 C -5.171875 -1.609375 -5.546875 -2.125 -5.546875 -2.9375 C -5.546875 -3.75 -5.203125 -4.171875 -4.53125 -4.203125 Z M -4.53125 -5.25 "/>
</symbol>
</g>
</defs>
<g id="surface72905">
<rect x="0" y="0" width="720" height="360" style="fill:rgb(100%,100%,100%);fill-opacity:1;stroke:none;"/>
<path style=" stroke:none;fill-rule:nonzero;fill:rgb(6.27451%,58.823529%,28.235294%);fill-opacity:1;" d="M 69.628906 314.371094 L 69.6875 314.367188 L 92.722656 313.273438 L 99.722656 313.273438 L 122.875 314.371094 L 114.738281 314.371094 L 108.9375 314.082031 L 83.507812 314.082031 L 77.820312 314.371094 L 69.628906 314.371094 L 85.957031 313.964844 L 106.605469 313.964844 L 96.308594 313.453125 L 96.195312 313.449219 L 96.082031 313.453125 L 85.898438 313.964844 L 85.957031 313.964844 Z M 69.628906 314.371094 "/>
<path style=" stroke:none;fill-rule:nonzero;fill:rgb(14.509804%,36.078431%,60%);fill-opacity:1;" d="M 69.628906 305.25 L 69.695312 305.246094 L 69.695312 305.121094 L 69.890625 304.921875 L 70.34375 304.671875 L 70.796875 304.5 L 71.96875 304.191406 L 73.589844 303.894531 L 75.277344 303.664062 L 76.511719 303.527344 L 77.617188 303.425781 L 80.148438 303.230469 L 81.773438 303.132812 L 83.523438 303.042969 L 85.667969 302.953125 L 87.226562 302.902344 L 90.730469 302.820312 L 93.328125 302.78125 L 95.34375 302.765625 L 99.691406 302.765625 L 102.289062 302.789062 L 104.171875 302.8125 L 106.25 302.855469 L 108.003906 302.902344 L 111.054688 303.015625 L 113.78125 303.164062 L 115.015625 303.246094 L 116.964844 303.410156 L 118.457031 303.566406 L 119.496094 303.703125 L 120.664062 303.894531 L 121.703125 304.128906 L 122.484375 304.394531 L 122.875 304.621094 L 113.78125 304.621094 L 113.328125 304.410156 L 112.808594 304.25 L 111.835938 304.035156 L 110.859375 303.882812 L 109.496094 303.734375 L 108.265625 303.632812 L 106.574219 303.535156 L 105.082031 303.472656 L 103.523438 303.425781 L 102.03125 303.394531 L 99.171875 303.363281 L 95.863281 303.363281 L 94.628906 303.371094 L 92.097656 303.414062 L 90.730469 303.449219 L 88.785156 303.523438 L 87.421875 303.589844 L 85.796875 303.695312 L 84.695312 303.785156 L 83.328125 303.921875 L 82.355469 304.039062 L 81.253906 304.210938 L 80.601562 304.34375 L 80.019531 304.488281 L 79.5 304.660156 L 79.109375 304.84375 L 78.851562 305.039062 L 78.71875 305.226562 L 78.71875 306.035156 L 78.851562 306.222656 L 79.175781 306.441406 L 80.019531 306.761719 L 81.253906 307.035156 L 82.679688 307.257812 L 84.042969 307.414062 L 84.824219 307.484375 L 85.863281 307.570312 L 87.484375 307.671875 L 89.824219 307.777344 L 91.1875 307.820312 L 93.265625 307.863281 L 95.40625 307.882812 L 98.265625 307.882812 L 100.796875 307.863281 L 102.484375 307.835938 L 104.238281 307.792969 L 106.640625 307.703125 L 108.132812 307.621094 L 109.433594 307.523438 L 110.40625 307.421875 L 111.054688 307.339844 L 112.03125 307.175781 L 112.808594 307 L 113.394531 306.816406 L 113.78125 306.640625 L 122.875 306.640625 L 122.484375 306.847656 L 121.898438 307.050781 L 121.316406 307.203125 L 120.40625 307.386719 L 119.367188 307.546875 L 117.875 307.730469 L 116.640625 307.851562 L 115.015625 307.980469 L 113.523438 308.082031 L 111.898438 308.167969 L 109.496094 308.273438 L 107.9375 308.324219 L 106.25 308.375 L 104.238281 308.414062 L 101.707031 308.453125 L 98.976562 308.472656 L 96.445312 308.476562 L 93.71875 308.46875 L 91.707031 308.445312 L 89.042969 308.398438 L 85.730469 308.304688 L 83.328125 308.207031 L 81.445312 308.105469 L 79.824219 308.003906 L 78.003906 307.863281 L 75.667969 307.632812 L 74.238281 307.453125 L 73.265625 307.308594 L 72.160156 307.105469 L 71.382812 306.921875 L 70.472656 306.628906 L 69.824219 306.257812 L 69.628906 305.972656 Z M 69.628906 305.25 "/>
<path style=" stroke:none;fill-rule:nonzero;fill:rgb(96.862745%,70.196078%,16.862745%);fill-opacity:1;" d="M 69.628906 310.699219 L 69.695312 310.699219 L 69.695312 310.652344 L 69.953125 310.554688 L 70.601562 310.414062 L 71.449219 310.300781 L 72.355469 310.214844 L 72.941406 310.167969 L 73.914062 310.101562 L 74.757812 310.050781 L 76.902344 309.949219 L 79.628906 309.855469 L 81.121094 309.816406 L 82.808594 309.78125 L 85.214844 309.738281 L 86.316406 309.722656 L 89.691406 309.6875 L 93.523438 309.664062 L 97.746094 309.65625 L 99.691406 309.660156 L 102.355469 309.667969 L 105.992188 309.691406 L 108.070312 309.714844 L 109.691406 309.738281 L 111.378906 309.765625 L 113.457031 309.808594 L 115.40625 309.863281 L 116.964844 309.917969 L 118.523438 309.984375 L 119.820312 310.054688 L 120.925781 310.132812 L 121.898438 310.226562 L 122.484375 310.304688 L 122.875 310.382812 L 113.847656 310.382812 L 113.328125 310.304688 L 112.742188 310.246094 L 111.769531 310.171875 L 110.796875 310.117188 L 109.820312 310.074219 L 108.003906 310.015625 L 106.445312 309.980469 L 104.496094 309.949219 L 102.613281 309.929688 L 100.472656 309.917969 L 99.171875 309.914062 L 95.730469 309.914062 L 92.613281 309.929688 L 90.796875 309.945312 L 89.5 309.964844 L 87.679688 309.996094 L 86.578125 310.023438 L 85.925781 310.042969 L 83.980469 310.109375 L 82.679688 310.171875 L 81.964844 310.214844 L 81.058594 310.28125 L 80.40625 310.34375 L 79.695312 310.429688 L 79.304688 310.496094 L 78.785156 310.648438 L 78.71875 311.050781 L 78.914062 311.132812 L 79.304688 311.226562 L 79.824219 311.304688 L 80.601562 311.390625 L 81.382812 311.453125 L 82.746094 311.539062 L 83.914062 311.597656 L 84.824219 311.636719 L 86.578125 311.695312 L 87.289062 311.714844 L 88.980469 311.757812 L 90.730469 311.789062 L 92.875 311.816406 L 94.5 311.828125 L 97.09375 311.839844 L 100.40625 311.839844 L 104.304688 311.824219 L 106.769531 311.808594 L 108.457031 311.789062 L 109.5625 311.773438 L 110.925781 311.75 L 111.898438 311.726562 L 112.808594 311.703125 L 113.914062 311.664062 L 113.914062 311.132812 L 97.875 311.132812 L 97.875 310.882812 L 122.808594 310.878906 L 122.875 311.75 L 121.511719 311.808594 L 119.820312 311.867188 L 118.199219 311.914062 L 116.511719 311.949219 L 114.109375 311.992188 L 112.160156 312.019531 L 109.171875 312.050781 L 106.445312 312.070312 L 103.589844 312.082031 L 101.054688 312.089844 L 98.070312 312.09375 L 95.40625 312.089844 L 92.550781 312.074219 L 90.277344 312.058594 L 88.199219 312.035156 L 86.121094 312.003906 L 83.523438 311.960938 L 81.835938 311.921875 L 80.082031 311.875 L 78.332031 311.820312 L 76.773438 311.757812 L 75.734375 311.710938 L 74.695312 311.660156 L 73.589844 311.59375 L 72.550781 311.515625 L 71.773438 311.449219 L 71.058594 311.371094 L 70.539062 311.296875 L 70.019531 311.195312 L 69.757812 311.117188 L 69.628906 311.046875 Z M 69.628906 310.699219 "/>
<path style=" stroke:none;fill-rule:nonzero;fill:rgb(83.921569%,15.686275%,22.352941%);fill-opacity:1;" d="M 69.628906 295.628906 L 122.875 295.628906 L 122.875 296.265625 L 100.683594 296.273438 L 100.683594 301.585938 L 91.753906 301.585938 L 91.753906 296.277344 L 91.625 296.265625 L 69.628906 296.265625 Z M 69.628906 295.628906 "/>
<path style=" stroke:none;fill-rule:nonzero;fill:rgb(6.27451%,58.823529%,28.235294%);fill-opacity:1;" d="M 181.722656 310.773438 L 181.777344 310.769531 L 204.816406 307.695312 L 211.8125 307.695312 L 234.964844 310.773438 L 226.832031 310.773438 L 221.03125 309.972656 L 195.601562 309.972656 L 189.914062 310.773438 L 181.722656 310.773438 L 198.046875 309.636719 L 218.695312 309.636719 L 208.402344 308.195312 L 208.289062 308.195312 L 208.171875 308.203125 L 197.992188 309.636719 L 198.046875 309.636719 Z M 181.722656 310.773438 "/>
<path style=" stroke:none;fill-rule:nonzero;fill:rgb(14.509804%,36.078431%,60%);fill-opacity:1;" d="M 181.722656 285.292969 L 181.785156 285.277344 L 181.785156 284.992188 L 181.980469 284.535156 L 182.4375 283.960938 L 182.890625 283.566406 L 184.058594 282.859375 L 185.683594 282.175781 L 187.371094 281.652344 L 188.605469 281.339844 L 189.707031 281.097656 L 192.242188 280.65625 L 193.863281 280.429688 L 195.617188 280.226562 L 197.761719 280.023438 L 199.320312 279.902344 L 202.824219 279.710938 L 205.421875 279.625 L 207.433594 279.589844 L 211.785156 279.589844 L 214.382812 279.636719 L 216.265625 279.699219 L 218.34375 279.792969 L 220.097656 279.902344 L 223.148438 280.164062 L 225.875 280.5 L 227.109375 280.691406 L 229.058594 281.0625 L 230.550781 281.421875 L 231.589844 281.734375 L 232.757812 282.175781 L 233.796875 282.714844 L 234.578125 283.328125 L 234.964844 283.84375 L 225.875 283.84375 L 225.421875 283.363281 L 224.902344 282.992188 L 223.925781 282.5 L 222.953125 282.152344 L 221.589844 281.804688 L 220.355469 281.578125 L 218.667969 281.351562 L 217.175781 281.207031 L 215.617188 281.097656 L 214.121094 281.027344 L 211.265625 280.957031 L 207.953125 280.957031 L 206.722656 280.980469 L 204.1875 281.074219 L 202.824219 281.160156 L 200.875 281.328125 L 199.511719 281.484375 L 197.890625 281.722656 L 196.785156 281.925781 L 195.421875 282.238281 L 194.449219 282.511719 L 193.34375 282.90625 L 192.695312 283.207031 L 192.109375 283.542969 L 191.589844 283.9375 L 191.203125 284.355469 L 190.941406 284.800781 L 190.8125 285.230469 L 190.8125 287.085938 L 190.941406 287.519531 L 191.265625 288.023438 L 192.109375 288.753906 L 193.34375 289.386719 L 194.773438 289.890625 L 196.136719 290.25 L 196.917969 290.417969 L 197.953125 290.609375 L 199.578125 290.847656 L 201.914062 291.085938 L 203.28125 291.183594 L 205.355469 291.277344 L 207.5 291.328125 L 210.355469 291.328125 L 212.890625 291.277344 L 214.578125 291.21875 L 216.332031 291.125 L 218.734375 290.917969 L 220.226562 290.726562 L 221.523438 290.5 L 222.5 290.273438 L 223.148438 290.082031 L 224.121094 289.710938 L 224.902344 289.304688 L 225.484375 288.882812 L 225.875 288.476562 L 234.964844 288.476562 L 234.578125 288.957031 L 233.992188 289.421875 L 233.40625 289.769531 L 232.5 290.1875 L 231.460938 290.5625 L 229.964844 290.980469 L 228.734375 291.253906 L 227.109375 291.554688 L 225.617188 291.78125 L 223.992188 291.984375 L 221.589844 292.226562 L 220.03125 292.34375 L 218.34375 292.453125 L 216.332031 292.546875 L 213.796875 292.632812 L 211.070312 292.679688 L 208.539062 292.691406 L 205.8125 292.667969 L 203.800781 292.621094 L 201.136719 292.511719 L 197.824219 292.296875 L 195.421875 292.070312 L 193.539062 291.84375 L 191.917969 291.601562 L 190.097656 291.277344 L 187.761719 290.753906 L 186.332031 290.34375 L 185.359375 290.007812 L 184.253906 289.542969 L 183.476562 289.125 L 182.566406 288.453125 L 181.917969 287.601562 L 181.722656 286.945312 Z M 181.722656 285.292969 "/>
<path style=" stroke:none;fill-rule:nonzero;fill:rgb(96.862745%,70.196078%,16.862745%);fill-opacity:1;" d="M 181.722656 299.285156 L 181.785156 299.273438 L 181.785156 299.042969 L 182.046875 298.523438 L 182.695312 297.808594 L 183.539062 297.21875 L 184.449219 296.757812 L 185.035156 296.515625 L 186.007812 296.167969 L 186.851562 295.914062 L 188.996094 295.394531 L 191.722656 294.910156 L 193.214844 294.703125 L 194.902344 294.507812 L 197.304688 294.289062 L 198.410156 294.207031 L 201.785156 294.023438 L 205.617188 293.90625 L 209.835938 293.871094 L 211.785156 293.882812 L 214.449219 293.929688 L 218.082031 294.054688 L 220.160156 294.171875 L 221.785156 294.289062 L 223.472656 294.4375 L 225.550781 294.667969 L 227.5 294.945312 L 229.058594 295.222656 L 230.617188 295.570312 L 231.914062 295.9375 L 233.019531 296.34375 L 233.992188 296.828125 L 234.578125 297.230469 L 234.964844 297.636719 L 225.941406 297.636719 L 225.421875 297.230469 L 224.835938 296.917969 L 223.863281 296.539062 L 222.890625 296.261719 L 221.914062 296.042969 L 220.097656 295.742188 L 218.539062 295.558594 L 216.589844 295.394531 L 214.707031 295.292969 L 212.566406 295.222656 L 211.265625 295.199219 L 207.824219 295.199219 L 204.707031 295.28125 L 202.890625 295.371094 L 201.589844 295.464844 L 199.773438 295.636719 L 198.667969 295.777344 L 198.019531 295.871094 L 196.070312 296.226562 L 194.773438 296.550781 L 194.058594 296.769531 L 193.148438 297.117188 L 192.5 297.429688 L 191.785156 297.890625 L 191.398438 298.234375 L 190.878906 299.019531 L 190.8125 301.097656 L 191.007812 301.539062 L 191.398438 302.011719 L 191.917969 302.425781 L 192.695312 302.867188 L 193.476562 303.199219 L 194.839844 303.652344 L 196.007812 303.949219 L 196.917969 304.148438 L 198.667969 304.457031 L 199.382812 304.5625 L 201.070312 304.769531 L 202.824219 304.933594 L 204.96875 305.070312 L 206.589844 305.140625 L 209.1875 305.199219 L 212.5 305.199219 L 216.394531 305.128906 L 218.863281 305.035156 L 220.550781 304.945312 L 221.65625 304.863281 L 223.019531 304.734375 L 223.992188 304.621094 L 224.902344 304.492188 L 226.003906 304.296875 L 226.003906 301.539062 L 209.96875 301.527344 L 209.96875 300.234375 L 234.902344 300.222656 L 234.964844 304.734375 L 233.601562 305.046875 L 231.914062 305.347656 L 230.292969 305.578125 L 228.601562 305.773438 L 226.199219 305.996094 L 224.253906 306.132812 L 221.265625 306.292969 L 218.539062 306.398438 L 215.679688 306.46875 L 213.148438 306.503906 L 210.164062 306.515625 L 207.5 306.492188 L 204.644531 306.421875 L 202.371094 306.328125 L 200.292969 306.214844 L 198.214844 306.0625 L 195.617188 305.820312 L 193.929688 305.625 L 192.175781 305.382812 L 190.421875 305.09375 L 188.863281 304.78125 L 187.824219 304.539062 L 186.785156 304.261719 L 185.683594 303.917969 L 184.644531 303.523438 L 183.863281 303.164062 L 183.152344 302.761719 L 182.632812 302.378906 L 182.113281 301.859375 L 181.851562 301.445312 L 181.722656 301.085938 Z M 181.722656 299.285156 "/>
<path style=" stroke:none;fill-rule:nonzero;fill:rgb(83.921569%,15.686275%,22.352941%);fill-opacity:1;" d="M 181.722656 311.953125 L 234.964844 311.953125 L 234.964844 312.214844 L 212.777344 312.214844 L 212.777344 314.371094 L 203.847656 314.371094 L 203.847656 312.21875 L 203.71875 312.214844 L 181.722656 312.214844 Z M 181.722656 311.953125 "/>
<path style=" stroke:none;fill-rule:nonzero;fill:rgb(6.27451%,58.823529%,28.235294%);fill-opacity:1;" d="M 237.769531 314.09375 L 237.824219 313.820312 L 260.863281 20.664062 L 267.859375 20.664062 L 291.011719 314.371094 L 282.878906 314.371094 L 277.074219 237.703125 L 251.648438 237.703125 L 245.960938 314.09375 L 237.769531 314.09375 L 254.09375 205.988281 L 274.742188 205.710938 L 264.449219 68.648438 L 264.332031 68.375 L 264.21875 69.199219 L 254.039062 205.710938 L 254.09375 205.988281 Z M 237.769531 314.09375 "/>
<path style=" stroke:none;fill-rule:nonzero;fill:rgb(6.27451%,58.823529%,28.235294%);fill-opacity:1;" d="M 293.816406 296.058594 L 293.871094 295.867188 L 316.910156 91.492188 L 323.90625 91.492188 L 347.058594 296.25 L 338.925781 296.25 L 333.121094 242.804688 L 307.695312 242.804688 L 302.007812 296.058594 L 293.816406 296.058594 L 310.140625 220.691406 L 330.789062 220.5 L 320.492188 124.945312 L 320.378906 124.753906 L 320.265625 125.332031 L 310.082031 220.5 L 310.140625 220.691406 Z M 293.816406 296.058594 "/>
<path style=" stroke:none;fill-rule:nonzero;fill:rgb(96.862745%,70.196078%,16.862745%);fill-opacity:1;" d="M 293.816406 311.472656 L 293.878906 311.46875 L 293.878906 311.375 L 294.140625 311.167969 L 294.789062 310.878906 L 295.632812 310.644531 L 296.542969 310.457031 L 297.125 310.363281 L 298.101562 310.222656 L 298.945312 310.121094 L 301.085938 309.914062 L 303.8125 309.71875 L 305.308594 309.632812 L 306.996094 309.554688 L 309.398438 309.46875 L 310.503906 309.4375 L 313.878906 309.363281 L 317.710938 309.316406 L 321.929688 309.300781 L 323.878906 309.304688 L 326.539062 309.324219 L 330.175781 309.375 L 332.253906 309.421875 L 333.878906 309.46875 L 335.566406 309.527344 L 337.644531 309.621094 L 339.589844 309.730469 L 341.148438 309.84375 L 342.707031 309.980469 L 344.007812 310.128906 L 345.109375 310.292969 L 346.085938 310.488281 L 346.667969 310.648438 L 347.058594 310.8125 L 338.035156 310.8125 L 337.515625 310.648438 L 336.929688 310.523438 L 335.957031 310.371094 L 334.980469 310.257812 L 334.007812 310.171875 L 332.191406 310.050781 L 330.632812 309.976562 L 328.683594 309.914062 L 326.800781 309.871094 L 324.65625 309.84375 L 323.359375 309.832031 L 319.917969 309.832031 L 316.800781 309.867188 L 314.984375 309.902344 L 313.683594 309.941406 L 311.867188 310.007812 L 310.761719 310.066406 L 310.113281 310.101562 L 308.164062 310.246094 L 306.867188 310.375 L 306.152344 310.464844 L 305.242188 310.601562 L 304.59375 310.726562 L 303.878906 310.914062 L 303.488281 311.050781 L 302.96875 311.367188 L 302.90625 312.199219 L 303.101562 312.375 L 303.488281 312.566406 L 304.007812 312.730469 L 304.789062 312.90625 L 305.566406 313.042969 L 306.929688 313.222656 L 308.101562 313.34375 L 309.007812 313.421875 L 310.761719 313.546875 L 311.476562 313.589844 L 313.164062 313.671875 L 314.917969 313.738281 L 317.058594 313.792969 L 318.683594 313.820312 L 321.28125 313.84375 L 324.59375 313.84375 L 328.488281 313.816406 L 330.957031 313.777344 L 332.644531 313.742188 L 333.746094 313.707031 L 335.113281 313.65625 L 336.085938 313.613281 L 336.996094 313.558594 L 338.097656 313.480469 L 338.097656 312.375 L 322.058594 312.371094 L 322.058594 311.851562 L 346.992188 311.847656 L 347.058594 313.65625 L 345.695312 313.78125 L 344.007812 313.902344 L 342.382812 313.996094 L 340.695312 314.074219 L 338.292969 314.164062 L 336.34375 314.21875 L 333.359375 314.28125 L 330.632812 314.324219 L 327.773438 314.351562 L 325.242188 314.367188 L 322.253906 314.371094 L 319.59375 314.363281 L 316.734375 314.332031 L 314.464844 314.296875 L 312.386719 314.25 L 310.308594 314.191406 L 307.710938 314.09375 L 306.023438 314.015625 L 304.269531 313.917969 L 302.515625 313.800781 L 300.957031 313.675781 L 299.917969 313.578125 L 298.878906 313.46875 L 297.777344 313.328125 L 296.738281 313.171875 L 295.957031 313.027344 L 295.242188 312.867188 L 294.722656 312.714844 L 294.203125 312.503906 L 293.945312 312.339844 L 293.816406 312.195312 Z M 293.816406 311.472656 "/>
<path style=" stroke:none;fill-rule:nonzero;fill:rgb(83.921569%,15.686275%,22.352941%);fill-opacity:1;" d="M 293.816406 297.429688 L 347.058594 297.429688 L 347.058594 298.574219 L 324.867188 298.585938 L 324.867188 308.121094 L 315.941406 308.121094 L 315.941406 298.597656 L 315.8125 298.574219 L 293.816406 298.574219 Z M 293.816406 297.429688 "/>
<path style=" stroke:none;fill-rule:nonzero;fill:rgb(83.921569%,15.686275%,22.352941%);fill-opacity:1;" d="M 349.859375 20.664062 L 403.105469 20.664062 L 403.105469 52.101562 L 380.914062 52.378906 L 380.914062 314.371094 L 371.988281 314.371094 L 371.988281 52.652344 L 371.859375 52.101562 L 349.859375 52.101562 Z M 349.859375 20.664062 "/>
<path style=" stroke:none;fill-rule:nonzero;fill:rgb(6.27451%,58.823529%,28.235294%);fill-opacity:1;" d="M 405.90625 313.097656 L 405.964844 313.058594 L 429.003906 268.6875 L 436 268.6875 L 459.152344 313.140625 L 451.015625 313.140625 L 445.214844 301.535156 L 419.789062 301.535156 L 414.097656 313.097656 L 405.90625 313.097656 L 422.234375 296.734375 L 442.882812 296.695312 L 432.585938 275.949219 L 432.472656 275.90625 L 432.359375 276.03125 L 422.175781 296.695312 L 422.234375 296.734375 Z M 405.90625 313.097656 "/>
<path style=" stroke:none;fill-rule:nonzero;fill:rgb(14.509804%,36.078431%,60%);fill-opacity:1;" d="M 405.90625 205.484375 L 405.972656 205.386719 L 405.972656 202.976562 L 406.167969 199.164062 L 406.621094 194.34375 L 407.078125 191.035156 L 408.246094 185.113281 L 409.867188 179.390625 L 411.554688 174.976562 L 412.789062 172.367188 L 413.894531 170.359375 L 416.425781 166.648438 L 418.050781 164.738281 L 419.804688 163.035156 L 421.945312 161.328125 L 423.503906 160.324219 L 427.011719 158.71875 L 429.609375 158.015625 L 431.621094 157.714844 L 435.972656 157.714844 L 438.566406 158.117188 L 440.453125 158.617188 L 442.527344 159.421875 L 444.28125 160.324219 L 447.335938 162.53125 L 450.0625 165.34375 L 451.292969 166.949219 L 453.242188 170.058594 L 454.734375 173.070312 L 455.773438 175.679688 L 456.945312 179.390625 L 457.984375 183.90625 L 458.761719 189.027344 L 459.152344 193.34375 L 450.0625 193.34375 L 449.605469 189.328125 L 449.085938 186.214844 L 448.113281 182.101562 L 447.140625 179.191406 L 445.777344 176.28125 L 444.542969 174.375 L 442.855469 172.46875 L 441.359375 171.261719 L 439.800781 170.359375 L 438.308594 169.757812 L 435.453125 169.15625 L 432.140625 169.15625 L 430.90625 169.355469 L 428.375 170.160156 L 427.011719 170.863281 L 425.0625 172.265625 L 423.699219 173.570312 L 422.074219 175.578125 L 420.972656 177.285156 L 419.609375 179.894531 L 418.632812 182.203125 L 417.53125 185.515625 L 416.882812 188.023438 L 416.296875 190.832031 L 415.777344 194.144531 L 415.386719 197.65625 L 415.128906 201.371094 L 414.996094 204.984375 L 414.996094 220.539062 L 415.128906 224.152344 L 415.453125 228.367188 L 416.296875 234.488281 L 417.53125 239.808594 L 418.957031 244.023438 L 420.324219 247.035156 L 421.101562 248.4375 L 422.140625 250.042969 L 423.765625 252.050781 L 426.101562 254.058594 L 427.464844 254.859375 L 429.542969 255.664062 L 431.683594 256.066406 L 434.542969 256.066406 L 437.074219 255.664062 L 438.761719 255.164062 L 440.515625 254.359375 L 442.917969 252.652344 L 444.410156 251.046875 L 445.710938 249.140625 L 446.683594 247.234375 L 447.335938 245.628906 L 448.308594 242.515625 L 449.085938 239.105469 L 449.671875 235.59375 L 450.0625 232.179688 L 459.152344 232.179688 L 458.761719 236.195312 L 458.175781 240.109375 L 457.59375 243.019531 L 456.683594 246.53125 L 455.644531 249.644531 L 454.152344 253.15625 L 452.917969 255.464844 L 451.292969 257.972656 L 449.800781 259.878906 L 448.179688 261.585938 L 445.777344 263.59375 L 444.21875 264.597656 L 442.527344 265.5 L 440.515625 266.300781 L 437.984375 267.003906 L 435.257812 267.40625 L 432.722656 267.507812 L 429.996094 267.304688 L 427.984375 266.902344 L 425.320312 266 L 422.011719 264.195312 L 419.609375 262.289062 L 417.726562 260.382812 L 416.101562 258.375 L 414.285156 255.664062 L 411.945312 251.25 L 410.519531 247.835938 L 409.542969 245.027344 L 408.441406 241.113281 L 407.660156 237.601562 L 406.75 231.980469 L 406.101562 224.855469 L 405.90625 219.335938 Z M 405.90625 205.484375 "/>
<path style=" stroke:none;fill-rule:nonzero;fill:rgb(83.921569%,15.686275%,22.352941%);fill-opacity:1;" d="M 405.90625 314.320312 L 459.152344 314.320312 L 459.152344 314.324219 L 436.960938 314.324219 L 436.960938 314.371094 L 428.035156 314.371094 L 428.035156 314.324219 L 405.90625 314.324219 Z M 405.90625 314.320312 "/>
<path style=" stroke:none;fill-rule:nonzero;fill:rgb(6.27451%,58.823529%,28.235294%);fill-opacity:1;" d="M 461.953125 314.339844 L 462.011719 314.308594 L 485.050781 281.59375 L 492.046875 281.59375 L 515.199219 314.371094 L 507.0625 314.371094 L 501.261719 305.816406 L 475.832031 305.816406 L 470.144531 314.339844 L 461.953125 314.339844 L 478.28125 302.277344 L 498.929688 302.246094 L 488.632812 286.949219 L 488.519531 286.917969 L 488.40625 287.011719 L 478.222656 302.246094 L 478.28125 302.277344 Z M 461.953125 314.339844 "/>
<path style=" stroke:none;fill-rule:nonzero;fill:rgb(14.509804%,36.078431%,60%);fill-opacity:1;" d="M 461.953125 188.882812 L 462.019531 188.734375 L 462.019531 185.179688 L 462.214844 179.550781 L 462.667969 172.441406 L 463.121094 167.550781 L 464.292969 158.8125 L 465.914062 150.371094 L 467.601562 143.855469 L 468.835938 140.003906 L 469.941406 137.039062 L 472.472656 131.5625 L 474.097656 128.746094 L 475.847656 126.226562 L 477.992188 123.710938 L 479.550781 122.230469 L 483.058594 119.859375 L 485.652344 118.824219 L 487.667969 118.378906 L 492.015625 118.378906 L 494.613281 118.972656 L 496.496094 119.710938 L 498.574219 120.894531 L 500.328125 122.230469 L 503.378906 125.488281 L 506.109375 129.636719 L 507.339844 132.003906 L 509.289062 136.597656 L 510.78125 141.039062 L 511.820312 144.890625 L 512.992188 150.371094 L 514.027344 157.035156 L 514.808594 164.589844 L 515.199219 170.960938 L 506.109375 170.960938 L 505.652344 165.035156 L 505.132812 160.441406 L 504.160156 154.371094 L 503.1875 150.074219 L 501.820312 145.78125 L 500.589844 142.964844 L 498.898438 140.152344 L 497.40625 138.375 L 495.847656 137.039062 L 494.355469 136.152344 L 491.496094 135.261719 L 488.1875 135.261719 L 486.953125 135.558594 L 484.421875 136.746094 L 483.058594 137.78125 L 481.109375 139.855469 L 479.746094 141.78125 L 478.121094 144.742188 L 477.019531 147.261719 L 475.65625 151.113281 L 474.679688 154.519531 L 473.578125 159.40625 L 472.925781 163.109375 L 472.34375 167.257812 L 471.824219 172.144531 L 471.433594 177.328125 L 471.175781 182.808594 L 471.042969 188.140625 L 471.042969 211.097656 L 471.175781 216.429688 L 471.5 222.652344 L 472.34375 231.6875 L 473.578125 239.535156 L 475.003906 245.757812 L 476.367188 250.199219 L 477.148438 252.273438 L 478.1875 254.644531 L 479.808594 257.605469 L 482.148438 260.570312 L 483.511719 261.753906 L 485.589844 262.9375 L 487.730469 263.53125 L 490.589844 263.53125 L 493.121094 262.9375 L 494.808594 262.199219 L 496.5625 261.011719 L 498.964844 258.496094 L 500.457031 256.125 L 501.757812 253.3125 L 502.730469 250.496094 L 503.378906 248.128906 L 504.355469 243.535156 L 505.132812 238.5 L 505.71875 233.316406 L 506.109375 228.28125 L 515.199219 228.28125 L 514.808594 234.203125 L 514.222656 239.980469 L 513.640625 244.277344 L 512.730469 249.460938 L 511.691406 254.050781 L 510.199219 259.234375 L 508.964844 262.640625 L 507.339844 266.34375 L 505.847656 269.160156 L 504.222656 271.675781 L 501.820312 274.640625 L 500.261719 276.121094 L 498.574219 277.453125 L 496.5625 278.640625 L 494.03125 279.675781 L 491.304688 280.269531 L 488.769531 280.417969 L 486.042969 280.121094 L 484.03125 279.527344 L 481.367188 278.195312 L 478.058594 275.527344 L 475.65625 272.714844 L 473.769531 269.898438 L 472.148438 266.9375 L 470.332031 262.9375 L 467.992188 256.421875 L 466.5625 251.386719 L 465.589844 247.238281 L 464.484375 241.460938 L 463.707031 236.277344 L 462.796875 227.984375 L 462.148438 217.46875 L 461.953125 209.320312 Z M 461.953125 188.882812 "/>
<path style=" stroke:none;fill-rule:nonzero;fill:rgb(6.27451%,58.823529%,28.235294%);fill-opacity:1;" d="M 518 314.09375 L 518.058594 313.820312 L 541.09375 20.664062 L 548.09375 20.664062 L 571.246094 314.371094 L 563.109375 314.371094 L 557.308594 237.703125 L 531.878906 237.703125 L 526.191406 314.09375 L 518 314.09375 L 534.324219 205.988281 L 554.976562 205.710938 L 544.679688 68.648438 L 544.566406 68.375 L 544.453125 69.199219 L 534.269531 205.710938 L 534.324219 205.988281 Z M 518 314.09375 "/>
<path style=" stroke:none;fill-rule:nonzero;fill:rgb(14.509804%,36.078431%,60%);fill-opacity:1;" d="M 574.046875 148.457031 L 574.113281 148.1875 L 574.113281 141.742188 L 574.304688 131.542969 L 574.761719 118.65625 L 575.214844 109.796875 L 576.382812 93.957031 L 578.007812 78.652344 L 579.695312 66.839844 L 580.929688 59.859375 L 582.035156 54.492188 L 584.566406 44.558594 L 586.1875 39.457031 L 587.941406 34.890625 L 590.085938 30.328125 L 591.644531 27.644531 L 595.148438 23.347656 L 597.746094 21.46875 L 599.757812 20.664062 L 604.109375 20.664062 L 606.707031 21.738281 L 608.589844 23.078125 L 610.667969 25.226562 L 612.421875 27.644531 L 615.472656 33.550781 L 618.199219 41.066406 L 619.433594 45.363281 L 621.382812 53.683594 L 622.875 61.738281 L 623.914062 68.71875 L 625.082031 78.652344 L 626.121094 90.734375 L 626.902344 104.425781 L 627.289062 115.96875 L 618.199219 115.96875 L 617.746094 105.230469 L 617.226562 96.910156 L 616.253906 85.902344 L 615.277344 78.117188 L 613.914062 70.332031 L 612.679688 65.230469 L 610.992188 60.128906 L 609.5 56.90625 L 607.941406 54.492188 L 606.449219 52.878906 L 603.589844 51.269531 L 600.277344 51.269531 L 599.046875 51.804688 L 596.511719 53.953125 L 595.148438 55.832031 L 593.203125 59.589844 L 591.839844 63.082031 L 590.214844 68.449219 L 589.109375 73.015625 L 587.746094 79.996094 L 586.773438 86.171875 L 585.667969 95.03125 L 585.019531 101.742188 L 584.4375 109.257812 L 583.917969 118.117188 L 583.527344 127.515625 L 583.265625 137.449219 L 583.136719 147.113281 L 583.136719 188.726562 L 583.265625 198.390625 L 583.589844 209.667969 L 584.4375 226.042969 L 585.667969 240.273438 L 587.097656 251.546875 L 588.460938 259.601562 L 589.242188 263.359375 L 590.28125 267.65625 L 591.902344 273.027344 L 594.242188 278.394531 L 595.605469 280.542969 L 597.683594 282.691406 L 599.824219 283.765625 L 602.679688 283.765625 L 605.214844 282.691406 L 606.902344 281.347656 L 608.65625 279.199219 L 611.058594 274.636719 L 612.550781 270.339844 L 613.851562 265.242188 L 614.824219 260.140625 L 615.472656 255.84375 L 616.445312 247.519531 L 617.226562 238.394531 L 617.8125 228.996094 L 618.199219 219.867188 L 627.289062 219.867188 L 626.902344 230.609375 L 626.316406 241.078125 L 625.730469 248.863281 L 624.824219 258.261719 L 623.785156 266.582031 L 622.289062 275.980469 L 621.058594 282.152344 L 619.433594 288.867188 L 617.941406 293.96875 L 616.316406 298.53125 L 613.914062 303.898438 L 612.355469 306.585938 L 610.667969 309 L 608.65625 311.148438 L 606.121094 313.027344 L 603.394531 314.101562 L 600.863281 314.371094 L 598.136719 313.832031 L 596.125 312.761719 L 593.460938 310.34375 L 590.148438 305.511719 L 587.746094 300.410156 L 585.863281 295.308594 L 584.242188 289.941406 L 582.421875 282.691406 L 580.085938 270.878906 L 578.65625 261.75 L 577.683594 254.234375 L 576.578125 243.761719 L 575.800781 234.367188 L 574.890625 219.332031 L 574.242188 200.269531 L 574.046875 185.503906 Z M 574.046875 148.457031 "/>
<path style=" stroke:none;fill-rule:nonzero;fill:rgb(6.27451%,58.823529%,28.235294%);fill-opacity:1;" d="M 630.09375 286.4375 L 630.148438 286.265625 L 653.1875 103.128906 L 660.183594 103.128906 L 683.335938 286.613281 L 675.203125 286.613281 L 669.398438 238.714844 L 643.972656 238.714844 L 638.285156 286.4375 L 630.09375 286.4375 L 646.417969 218.902344 L 667.066406 218.730469 L 656.773438 133.105469 L 656.65625 132.933594 L 656.542969 133.449219 L 646.363281 218.730469 L 646.417969 218.902344 Z M 630.09375 286.4375 "/>
<path style=" stroke:none;fill-rule:nonzero;fill:rgb(83.921569%,15.686275%,22.352941%);fill-opacity:1;" d="M 630.09375 287.792969 L 683.335938 287.792969 L 683.335938 290.636719 L 661.148438 290.660156 L 661.148438 314.371094 L 652.21875 314.371094 L 652.21875 290.6875 L 652.089844 290.636719 L 630.09375 290.636719 Z M 630.09375 287.792969 "/>
<g style="fill:rgb(0%,0%,0%);fill-opacity:1;">
  <use xlink:href="#glyph0-1" x="21.957031" y="318.198242"/>
  <use xlink:href="#glyph0-2" x="27.291016" y="318.198242"/>
  <use xlink:href="#glyph0-1" x="29.958008" y="318.198242"/>
</g>
<g style="fill:rgb(0%,0%,0%);fill-opacity:1;">
  <use xlink:href="#glyph0-1" x="21.957031" y="244.475586"/>
  <use xlink:href="#glyph0-2" x="27.291016" y="244.475586"/>
  <use xlink:href="#glyph0-3" x="29.958008" y="244.475586"/>
</g>
<g style="fill:rgb(0%,0%,0%);fill-opacity:1;">
  <use xlink:href="#glyph0-4" x="21.957031" y="170.75293"/>
  <use xlink:href="#glyph0-2" x="27.291016" y="170.75293"/>
  <use xlink:href="#glyph0-1" x="29.958008" y="170.75293"/>
</g>
<g style="fill:rgb(0%,0%,0%);fill-opacity:1;">
  <use xlink:href="#glyph0-4" x="21.957031" y="97.03418"/>
  <use xlink:href="#glyph0-2" x="27.291016" y="97.03418"/>
  <use xlink:href="#glyph0-3" x="29.958008" y="97.03418"/>
</g>
<g style="fill:rgb(0%,0%,0%);fill-opacity:1;">
  <use xlink:href="#glyph0-5" x="21.957031" y="23.311523"/>
  <use xlink:href="#glyph0-2" x="27.291016" y="23.311523"/>
  <use xlink:href="#glyph0-1" x="29.958008" y="23.311523"/>
</g>
<g style="fill:rgb(0%,0%,0%);fill-opacity:1;">
  <use xlink:href="#glyph0-4" x="93.25" y="338.19043"/>
</g>
<g style="fill:rgb(0%,0%,0%);fill-opacity:1;">
  <use xlink:href="#glyph0-5" x="149.296875" y="338.19043"/>
</g>
<g style="fill:rgb(0%,0%,0%);fill-opacity:1;">
  <use xlink:href="#glyph0-6" x="205.34375" y="338.19043"/>
</g>
<g style="fill:rgb(0%,0%,0%);fill-opacity:1;">
  <use xlink:href="#glyph0-7" x="261.390625" y="338.19043"/>
</g>
<g style="fill:rgb(0%,0%,0%);fill-opacity:1;">
  <use xlink:href="#glyph0-3" x="317.4375" y="338.19043"/>
</g>
<g style="fill:rgb(0%,0%,0%);fill-opacity:1;">
  <use xlink:href="#glyph0-8" x="373.484375" y="338.19043"/>
</g>
<g style="fill:rgb(0%,0%,0%);fill-opacity:1;">
  <use xlink:href="#glyph0-9" x="429.53125" y="338.19043"/>
</g>
<g style="fill:rgb(0%,0%,0%);fill-opacity:1;">
  <use xlink:href="#glyph0-10" x="485.574219" y="338.19043"/>
</g>
<g style="fill:rgb(0%,0%,0%);fill-opacity:1;">
  <use xlink:href="#glyph0-11" x="541.621094" y="338.19043"/>
</g>
<g style="fill:rgb(0%,0%,0%);fill-opacity:1;">
  <use xlink:href="#glyph0-4" x="595.167969" y="338.19043"/>
  <use xlink:href="#glyph0-1" x="600.501953" y="338.19043"/>
</g>
<g style="fill:rgb(0%,0%,0%);fill-opacity:1;">
  <use xlink:href="#glyph0-4" x="651.214844" y="338.19043"/>
  <use xlink:href="#glyph0-4" x="656.548828" y="338.19043"/>
</g>
<g style="fill:rgb(0%,0%,0%);fill-opacity:1;">
  <use xlink:href="#glyph1-1" x="14.412109" y="178.015625"/>
  <use xlink:href="#glyph1-2" x="14.412109" y="170.011719"/>
  <use xlink:href="#glyph1-3" x="14.412109" y="167.347656"/>
  <use xlink:href="#glyph1-4" x="14.412109" y="164.011719"/>
</g>
</g>
</svg>
