<?xml version="1.0" encoding="UTF-8"?>
<svg xmlns="http://www.w3.org/2000/svg" xmlns:xlink="http://www.w3.org/1999/xlink" width="720pt" height="360pt" viewBox="0 0 720 360" version="1.1">
<defs>
<g>
<symbol overflow="visible" id="glyph0-0">
<path style="stroke:none;" d=""/>
</symbol>
<symbol overflow="visible" id="glyph0-1">
<path style="stroke:none;" d="M 2.640625 -6.796875 C 2 -6.796875 1.421875 -6.53125 1.078125 -6.046875 C 0.640625 -5.453125 0.40625 -4.546875 0.40625 -3.296875 C 0.40625 -1 1.1875 0.21875 2.640625 0.21875 C 4.078125 0.21875 4.859375 -1 4.859375 -3.234375 C 4.859375 -4.5625 4.65625 -5.4375 4.203125 -6.046875 C 3.84375 -6.53125 3.28125 -6.796875 2.640625 -6.796875 Z M 2.640625 -6.046875 C 3.546875 -6.046875 4 -5.125 4 -3.3125 C 4 -1.375 3.5625 -0.484375 2.625 -0.484375 C 1.734375 -0.484375 1.28125 -1.421875 1.28125 -3.28125 C 1.28125 -5.140625 1.734375 -6.046875 2.640625 -6.046875 Z M 2.640625 -6.046875 "/>
</symbol>
<symbol overflow="visible" id="glyph0-2">
<path style="stroke:none;" d="M 1.828125 -1 L 0.828125 -1 L 0.828125 0 L 1.828125 0 Z M 1.828125 -1 "/>
</symbol>
<symbol overflow="visible" id="glyph0-3">
<path style="stroke:none;" d="M 4.5625 -6.796875 L 1.0625 -6.796875 L 0.546875 -3.09375 L 1.328125 -3.09375 C 1.71875 -3.5625 2.046875 -3.734375 2.578125 -3.734375 C 3.484375 -3.734375 4.0625 -3.109375 4.0625 -2.09375 C 4.0625 -1.125 3.484375 -0.53125 2.578125 -0.53125 C 1.828125 -0.53125 1.375 -0.90625 1.1875 -1.671875 L 0.328125 -1.671875 C 0.453125 -1.109375 0.546875 -0.84375 0.75 -0.59375 C 1.125 -0.078125 1.828125 0.21875 2.59375 0.21875 C 3.96875 0.21875 4.921875 -0.78125 4.921875 -2.21875 C 4.921875 -3.5625 4.03125 -4.484375 2.71875 -4.484375 C 2.25 -4.484375 1.859375 -4.359375 1.46875 -4.0625 L 1.734375 -5.96875 L 4.5625 -5.96875 Z M 4.5625 -6.796875 "/>
</symbol>
<symbol overflow="visible" id="glyph0-4">
<path style="stroke:none;" d="M 2.484375 -4.84375 L 2.484375 0 L 3.328125 0 L 3.328125 -6.796875 L 2.765625 -6.796875 C 2.46875 -5.75 2.28125 -5.609375 0.984375 -5.453125 L 0.984375 -4.84375 Z M 2.484375 -4.84375 "/>
</symbol>
<symbol overflow="visible" id="glyph0-5">
<path style="stroke:none;" d="M 4.859375 -0.828125 L 1.28125 -0.828125 C 1.359375 -1.390625 1.671875 -1.75 2.5 -2.234375 L 3.46875 -2.75 C 4.40625 -3.265625 4.90625 -3.96875 4.90625 -4.8125 C 4.90625 -5.375 4.671875 -5.90625 4.265625 -6.265625 C 3.859375 -6.625 3.375 -6.796875 2.71875 -6.796875 C 1.859375 -6.796875 1.21875 -6.5 0.84375 -5.921875 C 0.609375 -5.5625 0.5 -5.125 0.484375 -4.4375 L 1.328125 -4.4375 C 1.359375 -4.90625 1.40625 -5.1875 1.53125 -5.40625 C 1.75 -5.8125 2.1875 -6.0625 2.703125 -6.0625 C 3.46875 -6.0625 4.03125 -5.515625 4.03125 -4.78125 C 4.03125 -4.25 3.71875 -3.796875 3.125 -3.4375 L 2.234375 -2.9375 C 0.8125 -2.140625 0.40625 -1.5 0.328125 0 L 4.859375 0 Z M 4.859375 -0.828125 "/>
</symbol>
<symbol overflow="visible" id="glyph0-6">
<path style="stroke:none;" d="M 2.125 -3.125 L 2.578125 -3.125 C 3.515625 -3.125 3.984375 -2.703125 3.984375 -1.890625 C 3.984375 -1.03125 3.46875 -0.53125 2.578125 -0.53125 C 1.65625 -0.53125 1.203125 -0.984375 1.15625 -1.96875 L 0.3125 -1.96875 C 0.34375 -1.421875 0.4375 -1.078125 0.609375 -0.765625 C 0.953125 -0.109375 1.625 0.21875 2.546875 0.21875 C 3.953125 0.21875 4.859375 -0.609375 4.859375 -1.90625 C 4.859375 -2.765625 4.515625 -3.25 3.703125 -3.515625 C 4.34375 -3.765625 4.65625 -4.25 4.65625 -4.9375 C 4.65625 -6.109375 3.875 -6.796875 2.578125 -6.796875 C 1.203125 -6.796875 0.484375 -6.046875 0.453125 -4.609375 L 1.296875 -4.609375 C 1.3125 -5.015625 1.34375 -5.25 1.453125 -5.453125 C 1.640625 -5.828125 2.0625 -6.0625 2.59375 -6.0625 C 3.34375 -6.0625 3.796875 -5.625 3.796875 -4.90625 C 3.796875 -4.421875 3.609375 -4.140625 3.25 -3.984375 C 3.015625 -3.890625 2.71875 -3.84375 2.125 -3.84375 Z M 2.125 -3.125 "/>
</symbol>
<symbol overflow="visible" id="glyph0-7">
<path style="stroke:none;" d="M 3.140625 -1.625 L 3.140625 0 L 3.984375 0 L 3.984375 -1.625 L 4.984375 -1.625 L 4.984375 -2.390625 L 3.984375 -2.390625 L 3.984375 -6.796875 L 3.359375 -6.796875 L 0.265625 -2.515625 L 0.265625 -1.625 Z M 3.140625 -2.390625 L 1 -2.390625 L 3.140625 -5.359375 Z M 3.140625 -2.390625 "/>
</symbol>
<symbol overflow="visible" id="glyph0-8">
<path style="stroke:none;" d="M 4.78125 -5.03125 C 4.609375 -6.140625 3.890625 -6.796875 2.84375 -6.796875 C 2.09375 -6.796875 1.421875 -6.4375 1.03125 -5.828125 C 0.609375 -5.171875 0.40625 -4.34375 0.40625 -3.09375 C 0.40625 -1.953125 0.578125 -1.234375 0.984375 -0.625 C 1.359375 -0.078125 1.953125 0.21875 2.703125 0.21875 C 3.984375 0.21875 4.921875 -0.734375 4.921875 -2.078125 C 4.921875 -3.34375 4.0625 -4.234375 2.84375 -4.234375 C 2.171875 -4.234375 1.640625 -3.96875 1.28125 -3.46875 C 1.28125 -5.125 1.828125 -6.046875 2.796875 -6.046875 C 3.390625 -6.046875 3.796875 -5.671875 3.9375 -5.03125 Z M 2.734375 -3.484375 C 3.546875 -3.484375 4.0625 -2.921875 4.0625 -2 C 4.0625 -1.15625 3.484375 -0.53125 2.703125 -0.53125 C 1.921875 -0.53125 1.328125 -1.1875 1.328125 -2.046875 C 1.328125 -2.890625 1.90625 -3.484375 2.734375 -3.484375 Z M 2.734375 -3.484375 "/>
</symbol>
<symbol overflow="visible" id="glyph0-9">
<path style="stroke:none;" d="M 4.984375 -6.796875 L 0.4375 -6.796875 L 0.4375 -5.96875 L 4.109375 -5.96875 C 2.5 -3.65625 1.828125 -2.234375 1.328125 0 L 2.21875 0 C 2.59375 -2.171875 3.453125 -4.046875 4.984375 -6.09375 Z M 4.984375 -6.796875 "/>
</symbol>
<symbol overflow="visible" id="glyph0-10">
<path style="stroke:none;" d="M 3.75 -3.578125 C 4.453125 -4 4.6875 -4.34375 4.6875 -4.984375 C 4.6875 -6.046875 3.84375 -6.796875 2.640625 -6.796875 C 1.4375 -6.796875 0.59375 -6.046875 0.59375 -4.984375 C 0.59375 -4.359375 0.828125 -4.015625 1.515625 -3.578125 C 0.734375 -3.203125 0.359375 -2.640625 0.359375 -1.890625 C 0.359375 -0.640625 1.296875 0.21875 2.640625 0.21875 C 3.984375 0.21875 4.921875 -0.640625 4.921875 -1.875 C 4.921875 -2.640625 4.53125 -3.203125 3.75 -3.578125 Z M 2.640625 -6.046875 C 3.359375 -6.046875 3.8125 -5.625 3.8125 -4.96875 C 3.8125 -4.34375 3.34375 -3.921875 2.640625 -3.921875 C 1.921875 -3.921875 1.453125 -4.34375 1.453125 -4.984375 C 1.453125 -5.625 1.921875 -6.046875 2.640625 -6.046875 Z M 2.640625 -3.203125 C 3.484375 -3.203125 4.0625 -2.671875 4.0625 -1.875 C 4.0625 -1.0625 3.484375 -0.53125 2.625 -0.53125 C 1.796875 -0.53125 1.21875 -1.078125 1.21875 -1.875 C 1.21875 -2.671875 1.796875 -3.203125 2.640625 -3.203125 Z M 2.640625 -3.203125 "/>
</symbol>
<symbol overflow="visible" id="glyph0-11">
<path style="stroke:none;" d="M 0.515625 -1.546875 C 0.671875 -0.4375 1.40625 0.21875 2.4375 0.21875 C 3.1875 0.21875 3.859375 -0.140625 4.265625 -0.75 C 4.6875 -1.40625 4.890625 -2.25 4.890625 -3.484375 C 4.890625 -4.625 4.703125 -5.359375 4.3125 -5.953125 C 3.9375 -6.5 3.34375 -6.796875 2.59375 -6.796875 C 1.296875 -6.796875 0.359375 -5.84375 0.359375 -4.515625 C 0.359375 -3.25 1.234375 -2.34375 2.453125 -2.34375 C 3.09375 -2.34375 3.5625 -2.578125 4.015625 -3.109375 C 4 -1.453125 3.46875 -0.53125 2.5 -0.53125 C 1.90625 -0.53125 1.484375 -0.90625 1.359375 -1.546875 Z M 2.578125 -6.0625 C 3.375 -6.0625 3.96875 -5.40625 3.96875 -4.53125 C 3.96875 -3.6875 3.375 -3.09375 2.546875 -3.09375 C 1.734375 -3.09375 1.234375 -3.671875 1.234375 -4.578125 C 1.234375 -5.4375 1.796875 -6.0625 2.578125 -6.0625 Z M 2.578125 -6.0625 "/>
</symbol>
<symbol overflow="visible" id="glyph1-0">
<path style="stroke:none;" d=""/>
</symbol>
<symbol overflow="visible" id="glyph1-1">
<path style="stroke:none;" d="M 0 -0.953125 L 0 -4.890625 C 0 -5.71875 -0.234375 -6.34375 -0.734375 -6.796875 C -1.1875 -7.234375 -1.8125 -7.46875 -2.5 -7.46875 C -3.546875 -7.46875 -4.1875 -7 -4.625 -5.875 C -4.984375 -6.671875 -5.640625 -7.09375 -6.53125 -7.09375 C -7.15625 -7.09375 -7.734375 -6.859375 -8.140625 -6.390625 C -8.5625 -5.9375 -8.75 -5.34375 -8.75 -4.5 L -8.75 -0.953125 Z M -4.984375 -2.0625 L -7.765625 -2.0625 L -7.765625 -4.21875 C -7.765625 -4.84375 -7.6875 -5.203125 -7.453125 -5.5 C -7.21875 -5.8125 -6.859375 -5.96875 -6.375 -5.96875 C -5.90625 -5.96875 -5.53125 -5.8125 -5.296875 -5.5 C -5.0625 -5.203125 -4.984375 -4.84375 -4.984375 -4.21875 Z M -0.984375 -2.0625 L -4 -2.0625 L -4 -4.78125 C -4 -5.328125 -3.859375 -5.6875 -3.578125 -5.953125 C -3.296875 -6.21875 -2.921875 -6.359375 -2.484375 -6.359375 C -2.0625 -6.359375 -1.6875 -6.21875 -1.40625 -5.953125 C -1.109375 -5.6875 -0.984375 -5.328125 -0.984375 -4.78125 Z M -0.984375 -2.0625 "/>
</symbol>
<symbol overflow="visible" id="glyph1-2">
<path style="stroke:none;" d="M -6.28125 -1.796875 L -6.28125 -0.796875 L 0 -0.796875 L 0 -1.796875 Z M -8.75 -1.796875 L -8.75 -0.796875 L -7.484375 -0.796875 L -7.484375 -1.796875 Z M -8.75 -1.796875 "/>
</symbol>
<symbol overflow="visible" id="glyph1-3">
<path style="stroke:none;" d="M -6.28125 -3.046875 L -6.28125 -2.015625 L -8.015625 -2.015625 L -8.015625 -1.015625 L -6.28125 -1.015625 L -6.28125 -0.171875 L -5.46875 -0.171875 L -5.46875 -1.015625 L -0.71875 -1.015625 C -0.078125 -1.015625 0.28125 -1.453125 0.28125 -2.234375 C 0.28125 -2.46875 0.25 -2.71875 0.1875 -3.046875 L -0.640625 -3.046875 C -0.609375 -2.921875 -0.59375 -2.765625 -0.59375 -2.5625 C -0.59375 -2.140625 -0.71875 -2.015625 -1.15625 -2.015625 L -5.46875 -2.015625 L -5.46875 -3.046875 Z M -6.28125 -3.046875 "/>
</symbol>
<symbol overflow="visible" id="glyph1-4">
<path style="stroke:none;" d="M -4.53125 -5.25 C -5.765625 -5.25 -6.46875 -4.421875 -6.46875 -2.96875 C -6.46875 -1.515625 -5.71875 -0.5625 -4.546875 -0.5625 C -3.5625 -0.5625 -3.09375 -1.0625 -2.734375 -2.5625 L -2.515625 -3.484375 C -2.34375 -4.1875 -2.09375 -4.46875 -1.625 -4.46875 C -1.046875 -4.46875 -0.640625 -3.875 -0.640625 -3 C -0.640625 -2.453125 -0.796875 -2 -1.0625 -1.75 C -1.25 -1.59375 -1.421875 -1.53125 -1.875 -1.46875 L -1.875 -0.40625 C -0.421875 -0.453125 0.28125 -1.265625 0.28125 -2.921875 C 0.28125 -4.5 -0.5 -5.515625 -1.71875 -5.515625 C -2.65625 -5.515625 -3.171875 -4.984375 -3.46875 -3.734375 L -3.703125 -2.765625 C -3.890625 -1.953125 -4.15625 -1.609375 -4.59375 -1.609375 C -5.171875 -1.609375 -5.546875 -2.125 -5.546875 -2.9375 C -5.546875 -3.75 -5.203125 -4.171875 -4.53125 -4.203125 Z M -4.53125 -5.25 "/>
</symbol>
</g>
</defs>
<g id="surface84485">
<rect x="0" y="0" width="720" height="360" style="fill:rgb(100%,100%,100%);fill-opacity:1;stroke:none;"/>
<path style=" stroke:none;fill-rule:nonzero;fill:rgb(6.27451%,58.823529%,28.235294%);fill-opacity:1;" d="M 69.628906 284.84375 L 69.691406 284.734375 L 95.046875 170.351562 L 102.746094 170.351562 L 128.222656 284.953125 L 119.273438 284.953125 L 112.886719 255.035156 L 84.902344 255.035156 L 78.644531 284.84375 L 69.628906 284.84375 L 87.597656 242.664062 L 110.320312 242.554688 L 98.988281 189.074219 L 98.863281 188.96875 L 98.738281 189.289062 L 87.535156 242.554688 L 87.597656 242.664062 Z M 69.628906 284.84375 "/>
<path style=" stroke:none;fill-rule:nonzero;fill:rgb(14.509804%,36.078431%,60%);fill-opacity:1;" d="M 69.628906 312.847656 L 69.699219 312.84375 L 69.699219 312.785156 L 69.914062 312.691406 L 70.414062 312.574219 L 70.914062 312.492188 L 72.203125 312.34375 L 73.988281 312.203125 L 75.847656 312.097656 L 77.203125 312.03125 L 78.417969 311.984375 L 81.207031 311.890625 L 82.992188 311.84375 L 84.921875 311.800781 L 87.28125 311.761719 L 88.996094 311.734375 L 92.851562 311.695312 L 95.710938 311.679688 L 97.925781 311.671875 L 102.714844 311.671875 L 105.574219 311.683594 L 107.644531 311.695312 L 109.929688 311.714844 L 111.859375 311.734375 L 115.21875 311.789062 L 118.21875 311.859375 L 119.578125 311.898438 L 121.722656 311.976562 L 123.367188 312.050781 L 124.507812 312.113281 L 125.796875 312.203125 L 126.9375 312.316406 L 127.796875 312.441406 L 128.222656 312.546875 L 118.21875 312.546875 L 117.71875 312.449219 L 117.148438 312.371094 L 116.078125 312.269531 L 115.003906 312.199219 L 113.503906 312.128906 L 112.148438 312.082031 L 110.289062 312.035156 L 108.644531 312.003906 L 106.929688 311.984375 L 105.285156 311.96875 L 102.140625 311.953125 L 98.5 311.953125 L 97.140625 311.957031 L 94.355469 311.976562 L 92.851562 311.996094 L 90.710938 312.03125 L 89.207031 312.0625 L 87.421875 312.109375 L 86.207031 312.152344 L 84.707031 312.21875 L 83.636719 312.273438 L 82.421875 312.355469 L 81.707031 312.417969 L 81.0625 312.484375 L 80.492188 312.566406 L 80.0625 312.652344 L 79.777344 312.746094 L 79.632812 312.832031 L 79.632812 313.214844 L 79.777344 313.304688 L 80.132812 313.410156 L 81.0625 313.558594 L 82.421875 313.691406 L 83.992188 313.792969 L 85.492188 313.867188 L 86.351562 313.902344 L 87.492188 313.941406 L 89.28125 313.992188 L 91.851562 314.039062 L 93.351562 314.058594 L 95.640625 314.078125 L 97.996094 314.089844 L 101.140625 314.089844 L 103.929688 314.078125 L 105.785156 314.066406 L 107.714844 314.046875 L 110.359375 314.003906 L 112.003906 313.964844 L 113.433594 313.917969 L 114.503906 313.871094 L 115.21875 313.832031 L 116.292969 313.757812 L 117.148438 313.671875 L 117.792969 313.585938 L 118.21875 313.503906 L 128.222656 313.503906 L 127.796875 313.601562 L 127.152344 313.695312 L 126.507812 313.769531 L 125.507812 313.855469 L 124.367188 313.929688 L 122.722656 314.019531 L 121.363281 314.074219 L 119.578125 314.136719 L 117.933594 314.183594 L 116.148438 314.226562 L 113.503906 314.273438 L 111.789062 314.300781 L 109.929688 314.320312 L 107.714844 314.339844 L 104.929688 314.359375 L 101.929688 314.367188 L 99.140625 314.371094 L 96.140625 314.367188 L 93.925781 314.355469 L 90.996094 314.332031 L 87.351562 314.289062 L 84.707031 314.242188 L 82.632812 314.195312 L 80.847656 314.144531 L 78.847656 314.078125 L 76.273438 313.972656 L 74.703125 313.886719 L 73.632812 313.816406 L 72.417969 313.722656 L 71.558594 313.636719 L 70.558594 313.496094 L 69.84375 313.320312 L 69.628906 313.1875 Z M 69.628906 312.847656 "/>
<path style=" stroke:none;fill-rule:nonzero;fill:rgb(96.862745%,70.196078%,16.862745%);fill-opacity:1;" d="M 69.628906 291.464844 L 69.699219 291.453125 L 69.699219 291.226562 L 69.988281 290.714844 L 70.703125 290.007812 L 71.628906 289.429688 L 72.628906 288.972656 L 73.273438 288.734375 L 74.34375 288.394531 L 75.273438 288.144531 L 77.632812 287.632812 L 80.632812 287.15625 L 82.277344 286.949219 L 84.136719 286.757812 L 86.777344 286.539062 L 87.992188 286.460938 L 91.710938 286.277344 L 95.925781 286.164062 L 100.570312 286.132812 L 102.714844 286.140625 L 105.644531 286.1875 L 109.644531 286.3125 L 111.933594 286.425781 L 113.71875 286.539062 L 115.578125 286.6875 L 117.863281 286.914062 L 120.007812 287.1875 L 121.722656 287.460938 L 123.4375 287.804688 L 124.867188 288.167969 L 126.082031 288.566406 L 127.152344 289.042969 L 127.796875 289.441406 L 128.222656 289.839844 L 118.292969 289.839844 L 117.71875 289.441406 L 117.078125 289.132812 L 116.003906 288.757812 L 114.933594 288.484375 L 113.863281 288.269531 L 111.859375 287.972656 L 110.144531 287.792969 L 108.003906 287.632812 L 105.929688 287.53125 L 103.570312 287.460938 L 102.140625 287.4375 L 98.355469 287.4375 L 94.925781 287.519531 L 92.925781 287.609375 L 91.496094 287.699219 L 89.496094 287.871094 L 88.28125 288.007812 L 87.566406 288.097656 L 85.421875 288.449219 L 83.992188 288.769531 L 83.207031 288.984375 L 82.207031 289.328125 L 81.492188 289.632812 L 80.707031 290.089844 L 80.277344 290.429688 L 79.703125 291.203125 L 79.632812 293.25 L 79.847656 293.683594 L 80.277344 294.148438 L 80.847656 294.558594 L 81.707031 294.988281 L 82.5625 295.320312 L 84.0625 295.761719 L 85.351562 296.058594 L 86.351562 296.253906 L 88.28125 296.558594 L 89.066406 296.660156 L 90.921875 296.867188 L 92.851562 297.027344 L 95.210938 297.164062 L 96.996094 297.230469 L 99.855469 297.289062 L 103.5 297.289062 L 107.789062 297.21875 L 110.503906 297.128906 L 112.359375 297.039062 L 113.574219 296.957031 L 115.078125 296.832031 L 116.148438 296.71875 L 117.148438 296.59375 L 118.363281 296.402344 L 118.363281 293.683594 L 100.714844 293.671875 L 100.714844 292.398438 L 128.152344 292.386719 L 128.222656 296.832031 L 126.722656 297.140625 L 124.867188 297.433594 L 123.078125 297.664062 L 121.222656 297.855469 L 118.578125 298.070312 L 116.433594 298.207031 L 113.148438 298.367188 L 110.144531 298.46875 L 107 298.539062 L 104.214844 298.574219 L 100.929688 298.582031 L 97.996094 298.5625 L 94.855469 298.492188 L 92.351562 298.402344 L 90.066406 298.289062 L 87.78125 298.140625 L 84.921875 297.902344 L 83.0625 297.707031 L 81.132812 297.46875 L 79.203125 297.183594 L 77.488281 296.878906 L 76.347656 296.640625 L 75.203125 296.367188 L 73.988281 296.023438 L 72.84375 295.636719 L 71.988281 295.285156 L 71.203125 294.886719 L 70.628906 294.511719 L 70.058594 294 L 69.773438 293.589844 L 69.628906 293.238281 Z M 69.628906 291.464844 "/>
<path style=" stroke:none;fill-rule:nonzero;fill:rgb(83.921569%,15.686275%,22.352941%);fill-opacity:1;" d="M 69.628906 299.761719 L 128.222656 299.761719 L 128.222656 300.910156 L 103.804688 300.921875 L 103.804688 310.492188 L 93.980469 310.492188 L 93.980469 300.933594 L 93.835938 300.910156 L 69.628906 300.910156 Z M 69.628906 299.761719 "/>
<path style=" stroke:none;fill-rule:nonzero;fill:rgb(6.27451%,58.823529%,28.235294%);fill-opacity:1;" d="M 131.308594 305.296875 L 131.371094 305.285156 L 156.726562 294.152344 L 164.425781 294.152344 L 189.902344 305.308594 L 180.953125 305.308594 L 174.566406 302.394531 L 146.582031 302.394531 L 140.324219 305.296875 L 131.308594 305.296875 L 149.273438 301.191406 L 172 301.179688 L 160.667969 295.976562 L 160.542969 295.964844 L 160.417969 295.996094 L 149.210938 301.179688 L 149.273438 301.191406 Z M 131.308594 305.296875 "/>
<path style=" stroke:none;fill-rule:nonzero;fill:rgb(14.509804%,36.078431%,60%);fill-opacity:1;" d="M 131.308594 189.847656 L 131.378906 189.679688 L 131.378906 185.675781 L 131.59375 179.332031 L 132.09375 171.324219 L 132.59375 165.816406 L 133.882812 155.972656 L 135.667969 146.460938 L 137.523438 139.117188 L 138.882812 134.777344 L 140.097656 131.441406 L 142.882812 125.265625 L 144.671875 122.097656 L 146.601562 119.257812 L 148.957031 116.421875 L 150.671875 114.753906 L 154.53125 112.082031 L 157.390625 110.914062 L 159.605469 110.414062 L 164.394531 110.414062 L 167.25 111.082031 L 169.324219 111.917969 L 171.609375 113.25 L 173.539062 114.753906 L 176.898438 118.425781 L 179.898438 123.097656 L 181.257812 125.765625 L 183.402344 130.941406 L 185.042969 135.945312 L 186.1875 140.285156 L 187.472656 146.460938 L 188.617188 153.96875 L 189.476562 162.480469 L 189.902344 169.65625 L 179.898438 169.65625 L 179.398438 162.980469 L 178.828125 157.804688 L 177.757812 150.964844 L 176.683594 146.125 L 175.183594 141.285156 L 173.824219 138.117188 L 171.96875 134.945312 L 170.324219 132.941406 L 168.609375 131.441406 L 166.964844 130.4375 L 163.820312 129.4375 L 160.175781 129.4375 L 158.820312 129.773438 L 156.03125 131.105469 L 154.53125 132.273438 L 152.386719 134.609375 L 150.886719 136.78125 L 149.101562 140.117188 L 147.886719 142.953125 L 146.386719 147.292969 L 145.3125 151.132812 L 144.097656 156.636719 L 143.386719 160.808594 L 142.742188 165.484375 L 142.171875 170.988281 L 141.742188 176.828125 L 141.457031 183.003906 L 141.3125 189.011719 L 141.3125 214.875 L 141.457031 220.882812 L 141.8125 227.894531 L 142.742188 238.070312 L 144.097656 246.917969 L 145.671875 253.925781 L 147.171875 258.929688 L 148.03125 261.265625 L 149.171875 263.9375 L 150.960938 267.273438 L 153.53125 270.613281 L 155.03125 271.945312 L 157.320312 273.28125 L 159.675781 273.949219 L 162.820312 273.949219 L 165.609375 273.28125 L 167.464844 272.449219 L 169.394531 271.113281 L 172.039062 268.277344 L 173.683594 265.605469 L 175.113281 262.433594 L 176.183594 259.265625 L 176.898438 256.59375 L 177.96875 251.421875 L 178.828125 245.746094 L 179.472656 239.90625 L 179.898438 234.234375 L 189.902344 234.234375 L 189.476562 240.910156 L 188.832031 247.417969 L 188.1875 252.257812 L 187.1875 258.097656 L 186.046875 263.269531 L 184.402344 269.109375 L 183.042969 272.949219 L 181.257812 277.121094 L 179.613281 280.289062 L 177.828125 283.128906 L 175.183594 286.464844 L 173.46875 288.132812 L 171.609375 289.636719 L 169.394531 290.96875 L 166.609375 292.136719 L 163.605469 292.804688 L 160.820312 292.972656 L 157.820312 292.640625 L 155.605469 291.972656 L 152.675781 290.46875 L 149.03125 287.464844 L 146.386719 284.296875 L 144.3125 281.125 L 142.527344 277.789062 L 140.527344 273.28125 L 137.953125 265.9375 L 136.382812 260.265625 L 135.308594 255.59375 L 134.09375 249.085938 L 133.238281 243.246094 L 132.238281 233.898438 L 131.523438 222.050781 L 131.308594 212.875 Z M 131.308594 189.847656 "/>
<path style=" stroke:none;fill-rule:nonzero;fill:rgb(96.862745%,70.196078%,16.862745%);fill-opacity:1;" d="M 131.308594 309.335938 L 131.378906 309.332031 L 131.378906 309.207031 L 131.664062 308.933594 L 132.378906 308.558594 L 133.308594 308.25 L 134.308594 308.003906 L 134.953125 307.878906 L 136.023438 307.695312 L 136.953125 307.5625 L 139.3125 307.289062 L 142.3125 307.035156 L 143.957031 306.925781 L 145.8125 306.820312 L 148.457031 306.707031 L 149.671875 306.664062 L 153.390625 306.566406 L 157.605469 306.503906 L 162.25 306.488281 L 164.394531 306.492188 L 167.324219 306.515625 L 171.324219 306.585938 L 173.613281 306.644531 L 175.398438 306.707031 L 177.253906 306.785156 L 179.542969 306.90625 L 181.6875 307.050781 L 183.402344 307.199219 L 185.117188 307.378906 L 186.546875 307.574219 L 187.761719 307.785156 L 188.832031 308.042969 L 189.476562 308.253906 L 189.902344 308.46875 L 179.972656 308.46875 L 179.398438 308.253906 L 178.757812 308.089844 L 177.683594 307.890625 L 176.613281 307.746094 L 175.539062 307.628906 L 173.539062 307.472656 L 171.824219 307.375 L 169.679688 307.289062 L 167.609375 307.234375 L 165.25 307.199219 L 163.820312 307.1875 L 160.035156 307.1875 L 156.605469 307.226562 L 154.605469 307.277344 L 153.175781 307.324219 L 151.171875 307.417969 L 149.957031 307.488281 L 149.246094 307.539062 L 147.101562 307.726562 L 145.671875 307.894531 L 144.886719 308.011719 L 143.886719 308.195312 L 143.171875 308.359375 L 142.382812 308.601562 L 141.957031 308.785156 L 141.382812 309.195312 L 141.3125 310.289062 L 141.527344 310.519531 L 141.957031 310.769531 L 142.527344 310.988281 L 143.386719 311.21875 L 144.242188 311.394531 L 145.742188 311.632812 L 147.027344 311.789062 L 148.03125 311.894531 L 149.957031 312.058594 L 150.746094 312.113281 L 152.601562 312.222656 L 154.53125 312.308594 L 156.890625 312.378906 L 158.675781 312.417969 L 161.535156 312.445312 L 165.179688 312.445312 L 169.46875 312.410156 L 172.183594 312.363281 L 174.039062 312.3125 L 175.253906 312.269531 L 176.753906 312.203125 L 177.828125 312.144531 L 178.828125 312.078125 L 180.042969 311.972656 L 180.042969 310.519531 L 162.390625 310.515625 L 162.390625 309.835938 L 189.832031 309.828125 L 189.902344 312.203125 L 188.402344 312.367188 L 186.546875 312.527344 L 184.757812 312.648438 L 182.902344 312.75 L 180.257812 312.867188 L 178.113281 312.9375 L 174.824219 313.023438 L 171.824219 313.078125 L 168.679688 313.117188 L 165.894531 313.132812 L 162.605469 313.140625 L 159.675781 313.128906 L 156.53125 313.089844 L 154.03125 313.042969 L 151.746094 312.980469 L 149.457031 312.902344 L 146.601562 312.773438 L 144.742188 312.671875 L 142.8125 312.542969 L 140.882812 312.390625 L 139.167969 312.226562 L 138.027344 312.101562 L 136.882812 311.953125 L 135.667969 311.773438 L 134.523438 311.566406 L 133.667969 311.378906 L 132.878906 311.164062 L 132.308594 310.964844 L 131.738281 310.691406 L 131.453125 310.472656 L 131.308594 310.285156 Z M 131.308594 309.335938 "/>
<path style=" stroke:none;fill-rule:nonzero;fill:rgb(83.921569%,15.686275%,22.352941%);fill-opacity:1;" d="M 131.308594 314.320312 L 189.902344 314.320312 L 189.902344 314.324219 L 165.484375 314.324219 L 165.484375 314.371094 L 155.65625 314.371094 L 155.65625 314.324219 L 131.308594 314.324219 Z M 131.308594 314.320312 "/>
<path style=" stroke:none;fill-rule:nonzero;fill:rgb(6.27451%,58.823529%,28.235294%);fill-opacity:1;" d="M 192.988281 313.886719 L 193.050781 313.875 L 218.402344 300.363281 L 226.105469 300.363281 L 251.582031 313.898438 L 242.628906 313.898438 L 236.246094 310.367188 L 208.261719 310.367188 L 202.003906 313.886719 L 192.988281 313.886719 L 210.953125 308.90625 L 233.679688 308.890625 L 222.347656 302.578125 L 222.222656 302.5625 L 222.097656 302.601562 L 210.890625 308.890625 L 210.953125 308.90625 Z M 192.988281 313.886719 "/>
<path style=" stroke:none;fill-rule:nonzero;fill:rgb(14.509804%,36.078431%,60%);fill-opacity:1;" d="M 192.988281 170.75 L 193.058594 170.542969 L 193.058594 165.554688 L 193.273438 157.65625 L 193.773438 147.679688 L 194.273438 140.824219 L 195.558594 128.5625 L 197.347656 116.714844 L 199.203125 107.570312 L 200.5625 102.167969 L 201.777344 98.011719 L 204.5625 90.320312 L 206.351562 86.371094 L 208.28125 82.839844 L 210.636719 79.304688 L 212.351562 77.226562 L 216.210938 73.902344 L 219.070312 72.449219 L 221.285156 71.824219 L 226.074219 71.824219 L 228.929688 72.65625 L 231.003906 73.695312 L 233.289062 75.359375 L 235.21875 77.226562 L 238.578125 81.800781 L 241.578125 87.621094 L 242.9375 90.945312 L 245.082031 97.386719 L 246.722656 103.621094 L 247.867188 109.023438 L 249.152344 116.714844 L 250.296875 126.066406 L 251.152344 136.664062 L 251.582031 145.601562 L 241.578125 145.601562 L 241.078125 137.289062 L 240.507812 130.847656 L 239.433594 122.324219 L 238.363281 116.300781 L 236.863281 110.273438 L 235.503906 106.324219 L 233.648438 102.375 L 232.003906 99.882812 L 230.289062 98.011719 L 228.644531 96.761719 L 225.5 95.515625 L 221.855469 95.515625 L 220.5 95.933594 L 217.710938 97.59375 L 216.210938 99.050781 L 214.066406 101.960938 L 212.566406 104.660156 L 210.78125 108.816406 L 209.566406 112.351562 L 208.066406 117.753906 L 206.992188 122.535156 L 205.777344 129.390625 L 205.0625 134.585938 L 204.421875 140.40625 L 203.847656 147.265625 L 203.421875 154.539062 L 203.132812 162.230469 L 202.992188 169.710938 L 202.992188 201.921875 L 203.132812 209.40625 L 203.492188 218.132812 L 204.421875 230.8125 L 205.777344 241.824219 L 207.351562 250.554688 L 208.851562 256.789062 L 209.707031 259.699219 L 210.851562 263.023438 L 212.636719 267.179688 L 215.210938 271.335938 L 216.710938 273 L 219 274.664062 L 221.355469 275.492188 L 224.5 275.492188 L 227.289062 274.664062 L 229.144531 273.625 L 231.074219 271.960938 L 233.71875 268.425781 L 235.363281 265.101562 L 236.792969 261.152344 L 237.863281 257.203125 L 238.578125 253.878906 L 239.648438 247.4375 L 240.507812 240.371094 L 241.148438 233.097656 L 241.578125 226.03125 L 251.582031 226.03125 L 251.152344 234.34375 L 250.511719 242.449219 L 249.867188 248.476562 L 248.867188 255.75 L 247.722656 262.191406 L 246.082031 269.464844 L 244.722656 274.246094 L 242.9375 279.441406 L 241.292969 283.390625 L 239.507812 286.925781 L 236.863281 291.082031 L 235.148438 293.160156 L 233.289062 295.027344 L 231.074219 296.691406 L 228.289062 298.148438 L 225.285156 298.976562 L 222.5 299.1875 L 219.5 298.769531 L 217.285156 297.9375 L 214.351562 296.066406 L 210.710938 292.328125 L 208.066406 288.378906 L 205.992188 284.429688 L 204.207031 280.273438 L 202.207031 274.664062 L 199.632812 265.519531 L 198.0625 258.453125 L 196.988281 252.632812 L 195.773438 244.527344 L 194.917969 237.253906 L 193.917969 225.617188 L 193.203125 210.859375 L 192.988281 199.429688 Z M 192.988281 170.75 "/>
<path style=" stroke:none;fill-rule:nonzero;fill:rgb(96.862745%,70.196078%,16.862745%);fill-opacity:1;" d="M 254.667969 146.441406 L 254.738281 146.171875 L 254.738281 140.808594 L 255.023438 128.742188 L 255.738281 112.113281 L 256.667969 98.4375 L 257.667969 87.707031 L 258.3125 82.078125 L 259.382812 74.03125 L 260.3125 68.132812 L 262.671875 56.0625 L 265.671875 44.800781 L 267.316406 39.972656 L 269.171875 35.414062 L 271.816406 30.316406 L 273.03125 28.441406 L 276.746094 24.148438 L 280.964844 21.46875 L 285.609375 20.664062 L 287.75 20.929688 L 290.679688 22.003906 L 294.683594 24.953125 L 296.96875 27.636719 L 298.757812 30.316406 L 300.613281 33.804688 L 302.902344 39.167969 L 305.042969 45.605469 L 306.757812 52.039062 L 308.472656 60.085938 L 309.902344 68.667969 L 311.117188 78.054688 L 312.191406 89.316406 L 312.832031 98.703125 L 313.261719 108.089844 L 303.328125 108.089844 L 302.757812 98.703125 L 302.113281 91.464844 L 301.042969 82.613281 L 299.972656 76.175781 L 298.898438 71.082031 L 296.898438 64.109375 L 295.183594 59.816406 L 293.039062 56.0625 L 290.96875 53.648438 L 288.609375 52.039062 L 287.179688 51.503906 L 283.394531 51.503906 L 279.960938 53.382812 L 277.960938 55.527344 L 276.53125 57.671875 L 274.53125 61.695312 L 273.316406 64.914062 L 272.601562 67.058594 L 270.457031 75.371094 L 269.03125 82.882812 L 268.242188 87.976562 L 267.242188 96.023438 L 266.527344 103.261719 L 265.742188 113.992188 L 265.3125 122.035156 L 264.742188 140.273438 L 264.671875 188.546875 L 264.886719 198.738281 L 265.3125 209.730469 L 265.886719 219.386719 L 266.742188 229.578125 L 267.601562 237.355469 L 269.101562 247.8125 L 270.386719 254.785156 L 271.386719 259.347656 L 273.316406 266.585938 L 274.101562 269 L 275.960938 273.828125 L 277.890625 277.582031 L 280.25 280.800781 L 282.035156 282.410156 L 284.894531 283.75 L 288.539062 283.75 L 292.824219 282.140625 L 295.539062 279.996094 L 297.398438 277.851562 L 298.613281 275.972656 L 300.113281 273.023438 L 301.1875 270.339844 L 302.1875 267.390625 L 303.402344 262.832031 L 303.402344 198.738281 L 285.75 198.46875 L 285.75 168.433594 L 313.191406 168.164062 L 313.261719 273.023438 L 311.761719 280.265625 L 309.902344 287.238281 L 308.117188 292.601562 L 306.257812 297.160156 L 303.617188 302.253906 L 301.472656 305.472656 L 298.183594 309.226562 L 295.183594 311.640625 L 292.039062 313.25 L 289.253906 314.054688 L 285.964844 314.324219 L 283.035156 313.785156 L 279.890625 312.179688 L 277.390625 310.03125 L 275.105469 307.351562 L 272.816406 303.863281 L 269.957031 298.230469 L 268.101562 293.671875 L 266.171875 288.042969 L 264.242188 281.335938 L 262.527344 274.097656 L 261.382812 268.464844 L 260.242188 262.027344 L 259.027344 253.980469 L 257.882812 244.863281 L 257.023438 236.550781 L 256.238281 227.164062 L 255.667969 218.3125 L 255.09375 206.246094 L 254.808594 196.589844 L 254.667969 188.277344 Z M 254.667969 146.441406 "/>
<path style=" stroke:none;fill-rule:nonzero;fill:rgb(96.862745%,70.196078%,16.862745%);fill-opacity:1;" d="M 316.347656 147.355469 L 316.417969 147.089844 L 316.417969 141.765625 L 316.703125 129.789062 L 317.417969 113.289062 L 318.347656 99.714844 L 319.347656 89.070312 L 319.992188 83.480469 L 321.0625 75.496094 L 321.992188 69.640625 L 324.347656 57.664062 L 327.351562 46.484375 L 328.992188 41.695312 L 330.851562 37.167969 L 333.496094 32.113281 L 334.710938 30.25 L 338.425781 25.992188 L 342.640625 23.328125 L 347.289062 22.53125 L 349.429688 22.796875 L 352.359375 23.863281 L 356.363281 26.789062 L 358.648438 29.453125 L 360.433594 32.113281 L 362.292969 35.574219 L 364.578125 40.894531 L 366.722656 47.285156 L 368.4375 53.671875 L 370.152344 61.65625 L 371.582031 70.171875 L 372.796875 79.488281 L 373.871094 90.667969 L 374.511719 99.980469 L 374.941406 109.296875 L 365.007812 109.296875 L 364.4375 99.980469 L 363.792969 92.796875 L 362.722656 84.011719 L 361.648438 77.625 L 360.578125 72.566406 L 358.578125 65.648438 L 356.863281 61.390625 L 354.71875 57.664062 L 352.644531 55.269531 L 350.289062 53.671875 L 348.859375 53.140625 L 345.070312 53.140625 L 341.640625 55 L 339.640625 57.132812 L 338.210938 59.261719 L 336.210938 63.253906 L 334.996094 66.445312 L 334.28125 68.574219 L 332.136719 76.828125 L 330.707031 84.277344 L 329.921875 89.335938 L 328.921875 97.320312 L 328.207031 104.507812 L 327.421875 115.152344 L 326.992188 123.136719 L 326.421875 141.234375 L 326.351562 189.140625 L 326.5625 199.257812 L 326.992188 210.167969 L 327.566406 219.75 L 328.421875 229.863281 L 329.28125 237.582031 L 330.78125 247.960938 L 332.066406 254.882812 L 333.066406 259.40625 L 334.996094 266.59375 L 335.78125 268.988281 L 337.640625 273.777344 L 339.570312 277.503906 L 341.929688 280.699219 L 343.714844 282.296875 L 346.574219 283.625 L 350.21875 283.625 L 354.503906 282.03125 L 357.21875 279.898438 L 359.078125 277.769531 L 360.292969 275.90625 L 361.792969 272.980469 L 362.863281 270.320312 L 363.867188 267.390625 L 365.078125 262.867188 L 365.078125 199.257812 L 347.429688 198.988281 L 347.429688 169.179688 L 374.871094 168.914062 L 374.941406 272.980469 L 373.441406 280.167969 L 371.582031 287.085938 L 369.796875 292.410156 L 367.9375 296.933594 L 365.292969 301.992188 L 363.152344 305.183594 L 359.863281 308.910156 L 356.863281 311.304688 L 353.71875 312.902344 L 350.929688 313.703125 L 347.644531 313.96875 L 344.714844 313.433594 L 341.570312 311.839844 L 339.070312 309.710938 L 336.78125 307.046875 L 334.496094 303.589844 L 331.636719 298 L 329.78125 293.472656 L 327.851562 287.886719 L 325.921875 281.230469 L 324.207031 274.046875 L 323.0625 268.457031 L 321.917969 262.066406 L 320.703125 254.082031 L 319.5625 245.035156 L 318.703125 236.785156 L 317.917969 227.46875 L 317.347656 218.683594 L 316.773438 206.707031 L 316.488281 197.128906 L 316.347656 188.875 Z M 316.347656 147.355469 "/>
<path style=" stroke:none;fill-rule:nonzero;fill:rgb(6.27451%,58.823529%,28.235294%);fill-opacity:1;" d="M 378.023438 313.753906 L 378.085938 313.480469 L 403.441406 22.503906 L 411.140625 22.503906 L 436.621094 314.027344 L 427.667969 314.027344 L 421.28125 237.929688 L 393.300781 237.929688 L 387.039062 313.753906 L 378.023438 313.753906 L 395.992188 206.453125 L 418.714844 206.179688 L 407.386719 70.132812 L 407.261719 69.859375 L 407.136719 70.679688 L 395.929688 206.179688 L 395.992188 206.453125 Z M 378.023438 313.753906 "/>
<path style=" stroke:none;fill-rule:nonzero;fill:rgb(6.27451%,58.823529%,28.235294%);fill-opacity:1;" d="M 439.703125 287.679688 L 439.765625 287.507812 L 465.121094 106.105469 L 472.820312 106.105469 L 498.300781 287.851562 L 489.347656 287.851562 L 482.960938 240.410156 L 454.980469 240.410156 L 448.71875 287.679688 L 439.703125 287.679688 L 457.671875 220.785156 L 480.394531 220.613281 L 469.066406 135.796875 L 468.9375 135.628906 L 468.8125 136.140625 L 457.609375 220.613281 L 457.671875 220.785156 Z M 439.703125 287.679688 "/>
<path style=" stroke:none;fill-rule:nonzero;fill:rgb(83.921569%,15.686275%,22.352941%);fill-opacity:1;" d="M 439.703125 289.03125 L 498.300781 289.03125 L 498.300781 291.628906 L 473.878906 291.652344 L 473.878906 313.304688 L 464.054688 313.304688 L 464.054688 291.675781 L 463.910156 291.628906 L 439.703125 291.628906 Z M 439.703125 289.03125 "/>
<path style=" stroke:none;fill-rule:nonzero;fill:rgb(6.27451%,58.823529%,28.235294%);fill-opacity:1;" d="M 501.382812 312.359375 L 501.445312 312.308594 L 526.800781 255.746094 L 534.5 255.746094 L 559.980469 312.414062 L 551.027344 312.414062 L 544.640625 297.621094 L 516.660156 297.621094 L 510.398438 312.359375 L 501.382812 312.359375 L 519.351562 291.503906 L 542.074219 291.449219 L 530.742188 265.003906 L 530.617188 264.949219 L 530.492188 265.109375 L 519.289062 291.449219 L 519.351562 291.503906 Z M 501.382812 312.359375 "/>
<path style=" stroke:none;fill-rule:nonzero;fill:rgb(14.509804%,36.078431%,60%);fill-opacity:1;" d="M 501.382812 313.824219 L 501.453125 313.820312 L 501.453125 313.808594 L 501.667969 313.792969 L 502.167969 313.769531 L 502.667969 313.753906 L 503.957031 313.726562 L 505.742188 313.699219 L 507.601562 313.675781 L 508.957031 313.664062 L 510.171875 313.65625 L 512.960938 313.636719 L 514.746094 313.628906 L 516.675781 313.621094 L 519.035156 313.609375 L 520.75 313.605469 L 524.605469 313.597656 L 527.464844 313.59375 L 534.46875 313.59375 L 537.328125 313.597656 L 539.398438 313.597656 L 541.6875 313.601562 L 543.613281 313.605469 L 546.972656 313.617188 L 549.976562 313.628906 L 551.332031 313.636719 L 553.476562 313.652344 L 555.121094 313.667969 L 556.261719 313.679688 L 557.550781 313.699219 L 558.691406 313.71875 L 559.550781 313.742188 L 559.980469 313.765625 L 549.976562 313.765625 L 549.472656 313.746094 L 548.902344 313.730469 L 547.832031 313.710938 L 546.757812 313.695312 L 545.257812 313.683594 L 543.902344 313.671875 L 542.042969 313.664062 L 540.398438 313.660156 L 538.683594 313.65625 L 537.039062 313.652344 L 533.898438 313.648438 L 528.894531 313.648438 L 526.109375 313.652344 L 524.605469 313.65625 L 522.464844 313.664062 L 520.960938 313.667969 L 519.175781 313.679688 L 517.960938 313.6875 L 516.460938 313.699219 L 515.390625 313.710938 L 514.175781 313.726562 L 513.460938 313.738281 L 512.816406 313.753906 L 512.246094 313.769531 L 511.816406 313.785156 L 511.53125 313.804688 L 511.386719 313.820312 L 511.386719 313.894531 L 511.53125 313.910156 L 511.886719 313.933594 L 512.816406 313.960938 L 514.175781 313.988281 L 515.746094 314.007812 L 517.246094 314.019531 L 518.105469 314.027344 L 519.246094 314.035156 L 521.035156 314.046875 L 523.605469 314.054688 L 525.105469 314.058594 L 527.394531 314.0625 L 529.753906 314.066406 L 532.894531 314.066406 L 535.683594 314.0625 L 537.542969 314.058594 L 539.46875 314.054688 L 542.113281 314.046875 L 543.757812 314.039062 L 545.1875 314.03125 L 546.257812 314.023438 L 546.972656 314.015625 L 548.046875 314 L 548.902344 313.984375 L 549.546875 313.964844 L 549.976562 313.949219 L 559.980469 313.949219 L 559.550781 313.96875 L 558.90625 313.988281 L 558.265625 314.003906 L 557.261719 314.019531 L 556.121094 314.035156 L 554.476562 314.050781 L 553.117188 314.0625 L 551.332031 314.074219 L 549.6875 314.082031 L 547.902344 314.089844 L 545.257812 314.101562 L 543.542969 314.105469 L 541.6875 314.109375 L 539.46875 314.113281 L 536.683594 314.117188 L 533.683594 314.117188 L 530.894531 314.121094 L 527.894531 314.117188 L 525.679688 314.117188 L 522.75 314.113281 L 519.105469 314.101562 L 516.460938 314.09375 L 514.390625 314.085938 L 512.601562 314.074219 L 510.601562 314.0625 L 508.027344 314.042969 L 506.457031 314.023438 L 505.386719 314.011719 L 504.171875 313.992188 L 503.3125 313.976562 L 502.3125 313.949219 L 501.597656 313.914062 L 501.382812 313.890625 Z M 501.382812 313.824219 "/>
<path style=" stroke:none;fill-rule:nonzero;fill:rgb(96.862745%,70.196078%,16.862745%);fill-opacity:1;" d="M 501.382812 212.847656 L 501.453125 212.78125 L 501.453125 211.449219 L 501.742188 208.453125 L 502.457031 204.320312 L 503.382812 200.921875 L 504.382812 198.253906 L 505.027344 196.855469 L 506.101562 194.855469 L 507.027344 193.390625 L 509.386719 190.390625 L 512.386719 187.59375 L 514.03125 186.394531 L 515.890625 185.261719 L 518.535156 183.996094 L 519.75 183.527344 L 523.464844 182.460938 L 527.679688 181.796875 L 532.324219 181.597656 L 534.46875 181.664062 L 537.398438 181.929688 L 541.398438 182.664062 L 543.6875 183.328125 L 545.472656 183.996094 L 547.332031 184.863281 L 549.617188 186.195312 L 551.761719 187.792969 L 553.476562 189.394531 L 555.191406 191.390625 L 556.621094 193.523438 L 557.835938 195.855469 L 558.90625 198.65625 L 559.550781 200.988281 L 559.980469 203.320312 L 550.046875 203.320312 L 549.472656 200.988281 L 548.832031 199.1875 L 547.757812 196.988281 L 546.6875 195.390625 L 545.617188 194.125 L 543.613281 192.390625 L 541.898438 191.324219 L 539.757812 190.390625 L 537.683594 189.792969 L 535.324219 189.394531 L 533.898438 189.257812 L 530.109375 189.257812 L 526.679688 189.726562 L 524.679688 190.257812 L 523.25 190.792969 L 521.25 191.792969 L 520.035156 192.589844 L 519.320312 193.125 L 517.175781 195.191406 L 515.746094 197.054688 L 514.960938 198.324219 L 513.960938 200.320312 L 513.246094 202.121094 L 512.460938 204.785156 L 512.03125 206.785156 L 511.460938 211.316406 L 511.386719 223.3125 L 511.601562 225.84375 L 512.03125 228.574219 L 512.601562 230.976562 L 513.460938 233.507812 L 514.316406 235.441406 L 515.816406 238.039062 L 517.105469 239.769531 L 518.105469 240.902344 L 520.035156 242.703125 L 520.820312 243.304688 L 522.679688 244.503906 L 524.605469 245.433594 L 526.964844 246.234375 L 528.75 246.636719 L 531.609375 246.96875 L 535.253906 246.96875 L 539.542969 246.570312 L 542.257812 246.035156 L 544.113281 245.503906 L 545.328125 245.035156 L 546.832031 244.300781 L 547.902344 243.636719 L 548.902344 242.902344 L 550.117188 241.769531 L 550.117188 225.84375 L 532.46875 225.777344 L 532.46875 218.3125 L 559.90625 218.246094 L 559.980469 244.300781 L 558.476562 246.101562 L 556.621094 247.835938 L 554.832031 249.167969 L 552.976562 250.300781 L 550.332031 251.566406 L 548.1875 252.367188 L 544.902344 253.300781 L 541.898438 253.898438 L 538.753906 254.296875 L 535.96875 254.5 L 532.683594 254.566406 L 529.753906 254.433594 L 526.609375 254.03125 L 524.105469 253.5 L 521.820312 252.832031 L 519.535156 251.964844 L 516.675781 250.566406 L 514.816406 249.433594 L 512.886719 248.035156 L 510.957031 246.367188 L 509.242188 244.570312 L 508.101562 243.167969 L 506.957031 241.570312 L 505.742188 239.570312 L 504.597656 237.304688 L 503.742188 235.238281 L 502.957031 232.90625 L 502.382812 230.707031 L 501.8125 227.710938 L 501.527344 225.3125 L 501.382812 223.246094 Z M 501.382812 212.847656 "/>
<path style=" stroke:none;fill-rule:nonzero;fill:rgb(6.27451%,58.823529%,28.235294%);fill-opacity:1;" d="M 563.0625 314.371094 L 563.125 314.367188 L 588.480469 313.160156 L 596.179688 313.160156 L 621.65625 314.371094 L 612.707031 314.371094 L 606.320312 314.054688 L 578.335938 314.054688 L 572.078125 314.371094 L 563.0625 314.371094 L 581.03125 313.925781 L 603.753906 313.921875 L 592.421875 313.359375 L 592.296875 313.355469 L 592.171875 313.359375 L 580.964844 313.921875 L 581.03125 313.925781 Z M 563.0625 314.371094 "/>
<path style=" stroke:none;fill-rule:nonzero;fill:rgb(14.509804%,36.078431%,60%);fill-opacity:1;" d="M 563.0625 290.539062 L 563.132812 290.511719 L 563.132812 289.882812 L 563.347656 288.890625 L 563.847656 287.636719 L 564.347656 286.773438 L 565.636719 285.230469 L 567.421875 283.742188 L 569.28125 282.59375 L 570.636719 281.914062 L 571.851562 281.390625 L 574.640625 280.421875 L 576.425781 279.925781 L 578.355469 279.480469 L 580.710938 279.039062 L 582.425781 278.777344 L 586.285156 278.359375 L 589.144531 278.175781 L 591.359375 278.097656 L 596.148438 278.097656 L 599.003906 278.203125 L 601.078125 278.332031 L 603.363281 278.542969 L 605.292969 278.777344 L 608.652344 279.351562 L 611.652344 280.082031 L 613.011719 280.5 L 615.15625 281.3125 L 616.796875 282.09375 L 617.941406 282.773438 L 619.226562 283.742188 L 620.371094 284.917969 L 621.230469 286.25 L 621.65625 287.375 L 611.652344 287.375 L 611.152344 286.328125 L 610.582031 285.519531 L 609.511719 284.449219 L 608.4375 283.691406 L 606.9375 282.933594 L 605.578125 282.433594 L 603.722656 281.9375 L 602.078125 281.625 L 600.363281 281.390625 L 598.71875 281.234375 L 595.574219 281.078125 L 591.929688 281.078125 L 590.574219 281.128906 L 587.785156 281.335938 L 586.285156 281.519531 L 584.144531 281.886719 L 582.640625 282.226562 L 580.855469 282.75 L 579.640625 283.191406 L 578.140625 283.871094 L 577.066406 284.472656 L 575.855469 285.335938 L 575.140625 285.988281 L 574.496094 286.722656 L 573.925781 287.582031 L 573.496094 288.5 L 573.210938 289.464844 L 573.066406 290.40625 L 573.066406 294.457031 L 573.210938 295.398438 L 573.566406 296.496094 L 574.496094 298.089844 L 575.855469 299.476562 L 577.425781 300.574219 L 578.925781 301.355469 L 579.785156 301.722656 L 580.925781 302.140625 L 582.714844 302.664062 L 585.285156 303.1875 L 586.785156 303.394531 L 589.074219 303.605469 L 591.429688 303.710938 L 594.574219 303.710938 L 597.363281 303.605469 L 599.21875 303.472656 L 601.148438 303.265625 L 603.792969 302.820312 L 605.4375 302.402344 L 606.867188 301.90625 L 607.9375 301.410156 L 608.652344 300.992188 L 609.722656 300.179688 L 610.582031 299.292969 L 611.226562 298.378906 L 611.652344 297.488281 L 621.65625 297.488281 L 621.230469 298.535156 L 620.585938 299.554688 L 619.941406 300.3125 L 618.941406 301.226562 L 617.800781 302.035156 L 616.15625 302.953125 L 614.796875 303.550781 L 613.011719 304.207031 L 611.367188 304.703125 L 609.582031 305.148438 L 606.9375 305.667969 L 605.222656 305.929688 L 603.363281 306.164062 L 601.148438 306.375 L 598.363281 306.558594 L 595.363281 306.664062 L 592.574219 306.6875 L 589.574219 306.636719 L 587.359375 306.53125 L 584.429688 306.296875 L 580.785156 305.828125 L 578.140625 305.328125 L 576.066406 304.832031 L 574.28125 304.308594 L 572.28125 303.605469 L 569.707031 302.453125 L 568.136719 301.566406 L 567.0625 300.835938 L 565.847656 299.816406 L 564.992188 298.898438 L 563.992188 297.4375 L 563.277344 295.582031 L 563.0625 294.144531 Z M 563.0625 290.539062 "/>
<path style=" stroke:none;fill-rule:nonzero;fill:rgb(96.862745%,70.196078%,16.862745%);fill-opacity:1;" d="M 563.0625 309.628906 L 563.132812 309.625 L 563.132812 309.550781 L 563.421875 309.382812 L 564.132812 309.148438 L 565.0625 308.957031 L 566.0625 308.808594 L 566.707031 308.726562 L 567.777344 308.617188 L 568.707031 308.53125 L 571.066406 308.363281 L 574.066406 308.207031 L 575.710938 308.136719 L 577.570312 308.074219 L 580.210938 308.003906 L 581.425781 307.976562 L 585.144531 307.917969 L 589.359375 307.878906 L 594.003906 307.867188 L 596.148438 307.871094 L 599.078125 307.886719 L 603.078125 307.929688 L 605.367188 307.964844 L 607.152344 308.003906 L 609.011719 308.050781 L 611.296875 308.128906 L 613.441406 308.21875 L 615.15625 308.308594 L 616.871094 308.421875 L 618.300781 308.539062 L 619.515625 308.671875 L 620.585938 308.828125 L 621.230469 308.960938 L 621.65625 309.09375 L 611.726562 309.09375 L 611.152344 308.960938 L 610.511719 308.859375 L 609.4375 308.734375 L 608.367188 308.644531 L 607.292969 308.574219 L 605.292969 308.476562 L 603.578125 308.417969 L 601.433594 308.363281 L 599.363281 308.332031 L 597.003906 308.308594 L 595.574219 308.300781 L 591.789062 308.300781 L 588.359375 308.328125 L 586.359375 308.355469 L 584.929688 308.386719 L 582.929688 308.441406 L 581.714844 308.488281 L 581 308.519531 L 578.855469 308.632812 L 577.425781 308.738281 L 576.640625 308.8125 L 575.640625 308.921875 L 574.925781 309.023438 L 574.136719 309.175781 L 573.710938 309.289062 L 573.136719 309.542969 L 573.066406 310.21875 L 573.28125 310.363281 L 573.710938 310.515625 L 574.28125 310.652344 L 575.140625 310.792969 L 575.996094 310.902344 L 577.496094 311.050781 L 578.785156 311.148438 L 579.785156 311.210938 L 581.714844 311.3125 L 582.5 311.347656 L 584.355469 311.414062 L 586.285156 311.464844 L 588.644531 311.511719 L 590.429688 311.535156 L 593.289062 311.550781 L 596.933594 311.550781 L 601.222656 311.53125 L 603.9375 311.5 L 605.792969 311.46875 L 607.007812 311.445312 L 608.507812 311.402344 L 609.582031 311.363281 L 610.582031 311.324219 L 611.796875 311.257812 L 611.796875 310.363281 L 594.148438 310.359375 L 594.148438 309.9375 L 621.585938 309.933594 L 621.65625 311.402344 L 620.15625 311.503906 L 618.300781 311.601562 L 616.511719 311.675781 L 614.65625 311.738281 L 612.011719 311.8125 L 609.867188 311.855469 L 606.582031 311.910156 L 603.578125 311.941406 L 600.433594 311.964844 L 597.648438 311.976562 L 594.359375 311.980469 L 591.429688 311.972656 L 588.289062 311.949219 L 585.785156 311.921875 L 583.5 311.882812 L 581.210938 311.835938 L 578.355469 311.753906 L 576.496094 311.691406 L 574.566406 311.613281 L 572.636719 311.519531 L 570.921875 311.417969 L 569.78125 311.339844 L 568.636719 311.25 L 567.421875 311.136719 L 566.277344 311.007812 L 565.421875 310.890625 L 564.632812 310.761719 L 564.0625 310.636719 L 563.492188 310.46875 L 563.207031 310.332031 L 563.0625 310.214844 Z M 563.0625 309.628906 "/>
<path style=" stroke:none;fill-rule:nonzero;fill:rgb(83.921569%,15.686275%,22.352941%);fill-opacity:1;" d="M 563.0625 191.730469 L 621.65625 191.730469 L 621.65625 200.847656 L 597.238281 200.929688 L 597.238281 276.917969 L 587.410156 276.917969 L 587.410156 201.007812 L 587.269531 200.847656 L 563.0625 200.847656 Z M 563.0625 191.730469 "/>
<path style=" stroke:none;fill-rule:nonzero;fill:rgb(6.27451%,58.823529%,28.235294%);fill-opacity:1;" d="M 624.742188 308.410156 L 624.804688 308.40625 L 650.15625 305.183594 L 657.859375 305.183594 L 683.335938 308.414062 L 674.386719 308.414062 L 668 307.570312 L 640.015625 307.570312 L 633.757812 308.410156 L 624.742188 308.410156 L 642.707031 307.222656 L 665.433594 307.21875 L 654.101562 305.710938 L 653.976562 305.707031 L 653.851562 305.71875 L 642.644531 307.21875 L 642.707031 307.222656 Z M 624.742188 308.410156 "/>
<path style=" stroke:none;fill-rule:nonzero;fill:rgb(14.509804%,36.078431%,60%);fill-opacity:1;" d="M 624.742188 310.46875 L 624.8125 310.46875 L 624.8125 310.421875 L 625.027344 310.351562 L 625.527344 310.265625 L 626.027344 310.203125 L 627.3125 310.09375 L 629.101562 309.988281 L 630.957031 309.910156 L 632.316406 309.859375 L 633.53125 309.824219 L 636.316406 309.757812 L 638.105469 309.722656 L 640.035156 309.691406 L 642.390625 309.660156 L 644.105469 309.640625 L 647.964844 309.609375 L 650.824219 309.597656 L 653.039062 309.59375 L 657.828125 309.59375 L 660.683594 309.597656 L 662.757812 309.609375 L 665.042969 309.625 L 666.972656 309.640625 L 670.332031 309.679688 L 673.332031 309.730469 L 674.691406 309.761719 L 676.835938 309.820312 L 678.476562 309.875 L 679.621094 309.921875 L 680.90625 309.988281 L 682.050781 310.074219 L 682.910156 310.167969 L 683.335938 310.246094 L 673.332031 310.246094 L 672.832031 310.171875 L 672.261719 310.117188 L 671.1875 310.039062 L 670.117188 309.988281 L 668.617188 309.933594 L 667.257812 309.898438 L 665.402344 309.863281 L 663.757812 309.839844 L 662.042969 309.824219 L 660.398438 309.8125 L 657.253906 309.800781 L 653.609375 309.800781 L 652.253906 309.804688 L 649.464844 309.820312 L 647.964844 309.832031 L 645.820312 309.859375 L 644.320312 309.882812 L 642.535156 309.921875 L 641.320312 309.953125 L 639.820312 310 L 638.746094 310.042969 L 637.53125 310.101562 L 636.816406 310.148438 L 636.175781 310.199219 L 635.601562 310.261719 L 635.175781 310.324219 L 634.890625 310.394531 L 634.746094 310.460938 L 634.746094 310.746094 L 634.890625 310.8125 L 635.246094 310.890625 L 636.175781 311.003906 L 637.53125 311.101562 L 639.105469 311.175781 L 640.605469 311.234375 L 641.464844 311.257812 L 642.605469 311.289062 L 644.394531 311.324219 L 646.964844 311.363281 L 648.464844 311.375 L 650.753906 311.390625 L 653.109375 311.398438 L 656.253906 311.398438 L 659.042969 311.390625 L 660.898438 311.382812 L 662.828125 311.367188 L 665.472656 311.335938 L 667.117188 311.304688 L 668.546875 311.269531 L 669.617188 311.234375 L 670.332031 311.207031 L 671.402344 311.148438 L 672.261719 311.085938 L 672.902344 311.023438 L 673.332031 310.960938 L 683.335938 310.960938 L 682.910156 311.035156 L 682.265625 311.105469 L 681.621094 311.160156 L 680.621094 311.222656 L 679.476562 311.28125 L 677.835938 311.34375 L 676.476562 311.386719 L 674.691406 311.433594 L 673.046875 311.46875 L 671.261719 311.5 L 668.617188 311.535156 L 666.902344 311.554688 L 665.042969 311.570312 L 662.828125 311.585938 L 660.042969 311.597656 L 657.039062 311.605469 L 654.253906 311.609375 L 651.253906 311.605469 L 649.039062 311.597656 L 646.109375 311.582031 L 642.464844 311.546875 L 639.820312 311.511719 L 637.746094 311.476562 L 635.960938 311.441406 L 633.960938 311.390625 L 631.386719 311.308594 L 629.816406 311.246094 L 628.742188 311.195312 L 627.527344 311.125 L 626.671875 311.058594 L 625.671875 310.957031 L 624.957031 310.824219 L 624.742188 310.722656 Z M 624.742188 310.46875 "/>
<path style=" stroke:none;fill-rule:nonzero;fill:rgb(96.862745%,70.196078%,16.862745%);fill-opacity:1;" d="M 624.742188 300.285156 L 624.8125 300.277344 L 624.8125 300.160156 L 625.097656 299.890625 L 625.8125 299.523438 L 626.742188 299.21875 L 627.742188 298.980469 L 628.386719 298.855469 L 629.457031 298.679688 L 630.386719 298.546875 L 632.746094 298.28125 L 635.746094 298.03125 L 637.390625 297.921875 L 639.246094 297.824219 L 641.890625 297.710938 L 643.105469 297.667969 L 646.820312 297.574219 L 651.039062 297.511719 L 655.683594 297.496094 L 657.828125 297.5 L 660.757812 297.523438 L 664.757812 297.589844 L 667.042969 297.648438 L 668.832031 297.710938 L 670.6875 297.785156 L 672.976562 297.90625 L 675.121094 298.046875 L 676.835938 298.191406 L 678.550781 298.371094 L 679.980469 298.558594 L 681.191406 298.769531 L 682.265625 299.015625 L 682.910156 299.226562 L 683.335938 299.433594 L 673.40625 299.433594 L 672.832031 299.226562 L 672.191406 299.066406 L 671.117188 298.867188 L 670.046875 298.726562 L 668.972656 298.613281 L 666.972656 298.457031 L 665.257812 298.363281 L 663.113281 298.28125 L 661.042969 298.226562 L 658.683594 298.191406 L 657.253906 298.179688 L 653.46875 298.179688 L 650.039062 298.222656 L 648.035156 298.269531 L 646.609375 298.316406 L 644.605469 298.40625 L 643.390625 298.476562 L 642.675781 298.523438 L 640.535156 298.707031 L 639.105469 298.875 L 638.320312 298.988281 L 637.316406 299.164062 L 636.605469 299.328125 L 635.816406 299.5625 L 635.390625 299.742188 L 634.816406 300.148438 L 634.746094 301.214844 L 634.960938 301.441406 L 635.390625 301.6875 L 635.960938 301.898438 L 636.816406 302.125 L 637.675781 302.296875 L 639.175781 302.53125 L 640.460938 302.683594 L 641.464844 302.785156 L 643.390625 302.945312 L 644.179688 303 L 646.035156 303.105469 L 647.964844 303.191406 L 650.324219 303.261719 L 652.109375 303.296875 L 654.96875 303.328125 L 658.613281 303.328125 L 662.898438 303.289062 L 665.617188 303.242188 L 667.472656 303.195312 L 668.6875 303.152344 L 670.1875 303.089844 L 671.261719 303.03125 L 672.261719 302.964844 L 673.476562 302.863281 L 673.476562 301.441406 L 655.824219 301.4375 L 655.824219 300.769531 L 683.265625 300.765625 L 683.335938 303.089844 L 681.835938 303.25 L 679.980469 303.402344 L 678.191406 303.523438 L 676.335938 303.625 L 673.691406 303.738281 L 671.546875 303.808594 L 668.257812 303.890625 L 665.257812 303.945312 L 662.113281 303.980469 L 659.328125 304 L 656.039062 304.003906 L 653.109375 303.992188 L 649.964844 303.957031 L 647.464844 303.910156 L 645.179688 303.847656 L 642.890625 303.773438 L 640.035156 303.648438 L 638.175781 303.546875 L 636.246094 303.421875 L 634.316406 303.273438 L 632.601562 303.113281 L 631.457031 302.988281 L 630.316406 302.84375 L 629.101562 302.667969 L 627.957031 302.464844 L 627.101562 302.28125 L 626.3125 302.074219 L 625.742188 301.875 L 625.171875 301.609375 L 624.882812 301.394531 L 624.742188 301.210938 Z M 624.742188 300.285156 "/>
<path style=" stroke:none;fill-rule:nonzero;fill:rgb(83.921569%,15.686275%,22.352941%);fill-opacity:1;" d="M 624.742188 312.789062 L 683.335938 312.789062 L 683.335938 312.957031 L 658.917969 312.960938 L 658.917969 314.371094 L 649.089844 314.371094 L 649.089844 312.960938 L 648.949219 312.957031 L 624.742188 312.957031 Z M 624.742188 312.789062 "/>
<g style="fill:rgb(0%,0%,0%);fill-opacity:1;">
  <use xlink:href="#glyph0-1" x="21.957031" y="318.198242"/>
  <use xlink:href="#glyph0-2" x="27.291016" y="318.198242"/>
  <use xlink:href="#glyph0-1" x="29.958008" y="318.198242"/>
</g>
<g style="fill:rgb(0%,0%,0%);fill-opacity:1;">
  <use xlink:href="#glyph0-1" x="21.957031" y="244.385742"/>
  <use xlink:href="#glyph0-2" x="27.291016" y="244.385742"/>
  <use xlink:href="#glyph0-3" x="29.958008" y="244.385742"/>
</g>
<g style="fill:rgb(0%,0%,0%);fill-opacity:1;">
  <use xlink:href="#glyph0-4" x="21.957031" y="170.577148"/>
  <use xlink:href="#glyph0-2" x="27.291016" y="170.577148"/>
  <use xlink:href="#glyph0-1" x="29.958008" y="170.577148"/>
</g>
<g style="fill:rgb(0%,0%,0%);fill-opacity:1;">
  <use xlink:href="#glyph0-4" x="21.957031" y="96.768555"/>
  <use xlink:href="#glyph0-2" x="27.291016" y="96.768555"/>
  <use xlink:href="#glyph0-3" x="29.958008" y="96.768555"/>
</g>
<g style="fill:rgb(0%,0%,0%);fill-opacity:1;">
  <use xlink:href="#glyph0-5" x="21.957031" y="22.956055"/>
  <use xlink:href="#glyph0-2" x="27.291016" y="22.956055"/>
  <use xlink:href="#glyph0-1" x="29.958008" y="22.956055"/>
</g>
<g style="fill:rgb(0%,0%,0%);fill-opacity:1;">
  <use xlink:href="#glyph0-4" x="95.925781" y="338.19043"/>
</g>
<g style="fill:rgb(0%,0%,0%);fill-opacity:1;">
  <use xlink:href="#glyph0-5" x="157.605469" y="338.19043"/>
</g>
<g style="fill:rgb(0%,0%,0%);fill-opacity:1;">
  <use xlink:href="#glyph0-6" x="219.285156" y="338.19043"/>
</g>
<g style="fill:rgb(0%,0%,0%);fill-opacity:1;">
  <use xlink:href="#glyph0-7" x="280.964844" y="338.19043"/>
</g>
<g style="fill:rgb(0%,0%,0%);fill-opacity:1;">
  <use xlink:href="#glyph0-3" x="342.644531" y="338.19043"/>
</g>
<g style="fill:rgb(0%,0%,0%);fill-opacity:1;">
  <use xlink:href="#glyph0-8" x="404.324219" y="338.19043"/>
</g>
<g style="fill:rgb(0%,0%,0%);fill-opacity:1;">
  <use xlink:href="#glyph0-9" x="466" y="338.19043"/>
</g>
<g style="fill:rgb(0%,0%,0%);fill-opacity:1;">
  <use xlink:href="#glyph0-10" x="527.679688" y="338.19043"/>
</g>
<g style="fill:rgb(0%,0%,0%);fill-opacity:1;">
  <use xlink:href="#glyph0-11" x="589.359375" y="338.19043"/>
</g>
<g style="fill:rgb(0%,0%,0%);fill-opacity:1;">
  <use xlink:href="#glyph0-4" x="648.539062" y="338.19043"/>
  <use xlink:href="#glyph0-1" x="653.873047" y="338.19043"/>
</g>
<g style="fill:rgb(0%,0%,0%);fill-opacity:1;">
  <use xlink:href="#glyph1-1" x="14.412109" y="178.015625"/>
  <use xlink:href="#glyph1-2" x="14.412109" y="170.011719"/>
  <use xlink:href="#glyph1-3" x="14.412109" y="167.347656"/>
  <use xlink:href="#glyph1-4" x="14.412109" y="164.011719"/>
</g>
</g>
</svg>
