<?xml version="1.0" encoding="UTF-8"?>
<svg xmlns="http://www.w3.org/2000/svg" xmlns:xlink="http://www.w3.org/1999/xlink" width="720pt" height="360pt" viewBox="0 0 720 360" version="1.1">
<defs>
<g>
<symbol overflow="visible" id="glyph0-0">
<path style="stroke:none;" d=""/>
</symbol>
<symbol overflow="visible" id="glyph0-1">
<path style="stroke:none;" d="M 2.640625 -6.796875 C 2 -6.796875 1.421875 -6.53125 1.078125 -6.046875 C 0.640625 -5.453125 0.40625 -4.546875 0.40625 -3.296875 C 0.40625 -1 1.1875 0.21875 2.640625 0.21875 C 4.078125 0.21875 4.859375 -1 4.859375 -3.234375 C 4.859375 -4.5625 4.65625 -5.4375 4.203125 -6.046875 C 3.84375 -6.53125 3.28125 -6.796875 2.640625 -6.796875 Z M 2.640625 -6.046875 C 3.546875 -6.046875 4 -5.125 4 -3.3125 C 4 -1.375 3.5625 -0.484375 2.625 -0.484375 C 1.734375 -0.484375 1.28125 -1.421875 1.28125 -3.28125 C 1.28125 -5.140625 1.734375 -6.046875 2.640625 -6.046875 Z M 2.640625 -6.046875 "/>
</symbol>
<symbol overflow="visible" id="glyph0-2">
<path style="stroke:none;" d="M 1.828125 -1 L 0.828125 -1 L 0.828125 0 L 1.828125 0 Z M 1.828125 -1 "/>
</symbol>
<symbol overflow="visible" id="glyph0-3">
<path style="stroke:none;" d="M 4.5625 -6.796875 L 1.0625 -6.796875 L 0.546875 -3.09375 L 1.328125 -3.09375 C 1.71875 -3.5625 2.046875 -3.734375 2.578125 -3.734375 C 3.484375 -3.734375 4.0625 -3.109375 4.0625 -2.09375 C 4.0625 -1.125 3.484375 -0.53125 2.578125 -0.53125 C 1.828125 -0.53125 1.375 -0.90625 1.1875 -1.671875 L 0.328125 -1.671875 C 0.453125 -1.109375 0.546875 -0.84375 0.75 -0.59375 C 1.125 -0.078125 1.828125 0.21875 2.59375 0.21875 C 3.96875 0.21875 4.921875 -0.78125 4.921875 -2.21875 C 4.921875 -3.5625 4.03125 -4.484375 2.71875 -4.484375 C 2.25 -4.484375 1.859375 -4.359375 1.46875 -4.0625 L 1.734375 -5.96875 L 4.5625 -5.96875 Z M 4.5625 -6.796875 "/>
</symbol>
<symbol overflow="visible" id="glyph0-4">
<path style="stroke:none;" d="M 2.484375 -4.84375 L 2.484375 0 L 3.328125 0 L 3.328125 -6.796875 L 2.765625 -6.796875 C 2.46875 -5.75 2.28125 -5.609375 0.984375 -5.453125 L 0.984375 -4.84375 Z M 2.484375 -4.84375 "/>
</symbol>
<symbol overflow="visible" id="glyph0-5">
<path style="stroke:none;" d="M 4.859375 -0.828125 L 1.28125 -0.828125 C 1.359375 -1.390625 1.671875 -1.75 2.5 -2.234375 L 3.46875 -2.75 C 4.40625 -3.265625 4.90625 -3.96875 4.90625 -4.8125 C 4.90625 -5.375 4.671875 -5.90625 4.265625 -6.265625 C 3.859375 -6.625 3.375 -6.796875 2.71875 -6.796875 C 1.859375 -6.796875 1.21875 -6.5 0.84375 -5.921875 C 0.609375 -5.5625 0.5 -5.125 0.484375 -4.4375 L 1.328125 -4.4375 C 1.359375 -4.90625 1.40625 -5.1875 1.53125 -5.40625 C 1.75 -5.8125 2.1875 -6.0625 2.703125 -6.0625 C 3.46875 -6.0625 4.03125 -5.515625 4.03125 -4.78125 C 4.03125 -4.25 3.71875 -3.796875 3.125 -3.4375 L 2.234375 -2.9375 C 0.8125 -2.140625 0.40625 -1.5 0.328125 0 L 4.859375 0 Z M 4.859375 -0.828125 "/>
</symbol>
<symbol overflow="visible" id="glyph0-6">
<path style="stroke:none;" d="M 2.125 -3.125 L 2.578125 -3.125 C 3.515625 -3.125 3.984375 -2.703125 3.984375 -1.890625 C 3.984375 -1.03125 3.46875 -0.53125 2.578125 -0.53125 C 1.65625 -0.53125 1.203125 -0.984375 1.15625 -1.96875 L 0.3125 -1.96875 C 0.34375 -1.421875 0.4375 -1.078125 0.609375 -0.765625 C 0.953125 -0.109375 1.625 0.21875 2.546875 0.21875 C 3.953125 0.21875 4.859375 -0.609375 4.859375 -1.90625 C 4.859375 -2.765625 4.515625 -3.25 3.703125 -3.515625 C 4.34375 -3.765625 4.65625 -4.25 4.65625 -4.9375 C 4.65625 -6.109375 3.875 -6.796875 2.578125 -6.796875 C 1.203125 -6.796875 0.484375 -6.046875 0.453125 -4.609375 L 1.296875 -4.609375 C 1.3125 -5.015625 1.34375 -5.25 1.453125 -5.453125 C 1.640625 -5.828125 2.0625 -6.0625 2.59375 -6.0625 C 3.34375 -6.0625 3.796875 -5.625 3.796875 -4.90625 C 3.796875 -4.421875 3.609375 -4.140625 3.25 -3.984375 C 3.015625 -3.890625 2.71875 -3.84375 2.125 -3.84375 Z M 2.125 -3.125 "/>
</symbol>
<symbol overflow="visible" id="glyph0-7">
<path style="stroke:none;" d="M 3.140625 -1.625 L 3.140625 0 L 3.984375 0 L 3.984375 -1.625 L 4.984375 -1.625 L 4.984375 -2.390625 L 3.984375 -2.390625 L 3.984375 -6.796875 L 3.359375 -6.796875 L 0.265625 -2.515625 L 0.265625 -1.625 Z M 3.140625 -2.390625 L 1 -2.390625 L 3.140625 -5.359375 Z M 3.140625 -2.390625 "/>
</symbol>
<symbol overflow="visible" id="glyph0-8">
<path style="stroke:none;" d="M 4.78125 -5.03125 C 4.609375 -6.140625 3.890625 -6.796875 2.84375 -6.796875 C 2.09375 -6.796875 1.421875 -6.4375 1.03125 -5.828125 C 0.609375 -5.171875 0.40625 -4.34375 0.40625 -3.09375 C 0.40625 -1.953125 0.578125 -1.234375 0.984375 -0.625 C 1.359375 -0.078125 1.953125 0.21875 2.703125 0.21875 C 3.984375 0.21875 4.921875 -0.734375 4.921875 -2.078125 C 4.921875 -3.34375 4.0625 -4.234375 2.84375 -4.234375 C 2.171875 -4.234375 1.640625 -3.96875 1.28125 -3.46875 C 1.28125 -5.125 1.828125 -6.046875 2.796875 -6.046875 C 3.390625 -6.046875 3.796875 -5.671875 3.9375 -5.03125 Z M 2.734375 -3.484375 C 3.546875 -3.484375 4.0625 -2.921875 4.0625 -2 C 4.0625 -1.15625 3.484375 -0.53125 2.703125 -0.53125 C 1.921875 -0.53125 1.328125 -1.1875 1.328125 -2.046875 C 1.328125 -2.890625 1.90625 -3.484375 2.734375 -3.484375 Z M 2.734375 -3.484375 "/>
</symbol>
<symbol overflow="visible" id="glyph0-9">
<path style="stroke:none;" d="M 4.984375 -6.796875 L 0.4375 -6.796875 L 0.4375 -5.96875 L 4.109375 -5.96875 C 2.5 -3.65625 1.828125 -2.234375 1.328125 0 L 2.21875 0 C 2.59375 -2.171875 3.453125 -4.046875 4.984375 -6.09375 Z M 4.984375 -6.796875 "/>
</symbol>
<symbol overflow="visible" id="glyph0-10">
<path style="stroke:none;" d="M 3.75 -3.578125 C 4.453125 -4 4.6875 -4.34375 4.6875 -4.984375 C 4.6875 -6.046875 3.84375 -6.796875 2.640625 -6.796875 C 1.4375 -6.796875 0.59375 -6.046875 0.59375 -4.984375 C 0.59375 -4.359375 0.828125 -4.015625 1.515625 -3.578125 C 0.734375 -3.203125 0.359375 -2.640625 0.359375 -1.890625 C 0.359375 -0.640625 1.296875 0.21875 2.640625 0.21875 C 3.984375 0.21875 4.921875 -0.640625 4.921875 -1.875 C 4.921875 -2.640625 4.53125 -3.203125 3.75 -3.578125 Z M 2.640625 -6.046875 C 3.359375 -6.046875 3.8125 -5.625 3.8125 -4.96875 C 3.8125 -4.34375 3.34375 -3.921875 2.640625 -3.921875 C 1.921875 -3.921875 1.453125 -4.34375 1.453125 -4.984375 C 1.453125 -5.625 1.921875 -6.046875 2.640625 -6.046875 Z M 2.640625 -3.203125 C 3.484375 -3.203125 4.0625 -2.671875 4.0625 -1.875 C 4.0625 -1.0625 3.484375 -0.53125 2.625 -0.53125 C 1.796875 -0.53125 1.21875 -1.078125 1.21875 -1.875 C 1.21875 -2.671875 1.796875 -3.203125 2.640625 -3.203125 Z M 2.640625 -3.203125 "/>
</symbol>
<symbol overflow="visible" id="glyph0-11">
<path style="stroke:none;" d="M 0.515625 -1.546875 C 0.671875 -0.4375 1.40625 0.21875 2.4375 0.21875 C 3.1875 0.21875 3.859375 -0.140625 4.265625 -0.75 C 4.6875 -1.40625 4.890625 -2.25 4.890625 -3.484375 C 4.890625 -4.625 4.703125 -5.359375 4.3125 -5.953125 C 3.9375 -6.5 3.34375 -6.796875 2.59375 -6.796875 C 1.296875 -6.796875 0.359375 -5.84375 0.359375 -4.515625 C 0.359375 -3.25 1.234375 -2.34375 2.453125 -2.34375 C 3.09375 -2.34375 3.5625 -2.578125 4.015625 -3.109375 C 4 -1.453125 3.46875 -0.53125 2.5 -0.53125 C 1.90625 -0.53125 1.484375 -0.90625 1.359375 -1.546875 Z M 2.578125 -6.0625 C 3.375 -6.0625 3.96875 -5.40625 3.96875 -4.53125 C 3.96875 -3.6875 3.375 -3.09375 2.546875 -3.09375 C 1.734375 -3.09375 1.234375 -3.671875 1.234375 -4.578125 C 1.234375 -5.4375 1.796875 -6.0625 2.578125 -6.0625 Z M 2.578125 -6.0625 "/>
</symbol>
<symbol overflow="visible" id="glyph1-0">
<path style="stroke:none;" d=""/>
</symbol>
<symbol overflow="visible" id="glyph1-1">
<path style="stroke:none;" d="M 0 -0.953125 L 0 -4.890625 C 0 -5.71875 -0.234375 -6.34375 -0.734375 -6.796875 C -1.1875 -7.234375 -1.8125 -7.46875 -2.5 -7.46875 C -3.546875 -7.46875 -4.1875 -7 -4.625 -5.875 C -4.984375 -6.671875 -5.640625 -7.09375 -6.53125 -7.09375 C -7.15625 -7.09375 -7.734375 -6.859375 -8.140625 -6.390625 C -8.5625 -5.9375 -8.75 -5.34375 -8.75 -4.5 L -8.75 -0.953125 Z M -4.984375 -2.0625 L -7.765625 -2.0625 L -7.765625 -4.21875 C -7.765625 -4.84375 -7.6875 -5.203125 -7.453125 -5.5 C -7.21875 -5.8125 -6.859375 -5.96875 -6.375 -5.96875 C -5.90625 -5.96875 -5.53125 -5.8125 -5.296875 -5.5 C -5.0625 -5.203125 -4.984375 -4.84375 -4.984375 -4.21875 Z M -0.984375 -2.0625 L -4 -2.0625 L -4 -4.78125 C -4 -5.328125 -3.859375 -5.6875 -3.578125 -5.953125 C -3.296875 -6.21875 -2.921875 -6.359375 -2.484375 -6.359375 C -2.0625 -6.359375 -1.6875 -6.21875 -1.40625 -5.953125 C -1.109375 -5.6875 -0.984375 -5.328125 -0.984375 -4.78125 Z M -0.984375 -2.0625 "/>
</symbol>
<symbol overflow="visible" id="glyph1-2">
<path style="stroke:none;" d="M -6.28125 -1.796875 L -6.28125 -0.796875 L 0 -0.796875 L 0 -1.796875 Z M -8.75 -1.796875 L -8.75 -0.796875 L -7.484375 -0.796875 L -7.484375 -1.796875 Z M -8.75 -1.796875 "/>
</symbol>
<symbol overflow="visible" id="glyph1-3">
<path style="stroke:none;" d="M -6.28125 -3.046875 L -6.28125 -2.015625 L -8.015625 -2.015625 L -8.015625 -1.015625 L -6.28125 -1.015625 L -6.28125 -0.171875 L -5.46875 -0.171875 L -5.46875 -1.015625 L -0.71875 -1.015625 C -0.078125 -1.015625 0.28125 -1.453125 0.28125 -2.234375 C 0.28125 -2.46875 0.25 -2.71875 0.1875 -3.046875 L -0.640625 -3.046875 C -0.609375 -2.921875 -0.59375 -2.765625 -0.59375 -2.5625 C -0.59375 -2.140625 -0.71875 -2.015625 -1.15625 -2.015625 L -5.46875 -2.015625 L -5.46875 -3.046875 Z M -6.28125 -3.046875 "/>
</symbol>
<symbol overflow="visible" id="glyph1-4">
<path style="stroke:none;" d="M -4.53125 -5.25 C -5.765625 -5.25 -6.46875 -4.421875 -6.46875 -2.96875 C -6.46875 -1.515625 -5.71875 -0.5625 -4.546875 -0.5625 C -3.5625 -0.5625 -3.09375 -1.0625 -2.734375 -2.5625 L -2.515625 -3.484375 C -2.34375 -4.1875 -2.09375 -4.46875 -1.625 -4.46875 C -1.046875 -4.46875 -0.640625 -3.875 -0.640625 -3 C -0.640625 -2.453125 -0.796875 -2 -1.0625 -1.75 C -1.25 -1.59375 -1.421875 -1.53125 -1.875 -1.46875 L -1.875 -0.40625 C -0.421875 -0.453125 0.28125 -1.265625 0.28125 -2.921875 C 0.28125 -4.5 -0.5 -5.515625 -1.71875 -5.515625 C -2.65625 -5.515625 -3.171875 -4.984375 -3.46875 -3.734375 L -3.703125 -2.765625 C -3.890625 -1.953125 -4.15625 -1.609375 -4.59375 -1.609375 C -5.171875 -1.609375 -5.546875 -2.125 -5.546875 -2.9375 C -5.546875 -3.75 -5.203125 -4.171875 -4.53125 -4.203125 Z M -4.53125 -5.25 "/>
</symbol>
</g>
</defs>
<g id="surface74854">
<rect x="0" y="0" width="720" height="360" style="fill:rgb(100%,100%,100%);fill-opacity:1;stroke:none;"/>
<path style=" stroke:none;fill-rule:nonzero;fill:rgb(14.509804%,36.078431%,60%);fill-opacity:1;" d="M 69.628906 260.835938 L 69.699219 260.800781 L 69.699219 259.949219 L 69.914062 258.601562 L 70.414062 256.902344 L 70.914062 255.730469 L 72.203125 253.640625 L 73.988281 251.621094 L 75.847656 250.058594 L 77.203125 249.136719 L 78.417969 248.429688 L 81.207031 247.117188 L 82.992188 246.445312 L 84.921875 245.839844 L 87.28125 245.238281 L 88.996094 244.882812 L 92.851562 244.316406 L 95.710938 244.066406 L 97.925781 243.960938 L 102.714844 243.960938 L 105.574219 244.105469 L 107.644531 244.28125 L 109.929688 244.566406 L 111.859375 244.882812 L 115.21875 245.664062 L 118.21875 246.65625 L 119.578125 247.222656 L 121.722656 248.324219 L 123.367188 249.386719 L 124.507812 250.308594 L 125.796875 251.621094 L 126.9375 253.214844 L 127.796875 255.023438 L 128.222656 256.546875 L 118.21875 256.546875 L 117.71875 255.128906 L 117.148438 254.03125 L 116.078125 252.578125 L 115.003906 251.546875 L 113.503906 250.519531 L 112.148438 249.847656 L 110.289062 249.171875 L 108.644531 248.746094 L 106.929688 248.429688 L 105.285156 248.214844 L 102.140625 248.003906 L 98.5 248.003906 L 97.140625 248.074219 L 94.355469 248.359375 L 92.851562 248.605469 L 90.710938 249.101562 L 89.207031 249.5625 L 87.421875 250.273438 L 86.207031 250.875 L 84.707031 251.796875 L 83.636719 252.613281 L 82.421875 253.78125 L 81.707031 254.667969 L 81.0625 255.660156 L 80.492188 256.832031 L 80.0625 258.070312 L 79.777344 259.382812 L 79.632812 260.660156 L 79.632812 266.152344 L 79.777344 267.429688 L 80.132812 268.917969 L 81.0625 271.082031 L 82.421875 272.960938 L 83.992188 274.449219 L 85.492188 275.511719 L 86.351562 276.007812 L 87.492188 276.578125 L 89.28125 277.285156 L 91.851562 277.996094 L 93.351562 278.277344 L 95.640625 278.5625 L 97.996094 278.703125 L 101.140625 278.703125 L 103.929688 278.5625 L 105.785156 278.386719 L 107.714844 278.101562 L 110.359375 277.5 L 112.003906 276.929688 L 113.433594 276.257812 L 114.503906 275.585938 L 115.21875 275.015625 L 116.292969 273.917969 L 117.148438 272.710938 L 117.792969 271.472656 L 118.21875 270.265625 L 128.222656 270.265625 L 127.796875 271.683594 L 127.152344 273.066406 L 126.507812 274.09375 L 125.507812 275.335938 L 124.367188 276.433594 L 122.722656 277.675781 L 121.363281 278.492188 L 119.578125 279.378906 L 117.933594 280.050781 L 116.148438 280.652344 L 113.503906 281.363281 L 111.789062 281.71875 L 109.929688 282.035156 L 107.714844 282.320312 L 104.929688 282.566406 L 101.929688 282.710938 L 99.140625 282.746094 L 96.140625 282.675781 L 93.925781 282.53125 L 90.996094 282.214844 L 87.351562 281.574219 L 84.707031 280.902344 L 82.632812 280.226562 L 80.847656 279.519531 L 78.847656 278.5625 L 76.273438 277.003906 L 74.703125 275.796875 L 73.632812 274.804688 L 72.417969 273.421875 L 71.558594 272.179688 L 70.558594 270.195312 L 69.84375 267.679688 L 69.628906 265.730469 Z M 69.628906 260.835938 "/>
<path style=" stroke:none;fill-rule:nonzero;fill:rgb(96.862745%,70.196078%,16.862745%);fill-opacity:1;" d="M 69.628906 305.675781 L 69.699219 305.664062 L 69.699219 305.421875 L 69.988281 304.882812 L 70.703125 304.132812 L 71.628906 303.519531 L 72.628906 303.039062 L 73.273438 302.785156 L 74.34375 302.421875 L 75.273438 302.15625 L 77.632812 301.617188 L 80.632812 301.109375 L 82.277344 300.894531 L 84.136719 300.6875 L 86.777344 300.457031 L 87.992188 300.375 L 91.710938 300.183594 L 95.925781 300.0625 L 100.570312 300.023438 L 102.714844 300.035156 L 105.644531 300.085938 L 109.644531 300.21875 L 111.933594 300.339844 L 113.71875 300.457031 L 115.578125 300.617188 L 117.863281 300.855469 L 120.007812 301.144531 L 121.722656 301.433594 L 123.4375 301.796875 L 124.867188 302.183594 L 126.082031 302.605469 L 127.152344 303.109375 L 127.796875 303.53125 L 128.222656 303.953125 L 118.292969 303.953125 L 117.71875 303.53125 L 117.078125 303.207031 L 116.003906 302.808594 L 114.933594 302.519531 L 113.863281 302.289062 L 111.859375 301.976562 L 110.144531 301.785156 L 108.003906 301.617188 L 105.929688 301.507812 L 103.570312 301.433594 L 102.140625 301.410156 L 98.355469 301.410156 L 94.925781 301.496094 L 92.925781 301.589844 L 91.496094 301.6875 L 89.496094 301.867188 L 88.28125 302.011719 L 87.566406 302.109375 L 85.421875 302.484375 L 83.992188 302.820312 L 83.207031 303.050781 L 82.207031 303.410156 L 81.492188 303.738281 L 80.707031 304.21875 L 80.277344 304.582031 L 79.703125 305.398438 L 79.632812 307.570312 L 79.847656 308.027344 L 80.277344 308.519531 L 80.847656 308.953125 L 81.707031 309.414062 L 82.5625 309.761719 L 84.0625 310.230469 L 85.351562 310.546875 L 86.351562 310.75 L 88.28125 311.074219 L 89.066406 311.183594 L 90.921875 311.402344 L 92.851562 311.570312 L 95.210938 311.714844 L 96.996094 311.785156 L 99.855469 311.847656 L 103.5 311.847656 L 107.789062 311.773438 L 110.503906 311.679688 L 112.359375 311.582031 L 113.574219 311.496094 L 115.078125 311.363281 L 116.148438 311.246094 L 117.148438 311.113281 L 118.363281 310.90625 L 118.363281 308.027344 L 100.714844 308.015625 L 100.714844 306.664062 L 128.152344 306.652344 L 128.222656 311.363281 L 126.722656 311.691406 L 124.867188 312.003906 L 123.078125 312.246094 L 121.222656 312.449219 L 118.578125 312.679688 L 116.433594 312.824219 L 113.148438 312.992188 L 110.144531 313.101562 L 107 313.171875 L 104.214844 313.207031 L 100.929688 313.21875 L 97.996094 313.195312 L 94.855469 313.125 L 92.351562 313.027344 L 90.066406 312.90625 L 87.78125 312.75 L 84.921875 312.496094 L 83.0625 312.292969 L 81.132812 312.039062 L 79.203125 311.738281 L 77.488281 311.414062 L 76.347656 311.160156 L 75.203125 310.871094 L 73.988281 310.507812 L 72.84375 310.097656 L 71.988281 309.726562 L 71.203125 309.304688 L 70.628906 308.90625 L 70.058594 308.363281 L 69.773438 307.929688 L 69.628906 307.558594 Z M 69.628906 305.675781 "/>
<path style=" stroke:none;fill-rule:nonzero;fill:rgb(83.921569%,15.686275%,22.352941%);fill-opacity:1;" d="M 69.628906 283.925781 L 128.222656 283.925781 L 128.222656 285.523438 L 103.804688 285.535156 L 103.804688 298.84375 L 93.980469 298.84375 L 93.980469 285.550781 L 93.835938 285.523438 L 69.628906 285.523438 Z M 69.628906 283.925781 "/>
<path style=" stroke:none;fill-rule:nonzero;fill:rgb(14.509804%,36.078431%,60%);fill-opacity:1;" d="M 131.308594 179.9375 L 131.378906 179.757812 L 131.378906 175.5 L 131.59375 168.753906 L 132.09375 160.238281 L 132.59375 154.378906 L 133.882812 143.90625 L 135.667969 133.792969 L 137.523438 125.980469 L 138.882812 121.367188 L 140.097656 117.816406 L 142.882812 111.25 L 144.671875 107.878906 L 146.601562 104.863281 L 148.957031 101.84375 L 150.671875 100.070312 L 154.53125 97.230469 L 157.390625 95.988281 L 159.605469 95.457031 L 164.394531 95.457031 L 167.25 96.164062 L 169.324219 97.054688 L 171.609375 98.472656 L 173.539062 100.070312 L 176.898438 103.972656 L 179.898438 108.945312 L 181.257812 111.785156 L 183.402344 117.285156 L 185.042969 122.609375 L 186.1875 127.226562 L 187.472656 133.792969 L 188.617188 141.777344 L 189.476562 150.828125 L 189.902344 158.460938 L 179.898438 158.460938 L 179.398438 151.363281 L 178.828125 145.859375 L 177.757812 138.582031 L 176.683594 133.4375 L 175.183594 128.289062 L 173.824219 124.917969 L 171.96875 121.546875 L 170.324219 119.414062 L 168.609375 117.816406 L 166.964844 116.753906 L 163.820312 115.6875 L 160.175781 115.6875 L 158.820312 116.042969 L 156.03125 117.464844 L 154.53125 118.707031 L 152.386719 121.191406 L 150.886719 123.496094 L 149.101562 127.046875 L 147.886719 130.066406 L 146.386719 134.679688 L 145.3125 138.761719 L 144.097656 144.617188 L 143.386719 149.054688 L 142.742188 154.023438 L 142.171875 159.882812 L 141.742188 166.09375 L 141.457031 172.660156 L 141.3125 179.050781 L 141.3125 206.558594 L 141.457031 212.949219 L 141.8125 220.402344 L 142.742188 231.230469 L 144.097656 240.636719 L 145.671875 248.089844 L 147.171875 253.414062 L 148.03125 255.898438 L 149.171875 258.738281 L 150.960938 262.289062 L 153.53125 265.839844 L 155.03125 267.257812 L 157.320312 268.679688 L 159.675781 269.386719 L 162.820312 269.386719 L 165.609375 268.679688 L 167.464844 267.789062 L 169.394531 266.371094 L 172.039062 263.355469 L 173.683594 260.515625 L 175.113281 257.140625 L 176.183594 253.769531 L 176.898438 250.929688 L 177.96875 245.429688 L 178.828125 239.394531 L 179.472656 233.183594 L 179.898438 227.148438 L 189.902344 227.148438 L 189.476562 234.246094 L 188.832031 241.167969 L 188.1875 246.316406 L 187.1875 252.527344 L 186.046875 258.027344 L 184.402344 264.242188 L 183.042969 268.324219 L 181.257812 272.761719 L 179.613281 276.132812 L 177.828125 279.148438 L 175.183594 282.699219 L 173.46875 284.472656 L 171.609375 286.070312 L 169.394531 287.492188 L 166.609375 288.734375 L 163.605469 289.445312 L 160.820312 289.621094 L 157.820312 289.265625 L 155.605469 288.554688 L 152.675781 286.957031 L 149.03125 283.765625 L 146.386719 280.390625 L 144.3125 277.019531 L 142.527344 273.46875 L 140.527344 268.679688 L 137.953125 260.867188 L 136.382812 254.835938 L 135.308594 249.863281 L 134.09375 242.941406 L 133.238281 236.730469 L 132.238281 226.792969 L 131.523438 214.191406 L 131.308594 204.429688 Z M 131.308594 179.9375 "/>
<path style=" stroke:none;fill-rule:nonzero;fill:rgb(83.921569%,15.686275%,22.352941%);fill-opacity:1;" d="M 131.308594 290.800781 L 189.902344 290.800781 L 189.902344 293.324219 L 165.484375 293.347656 L 165.484375 314.371094 L 155.65625 314.371094 L 155.65625 293.367188 L 155.515625 293.324219 L 131.308594 293.324219 Z M 131.308594 290.800781 "/>
<path style=" stroke:none;fill-rule:nonzero;fill:rgb(6.27451%,58.823529%,28.235294%);fill-opacity:1;" d="M 192.988281 258.890625 L 193.050781 258.796875 L 218.402344 158.828125 L 226.105469 158.828125 L 251.582031 258.984375 L 242.628906 258.984375 L 236.246094 232.839844 L 208.261719 232.839844 L 202.003906 258.890625 L 192.988281 258.890625 L 210.953125 222.023438 L 233.679688 221.929688 L 222.347656 175.191406 L 222.222656 175.097656 L 222.097656 175.378906 L 210.890625 221.929688 L 210.953125 222.023438 Z M 192.988281 258.890625 "/>
<path style=" stroke:none;fill-rule:nonzero;fill:rgb(83.921569%,15.686275%,22.352941%);fill-opacity:1;" d="M 192.988281 260.164062 L 251.582031 260.164062 L 251.582031 265.964844 L 227.164062 266.015625 L 227.164062 314.371094 L 217.335938 314.371094 L 217.335938 266.066406 L 217.195312 265.964844 L 192.988281 265.964844 Z M 192.988281 260.164062 "/>
<path style=" stroke:none;fill-rule:nonzero;fill:rgb(83.921569%,15.686275%,22.352941%);fill-opacity:1;" d="M 254.667969 20.664062 L 313.261719 20.664062 L 313.261719 52.101562 L 288.839844 52.378906 L 288.839844 314.371094 L 279.015625 314.371094 L 279.015625 52.652344 L 278.875 52.101562 L 254.667969 52.101562 Z M 254.667969 20.664062 "/>
<path style=" stroke:none;fill-rule:nonzero;fill:rgb(83.921569%,15.686275%,22.352941%);fill-opacity:1;" d="M 316.347656 20.664062 L 374.941406 20.664062 L 374.941406 52.101562 L 350.519531 52.378906 L 350.519531 314.371094 L 340.695312 314.371094 L 340.695312 52.652344 L 340.554688 52.101562 L 316.347656 52.101562 Z M 316.347656 20.664062 "/>
<path style=" stroke:none;fill-rule:nonzero;fill:rgb(96.862745%,70.196078%,16.862745%);fill-opacity:1;" d="M 378.023438 146.460938 L 378.097656 146.191406 L 378.097656 140.828125 L 378.382812 128.757812 L 379.097656 112.128906 L 380.027344 98.449219 L 381.027344 87.71875 L 381.667969 82.085938 L 382.742188 74.039062 L 383.671875 68.140625 L 386.027344 56.070312 L 389.03125 44.804688 L 390.671875 39.976562 L 392.53125 35.414062 L 395.175781 30.320312 L 396.390625 28.441406 L 400.105469 24.148438 L 404.320312 21.46875 L 408.964844 20.664062 L 411.109375 20.929688 L 414.039062 22.003906 L 418.042969 24.953125 L 420.328125 27.636719 L 422.113281 30.320312 L 423.972656 33.804688 L 426.257812 39.171875 L 428.402344 45.609375 L 430.117188 52.046875 L 431.832031 60.09375 L 433.261719 68.675781 L 434.476562 78.0625 L 435.546875 89.328125 L 436.191406 98.714844 L 436.621094 108.105469 L 426.6875 108.105469 L 426.117188 98.714844 L 425.472656 91.476562 L 424.402344 82.625 L 423.328125 76.1875 L 422.257812 71.089844 L 420.257812 64.117188 L 418.542969 59.824219 L 416.398438 56.070312 L 414.324219 53.65625 L 411.96875 52.046875 L 410.539062 51.507812 L 406.75 51.507812 L 403.320312 53.386719 L 401.320312 55.53125 L 399.890625 57.679688 L 397.890625 61.703125 L 396.675781 64.921875 L 395.960938 67.066406 L 393.816406 75.382812 L 392.386719 82.890625 L 391.601562 87.988281 L 390.601562 96.035156 L 389.886719 103.277344 L 389.101562 114.003906 L 388.671875 122.050781 L 388.101562 140.292969 L 388.027344 188.574219 L 388.242188 198.765625 L 388.671875 209.761719 L 389.242188 219.417969 L 390.101562 229.609375 L 390.960938 237.390625 L 392.460938 247.851562 L 393.746094 254.824219 L 394.746094 259.382812 L 396.675781 266.625 L 397.460938 269.039062 L 399.320312 273.867188 L 401.25 277.625 L 403.605469 280.84375 L 405.394531 282.453125 L 408.25 283.792969 L 411.894531 283.792969 L 416.183594 282.183594 L 418.898438 280.039062 L 420.757812 277.890625 L 421.972656 276.015625 L 423.472656 273.0625 L 424.542969 270.382812 L 425.542969 267.429688 L 426.757812 262.871094 L 426.757812 198.765625 L 409.109375 198.496094 L 409.109375 168.457031 L 436.550781 168.1875 L 436.621094 273.0625 L 435.121094 280.304688 L 433.261719 287.28125 L 431.476562 292.644531 L 429.617188 297.203125 L 426.972656 302.300781 L 424.828125 305.519531 L 421.542969 309.273438 L 418.542969 311.6875 L 415.398438 313.296875 L 412.609375 314.101562 L 409.324219 314.371094 L 406.394531 313.835938 L 403.25 312.226562 L 400.75 310.078125 L 398.460938 307.398438 L 396.175781 303.910156 L 393.316406 298.277344 L 391.460938 293.71875 L 389.53125 288.085938 L 387.601562 281.378906 L 385.886719 274.136719 L 384.742188 268.503906 L 383.597656 262.066406 L 382.382812 254.019531 L 381.242188 244.898438 L 380.382812 236.585938 L 379.597656 227.195312 L 379.027344 218.34375 L 378.453125 206.277344 L 378.167969 196.621094 L 378.023438 188.304688 Z M 378.023438 146.460938 "/>
<path style=" stroke:none;fill-rule:nonzero;fill:rgb(83.921569%,15.686275%,22.352941%);fill-opacity:1;" d="M 439.703125 20.664062 L 498.300781 20.664062 L 498.300781 52.101562 L 473.878906 52.378906 L 473.878906 314.371094 L 464.054688 314.371094 L 464.054688 52.652344 L 463.910156 52.101562 L 439.703125 52.101562 Z M 439.703125 20.664062 "/>
<path style=" stroke:none;fill-rule:nonzero;fill:rgb(14.509804%,36.078431%,60%);fill-opacity:1;" d="M 501.382812 278.558594 L 501.453125 278.503906 L 501.453125 277.214844 L 501.667969 275.171875 L 502.167969 272.59375 L 502.667969 270.820312 L 503.957031 267.652344 L 505.742188 264.589844 L 507.601562 262.226562 L 508.957031 260.828125 L 510.171875 259.753906 L 512.960938 257.765625 L 514.746094 256.746094 L 516.675781 255.832031 L 519.035156 254.917969 L 520.75 254.378906 L 524.605469 253.519531 L 527.464844 253.144531 L 529.679688 252.984375 L 534.46875 252.984375 L 537.328125 253.199219 L 539.398438 253.464844 L 541.6875 253.898438 L 543.613281 254.378906 L 546.972656 255.5625 L 549.976562 257.066406 L 551.332031 257.925781 L 553.476562 259.59375 L 555.121094 261.203125 L 556.261719 262.601562 L 557.550781 264.589844 L 558.691406 267.007812 L 559.550781 269.746094 L 559.980469 272.058594 L 549.976562 272.058594 L 549.472656 269.90625 L 548.902344 268.242188 L 547.832031 266.039062 L 546.757812 264.480469 L 545.257812 262.921875 L 543.902344 261.902344 L 542.042969 260.882812 L 540.398438 260.238281 L 538.683594 259.753906 L 537.039062 259.429688 L 533.898438 259.109375 L 530.253906 259.109375 L 528.894531 259.214844 L 526.109375 259.644531 L 524.605469 260.023438 L 522.464844 260.773438 L 520.960938 261.472656 L 519.175781 262.546875 L 517.960938 263.460938 L 516.460938 264.859375 L 515.390625 266.09375 L 514.175781 267.867188 L 513.460938 269.210938 L 512.816406 270.714844 L 512.246094 272.488281 L 511.816406 274.367188 L 511.53125 276.355469 L 511.386719 278.289062 L 511.386719 286.617188 L 511.53125 288.550781 L 511.886719 290.808594 L 512.816406 294.085938 L 514.175781 296.933594 L 515.746094 299.191406 L 517.246094 300.804688 L 518.105469 301.554688 L 519.246094 302.414062 L 521.035156 303.488281 L 523.605469 304.5625 L 525.105469 304.992188 L 527.394531 305.421875 L 529.753906 305.636719 L 532.894531 305.636719 L 535.683594 305.421875 L 537.542969 305.15625 L 539.46875 304.726562 L 542.113281 303.8125 L 543.757812 302.953125 L 545.1875 301.929688 L 546.257812 300.910156 L 546.972656 300.050781 L 548.046875 298.386719 L 548.902344 296.558594 L 549.546875 294.675781 L 549.976562 292.851562 L 559.980469 292.851562 L 559.550781 295 L 558.90625 297.09375 L 558.265625 298.652344 L 557.261719 300.535156 L 556.121094 302.199219 L 554.476562 304.082031 L 553.117188 305.316406 L 551.332031 306.660156 L 549.6875 307.679688 L 547.902344 308.59375 L 545.257812 309.667969 L 543.542969 310.207031 L 541.6875 310.6875 L 539.46875 311.117188 L 536.683594 311.496094 L 533.683594 311.710938 L 530.894531 311.765625 L 527.894531 311.65625 L 525.679688 311.441406 L 522.75 310.957031 L 519.105469 309.992188 L 516.460938 308.96875 L 514.390625 307.949219 L 512.601562 306.875 L 510.601562 305.421875 L 508.027344 303.058594 L 506.457031 301.234375 L 505.386719 299.726562 L 504.171875 297.632812 L 503.3125 295.753906 L 502.3125 292.742188 L 501.597656 288.929688 L 501.382812 285.972656 Z M 501.382812 278.558594 "/>
<path style=" stroke:none;fill-rule:nonzero;fill:rgb(96.862745%,70.196078%,16.862745%);fill-opacity:1;" d="M 501.382812 313.554688 L 501.453125 313.554688 L 501.453125 313.527344 L 501.742188 313.46875 L 502.457031 313.386719 L 503.382812 313.320312 L 504.382812 313.269531 L 505.027344 313.242188 L 506.101562 313.203125 L 507.027344 313.175781 L 509.386719 313.117188 L 512.386719 313.0625 L 514.03125 313.035156 L 515.890625 313.015625 L 518.535156 312.988281 L 519.75 312.980469 L 523.464844 312.960938 L 527.679688 312.945312 L 532.324219 312.941406 L 534.46875 312.945312 L 537.398438 312.949219 L 541.398438 312.964844 L 543.6875 312.976562 L 545.472656 312.988281 L 547.332031 313.007812 L 549.617188 313.03125 L 551.761719 313.066406 L 553.476562 313.097656 L 555.191406 313.136719 L 556.621094 313.175781 L 557.835938 313.222656 L 558.90625 313.277344 L 559.550781 313.324219 L 559.980469 313.367188 L 550.046875 313.367188 L 549.472656 313.324219 L 548.832031 313.289062 L 547.757812 313.246094 L 546.6875 313.214844 L 545.617188 313.1875 L 543.613281 313.15625 L 541.898438 313.132812 L 539.757812 313.117188 L 537.683594 313.105469 L 535.324219 313.097656 L 533.898438 313.09375 L 530.109375 313.09375 L 526.679688 313.101562 L 524.679688 313.113281 L 523.25 313.125 L 521.25 313.144531 L 520.035156 313.160156 L 519.320312 313.167969 L 517.175781 313.210938 L 515.746094 313.246094 L 514.960938 313.269531 L 513.960938 313.308594 L 513.246094 313.34375 L 512.460938 313.398438 L 512.03125 313.4375 L 511.460938 313.523438 L 511.386719 313.757812 L 511.601562 313.808594 L 512.03125 313.863281 L 512.601562 313.910156 L 513.460938 313.957031 L 514.316406 313.996094 L 515.816406 314.046875 L 517.105469 314.082031 L 518.105469 314.101562 L 520.035156 314.136719 L 520.820312 314.148438 L 522.679688 314.171875 L 524.605469 314.191406 L 526.964844 314.207031 L 528.75 314.214844 L 531.609375 314.222656 L 535.253906 314.222656 L 539.542969 314.214844 L 542.257812 314.203125 L 544.113281 314.195312 L 545.328125 314.183594 L 546.832031 314.167969 L 547.902344 314.15625 L 548.902344 314.140625 L 550.117188 314.121094 L 550.117188 313.808594 L 532.46875 313.808594 L 532.46875 313.660156 L 559.90625 313.660156 L 559.980469 314.167969 L 558.476562 314.207031 L 556.621094 314.238281 L 554.832031 314.265625 L 552.976562 314.289062 L 550.332031 314.3125 L 548.1875 314.328125 L 544.902344 314.347656 L 541.898438 314.359375 L 538.753906 314.367188 L 535.96875 314.371094 L 532.683594 314.371094 L 529.753906 314.367188 L 526.609375 314.359375 L 524.105469 314.351562 L 519.535156 314.320312 L 516.675781 314.292969 L 514.816406 314.269531 L 512.886719 314.242188 L 510.957031 314.210938 L 509.242188 314.175781 L 508.101562 314.148438 L 506.957031 314.117188 L 505.742188 314.078125 L 504.597656 314.03125 L 503.742188 313.992188 L 502.957031 313.945312 L 502.382812 313.902344 L 501.8125 313.84375 L 501.527344 313.796875 L 501.382812 313.757812 Z M 501.382812 313.554688 "/>
<path style=" stroke:none;fill-rule:nonzero;fill:rgb(83.921569%,15.686275%,22.352941%);fill-opacity:1;" d="M 501.382812 185.722656 L 559.980469 185.722656 L 559.980469 192.796875 L 535.558594 192.859375 L 535.558594 251.804688 L 525.734375 251.804688 L 525.734375 192.921875 L 525.589844 192.796875 L 501.382812 192.796875 Z M 501.382812 185.722656 "/>
<path style=" stroke:none;fill-rule:nonzero;fill:rgb(6.27451%,58.823529%,28.235294%);fill-opacity:1;" d="M 563.0625 314.371094 L 563.125 314.367188 L 588.480469 313.414062 L 596.179688 313.414062 L 621.65625 314.371094 L 612.707031 314.371094 L 606.320312 314.121094 L 578.335938 314.121094 L 572.078125 314.371094 L 563.0625 314.371094 L 581.03125 314.015625 L 603.753906 314.015625 L 592.421875 313.570312 L 592.296875 313.566406 L 592.171875 313.570312 L 580.964844 314.015625 L 581.03125 314.015625 Z M 563.0625 314.371094 "/>
<path style=" stroke:none;fill-rule:nonzero;fill:rgb(14.509804%,36.078431%,60%);fill-opacity:1;" d="M 563.0625 279.085938 L 563.132812 279.03125 L 563.132812 277.746094 L 563.347656 275.707031 L 563.847656 273.132812 L 564.347656 271.363281 L 565.636719 268.199219 L 567.421875 265.140625 L 569.28125 262.78125 L 570.636719 261.386719 L 571.851562 260.3125 L 574.640625 258.328125 L 576.425781 257.308594 L 578.355469 256.398438 L 580.710938 255.484375 L 582.425781 254.949219 L 586.285156 254.089844 L 589.144531 253.714844 L 591.359375 253.554688 L 596.148438 253.554688 L 599.003906 253.769531 L 601.078125 254.039062 L 603.363281 254.46875 L 605.292969 254.949219 L 608.652344 256.128906 L 611.652344 257.632812 L 613.011719 258.488281 L 615.15625 260.152344 L 616.796875 261.761719 L 617.941406 263.15625 L 619.226562 265.140625 L 620.371094 267.554688 L 621.230469 270.289062 L 621.65625 272.597656 L 611.652344 272.597656 L 611.152344 270.449219 L 610.582031 268.789062 L 609.511719 266.589844 L 608.4375 265.03125 L 606.9375 263.476562 L 605.578125 262.457031 L 603.722656 261.441406 L 602.078125 260.796875 L 600.363281 260.3125 L 598.71875 259.992188 L 595.574219 259.667969 L 591.929688 259.667969 L 590.574219 259.777344 L 587.785156 260.207031 L 586.285156 260.582031 L 584.144531 261.332031 L 582.640625 262.03125 L 580.855469 263.101562 L 579.640625 264.015625 L 578.140625 265.410156 L 577.066406 266.640625 L 575.855469 268.414062 L 575.140625 269.753906 L 574.496094 271.253906 L 573.925781 273.023438 L 573.496094 274.902344 L 573.210938 276.886719 L 573.066406 278.816406 L 573.066406 287.132812 L 573.210938 289.0625 L 573.566406 291.316406 L 574.496094 294.585938 L 575.855469 297.429688 L 577.425781 299.683594 L 578.925781 301.292969 L 579.785156 302.042969 L 580.925781 302.898438 L 582.714844 303.972656 L 585.285156 305.046875 L 586.785156 305.476562 L 589.074219 305.902344 L 591.429688 306.117188 L 594.574219 306.117188 L 597.363281 305.902344 L 599.21875 305.636719 L 601.148438 305.207031 L 603.792969 304.292969 L 605.4375 303.4375 L 606.867188 302.417969 L 607.9375 301.398438 L 608.652344 300.539062 L 609.722656 298.878906 L 610.582031 297.054688 L 611.226562 295.175781 L 611.652344 293.351562 L 621.65625 293.351562 L 621.230469 295.5 L 620.585938 297.589844 L 619.941406 299.144531 L 618.941406 301.023438 L 617.800781 302.6875 L 616.15625 304.5625 L 614.796875 305.796875 L 613.011719 307.136719 L 611.367188 308.15625 L 609.582031 309.070312 L 606.9375 310.140625 L 605.222656 310.675781 L 603.363281 311.160156 L 601.148438 311.589844 L 598.363281 311.964844 L 595.363281 312.179688 L 592.574219 312.234375 L 589.574219 312.125 L 587.359375 311.910156 L 584.429688 311.429688 L 580.785156 310.464844 L 578.140625 309.445312 L 576.066406 308.425781 L 574.28125 307.351562 L 572.28125 305.902344 L 569.707031 303.542969 L 568.136719 301.71875 L 567.0625 300.21875 L 565.847656 298.125 L 564.992188 296.25 L 563.992188 293.246094 L 563.277344 289.4375 L 563.0625 286.488281 Z M 563.0625 279.085938 "/>
<path style=" stroke:none;fill-rule:nonzero;fill:rgb(83.921569%,15.686275%,22.352941%);fill-opacity:1;" d="M 563.0625 182.472656 L 621.65625 182.472656 L 621.65625 189.957031 L 597.238281 190.023438 L 597.238281 252.375 L 587.410156 252.375 L 587.410156 190.089844 L 587.269531 189.957031 L 563.0625 189.957031 Z M 563.0625 182.472656 "/>
<path style=" stroke:none;fill-rule:nonzero;fill:rgb(6.27451%,58.823529%,28.235294%);fill-opacity:1;" d="M 624.742188 314.367188 L 624.804688 314.367188 L 650.15625 312.429688 L 657.859375 312.429688 L 683.335938 314.371094 L 674.386719 314.371094 L 668 313.863281 L 640.015625 313.863281 L 633.757812 314.367188 L 624.742188 314.367188 L 642.707031 313.65625 L 665.433594 313.652344 L 654.101562 312.746094 L 653.976562 312.746094 L 653.851562 312.75 L 642.644531 313.652344 L 642.707031 313.65625 Z M 624.742188 314.367188 "/>
<path style=" stroke:none;fill-rule:nonzero;fill:rgb(14.509804%,36.078431%,60%);fill-opacity:1;" d="M 624.742188 295.445312 L 624.8125 295.433594 L 624.8125 295.085938 L 625.027344 294.539062 L 625.527344 293.847656 L 626.027344 293.371094 L 627.3125 292.523438 L 629.101562 291.703125 L 630.957031 291.070312 L 632.316406 290.695312 L 633.53125 290.40625 L 636.316406 289.875 L 638.105469 289.601562 L 640.035156 289.355469 L 642.390625 289.109375 L 644.105469 288.96875 L 647.964844 288.738281 L 650.824219 288.636719 L 653.039062 288.59375 L 657.828125 288.59375 L 660.683594 288.648438 L 662.757812 288.722656 L 665.042969 288.835938 L 666.972656 288.96875 L 670.332031 289.285156 L 673.332031 289.6875 L 674.691406 289.917969 L 676.835938 290.363281 L 678.476562 290.796875 L 679.621094 291.171875 L 680.90625 291.703125 L 682.050781 292.351562 L 682.910156 293.085938 L 683.335938 293.703125 L 673.332031 293.703125 L 672.832031 293.128906 L 672.261719 292.683594 L 671.1875 292.089844 L 670.117188 291.675781 L 668.617188 291.257812 L 667.257812 290.984375 L 665.402344 290.710938 L 663.757812 290.535156 L 662.042969 290.40625 L 660.398438 290.320312 L 657.253906 290.234375 L 653.609375 290.234375 L 652.253906 290.261719 L 649.464844 290.378906 L 647.964844 290.480469 L 645.820312 290.679688 L 644.320312 290.867188 L 642.535156 291.15625 L 641.320312 291.398438 L 639.820312 291.773438 L 638.746094 292.105469 L 637.53125 292.582031 L 636.816406 292.941406 L 636.175781 293.34375 L 635.601562 293.820312 L 635.175781 294.324219 L 634.890625 294.855469 L 634.746094 295.375 L 634.746094 297.605469 L 634.890625 298.125 L 635.246094 298.730469 L 636.175781 299.609375 L 637.53125 300.371094 L 639.105469 300.976562 L 640.605469 301.40625 L 641.464844 301.609375 L 642.605469 301.839844 L 644.394531 302.128906 L 646.964844 302.414062 L 648.464844 302.53125 L 650.753906 302.644531 L 653.109375 302.703125 L 656.253906 302.703125 L 659.042969 302.644531 L 660.898438 302.574219 L 662.828125 302.457031 L 665.472656 302.214844 L 667.117188 301.984375 L 668.546875 301.710938 L 669.617188 301.4375 L 670.332031 301.207031 L 671.402344 300.757812 L 672.261719 300.269531 L 672.902344 299.765625 L 673.332031 299.277344 L 683.335938 299.277344 L 682.910156 299.851562 L 682.265625 300.414062 L 681.621094 300.832031 L 680.621094 301.335938 L 679.476562 301.78125 L 677.835938 302.285156 L 676.476562 302.617188 L 674.691406 302.976562 L 673.046875 303.25 L 671.261719 303.496094 L 668.617188 303.785156 L 666.902344 303.925781 L 665.042969 304.058594 L 662.828125 304.171875 L 660.042969 304.273438 L 657.039062 304.332031 L 654.253906 304.34375 L 651.253906 304.316406 L 649.039062 304.257812 L 646.109375 304.128906 L 642.464844 303.871094 L 639.820312 303.597656 L 637.746094 303.324219 L 635.960938 303.035156 L 633.960938 302.644531 L 631.386719 302.011719 L 629.816406 301.523438 L 628.742188 301.121094 L 627.527344 300.558594 L 626.671875 300.054688 L 625.671875 299.246094 L 624.957031 298.226562 L 624.742188 297.433594 Z M 624.742188 295.445312 "/>
<path style=" stroke:none;fill-rule:nonzero;fill:rgb(96.862745%,70.196078%,16.862745%);fill-opacity:1;" d="M 624.742188 307.976562 L 624.8125 307.972656 L 624.8125 307.867188 L 625.097656 307.632812 L 625.8125 307.308594 L 626.742188 307.042969 L 627.742188 306.832031 L 628.386719 306.722656 L 629.457031 306.566406 L 630.386719 306.449219 L 632.746094 306.214844 L 635.746094 305.996094 L 637.390625 305.902344 L 639.246094 305.8125 L 641.890625 305.714844 L 643.105469 305.675781 L 646.820312 305.59375 L 651.039062 305.539062 L 655.683594 305.523438 L 657.828125 305.53125 L 660.757812 305.550781 L 664.757812 305.609375 L 667.042969 305.660156 L 668.832031 305.714844 L 670.6875 305.78125 L 672.976562 305.886719 L 675.121094 306.011719 L 676.835938 306.136719 L 678.550781 306.292969 L 679.980469 306.460938 L 681.191406 306.644531 L 682.265625 306.863281 L 682.910156 307.046875 L 683.335938 307.230469 L 673.40625 307.230469 L 672.832031 307.046875 L 672.191406 306.90625 L 671.117188 306.734375 L 670.046875 306.605469 L 668.972656 306.507812 L 666.972656 306.371094 L 665.257812 306.289062 L 663.113281 306.214844 L 661.042969 306.167969 L 658.683594 306.136719 L 657.253906 306.125 L 653.46875 306.125 L 650.039062 306.164062 L 648.035156 306.203125 L 646.609375 306.246094 L 644.605469 306.324219 L 643.390625 306.386719 L 642.675781 306.429688 L 640.535156 306.589844 L 639.105469 306.738281 L 638.320312 306.835938 L 637.316406 306.996094 L 636.605469 307.136719 L 635.816406 307.34375 L 635.390625 307.5 L 634.816406 307.855469 L 634.746094 308.796875 L 634.960938 308.996094 L 635.390625 309.210938 L 635.960938 309.398438 L 636.816406 309.597656 L 637.675781 309.75 L 639.175781 309.953125 L 640.460938 310.089844 L 641.464844 310.179688 L 643.390625 310.320312 L 644.179688 310.367188 L 646.035156 310.460938 L 647.964844 310.535156 L 650.324219 310.597656 L 652.109375 310.628906 L 654.96875 310.65625 L 658.613281 310.65625 L 662.898438 310.625 L 665.617188 310.582031 L 667.472656 310.539062 L 668.6875 310.503906 L 670.1875 310.445312 L 671.261719 310.394531 L 672.261719 310.335938 L 673.476562 310.246094 L 673.476562 308.996094 L 655.824219 308.992188 L 655.824219 308.40625 L 683.265625 308.402344 L 683.335938 310.445312 L 681.835938 310.585938 L 679.980469 310.722656 L 678.191406 310.828125 L 676.335938 310.917969 L 673.691406 311.015625 L 671.546875 311.078125 L 668.257812 311.152344 L 665.257812 311.199219 L 662.113281 311.230469 L 659.328125 311.246094 L 656.039062 311.25 L 653.109375 311.242188 L 649.964844 311.210938 L 647.464844 311.167969 L 645.179688 311.117188 L 642.890625 311.046875 L 640.035156 310.9375 L 638.175781 310.847656 L 636.246094 310.738281 L 634.316406 310.609375 L 632.601562 310.46875 L 631.457031 310.355469 L 630.316406 310.230469 L 629.101562 310.074219 L 627.957031 309.898438 L 627.101562 309.734375 L 626.3125 309.550781 L 625.742188 309.378906 L 625.171875 309.144531 L 624.882812 308.957031 L 624.742188 308.792969 Z M 624.742188 307.976562 "/>
<path style=" stroke:none;fill-rule:nonzero;fill:rgb(83.921569%,15.686275%,22.352941%);fill-opacity:1;" d="M 624.742188 260.074219 L 683.335938 260.074219 L 683.335938 263 L 658.917969 263.027344 L 658.917969 287.414062 L 649.089844 287.414062 L 649.089844 263.054688 L 648.949219 263 L 624.742188 263 Z M 624.742188 260.074219 "/>
<g style="fill:rgb(0%,0%,0%);fill-opacity:1;">
  <use xlink:href="#glyph0-1" x="21.957031" y="318.198242"/>
  <use xlink:href="#glyph0-2" x="27.291016" y="318.198242"/>
  <use xlink:href="#glyph0-1" x="29.958008" y="318.198242"/>
</g>
<g style="fill:rgb(0%,0%,0%);fill-opacity:1;">
  <use xlink:href="#glyph0-1" x="21.957031" y="244.475586"/>
  <use xlink:href="#glyph0-2" x="27.291016" y="244.475586"/>
  <use xlink:href="#glyph0-3" x="29.958008" y="244.475586"/>
</g>
<g style="fill:rgb(0%,0%,0%);fill-opacity:1;">
  <use xlink:href="#glyph0-4" x="21.957031" y="170.75293"/>
  <use xlink:href="#glyph0-2" x="27.291016" y="170.75293"/>
  <use xlink:href="#glyph0-1" x="29.958008" y="170.75293"/>
</g>
<g style="fill:rgb(0%,0%,0%);fill-opacity:1;">
  <use xlink:href="#glyph0-4" x="21.957031" y="97.03418"/>
  <use xlink:href="#glyph0-2" x="27.291016" y="97.03418"/>
  <use xlink:href="#glyph0-3" x="29.958008" y="97.03418"/>
</g>
<g style="fill:rgb(0%,0%,0%);fill-opacity:1;">
  <use xlink:href="#glyph0-5" x="21.957031" y="23.311523"/>
  <use xlink:href="#glyph0-2" x="27.291016" y="23.311523"/>
  <use xlink:href="#glyph0-1" x="29.958008" y="23.311523"/>
</g>
<g style="fill:rgb(0%,0%,0%);fill-opacity:1;">
  <use xlink:href="#glyph0-4" x="95.925781" y="338.19043"/>
</g>
<g style="fill:rgb(0%,0%,0%);fill-opacity:1;">
  <use xlink:href="#glyph0-5" x="157.605469" y="338.19043"/>
</g>
<g style="fill:rgb(0%,0%,0%);fill-opacity:1;">
  <use xlink:href="#glyph0-6" x="219.285156" y="338.19043"/>
</g>
<g style="fill:rgb(0%,0%,0%);fill-opacity:1;">
  <use xlink:href="#glyph0-7" x="280.964844" y="338.19043"/>
</g>
<g style="fill:rgb(0%,0%,0%);fill-opacity:1;">
  <use xlink:href="#glyph0-3" x="342.644531" y="338.19043"/>
</g>
<g style="fill:rgb(0%,0%,0%);fill-opacity:1;">
  <use xlink:href="#glyph0-8" x="404.324219" y="338.19043"/>
</g>
<g style="fill:rgb(0%,0%,0%);fill-opacity:1;">
  <use xlink:href="#glyph0-9" x="466" y="338.19043"/>
</g>
<g style="fill:rgb(0%,0%,0%);fill-opacity:1;">
  <use xlink:href="#glyph0-10" x="527.679688" y="338.19043"/>
</g>
<g style="fill:rgb(0%,0%,0%);fill-opacity:1;">
  <use xlink:href="#glyph0-11" x="589.359375" y="338.19043"/>
</g>
<g style="fill:rgb(0%,0%,0%);fill-opacity:1;">
  <use xlink:href="#glyph0-4" x="648.539062" y="338.19043"/>
  <use xlink:href="#glyph0-1" x="653.873047" y="338.19043"/>
</g>
<g style="fill:rgb(0%,0%,0%);fill-opacity:1;">
  <use xlink:href="#glyph1-1" x="14.412109" y="178.015625"/>
  <use xlink:href="#glyph1-2" x="14.412109" y="170.011719"/>
  <use xlink:href="#glyph1-3" x="14.412109" y="167.347656"/>
  <use xlink:href="#glyph1-4" x="14.412109" y="164.011719"/>
</g>
</g>
</svg>
