<?xml version="1.0" encoding="UTF-8"?>
<svg xmlns="http://www.w3.org/2000/svg" xmlns:xlink="http://www.w3.org/1999/xlink" width="720pt" height="360pt" viewBox="0 0 720 360" version="1.1">
<defs>
<g>
<symbol overflow="visible" id="glyph0-0">
<path style="stroke:none;" d=""/>
</symbol>
<symbol overflow="visible" id="glyph0-1">
<path style="stroke:none;" d="M 2.640625 -6.796875 C 2 -6.796875 1.421875 -6.53125 1.078125 -6.046875 C 0.640625 -5.453125 0.40625 -4.546875 0.40625 -3.296875 C 0.40625 -1 1.1875 0.21875 2.640625 0.21875 C 4.078125 0.21875 4.859375 -1 4.859375 -3.234375 C 4.859375 -4.5625 4.65625 -5.4375 4.203125 -6.046875 C 3.84375 -6.53125 3.28125 -6.796875 2.640625 -6.796875 Z M 2.640625 -6.046875 C 3.546875 -6.046875 4 -5.125 4 -3.3125 C 4 -1.375 3.5625 -0.484375 2.625 -0.484375 C 1.734375 -0.484375 1.28125 -1.421875 1.28125 -3.28125 C 1.28125 -5.140625 1.734375 -6.046875 2.640625 -6.046875 Z M 2.640625 -6.046875 "/>
</symbol>
<symbol overflow="visible" id="glyph0-2">
<path style="stroke:none;" d="M 1.828125 -1 L 0.828125 -1 L 0.828125 0 L 1.828125 0 Z M 1.828125 -1 "/>
</symbol>
<symbol overflow="visible" id="glyph0-3">
<path style="stroke:none;" d="M 4.5625 -6.796875 L 1.0625 -6.796875 L 0.546875 -3.09375 L 1.328125 -3.09375 C 1.71875 -3.5625 2.046875 -3.734375 2.578125 -3.734375 C 3.484375 -3.734375 4.0625 -3.109375 4.0625 -2.09375 C 4.0625 -1.125 3.484375 -0.53125 2.578125 -0.53125 C 1.828125 -0.53125 1.375 -0.90625 1.1875 -1.671875 L 0.328125 -1.671875 C 0.453125 -1.109375 0.546875 -0.84375 0.75 -0.59375 C 1.125 -0.078125 1.828125 0.21875 2.59375 0.21875 C 3.96875 0.21875 4.921875 -0.78125 4.921875 -2.21875 C 4.921875 -3.5625 4.03125 -4.484375 2.71875 -4.484375 C 2.25 -4.484375 1.859375 -4.359375 1.46875 -4.0625 L 1.734375 -5.96875 L 4.5625 -5.96875 Z M 4.5625 -6.796875 "/>
</symbol>
<symbol overflow="visible" id="glyph0-4">
<path style="stroke:none;" d="M 2.484375 -4.84375 L 2.484375 0 L 3.328125 0 L 3.328125 -6.796875 L 2.765625 -6.796875 C 2.46875 -5.75 2.28125 -5.609375 0.984375 -5.453125 L 0.984375 -4.84375 Z M 2.484375 -4.84375 "/>
</symbol>
<symbol overflow="visible" id="glyph0-5">
<path style="stroke:none;" d="M 4.859375 -0.828125 L 1.28125 -0.828125 C 1.359375 -1.390625 1.671875 -1.75 2.5 -2.234375 L 3.46875 -2.75 C 4.40625 -3.265625 4.90625 -3.96875 4.90625 -4.8125 C 4.90625 -5.375 4.671875 -5.90625 4.265625 -6.265625 C 3.859375 -6.625 3.375 -6.796875 2.71875 -6.796875 C 1.859375 -6.796875 1.21875 -6.5 0.84375 -5.921875 C 0.609375 -5.5625 0.5 -5.125 0.484375 -4.4375 L 1.328125 -4.4375 C 1.359375 -4.90625 1.40625 -5.1875 1.53125 -5.40625 C 1.75 -5.8125 2.1875 -6.0625 2.703125 -6.0625 C 3.46875 -6.0625 4.03125 -5.515625 4.03125 -4.78125 C 4.03125 -4.25 3.71875 -3.796875 3.125 -3.4375 L 2.234375 -2.9375 C 0.8125 -2.140625 0.40625 -1.5 0.328125 0 L 4.859375 0 Z M 4.859375 -0.828125 "/>
</symbol>
<symbol overflow="visible" id="glyph0-6">
<path style="stroke:none;" d="M 2.125 -3.125 L 2.578125 -3.125 C 3.515625 -3.125 3.984375 -2.703125 3.984375 -1.890625 C 3.984375 -1.03125 3.46875 -0.53125 2.578125 -0.53125 C 1.65625 -0.53125 1.203125 -0.984375 1.15625 -1.96875 L 0.3125 -1.96875 C 0.34375 -1.421875 0.4375 -1.078125 0.609375 -0.765625 C 0.953125 -0.109375 1.625 0.21875 2.546875 0.21875 C 3.953125 0.21875 4.859375 -0.609375 4.859375 -1.90625 C 4.859375 -2.765625 4.515625 -3.25 3.703125 -3.515625 C 4.34375 -3.765625 4.65625 -4.25 4.65625 -4.9375 C 4.65625 -6.109375 3.875 -6.796875 2.578125 -6.796875 C 1.203125 -6.796875 0.484375 -6.046875 0.453125 -4.609375 L 1.296875 -4.609375 C 1.3125 -5.015625 1.34375 -5.25 1.453125 -5.453125 C 1.640625 -5.828125 2.0625 -6.0625 2.59375 -6.0625 C 3.34375 -6.0625 3.796875 -5.625 3.796875 -4.90625 C 3.796875 -4.421875 3.609375 -4.140625 3.25 -3.984375 C 3.015625 -3.890625 2.71875 -3.84375 2.125 -3.84375 Z M 2.125 -3.125 "/>
</symbol>
<symbol overflow="visible" id="glyph0-7">
<path style="stroke:none;" d="M 3.140625 -1.625 L 3.140625 0 L 3.984375 0 L 3.984375 -1.625 L 4.984375 -1.625 L 4.984375 -2.390625 L 3.984375 -2.390625 L 3.984375 -6.796875 L 3.359375 -6.796875 L 0.265625 -2.515625 L 0.265625 -1.625 Z M 3.140625 -2.390625 L 1 -2.390625 L 3.140625 -5.359375 Z M 3.140625 -2.390625 "/>
</symbol>
<symbol overflow="visible" id="glyph0-8">
<path style="stroke:none;" d="M 4.78125 -5.03125 C 4.609375 -6.140625 3.890625 -6.796875 2.84375 -6.796875 C 2.09375 -6.796875 1.421875 -6.4375 1.03125 -5.828125 C 0.609375 -5.171875 0.40625 -4.34375 0.40625 -3.09375 C 0.40625 -1.953125 0.578125 -1.234375 0.984375 -0.625 C 1.359375 -0.078125 1.953125 0.21875 2.703125 0.21875 C 3.984375 0.21875 4.921875 -0.734375 4.921875 -2.078125 C 4.921875 -3.34375 4.0625 -4.234375 2.84375 -4.234375 C 2.171875 -4.234375 1.640625 -3.96875 1.28125 -3.46875 C 1.28125 -5.125 1.828125 -6.046875 2.796875 -6.046875 C 3.390625 -6.046875 3.796875 -5.671875 3.9375 -5.03125 Z M 2.734375 -3.484375 C 3.546875 -3.484375 4.0625 -2.921875 4.0625 -2 C 4.0625 -1.15625 3.484375 -0.53125 2.703125 -0.53125 C 1.921875 -0.53125 1.328125 -1.1875 1.328125 -2.046875 C 1.328125 -2.890625 1.90625 -3.484375 2.734375 -3.484375 Z M 2.734375 -3.484375 "/>
</symbol>
<symbol overflow="visible" id="glyph0-9">
<path style="stroke:none;" d="M 4.984375 -6.796875 L 0.4375 -6.796875 L 0.4375 -5.96875 L 4.109375 -5.96875 C 2.5 -3.65625 1.828125 -2.234375 1.328125 0 L 2.21875 0 C 2.59375 -2.171875 3.453125 -4.046875 4.984375 -6.09375 Z M 4.984375 -6.796875 "/>
</symbol>
<symbol overflow="visible" id="glyph0-10">
<path style="stroke:none;" d="M 3.75 -3.578125 C 4.453125 -4 4.6875 -4.34375 4.6875 -4.984375 C 4.6875 -6.046875 3.84375 -6.796875 2.640625 -6.796875 C 1.4375 -6.796875 0.59375 -6.046875 0.59375 -4.984375 C 0.59375 -4.359375 0.828125 -4.015625 1.515625 -3.578125 C 0.734375 -3.203125 0.359375 -2.640625 0.359375 -1.890625 C 0.359375 -0.640625 1.296875 0.21875 2.640625 0.21875 C 3.984375 0.21875 4.921875 -0.640625 4.921875 -1.875 C 4.921875 -2.640625 4.53125 -3.203125 3.75 -3.578125 Z M 2.640625 -6.046875 C 3.359375 -6.046875 3.8125 -5.625 3.8125 -4.96875 C 3.8125 -4.34375 3.34375 -3.921875 2.640625 -3.921875 C 1.921875 -3.921875 1.453125 -4.34375 1.453125 -4.984375 C 1.453125 -5.625 1.921875 -6.046875 2.640625 -6.046875 Z M 2.640625 -3.203125 C 3.484375 -3.203125 4.0625 -2.671875 4.0625 -1.875 C 4.0625 -1.0625 3.484375 -0.53125 2.625 -0.53125 C 1.796875 -0.53125 1.21875 -1.078125 1.21875 -1.875 C 1.21875 -2.671875 1.796875 -3.203125 2.640625 -3.203125 Z M 2.640625 -3.203125 "/>
</symbol>
<symbol overflow="visible" id="glyph0-11">
<path style="stroke:none;" d="M 0.515625 -1.546875 C 0.671875 -0.4375 1.40625 0.21875 2.4375 0.21875 C 3.1875 0.21875 3.859375 -0.140625 4.265625 -0.75 C 4.6875 -1.40625 4.890625 -2.25 4.890625 -3.484375 C 4.890625 -4.625 4.703125 -5.359375 4.3125 -5.953125 C 3.9375 -6.5 3.34375 -6.796875 2.59375 -6.796875 C 1.296875 -6.796875 0.359375 -5.84375 0.359375 -4.515625 C 0.359375 -3.25 1.234375 -2.34375 2.453125 -2.34375 C 3.09375 -2.34375 3.5625 -2.578125 4.015625 -3.109375 C 4 -1.453125 3.46875 -0.53125 2.5 -0.53125 C 1.90625 -0.53125 1.484375 -0.90625 1.359375 -1.546875 Z M 2.578125 -6.0625 C 3.375 -6.0625 3.96875 -5.40625 3.96875 -4.53125 C 3.96875 -3.6875 3.375 -3.09375 2.546875 -3.09375 C 1.734375 -3.09375 1.234375 -3.671875 1.234375 -4.578125 C 1.234375 -5.4375 1.796875 -6.0625 2.578125 -6.0625 Z M 2.578125 -6.0625 "/>
</symbol>
<symbol overflow="visible" id="glyph1-0">
<path style="stroke:none;" d=""/>
</symbol>
<symbol overflow="visible" id="glyph1-1">
<path style="stroke:none;" d="M 0 -0.953125 L 0 -4.890625 C 0 -5.71875 -0.234375 -6.34375 -0.734375 -6.796875 C -1.1875 -7.234375 -1.8125 -7.46875 -2.5 -7.46875 C -3.546875 -7.46875 -4.1875 -7 -4.625 -5.875 C -4.984375 -6.671875 -5.640625 -7.09375 -6.53125 -7.09375 C -7.15625 -7.09375 -7.734375 -6.859375 -8.140625 -6.390625 C -8.5625 -5.9375 -8.75 -5.34375 -8.75 -4.5 L -8.75 -0.953125 Z M -4.984375 -2.0625 L -7.765625 -2.0625 L -7.765625 -4.21875 C -7.765625 -4.84375 -7.6875 -5.203125 -7.453125 -5.5 C -7.21875 -5.8125 -6.859375 -5.96875 -6.375 -5.96875 C -5.90625 -5.96875 -5.53125 -5.8125 -5.296875 -5.5 C -5.0625 -5.203125 -4.984375 -4.84375 -4.984375 -4.21875 Z M -0.984375 -2.0625 L -4 -2.0625 L -4 -4.78125 C -4 -5.328125 -3.859375 -5.6875 -3.578125 -5.953125 C -3.296875 -6.21875 -2.921875 -6.359375 -2.484375 -6.359375 C -2.0625 -6.359375 -1.6875 -6.21875 -1.40625 -5.953125 C -1.109375 -5.6875 -0.984375 -5.328125 -0.984375 -4.78125 Z M -0.984375 -2.0625 "/>
</symbol>
<symbol overflow="visible" id="glyph1-2">
<path style="stroke:none;" d="M -6.28125 -1.796875 L -6.28125 -0.796875 L 0 -0.796875 L 0 -1.796875 Z M -8.75 -1.796875 L -8.75 -0.796875 L -7.484375 -0.796875 L -7.484375 -1.796875 Z M -8.75 -1.796875 "/>
</symbol>
<symbol overflow="visible" id="glyph1-3">
<path style="stroke:none;" d="M -6.28125 -3.046875 L -6.28125 -2.015625 L -8.015625 -2.015625 L -8.015625 -1.015625 L -6.28125 -1.015625 L -6.28125 -0.171875 L -5.46875 -0.171875 L -5.46875 -1.015625 L -0.71875 -1.015625 C -0.078125 -1.015625 0.28125 -1.453125 0.28125 -2.234375 C 0.28125 -2.46875 0.25 -2.71875 0.1875 -3.046875 L -0.640625 -3.046875 C -0.609375 -2.921875 -0.59375 -2.765625 -0.59375 -2.5625 C -0.59375 -2.140625 -0.71875 -2.015625 -1.15625 -2.015625 L -5.46875 -2.015625 L -5.46875 -3.046875 Z M -6.28125 -3.046875 "/>
</symbol>
<symbol overflow="visible" id="glyph1-4">
<path style="stroke:none;" d="M -4.53125 -5.25 C -5.765625 -5.25 -6.46875 -4.421875 -6.46875 -2.96875 C -6.46875 -1.515625 -5.71875 -0.5625 -4.546875 -0.5625 C -3.5625 -0.5625 -3.09375 -1.0625 -2.734375 -2.5625 L -2.515625 -3.484375 C -2.34375 -4.1875 -2.09375 -4.46875 -1.625 -4.46875 C -1.046875 -4.46875 -0.640625 -3.875 -0.640625 -3 C -0.640625 -2.453125 -0.796875 -2 -1.0625 -1.75 C -1.25 -1.59375 -1.421875 -1.53125 -1.875 -1.46875 L -1.875 -0.40625 C -0.421875 -0.453125 0.28125 -1.265625 0.28125 -2.921875 C 0.28125 -4.5 -0.5 -5.515625 -1.71875 -5.515625 C -2.65625 -5.515625 -3.171875 -4.984375 -3.46875 -3.734375 L -3.703125 -2.765625 C -3.890625 -1.953125 -4.15625 -1.609375 -4.59375 -1.609375 C -5.171875 -1.609375 -5.546875 -2.125 -5.546875 -2.9375 C -5.546875 -3.75 -5.203125 -4.171875 -4.53125 -4.203125 Z M -4.53125 -5.25 "/>
</symbol>
</g>
</defs>
<g id="surface87908">
<rect x="0" y="0" width="720" height="360" style="fill:rgb(100%,100%,100%);fill-opacity:1;stroke:none;"/>
<path style=" stroke:none;fill-rule:nonzero;fill:rgb(6.27451%,58.823529%,28.235294%);fill-opacity:1;" d="M 69.628906 306.011719 L 69.679688 306.007812 L 90.792969 299.144531 L 97.203125 299.144531 L 118.417969 306.019531 L 110.964844 306.019531 L 105.648438 304.226562 L 82.347656 304.226562 L 77.136719 306.011719 L 69.628906 306.011719 L 84.589844 303.484375 L 103.511719 303.476562 L 94.074219 300.269531 L 93.972656 300.261719 L 93.867188 300.28125 L 84.535156 303.476562 L 84.589844 303.484375 Z M 69.628906 306.011719 "/>
<path style=" stroke:none;fill-rule:nonzero;fill:rgb(14.509804%,36.078431%,60%);fill-opacity:1;" d="M 69.628906 313.0625 L 69.6875 313.0625 L 69.6875 313.011719 L 69.867188 312.929688 L 70.285156 312.828125 L 70.699219 312.757812 L 71.769531 312.632812 L 73.257812 312.511719 L 74.804688 312.417969 L 75.9375 312.363281 L 76.949219 312.324219 L 79.269531 312.246094 L 80.753906 312.203125 L 82.363281 312.167969 L 84.324219 312.132812 L 85.753906 312.109375 L 88.964844 312.078125 L 91.347656 312.0625 L 93.191406 312.054688 L 97.175781 312.054688 L 99.558594 312.0625 L 101.28125 312.074219 L 103.1875 312.089844 L 104.792969 312.109375 L 107.589844 312.15625 L 110.089844 312.214844 L 111.21875 312.25 L 113.003906 312.316406 L 114.371094 312.378906 L 115.324219 312.433594 L 116.394531 312.511719 L 117.347656 312.609375 L 118.0625 312.714844 L 118.417969 312.808594 L 110.089844 312.808594 L 109.671875 312.722656 L 109.195312 312.65625 L 108.304688 312.570312 L 107.410156 312.507812 L 106.160156 312.449219 L 105.03125 312.40625 L 103.484375 312.367188 L 102.117188 312.339844 L 100.6875 312.324219 L 99.320312 312.308594 L 96.699219 312.296875 L 93.667969 312.296875 L 92.535156 312.300781 L 90.214844 312.316406 L 88.964844 312.332031 L 87.179688 312.363281 L 85.933594 312.390625 L 84.445312 312.433594 L 83.433594 312.46875 L 82.183594 312.523438 L 81.289062 312.570312 L 80.28125 312.640625 L 79.683594 312.695312 L 79.148438 312.753906 L 78.671875 312.824219 L 78.316406 312.898438 L 78.078125 312.976562 L 77.960938 313.050781 L 77.960938 313.378906 L 78.078125 313.457031 L 78.375 313.546875 L 79.148438 313.675781 L 80.28125 313.785156 L 81.589844 313.875 L 82.839844 313.9375 L 83.550781 313.96875 L 84.503906 314.003906 L 85.992188 314.042969 L 88.132812 314.085938 L 89.382812 314.105469 L 91.285156 314.121094 L 93.25 314.128906 L 95.867188 314.128906 L 98.1875 314.121094 L 99.734375 314.109375 L 101.34375 314.09375 L 103.542969 314.058594 L 104.910156 314.023438 L 106.101562 313.984375 L 106.996094 313.941406 L 107.589844 313.910156 L 108.480469 313.84375 L 109.195312 313.773438 L 109.730469 313.699219 L 110.089844 313.625 L 118.417969 313.625 L 118.0625 313.710938 L 117.523438 313.792969 L 116.988281 313.855469 L 116.15625 313.929688 L 115.203125 313.992188 L 113.835938 314.066406 L 112.707031 314.117188 L 111.21875 314.167969 L 109.851562 314.210938 L 108.363281 314.246094 L 106.160156 314.289062 L 104.734375 314.308594 L 103.1875 314.328125 L 101.34375 314.34375 L 99.019531 314.359375 L 96.523438 314.367188 L 94.203125 314.371094 L 91.703125 314.367188 L 89.859375 314.359375 L 87.417969 314.339844 L 84.386719 314.300781 L 82.183594 314.261719 L 80.457031 314.21875 L 78.96875 314.179688 L 77.304688 314.121094 L 75.164062 314.027344 L 73.855469 313.957031 L 72.960938 313.898438 L 71.949219 313.8125 L 71.234375 313.738281 L 70.402344 313.621094 L 69.808594 313.472656 L 69.628906 313.355469 Z M 69.628906 313.0625 "/>
<path style=" stroke:none;fill-rule:nonzero;fill:rgb(96.862745%,70.196078%,16.862745%);fill-opacity:1;" d="M 69.628906 290.800781 L 69.6875 290.789062 L 69.6875 290.558594 L 69.925781 290.046875 L 70.523438 289.335938 L 71.296875 288.753906 L 72.128906 288.292969 L 72.664062 288.054688 L 73.554688 287.710938 L 74.328125 287.460938 L 76.292969 286.945312 L 78.792969 286.464844 L 80.160156 286.257812 L 81.707031 286.0625 L 83.910156 285.84375 L 84.921875 285.765625 L 88.015625 285.582031 L 91.523438 285.46875 L 95.390625 285.433594 L 97.175781 285.445312 L 99.617188 285.492188 L 102.949219 285.617188 L 104.851562 285.730469 L 106.339844 285.84375 L 107.886719 285.996094 L 109.789062 286.222656 L 111.574219 286.496094 L 113.003906 286.773438 L 114.429688 287.117188 L 115.621094 287.480469 L 116.632812 287.882812 L 117.523438 288.363281 L 118.0625 288.761719 L 118.417969 289.164062 L 110.148438 289.164062 L 109.671875 288.761719 L 109.136719 288.453125 L 108.242188 288.078125 L 107.351562 287.800781 L 106.457031 287.585938 L 104.792969 287.289062 L 103.363281 287.105469 L 101.578125 286.945312 L 99.855469 286.839844 L 97.890625 286.773438 L 96.699219 286.75 L 93.546875 286.75 L 90.691406 286.828125 L 89.027344 286.921875 L 87.835938 287.011719 L 86.167969 287.183594 L 85.160156 287.320312 L 84.5625 287.414062 L 82.777344 287.769531 L 81.589844 288.089844 L 80.933594 288.304688 L 80.101562 288.648438 L 79.507812 288.957031 L 78.851562 289.414062 L 78.496094 289.757812 L 78.019531 290.539062 L 77.960938 292.597656 L 78.136719 293.03125 L 78.496094 293.5 L 78.96875 293.914062 L 79.683594 294.347656 L 80.398438 294.679688 L 81.648438 295.125 L 82.71875 295.425781 L 83.550781 295.617188 L 85.160156 295.929688 L 85.8125 296.03125 L 87.359375 296.238281 L 88.964844 296.398438 L 90.929688 296.535156 L 92.417969 296.601562 L 94.796875 296.660156 L 97.832031 296.660156 L 101.402344 296.589844 L 103.664062 296.5 L 105.210938 296.410156 L 106.21875 296.328125 L 107.46875 296.203125 L 108.363281 296.089844 L 109.195312 295.960938 L 110.207031 295.765625 L 110.207031 293.03125 L 95.511719 293.019531 L 95.511719 291.738281 L 118.359375 291.726562 L 118.417969 296.203125 L 117.167969 296.511719 L 115.621094 296.808594 L 114.132812 297.039062 L 112.585938 297.230469 L 110.386719 297.449219 L 108.601562 297.585938 L 105.863281 297.746094 L 103.363281 297.851562 L 100.746094 297.917969 L 98.425781 297.953125 L 95.691406 297.964844 L 93.25 297.941406 L 90.632812 297.875 L 88.550781 297.78125 L 86.644531 297.667969 L 84.742188 297.519531 L 82.363281 297.277344 L 80.816406 297.082031 L 79.207031 296.84375 L 77.601562 296.558594 L 76.175781 296.25 L 75.222656 296.007812 L 74.269531 295.734375 L 73.257812 295.390625 L 72.308594 295 L 71.59375 294.644531 L 70.9375 294.246094 L 70.460938 293.867188 L 69.988281 293.351562 L 69.75 292.941406 L 69.628906 292.585938 Z M 69.628906 290.800781 "/>
<path style=" stroke:none;fill-rule:nonzero;fill:rgb(83.921569%,15.686275%,22.352941%);fill-opacity:1;" d="M 69.628906 307.199219 L 118.417969 307.199219 L 118.417969 307.59375 L 98.085938 307.597656 L 98.085938 310.875 L 89.902344 310.875 L 89.902344 307.601562 L 89.785156 307.59375 L 69.628906 307.59375 Z M 69.628906 307.199219 "/>
<path style=" stroke:none;fill-rule:nonzero;fill:rgb(6.27451%,58.823529%,28.235294%);fill-opacity:1;" d="M 120.984375 307.804688 L 121.039062 307.792969 L 142.148438 298.082031 L 148.558594 298.082031 L 169.773438 307.8125 L 162.320312 307.8125 L 157.003906 305.273438 L 133.703125 305.273438 L 128.492188 307.804688 L 120.984375 307.804688 L 135.945312 304.222656 L 154.867188 304.214844 L 145.433594 299.671875 L 145.328125 299.664062 L 145.222656 299.691406 L 135.894531 304.214844 L 135.945312 304.222656 Z M 120.984375 307.804688 "/>
<path style=" stroke:none;fill-rule:nonzero;fill:rgb(14.509804%,36.078431%,60%);fill-opacity:1;" d="M 120.984375 250.46875 L 121.046875 250.414062 L 121.046875 249.109375 L 121.222656 247.042969 L 121.640625 244.429688 L 122.054688 242.636719 L 123.128906 239.425781 L 124.613281 236.324219 L 126.160156 233.933594 L 127.292969 232.519531 L 128.304688 231.429688 L 130.625 229.417969 L 132.113281 228.382812 L 133.71875 227.460938 L 135.683594 226.535156 L 137.109375 225.992188 L 140.324219 225.121094 L 142.703125 224.738281 L 144.546875 224.578125 L 148.535156 224.578125 L 150.914062 224.792969 L 152.636719 225.066406 L 154.542969 225.5 L 156.148438 225.992188 L 158.945312 227.1875 L 161.445312 228.710938 L 162.574219 229.582031 L 164.359375 231.265625 L 165.726562 232.898438 L 166.679688 234.3125 L 167.75 236.324219 L 168.703125 238.773438 L 169.417969 241.546875 L 169.773438 243.886719 L 161.445312 243.886719 L 161.027344 241.710938 L 160.550781 240.023438 L 159.660156 237.792969 L 158.765625 236.21875 L 157.515625 234.640625 L 156.386719 233.605469 L 154.839844 232.574219 L 153.472656 231.917969 L 152.042969 231.429688 L 150.675781 231.105469 L 148.058594 230.777344 L 145.023438 230.777344 L 143.890625 230.886719 L 141.570312 231.320312 L 140.324219 231.703125 L 138.539062 232.464844 L 137.289062 233.171875 L 135.800781 234.257812 L 134.789062 235.183594 L 133.539062 236.597656 L 132.648438 237.847656 L 131.636719 239.644531 L 131.039062 241.003906 L 130.503906 242.527344 L 130.03125 244.320312 L 129.671875 246.226562 L 129.433594 248.238281 L 129.316406 250.195312 L 129.316406 258.628906 L 129.433594 260.585938 L 129.730469 262.871094 L 130.503906 266.1875 L 131.636719 269.074219 L 132.945312 271.355469 L 134.195312 272.988281 L 134.90625 273.75 L 135.859375 274.621094 L 137.347656 275.707031 L 139.488281 276.796875 L 140.738281 277.230469 L 142.644531 277.667969 L 144.605469 277.882812 L 147.222656 277.882812 L 149.542969 277.667969 L 151.089844 277.394531 L 152.699219 276.960938 L 154.898438 276.035156 L 156.269531 275.164062 L 157.457031 274.132812 L 158.351562 273.097656 L 158.945312 272.226562 L 159.839844 270.542969 L 160.550781 268.691406 L 161.085938 266.789062 L 161.445312 264.9375 L 169.773438 264.9375 L 169.417969 267.113281 L 168.882812 269.234375 L 168.347656 270.8125 L 167.511719 272.71875 L 166.5625 274.402344 L 165.191406 276.308594 L 164.0625 277.558594 L 162.574219 278.917969 L 161.207031 279.953125 L 159.71875 280.875 L 157.515625 281.964844 L 156.089844 282.507812 L 154.542969 282.996094 L 152.699219 283.433594 L 150.378906 283.8125 L 147.878906 284.03125 L 145.558594 284.085938 L 143.058594 283.976562 L 141.214844 283.757812 L 138.777344 283.269531 L 135.742188 282.289062 L 133.539062 281.257812 L 131.8125 280.222656 L 130.328125 279.136719 L 128.660156 277.667969 L 126.519531 275.273438 L 125.210938 273.425781 L 124.316406 271.902344 L 123.304688 269.78125 L 122.59375 267.875 L 121.757812 264.828125 L 121.164062 260.96875 L 120.984375 257.976562 Z M 120.984375 250.46875 "/>
<path style=" stroke:none;fill-rule:nonzero;fill:rgb(96.862745%,70.196078%,16.862745%);fill-opacity:1;" d="M 120.984375 290.25 L 121.046875 290.238281 L 121.046875 290.027344 L 121.28125 289.546875 L 121.878906 288.890625 L 122.652344 288.347656 L 123.484375 287.921875 L 124.019531 287.699219 L 124.914062 287.378906 L 125.6875 287.148438 L 127.648438 286.667969 L 130.148438 286.222656 L 131.515625 286.03125 L 133.0625 285.851562 L 135.265625 285.648438 L 136.277344 285.574219 L 139.371094 285.402344 L 142.882812 285.296875 L 146.75 285.265625 L 148.535156 285.277344 L 150.972656 285.320312 L 154.304688 285.433594 L 156.207031 285.542969 L 157.695312 285.648438 L 159.242188 285.785156 L 161.148438 286 L 162.933594 286.253906 L 164.359375 286.507812 L 165.789062 286.828125 L 166.976562 287.167969 L 167.988281 287.539062 L 168.882812 287.984375 L 169.417969 288.359375 L 169.773438 288.730469 L 161.503906 288.730469 L 161.027344 288.359375 L 160.492188 288.070312 L 159.601562 287.71875 L 158.707031 287.464844 L 157.816406 287.261719 L 156.148438 286.988281 L 154.722656 286.816406 L 152.9375 286.667969 L 151.210938 286.574219 L 149.246094 286.507812 L 148.058594 286.488281 L 144.902344 286.488281 L 142.046875 286.5625 L 140.382812 286.648438 L 139.191406 286.730469 L 137.527344 286.890625 L 136.515625 287.019531 L 135.917969 287.105469 L 134.132812 287.433594 L 132.945312 287.730469 L 132.289062 287.933594 L 131.457031 288.25 L 130.863281 288.539062 L 130.207031 288.964844 L 129.851562 289.28125 L 129.375 290.003906 L 129.316406 291.917969 L 129.492188 292.324219 L 129.851562 292.757812 L 130.328125 293.140625 L 131.039062 293.542969 L 131.753906 293.851562 L 133.003906 294.265625 L 134.074219 294.542969 L 134.90625 294.722656 L 136.515625 295.011719 L 137.167969 295.105469 L 138.714844 295.296875 L 140.324219 295.445312 L 142.285156 295.574219 L 143.773438 295.636719 L 146.152344 295.691406 L 149.1875 295.691406 L 152.757812 295.628906 L 155.019531 295.542969 L 156.566406 295.457031 L 157.578125 295.382812 L 158.828125 295.265625 L 159.71875 295.160156 L 160.550781 295.042969 L 161.5625 294.863281 L 161.5625 292.324219 L 146.867188 292.3125 L 146.867188 291.121094 L 169.714844 291.109375 L 169.773438 295.265625 L 168.523438 295.554688 L 166.976562 295.828125 L 165.492188 296.042969 L 163.941406 296.222656 L 161.742188 296.425781 L 159.957031 296.550781 L 157.21875 296.703125 L 154.722656 296.796875 L 152.101562 296.859375 L 149.78125 296.890625 L 147.046875 296.902344 L 144.605469 296.882812 L 141.988281 296.816406 L 139.90625 296.734375 L 138.003906 296.625 L 136.097656 296.488281 L 133.71875 296.265625 L 132.171875 296.085938 L 130.566406 295.863281 L 128.957031 295.597656 L 127.53125 295.308594 L 126.578125 295.085938 L 125.625 294.832031 L 124.613281 294.511719 L 123.664062 294.152344 L 122.949219 293.820312 L 122.292969 293.449219 L 121.820312 293.097656 L 121.34375 292.621094 L 121.105469 292.238281 L 120.984375 291.90625 Z M 120.984375 290.25 "/>
<path style=" stroke:none;fill-rule:nonzero;fill:rgb(83.921569%,15.686275%,22.352941%);fill-opacity:1;" d="M 120.984375 308.992188 L 169.773438 308.992188 L 169.773438 309.566406 L 149.441406 309.574219 L 149.441406 314.371094 L 141.261719 314.371094 L 141.261719 309.578125 L 141.140625 309.566406 L 120.984375 309.566406 Z M 120.984375 308.992188 "/>
<path style=" stroke:none;fill-rule:nonzero;fill:rgb(6.27451%,58.823529%,28.235294%);fill-opacity:1;" d="M 172.34375 301.179688 L 172.394531 301.167969 L 193.503906 284.925781 L 199.914062 284.925781 L 221.128906 301.195312 L 213.675781 301.195312 L 208.359375 296.949219 L 185.058594 296.949219 L 179.847656 301.179688 L 172.34375 301.179688 L 187.300781 295.191406 L 206.222656 295.175781 L 196.789062 287.585938 L 196.683594 287.570312 L 196.578125 287.617188 L 187.25 295.175781 L 187.300781 295.191406 Z M 172.34375 301.179688 "/>
<path style=" stroke:none;fill-rule:nonzero;fill:rgb(14.509804%,36.078431%,60%);fill-opacity:1;" d="M 172.34375 311.441406 L 172.402344 311.4375 L 172.402344 311.324219 L 172.578125 311.144531 L 172.996094 310.917969 L 173.414062 310.761719 L 174.484375 310.480469 L 175.972656 310.210938 L 177.519531 310 L 178.648438 309.878906 L 179.660156 309.785156 L 181.980469 309.609375 L 183.46875 309.519531 L 185.074219 309.4375 L 187.039062 309.359375 L 188.464844 309.308594 L 191.679688 309.234375 L 194.058594 309.199219 L 195.902344 309.1875 L 199.890625 309.1875 L 202.269531 309.207031 L 203.996094 309.230469 L 205.898438 309.265625 L 207.503906 309.308594 L 210.300781 309.414062 L 212.800781 309.546875 L 213.929688 309.621094 L 215.714844 309.769531 L 217.085938 309.910156 L 218.035156 310.035156 L 219.109375 310.210938 L 220.058594 310.421875 L 220.773438 310.664062 L 221.128906 310.867188 L 212.800781 310.867188 L 212.382812 310.679688 L 211.90625 310.53125 L 211.015625 310.339844 L 210.125 310.199219 L 208.875 310.0625 L 207.742188 309.972656 L 206.195312 309.882812 L 204.828125 309.828125 L 203.398438 309.785156 L 202.03125 309.753906 L 199.414062 309.726562 L 196.378906 309.726562 L 195.25 309.738281 L 192.929688 309.773438 L 191.679688 309.808594 L 189.894531 309.875 L 188.644531 309.9375 L 187.15625 310.03125 L 186.144531 310.109375 L 184.894531 310.234375 L 184.003906 310.34375 L 182.992188 310.5 L 182.398438 310.617188 L 181.863281 310.75 L 181.386719 310.90625 L 181.027344 311.074219 L 180.789062 311.25 L 180.671875 311.417969 L 180.671875 312.152344 L 180.789062 312.324219 L 181.089844 312.523438 L 181.863281 312.8125 L 182.992188 313.0625 L 184.300781 313.261719 L 185.550781 313.402344 L 186.265625 313.46875 L 187.214844 313.546875 L 188.703125 313.640625 L 190.847656 313.734375 L 192.09375 313.773438 L 194 313.8125 L 195.960938 313.832031 L 198.582031 313.832031 L 200.902344 313.8125 L 202.449219 313.789062 L 204.054688 313.75 L 206.257812 313.667969 L 207.625 313.59375 L 208.8125 313.503906 L 209.707031 313.414062 L 210.300781 313.335938 L 211.195312 313.191406 L 211.90625 313.03125 L 212.445312 312.863281 L 212.800781 312.703125 L 221.128906 312.703125 L 220.773438 312.890625 L 220.238281 313.078125 L 219.703125 313.214844 L 218.871094 313.378906 L 217.917969 313.527344 L 216.550781 313.691406 L 215.417969 313.800781 L 213.929688 313.921875 L 212.5625 314.011719 L 211.074219 314.089844 L 208.875 314.1875 L 207.445312 314.234375 L 205.898438 314.277344 L 204.054688 314.3125 L 201.734375 314.347656 L 199.234375 314.367188 L 196.914062 314.371094 L 194.414062 314.359375 L 192.570312 314.34375 L 190.132812 314.300781 L 187.097656 314.214844 L 184.894531 314.125 L 183.171875 314.035156 L 181.683594 313.941406 L 180.015625 313.8125 L 177.875 313.601562 L 176.566406 313.441406 L 175.671875 313.308594 L 174.664062 313.125 L 173.949219 312.957031 L 173.117188 312.691406 L 172.519531 312.355469 L 172.34375 312.097656 Z M 172.34375 311.441406 "/>
<path style=" stroke:none;fill-rule:nonzero;fill:rgb(96.862745%,70.196078%,16.862745%);fill-opacity:1;" d="M 172.34375 255.488281 L 172.402344 255.445312 L 172.402344 254.542969 L 172.640625 252.511719 L 173.234375 249.710938 L 174.007812 247.410156 L 174.839844 245.605469 L 175.375 244.65625 L 176.269531 243.300781 L 177.042969 242.308594 L 179.003906 240.277344 L 181.503906 238.382812 L 182.875 237.570312 L 184.421875 236.800781 L 186.621094 235.945312 L 187.632812 235.628906 L 190.726562 234.90625 L 194.238281 234.453125 L 198.105469 234.320312 L 199.890625 234.363281 L 202.328125 234.542969 L 205.660156 235.042969 L 207.566406 235.492188 L 209.050781 235.945312 L 210.597656 236.53125 L 212.503906 237.433594 L 214.289062 238.515625 L 215.714844 239.601562 L 217.144531 240.953125 L 218.335938 242.398438 L 219.34375 243.980469 L 220.238281 245.875 L 220.773438 247.453125 L 221.128906 249.035156 L 212.859375 249.035156 L 212.382812 247.453125 L 211.847656 246.234375 L 210.957031 244.746094 L 210.0625 243.664062 L 209.171875 242.804688 L 207.503906 241.632812 L 206.078125 240.910156 L 204.292969 240.277344 L 202.566406 239.871094 L 200.605469 239.601562 L 199.414062 239.511719 L 196.261719 239.511719 L 193.402344 239.824219 L 191.738281 240.1875 L 190.546875 240.546875 L 188.882812 241.226562 L 187.871094 241.765625 L 187.277344 242.128906 L 185.492188 243.527344 L 184.300781 244.792969 L 183.648438 245.648438 L 182.8125 247.003906 L 182.21875 248.222656 L 181.5625 250.027344 L 181.207031 251.382812 L 180.730469 254.453125 L 180.671875 262.578125 L 180.851562 264.292969 L 181.207031 266.144531 L 181.683594 267.769531 L 182.398438 269.484375 L 183.109375 270.792969 L 184.359375 272.550781 L 185.429688 273.726562 L 186.265625 274.492188 L 187.871094 275.710938 L 188.527344 276.117188 L 190.074219 276.929688 L 191.679688 277.5625 L 193.640625 278.105469 L 195.128906 278.375 L 197.507812 278.601562 L 200.542969 278.601562 L 204.113281 278.332031 L 206.375 277.96875 L 207.921875 277.609375 L 208.933594 277.292969 L 210.183594 276.796875 L 211.074219 276.34375 L 211.90625 275.847656 L 212.917969 275.082031 L 212.917969 264.292969 L 198.222656 264.246094 L 198.222656 259.191406 L 221.070312 259.144531 L 221.128906 276.796875 L 219.882812 278.015625 L 218.335938 279.1875 L 216.847656 280.089844 L 215.300781 280.859375 L 213.097656 281.714844 L 211.3125 282.257812 L 208.578125 282.890625 L 206.078125 283.296875 L 203.460938 283.566406 L 201.140625 283.703125 L 198.402344 283.746094 L 195.960938 283.65625 L 193.34375 283.386719 L 191.261719 283.023438 L 189.359375 282.574219 L 187.453125 281.988281 L 185.074219 281.039062 L 183.527344 280.273438 L 181.921875 279.324219 L 180.316406 278.195312 L 178.886719 276.976562 L 177.933594 276.027344 L 176.984375 274.945312 L 175.972656 273.589844 L 175.019531 272.054688 L 174.304688 270.65625 L 173.652344 269.078125 L 173.175781 267.585938 L 172.699219 265.554688 L 172.460938 263.929688 L 172.34375 262.53125 Z M 172.34375 255.488281 "/>
<path style=" stroke:none;fill-rule:nonzero;fill:rgb(83.921569%,15.686275%,22.352941%);fill-opacity:1;" d="M 172.34375 302.375 L 221.128906 302.375 L 221.128906 302.980469 L 200.796875 302.984375 L 200.796875 308.007812 L 192.617188 308.007812 L 192.617188 302.988281 L 192.496094 302.980469 L 172.34375 302.980469 Z M 172.34375 302.375 "/>
<path style=" stroke:none;fill-rule:nonzero;fill:rgb(6.27451%,58.823529%,28.235294%);fill-opacity:1;" d="M 223.699219 277.492188 L 223.75 277.359375 L 244.859375 133.273438 L 251.273438 133.273438 L 272.488281 277.628906 L 265.03125 277.628906 L 259.714844 239.949219 L 236.417969 239.949219 L 231.203125 277.492188 L 223.699219 277.492188 L 238.65625 224.359375 L 257.578125 224.222656 L 248.144531 156.859375 L 248.039062 156.722656 L 247.9375 157.128906 L 238.605469 224.222656 L 238.65625 224.359375 Z M 223.699219 277.492188 "/>
<path style=" stroke:none;fill-rule:nonzero;fill:rgb(14.509804%,36.078431%,60%);fill-opacity:1;" d="M 223.699219 292.292969 L 223.757812 292.261719 L 223.757812 291.582031 L 223.9375 290.507812 L 224.351562 289.148438 L 224.769531 288.210938 L 225.839844 286.542969 L 227.328125 284.925781 L 228.875 283.679688 L 230.003906 282.945312 L 231.015625 282.378906 L 233.335938 281.328125 L 234.824219 280.792969 L 236.429688 280.308594 L 238.394531 279.828125 L 239.820312 279.546875 L 243.035156 279.09375 L 245.414062 278.894531 L 247.257812 278.808594 L 251.246094 278.808594 L 253.625 278.921875 L 255.351562 279.0625 L 257.253906 279.289062 L 258.863281 279.546875 L 261.65625 280.167969 L 264.15625 280.960938 L 265.289062 281.414062 L 267.074219 282.292969 L 268.441406 283.140625 L 269.394531 283.878906 L 270.464844 284.925781 L 271.414062 286.203125 L 272.128906 287.644531 L 272.488281 288.863281 L 264.15625 288.863281 L 263.742188 287.730469 L 263.265625 286.851562 L 262.371094 285.691406 L 261.480469 284.871094 L 260.230469 284.050781 L 259.101562 283.511719 L 257.550781 282.972656 L 256.183594 282.632812 L 254.757812 282.378906 L 253.386719 282.207031 L 250.769531 282.039062 L 247.734375 282.039062 L 246.605469 282.09375 L 244.285156 282.320312 L 243.035156 282.519531 L 241.25 282.914062 L 240 283.285156 L 238.511719 283.851562 L 237.5 284.332031 L 236.253906 285.070312 L 235.359375 285.71875 L 234.347656 286.65625 L 233.753906 287.363281 L 233.21875 288.15625 L 232.742188 289.089844 L 232.386719 290.082031 L 232.148438 291.128906 L 232.027344 292.148438 L 232.027344 296.539062 L 232.148438 297.558594 L 232.445312 298.75 L 233.21875 300.476562 L 234.347656 301.976562 L 235.65625 303.167969 L 236.90625 304.019531 L 237.621094 304.414062 L 238.574219 304.867188 L 240.058594 305.433594 L 242.203125 306 L 243.453125 306.226562 L 245.355469 306.453125 L 247.320312 306.566406 L 249.9375 306.566406 L 252.257812 306.453125 L 253.804688 306.3125 L 255.410156 306.085938 L 257.613281 305.605469 L 258.980469 305.152344 L 260.171875 304.613281 L 261.0625 304.074219 L 261.65625 303.621094 L 262.550781 302.742188 L 263.265625 301.78125 L 263.800781 300.789062 L 264.15625 299.824219 L 272.488281 299.824219 L 272.128906 300.957031 L 271.59375 302.0625 L 271.058594 302.882812 L 270.226562 303.875 L 269.273438 304.753906 L 267.90625 305.746094 L 266.773438 306.398438 L 265.289062 307.105469 L 263.917969 307.644531 L 262.429688 308.125 L 260.230469 308.691406 L 258.800781 308.972656 L 257.253906 309.230469 L 255.410156 309.457031 L 253.089844 309.652344 L 250.589844 309.765625 L 248.269531 309.796875 L 245.773438 309.738281 L 243.925781 309.625 L 241.488281 309.371094 L 238.453125 308.859375 L 236.253906 308.324219 L 234.527344 307.785156 L 233.039062 307.21875 L 231.375 306.453125 L 229.230469 305.207031 L 227.921875 304.246094 L 227.03125 303.449219 L 226.019531 302.347656 L 225.304688 301.355469 L 224.472656 299.769531 L 223.875 297.757812 L 223.699219 296.199219 Z M 223.699219 292.292969 "/>
<path style=" stroke:none;fill-rule:nonzero;fill:rgb(83.921569%,15.686275%,22.352941%);fill-opacity:1;" d="M 223.699219 310.976562 L 272.488281 310.976562 L 272.488281 311.214844 L 252.152344 311.21875 L 252.152344 313.226562 L 243.972656 313.226562 L 243.972656 311.21875 L 243.855469 311.214844 L 223.699219 311.214844 Z M 223.699219 310.976562 "/>
<path style=" stroke:none;fill-rule:nonzero;fill:rgb(6.27451%,58.823529%,28.235294%);fill-opacity:1;" d="M 275.054688 314.363281 L 275.105469 314.351562 L 296.21875 305.144531 L 302.628906 305.144531 L 323.84375 314.371094 L 316.390625 314.371094 L 311.074219 311.960938 L 287.773438 311.960938 L 282.558594 314.363281 L 275.054688 314.363281 L 290.015625 310.964844 L 308.933594 310.957031 L 299.5 306.652344 L 299.398438 306.644531 L 299.292969 306.667969 L 289.960938 310.957031 L 290.015625 310.964844 Z M 275.054688 314.363281 "/>
<path style=" stroke:none;fill-rule:nonzero;fill:rgb(14.509804%,36.078431%,60%);fill-opacity:1;" d="M 275.054688 151.1875 L 275.113281 150.9375 L 275.113281 145.003906 L 275.292969 135.609375 L 275.710938 123.746094 L 276.125 115.585938 L 277.195312 101 L 278.683594 86.910156 L 280.230469 76.03125 L 281.359375 69.605469 L 282.371094 64.660156 L 284.691406 55.515625 L 286.179688 50.816406 L 287.789062 46.613281 L 289.75 42.410156 L 291.179688 39.9375 L 294.390625 35.984375 L 296.769531 34.253906 L 298.617188 33.511719 L 302.601562 33.511719 L 304.980469 34.5 L 306.707031 35.738281 L 308.613281 37.714844 L 310.21875 39.9375 L 313.015625 45.378906 L 315.511719 52.300781 L 316.644531 56.253906 L 318.429688 63.917969 L 319.796875 71.335938 L 320.75 77.761719 L 321.820312 86.910156 L 322.773438 98.035156 L 323.484375 110.644531 L 323.84375 121.273438 L 315.511719 121.273438 L 315.097656 111.382812 L 314.621094 103.71875 L 313.726562 93.585938 L 312.835938 86.414062 L 311.585938 79.246094 L 310.457031 74.550781 L 308.910156 69.851562 L 307.539062 66.886719 L 306.113281 64.660156 L 304.742188 63.175781 L 302.125 61.695312 L 299.089844 61.695312 L 297.960938 62.1875 L 295.640625 64.167969 L 294.390625 65.898438 L 292.605469 69.359375 L 291.355469 72.570312 L 289.871094 77.515625 L 288.859375 81.71875 L 287.609375 88.144531 L 286.714844 93.832031 L 285.703125 101.988281 L 285.109375 108.171875 L 284.574219 115.09375 L 284.097656 123.25 L 283.742188 131.902344 L 283.503906 141.050781 L 283.382812 149.949219 L 283.382812 188.269531 L 283.503906 197.167969 L 283.800781 207.550781 L 284.574219 222.628906 L 285.703125 235.734375 L 287.011719 246.117188 L 288.261719 253.53125 L 288.976562 256.992188 L 289.929688 260.949219 L 291.417969 265.894531 L 293.558594 270.835938 L 294.808594 272.816406 L 296.710938 274.792969 L 298.675781 275.78125 L 301.292969 275.78125 L 303.613281 274.792969 L 305.160156 273.558594 L 306.765625 271.578125 L 308.96875 267.375 L 310.335938 263.421875 L 311.527344 258.722656 L 312.417969 254.027344 L 313.015625 250.070312 L 313.90625 242.40625 L 314.621094 234.003906 L 315.15625 225.351562 L 315.511719 216.945312 L 323.84375 216.945312 L 323.484375 226.832031 L 322.949219 236.476562 L 322.414062 243.644531 L 321.582031 252.296875 L 320.628906 259.960938 L 319.261719 268.613281 L 318.132812 274.296875 L 316.644531 280.480469 L 315.273438 285.175781 L 313.789062 289.378906 L 311.585938 294.324219 L 310.160156 296.796875 L 308.613281 299.019531 L 306.765625 300.996094 L 304.445312 302.726562 L 301.949219 303.71875 L 299.628906 303.964844 L 297.128906 303.46875 L 295.285156 302.480469 L 292.84375 300.257812 L 289.808594 295.804688 L 287.609375 291.109375 L 285.882812 286.410156 L 284.394531 281.46875 L 282.730469 274.792969 L 280.585938 263.914062 L 279.277344 255.511719 L 278.386719 248.589844 L 277.375 238.945312 L 276.660156 230.292969 L 275.828125 216.449219 L 275.234375 198.898438 L 275.054688 185.300781 Z M 275.054688 151.1875 "/>
<path style=" stroke:none;fill-rule:nonzero;fill:rgb(14.509804%,36.078431%,60%);fill-opacity:1;" d="M 326.410156 146.105469 L 326.46875 145.839844 L 326.46875 139.515625 L 326.648438 129.503906 L 327.066406 116.851562 L 327.480469 108.15625 L 328.554688 92.605469 L 330.039062 77.585938 L 331.585938 65.992188 L 332.71875 59.140625 L 333.730469 53.867188 L 336.050781 44.117188 L 337.535156 39.109375 L 339.144531 34.628906 L 341.105469 30.148438 L 342.535156 27.515625 L 345.746094 23.296875 L 348.128906 21.453125 L 349.972656 20.664062 L 353.957031 20.664062 L 356.339844 21.71875 L 358.0625 23.035156 L 359.96875 25.144531 L 361.574219 27.515625 L 364.371094 33.3125 L 366.871094 40.691406 L 368 44.90625 L 369.785156 53.078125 L 371.152344 60.984375 L 372.105469 67.835938 L 373.175781 77.585938 L 374.128906 89.445312 L 374.84375 102.886719 L 375.199219 114.21875 L 366.871094 114.21875 L 366.453125 103.675781 L 365.976562 95.507812 L 365.085938 84.703125 L 364.191406 77.058594 L 362.941406 69.417969 L 361.8125 64.410156 L 360.265625 59.402344 L 358.898438 56.238281 L 357.46875 53.867188 L 356.101562 52.285156 L 353.484375 50.707031 L 350.449219 50.707031 L 349.316406 51.234375 L 346.996094 53.339844 L 345.746094 55.1875 L 343.960938 58.875 L 342.714844 62.300781 L 341.226562 67.570312 L 340.214844 72.050781 L 338.964844 78.902344 L 338.074219 84.964844 L 337.0625 93.660156 L 336.464844 100.25 L 335.929688 107.628906 L 335.453125 116.324219 L 335.097656 125.550781 L 334.859375 135.300781 L 334.742188 144.785156 L 334.742188 185.632812 L 334.859375 195.121094 L 335.15625 206.191406 L 335.929688 222.265625 L 337.0625 236.234375 L 338.371094 247.300781 L 339.621094 255.207031 L 340.332031 258.898438 L 341.285156 263.113281 L 342.773438 268.382812 L 344.914062 273.65625 L 346.164062 275.761719 L 348.066406 277.871094 L 350.03125 278.925781 L 352.648438 278.925781 L 354.96875 277.871094 L 356.515625 276.554688 L 358.125 274.445312 L 360.324219 269.964844 L 361.691406 265.75 L 362.882812 260.742188 L 363.777344 255.734375 L 364.371094 251.519531 L 365.261719 243.347656 L 365.976562 234.386719 L 366.511719 225.164062 L 366.871094 216.203125 L 375.199219 216.203125 L 374.84375 226.746094 L 374.308594 237.023438 L 373.769531 244.664062 L 372.9375 253.890625 L 371.988281 262.058594 L 370.617188 271.28125 L 369.488281 277.34375 L 368 283.933594 L 366.632812 288.9375 L 365.144531 293.417969 L 362.941406 298.691406 L 361.515625 301.324219 L 359.96875 303.695312 L 358.125 305.804688 L 355.804688 307.648438 L 353.304688 308.703125 L 350.984375 308.96875 L 348.484375 308.441406 L 346.640625 307.386719 L 344.199219 305.015625 L 341.167969 300.269531 L 338.964844 295.265625 L 337.238281 290.257812 L 335.753906 284.984375 L 334.085938 277.871094 L 331.945312 266.277344 L 330.636719 257.316406 L 329.742188 249.9375 L 328.730469 239.660156 L 328.015625 230.433594 L 327.183594 215.675781 L 326.589844 196.964844 L 326.410156 182.472656 Z M 326.410156 146.105469 "/>
<path style=" stroke:none;fill-rule:nonzero;fill:rgb(96.862745%,70.196078%,16.862745%);fill-opacity:1;" d="M 326.410156 314.230469 L 326.46875 314.230469 L 326.46875 314.226562 L 326.707031 314.21875 L 327.304688 314.203125 L 328.078125 314.191406 L 328.910156 314.183594 L 329.445312 314.179688 L 330.335938 314.171875 L 331.109375 314.167969 L 333.074219 314.15625 L 335.574219 314.148438 L 336.941406 314.144531 L 338.488281 314.140625 L 340.691406 314.136719 L 341.703125 314.136719 L 344.796875 314.132812 L 348.304688 314.128906 L 356.398438 314.128906 L 359.730469 314.132812 L 361.632812 314.132812 L 363.121094 314.136719 L 364.667969 314.140625 L 366.570312 314.144531 L 368.355469 314.148438 L 369.785156 314.152344 L 371.214844 314.160156 L 372.402344 314.167969 L 373.414062 314.175781 L 374.308594 314.183594 L 374.84375 314.191406 L 375.199219 314.199219 L 366.929688 314.199219 L 366.453125 314.191406 L 365.917969 314.1875 L 365.023438 314.179688 L 364.132812 314.175781 L 363.238281 314.171875 L 361.574219 314.164062 L 360.144531 314.160156 L 358.359375 314.15625 L 356.636719 314.15625 L 354.671875 314.152344 L 350.328125 314.152344 L 347.472656 314.15625 L 345.808594 314.15625 L 344.617188 314.160156 L 342.953125 314.164062 L 341.941406 314.164062 L 341.34375 314.167969 L 339.558594 314.171875 L 338.371094 314.179688 L 337.714844 314.183594 L 336.882812 314.191406 L 336.289062 314.195312 L 335.632812 314.207031 L 335.277344 314.210938 L 334.800781 314.226562 L 334.742188 314.265625 L 334.917969 314.273438 L 335.277344 314.285156 L 335.753906 314.292969 L 336.464844 314.300781 L 337.179688 314.308594 L 338.429688 314.316406 L 339.5 314.320312 L 340.332031 314.324219 L 341.941406 314.332031 L 342.59375 314.332031 L 344.140625 314.335938 L 345.746094 314.339844 L 347.710938 314.34375 L 360.445312 314.34375 L 361.992188 314.339844 L 363.003906 314.339844 L 364.25 314.335938 L 365.144531 314.335938 L 365.976562 314.332031 L 366.988281 314.328125 L 366.988281 314.273438 L 352.292969 314.273438 L 352.292969 314.25 L 375.140625 314.25 L 375.199219 314.335938 L 373.949219 314.34375 L 372.402344 314.347656 L 370.914062 314.351562 L 369.367188 314.355469 L 367.167969 314.359375 L 365.382812 314.363281 L 362.644531 314.367188 L 360.144531 314.367188 L 357.527344 314.371094 L 350.03125 314.371094 L 347.414062 314.367188 L 345.332031 314.367188 L 343.425781 314.363281 L 341.523438 314.363281 L 339.144531 314.355469 L 337.597656 314.355469 L 335.988281 314.347656 L 334.382812 314.34375 L 332.957031 314.335938 L 331.050781 314.328125 L 330.039062 314.320312 L 329.089844 314.3125 L 328.375 314.304688 L 327.71875 314.296875 L 327.242188 314.292969 L 326.769531 314.28125 L 326.53125 314.273438 L 326.410156 314.265625 Z M 326.410156 314.230469 "/>
<path style=" stroke:none;fill-rule:nonzero;fill:rgb(83.921569%,15.686275%,22.352941%);fill-opacity:1;" d="M 326.410156 310.148438 L 375.199219 310.148438 L 375.199219 310.445312 L 354.867188 310.449219 L 354.867188 312.949219 L 346.683594 312.949219 L 346.683594 310.453125 L 346.566406 310.445312 L 326.410156 310.445312 Z M 326.410156 310.148438 "/>
<path style=" stroke:none;fill-rule:nonzero;fill:rgb(6.27451%,58.823529%,28.235294%);fill-opacity:1;" d="M 377.765625 273.917969 L 377.820312 273.785156 L 398.929688 132.214844 L 405.339844 132.214844 L 426.554688 274.050781 L 419.101562 274.050781 L 413.785156 237.027344 L 390.484375 237.027344 L 385.273438 273.917969 L 377.765625 273.917969 L 392.726562 221.710938 L 411.648438 221.578125 L 402.214844 155.390625 L 402.109375 155.253906 L 402.003906 155.65625 L 392.675781 221.578125 L 392.726562 221.710938 Z M 377.765625 273.917969 "/>
<path style=" stroke:none;fill-rule:nonzero;fill:rgb(14.509804%,36.078431%,60%);fill-opacity:1;" d="M 377.765625 291.160156 L 377.828125 291.125 L 377.828125 290.324219 L 378.003906 289.050781 L 378.421875 287.445312 L 378.839844 286.339844 L 379.910156 284.367188 L 381.394531 282.460938 L 382.945312 280.988281 L 384.074219 280.117188 L 385.085938 279.449219 L 387.40625 278.210938 L 388.894531 277.574219 L 390.5 277.003906 L 392.464844 276.433594 L 393.890625 276.101562 L 397.105469 275.566406 L 399.484375 275.332031 L 401.328125 275.230469 L 405.316406 275.230469 L 407.695312 275.363281 L 409.421875 275.53125 L 411.324219 275.800781 L 412.929688 276.101562 L 415.726562 276.835938 L 418.226562 277.773438 L 419.355469 278.308594 L 421.140625 279.347656 L 422.507812 280.351562 L 423.460938 281.222656 L 424.53125 282.460938 L 425.484375 283.964844 L 426.199219 285.671875 L 426.554688 287.109375 L 418.226562 287.109375 L 417.808594 285.773438 L 417.332031 284.734375 L 416.441406 283.363281 L 415.546875 282.390625 L 414.300781 281.421875 L 413.167969 280.785156 L 411.621094 280.148438 L 410.253906 279.75 L 408.824219 279.449219 L 407.457031 279.246094 L 404.839844 279.046875 L 401.804688 279.046875 L 400.675781 279.113281 L 398.351562 279.378906 L 397.105469 279.613281 L 395.320312 280.082031 L 394.070312 280.519531 L 392.582031 281.1875 L 391.570312 281.757812 L 390.320312 282.625 L 389.429688 283.394531 L 388.417969 284.5 L 387.824219 285.335938 L 387.285156 286.273438 L 386.8125 287.378906 L 386.453125 288.550781 L 386.214844 289.789062 L 386.097656 290.992188 L 386.097656 296.179688 L 386.214844 297.386719 L 386.511719 298.789062 L 387.285156 300.832031 L 388.417969 302.605469 L 389.726562 304.011719 L 390.976562 305.015625 L 391.691406 305.484375 L 392.640625 306.019531 L 394.128906 306.6875 L 396.269531 307.359375 L 397.519531 307.625 L 399.425781 307.894531 L 401.386719 308.027344 L 404.003906 308.027344 L 406.328125 307.894531 L 407.875 307.726562 L 409.480469 307.457031 L 411.679688 306.890625 L 413.050781 306.355469 L 414.238281 305.71875 L 415.132812 305.082031 L 415.726562 304.546875 L 416.621094 303.507812 L 417.332031 302.371094 L 417.867188 301.199219 L 418.226562 300.0625 L 426.554688 300.0625 L 426.199219 301.402344 L 425.664062 302.707031 L 425.128906 303.675781 L 424.292969 304.847656 L 423.34375 305.886719 L 421.972656 307.054688 L 420.84375 307.824219 L 419.355469 308.664062 L 417.988281 309.296875 L 416.5 309.867188 L 414.300781 310.535156 L 412.871094 310.871094 L 411.324219 311.171875 L 409.480469 311.441406 L 407.160156 311.675781 L 404.660156 311.808594 L 402.339844 311.84375 L 399.839844 311.773438 L 397.996094 311.640625 L 395.558594 311.339844 L 392.523438 310.738281 L 390.320312 310.101562 L 388.597656 309.464844 L 387.109375 308.796875 L 385.441406 307.894531 L 383.300781 306.421875 L 381.992188 305.28125 L 381.097656 304.34375 L 380.085938 303.039062 L 379.375 301.871094 L 378.539062 299.996094 L 377.945312 297.617188 L 377.765625 295.777344 Z M 377.765625 291.160156 "/>
<path style=" stroke:none;fill-rule:nonzero;fill:rgb(83.921569%,15.686275%,22.352941%);fill-opacity:1;" d="M 377.765625 313.019531 L 426.554688 313.019531 L 426.554688 313.046875 L 406.222656 313.046875 L 406.222656 313.246094 L 398.042969 313.246094 L 398.042969 313.046875 L 377.765625 313.046875 Z M 377.765625 313.019531 "/>
<path style=" stroke:none;fill-rule:nonzero;fill:rgb(6.27451%,58.823529%,28.235294%);fill-opacity:1;" d="M 429.125 308.238281 L 429.175781 308.234375 L 450.285156 304.824219 L 456.695312 304.824219 L 477.910156 308.242188 L 470.457031 308.242188 L 465.140625 307.351562 L 441.839844 307.351562 L 436.628906 308.238281 L 429.125 308.238281 L 444.082031 306.980469 L 463.003906 306.976562 L 453.570312 305.382812 L 453.464844 305.378906 L 453.359375 305.390625 L 444.03125 306.976562 L 444.082031 306.980469 Z M 429.125 308.238281 "/>
<path style=" stroke:none;fill-rule:nonzero;fill:rgb(14.509804%,36.078431%,60%);fill-opacity:1;" d="M 429.125 157.46875 L 429.183594 157.234375 L 429.183594 151.554688 L 429.363281 142.566406 L 429.777344 131.214844 L 430.195312 123.410156 L 431.265625 109.453125 L 432.753906 95.972656 L 434.300781 85.5625 L 435.429688 79.414062 L 436.441406 74.683594 L 438.761719 65.933594 L 440.25 61.4375 L 441.855469 57.417969 L 443.820312 53.394531 L 445.246094 51.03125 L 448.460938 47.246094 L 450.839844 45.589844 L 452.683594 44.878906 L 456.671875 44.878906 L 459.050781 45.828125 L 460.777344 47.007812 L 462.679688 48.902344 L 464.285156 51.03125 L 467.082031 56.234375 L 469.582031 62.855469 L 470.710938 66.640625 L 472.496094 73.972656 L 473.867188 81.070312 L 474.816406 87.21875 L 475.890625 95.972656 L 476.839844 106.617188 L 477.554688 118.679688 L 477.910156 128.847656 L 469.582031 128.847656 L 469.164062 119.386719 L 468.691406 112.054688 L 467.796875 102.359375 L 466.90625 95.5 L 465.65625 88.640625 L 464.523438 84.144531 L 462.976562 79.652344 L 461.609375 76.8125 L 460.179688 74.683594 L 458.8125 73.265625 L 456.195312 71.84375 L 453.160156 71.84375 L 452.03125 72.320312 L 449.710938 74.210938 L 448.460938 75.867188 L 446.675781 79.179688 L 445.425781 82.253906 L 443.9375 86.984375 L 442.925781 91.003906 L 441.675781 97.152344 L 440.785156 102.59375 L 439.773438 110.398438 L 439.179688 116.3125 L 438.644531 122.9375 L 438.167969 130.742188 L 437.808594 139.019531 L 437.570312 147.773438 L 437.453125 156.285156 L 437.453125 192.949219 L 437.570312 201.464844 L 437.871094 211.398438 L 438.644531 225.828125 L 439.773438 238.363281 L 441.082031 248.296875 L 442.332031 255.394531 L 443.046875 258.707031 L 443.996094 262.488281 L 445.484375 267.21875 L 447.628906 271.949219 L 448.875 273.84375 L 450.78125 275.734375 L 452.746094 276.679688 L 455.363281 276.679688 L 457.683594 275.734375 L 459.230469 274.550781 L 460.835938 272.660156 L 463.039062 268.640625 L 464.40625 264.855469 L 465.597656 260.359375 L 466.488281 255.867188 L 467.082031 252.082031 L 467.976562 244.75 L 468.691406 236.707031 L 469.226562 228.429688 L 469.582031 220.386719 L 477.910156 220.386719 L 477.554688 229.847656 L 477.019531 239.074219 L 476.484375 245.933594 L 475.652344 254.210938 L 474.699219 261.542969 L 473.332031 269.820312 L 472.199219 275.261719 L 470.710938 281.175781 L 469.34375 285.667969 L 467.855469 289.691406 L 465.65625 294.421875 L 464.226562 296.785156 L 462.679688 298.914062 L 460.835938 300.808594 L 458.515625 302.464844 L 456.015625 303.410156 L 453.695312 303.644531 L 451.195312 303.171875 L 449.351562 302.226562 L 446.914062 300.097656 L 443.878906 295.839844 L 441.675781 291.347656 L 439.953125 286.851562 L 438.464844 282.121094 L 436.796875 275.734375 L 434.65625 265.328125 L 433.347656 257.285156 L 432.457031 250.664062 L 431.445312 241.4375 L 430.730469 233.160156 L 429.898438 219.914062 L 429.300781 203.121094 L 429.125 190.109375 Z M 429.125 157.46875 "/>
<path style=" stroke:none;fill-rule:nonzero;fill:rgb(96.862745%,70.196078%,16.862745%);fill-opacity:1;" d="M 429.125 314.023438 L 429.183594 314.023438 L 429.183594 314.011719 L 429.421875 313.988281 L 430.015625 313.953125 L 430.789062 313.921875 L 431.621094 313.902344 L 432.15625 313.890625 L 433.050781 313.875 L 433.824219 313.859375 L 435.789062 313.835938 L 438.285156 313.8125 L 439.65625 313.804688 L 441.203125 313.792969 L 443.402344 313.78125 L 444.414062 313.777344 L 447.507812 313.769531 L 451.019531 313.765625 L 454.886719 313.761719 L 456.671875 313.761719 L 459.109375 313.765625 L 462.441406 313.773438 L 464.347656 313.777344 L 465.832031 313.78125 L 467.378906 313.789062 L 469.285156 313.800781 L 471.070312 313.8125 L 472.496094 313.828125 L 473.925781 313.84375 L 475.117188 313.863281 L 476.125 313.882812 L 477.019531 313.90625 L 477.554688 313.925781 L 477.910156 313.945312 L 469.640625 313.945312 L 469.164062 313.925781 L 468.628906 313.910156 L 467.738281 313.890625 L 466.84375 313.878906 L 465.953125 313.867188 L 464.285156 313.851562 L 462.859375 313.84375 L 461.074219 313.835938 L 459.347656 313.832031 L 457.386719 313.828125 L 453.042969 313.828125 L 450.1875 313.832031 L 448.519531 313.835938 L 447.328125 313.839844 L 445.664062 313.847656 L 444.652344 313.855469 L 444.058594 313.859375 L 442.273438 313.875 L 441.082031 313.890625 L 440.429688 313.902344 L 439.59375 313.917969 L 439 313.933594 L 438.34375 313.957031 L 437.988281 313.972656 L 437.511719 314.011719 L 437.453125 314.109375 L 437.632812 314.132812 L 437.988281 314.152344 L 438.464844 314.175781 L 439.179688 314.195312 L 439.890625 314.210938 L 441.140625 314.234375 L 442.214844 314.246094 L 443.046875 314.257812 L 444.652344 314.273438 L 445.308594 314.277344 L 446.855469 314.285156 L 448.460938 314.292969 L 450.421875 314.300781 L 451.910156 314.304688 L 454.292969 314.308594 L 457.324219 314.308594 L 460.894531 314.304688 L 463.15625 314.300781 L 464.703125 314.296875 L 465.714844 314.292969 L 466.964844 314.285156 L 467.855469 314.28125 L 468.691406 314.273438 L 469.699219 314.265625 L 469.699219 314.132812 L 455.003906 314.128906 L 455.003906 314.070312 L 477.851562 314.066406 L 477.910156 314.285156 L 476.664062 314.300781 L 475.117188 314.316406 L 473.628906 314.324219 L 472.082031 314.335938 L 469.878906 314.34375 L 468.09375 314.351562 L 465.359375 314.359375 L 462.859375 314.363281 L 460.242188 314.367188 L 457.921875 314.371094 L 452.746094 314.371094 L 450.125 314.367188 L 448.042969 314.363281 L 446.140625 314.355469 L 444.234375 314.347656 L 441.855469 314.335938 L 440.308594 314.328125 L 438.703125 314.316406 L 437.097656 314.300781 L 435.667969 314.289062 L 434.714844 314.277344 L 433.765625 314.261719 L 432.753906 314.246094 L 431.800781 314.226562 L 431.085938 314.210938 L 430.433594 314.191406 L 429.957031 314.171875 L 429.480469 314.148438 L 429.242188 314.125 L 429.125 314.109375 Z M 429.125 314.023438 "/>
<path style=" stroke:none;fill-rule:nonzero;fill:rgb(83.921569%,15.686275%,22.352941%);fill-opacity:1;" d="M 429.125 309.421875 L 477.910156 309.421875 L 477.910156 309.761719 L 457.578125 309.761719 L 457.578125 312.582031 L 449.398438 312.582031 L 449.398438 309.765625 L 449.277344 309.761719 L 429.125 309.761719 Z M 429.125 309.421875 "/>
<path style=" stroke:none;fill-rule:nonzero;fill:rgb(6.27451%,58.823529%,28.235294%);fill-opacity:1;" d="M 480.480469 307.390625 L 480.53125 307.378906 L 501.640625 296.960938 L 508.054688 296.960938 L 529.269531 307.398438 L 521.8125 307.398438 L 516.496094 304.671875 L 493.199219 304.671875 L 487.984375 307.390625 L 480.480469 307.390625 L 495.4375 303.546875 L 514.359375 303.535156 L 504.925781 298.664062 L 504.820312 298.65625 L 504.71875 298.683594 L 495.386719 303.535156 L 495.4375 303.546875 Z M 480.480469 307.390625 "/>
<path style=" stroke:none;fill-rule:nonzero;fill:rgb(14.509804%,36.078431%,60%);fill-opacity:1;" d="M 480.480469 210.582031 L 480.539062 210.464844 L 480.539062 207.605469 L 480.71875 203.082031 L 481.132812 197.367188 L 481.550781 193.4375 L 482.621094 186.414062 L 484.109375 179.625 L 485.65625 174.386719 L 486.785156 171.292969 L 487.796875 168.910156 L 490.117188 164.507812 L 491.605469 162.246094 L 493.210938 160.21875 L 495.175781 158.195312 L 496.605469 157.003906 L 499.816406 155.101562 L 502.195312 154.265625 L 504.039062 153.910156 L 508.027344 153.910156 L 510.40625 154.386719 L 512.132812 154.980469 L 514.035156 155.933594 L 515.644531 157.003906 L 518.441406 159.625 L 520.9375 162.957031 L 522.070312 164.863281 L 523.855469 168.554688 L 525.222656 172.125 L 526.175781 175.222656 L 527.246094 179.625 L 528.195312 184.984375 L 528.910156 191.054688 L 529.269531 196.175781 L 520.9375 196.175781 L 520.523438 191.414062 L 520.046875 187.722656 L 519.152344 182.839844 L 518.261719 179.390625 L 517.011719 175.9375 L 515.882812 173.675781 L 514.335938 171.410156 L 512.964844 169.984375 L 511.539062 168.910156 L 510.167969 168.195312 L 507.550781 167.484375 L 504.515625 167.484375 L 503.386719 167.722656 L 501.066406 168.671875 L 499.816406 169.507812 L 498.03125 171.171875 L 496.78125 172.722656 L 495.292969 175.101562 L 494.285156 177.125 L 493.035156 180.222656 L 492.140625 182.960938 L 491.128906 186.890625 L 490.535156 189.867188 L 490 193.199219 L 489.523438 197.128906 L 489.167969 201.296875 L 488.929688 205.699219 L 488.808594 209.988281 L 488.808594 228.441406 L 488.929688 232.726562 L 489.226562 237.726562 L 490 244.988281 L 491.128906 251.300781 L 492.4375 256.300781 L 493.6875 259.871094 L 494.402344 261.539062 L 495.355469 263.445312 L 496.839844 265.824219 L 498.984375 268.207031 L 500.234375 269.160156 L 502.136719 270.109375 L 504.101562 270.585938 L 506.71875 270.585938 L 509.039062 270.109375 L 510.585938 269.515625 L 512.191406 268.5625 L 514.394531 266.539062 L 515.761719 264.632812 L 516.953125 262.371094 L 517.84375 260.109375 L 518.441406 258.207031 L 519.332031 254.515625 L 520.046875 250.464844 L 520.582031 246.300781 L 520.9375 242.25 L 529.269531 242.25 L 528.910156 247.015625 L 528.375 251.65625 L 527.839844 255.109375 L 527.007812 259.277344 L 526.054688 262.96875 L 524.6875 267.132812 L 523.554688 269.871094 L 522.070312 272.847656 L 520.699219 275.113281 L 519.214844 277.136719 L 517.011719 279.515625 L 515.582031 280.707031 L 514.035156 281.777344 L 512.191406 282.730469 L 509.871094 283.566406 L 507.371094 284.039062 L 505.050781 284.160156 L 502.554688 283.921875 L 500.710938 283.445312 L 498.269531 282.375 L 495.234375 280.230469 L 493.035156 277.96875 L 491.308594 275.707031 L 489.820312 273.324219 L 488.15625 270.109375 L 486.011719 264.871094 L 484.703125 260.824219 L 483.8125 257.492188 L 482.800781 252.847656 L 482.085938 248.679688 L 481.253906 242.011719 L 480.65625 233.558594 L 480.480469 227.011719 Z M 480.480469 210.582031 "/>
<path style=" stroke:none;fill-rule:nonzero;fill:rgb(96.862745%,70.196078%,16.862745%);fill-opacity:1;" d="M 480.480469 311.058594 L 480.539062 311.054688 L 480.539062 310.949219 L 480.777344 310.710938 L 481.371094 310.382812 L 482.144531 310.113281 L 482.980469 309.902344 L 483.515625 309.789062 L 484.40625 309.632812 L 485.179688 309.515625 L 487.144531 309.277344 L 489.640625 309.054688 L 491.011719 308.960938 L 492.558594 308.871094 L 494.757812 308.769531 L 495.769531 308.730469 L 498.863281 308.648438 L 502.375 308.59375 L 506.242188 308.578125 L 508.027344 308.582031 L 510.464844 308.605469 L 513.796875 308.664062 L 515.703125 308.714844 L 517.191406 308.769531 L 518.738281 308.835938 L 520.640625 308.945312 L 522.425781 309.070312 L 523.855469 309.199219 L 525.28125 309.355469 L 526.472656 309.523438 L 527.484375 309.710938 L 528.375 309.933594 L 528.910156 310.117188 L 529.269531 310.304688 L 520.996094 310.304688 L 520.523438 310.117188 L 519.988281 309.976562 L 519.09375 309.800781 L 518.203125 309.671875 L 517.308594 309.574219 L 515.644531 309.433594 L 514.214844 309.351562 L 512.429688 309.277344 L 510.703125 309.230469 L 508.742188 309.199219 L 507.550781 309.1875 L 504.398438 309.1875 L 501.542969 309.222656 L 499.875 309.265625 L 498.6875 309.308594 L 497.019531 309.386719 L 496.007812 309.453125 L 495.414062 309.492188 L 493.628906 309.65625 L 492.4375 309.804688 L 491.785156 309.90625 L 490.953125 310.066406 L 490.355469 310.207031 L 489.703125 310.417969 L 489.34375 310.578125 L 488.867188 310.9375 L 488.808594 311.890625 L 488.988281 312.089844 L 489.34375 312.308594 L 489.820312 312.5 L 490.535156 312.699219 L 491.25 312.851562 L 492.5 313.058594 L 493.570312 313.195312 L 494.402344 313.285156 L 496.007812 313.429688 L 496.664062 313.476562 L 498.210938 313.570312 L 499.816406 313.644531 L 501.78125 313.710938 L 503.265625 313.742188 L 505.648438 313.769531 L 508.683594 313.769531 L 512.25 313.734375 L 514.511719 313.695312 L 516.058594 313.652344 L 517.070312 313.613281 L 518.320312 313.554688 L 519.214844 313.503906 L 520.046875 313.445312 L 521.058594 313.355469 L 521.058594 312.089844 L 506.363281 312.085938 L 506.363281 311.492188 L 529.207031 311.488281 L 529.269531 313.554688 L 528.019531 313.699219 L 526.472656 313.835938 L 524.984375 313.941406 L 523.4375 314.03125 L 521.234375 314.132812 L 519.449219 314.195312 L 516.714844 314.269531 L 514.214844 314.316406 L 511.597656 314.347656 L 509.277344 314.367188 L 506.539062 314.371094 L 504.101562 314.359375 L 501.484375 314.328125 L 499.398438 314.285156 L 497.496094 314.234375 L 495.59375 314.164062 L 493.210938 314.054688 L 491.664062 313.964844 L 490.058594 313.851562 L 488.453125 313.71875 L 487.023438 313.578125 L 486.074219 313.464844 L 485.121094 313.339844 L 484.109375 313.179688 L 483.15625 313 L 482.441406 312.835938 L 481.789062 312.652344 L 481.3125 312.476562 L 480.835938 312.238281 L 480.597656 312.046875 L 480.480469 311.882812 Z M 480.480469 311.058594 "/>
<path style=" stroke:none;fill-rule:nonzero;fill:rgb(83.921569%,15.686275%,22.352941%);fill-opacity:1;" d="M 480.480469 285.339844 L 529.269531 285.339844 L 529.269531 286.457031 L 508.933594 286.46875 L 508.933594 295.78125 L 500.753906 295.78125 L 500.753906 286.476562 L 500.636719 286.457031 L 480.480469 286.457031 Z M 480.480469 285.339844 "/>
<path style=" stroke:none;fill-rule:nonzero;fill:rgb(6.27451%,58.823529%,28.235294%);fill-opacity:1;" d="M 531.835938 303.589844 L 531.886719 303.582031 L 553 293.332031 L 559.410156 293.332031 L 580.625 303.601562 L 573.171875 303.601562 L 567.855469 300.921875 L 544.554688 300.921875 L 539.34375 303.589844 L 531.835938 303.589844 L 546.796875 299.8125 L 565.71875 299.800781 L 556.28125 295.011719 L 556.179688 295 L 556.074219 295.03125 L 546.742188 299.800781 L 546.796875 299.8125 Z M 531.835938 303.589844 "/>
<path style=" stroke:none;fill-rule:nonzero;fill:rgb(14.509804%,36.078431%,60%);fill-opacity:1;" d="M 531.835938 306.984375 L 531.894531 306.980469 L 531.894531 306.867188 L 532.074219 306.691406 L 532.492188 306.46875 L 532.90625 306.316406 L 533.976562 306.042969 L 535.464844 305.78125 L 537.011719 305.578125 L 538.144531 305.457031 L 539.152344 305.363281 L 541.476562 305.191406 L 542.960938 305.105469 L 544.570312 305.027344 L 546.53125 304.949219 L 547.960938 304.902344 L 551.171875 304.828125 L 553.554688 304.792969 L 555.398438 304.78125 L 559.382812 304.78125 L 561.761719 304.800781 L 563.488281 304.824219 L 565.394531 304.859375 L 567 304.902344 L 569.796875 305.003906 L 572.292969 305.132812 L 573.425781 305.207031 L 575.210938 305.351562 L 576.578125 305.488281 L 577.53125 305.609375 L 578.601562 305.78125 L 579.554688 305.988281 L 580.265625 306.226562 L 580.625 306.425781 L 572.292969 306.425781 L 571.878906 306.238281 L 571.402344 306.09375 L 570.507812 305.90625 L 569.617188 305.773438 L 568.367188 305.636719 L 567.238281 305.550781 L 565.691406 305.460938 L 564.320312 305.40625 L 562.894531 305.363281 L 561.527344 305.335938 L 558.90625 305.308594 L 555.875 305.308594 L 554.742188 305.316406 L 552.421875 305.355469 L 551.171875 305.386719 L 549.386719 305.453125 L 548.136719 305.511719 L 546.652344 305.605469 L 545.640625 305.683594 L 544.390625 305.804688 L 543.496094 305.910156 L 542.484375 306.0625 L 541.890625 306.179688 L 541.355469 306.308594 L 540.878906 306.460938 L 540.523438 306.625 L 540.285156 306.792969 L 540.164062 306.960938 L 540.164062 307.679688 L 540.285156 307.84375 L 540.582031 308.039062 L 541.355469 308.324219 L 542.484375 308.566406 L 543.796875 308.761719 L 545.042969 308.902344 L 545.757812 308.964844 L 546.710938 309.039062 L 548.199219 309.132812 L 550.339844 309.226562 L 551.589844 309.261719 L 553.492188 309.300781 L 555.457031 309.316406 L 558.074219 309.316406 L 560.394531 309.300781 L 561.941406 309.277344 L 563.546875 309.238281 L 565.75 309.160156 L 567.117188 309.085938 L 568.308594 309 L 569.199219 308.910156 L 569.796875 308.835938 L 570.6875 308.691406 L 571.402344 308.535156 L 571.9375 308.375 L 572.292969 308.214844 L 580.625 308.214844 L 580.265625 308.402344 L 579.730469 308.582031 L 579.195312 308.714844 L 578.363281 308.878906 L 577.410156 309.023438 L 576.042969 309.183594 L 574.914062 309.289062 L 573.425781 309.40625 L 572.058594 309.492188 L 570.570312 309.574219 L 568.367188 309.664062 L 566.941406 309.710938 L 565.394531 309.753906 L 563.546875 309.789062 L 561.226562 309.824219 L 558.730469 309.839844 L 556.410156 309.84375 L 553.910156 309.835938 L 552.066406 309.816406 L 549.625 309.777344 L 546.589844 309.691406 L 544.390625 309.605469 L 542.664062 309.515625 L 541.175781 309.425781 L 539.511719 309.300781 L 537.371094 309.09375 L 536.058594 308.9375 L 535.167969 308.808594 L 534.15625 308.628906 L 533.441406 308.464844 L 532.609375 308.207031 L 532.015625 307.878906 L 531.835938 307.625 Z M 531.835938 306.984375 "/>
<path style=" stroke:none;fill-rule:nonzero;fill:rgb(96.862745%,70.196078%,16.862745%);fill-opacity:1;" d="M 531.835938 279.195312 L 531.894531 279.171875 L 531.894531 278.757812 L 532.132812 277.828125 L 532.726562 276.542969 L 533.5 275.488281 L 534.335938 274.660156 L 534.871094 274.226562 L 535.761719 273.605469 L 536.535156 273.148438 L 538.5 272.21875 L 541 271.347656 L 542.367188 270.976562 L 543.914062 270.625 L 546.117188 270.230469 L 547.128906 270.085938 L 550.222656 269.753906 L 553.730469 269.546875 L 557.597656 269.484375 L 559.382812 269.507812 L 561.824219 269.589844 L 565.15625 269.816406 L 567.058594 270.023438 L 568.546875 270.230469 L 570.09375 270.5 L 571.996094 270.914062 L 573.78125 271.410156 L 575.210938 271.90625 L 576.636719 272.527344 L 577.828125 273.191406 L 578.839844 273.914062 L 579.730469 274.785156 L 580.265625 275.507812 L 580.625 276.234375 L 572.355469 276.234375 L 571.878906 275.507812 L 571.34375 274.949219 L 570.449219 274.269531 L 569.558594 273.769531 L 568.664062 273.378906 L 567 272.839844 L 565.570312 272.507812 L 563.785156 272.21875 L 562.0625 272.03125 L 560.097656 271.90625 L 558.90625 271.867188 L 555.753906 271.867188 L 552.898438 272.011719 L 551.230469 272.175781 L 550.042969 272.34375 L 548.375 272.652344 L 547.363281 272.902344 L 546.769531 273.066406 L 544.984375 273.707031 L 543.796875 274.289062 L 543.140625 274.679688 L 542.308594 275.300781 L 541.710938 275.863281 L 541.058594 276.691406 L 540.703125 277.3125 L 540.226562 278.71875 L 540.164062 282.445312 L 540.34375 283.230469 L 540.703125 284.078125 L 541.175781 284.824219 L 541.890625 285.613281 L 542.605469 286.210938 L 543.855469 287.019531 L 544.925781 287.558594 L 545.757812 287.910156 L 547.363281 288.46875 L 548.019531 288.65625 L 549.566406 289.027344 L 551.171875 289.316406 L 553.136719 289.566406 L 554.625 289.691406 L 557.003906 289.792969 L 560.039062 289.792969 L 563.609375 289.667969 L 565.867188 289.503906 L 567.414062 289.335938 L 568.425781 289.191406 L 569.675781 288.964844 L 570.570312 288.757812 L 571.402344 288.53125 L 572.414062 288.179688 L 572.414062 283.230469 L 557.71875 283.210938 L 557.71875 280.890625 L 580.566406 280.871094 L 580.625 288.964844 L 579.375 289.523438 L 577.828125 290.0625 L 576.339844 290.476562 L 574.792969 290.828125 L 572.59375 291.222656 L 570.808594 291.46875 L 568.070312 291.757812 L 565.570312 291.945312 L 562.953125 292.070312 L 560.632812 292.132812 L 557.894531 292.152344 L 555.457031 292.113281 L 552.839844 291.988281 L 550.757812 291.820312 L 548.851562 291.613281 L 546.949219 291.34375 L 544.570312 290.910156 L 543.023438 290.558594 L 541.414062 290.125 L 539.808594 289.605469 L 538.378906 289.046875 L 537.429688 288.613281 L 536.476562 288.117188 L 535.464844 287.496094 L 534.511719 286.792969 L 533.800781 286.148438 L 533.144531 285.425781 L 532.667969 284.742188 L 532.191406 283.8125 L 531.953125 283.066406 L 531.835938 282.421875 Z M 531.835938 279.195312 "/>
<path style=" stroke:none;fill-rule:nonzero;fill:rgb(83.921569%,15.686275%,22.352941%);fill-opacity:1;" d="M 531.835938 311.023438 L 580.625 311.023438 L 580.625 311.382812 L 560.289062 311.386719 L 560.289062 314.371094 L 552.109375 314.371094 L 552.109375 311.390625 L 551.992188 311.382812 L 531.835938 311.382812 Z M 531.835938 311.023438 "/>
<path style=" stroke:none;fill-rule:nonzero;fill:rgb(6.27451%,58.823529%,28.235294%);fill-opacity:1;" d="M 583.191406 298.164062 L 583.246094 298.152344 L 604.355469 284.558594 L 610.765625 284.558594 L 631.980469 298.179688 L 624.527344 298.179688 L 619.210938 294.625 L 595.910156 294.625 L 590.699219 298.164062 L 583.191406 298.164062 L 598.152344 293.152344 L 617.074219 293.140625 L 607.636719 286.785156 L 607.535156 286.773438 L 607.429688 286.8125 L 598.101562 293.140625 L 598.152344 293.152344 Z M 583.191406 298.164062 "/>
<path style=" stroke:none;fill-rule:nonzero;fill:rgb(14.509804%,36.078431%,60%);fill-opacity:1;" d="M 583.191406 301.652344 L 583.25 301.648438 L 583.25 301.53125 L 583.429688 301.347656 L 583.847656 301.117188 L 584.261719 300.957031 L 585.335938 300.671875 L 586.820312 300.398438 L 588.367188 300.1875 L 589.5 300.0625 L 590.511719 299.964844 L 592.832031 299.785156 L 594.320312 299.695312 L 595.925781 299.613281 L 597.886719 299.53125 L 599.316406 299.484375 L 602.527344 299.40625 L 604.910156 299.371094 L 606.753906 299.359375 L 610.738281 299.359375 L 613.121094 299.375 L 614.84375 299.402344 L 616.75 299.441406 L 618.355469 299.484375 L 621.152344 299.589844 L 623.652344 299.722656 L 624.78125 299.800781 L 626.566406 299.949219 L 627.933594 300.09375 L 628.886719 300.21875 L 629.957031 300.398438 L 630.910156 300.617188 L 631.625 300.863281 L 631.980469 301.070312 L 623.652344 301.070312 L 623.234375 300.875 L 622.757812 300.726562 L 621.867188 300.527344 L 620.972656 300.390625 L 619.722656 300.25 L 618.59375 300.15625 L 617.046875 300.066406 L 615.679688 300.007812 L 614.25 299.964844 L 612.882812 299.9375 L 610.265625 299.90625 L 607.230469 299.90625 L 606.097656 299.917969 L 603.777344 299.957031 L 602.527344 299.988281 L 600.746094 300.054688 L 599.496094 300.121094 L 598.007812 300.214844 L 596.996094 300.296875 L 595.746094 300.421875 L 594.855469 300.535156 L 593.84375 300.691406 L 593.246094 300.8125 L 592.710938 300.949219 L 592.234375 301.109375 L 591.878906 301.277344 L 591.640625 301.453125 L 591.523438 301.628906 L 591.523438 302.375 L 591.640625 302.550781 L 591.9375 302.75 L 592.710938 303.046875 L 593.84375 303.300781 L 595.152344 303.503906 L 596.402344 303.648438 L 597.113281 303.714844 L 598.066406 303.792969 L 599.554688 303.890625 L 601.695312 303.984375 L 602.945312 304.023438 L 604.847656 304.0625 L 606.8125 304.082031 L 609.429688 304.082031 L 611.75 304.0625 L 613.296875 304.039062 L 614.90625 304 L 617.105469 303.917969 L 618.476562 303.839844 L 619.664062 303.75 L 620.558594 303.65625 L 621.152344 303.582031 L 622.042969 303.429688 L 622.757812 303.265625 L 623.292969 303.097656 L 623.652344 302.933594 L 631.980469 302.933594 L 631.625 303.128906 L 631.089844 303.316406 L 630.554688 303.457031 L 629.71875 303.625 L 628.769531 303.773438 L 627.398438 303.941406 L 626.269531 304.054688 L 624.78125 304.171875 L 623.414062 304.265625 L 621.925781 304.347656 L 619.722656 304.445312 L 618.296875 304.492188 L 616.75 304.535156 L 614.90625 304.574219 L 612.585938 304.609375 L 610.085938 304.628906 L 607.765625 304.632812 L 605.265625 304.621094 L 603.421875 304.601562 L 600.980469 304.558594 L 597.949219 304.472656 L 595.746094 304.382812 L 594.019531 304.289062 L 592.535156 304.191406 L 590.867188 304.0625 L 588.726562 303.851562 L 587.417969 303.6875 L 586.523438 303.550781 L 585.511719 303.363281 L 584.796875 303.195312 L 583.964844 302.925781 L 583.371094 302.582031 L 583.191406 302.316406 Z M 583.191406 301.652344 "/>
<path style=" stroke:none;fill-rule:nonzero;fill:rgb(96.862745%,70.196078%,16.862745%);fill-opacity:1;" d="M 583.191406 312.960938 L 583.25 312.957031 L 583.25 312.910156 L 583.488281 312.808594 L 584.085938 312.671875 L 584.859375 312.554688 L 585.691406 312.464844 L 586.226562 312.417969 L 587.117188 312.351562 L 587.894531 312.300781 L 589.855469 312.199219 L 592.355469 312.105469 L 593.722656 312.0625 L 595.269531 312.027344 L 597.472656 311.984375 L 598.484375 311.96875 L 601.578125 311.929688 L 605.085938 311.910156 L 608.953125 311.902344 L 610.738281 311.902344 L 613.179688 311.914062 L 616.511719 311.9375 L 618.414062 311.960938 L 619.902344 311.984375 L 621.449219 312.011719 L 623.351562 312.058594 L 625.136719 312.113281 L 626.566406 312.164062 L 627.996094 312.234375 L 629.183594 312.304688 L 630.195312 312.382812 L 631.089844 312.480469 L 631.625 312.558594 L 631.980469 312.636719 L 623.710938 312.636719 L 623.234375 312.558594 L 622.699219 312.496094 L 621.804688 312.421875 L 620.914062 312.367188 L 620.023438 312.324219 L 618.355469 312.265625 L 616.925781 312.230469 L 615.144531 312.199219 L 613.417969 312.179688 L 611.453125 312.164062 L 610.265625 312.160156 L 607.109375 312.160156 L 604.253906 312.175781 L 602.589844 312.195312 L 601.398438 312.214844 L 599.734375 312.246094 L 598.722656 312.273438 L 598.125 312.292969 L 596.339844 312.363281 L 595.152344 312.425781 L 594.496094 312.46875 L 593.664062 312.535156 L 593.070312 312.597656 L 592.414062 312.6875 L 592.058594 312.753906 L 591.582031 312.90625 L 591.523438 313.3125 L 591.699219 313.398438 L 592.058594 313.492188 L 592.535156 313.574219 L 593.246094 313.65625 L 593.960938 313.722656 L 595.210938 313.8125 L 596.28125 313.871094 L 597.113281 313.910156 L 598.722656 313.96875 L 599.375 313.988281 L 600.921875 314.03125 L 602.527344 314.0625 L 604.492188 314.089844 L 605.980469 314.101562 L 608.359375 314.113281 L 611.394531 314.113281 L 614.964844 314.101562 L 617.226562 314.082031 L 618.773438 314.0625 L 619.785156 314.046875 L 621.03125 314.023438 L 621.925781 314 L 622.757812 313.976562 L 623.769531 313.9375 L 623.769531 313.398438 L 609.074219 313.398438 L 609.074219 313.144531 L 631.921875 313.140625 L 631.980469 314.023438 L 630.730469 314.085938 L 629.183594 314.144531 L 627.695312 314.1875 L 626.148438 314.226562 L 623.949219 314.269531 L 622.164062 314.296875 L 619.425781 314.328125 L 616.925781 314.347656 L 614.308594 314.363281 L 611.988281 314.367188 L 609.253906 314.371094 L 606.8125 314.367188 L 604.195312 314.351562 L 602.113281 314.335938 L 600.207031 314.3125 L 598.304688 314.28125 L 595.925781 314.234375 L 594.378906 314.195312 L 592.769531 314.148438 L 591.164062 314.09375 L 589.738281 314.03125 L 588.785156 313.984375 L 587.832031 313.929688 L 586.820312 313.863281 L 585.871094 313.785156 L 585.15625 313.71875 L 584.5 313.636719 L 584.023438 313.5625 L 583.550781 313.460938 L 583.3125 313.378906 L 583.191406 313.3125 Z M 583.191406 312.960938 "/>
<path style=" stroke:none;fill-rule:nonzero;fill:rgb(83.921569%,15.686275%,22.352941%);fill-opacity:1;" d="M 583.191406 305.8125 L 631.980469 305.8125 L 631.980469 306.335938 L 611.648438 306.339844 L 611.648438 310.722656 L 603.464844 310.722656 L 603.464844 306.347656 L 603.347656 306.335938 L 583.191406 306.335938 Z M 583.191406 305.8125 "/>
<path style=" stroke:none;fill-rule:nonzero;fill:rgb(6.27451%,58.823529%,28.235294%);fill-opacity:1;" d="M 634.546875 308.398438 L 634.601562 308.394531 L 655.710938 306.675781 L 662.121094 306.675781 L 683.335938 308.398438 L 675.882812 308.398438 L 670.566406 307.949219 L 647.265625 307.949219 L 642.054688 308.398438 L 634.546875 308.398438 L 649.507812 307.761719 L 668.429688 307.761719 L 658.996094 306.957031 L 658.890625 306.953125 L 658.785156 306.960938 L 649.457031 307.761719 L 649.507812 307.761719 Z M 634.546875 308.398438 "/>
<path style=" stroke:none;fill-rule:nonzero;fill:rgb(14.509804%,36.078431%,60%);fill-opacity:1;" d="M 634.546875 310.261719 L 634.609375 310.257812 L 634.609375 310.222656 L 634.785156 310.167969 L 635.203125 310.101562 L 635.621094 310.054688 L 636.691406 309.96875 L 638.179688 309.886719 L 639.726562 309.824219 L 640.855469 309.789062 L 641.867188 309.757812 L 644.1875 309.707031 L 645.675781 309.679688 L 647.28125 309.652344 L 649.246094 309.628906 L 650.671875 309.617188 L 653.886719 309.59375 L 656.265625 309.582031 L 658.109375 309.578125 L 662.097656 309.578125 L 664.476562 309.582031 L 666.203125 309.589844 L 668.105469 309.601562 L 669.710938 309.617188 L 672.507812 309.648438 L 675.007812 309.6875 L 676.136719 309.710938 L 677.921875 309.753906 L 679.292969 309.796875 L 680.242188 309.835938 L 681.3125 309.886719 L 682.265625 309.953125 L 682.980469 310.023438 L 683.335938 310.085938 L 675.007812 310.085938 L 674.589844 310.027344 L 674.113281 309.984375 L 673.222656 309.925781 L 672.328125 309.882812 L 671.082031 309.84375 L 669.949219 309.816406 L 668.402344 309.789062 L 667.035156 309.769531 L 665.605469 309.757812 L 664.238281 309.75 L 661.621094 309.742188 L 658.585938 309.742188 L 657.457031 309.746094 L 655.136719 309.753906 L 653.886719 309.765625 L 652.101562 309.785156 L 650.851562 309.804688 L 649.363281 309.832031 L 648.351562 309.855469 L 647.101562 309.894531 L 646.210938 309.925781 L 645.199219 309.976562 L 644.605469 310.011719 L 644.066406 310.050781 L 643.59375 310.097656 L 643.234375 310.148438 L 642.996094 310.199219 L 642.878906 310.253906 L 642.878906 310.476562 L 642.996094 310.527344 L 643.292969 310.585938 L 644.066406 310.671875 L 645.199219 310.75 L 646.507812 310.808594 L 647.757812 310.851562 L 648.472656 310.871094 L 649.421875 310.894531 L 650.910156 310.925781 L 653.050781 310.953125 L 654.300781 310.964844 L 656.207031 310.976562 L 658.167969 310.980469 L 660.789062 310.980469 L 663.109375 310.976562 L 664.65625 310.96875 L 666.261719 310.957031 L 668.460938 310.933594 L 669.832031 310.910156 L 671.019531 310.882812 L 671.914062 310.855469 L 672.507812 310.832031 L 673.402344 310.789062 L 674.113281 310.738281 L 674.648438 310.6875 L 675.007812 310.640625 L 683.335938 310.640625 L 682.980469 310.699219 L 682.445312 310.753906 L 681.910156 310.796875 L 681.074219 310.84375 L 680.125 310.890625 L 678.753906 310.941406 L 677.625 310.972656 L 676.136719 311.007812 L 674.769531 311.035156 L 673.28125 311.058594 L 671.082031 311.089844 L 669.652344 311.101562 L 668.105469 311.117188 L 666.261719 311.128906 L 663.941406 311.136719 L 661.441406 311.144531 L 659.121094 311.144531 L 656.621094 311.140625 L 654.777344 311.136719 L 652.339844 311.125 L 649.304688 311.097656 L 647.101562 311.070312 L 645.378906 311.042969 L 643.890625 311.015625 L 642.222656 310.976562 L 640.082031 310.914062 L 638.773438 310.863281 L 637.878906 310.824219 L 636.867188 310.769531 L 636.15625 310.71875 L 635.320312 310.636719 L 634.726562 310.535156 L 634.546875 310.457031 Z M 634.546875 310.261719 "/>
<path style=" stroke:none;fill-rule:nonzero;fill:rgb(96.862745%,70.196078%,16.862745%);fill-opacity:1;" d="M 634.546875 312.550781 L 634.609375 312.550781 L 634.609375 312.539062 L 634.847656 312.519531 L 635.441406 312.488281 L 636.214844 312.464844 L 637.046875 312.445312 L 637.582031 312.433594 L 638.476562 312.421875 L 639.25 312.410156 L 641.210938 312.386719 L 643.710938 312.367188 L 645.078125 312.359375 L 646.625 312.351562 L 648.828125 312.34375 L 649.839844 312.339844 L 652.933594 312.332031 L 656.445312 312.324219 L 662.097656 312.324219 L 664.535156 312.328125 L 667.867188 312.332031 L 669.769531 312.335938 L 671.257812 312.34375 L 672.804688 312.347656 L 674.710938 312.359375 L 676.496094 312.371094 L 677.921875 312.382812 L 679.351562 312.394531 L 680.539062 312.410156 L 681.550781 312.429688 L 682.445312 312.449219 L 682.980469 312.464844 L 683.335938 312.480469 L 675.066406 312.480469 L 674.589844 312.464844 L 674.054688 312.453125 L 673.164062 312.4375 L 672.269531 312.425781 L 671.378906 312.414062 L 669.710938 312.402344 L 668.285156 312.394531 L 666.5 312.386719 L 664.773438 312.382812 L 662.808594 312.382812 L 661.621094 312.378906 L 658.46875 312.378906 L 655.609375 312.382812 L 653.945312 312.386719 L 652.753906 312.390625 L 651.089844 312.398438 L 650.078125 312.402344 L 649.484375 312.40625 L 647.699219 312.421875 L 646.507812 312.4375 L 645.851562 312.445312 L 645.019531 312.460938 L 644.425781 312.472656 L 643.769531 312.492188 L 643.414062 312.507812 L 642.9375 312.539062 L 642.878906 312.628906 L 643.058594 312.644531 L 643.414062 312.664062 L 643.890625 312.683594 L 644.605469 312.699219 L 645.316406 312.714844 L 646.566406 312.734375 L 647.636719 312.746094 L 648.472656 312.753906 L 650.078125 312.769531 L 650.730469 312.773438 L 652.277344 312.78125 L 653.886719 312.789062 L 655.847656 312.792969 L 657.335938 312.796875 L 666.320312 312.796875 L 668.582031 312.792969 L 670.128906 312.789062 L 671.140625 312.785156 L 672.390625 312.777344 L 673.28125 312.773438 L 674.113281 312.769531 L 675.125 312.761719 L 675.125 312.644531 L 660.429688 312.644531 L 660.429688 312.589844 L 683.277344 312.589844 L 683.335938 312.777344 L 682.085938 312.792969 L 680.539062 312.804688 L 679.054688 312.816406 L 677.507812 312.824219 L 675.304688 312.832031 L 673.519531 312.835938 L 670.78125 312.84375 L 668.285156 312.847656 L 665.667969 312.851562 L 663.34375 312.851562 L 660.609375 312.855469 L 658.167969 312.851562 L 655.550781 312.851562 L 653.46875 312.847656 L 651.566406 312.839844 L 649.660156 312.835938 L 647.28125 312.824219 L 645.734375 312.816406 L 644.128906 312.804688 L 642.519531 312.792969 L 641.09375 312.78125 L 639.1875 312.757812 L 638.179688 312.746094 L 637.226562 312.726562 L 636.511719 312.714844 L 635.859375 312.695312 L 635.382812 312.679688 L 634.90625 312.660156 L 634.667969 312.640625 L 634.546875 312.625 Z M 634.546875 312.550781 "/>
<path style=" stroke:none;fill-rule:nonzero;fill:rgb(83.921569%,15.686275%,22.352941%);fill-opacity:1;" d="M 634.546875 314.035156 L 683.335938 314.035156 L 683.335938 314.070312 L 663.003906 314.070312 L 663.003906 314.371094 L 654.824219 314.371094 L 654.824219 314.070312 L 634.546875 314.070312 Z M 634.546875 314.035156 "/>
<g style="fill:rgb(0%,0%,0%);fill-opacity:1;">
  <use xlink:href="#glyph0-1" x="21.957031" y="318.198242"/>
  <use xlink:href="#glyph0-2" x="27.291016" y="318.198242"/>
  <use xlink:href="#glyph0-1" x="29.958008" y="318.198242"/>
</g>
<g style="fill:rgb(0%,0%,0%);fill-opacity:1;">
  <use xlink:href="#glyph0-1" x="21.957031" y="238.620117"/>
  <use xlink:href="#glyph0-2" x="27.291016" y="238.620117"/>
  <use xlink:href="#glyph0-3" x="29.958008" y="238.620117"/>
</g>
<g style="fill:rgb(0%,0%,0%);fill-opacity:1;">
  <use xlink:href="#glyph0-4" x="21.957031" y="159.045898"/>
  <use xlink:href="#glyph0-2" x="27.291016" y="159.045898"/>
  <use xlink:href="#glyph0-1" x="29.958008" y="159.045898"/>
</g>
<g style="fill:rgb(0%,0%,0%);fill-opacity:1;">
  <use xlink:href="#glyph0-4" x="21.957031" y="79.467773"/>
  <use xlink:href="#glyph0-2" x="27.291016" y="79.467773"/>
  <use xlink:href="#glyph0-3" x="29.958008" y="79.467773"/>
</g>
<g style="fill:rgb(0%,0%,0%);fill-opacity:1;">
  <use xlink:href="#glyph0-4" x="91.023438" y="338.19043"/>
</g>
<g style="fill:rgb(0%,0%,0%);fill-opacity:1;">
  <use xlink:href="#glyph0-5" x="142.378906" y="338.19043"/>
</g>
<g style="fill:rgb(0%,0%,0%);fill-opacity:1;">
  <use xlink:href="#glyph0-6" x="193.734375" y="338.19043"/>
</g>
<g style="fill:rgb(0%,0%,0%);fill-opacity:1;">
  <use xlink:href="#glyph0-7" x="245.09375" y="338.19043"/>
</g>
<g style="fill:rgb(0%,0%,0%);fill-opacity:1;">
  <use xlink:href="#glyph0-3" x="296.449219" y="338.19043"/>
</g>
<g style="fill:rgb(0%,0%,0%);fill-opacity:1;">
  <use xlink:href="#glyph0-8" x="347.804688" y="338.19043"/>
</g>
<g style="fill:rgb(0%,0%,0%);fill-opacity:1;">
  <use xlink:href="#glyph0-9" x="399.160156" y="338.19043"/>
</g>
<g style="fill:rgb(0%,0%,0%);fill-opacity:1;">
  <use xlink:href="#glyph0-10" x="450.519531" y="338.19043"/>
</g>
<g style="fill:rgb(0%,0%,0%);fill-opacity:1;">
  <use xlink:href="#glyph0-11" x="501.875" y="338.19043"/>
</g>
<g style="fill:rgb(0%,0%,0%);fill-opacity:1;">
  <use xlink:href="#glyph0-4" x="550.730469" y="338.19043"/>
  <use xlink:href="#glyph0-1" x="556.064453" y="338.19043"/>
</g>
<g style="fill:rgb(0%,0%,0%);fill-opacity:1;">
  <use xlink:href="#glyph0-4" x="602.085938" y="338.19043"/>
  <use xlink:href="#glyph0-4" x="607.419922" y="338.19043"/>
</g>
<g style="fill:rgb(0%,0%,0%);fill-opacity:1;">
  <use xlink:href="#glyph0-4" x="653.441406" y="338.19043"/>
  <use xlink:href="#glyph0-5" x="658.775391" y="338.19043"/>
</g>
<g style="fill:rgb(0%,0%,0%);fill-opacity:1;">
  <use xlink:href="#glyph1-1" x="14.412109" y="178.015625"/>
  <use xlink:href="#glyph1-2" x="14.412109" y="170.011719"/>
  <use xlink:href="#glyph1-3" x="14.412109" y="167.347656"/>
  <use xlink:href="#glyph1-4" x="14.412109" y="164.011719"/>
</g>
</g>
</svg>
