<?xml version="1.0" encoding="UTF-8"?>
<svg xmlns="http://www.w3.org/2000/svg" xmlns:xlink="http://www.w3.org/1999/xlink" width="720pt" height="360pt" viewBox="0 0 720 360" version="1.1">
<defs>
<g>
<symbol overflow="visible" id="glyph0-0">
<path style="stroke:none;" d=""/>
</symbol>
<symbol overflow="visible" id="glyph0-1">
<path style="stroke:none;" d="M 2.640625 -6.796875 C 2 -6.796875 1.421875 -6.53125 1.078125 -6.046875 C 0.640625 -5.453125 0.40625 -4.546875 0.40625 -3.296875 C 0.40625 -1 1.1875 0.21875 2.640625 0.21875 C 4.078125 0.21875 4.859375 -1 4.859375 -3.234375 C 4.859375 -4.5625 4.65625 -5.4375 4.203125 -6.046875 C 3.84375 -6.53125 3.28125 -6.796875 2.640625 -6.796875 Z M 2.640625 -6.046875 C 3.546875 -6.046875 4 -5.125 4 -3.3125 C 4 -1.375 3.5625 -0.484375 2.625 -0.484375 C 1.734375 -0.484375 1.28125 -1.421875 1.28125 -3.28125 C 1.28125 -5.140625 1.734375 -6.046875 2.640625 -6.046875 Z M 2.640625 -6.046875 "/>
</symbol>
<symbol overflow="visible" id="glyph0-2">
<path style="stroke:none;" d="M 1.828125 -1 L 0.828125 -1 L 0.828125 0 L 1.828125 0 Z M 1.828125 -1 "/>
</symbol>
<symbol overflow="visible" id="glyph0-3">
<path style="stroke:none;" d="M 4.5625 -6.796875 L 1.0625 -6.796875 L 0.546875 -3.09375 L 1.328125 -3.09375 C 1.71875 -3.5625 2.046875 -3.734375 2.578125 -3.734375 C 3.484375 -3.734375 4.0625 -3.109375 4.0625 -2.09375 C 4.0625 -1.125 3.484375 -0.53125 2.578125 -0.53125 C 1.828125 -0.53125 1.375 -0.90625 1.1875 -1.671875 L 0.328125 -1.671875 C 0.453125 -1.109375 0.546875 -0.84375 0.75 -0.59375 C 1.125 -0.078125 1.828125 0.21875 2.59375 0.21875 C 3.96875 0.21875 4.921875 -0.78125 4.921875 -2.21875 C 4.921875 -3.5625 4.03125 -4.484375 2.71875 -4.484375 C 2.25 -4.484375 1.859375 -4.359375 1.46875 -4.0625 L 1.734375 -5.96875 L 4.5625 -5.96875 Z M 4.5625 -6.796875 "/>
</symbol>
<symbol overflow="visible" id="glyph0-4">
<path style="stroke:none;" d="M 2.484375 -4.84375 L 2.484375 0 L 3.328125 0 L 3.328125 -6.796875 L 2.765625 -6.796875 C 2.46875 -5.75 2.28125 -5.609375 0.984375 -5.453125 L 0.984375 -4.84375 Z M 2.484375 -4.84375 "/>
</symbol>
<symbol overflow="visible" id="glyph0-5">
<path style="stroke:none;" d="M 4.859375 -0.828125 L 1.28125 -0.828125 C 1.359375 -1.390625 1.671875 -1.75 2.5 -2.234375 L 3.46875 -2.75 C 4.40625 -3.265625 4.90625 -3.96875 4.90625 -4.8125 C 4.90625 -5.375 4.671875 -5.90625 4.265625 -6.265625 C 3.859375 -6.625 3.375 -6.796875 2.71875 -6.796875 C 1.859375 -6.796875 1.21875 -6.5 0.84375 -5.921875 C 0.609375 -5.5625 0.5 -5.125 0.484375 -4.4375 L 1.328125 -4.4375 C 1.359375 -4.90625 1.40625 -5.1875 1.53125 -5.40625 C 1.75 -5.8125 2.1875 -6.0625 2.703125 -6.0625 C 3.46875 -6.0625 4.03125 -5.515625 4.03125 -4.78125 C 4.03125 -4.25 3.71875 -3.796875 3.125 -3.4375 L 2.234375 -2.9375 C 0.8125 -2.140625 0.40625 -1.5 0.328125 0 L 4.859375 0 Z M 4.859375 -0.828125 "/>
</symbol>
<symbol overflow="visible" id="glyph0-6">
<path style="stroke:none;" d="M 2.125 -3.125 L 2.578125 -3.125 C 3.515625 -3.125 3.984375 -2.703125 3.984375 -1.890625 C 3.984375 -1.03125 3.46875 -0.53125 2.578125 -0.53125 C 1.65625 -0.53125 1.203125 -0.984375 1.15625 -1.96875 L 0.3125 -1.96875 C 0.34375 -1.421875 0.4375 -1.078125 0.609375 -0.765625 C 0.953125 -0.109375 1.625 0.21875 2.546875 0.21875 C 3.953125 0.21875 4.859375 -0.609375 4.859375 -1.90625 C 4.859375 -2.765625 4.515625 -3.25 3.703125 -3.515625 C 4.34375 -3.765625 4.65625 -4.25 4.65625 -4.9375 C 4.65625 -6.109375 3.875 -6.796875 2.578125 -6.796875 C 1.203125 -6.796875 0.484375 -6.046875 0.453125 -4.609375 L 1.296875 -4.609375 C 1.3125 -5.015625 1.34375 -5.25 1.453125 -5.453125 C 1.640625 -5.828125 2.0625 -6.0625 2.59375 -6.0625 C 3.34375 -6.0625 3.796875 -5.625 3.796875 -4.90625 C 3.796875 -4.421875 3.609375 -4.140625 3.25 -3.984375 C 3.015625 -3.890625 2.71875 -3.84375 2.125 -3.84375 Z M 2.125 -3.125 "/>
</symbol>
<symbol overflow="visible" id="glyph0-7">
<path style="stroke:none;" d="M 3.140625 -1.625 L 3.140625 0 L 3.984375 0 L 3.984375 -1.625 L 4.984375 -1.625 L 4.984375 -2.390625 L 3.984375 -2.390625 L 3.984375 -6.796875 L 3.359375 -6.796875 L 0.265625 -2.515625 L 0.265625 -1.625 Z M 3.140625 -2.390625 L 1 -2.390625 L 3.140625 -5.359375 Z M 3.140625 -2.390625 "/>
</symbol>
<symbol overflow="visible" id="glyph0-8">
<path style="stroke:none;" d="M 4.78125 -5.03125 C 4.609375 -6.140625 3.890625 -6.796875 2.84375 -6.796875 C 2.09375 -6.796875 1.421875 -6.4375 1.03125 -5.828125 C 0.609375 -5.171875 0.40625 -4.34375 0.40625 -3.09375 C 0.40625 -1.953125 0.578125 -1.234375 0.984375 -0.625 C 1.359375 -0.078125 1.953125 0.21875 2.703125 0.21875 C 3.984375 0.21875 4.921875 -0.734375 4.921875 -2.078125 C 4.921875 -3.34375 4.0625 -4.234375 2.84375 -4.234375 C 2.171875 -4.234375 1.640625 -3.96875 1.28125 -3.46875 C 1.28125 -5.125 1.828125 -6.046875 2.796875 -6.046875 C 3.390625 -6.046875 3.796875 -5.671875 3.9375 -5.03125 Z M 2.734375 -3.484375 C 3.546875 -3.484375 4.0625 -2.921875 4.0625 -2 C 4.0625 -1.15625 3.484375 -0.53125 2.703125 -0.53125 C 1.921875 -0.53125 1.328125 -1.1875 1.328125 -2.046875 C 1.328125 -2.890625 1.90625 -3.484375 2.734375 -3.484375 Z M 2.734375 -3.484375 "/>
</symbol>
<symbol overflow="visible" id="glyph0-9">
<path style="stroke:none;" d="M 4.984375 -6.796875 L 0.4375 -6.796875 L 0.4375 -5.96875 L 4.109375 -5.96875 C 2.5 -3.65625 1.828125 -2.234375 1.328125 0 L 2.21875 0 C 2.59375 -2.171875 3.453125 -4.046875 4.984375 -6.09375 Z M 4.984375 -6.796875 "/>
</symbol>
<symbol overflow="visible" id="glyph0-10">
<path style="stroke:none;" d="M 3.75 -3.578125 C 4.453125 -4 4.6875 -4.34375 4.6875 -4.984375 C 4.6875 -6.046875 3.84375 -6.796875 2.640625 -6.796875 C 1.4375 -6.796875 0.59375 -6.046875 0.59375 -4.984375 C 0.59375 -4.359375 0.828125 -4.015625 1.515625 -3.578125 C 0.734375 -3.203125 0.359375 -2.640625 0.359375 -1.890625 C 0.359375 -0.640625 1.296875 0.21875 2.640625 0.21875 C 3.984375 0.21875 4.921875 -0.640625 4.921875 -1.875 C 4.921875 -2.640625 4.53125 -3.203125 3.75 -3.578125 Z M 2.640625 -6.046875 C 3.359375 -6.046875 3.8125 -5.625 3.8125 -4.96875 C 3.8125 -4.34375 3.34375 -3.921875 2.640625 -3.921875 C 1.921875 -3.921875 1.453125 -4.34375 1.453125 -4.984375 C 1.453125 -5.625 1.921875 -6.046875 2.640625 -6.046875 Z M 2.640625 -3.203125 C 3.484375 -3.203125 4.0625 -2.671875 4.0625 -1.875 C 4.0625 -1.0625 3.484375 -0.53125 2.625 -0.53125 C 1.796875 -0.53125 1.21875 -1.078125 1.21875 -1.875 C 1.21875 -2.671875 1.796875 -3.203125 2.640625 -3.203125 Z M 2.640625 -3.203125 "/>
</symbol>
<symbol overflow="visible" id="glyph0-11">
<path style="stroke:none;" d="M 0.515625 -1.546875 C 0.671875 -0.4375 1.40625 0.21875 2.4375 0.21875 C 3.1875 0.21875 3.859375 -0.140625 4.265625 -0.75 C 4.6875 -1.40625 4.890625 -2.25 4.890625 -3.484375 C 4.890625 -4.625 4.703125 -5.359375 4.3125 -5.953125 C 3.9375 -6.5 3.34375 -6.796875 2.59375 -6.796875 C 1.296875 -6.796875 0.359375 -5.84375 0.359375 -4.515625 C 0.359375 -3.25 1.234375 -2.34375 2.453125 -2.34375 C 3.09375 -2.34375 3.5625 -2.578125 4.015625 -3.109375 C 4 -1.453125 3.46875 -0.53125 2.5 -0.53125 C 1.90625 -0.53125 1.484375 -0.90625 1.359375 -1.546875 Z M 2.578125 -6.0625 C 3.375 -6.0625 3.96875 -5.40625 3.96875 -4.53125 C 3.96875 -3.6875 3.375 -3.09375 2.546875 -3.09375 C 1.734375 -3.09375 1.234375 -3.671875 1.234375 -4.578125 C 1.234375 -5.4375 1.796875 -6.0625 2.578125 -6.0625 Z M 2.578125 -6.0625 "/>
</symbol>
<symbol overflow="visible" id="glyph1-0">
<path style="stroke:none;" d=""/>
</symbol>
<symbol overflow="visible" id="glyph1-1">
<path style="stroke:none;" d="M 0 -0.953125 L 0 -4.890625 C 0 -5.71875 -0.234375 -6.34375 -0.734375 -6.796875 C -1.1875 -7.234375 -1.8125 -7.46875 -2.5 -7.46875 C -3.546875 -7.46875 -4.1875 -7 -4.625 -5.875 C -4.984375 -6.671875 -5.640625 -7.09375 -6.53125 -7.09375 C -7.15625 -7.09375 -7.734375 -6.859375 -8.140625 -6.390625 C -8.5625 -5.9375 -8.75 -5.34375 -8.75 -4.5 L -8.75 -0.953125 Z M -4.984375 -2.0625 L -7.765625 -2.0625 L -7.765625 -4.21875 C -7.765625 -4.84375 -7.6875 -5.203125 -7.453125 -5.5 C -7.21875 -5.8125 -6.859375 -5.96875 -6.375 -5.96875 C -5.90625 -5.96875 -5.53125 -5.8125 -5.296875 -5.5 C -5.0625 -5.203125 -4.984375 -4.84375 -4.984375 -4.21875 Z M -0.984375 -2.0625 L -4 -2.0625 L -4 -4.78125 C -4 -5.328125 -3.859375 -5.6875 -3.578125 -5.953125 C -3.296875 -6.21875 -2.921875 -6.359375 -2.484375 -6.359375 C -2.0625 -6.359375 -1.6875 -6.21875 -1.40625 -5.953125 C -1.109375 -5.6875 -0.984375 -5.328125 -0.984375 -4.78125 Z M -0.984375 -2.0625 "/>
</symbol>
<symbol overflow="visible" id="glyph1-2">
<path style="stroke:none;" d="M -6.28125 -1.796875 L -6.28125 -0.796875 L 0 -0.796875 L 0 -1.796875 Z M -8.75 -1.796875 L -8.75 -0.796875 L -7.484375 -0.796875 L -7.484375 -1.796875 Z M -8.75 -1.796875 "/>
</symbol>
<symbol overflow="visible" id="glyph1-3">
<path style="stroke:none;" d="M -6.28125 -3.046875 L -6.28125 -2.015625 L -8.015625 -2.015625 L -8.015625 -1.015625 L -6.28125 -1.015625 L -6.28125 -0.171875 L -5.46875 -0.171875 L -5.46875 -1.015625 L -0.71875 -1.015625 C -0.078125 -1.015625 0.28125 -1.453125 0.28125 -2.234375 C 0.28125 -2.46875 0.25 -2.71875 0.1875 -3.046875 L -0.640625 -3.046875 C -0.609375 -2.921875 -0.59375 -2.765625 -0.59375 -2.5625 C -0.59375 -2.140625 -0.71875 -2.015625 -1.15625 -2.015625 L -5.46875 -2.015625 L -5.46875 -3.046875 Z M -6.28125 -3.046875 "/>
</symbol>
<symbol overflow="visible" id="glyph1-4">
<path style="stroke:none;" d="M -4.53125 -5.25 C -5.765625 -5.25 -6.46875 -4.421875 -6.46875 -2.96875 C -6.46875 -1.515625 -5.71875 -0.5625 -4.546875 -0.5625 C -3.5625 -0.5625 -3.09375 -1.0625 -2.734375 -2.5625 L -2.515625 -3.484375 C -2.34375 -4.1875 -2.09375 -4.46875 -1.625 -4.46875 C -1.046875 -4.46875 -0.640625 -3.875 -0.640625 -3 C -0.640625 -2.453125 -0.796875 -2 -1.0625 -1.75 C -1.25 -1.59375 -1.421875 -1.53125 -1.875 -1.46875 L -1.875 -0.40625 C -0.421875 -0.453125 0.28125 -1.265625 0.28125 -2.921875 C 0.28125 -4.5 -0.5 -5.515625 -1.71875 -5.515625 C -2.65625 -5.515625 -3.171875 -4.984375 -3.46875 -3.734375 L -3.703125 -2.765625 C -3.890625 -1.953125 -4.15625 -1.609375 -4.59375 -1.609375 C -5.171875 -1.609375 -5.546875 -2.125 -5.546875 -2.9375 C -5.546875 -3.75 -5.203125 -4.171875 -4.53125 -4.203125 Z M -4.53125 -5.25 "/>
</symbol>
</g>
</defs>
<g id="surface86505">
<rect x="0" y="0" width="720" height="360" style="fill:rgb(100%,100%,100%);fill-opacity:1;stroke:none;"/>
<path style=" stroke:none;fill-rule:nonzero;fill:rgb(6.27451%,58.823529%,28.235294%);fill-opacity:1;" d="M 69.628906 299.617188 L 69.699219 299.605469 L 97.886719 286.132812 L 106.445312 286.132812 L 134.773438 299.632812 L 124.820312 299.632812 L 117.71875 296.105469 L 86.609375 296.105469 L 79.652344 299.617188 L 69.628906 299.617188 L 89.601562 294.648438 L 114.867188 294.636719 L 102.269531 288.335938 L 102.128906 288.324219 L 101.992188 288.363281 L 89.535156 294.636719 L 89.601562 294.648438 Z M 69.628906 299.617188 "/>
<path style=" stroke:none;fill-rule:nonzero;fill:rgb(14.509804%,36.078431%,60%);fill-opacity:1;" d="M 69.628906 311.109375 L 69.707031 311.105469 L 69.707031 310.976562 L 69.945312 310.777344 L 70.503906 310.523438 L 71.058594 310.347656 L 72.488281 310.039062 L 74.476562 309.738281 L 76.539062 309.503906 L 78.050781 309.367188 L 79.402344 309.261719 L 82.5 309.066406 L 84.484375 308.964844 L 86.628906 308.875 L 89.25 308.785156 L 91.15625 308.734375 L 95.449219 308.648438 L 98.625 308.613281 L 101.089844 308.597656 L 106.410156 308.597656 L 109.589844 308.617188 L 111.890625 308.644531 L 114.433594 308.6875 L 116.578125 308.734375 L 120.3125 308.851562 L 123.648438 308.996094 L 125.160156 309.082031 L 127.542969 309.246094 L 129.371094 309.402344 L 130.640625 309.542969 L 132.070312 309.738281 L 133.339844 309.972656 L 134.292969 310.242188 L 134.773438 310.46875 L 123.648438 310.46875 L 123.09375 310.257812 L 122.457031 310.09375 L 121.265625 309.878906 L 120.074219 309.726562 L 118.40625 309.574219 L 116.898438 309.472656 L 114.832031 309.371094 L 113.003906 309.308594 L 111.097656 309.261719 L 109.269531 309.230469 L 105.773438 309.199219 L 101.722656 309.199219 L 100.214844 309.207031 L 97.117188 309.25 L 95.449219 309.289062 L 93.066406 309.363281 L 91.394531 309.429688 L 89.410156 309.535156 L 88.058594 309.625 L 86.390625 309.761719 L 85.199219 309.882812 L 83.847656 310.058594 L 83.054688 310.191406 L 82.339844 310.339844 L 81.703125 310.511719 L 81.226562 310.695312 L 80.910156 310.890625 L 80.75 311.082031 L 80.75 311.902344 L 80.910156 312.089844 L 81.308594 312.3125 L 82.339844 312.632812 L 83.847656 312.914062 L 85.597656 313.136719 L 87.265625 313.292969 L 88.21875 313.367188 L 89.488281 313.453125 L 91.476562 313.558594 L 94.335938 313.664062 L 96.003906 313.707031 L 98.546875 313.746094 L 101.167969 313.769531 L 104.664062 313.769531 L 107.761719 313.746094 L 109.828125 313.722656 L 111.972656 313.679688 L 114.910156 313.589844 L 116.738281 313.503906 L 118.328125 313.40625 L 119.519531 313.304688 L 120.3125 313.21875 L 121.503906 313.054688 L 122.457031 312.878906 L 123.171875 312.691406 L 123.648438 312.511719 L 134.773438 312.511719 L 134.292969 312.722656 L 133.578125 312.929688 L 132.863281 313.082031 L 131.753906 313.265625 L 130.480469 313.429688 L 128.65625 313.617188 L 127.144531 313.738281 L 125.160156 313.871094 L 123.332031 313.96875 L 121.347656 314.058594 L 118.40625 314.164062 L 116.5 314.21875 L 114.433594 314.265625 L 111.972656 314.308594 L 108.875 314.34375 L 105.535156 314.367188 L 102.4375 314.371094 L 99.101562 314.359375 L 96.640625 314.339844 L 93.382812 314.292969 L 89.332031 314.195312 L 86.390625 314.097656 L 84.085938 313.996094 L 82.101562 313.890625 L 79.878906 313.746094 L 77.015625 313.515625 L 75.269531 313.335938 L 74.078125 313.1875 L 72.726562 312.984375 L 71.773438 312.796875 L 70.660156 312.503906 L 69.867188 312.128906 L 69.628906 311.835938 Z M 69.628906 311.109375 "/>
<path style=" stroke:none;fill-rule:nonzero;fill:rgb(96.862745%,70.196078%,16.862745%);fill-opacity:1;" d="M 69.628906 303.640625 L 69.707031 303.632812 L 69.707031 303.511719 L 70.027344 303.242188 L 70.820312 302.867188 L 71.855469 302.558594 L 72.964844 302.320312 L 73.679688 302.191406 L 74.871094 302.011719 L 75.90625 301.878906 L 78.527344 301.605469 L 81.863281 301.355469 L 83.691406 301.246094 L 85.757812 301.144531 L 88.695312 301.027344 L 90.046875 300.984375 L 94.175781 300.890625 L 98.863281 300.828125 L 104.027344 300.8125 L 106.410156 300.816406 L 109.667969 300.839844 L 114.117188 300.90625 L 116.660156 300.96875 L 118.644531 301.027344 L 120.710938 301.105469 L 123.253906 301.226562 L 125.636719 301.371094 L 127.542969 301.515625 L 129.449219 301.699219 L 131.039062 301.890625 L 132.386719 302.101562 L 133.578125 302.355469 L 134.292969 302.566406 L 134.773438 302.777344 L 123.730469 302.777344 L 123.09375 302.566406 L 122.378906 302.402344 L 121.1875 302.203125 L 119.996094 302.058594 L 118.804688 301.945312 L 116.578125 301.789062 L 114.671875 301.691406 L 112.289062 301.605469 L 109.984375 301.554688 L 107.363281 301.515625 L 105.773438 301.503906 L 101.566406 301.503906 L 97.75 301.546875 L 95.527344 301.59375 L 93.9375 301.644531 L 91.714844 301.734375 L 90.363281 301.804688 L 89.570312 301.855469 L 87.1875 302.042969 L 85.597656 302.210938 L 84.722656 302.324219 L 83.609375 302.507812 L 82.816406 302.667969 L 81.941406 302.910156 L 81.464844 303.089844 L 80.832031 303.5 L 80.75 304.585938 L 80.988281 304.816406 L 81.464844 305.0625 L 82.101562 305.28125 L 83.054688 305.511719 L 84.007812 305.683594 L 85.675781 305.921875 L 87.105469 306.078125 L 88.21875 306.179688 L 90.363281 306.34375 L 91.238281 306.398438 L 93.304688 306.507812 L 95.449219 306.589844 L 98.070312 306.664062 L 100.054688 306.699219 L 103.234375 306.730469 L 107.285156 306.730469 L 112.050781 306.691406 L 115.070312 306.644531 L 117.136719 306.597656 L 118.484375 306.554688 L 120.152344 306.488281 L 121.347656 306.425781 L 122.457031 306.359375 L 123.808594 306.257812 L 123.808594 304.816406 L 104.1875 304.8125 L 104.1875 304.136719 L 134.691406 304.128906 L 134.773438 306.488281 L 133.101562 306.652344 L 131.039062 306.808594 L 129.050781 306.929688 L 126.984375 307.03125 L 124.046875 307.144531 L 121.664062 307.21875 L 118.007812 307.300781 L 114.671875 307.355469 L 111.175781 307.394531 L 108.078125 307.410156 L 104.425781 307.417969 L 101.167969 307.40625 L 97.671875 307.367188 L 94.890625 307.320312 L 92.351562 307.261719 L 89.808594 307.183594 L 86.628906 307.054688 L 84.5625 306.953125 L 82.417969 306.824219 L 80.273438 306.675781 L 78.367188 306.511719 L 77.097656 306.386719 L 75.824219 306.242188 L 74.476562 306.058594 L 73.203125 305.855469 L 72.25 305.667969 L 71.378906 305.457031 L 70.742188 305.257812 L 70.105469 304.984375 L 69.789062 304.769531 L 69.628906 304.582031 Z M 69.628906 303.640625 "/>
<path style=" stroke:none;fill-rule:nonzero;fill:rgb(83.921569%,15.686275%,22.352941%);fill-opacity:1;" d="M 69.628906 219.683594 L 134.773438 219.683594 L 134.773438 226.671875 L 107.621094 226.734375 L 107.621094 284.953125 L 96.699219 284.953125 L 96.699219 226.792969 L 96.542969 226.671875 L 69.628906 226.671875 Z M 69.628906 219.683594 "/>
<path style=" stroke:none;fill-rule:nonzero;fill:rgb(83.921569%,15.686275%,22.352941%);fill-opacity:1;" d="M 138.199219 20.664062 L 203.34375 20.664062 L 203.34375 52.101562 L 176.191406 52.378906 L 176.191406 314.371094 L 165.269531 314.371094 L 165.269531 52.652344 L 165.113281 52.101562 L 138.199219 52.101562 Z M 138.199219 20.664062 "/>
<path style=" stroke:none;fill-rule:nonzero;fill:rgb(6.27451%,58.823529%,28.235294%);fill-opacity:1;" d="M 206.769531 310.515625 L 206.839844 310.5 L 235.027344 293.03125 L 243.585938 293.03125 L 271.914062 310.535156 L 261.960938 310.535156 L 254.863281 305.964844 L 223.753906 305.964844 L 216.792969 310.515625 L 206.769531 310.515625 L 226.746094 304.074219 L 252.007812 304.058594 L 239.410156 295.890625 L 239.273438 295.875 L 239.132812 295.921875 L 226.675781 304.058594 L 226.746094 304.074219 Z M 206.769531 310.515625 "/>
<path style=" stroke:none;fill-rule:nonzero;fill:rgb(14.509804%,36.078431%,60%);fill-opacity:1;" d="M 206.769531 312.070312 L 206.851562 312.070312 L 206.851562 312.050781 L 207.089844 312.023438 L 207.644531 311.988281 L 208.199219 311.964844 L 209.628906 311.917969 L 211.617188 311.875 L 213.683594 311.84375 L 215.191406 311.824219 L 216.542969 311.808594 L 219.640625 311.78125 L 221.625 311.765625 L 223.769531 311.753906 L 226.394531 311.742188 L 228.300781 311.734375 L 232.589844 311.722656 L 235.765625 311.714844 L 246.730469 311.714844 L 249.035156 311.71875 L 251.574219 311.726562 L 253.722656 311.734375 L 257.453125 311.75 L 260.792969 311.769531 L 262.300781 311.78125 L 264.683594 311.804688 L 266.511719 311.828125 L 267.78125 311.847656 L 269.210938 311.875 L 270.484375 311.910156 L 271.4375 311.949219 L 271.914062 311.980469 L 260.792969 311.980469 L 260.234375 311.949219 L 259.597656 311.925781 L 258.40625 311.894531 L 257.214844 311.875 L 255.546875 311.851562 L 254.039062 311.839844 L 251.972656 311.824219 L 250.144531 311.816406 L 248.238281 311.808594 L 246.414062 311.804688 L 242.917969 311.800781 L 237.355469 311.800781 L 234.257812 311.804688 L 232.589844 311.8125 L 230.207031 311.824219 L 228.539062 311.832031 L 226.550781 311.847656 L 225.203125 311.859375 L 223.53125 311.878906 L 222.339844 311.898438 L 220.992188 311.921875 L 220.195312 311.941406 L 219.480469 311.960938 L 218.847656 311.984375 L 218.371094 312.011719 L 218.050781 312.039062 L 217.890625 312.066406 L 217.890625 312.183594 L 218.050781 312.210938 L 218.449219 312.242188 L 219.480469 312.289062 L 220.992188 312.328125 L 222.738281 312.359375 L 224.40625 312.382812 L 225.359375 312.394531 L 226.632812 312.40625 L 228.617188 312.417969 L 231.476562 312.433594 L 233.144531 312.441406 L 235.6875 312.445312 L 238.308594 312.449219 L 241.804688 312.449219 L 244.902344 312.445312 L 246.96875 312.441406 L 249.113281 312.4375 L 252.050781 312.425781 L 253.878906 312.414062 L 255.46875 312.398438 L 256.660156 312.382812 L 257.453125 312.371094 L 258.644531 312.347656 L 259.597656 312.324219 L 260.3125 312.296875 L 260.792969 312.269531 L 271.914062 312.269531 L 271.4375 312.300781 L 270.722656 312.332031 L 270.007812 312.351562 L 268.894531 312.378906 L 267.621094 312.402344 L 265.796875 312.429688 L 264.285156 312.445312 L 262.300781 312.464844 L 260.472656 312.480469 L 258.488281 312.492188 L 255.546875 312.507812 L 253.640625 312.515625 L 251.574219 312.519531 L 249.113281 312.527344 L 246.015625 312.53125 L 242.679688 312.535156 L 236.242188 312.535156 L 233.78125 312.53125 L 230.523438 312.523438 L 226.472656 312.511719 L 223.53125 312.496094 L 221.230469 312.480469 L 219.242188 312.46875 L 217.019531 312.445312 L 214.160156 312.414062 L 212.410156 312.386719 L 211.21875 312.367188 L 209.867188 312.339844 L 208.914062 312.3125 L 207.804688 312.269531 L 207.007812 312.214844 L 206.769531 312.175781 Z M 206.769531 312.070312 "/>
<path style=" stroke:none;fill-rule:nonzero;fill:rgb(96.862745%,70.196078%,16.862745%);fill-opacity:1;" d="M 206.769531 185.902344 L 206.851562 185.734375 L 206.851562 182.347656 L 207.167969 174.734375 L 207.960938 164.238281 L 208.996094 155.609375 L 210.105469 148.839844 L 210.820312 145.285156 L 212.015625 140.207031 L 213.046875 136.484375 L 215.667969 128.867188 L 219.003906 121.757812 L 220.832031 118.710938 L 222.898438 115.835938 L 225.835938 112.621094 L 227.1875 111.433594 L 231.316406 108.726562 L 236.003906 107.035156 L 241.167969 106.527344 L 243.550781 106.695312 L 246.808594 107.371094 L 251.257812 109.234375 L 253.800781 110.925781 L 255.785156 112.621094 L 257.851562 114.820312 L 260.394531 118.203125 L 262.777344 122.265625 L 264.683594 126.328125 L 266.589844 131.40625 L 268.179688 136.820312 L 269.53125 142.746094 L 270.722656 149.851562 L 271.4375 155.777344 L 271.914062 161.699219 L 260.871094 161.699219 L 260.234375 155.777344 L 259.519531 151.207031 L 258.328125 145.621094 L 257.136719 141.558594 L 255.945312 138.34375 L 253.722656 133.945312 L 251.8125 131.238281 L 249.429688 128.867188 L 247.128906 127.34375 L 244.503906 126.328125 L 242.917969 125.988281 L 238.707031 125.988281 L 234.894531 127.175781 L 232.667969 128.527344 L 231.078125 129.882812 L 228.855469 132.421875 L 227.503906 134.453125 L 226.710938 135.804688 L 224.328125 141.050781 L 222.738281 145.792969 L 221.863281 149.007812 L 220.753906 154.085938 L 219.957031 158.652344 L 219.085938 165.425781 L 218.609375 170.5 L 217.972656 182.011719 L 217.890625 212.472656 L 218.132812 218.90625 L 218.609375 225.84375 L 219.242188 231.9375 L 220.195312 238.367188 L 221.148438 243.277344 L 222.816406 249.878906 L 224.246094 254.277344 L 225.359375 257.15625 L 227.503906 261.722656 L 228.378906 263.246094 L 230.445312 266.292969 L 232.589844 268.664062 L 235.210938 270.695312 L 237.195312 271.710938 L 240.375 272.554688 L 244.425781 272.554688 L 249.191406 271.539062 L 252.210938 270.1875 L 254.277344 268.832031 L 255.628906 267.648438 L 257.296875 265.785156 L 258.488281 264.09375 L 259.597656 262.230469 L 260.949219 259.355469 L 260.949219 218.90625 L 241.328125 218.734375 L 241.328125 199.78125 L 271.832031 199.613281 L 271.914062 265.785156 L 270.246094 270.355469 L 268.179688 274.757812 L 266.191406 278.140625 L 264.128906 281.019531 L 261.1875 284.234375 L 258.804688 286.265625 L 255.152344 288.632812 L 251.8125 290.15625 L 248.320312 291.171875 L 245.21875 291.679688 L 241.566406 291.851562 L 238.308594 291.511719 L 234.8125 290.496094 L 232.03125 289.140625 L 229.492188 287.449219 L 226.949219 285.25 L 223.769531 281.695312 L 221.707031 278.816406 L 219.5625 275.265625 L 217.414062 271.03125 L 215.507812 266.464844 L 214.238281 262.910156 L 212.96875 258.847656 L 211.617188 253.769531 L 210.34375 248.015625 L 209.390625 242.769531 L 208.519531 236.84375 L 207.882812 231.261719 L 207.246094 223.644531 L 206.929688 217.550781 L 206.769531 212.304688 Z M 206.769531 185.902344 "/>
<path style=" stroke:none;fill-rule:nonzero;fill:rgb(83.921569%,15.686275%,22.352941%);fill-opacity:1;" d="M 206.769531 313.714844 L 271.914062 313.714844 L 271.914062 313.785156 L 244.765625 313.785156 L 244.765625 314.371094 L 233.839844 314.371094 L 233.839844 313.785156 L 206.769531 313.785156 Z M 206.769531 313.714844 "/>
<path style=" stroke:none;fill-rule:nonzero;fill:rgb(6.27451%,58.823529%,28.235294%);fill-opacity:1;" d="M 275.339844 301.664062 L 275.410156 301.4375 L 303.597656 62.464844 L 312.15625 62.464844 L 340.484375 301.886719 L 330.53125 301.886719 L 323.433594 239.390625 L 292.324219 239.390625 L 285.363281 301.664062 L 275.339844 301.664062 L 295.316406 213.539062 L 320.578125 213.3125 L 307.980469 101.582031 L 307.84375 101.355469 L 307.703125 102.03125 L 295.246094 213.3125 L 295.316406 213.539062 Z M 275.339844 301.664062 "/>
<path style=" stroke:none;fill-rule:nonzero;fill:rgb(96.862745%,70.196078%,16.862745%);fill-opacity:1;" d="M 275.339844 307.910156 L 275.421875 307.898438 L 275.421875 307.691406 L 275.738281 307.226562 L 276.53125 306.585938 L 277.566406 306.0625 L 278.679688 305.648438 L 279.394531 305.433594 L 280.585938 305.121094 L 281.617188 304.894531 L 284.238281 304.429688 L 287.574219 303.996094 L 289.402344 303.8125 L 291.46875 303.636719 L 294.40625 303.441406 L 295.757812 303.367188 L 299.890625 303.203125 L 304.574219 303.097656 L 309.738281 303.066406 L 312.121094 303.078125 L 315.378906 303.121094 L 319.828125 303.234375 L 322.371094 303.335938 L 324.355469 303.441406 L 326.421875 303.574219 L 328.964844 303.78125 L 331.347656 304.027344 L 333.253906 304.277344 L 335.160156 304.585938 L 336.75 304.914062 L 338.101562 305.277344 L 339.292969 305.710938 L 340.007812 306.070312 L 340.484375 306.433594 L 329.441406 306.433594 L 328.804688 306.070312 L 328.089844 305.792969 L 326.898438 305.453125 L 325.707031 305.203125 L 324.515625 305.007812 L 322.292969 304.738281 L 320.386719 304.574219 L 318 304.429688 L 315.699219 304.335938 L 313.078125 304.277344 L 311.488281 304.253906 L 307.277344 304.253906 L 303.464844 304.328125 L 301.238281 304.410156 L 299.652344 304.492188 L 297.425781 304.648438 L 296.074219 304.769531 L 295.28125 304.855469 L 292.898438 305.171875 L 291.308594 305.460938 L 290.433594 305.660156 L 289.324219 305.96875 L 288.527344 306.246094 L 287.65625 306.660156 L 287.179688 306.96875 L 286.542969 307.671875 L 286.464844 309.53125 L 286.703125 309.921875 L 287.179688 310.34375 L 287.8125 310.714844 L 288.765625 311.109375 L 289.71875 311.410156 L 291.386719 311.8125 L 292.820312 312.078125 L 293.929688 312.253906 L 296.074219 312.535156 L 296.949219 312.625 L 299.015625 312.8125 L 301.160156 312.957031 L 303.78125 313.082031 L 305.765625 313.140625 L 308.945312 313.195312 L 312.996094 313.195312 L 317.761719 313.132812 L 320.78125 313.050781 L 322.847656 312.96875 L 324.199219 312.894531 L 325.867188 312.78125 L 327.058594 312.679688 L 328.171875 312.5625 L 329.519531 312.390625 L 329.519531 309.921875 L 309.898438 309.910156 L 309.898438 308.753906 L 340.402344 308.746094 L 340.484375 312.78125 L 338.816406 313.058594 L 336.75 313.328125 L 334.765625 313.535156 L 332.699219 313.710938 L 329.757812 313.90625 L 327.375 314.03125 L 323.722656 314.175781 L 320.386719 314.265625 L 316.890625 314.328125 L 313.792969 314.359375 L 310.136719 314.371094 L 306.878906 314.351562 L 303.382812 314.289062 L 300.605469 314.207031 L 298.0625 314.101562 L 295.519531 313.96875 L 292.34375 313.75 L 290.277344 313.574219 L 288.132812 313.359375 L 285.988281 313.101562 L 284.078125 312.824219 L 282.808594 312.605469 L 281.539062 312.359375 L 280.1875 312.046875 L 278.917969 311.695312 L 277.964844 311.378906 L 277.089844 311.015625 L 276.453125 310.675781 L 275.816406 310.210938 L 275.5 309.839844 L 275.339844 309.519531 Z M 275.339844 307.910156 "/>
<path style=" stroke:none;fill-rule:nonzero;fill:rgb(6.27451%,58.823529%,28.235294%);fill-opacity:1;" d="M 343.914062 314.371094 L 343.980469 314.371094 L 372.167969 313.804688 L 380.730469 313.804688 L 409.054688 314.371094 L 399.101562 314.371094 L 392.003906 314.222656 L 360.894531 314.222656 L 353.933594 314.371094 L 343.914062 314.371094 L 363.886719 314.160156 L 389.148438 314.160156 L 376.554688 313.898438 L 376.273438 313.898438 L 363.816406 314.160156 L 363.886719 314.160156 Z M 343.914062 314.371094 "/>
<path style=" stroke:none;fill-rule:nonzero;fill:rgb(14.509804%,36.078431%,60%);fill-opacity:1;" d="M 343.914062 166.75 L 343.992188 166.527344 L 343.992188 161.203125 L 344.230469 152.769531 L 344.785156 142.117188 L 345.34375 134.792969 L 346.773438 121.703125 L 348.757812 109.050781 L 350.824219 99.289062 L 352.332031 93.519531 L 353.683594 89.078125 L 356.78125 80.867188 L 358.769531 76.652344 L 360.914062 72.878906 L 363.535156 69.105469 L 365.441406 66.886719 L 369.730469 63.335938 L 372.910156 61.785156 L 375.371094 61.117188 L 380.695312 61.117188 L 383.871094 62.003906 L 386.175781 63.113281 L 388.71875 64.890625 L 390.863281 66.886719 L 394.597656 71.769531 L 397.933594 77.984375 L 399.441406 81.535156 L 401.824219 88.414062 L 403.652344 95.070312 L 404.921875 100.839844 L 406.351562 109.050781 L 407.625 119.039062 L 408.578125 130.355469 L 409.054688 139.898438 L 397.933594 139.898438 L 397.375 131.023438 L 396.742188 124.140625 L 395.550781 115.042969 L 394.359375 108.609375 L 392.6875 102.171875 L 391.179688 97.957031 L 389.113281 93.738281 L 387.289062 91.078125 L 385.378906 89.078125 L 383.554688 87.746094 L 380.058594 86.417969 L 376.007812 86.417969 L 374.496094 86.859375 L 371.398438 88.636719 L 369.730469 90.1875 L 367.347656 93.296875 L 365.679688 96.179688 L 363.691406 100.617188 L 362.34375 104.390625 L 360.675781 110.160156 L 359.484375 115.265625 L 358.132812 122.589844 L 357.335938 128.136719 L 356.621094 134.351562 L 355.988281 141.675781 L 355.511719 149.441406 L 355.191406 157.652344 L 355.035156 165.640625 L 355.035156 200.039062 L 355.191406 208.027344 L 355.589844 217.347656 L 356.621094 230.886719 L 358.132812 242.648438 L 359.878906 251.96875 L 361.546875 258.625 L 362.5 261.730469 L 363.773438 265.28125 L 365.757812 269.722656 L 368.617188 274.160156 L 370.285156 275.933594 L 372.828125 277.710938 L 375.449219 278.597656 L 378.945312 278.597656 L 382.042969 277.710938 L 384.109375 276.601562 L 386.253906 274.824219 L 389.195312 271.050781 L 391.019531 267.5 L 392.609375 263.285156 L 393.800781 259.070312 L 394.597656 255.519531 L 395.789062 248.640625 L 396.742188 241.09375 L 397.457031 233.328125 L 397.933594 225.78125 L 409.054688 225.78125 L 408.578125 234.65625 L 407.863281 243.3125 L 407.148438 249.75 L 406.035156 257.515625 L 404.765625 264.394531 L 402.9375 272.164062 L 401.429688 277.265625 L 399.441406 282.8125 L 397.613281 287.03125 L 395.628906 290.804688 L 392.6875 295.242188 L 390.78125 297.460938 L 388.71875 299.457031 L 386.253906 301.234375 L 383.15625 302.785156 L 379.820312 303.675781 L 376.722656 303.898438 L 373.386719 303.453125 L 370.921875 302.566406 L 367.664062 300.566406 L 363.613281 296.574219 L 360.675781 292.355469 L 358.371094 288.140625 L 356.382812 283.703125 L 354.160156 277.710938 L 351.300781 267.945312 L 349.550781 260.402344 L 348.359375 254.1875 L 347.011719 245.53125 L 346.058594 237.765625 L 344.945312 225.335938 L 344.152344 209.582031 L 343.914062 197.375 Z M 343.914062 166.75 "/>
<path style=" stroke:none;fill-rule:nonzero;fill:rgb(83.921569%,15.686275%,22.352941%);fill-opacity:1;" d="M 343.914062 305.074219 L 409.054688 305.074219 L 409.054688 305.882812 L 381.90625 305.890625 L 381.90625 312.625 L 370.980469 312.625 L 370.980469 305.898438 L 370.824219 305.882812 L 343.914062 305.882812 Z M 343.914062 305.074219 "/>
<path style=" stroke:none;fill-rule:nonzero;fill:rgb(14.509804%,36.078431%,60%);fill-opacity:1;" d="M 412.484375 305.660156 L 412.5625 305.644531 L 412.5625 305.347656 L 412.800781 304.871094 L 413.355469 304.273438 L 413.914062 303.863281 L 415.34375 303.125 L 417.328125 302.414062 L 419.394531 301.867188 L 420.902344 301.542969 L 422.253906 301.292969 L 425.351562 300.832031 L 427.339844 300.59375 L 429.484375 300.382812 L 432.105469 300.167969 L 434.011719 300.042969 L 438.300781 299.84375 L 441.480469 299.757812 L 443.941406 299.71875 L 449.265625 299.71875 L 452.441406 299.769531 L 454.746094 299.832031 L 457.289062 299.933594 L 459.433594 300.042969 L 463.167969 300.320312 L 466.503906 300.667969 L 468.011719 300.867188 L 470.394531 301.253906 L 472.222656 301.628906 L 473.492188 301.953125 L 474.925781 302.414062 L 476.195312 302.976562 L 477.148438 303.613281 L 477.625 304.148438 L 466.503906 304.148438 L 465.945312 303.648438 L 465.3125 303.261719 L 464.121094 302.753906 L 462.929688 302.390625 L 461.261719 302.027344 L 459.75 301.792969 L 457.683594 301.554688 L 455.859375 301.40625 L 453.953125 301.292969 L 452.125 301.21875 L 448.628906 301.144531 L 444.578125 301.144531 L 443.066406 301.167969 L 439.96875 301.265625 L 438.300781 301.355469 L 435.917969 301.53125 L 434.25 301.691406 L 432.265625 301.941406 L 430.914062 302.152344 L 429.246094 302.476562 L 428.054688 302.765625 L 426.703125 303.175781 L 425.910156 303.488281 L 425.195312 303.835938 L 424.558594 304.25 L 424.082031 304.6875 L 423.761719 305.148438 L 423.605469 305.597656 L 423.605469 307.53125 L 423.761719 307.980469 L 424.160156 308.503906 L 425.195312 309.265625 L 426.703125 309.925781 L 428.449219 310.449219 L 430.117188 310.824219 L 431.070312 311 L 432.34375 311.199219 L 434.328125 311.449219 L 437.1875 311.695312 L 438.859375 311.796875 L 441.398438 311.898438 L 444.019531 311.945312 L 447.515625 311.945312 L 450.613281 311.898438 L 452.679688 311.835938 L 454.824219 311.734375 L 457.765625 311.523438 L 459.589844 311.324219 L 461.179688 311.085938 L 462.371094 310.847656 L 463.167969 310.648438 L 464.359375 310.261719 L 465.3125 309.839844 L 466.027344 309.402344 L 466.503906 308.976562 L 477.625 308.976562 L 477.148438 309.476562 L 476.433594 309.964844 L 475.71875 310.324219 L 474.605469 310.761719 L 473.335938 311.148438 L 471.507812 311.585938 L 470 311.871094 L 468.011719 312.183594 L 466.183594 312.421875 L 464.199219 312.632812 L 461.261719 312.882812 L 459.351562 313.007812 L 457.289062 313.121094 L 454.824219 313.21875 L 451.726562 313.304688 L 448.390625 313.355469 L 445.292969 313.367188 L 441.957031 313.34375 L 439.492188 313.292969 L 436.234375 313.179688 L 432.183594 312.957031 L 429.246094 312.71875 L 426.941406 312.484375 L 424.957031 312.234375 L 422.730469 311.898438 L 419.871094 311.347656 L 418.125 310.921875 L 416.929688 310.574219 L 415.582031 310.085938 L 414.628906 309.652344 L 413.515625 308.953125 L 412.722656 308.066406 L 412.484375 307.378906 Z M 412.484375 305.660156 "/>
<path style=" stroke:none;fill-rule:nonzero;fill:rgb(83.921569%,15.686275%,22.352941%);fill-opacity:1;" d="M 412.484375 75.699219 L 477.625 75.699219 L 477.625 99.554688 L 450.476562 99.761719 L 450.476562 298.539062 L 439.554688 298.539062 L 439.554688 99.972656 L 439.394531 99.554688 L 412.484375 99.554688 Z M 412.484375 75.699219 "/>
<path style=" stroke:none;fill-rule:nonzero;fill:rgb(6.27451%,58.823529%,28.235294%);fill-opacity:1;" d="M 481.054688 314.195312 L 481.125 314.191406 L 509.308594 312.050781 L 517.871094 312.050781 L 546.195312 314.195312 L 536.242188 314.195312 L 529.144531 313.636719 L 498.035156 313.636719 L 491.074219 314.195312 L 481.054688 314.195312 L 501.027344 313.402344 L 526.292969 313.402344 L 513.695312 312.402344 L 513.554688 312.398438 L 513.414062 312.40625 L 500.957031 313.402344 L 501.027344 313.402344 Z M 481.054688 314.195312 "/>
<path style=" stroke:none;fill-rule:nonzero;fill:rgb(14.509804%,36.078431%,60%);fill-opacity:1;" d="M 481.054688 301.550781 L 481.132812 301.535156 L 481.132812 301.175781 L 481.371094 300.601562 L 481.925781 299.878906 L 482.484375 299.378906 L 483.914062 298.488281 L 485.898438 297.628906 L 487.964844 296.96875 L 489.472656 296.574219 L 490.824219 296.273438 L 493.921875 295.714844 L 495.910156 295.429688 L 498.054688 295.171875 L 500.675781 294.917969 L 502.582031 294.765625 L 506.871094 294.523438 L 510.050781 294.417969 L 512.511719 294.375 L 517.835938 294.375 L 521.011719 294.433594 L 523.316406 294.507812 L 525.859375 294.628906 L 528.003906 294.765625 L 531.738281 295.097656 L 535.074219 295.519531 L 536.582031 295.761719 L 538.964844 296.226562 L 540.792969 296.679688 L 542.066406 297.074219 L 543.496094 297.628906 L 544.765625 298.308594 L 545.71875 299.078125 L 546.195312 299.726562 L 535.074219 299.726562 L 534.519531 299.125 L 533.882812 298.65625 L 532.691406 298.039062 L 531.5 297.601562 L 529.832031 297.164062 L 528.320312 296.875 L 526.253906 296.589844 L 524.429688 296.410156 L 522.523438 296.273438 L 520.695312 296.183594 L 517.199219 296.09375 L 513.148438 296.09375 L 511.636719 296.121094 L 508.539062 296.242188 L 506.871094 296.347656 L 504.488281 296.558594 L 502.820312 296.757812 L 500.835938 297.058594 L 499.484375 297.3125 L 497.816406 297.707031 L 496.625 298.054688 L 495.273438 298.550781 L 494.480469 298.925781 L 493.765625 299.351562 L 493.128906 299.847656 L 492.652344 300.375 L 492.335938 300.933594 L 492.175781 301.476562 L 492.175781 303.8125 L 492.335938 304.355469 L 492.730469 304.988281 L 493.765625 305.910156 L 495.273438 306.707031 L 497.019531 307.34375 L 498.691406 307.792969 L 499.644531 308.003906 L 500.914062 308.246094 L 502.898438 308.546875 L 505.761719 308.851562 L 507.429688 308.96875 L 509.96875 309.089844 L 512.59375 309.152344 L 516.085938 309.152344 L 519.183594 309.089844 L 521.25 309.015625 L 523.394531 308.894531 L 526.335938 308.636719 L 528.164062 308.398438 L 529.75 308.109375 L 530.941406 307.824219 L 531.738281 307.582031 L 532.929688 307.117188 L 533.882812 306.601562 L 534.597656 306.074219 L 535.074219 305.5625 L 546.195312 305.5625 L 545.71875 306.164062 L 545.003906 306.753906 L 544.289062 307.191406 L 543.175781 307.71875 L 541.90625 308.1875 L 540.078125 308.714844 L 538.570312 309.0625 L 536.582031 309.4375 L 534.757812 309.722656 L 532.769531 309.980469 L 529.832031 310.28125 L 527.925781 310.433594 L 525.859375 310.570312 L 523.394531 310.6875 L 520.296875 310.796875 L 516.960938 310.855469 L 513.863281 310.871094 L 510.527344 310.839844 L 508.0625 310.78125 L 504.804688 310.644531 L 500.753906 310.371094 L 497.816406 310.085938 L 495.511719 309.800781 L 493.527344 309.5 L 491.300781 309.089844 L 488.441406 308.425781 L 486.695312 307.914062 L 485.503906 307.492188 L 484.152344 306.90625 L 483.199219 306.375 L 482.085938 305.53125 L 481.292969 304.460938 L 481.054688 303.632812 Z M 481.054688 301.550781 "/>
<path style=" stroke:none;fill-rule:nonzero;fill:rgb(83.921569%,15.686275%,22.352941%);fill-opacity:1;" d="M 481.054688 98.707031 L 546.195312 98.707031 L 546.195312 119.527344 L 519.046875 119.710938 L 519.046875 293.195312 L 508.125 293.195312 L 508.125 119.890625 L 507.964844 119.527344 L 481.054688 119.527344 Z M 481.054688 98.707031 "/>
<path style=" stroke:none;fill-rule:nonzero;fill:rgb(6.27451%,58.823529%,28.235294%);fill-opacity:1;" d="M 549.625 311.769531 L 549.695312 311.761719 L 577.878906 302.21875 L 586.441406 302.21875 L 614.765625 311.78125 L 604.8125 311.78125 L 597.714844 309.285156 L 566.605469 309.285156 L 559.644531 311.769531 L 549.625 311.769531 L 569.597656 308.25 L 594.863281 308.242188 L 582.265625 303.78125 L 582.125 303.773438 L 581.988281 303.796875 L 569.527344 308.242188 L 569.597656 308.25 Z M 549.625 311.769531 "/>
<path style=" stroke:none;fill-rule:nonzero;fill:rgb(14.509804%,36.078431%,60%);fill-opacity:1;" d="M 549.625 294.339844 L 549.703125 294.328125 L 549.703125 294.066406 L 549.941406 293.65625 L 550.496094 293.136719 L 551.054688 292.777344 L 552.484375 292.136719 L 554.46875 291.519531 L 556.535156 291.042969 L 558.046875 290.761719 L 559.394531 290.542969 L 562.492188 290.144531 L 564.480469 289.9375 L 566.625 289.753906 L 569.246094 289.566406 L 571.152344 289.460938 L 575.441406 289.285156 L 578.621094 289.210938 L 581.082031 289.179688 L 586.40625 289.179688 L 589.582031 289.222656 L 591.886719 289.277344 L 594.429688 289.363281 L 596.574219 289.460938 L 600.308594 289.699219 L 603.644531 290 L 605.152344 290.175781 L 607.539062 290.511719 L 609.363281 290.835938 L 610.636719 291.117188 L 612.066406 291.519531 L 613.335938 292.007812 L 614.289062 292.5625 L 614.765625 293.027344 L 603.644531 293.027344 L 603.089844 292.59375 L 602.453125 292.257812 L 601.261719 291.8125 L 600.070312 291.5 L 598.402344 291.183594 L 596.890625 290.976562 L 594.828125 290.773438 L 593 290.640625 L 591.09375 290.542969 L 589.265625 290.480469 L 585.769531 290.414062 L 581.71875 290.414062 L 580.210938 290.4375 L 577.109375 290.523438 L 575.441406 290.597656 L 573.058594 290.75 L 571.390625 290.890625 L 569.40625 291.109375 L 568.054688 291.292969 L 566.386719 291.574219 L 565.195312 291.824219 L 563.84375 292.179688 L 563.050781 292.453125 L 562.335938 292.753906 L 561.699219 293.113281 L 561.222656 293.492188 L 560.90625 293.894531 L 560.746094 294.285156 L 560.746094 295.964844 L 560.90625 296.355469 L 561.300781 296.8125 L 562.335938 297.472656 L 563.84375 298.046875 L 565.59375 298.503906 L 567.261719 298.828125 L 568.214844 298.980469 L 569.484375 299.152344 L 571.46875 299.371094 L 574.332031 299.585938 L 576 299.671875 L 578.539062 299.757812 L 581.164062 299.804688 L 584.65625 299.804688 L 587.757812 299.757812 L 589.820312 299.707031 L 591.964844 299.617188 L 594.90625 299.433594 L 596.734375 299.261719 L 598.320312 299.054688 L 599.511719 298.847656 L 600.308594 298.675781 L 601.5 298.339844 L 602.453125 297.96875 L 603.167969 297.589844 L 603.644531 297.222656 L 614.765625 297.222656 L 614.289062 297.65625 L 613.574219 298.078125 L 612.859375 298.394531 L 611.746094 298.773438 L 610.476562 299.109375 L 608.648438 299.488281 L 607.140625 299.738281 L 605.152344 300.007812 L 603.328125 300.214844 L 601.339844 300.398438 L 598.402344 300.617188 L 596.496094 300.722656 L 594.429688 300.820312 L 591.964844 300.910156 L 588.867188 300.984375 L 585.53125 301.027344 L 582.433594 301.039062 L 579.097656 301.015625 L 576.632812 300.972656 L 573.378906 300.875 L 569.324219 300.679688 L 566.386719 300.476562 L 564.082031 300.269531 L 562.097656 300.050781 L 559.871094 299.757812 L 557.011719 299.28125 L 555.265625 298.914062 L 554.074219 298.609375 L 552.722656 298.1875 L 551.769531 297.808594 L 550.65625 297.199219 L 549.863281 296.429688 L 549.625 295.835938 Z M 549.625 294.339844 "/>
<path style=" stroke:none;fill-rule:nonzero;fill:rgb(96.862745%,70.196078%,16.862745%);fill-opacity:1;" d="M 549.625 313.5625 L 549.703125 313.5625 L 549.703125 313.535156 L 550.019531 313.480469 L 550.816406 313.398438 L 551.847656 313.332031 L 552.960938 313.28125 L 553.675781 313.253906 L 554.867188 313.214844 L 555.898438 313.1875 L 558.523438 313.128906 L 561.859375 313.074219 L 563.683594 313.050781 L 565.75 313.03125 L 568.691406 313.007812 L 570.039062 312.996094 L 574.171875 312.976562 L 578.859375 312.964844 L 584.023438 312.960938 L 586.40625 312.960938 L 589.664062 312.964844 L 594.113281 312.980469 L 596.652344 312.992188 L 598.640625 313.007812 L 600.707031 313.023438 L 603.246094 313.046875 L 605.628906 313.078125 L 607.539062 313.109375 L 609.445312 313.148438 L 611.03125 313.191406 L 612.382812 313.234375 L 613.574219 313.289062 L 614.289062 313.335938 L 614.765625 313.378906 L 603.722656 313.378906 L 603.089844 313.335938 L 602.375 313.300781 L 601.183594 313.257812 L 599.988281 313.226562 L 598.796875 313.203125 L 596.574219 313.167969 L 594.667969 313.148438 L 592.285156 313.128906 L 589.980469 313.117188 L 587.359375 313.109375 L 581.558594 313.109375 L 577.746094 313.117188 L 575.523438 313.128906 L 573.933594 313.136719 L 571.707031 313.15625 L 570.359375 313.171875 L 569.5625 313.183594 L 567.179688 313.222656 L 565.59375 313.257812 L 564.71875 313.28125 L 563.605469 313.320312 L 562.8125 313.355469 L 561.9375 313.40625 L 561.460938 313.445312 L 560.824219 313.535156 L 560.746094 313.765625 L 560.984375 313.816406 L 561.460938 313.867188 L 562.097656 313.914062 L 563.050781 313.964844 L 564.003906 314 L 565.671875 314.050781 L 567.101562 314.085938 L 568.214844 314.105469 L 570.359375 314.140625 L 571.230469 314.152344 L 573.296875 314.175781 L 575.441406 314.195312 L 578.0625 314.210938 L 580.050781 314.21875 L 583.226562 314.222656 L 587.28125 314.222656 L 592.046875 314.214844 L 595.066406 314.207031 L 597.128906 314.195312 L 598.480469 314.1875 L 600.148438 314.171875 L 601.339844 314.160156 L 602.453125 314.144531 L 603.804688 314.125 L 603.804688 313.816406 L 584.179688 313.8125 L 584.179688 313.667969 L 614.6875 313.667969 L 614.765625 314.171875 L 613.097656 314.207031 L 611.03125 314.242188 L 609.046875 314.265625 L 606.980469 314.289062 L 604.042969 314.3125 L 601.660156 314.328125 L 598.003906 314.347656 L 594.667969 314.359375 L 591.171875 314.367188 L 588.074219 314.371094 L 584.417969 314.371094 L 581.164062 314.367188 L 577.667969 314.359375 L 574.886719 314.351562 L 569.800781 314.320312 L 566.625 314.292969 L 564.558594 314.269531 L 562.414062 314.246094 L 560.269531 314.210938 L 558.363281 314.175781 L 557.089844 314.148438 L 555.820312 314.121094 L 554.46875 314.082031 L 553.199219 314.035156 L 552.246094 313.996094 L 551.371094 313.953125 L 550.738281 313.910156 L 550.101562 313.851562 L 549.78125 313.804688 L 549.625 313.765625 Z M 549.625 313.5625 "/>
<path style=" stroke:none;fill-rule:nonzero;fill:rgb(83.921569%,15.686275%,22.352941%);fill-opacity:1;" d="M 549.625 256.632812 L 614.765625 256.632812 L 614.765625 259.992188 L 587.617188 260.019531 L 587.617188 288 L 576.695312 288 L 576.695312 260.050781 L 576.535156 259.992188 L 549.625 259.992188 Z M 549.625 256.632812 "/>
<path style=" stroke:none;fill-rule:nonzero;fill:rgb(6.27451%,58.823529%,28.235294%);fill-opacity:1;" d="M 618.195312 302.296875 L 618.265625 302.289062 L 646.449219 292.367188 L 655.011719 292.367188 L 683.335938 302.308594 L 673.382812 302.308594 L 666.285156 299.710938 L 635.175781 299.710938 L 628.214844 302.296875 L 618.195312 302.296875 L 638.167969 298.640625 L 663.433594 298.628906 L 650.835938 293.992188 L 650.695312 293.980469 L 650.558594 294.007812 L 638.097656 298.628906 L 638.167969 298.640625 Z M 618.195312 302.296875 "/>
<path style=" stroke:none;fill-rule:nonzero;fill:rgb(14.509804%,36.078431%,60%);fill-opacity:1;" d="M 618.195312 312.042969 L 618.273438 312.042969 L 618.273438 311.949219 L 618.511719 311.808594 L 619.070312 311.628906 L 619.625 311.503906 L 621.054688 311.28125 L 623.039062 311.066406 L 625.105469 310.902344 L 626.617188 310.804688 L 627.964844 310.726562 L 631.0625 310.589844 L 633.050781 310.515625 L 635.195312 310.453125 L 637.816406 310.390625 L 639.722656 310.351562 L 644.011719 310.292969 L 647.191406 310.265625 L 649.652344 310.253906 L 654.976562 310.253906 L 658.152344 310.269531 L 660.457031 310.289062 L 663 310.316406 L 665.144531 310.351562 L 668.878906 310.433594 L 672.214844 310.539062 L 673.722656 310.601562 L 676.109375 310.714844 L 677.933594 310.828125 L 679.207031 310.925781 L 680.636719 311.066406 L 681.90625 311.234375 L 682.859375 311.425781 L 683.335938 311.589844 L 672.214844 311.589844 L 671.660156 311.4375 L 671.023438 311.320312 L 669.832031 311.167969 L 668.640625 311.058594 L 666.972656 310.949219 L 665.460938 310.878906 L 663.398438 310.808594 L 661.570312 310.761719 L 659.664062 310.726562 L 657.835938 310.703125 L 654.339844 310.683594 L 650.289062 310.683594 L 648.78125 310.691406 L 645.683594 310.71875 L 644.011719 310.746094 L 641.628906 310.800781 L 639.960938 310.847656 L 637.976562 310.921875 L 636.625 310.988281 L 634.957031 311.085938 L 633.765625 311.171875 L 632.414062 311.296875 L 631.621094 311.390625 L 630.90625 311.496094 L 630.269531 311.621094 L 629.792969 311.75 L 629.476562 311.890625 L 629.316406 312.027344 L 629.316406 312.609375 L 629.476562 312.746094 L 629.871094 312.902344 L 630.90625 313.132812 L 632.414062 313.332031 L 634.164062 313.488281 L 635.832031 313.601562 L 636.785156 313.65625 L 638.054688 313.714844 L 640.042969 313.792969 L 642.902344 313.867188 L 644.570312 313.894531 L 647.113281 313.925781 L 649.734375 313.941406 L 653.230469 313.941406 L 656.328125 313.925781 L 658.390625 313.90625 L 660.539062 313.878906 L 663.476562 313.8125 L 665.304688 313.753906 L 666.894531 313.683594 L 668.085938 313.609375 L 668.878906 313.550781 L 670.070312 313.433594 L 671.023438 313.304688 L 671.738281 313.175781 L 672.214844 313.046875 L 683.335938 313.046875 L 682.859375 313.195312 L 682.144531 313.34375 L 681.429688 313.453125 L 680.316406 313.585938 L 679.046875 313.699219 L 677.21875 313.832031 L 675.710938 313.917969 L 673.722656 314.011719 L 671.898438 314.085938 L 669.910156 314.148438 L 666.972656 314.222656 L 665.066406 314.261719 L 663 314.296875 L 660.539062 314.324219 L 657.4375 314.351562 L 654.101562 314.367188 L 651.003906 314.371094 L 647.667969 314.363281 L 645.203125 314.347656 L 641.949219 314.3125 L 637.894531 314.246094 L 634.957031 314.175781 L 632.652344 314.101562 L 630.667969 314.027344 L 628.441406 313.925781 L 625.582031 313.761719 L 623.835938 313.632812 L 622.644531 313.527344 L 621.292969 313.382812 L 620.339844 313.25 L 619.226562 313.039062 L 618.433594 312.769531 L 618.195312 312.5625 Z M 618.195312 312.042969 "/>
<path style=" stroke:none;fill-rule:nonzero;fill:rgb(96.862745%,70.196078%,16.862745%);fill-opacity:1;" d="M 618.195312 305.878906 L 618.273438 305.875 L 618.273438 305.773438 L 618.59375 305.542969 L 619.386719 305.226562 L 620.417969 304.964844 L 621.53125 304.761719 L 622.246094 304.65625 L 623.4375 304.503906 L 624.472656 304.390625 L 627.09375 304.160156 L 630.429688 303.945312 L 632.257812 303.855469 L 634.320312 303.765625 L 637.261719 303.671875 L 638.613281 303.636719 L 642.742188 303.554688 L 647.429688 303.503906 L 652.59375 303.488281 L 654.976562 303.492188 L 658.234375 303.511719 L 662.683594 303.570312 L 665.222656 303.621094 L 667.210938 303.671875 L 669.277344 303.738281 L 671.816406 303.839844 L 674.203125 303.960938 L 676.109375 304.082031 L 678.015625 304.238281 L 679.601562 304.398438 L 680.953125 304.578125 L 682.144531 304.792969 L 682.859375 304.972656 L 683.335938 305.148438 L 672.292969 305.148438 L 671.660156 304.972656 L 670.945312 304.832031 L 669.753906 304.664062 L 668.5625 304.542969 L 667.371094 304.445312 L 665.144531 304.3125 L 663.238281 304.230469 L 660.855469 304.160156 L 658.550781 304.113281 L 655.929688 304.082031 L 654.339844 304.074219 L 650.128906 304.074219 L 646.316406 304.109375 L 644.09375 304.148438 L 642.503906 304.191406 L 640.28125 304.265625 L 638.929688 304.328125 L 638.132812 304.371094 L 635.75 304.527344 L 634.164062 304.671875 L 633.289062 304.765625 L 632.175781 304.921875 L 631.382812 305.058594 L 630.507812 305.261719 L 630.03125 305.414062 L 629.394531 305.761719 L 629.316406 306.679688 L 629.554688 306.875 L 630.03125 307.082031 L 630.667969 307.269531 L 631.621094 307.460938 L 632.574219 307.609375 L 634.242188 307.808594 L 635.671875 307.941406 L 636.785156 308.027344 L 638.929688 308.164062 L 639.804688 308.210938 L 641.867188 308.304688 L 644.011719 308.375 L 646.636719 308.4375 L 648.621094 308.464844 L 651.796875 308.492188 L 655.851562 308.492188 L 660.617188 308.460938 L 663.636719 308.421875 L 665.699219 308.378906 L 667.050781 308.34375 L 668.71875 308.289062 L 669.910156 308.238281 L 671.023438 308.179688 L 672.375 308.09375 L 672.375 306.875 L 652.753906 306.871094 L 652.753906 306.296875 L 683.257812 306.292969 L 683.335938 308.289062 L 681.667969 308.425781 L 679.601562 308.558594 L 677.617188 308.660156 L 675.550781 308.746094 L 672.613281 308.84375 L 670.230469 308.90625 L 666.574219 308.976562 L 663.238281 309.023438 L 659.742188 309.054688 L 656.644531 309.070312 L 652.992188 309.074219 L 649.734375 309.0625 L 646.238281 309.03125 L 643.457031 308.992188 L 640.914062 308.941406 L 638.375 308.875 L 635.195312 308.769531 L 633.128906 308.679688 L 630.984375 308.574219 L 628.839844 308.445312 L 626.933594 308.308594 L 625.664062 308.203125 L 624.390625 308.078125 L 623.039062 307.925781 L 621.769531 307.753906 L 620.816406 307.59375 L 619.941406 307.414062 L 619.308594 307.246094 L 618.671875 307.019531 L 618.355469 306.832031 L 618.195312 306.675781 Z M 618.195312 305.878906 "/>
<path style=" stroke:none;fill-rule:nonzero;fill:rgb(83.921569%,15.686275%,22.352941%);fill-opacity:1;" d="M 618.195312 261.363281 L 683.335938 261.363281 L 683.335938 264.554688 L 656.1875 264.582031 L 656.1875 291.1875 L 645.265625 291.1875 L 645.265625 264.609375 L 645.105469 264.554688 L 618.195312 264.554688 Z M 618.195312 261.363281 "/>
<g style="fill:rgb(0%,0%,0%);fill-opacity:1;">
  <use xlink:href="#glyph0-1" x="21.957031" y="318.198242"/>
  <use xlink:href="#glyph0-2" x="27.291016" y="318.198242"/>
  <use xlink:href="#glyph0-1" x="29.958008" y="318.198242"/>
</g>
<g style="fill:rgb(0%,0%,0%);fill-opacity:1;">
  <use xlink:href="#glyph0-1" x="21.957031" y="244.475586"/>
  <use xlink:href="#glyph0-2" x="27.291016" y="244.475586"/>
  <use xlink:href="#glyph0-3" x="29.958008" y="244.475586"/>
</g>
<g style="fill:rgb(0%,0%,0%);fill-opacity:1;">
  <use xlink:href="#glyph0-4" x="21.957031" y="170.75293"/>
  <use xlink:href="#glyph0-2" x="27.291016" y="170.75293"/>
  <use xlink:href="#glyph0-1" x="29.958008" y="170.75293"/>
</g>
<g style="fill:rgb(0%,0%,0%);fill-opacity:1;">
  <use xlink:href="#glyph0-4" x="21.957031" y="97.03418"/>
  <use xlink:href="#glyph0-2" x="27.291016" y="97.03418"/>
  <use xlink:href="#glyph0-3" x="29.958008" y="97.03418"/>
</g>
<g style="fill:rgb(0%,0%,0%);fill-opacity:1;">
  <use xlink:href="#glyph0-5" x="21.957031" y="23.311523"/>
  <use xlink:href="#glyph0-2" x="27.291016" y="23.311523"/>
  <use xlink:href="#glyph0-1" x="29.958008" y="23.311523"/>
</g>
<g style="fill:rgb(0%,0%,0%);fill-opacity:1;">
  <use xlink:href="#glyph0-4" x="99.199219" y="338.19043"/>
</g>
<g style="fill:rgb(0%,0%,0%);fill-opacity:1;">
  <use xlink:href="#glyph0-5" x="167.769531" y="338.19043"/>
</g>
<g style="fill:rgb(0%,0%,0%);fill-opacity:1;">
  <use xlink:href="#glyph0-6" x="236.34375" y="338.19043"/>
</g>
<g style="fill:rgb(0%,0%,0%);fill-opacity:1;">
  <use xlink:href="#glyph0-7" x="304.914062" y="338.19043"/>
</g>
<g style="fill:rgb(0%,0%,0%);fill-opacity:1;">
  <use xlink:href="#glyph0-3" x="373.484375" y="338.19043"/>
</g>
<g style="fill:rgb(0%,0%,0%);fill-opacity:1;">
  <use xlink:href="#glyph0-8" x="442.054688" y="338.19043"/>
</g>
<g style="fill:rgb(0%,0%,0%);fill-opacity:1;">
  <use xlink:href="#glyph0-9" x="510.625" y="338.19043"/>
</g>
<g style="fill:rgb(0%,0%,0%);fill-opacity:1;">
  <use xlink:href="#glyph0-10" x="579.195312" y="338.19043"/>
</g>
<g style="fill:rgb(0%,0%,0%);fill-opacity:1;">
  <use xlink:href="#glyph0-11" x="647.765625" y="338.19043"/>
</g>
<g style="fill:rgb(0%,0%,0%);fill-opacity:1;">
  <use xlink:href="#glyph1-1" x="14.412109" y="178.015625"/>
  <use xlink:href="#glyph1-2" x="14.412109" y="170.011719"/>
  <use xlink:href="#glyph1-3" x="14.412109" y="167.347656"/>
  <use xlink:href="#glyph1-4" x="14.412109" y="164.011719"/>
</g>
</g>
</svg>
