<?xml version="1.0" encoding="UTF-8"?>
<svg xmlns="http://www.w3.org/2000/svg" xmlns:xlink="http://www.w3.org/1999/xlink" width="720pt" height="360pt" viewBox="0 0 720 360" version="1.1">
<defs>
<g>
<symbol overflow="visible" id="glyph0-0">
<path style="stroke:none;" d=""/>
</symbol>
<symbol overflow="visible" id="glyph0-1">
<path style="stroke:none;" d="M 2.640625 -6.796875 C 2 -6.796875 1.421875 -6.53125 1.078125 -6.046875 C 0.640625 -5.453125 0.40625 -4.546875 0.40625 -3.296875 C 0.40625 -1 1.1875 0.21875 2.640625 0.21875 C 4.078125 0.21875 4.859375 -1 4.859375 -3.234375 C 4.859375 -4.5625 4.65625 -5.4375 4.203125 -6.046875 C 3.84375 -6.53125 3.28125 -6.796875 2.640625 -6.796875 Z M 2.640625 -6.046875 C 3.546875 -6.046875 4 -5.125 4 -3.3125 C 4 -1.375 3.5625 -0.484375 2.625 -0.484375 C 1.734375 -0.484375 1.28125 -1.421875 1.28125 -3.28125 C 1.28125 -5.140625 1.734375 -6.046875 2.640625 -6.046875 Z M 2.640625 -6.046875 "/>
</symbol>
<symbol overflow="visible" id="glyph0-2">
<path style="stroke:none;" d="M 1.828125 -1 L 0.828125 -1 L 0.828125 0 L 1.828125 0 Z M 1.828125 -1 "/>
</symbol>
<symbol overflow="visible" id="glyph0-3">
<path style="stroke:none;" d="M 4.5625 -6.796875 L 1.0625 -6.796875 L 0.546875 -3.09375 L 1.328125 -3.09375 C 1.71875 -3.5625 2.046875 -3.734375 2.578125 -3.734375 C 3.484375 -3.734375 4.0625 -3.109375 4.0625 -2.09375 C 4.0625 -1.125 3.484375 -0.53125 2.578125 -0.53125 C 1.828125 -0.53125 1.375 -0.90625 1.1875 -1.671875 L 0.328125 -1.671875 C 0.453125 -1.109375 0.546875 -0.84375 0.75 -0.59375 C 1.125 -0.078125 1.828125 0.21875 2.59375 0.21875 C 3.96875 0.21875 4.921875 -0.78125 4.921875 -2.21875 C 4.921875 -3.5625 4.03125 -4.484375 2.71875 -4.484375 C 2.25 -4.484375 1.859375 -4.359375 1.46875 -4.0625 L 1.734375 -5.96875 L 4.5625 -5.96875 Z M 4.5625 -6.796875 "/>
</symbol>
<symbol overflow="visible" id="glyph0-4">
<path style="stroke:none;" d="M 2.484375 -4.84375 L 2.484375 0 L 3.328125 0 L 3.328125 -6.796875 L 2.765625 -6.796875 C 2.46875 -5.75 2.28125 -5.609375 0.984375 -5.453125 L 0.984375 -4.84375 Z M 2.484375 -4.84375 "/>
</symbol>
<symbol overflow="visible" id="glyph0-5">
<path style="stroke:none;" d="M 4.859375 -0.828125 L 1.28125 -0.828125 C 1.359375 -1.390625 1.671875 -1.75 2.5 -2.234375 L 3.46875 -2.75 C 4.40625 -3.265625 4.90625 -3.96875 4.90625 -4.8125 C 4.90625 -5.375 4.671875 -5.90625 4.265625 -6.265625 C 3.859375 -6.625 3.375 -6.796875 2.71875 -6.796875 C 1.859375 -6.796875 1.21875 -6.5 0.84375 -5.921875 C 0.609375 -5.5625 0.5 -5.125 0.484375 -4.4375 L 1.328125 -4.4375 C 1.359375 -4.90625 1.40625 -5.1875 1.53125 -5.40625 C 1.75 -5.8125 2.1875 -6.0625 2.703125 -6.0625 C 3.46875 -6.0625 4.03125 -5.515625 4.03125 -4.78125 C 4.03125 -4.25 3.71875 -3.796875 3.125 -3.4375 L 2.234375 -2.9375 C 0.8125 -2.140625 0.40625 -1.5 0.328125 0 L 4.859375 0 Z M 4.859375 -0.828125 "/>
</symbol>
<symbol overflow="visible" id="glyph0-6">
<path style="stroke:none;" d="M 2.125 -3.125 L 2.578125 -3.125 C 3.515625 -3.125 3.984375 -2.703125 3.984375 -1.890625 C 3.984375 -1.03125 3.46875 -0.53125 2.578125 -0.53125 C 1.65625 -0.53125 1.203125 -0.984375 1.15625 -1.96875 L 0.3125 -1.96875 C 0.34375 -1.421875 0.4375 -1.078125 0.609375 -0.765625 C 0.953125 -0.109375 1.625 0.21875 2.546875 0.21875 C 3.953125 0.21875 4.859375 -0.609375 4.859375 -1.90625 C 4.859375 -2.765625 4.515625 -3.25 3.703125 -3.515625 C 4.34375 -3.765625 4.65625 -4.25 4.65625 -4.9375 C 4.65625 -6.109375 3.875 -6.796875 2.578125 -6.796875 C 1.203125 -6.796875 0.484375 -6.046875 0.453125 -4.609375 L 1.296875 -4.609375 C 1.3125 -5.015625 1.34375 -5.25 1.453125 -5.453125 C 1.640625 -5.828125 2.0625 -6.0625 2.59375 -6.0625 C 3.34375 -6.0625 3.796875 -5.625 3.796875 -4.90625 C 3.796875 -4.421875 3.609375 -4.140625 3.25 -3.984375 C 3.015625 -3.890625 2.71875 -3.84375 2.125 -3.84375 Z M 2.125 -3.125 "/>
</symbol>
<symbol overflow="visible" id="glyph0-7">
<path style="stroke:none;" d="M 3.140625 -1.625 L 3.140625 0 L 3.984375 0 L 3.984375 -1.625 L 4.984375 -1.625 L 4.984375 -2.390625 L 3.984375 -2.390625 L 3.984375 -6.796875 L 3.359375 -6.796875 L 0.265625 -2.515625 L 0.265625 -1.625 Z M 3.140625 -2.390625 L 1 -2.390625 L 3.140625 -5.359375 Z M 3.140625 -2.390625 "/>
</symbol>
<symbol overflow="visible" id="glyph0-8">
<path style="stroke:none;" d="M 4.78125 -5.03125 C 4.609375 -6.140625 3.890625 -6.796875 2.84375 -6.796875 C 2.09375 -6.796875 1.421875 -6.4375 1.03125 -5.828125 C 0.609375 -5.171875 0.40625 -4.34375 0.40625 -3.09375 C 0.40625 -1.953125 0.578125 -1.234375 0.984375 -0.625 C 1.359375 -0.078125 1.953125 0.21875 2.703125 0.21875 C 3.984375 0.21875 4.921875 -0.734375 4.921875 -2.078125 C 4.921875 -3.34375 4.0625 -4.234375 2.84375 -4.234375 C 2.171875 -4.234375 1.640625 -3.96875 1.28125 -3.46875 C 1.28125 -5.125 1.828125 -6.046875 2.796875 -6.046875 C 3.390625 -6.046875 3.796875 -5.671875 3.9375 -5.03125 Z M 2.734375 -3.484375 C 3.546875 -3.484375 4.0625 -2.921875 4.0625 -2 C 4.0625 -1.15625 3.484375 -0.53125 2.703125 -0.53125 C 1.921875 -0.53125 1.328125 -1.1875 1.328125 -2.046875 C 1.328125 -2.890625 1.90625 -3.484375 2.734375 -3.484375 Z M 2.734375 -3.484375 "/>
</symbol>
<symbol overflow="visible" id="glyph0-9">
<path style="stroke:none;" d="M 4.984375 -6.796875 L 0.4375 -6.796875 L 0.4375 -5.96875 L 4.109375 -5.96875 C 2.5 -3.65625 1.828125 -2.234375 1.328125 0 L 2.21875 0 C 2.59375 -2.171875 3.453125 -4.046875 4.984375 -6.09375 Z M 4.984375 -6.796875 "/>
</symbol>
<symbol overflow="visible" id="glyph0-10">
<path style="stroke:none;" d="M 3.75 -3.578125 C 4.453125 -4 4.6875 -4.34375 4.6875 -4.984375 C 4.6875 -6.046875 3.84375 -6.796875 2.640625 -6.796875 C 1.4375 -6.796875 0.59375 -6.046875 0.59375 -4.984375 C 0.59375 -4.359375 0.828125 -4.015625 1.515625 -3.578125 C 0.734375 -3.203125 0.359375 -2.640625 0.359375 -1.890625 C 0.359375 -0.640625 1.296875 0.21875 2.640625 0.21875 C 3.984375 0.21875 4.921875 -0.640625 4.921875 -1.875 C 4.921875 -2.640625 4.53125 -3.203125 3.75 -3.578125 Z M 2.640625 -6.046875 C 3.359375 -6.046875 3.8125 -5.625 3.8125 -4.96875 C 3.8125 -4.34375 3.34375 -3.921875 2.640625 -3.921875 C 1.921875 -3.921875 1.453125 -4.34375 1.453125 -4.984375 C 1.453125 -5.625 1.921875 -6.046875 2.640625 -6.046875 Z M 2.640625 -3.203125 C 3.484375 -3.203125 4.0625 -2.671875 4.0625 -1.875 C 4.0625 -1.0625 3.484375 -0.53125 2.625 -0.53125 C 1.796875 -0.53125 1.21875 -1.078125 1.21875 -1.875 C 1.21875 -2.671875 1.796875 -3.203125 2.640625 -3.203125 Z M 2.640625 -3.203125 "/>
</symbol>
<symbol overflow="visible" id="glyph0-11">
<path style="stroke:none;" d="M 0.515625 -1.546875 C 0.671875 -0.4375 1.40625 0.21875 2.4375 0.21875 C 3.1875 0.21875 3.859375 -0.140625 4.265625 -0.75 C 4.6875 -1.40625 4.890625 -2.25 4.890625 -3.484375 C 4.890625 -4.625 4.703125 -5.359375 4.3125 -5.953125 C 3.9375 -6.5 3.34375 -6.796875 2.59375 -6.796875 C 1.296875 -6.796875 0.359375 -5.84375 0.359375 -4.515625 C 0.359375 -3.25 1.234375 -2.34375 2.453125 -2.34375 C 3.09375 -2.34375 3.5625 -2.578125 4.015625 -3.109375 C 4 -1.453125 3.46875 -0.53125 2.5 -0.53125 C 1.90625 -0.53125 1.484375 -0.90625 1.359375 -1.546875 Z M 2.578125 -6.0625 C 3.375 -6.0625 3.96875 -5.40625 3.96875 -4.53125 C 3.96875 -3.6875 3.375 -3.09375 2.546875 -3.09375 C 1.734375 -3.09375 1.234375 -3.671875 1.234375 -4.578125 C 1.234375 -5.4375 1.796875 -6.0625 2.578125 -6.0625 Z M 2.578125 -6.0625 "/>
</symbol>
<symbol overflow="visible" id="glyph1-0">
<path style="stroke:none;" d=""/>
</symbol>
<symbol overflow="visible" id="glyph1-1">
<path style="stroke:none;" d="M 0 -0.953125 L 0 -4.890625 C 0 -5.71875 -0.234375 -6.34375 -0.734375 -6.796875 C -1.1875 -7.234375 -1.8125 -7.46875 -2.5 -7.46875 C -3.546875 -7.46875 -4.1875 -7 -4.625 -5.875 C -4.984375 -6.671875 -5.640625 -7.09375 -6.53125 -7.09375 C -7.15625 -7.09375 -7.734375 -6.859375 -8.140625 -6.390625 C -8.5625 -5.9375 -8.75 -5.34375 -8.75 -4.5 L -8.75 -0.953125 Z M -4.984375 -2.0625 L -7.765625 -2.0625 L -7.765625 -4.21875 C -7.765625 -4.84375 -7.6875 -5.203125 -7.453125 -5.5 C -7.21875 -5.8125 -6.859375 -5.96875 -6.375 -5.96875 C -5.90625 -5.96875 -5.53125 -5.8125 -5.296875 -5.5 C -5.0625 -5.203125 -4.984375 -4.84375 -4.984375 -4.21875 Z M -0.984375 -2.0625 L -4 -2.0625 L -4 -4.78125 C -4 -5.328125 -3.859375 -5.6875 -3.578125 -5.953125 C -3.296875 -6.21875 -2.921875 -6.359375 -2.484375 -6.359375 C -2.0625 -6.359375 -1.6875 -6.21875 -1.40625 -5.953125 C -1.109375 -5.6875 -0.984375 -5.328125 -0.984375 -4.78125 Z M -0.984375 -2.0625 "/>
</symbol>
<symbol overflow="visible" id="glyph1-2">
<path style="stroke:none;" d="M -6.28125 -1.796875 L -6.28125 -0.796875 L 0 -0.796875 L 0 -1.796875 Z M -8.75 -1.796875 L -8.75 -0.796875 L -7.484375 -0.796875 L -7.484375 -1.796875 Z M -8.75 -1.796875 "/>
</symbol>
<symbol overflow="visible" id="glyph1-3">
<path style="stroke:none;" d="M -6.28125 -3.046875 L -6.28125 -2.015625 L -8.015625 -2.015625 L -8.015625 -1.015625 L -6.28125 -1.015625 L -6.28125 -0.171875 L -5.46875 -0.171875 L -5.46875 -1.015625 L -0.71875 -1.015625 C -0.078125 -1.015625 0.28125 -1.453125 0.28125 -2.234375 C 0.28125 -2.46875 0.25 -2.71875 0.1875 -3.046875 L -0.640625 -3.046875 C -0.609375 -2.921875 -0.59375 -2.765625 -0.59375 -2.5625 C -0.59375 -2.140625 -0.71875 -2.015625 -1.15625 -2.015625 L -5.46875 -2.015625 L -5.46875 -3.046875 Z M -6.28125 -3.046875 "/>
</symbol>
<symbol overflow="visible" id="glyph1-4">
<path style="stroke:none;" d="M -4.53125 -5.25 C -5.765625 -5.25 -6.46875 -4.421875 -6.46875 -2.96875 C -6.46875 -1.515625 -5.71875 -0.5625 -4.546875 -0.5625 C -3.5625 -0.5625 -3.09375 -1.0625 -2.734375 -2.5625 L -2.515625 -3.484375 C -2.34375 -4.1875 -2.09375 -4.46875 -1.625 -4.46875 C -1.046875 -4.46875 -0.640625 -3.875 -0.640625 -3 C -0.640625 -2.453125 -0.796875 -2 -1.0625 -1.75 C -1.25 -1.59375 -1.421875 -1.53125 -1.875 -1.46875 L -1.875 -0.40625 C -0.421875 -0.453125 0.28125 -1.265625 0.28125 -2.921875 C 0.28125 -4.5 -0.5 -5.515625 -1.71875 -5.515625 C -2.65625 -5.515625 -3.171875 -4.984375 -3.46875 -3.734375 L -3.703125 -2.765625 C -3.890625 -1.953125 -4.15625 -1.609375 -4.59375 -1.609375 C -5.171875 -1.609375 -5.546875 -2.125 -5.546875 -2.9375 C -5.546875 -3.75 -5.203125 -4.171875 -4.53125 -4.203125 Z M -4.53125 -5.25 "/>
</symbol>
</g>
</defs>
<g id="surface88085">
<rect x="0" y="0" width="720" height="360" style="fill:rgb(100%,100%,100%);fill-opacity:1;stroke:none;"/>
<path style=" stroke:none;fill-rule:nonzero;fill:rgb(6.27451%,58.823529%,28.235294%);fill-opacity:1;" d="M 69.628906 309.070312 L 69.675781 309.066406 L 89.15625 307.28125 L 95.074219 307.28125 L 114.648438 309.070312 L 107.773438 309.070312 L 102.867188 308.605469 L 81.367188 308.605469 L 76.554688 309.070312 L 69.628906 309.070312 L 83.433594 308.410156 L 100.894531 308.410156 L 92.1875 307.574219 L 92.089844 307.570312 L 91.996094 307.574219 L 83.386719 308.410156 L 83.433594 308.410156 Z M 69.628906 309.070312 "/>
<path style=" stroke:none;fill-rule:nonzero;fill:rgb(14.509804%,36.078431%,60%);fill-opacity:1;" d="M 69.628906 310.976562 L 69.683594 310.976562 L 69.683594 310.9375 L 69.847656 310.878906 L 70.234375 310.804688 L 70.617188 310.753906 L 71.605469 310.664062 L 72.976562 310.578125 L 74.40625 310.511719 L 75.449219 310.46875 L 76.382812 310.4375 L 78.523438 310.382812 L 79.894531 310.351562 L 81.378906 310.328125 L 83.191406 310.300781 L 84.507812 310.285156 L 87.472656 310.261719 L 89.667969 310.25 L 91.371094 310.246094 L 95.050781 310.246094 L 97.246094 310.253906 L 98.839844 310.257812 L 100.59375 310.273438 L 102.078125 310.285156 L 104.65625 310.320312 L 106.964844 310.363281 L 108.007812 310.386719 L 109.652344 310.433594 L 110.917969 310.480469 L 111.796875 310.519531 L 112.785156 310.578125 L 113.660156 310.648438 L 114.320312 310.726562 L 114.648438 310.789062 L 106.964844 310.789062 L 106.578125 310.730469 L 106.140625 310.683594 L 105.316406 310.617188 L 104.492188 310.574219 L 103.339844 310.53125 L 102.296875 310.5 L 100.871094 310.472656 L 99.605469 310.453125 L 98.289062 310.4375 L 97.027344 310.429688 L 94.609375 310.421875 L 91.808594 310.421875 L 90.765625 310.425781 L 88.625 310.4375 L 87.472656 310.445312 L 85.824219 310.46875 L 84.671875 310.488281 L 83.300781 310.519531 L 82.367188 310.546875 L 81.214844 310.585938 L 80.390625 310.621094 L 79.457031 310.671875 L 78.90625 310.710938 L 78.414062 310.753906 L 77.976562 310.804688 L 77.644531 310.855469 L 77.425781 310.914062 L 77.316406 310.96875 L 77.316406 311.207031 L 77.425781 311.261719 L 77.699219 311.328125 L 78.414062 311.421875 L 79.457031 311.5 L 80.664062 311.566406 L 81.816406 311.613281 L 82.476562 311.632812 L 83.355469 311.660156 L 84.726562 311.6875 L 86.703125 311.71875 L 87.855469 311.730469 L 89.613281 311.746094 L 91.425781 311.75 L 93.84375 311.75 L 95.984375 311.746094 L 97.410156 311.738281 L 98.894531 311.722656 L 100.925781 311.699219 L 102.1875 311.671875 L 103.285156 311.644531 L 104.109375 311.617188 L 104.65625 311.589844 L 105.480469 311.542969 L 106.140625 311.492188 L 106.632812 311.4375 L 106.964844 311.386719 L 114.648438 311.386719 L 114.320312 311.445312 L 113.828125 311.507812 L 113.332031 311.550781 L 112.5625 311.605469 L 111.6875 311.652344 L 110.421875 311.707031 L 109.378906 311.742188 L 108.007812 311.78125 L 106.746094 311.808594 L 105.371094 311.835938 L 103.339844 311.867188 L 102.023438 311.882812 L 100.59375 311.894531 L 98.894531 311.90625 L 96.75 311.917969 L 94.445312 311.925781 L 92.304688 311.925781 L 90 311.921875 L 88.296875 311.917969 L 86.046875 311.902344 L 83.246094 311.875 L 81.214844 311.84375 L 79.621094 311.816406 L 78.25 311.785156 L 76.710938 311.746094 L 74.734375 311.675781 L 73.527344 311.625 L 72.703125 311.582031 L 71.769531 311.523438 L 71.113281 311.46875 L 70.34375 311.382812 L 69.792969 311.273438 L 69.628906 311.1875 Z M 69.628906 310.976562 "/>
<path style=" stroke:none;fill-rule:nonzero;fill:rgb(96.862745%,70.196078%,16.862745%);fill-opacity:1;" d="M 69.628906 305.074219 L 69.683594 305.074219 L 69.683594 305.039062 L 69.902344 304.964844 L 70.453125 304.863281 L 71.167969 304.78125 L 71.933594 304.714844 L 72.429688 304.679688 L 73.253906 304.632812 L 73.964844 304.59375 L 75.777344 304.519531 L 78.085938 304.453125 L 79.347656 304.421875 L 80.773438 304.394531 L 82.804688 304.363281 L 83.738281 304.351562 L 86.59375 304.324219 L 89.832031 304.308594 L 93.402344 304.304688 L 95.050781 304.304688 L 97.300781 304.3125 L 100.375 304.328125 L 102.132812 304.347656 L 103.503906 304.363281 L 104.933594 304.382812 L 106.6875 304.417969 L 108.335938 304.457031 L 109.652344 304.496094 L 110.972656 304.546875 L 112.070312 304.597656 L 113.003906 304.65625 L 113.828125 304.726562 L 114.320312 304.78125 L 114.648438 304.839844 L 107.019531 304.839844 L 106.578125 304.78125 L 106.085938 304.738281 L 105.261719 304.683594 L 104.4375 304.644531 L 103.613281 304.613281 L 102.078125 304.570312 L 100.757812 304.542969 L 99.113281 304.519531 L 97.519531 304.507812 L 95.707031 304.496094 L 94.609375 304.492188 L 91.699219 304.492188 L 89.066406 304.503906 L 87.527344 304.515625 L 86.429688 304.53125 L 84.890625 304.554688 L 83.960938 304.574219 L 83.410156 304.589844 L 81.761719 304.640625 L 80.664062 304.683594 L 80.0625 304.714844 L 79.292969 304.765625 L 78.742188 304.808594 L 78.140625 304.875 L 77.808594 304.925781 L 77.371094 305.039062 L 77.316406 305.332031 L 77.480469 305.394531 L 77.808594 305.464844 L 78.25 305.523438 L 78.90625 305.585938 L 79.566406 305.632812 L 80.71875 305.695312 L 81.707031 305.738281 L 82.476562 305.769531 L 83.960938 305.8125 L 84.5625 305.828125 L 85.992188 305.855469 L 87.472656 305.878906 L 89.285156 305.898438 L 90.65625 305.910156 L 92.855469 305.917969 L 95.652344 305.917969 L 98.949219 305.90625 L 101.035156 305.894531 L 102.460938 305.882812 L 103.394531 305.871094 L 104.546875 305.851562 L 105.371094 305.835938 L 106.140625 305.816406 L 107.074219 305.789062 L 107.074219 305.394531 L 93.511719 305.394531 L 93.511719 305.210938 L 114.59375 305.207031 L 114.648438 305.851562 L 113.496094 305.894531 L 112.070312 305.9375 L 110.699219 305.972656 L 109.269531 306 L 107.238281 306.03125 L 105.589844 306.050781 L 103.066406 306.074219 L 100.757812 306.089844 L 98.34375 306.097656 L 96.203125 306.105469 L 93.675781 306.105469 L 91.425781 306.101562 L 89.011719 306.09375 L 87.089844 306.078125 L 85.332031 306.0625 L 83.574219 306.042969 L 81.378906 306.007812 L 79.953125 305.980469 L 78.46875 305.945312 L 76.988281 305.902344 L 75.667969 305.859375 L 74.789062 305.824219 L 73.910156 305.785156 L 72.976562 305.734375 L 72.101562 305.679688 L 71.441406 305.628906 L 70.835938 305.570312 L 70.398438 305.515625 L 69.957031 305.441406 L 69.738281 305.382812 L 69.628906 305.332031 Z M 69.628906 305.074219 "/>
<path style=" stroke:none;fill-rule:nonzero;fill:rgb(83.921569%,15.686275%,22.352941%);fill-opacity:1;" d="M 69.628906 313.101562 L 114.648438 313.101562 L 114.648438 313.109375 L 95.886719 313.109375 L 95.886719 313.195312 L 88.339844 313.195312 L 88.339844 313.109375 L 69.628906 313.109375 Z M 69.628906 313.101562 "/>
<path style=" stroke:none;fill-rule:nonzero;fill:rgb(6.27451%,58.823529%,28.235294%);fill-opacity:1;" d="M 117.019531 260.820312 L 117.066406 260.753906 L 136.546875 190.101562 L 142.464844 190.101562 L 162.039062 260.886719 L 155.164062 260.886719 L 150.257812 242.410156 L 128.757812 242.410156 L 123.945312 260.820312 L 117.019531 260.820312 L 130.824219 234.765625 L 148.285156 234.699219 L 139.578125 201.664062 L 139.480469 201.597656 L 139.386719 201.796875 L 130.777344 234.699219 L 130.824219 234.765625 Z M 117.019531 260.820312 "/>
<path style=" stroke:none;fill-rule:nonzero;fill:rgb(14.509804%,36.078431%,60%);fill-opacity:1;" d="M 117.019531 282.820312 L 117.074219 282.777344 L 117.074219 281.730469 L 117.238281 280.074219 L 117.625 277.980469 L 118.007812 276.542969 L 118.996094 273.96875 L 120.367188 271.480469 L 121.796875 269.5625 L 122.839844 268.429688 L 123.773438 267.558594 L 125.914062 265.941406 L 127.285156 265.113281 L 128.769531 264.371094 L 130.582031 263.632812 L 131.898438 263.195312 L 134.863281 262.496094 L 137.058594 262.191406 L 138.761719 262.0625 L 142.441406 262.0625 L 144.636719 262.234375 L 146.230469 262.453125 L 147.984375 262.804688 L 149.46875 263.195312 L 152.046875 264.15625 L 154.355469 265.375 L 155.398438 266.074219 L 157.042969 267.425781 L 158.308594 268.734375 L 159.1875 269.867188 L 160.175781 271.480469 L 161.050781 273.445312 L 161.710938 275.667969 L 162.039062 277.542969 L 154.355469 277.542969 L 153.96875 275.800781 L 153.53125 274.449219 L 152.707031 272.660156 L 151.882812 271.394531 L 150.730469 270.128906 L 149.6875 269.300781 L 148.261719 268.472656 L 146.996094 267.949219 L 145.679688 267.558594 L 144.417969 267.296875 L 142 267.035156 L 139.199219 267.035156 L 138.15625 267.121094 L 136.015625 267.46875 L 134.863281 267.773438 L 133.214844 268.386719 L 132.0625 268.953125 L 130.691406 269.824219 L 129.757812 270.566406 L 128.605469 271.699219 L 127.78125 272.703125 L 126.847656 274.140625 L 126.296875 275.234375 L 125.804688 276.453125 L 125.367188 277.894531 L 125.035156 279.417969 L 124.816406 281.035156 L 124.707031 282.601562 L 124.707031 289.363281 L 124.816406 290.933594 L 125.089844 292.765625 L 125.804688 295.425781 L 126.847656 297.738281 L 128.054688 299.570312 L 129.207031 300.878906 L 129.867188 301.488281 L 130.746094 302.1875 L 132.117188 303.058594 L 134.09375 303.929688 L 135.246094 304.277344 L 137.003906 304.628906 L 138.816406 304.800781 L 141.234375 304.800781 L 143.375 304.628906 L 144.800781 304.410156 L 146.285156 304.0625 L 148.316406 303.320312 L 149.578125 302.621094 L 150.675781 301.792969 L 151.5 300.964844 L 152.046875 300.265625 L 152.871094 298.914062 L 153.53125 297.433594 L 154.023438 295.90625 L 154.355469 294.421875 L 162.039062 294.421875 L 161.710938 296.167969 L 161.21875 297.867188 L 160.722656 299.132812 L 159.953125 300.660156 L 159.074219 302.011719 L 157.8125 303.539062 L 156.769531 304.539062 L 155.398438 305.632812 L 154.136719 306.460938 L 152.761719 307.203125 L 150.730469 308.074219 L 149.414062 308.507812 L 147.984375 308.902344 L 146.285156 309.25 L 144.140625 309.554688 L 141.835938 309.730469 L 139.695312 309.773438 L 137.390625 309.6875 L 135.6875 309.511719 L 133.4375 309.121094 L 130.636719 308.335938 L 128.605469 307.507812 L 127.011719 306.679688 L 125.640625 305.804688 L 124.101562 304.628906 L 122.125 302.710938 L 120.917969 301.226562 L 120.09375 300.003906 L 119.160156 298.304688 L 118.503906 296.777344 L 117.734375 294.335938 L 117.183594 291.238281 L 117.019531 288.839844 Z M 117.019531 282.820312 "/>
<path style=" stroke:none;fill-rule:nonzero;fill:rgb(96.862745%,70.196078%,16.862745%);fill-opacity:1;" d="M 117.019531 312.972656 L 117.074219 312.972656 L 117.074219 312.964844 L 117.292969 312.949219 L 117.84375 312.925781 L 118.558594 312.910156 L 119.324219 312.894531 L 119.820312 312.886719 L 120.644531 312.875 L 121.355469 312.867188 L 123.167969 312.851562 L 125.476562 312.839844 L 126.738281 312.832031 L 128.164062 312.824219 L 130.195312 312.820312 L 131.128906 312.816406 L 133.984375 312.808594 L 137.222656 312.808594 L 140.792969 312.804688 L 142.441406 312.804688 L 144.691406 312.808594 L 147.765625 312.8125 L 149.523438 312.816406 L 150.894531 312.820312 L 152.324219 312.824219 L 154.078125 312.832031 L 155.726562 312.839844 L 157.042969 312.847656 L 158.363281 312.859375 L 159.460938 312.871094 L 160.394531 312.882812 L 161.21875 312.898438 L 161.710938 312.910156 L 162.039062 312.921875 L 154.410156 312.921875 L 153.96875 312.910156 L 153.476562 312.898438 L 152.652344 312.886719 L 151.003906 312.871094 L 149.46875 312.863281 L 148.148438 312.859375 L 146.503906 312.851562 L 144.910156 312.851562 L 143.097656 312.847656 L 136.457031 312.847656 L 134.917969 312.851562 L 133.820312 312.855469 L 132.28125 312.859375 L 131.351562 312.863281 L 130.800781 312.867188 L 129.152344 312.878906 L 128.054688 312.886719 L 127.453125 312.894531 L 126.683594 312.90625 L 126.132812 312.914062 L 125.53125 312.929688 L 125.199219 312.941406 L 124.761719 312.964844 L 124.707031 313.027344 L 124.871094 313.042969 L 125.199219 313.058594 L 125.640625 313.070312 L 126.296875 313.082031 L 126.957031 313.09375 L 128.109375 313.109375 L 129.097656 313.117188 L 129.867188 313.121094 L 131.351562 313.132812 L 131.953125 313.136719 L 133.382812 313.140625 L 134.863281 313.148438 L 136.675781 313.152344 L 138.046875 313.152344 L 140.246094 313.15625 L 143.042969 313.15625 L 146.339844 313.152344 L 148.425781 313.148438 L 149.851562 313.148438 L 150.785156 313.144531 L 151.9375 313.140625 L 152.761719 313.136719 L 153.53125 313.132812 L 154.464844 313.128906 L 154.464844 313.042969 L 140.902344 313.042969 L 140.902344 313.003906 L 161.984375 313 L 162.039062 313.140625 L 160.886719 313.152344 L 159.460938 313.160156 L 158.085938 313.167969 L 156.660156 313.171875 L 154.628906 313.179688 L 152.980469 313.183594 L 150.457031 313.1875 L 148.148438 313.191406 L 145.734375 313.195312 L 138.816406 313.195312 L 136.402344 313.191406 L 134.480469 313.191406 L 130.964844 313.183594 L 128.769531 313.175781 L 127.339844 313.167969 L 124.378906 313.152344 L 123.058594 313.140625 L 122.179688 313.136719 L 121.300781 313.125 L 120.367188 313.117188 L 119.492188 313.105469 L 118.832031 313.09375 L 118.226562 313.082031 L 117.789062 313.066406 L 117.347656 313.050781 L 117.128906 313.039062 L 117.019531 313.027344 Z M 117.019531 312.972656 "/>
<path style=" stroke:none;fill-rule:nonzero;fill:rgb(83.921569%,15.686275%,22.352941%);fill-opacity:1;" d="M 117.019531 310.949219 L 162.039062 310.949219 L 162.039062 311.023438 L 143.277344 311.023438 L 143.277344 311.632812 L 135.730469 311.632812 L 135.730469 311.023438 L 117.019531 311.023438 Z M 117.019531 310.949219 "/>
<path style=" stroke:none;fill-rule:nonzero;fill:rgb(6.27451%,58.823529%,28.235294%);fill-opacity:1;" d="M 164.410156 305.511719 L 164.457031 305.273438 L 183.9375 51.210938 L 189.855469 51.210938 L 209.429688 305.75 L 202.554688 305.75 L 197.648438 239.308594 L 176.148438 239.308594 L 171.335938 305.511719 L 164.410156 305.511719 L 178.214844 211.820312 L 195.675781 211.582031 L 186.96875 92.796875 L 186.871094 92.558594 L 186.777344 93.273438 L 178.167969 211.582031 L 178.214844 211.820312 Z M 164.410156 305.511719 "/>
<path style=" stroke:none;fill-rule:nonzero;fill:rgb(96.862745%,70.196078%,16.862745%);fill-opacity:1;" d="M 164.410156 308.9375 L 164.464844 308.933594 L 164.464844 308.847656 L 164.683594 308.65625 L 165.234375 308.390625 L 165.949219 308.171875 L 166.714844 308 L 167.210938 307.910156 L 168.035156 307.78125 L 168.746094 307.683594 L 170.558594 307.492188 L 172.867188 307.3125 L 174.128906 307.234375 L 175.554688 307.160156 L 177.585938 307.078125 L 178.519531 307.050781 L 181.375 306.980469 L 184.613281 306.9375 L 188.183594 306.925781 L 189.832031 306.929688 L 192.082031 306.945312 L 195.15625 306.996094 L 196.914062 307.035156 L 198.285156 307.078125 L 199.714844 307.136719 L 201.46875 307.222656 L 203.117188 307.324219 L 204.433594 307.425781 L 205.753906 307.554688 L 206.851562 307.695312 L 207.785156 307.84375 L 208.609375 308.023438 L 209.101562 308.175781 L 209.429688 308.324219 L 201.800781 308.324219 L 201.359375 308.175781 L 200.867188 308.058594 L 200.042969 307.917969 L 199.21875 307.8125 L 198.394531 307.730469 L 196.859375 307.621094 L 195.539062 307.550781 L 193.894531 307.492188 L 192.300781 307.453125 L 190.488281 307.425781 L 189.390625 307.417969 L 186.480469 307.417969 L 183.847656 307.449219 L 182.308594 307.484375 L 181.210938 307.519531 L 179.671875 307.582031 L 178.742188 307.632812 L 178.191406 307.667969 L 176.542969 307.800781 L 175.445312 307.921875 L 174.84375 308.003906 L 174.074219 308.132812 L 173.523438 308.246094 L 172.921875 308.417969 L 172.589844 308.546875 L 172.152344 308.839844 L 172.097656 309.613281 L 172.261719 309.773438 L 172.589844 309.949219 L 173.03125 310.105469 L 173.6875 310.269531 L 174.347656 310.394531 L 175.5 310.558594 L 176.488281 310.671875 L 177.257812 310.746094 L 178.742188 310.859375 L 179.34375 310.898438 L 180.773438 310.976562 L 182.253906 311.035156 L 184.066406 311.089844 L 185.4375 311.113281 L 187.632812 311.136719 L 190.433594 311.136719 L 193.730469 311.109375 L 195.816406 311.074219 L 197.242188 311.039062 L 198.175781 311.011719 L 199.328125 310.964844 L 200.152344 310.921875 L 200.921875 310.875 L 201.855469 310.800781 L 201.855469 309.773438 L 188.292969 309.769531 L 188.292969 309.289062 L 209.375 309.285156 L 209.429688 310.964844 L 208.277344 311.078125 L 206.851562 311.191406 L 205.476562 311.277344 L 204.050781 311.351562 L 202.019531 311.429688 L 200.371094 311.484375 L 197.847656 311.542969 L 195.539062 311.582031 L 193.125 311.605469 L 190.984375 311.621094 L 188.457031 311.625 L 186.207031 311.617188 L 183.792969 311.589844 L 181.871094 311.554688 L 180.113281 311.511719 L 178.355469 311.457031 L 176.160156 311.367188 L 174.730469 311.292969 L 173.25 311.203125 L 171.765625 311.097656 L 170.449219 310.980469 L 169.570312 310.890625 L 168.691406 310.789062 L 167.757812 310.660156 L 166.882812 310.511719 L 166.222656 310.378906 L 165.617188 310.230469 L 165.179688 310.089844 L 164.738281 309.894531 L 164.519531 309.742188 L 164.410156 309.609375 Z M 164.410156 308.9375 "/>
<path style=" stroke:none;fill-rule:nonzero;fill:rgb(14.509804%,36.078431%,60%);fill-opacity:1;" d="M 211.800781 147.898438 L 211.855469 147.628906 L 211.855469 141.214844 L 212.019531 131.058594 L 212.40625 118.226562 L 212.789062 109.40625 L 213.777344 93.636719 L 215.148438 78.398438 L 216.578125 66.636719 L 217.621094 59.6875 L 218.554688 54.34375 L 220.695312 44.453125 L 222.066406 39.375 L 223.550781 34.828125 L 225.363281 30.285156 L 226.679688 27.613281 L 229.644531 23.335938 L 231.839844 21.464844 L 233.542969 20.664062 L 237.222656 20.664062 L 239.417969 21.730469 L 241.011719 23.070312 L 242.765625 25.207031 L 244.25 27.613281 L 246.828125 33.492188 L 249.136719 40.976562 L 250.179688 45.253906 L 251.824219 53.539062 L 253.089844 61.558594 L 253.96875 68.507812 L 254.957031 78.398438 L 255.832031 90.429688 L 256.492188 104.058594 L 256.820312 115.554688 L 249.136719 115.554688 L 248.75 104.863281 L 248.3125 96.574219 L 247.488281 85.617188 L 246.664062 77.863281 L 245.511719 70.113281 L 244.46875 65.035156 L 243.042969 59.957031 L 241.777344 56.75 L 240.460938 54.34375 L 239.199219 52.738281 L 236.78125 51.136719 L 233.980469 51.136719 L 232.9375 51.667969 L 230.796875 53.808594 L 229.644531 55.679688 L 227.996094 59.421875 L 226.84375 62.894531 L 225.472656 68.242188 L 224.539062 72.785156 L 223.386719 79.734375 L 222.5625 85.882812 L 221.628906 94.703125 L 221.078125 101.386719 L 220.585938 108.871094 L 220.144531 117.691406 L 219.816406 127.046875 L 219.597656 136.9375 L 219.488281 146.5625 L 219.488281 187.992188 L 219.597656 197.613281 L 219.871094 208.839844 L 220.585938 225.148438 L 221.628906 239.3125 L 222.835938 250.539062 L 223.988281 258.558594 L 224.648438 262.300781 L 225.527344 266.578125 L 226.898438 271.925781 L 228.875 277.269531 L 230.027344 279.410156 L 231.785156 281.546875 L 233.597656 282.617188 L 236.011719 282.617188 L 238.15625 281.546875 L 239.582031 280.210938 L 241.066406 278.070312 L 243.097656 273.527344 L 244.359375 269.25 L 245.457031 264.171875 L 246.28125 259.09375 L 246.828125 254.816406 L 247.652344 246.53125 L 248.3125 237.441406 L 248.804688 228.085938 L 249.136719 219 L 256.820312 219 L 256.492188 229.691406 L 256 240.117188 L 255.503906 247.867188 L 254.734375 257.222656 L 253.855469 265.507812 L 252.59375 274.863281 L 251.550781 281.011719 L 250.179688 287.695312 L 248.914062 292.773438 L 247.542969 297.316406 L 245.511719 302.664062 L 244.195312 305.335938 L 242.765625 307.742188 L 241.066406 309.878906 L 238.921875 311.75 L 236.617188 312.820312 L 234.476562 313.089844 L 232.171875 312.554688 L 230.46875 311.484375 L 228.21875 309.078125 L 225.417969 304.265625 L 223.386719 299.1875 L 221.792969 294.109375 L 220.421875 288.765625 L 218.882812 281.546875 L 216.90625 269.785156 L 215.699219 260.699219 L 214.875 253.214844 L 213.941406 242.789062 L 213.285156 233.433594 L 212.515625 218.464844 L 211.964844 199.484375 L 211.800781 184.785156 Z M 211.800781 147.898438 "/>
<path style=" stroke:none;fill-rule:nonzero;fill:rgb(6.27451%,58.823529%,28.235294%);fill-opacity:1;" d="M 259.191406 310.417969 L 259.238281 310.15625 L 278.71875 32.066406 L 284.636719 32.066406 L 304.210938 310.679688 L 297.335938 310.679688 L 292.429688 237.953125 L 270.929688 237.953125 L 266.117188 310.417969 L 259.191406 310.417969 L 272.996094 207.867188 L 290.457031 207.605469 L 281.75 77.585938 L 281.652344 77.324219 L 281.558594 78.109375 L 272.949219 207.605469 L 272.996094 207.867188 Z M 259.191406 310.417969 "/>
<path style=" stroke:none;fill-rule:nonzero;fill:rgb(14.509804%,36.078431%,60%);fill-opacity:1;" d="M 259.191406 312.179688 L 259.246094 312.179688 L 259.246094 312.160156 L 259.410156 312.136719 L 259.796875 312.101562 L 260.179688 312.082031 L 261.167969 312.039062 L 262.539062 312 L 263.96875 311.972656 L 265.011719 311.953125 L 265.945312 311.941406 L 268.085938 311.914062 L 269.457031 311.902344 L 270.941406 311.890625 L 272.753906 311.878906 L 274.070312 311.871094 L 277.035156 311.859375 L 279.230469 311.855469 L 280.933594 311.851562 L 284.613281 311.851562 L 286.808594 311.855469 L 288.398438 311.859375 L 290.15625 311.863281 L 291.640625 311.871094 L 294.21875 311.886719 L 296.527344 311.90625 L 297.570312 311.917969 L 299.214844 311.9375 L 300.480469 311.957031 L 301.359375 311.976562 L 302.347656 312 L 303.222656 312.03125 L 303.882812 312.066406 L 304.210938 312.097656 L 296.527344 312.097656 L 296.140625 312.070312 L 295.703125 312.046875 L 294.878906 312.019531 L 294.054688 312 L 292.902344 311.980469 L 291.859375 311.96875 L 290.433594 311.953125 L 289.167969 311.945312 L 287.851562 311.941406 L 286.589844 311.933594 L 284.171875 311.929688 L 281.371094 311.929688 L 280.328125 311.933594 L 278.1875 311.9375 L 277.035156 311.941406 L 275.386719 311.953125 L 274.234375 311.960938 L 272.863281 311.976562 L 271.929688 311.988281 L 270.777344 312.003906 L 269.953125 312.019531 L 269.019531 312.042969 L 268.46875 312.058594 L 267.976562 312.078125 L 267.535156 312.101562 L 267.207031 312.125 L 266.988281 312.152344 L 266.878906 312.175781 L 266.878906 312.28125 L 266.988281 312.304688 L 267.261719 312.335938 L 267.976562 312.378906 L 269.019531 312.414062 L 270.226562 312.441406 L 271.378906 312.460938 L 272.039062 312.472656 L 272.917969 312.484375 L 274.289062 312.496094 L 276.265625 312.511719 L 277.417969 312.515625 L 279.175781 312.519531 L 280.988281 312.523438 L 283.402344 312.523438 L 285.546875 312.519531 L 286.972656 312.519531 L 288.457031 312.511719 L 290.488281 312.5 L 291.75 312.488281 L 292.847656 312.476562 L 293.671875 312.464844 L 294.21875 312.453125 L 295.042969 312.433594 L 295.703125 312.410156 L 296.195312 312.382812 L 296.527344 312.359375 L 304.210938 312.359375 L 303.882812 312.386719 L 303.390625 312.414062 L 302.894531 312.433594 L 302.125 312.460938 L 301.246094 312.480469 L 299.984375 312.503906 L 298.941406 312.519531 L 297.570312 312.539062 L 296.304688 312.550781 L 294.933594 312.5625 L 292.902344 312.574219 L 291.585938 312.582031 L 290.15625 312.589844 L 288.457031 312.59375 L 286.3125 312.597656 L 284.007812 312.601562 L 279.5625 312.601562 L 277.859375 312.597656 L 275.609375 312.59375 L 272.808594 312.578125 L 270.777344 312.566406 L 269.183594 312.554688 L 267.8125 312.539062 L 266.273438 312.519531 L 264.296875 312.492188 L 263.089844 312.46875 L 262.265625 312.449219 L 261.332031 312.421875 L 260.675781 312.398438 L 259.90625 312.359375 L 259.355469 312.3125 L 259.191406 312.273438 Z M 259.191406 312.179688 "/>
<path style=" stroke:none;fill-rule:nonzero;fill:rgb(6.27451%,58.823529%,28.235294%);fill-opacity:1;" d="M 306.582031 309.511719 L 306.628906 309.511719 L 326.109375 306.761719 L 332.027344 306.761719 L 351.601562 309.515625 L 344.726562 309.515625 L 339.820312 308.796875 L 318.320312 308.796875 L 313.507812 309.511719 L 306.582031 309.511719 L 320.386719 308.5 L 337.847656 308.496094 L 329.140625 307.210938 L 329.042969 307.207031 L 328.949219 307.214844 L 320.339844 308.496094 L 320.386719 308.5 Z M 306.582031 309.511719 "/>
<path style=" stroke:none;fill-rule:nonzero;fill:rgb(14.509804%,36.078431%,60%);fill-opacity:1;" d="M 306.582031 311.78125 L 306.636719 311.777344 L 306.636719 311.722656 L 306.800781 311.636719 L 307.1875 311.527344 L 307.570312 311.453125 L 308.558594 311.316406 L 309.929688 311.1875 L 311.359375 311.085938 L 312.402344 311.023438 L 313.335938 310.980469 L 315.476562 310.894531 L 316.847656 310.851562 L 318.332031 310.8125 L 320.144531 310.773438 L 321.460938 310.75 L 324.425781 310.714844 L 326.621094 310.699219 L 328.324219 310.691406 L 332.003906 310.691406 L 334.199219 310.699219 L 335.789062 310.710938 L 337.546875 310.730469 L 339.03125 310.75 L 341.609375 310.800781 L 343.917969 310.863281 L 344.960938 310.902344 L 346.605469 310.972656 L 347.871094 311.042969 L 348.75 311.101562 L 349.738281 311.1875 L 350.613281 311.289062 L 351.273438 311.40625 L 351.601562 311.503906 L 343.917969 311.503906 L 343.53125 311.414062 L 343.09375 311.339844 L 342.269531 311.246094 L 341.445312 311.179688 L 340.292969 311.113281 L 339.25 311.070312 L 337.824219 311.027344 L 336.558594 311 L 335.242188 310.980469 L 333.980469 310.964844 L 331.5625 310.953125 L 328.761719 310.953125 L 327.71875 310.957031 L 325.578125 310.976562 L 324.425781 310.992188 L 322.777344 311.023438 L 321.625 311.054688 L 320.253906 311.097656 L 319.320312 311.136719 L 318.167969 311.195312 L 317.34375 311.25 L 316.410156 311.324219 L 315.859375 311.382812 L 315.367188 311.445312 L 314.925781 311.523438 L 314.597656 311.601562 L 314.378906 311.6875 L 314.269531 311.769531 L 314.269531 312.125 L 314.378906 312.207031 L 314.652344 312.304688 L 315.367188 312.441406 L 316.410156 312.5625 L 317.617188 312.660156 L 318.769531 312.730469 L 319.429688 312.761719 L 320.308594 312.796875 L 321.679688 312.84375 L 323.65625 312.890625 L 324.808594 312.90625 L 326.566406 312.925781 L 328.378906 312.933594 L 330.792969 312.933594 L 332.9375 312.925781 L 334.363281 312.914062 L 335.847656 312.894531 L 337.878906 312.855469 L 339.140625 312.820312 L 340.238281 312.777344 L 341.0625 312.734375 L 341.609375 312.695312 L 342.433594 312.625 L 343.09375 312.546875 L 343.585938 312.46875 L 343.917969 312.390625 L 351.601562 312.390625 L 351.273438 312.480469 L 350.78125 312.570312 L 350.285156 312.636719 L 349.515625 312.71875 L 348.636719 312.789062 L 347.375 312.867188 L 346.332031 312.921875 L 344.960938 312.976562 L 343.695312 313.023438 L 342.324219 313.0625 L 340.292969 313.105469 L 338.976562 313.128906 L 337.546875 313.148438 L 335.847656 313.167969 L 333.703125 313.183594 L 331.398438 313.195312 L 329.257812 313.195312 L 326.953125 313.191406 L 325.25 313.183594 L 323 313.160156 L 320.199219 313.121094 L 318.167969 313.078125 L 316.574219 313.035156 L 315.203125 312.988281 L 313.664062 312.925781 L 311.6875 312.824219 L 310.480469 312.746094 L 309.65625 312.683594 L 308.722656 312.59375 L 308.066406 312.511719 L 307.296875 312.386719 L 306.746094 312.222656 L 306.582031 312.097656 Z M 306.582031 311.78125 "/>
<path style=" stroke:none;fill-rule:nonzero;fill:rgb(96.862745%,70.196078%,16.862745%);fill-opacity:1;" d="M 306.582031 298.328125 L 306.636719 298.316406 L 306.636719 298.082031 L 306.855469 297.5625 L 307.40625 296.84375 L 308.121094 296.25 L 308.886719 295.789062 L 309.382812 295.542969 L 310.207031 295.195312 L 310.917969 294.941406 L 312.730469 294.417969 L 315.039062 293.933594 L 316.300781 293.722656 L 317.726562 293.527344 L 319.757812 293.304688 L 320.691406 293.226562 L 323.546875 293.039062 L 326.785156 292.921875 L 330.355469 292.886719 L 332.003906 292.898438 L 334.253906 292.945312 L 337.328125 293.074219 L 339.085938 293.191406 L 340.457031 293.304688 L 341.886719 293.457031 L 343.640625 293.6875 L 345.289062 293.96875 L 346.605469 294.246094 L 347.925781 294.59375 L 349.023438 294.964844 L 349.957031 295.371094 L 350.78125 295.855469 L 351.273438 296.261719 L 351.601562 296.667969 L 343.972656 296.667969 L 343.53125 296.261719 L 343.039062 295.949219 L 342.214844 295.566406 L 341.390625 295.289062 L 340.566406 295.070312 L 339.03125 294.765625 L 337.710938 294.582031 L 336.066406 294.417969 L 334.472656 294.316406 L 332.660156 294.246094 L 331.5625 294.222656 L 328.652344 294.222656 L 326.019531 294.304688 L 324.480469 294.394531 L 323.382812 294.488281 L 321.84375 294.664062 L 320.910156 294.800781 L 320.363281 294.894531 L 318.714844 295.253906 L 317.617188 295.578125 L 317.015625 295.800781 L 316.246094 296.148438 L 315.695312 296.460938 L 315.09375 296.921875 L 314.761719 297.273438 L 314.324219 298.058594 L 314.269531 300.148438 L 314.433594 300.585938 L 314.761719 301.0625 L 315.203125 301.480469 L 315.859375 301.921875 L 316.519531 302.257812 L 317.671875 302.710938 L 318.660156 303.011719 L 319.429688 303.207031 L 320.910156 303.519531 L 321.515625 303.625 L 322.945312 303.835938 L 324.425781 303.996094 L 326.238281 304.136719 L 327.609375 304.207031 L 329.804688 304.261719 L 332.605469 304.261719 L 335.902344 304.195312 L 337.988281 304.101562 L 339.414062 304.007812 L 340.347656 303.925781 L 341.5 303.800781 L 342.324219 303.683594 L 343.09375 303.554688 L 344.027344 303.359375 L 344.027344 300.585938 L 330.464844 300.574219 L 330.464844 299.277344 L 351.546875 299.265625 L 351.601562 303.800781 L 350.449219 304.113281 L 349.023438 304.414062 L 347.648438 304.644531 L 346.222656 304.84375 L 344.191406 305.0625 L 342.542969 305.203125 L 340.019531 305.363281 L 337.710938 305.46875 L 335.296875 305.539062 L 333.15625 305.574219 L 330.628906 305.585938 L 328.378906 305.5625 L 325.964844 305.492188 L 324.042969 305.398438 L 322.285156 305.285156 L 320.527344 305.132812 L 318.332031 304.890625 L 316.902344 304.691406 L 315.421875 304.449219 L 313.9375 304.160156 L 312.621094 303.847656 L 311.742188 303.601562 L 310.863281 303.324219 L 309.929688 302.976562 L 309.054688 302.582031 L 308.394531 302.222656 L 307.789062 301.816406 L 307.351562 301.433594 L 306.910156 300.914062 L 306.691406 300.496094 L 306.582031 300.136719 Z M 306.582031 298.328125 "/>
<path style=" stroke:none;fill-rule:nonzero;fill:rgb(83.921569%,15.686275%,22.352941%);fill-opacity:1;" d="M 306.582031 111.953125 L 351.601562 111.953125 L 351.601562 131.195312 L 332.839844 131.363281 L 332.839844 291.714844 L 325.289062 291.714844 L 325.289062 131.53125 L 325.179688 131.195312 L 306.582031 131.195312 Z M 306.582031 111.953125 "/>
<path style=" stroke:none;fill-rule:nonzero;fill:rgb(14.509804%,36.078431%,60%);fill-opacity:1;" d="M 353.972656 156.652344 L 354.027344 156.40625 L 354.027344 150.519531 L 354.191406 141.203125 L 354.578125 129.433594 L 354.960938 121.339844 L 355.949219 106.875 L 357.320312 92.898438 L 358.75 82.109375 L 359.792969 75.734375 L 360.726562 70.828125 L 362.867188 61.753906 L 364.238281 57.097656 L 365.722656 52.929688 L 367.535156 48.761719 L 368.851562 46.308594 L 371.816406 42.382812 L 374.011719 40.667969 L 375.714844 39.933594 L 379.394531 39.933594 L 381.589844 40.914062 L 383.179688 42.140625 L 384.9375 44.101562 L 386.421875 46.308594 L 389 51.703125 L 391.308594 58.566406 L 392.351562 62.492188 L 393.996094 70.09375 L 395.261719 77.449219 L 396.140625 83.824219 L 397.128906 92.898438 L 398.003906 103.929688 L 398.664062 116.4375 L 398.992188 126.980469 L 391.308594 126.980469 L 390.921875 117.171875 L 390.484375 109.570312 L 389.660156 99.519531 L 388.835938 92.40625 L 387.683594 85.296875 L 386.640625 80.636719 L 385.210938 75.976562 L 383.949219 73.035156 L 382.632812 70.828125 L 381.371094 69.355469 L 378.953125 67.886719 L 376.152344 67.886719 L 375.109375 68.375 L 372.96875 70.339844 L 371.816406 72.054688 L 370.167969 75.488281 L 369.015625 78.675781 L 367.644531 83.578125 L 366.710938 87.746094 L 365.558594 94.125 L 364.734375 99.761719 L 363.800781 107.855469 L 363.25 113.984375 L 362.757812 120.851562 L 362.316406 128.941406 L 361.988281 137.523438 L 361.769531 146.597656 L 361.660156 155.425781 L 361.660156 193.433594 L 361.769531 202.261719 L 362.042969 212.558594 L 362.757812 227.515625 L 363.800781 240.511719 L 365.007812 250.8125 L 366.160156 258.167969 L 366.820312 261.601562 L 367.699219 265.523438 L 369.070312 270.425781 L 371.046875 275.332031 L 372.199219 277.292969 L 373.957031 279.253906 L 375.769531 280.234375 L 378.183594 280.234375 L 380.328125 279.253906 L 381.753906 278.027344 L 383.238281 276.066406 L 385.269531 271.898438 L 386.53125 267.976562 L 387.628906 263.316406 L 388.453125 258.65625 L 389 254.734375 L 389.824219 247.132812 L 390.484375 238.796875 L 390.976562 230.214844 L 391.308594 221.875 L 398.992188 221.875 L 398.664062 231.683594 L 398.171875 241.246094 L 397.675781 248.359375 L 396.90625 256.941406 L 396.027344 264.542969 L 394.765625 273.125 L 393.722656 278.765625 L 392.351562 284.894531 L 391.085938 289.554688 L 389.714844 293.722656 L 387.683594 298.625 L 386.367188 301.078125 L 384.9375 303.285156 L 383.238281 305.246094 L 381.09375 306.964844 L 378.789062 307.945312 L 376.648438 308.191406 L 374.34375 307.699219 L 372.640625 306.71875 L 370.390625 304.511719 L 367.589844 300.097656 L 365.558594 295.4375 L 363.964844 290.78125 L 362.59375 285.875 L 361.054688 279.253906 L 359.078125 268.464844 L 357.871094 260.128906 L 357.046875 253.261719 L 356.113281 243.699219 L 355.453125 235.117188 L 354.6875 221.386719 L 354.136719 203.976562 L 353.972656 190.488281 Z M 353.972656 156.652344 "/>
<path style=" stroke:none;fill-rule:nonzero;fill:rgb(96.862745%,70.196078%,16.862745%);fill-opacity:1;" d="M 353.972656 310.929688 L 354.027344 310.925781 L 354.027344 310.859375 L 354.246094 310.710938 L 354.796875 310.503906 L 355.511719 310.332031 L 356.277344 310.199219 L 356.773438 310.128906 L 357.597656 310.027344 L 358.308594 309.953125 L 360.121094 309.804688 L 362.429688 309.664062 L 363.691406 309.605469 L 365.117188 309.546875 L 367.148438 309.484375 L 368.082031 309.460938 L 370.9375 309.40625 L 374.175781 309.375 L 377.746094 309.363281 L 379.394531 309.367188 L 381.644531 309.382812 L 384.71875 309.417969 L 386.476562 309.449219 L 387.847656 309.484375 L 389.277344 309.527344 L 391.03125 309.59375 L 392.679688 309.675781 L 393.996094 309.753906 L 395.316406 309.855469 L 396.414062 309.960938 L 397.347656 310.078125 L 398.171875 310.21875 L 398.664062 310.335938 L 398.992188 310.453125 L 391.363281 310.453125 L 390.921875 310.335938 L 390.429688 310.246094 L 389.605469 310.136719 L 388.78125 310.054688 L 387.957031 309.992188 L 386.421875 309.90625 L 385.101562 309.851562 L 383.457031 309.804688 L 381.863281 309.773438 L 380.050781 309.753906 L 378.953125 309.75 L 376.042969 309.75 L 373.410156 309.773438 L 371.871094 309.796875 L 370.773438 309.824219 L 369.234375 309.875 L 368.300781 309.914062 L 367.753906 309.941406 L 366.105469 310.046875 L 365.007812 310.136719 L 364.40625 310.203125 L 363.636719 310.300781 L 363.085938 310.390625 L 362.484375 310.527344 L 362.152344 310.625 L 361.714844 310.851562 L 361.660156 311.453125 L 361.824219 311.582031 L 362.152344 311.71875 L 362.59375 311.835938 L 363.25 311.964844 L 363.910156 312.0625 L 365.0625 312.191406 L 366.050781 312.277344 L 366.820312 312.335938 L 368.300781 312.425781 L 368.90625 312.453125 L 370.332031 312.515625 L 371.816406 312.5625 L 373.628906 312.601562 L 375 312.621094 L 377.195312 312.636719 L 379.996094 312.636719 L 383.292969 312.617188 L 385.378906 312.589844 L 386.804688 312.566406 L 387.738281 312.542969 L 388.890625 312.503906 L 389.714844 312.472656 L 390.484375 312.433594 L 391.417969 312.378906 L 391.417969 311.582031 L 377.855469 311.578125 L 377.855469 311.203125 L 398.9375 311.199219 L 398.992188 312.503906 L 397.839844 312.59375 L 396.414062 312.679688 L 395.039062 312.75 L 393.613281 312.804688 L 391.582031 312.867188 L 389.933594 312.910156 L 387.410156 312.953125 L 385.101562 312.984375 L 382.6875 313.003906 L 380.546875 313.015625 L 378.019531 313.019531 L 375.769531 313.011719 L 373.355469 312.992188 L 371.433594 312.964844 L 369.675781 312.933594 L 367.917969 312.886719 L 365.722656 312.816406 L 364.292969 312.761719 L 362.8125 312.691406 L 361.328125 312.609375 L 360.011719 312.519531 L 359.132812 312.449219 L 358.253906 312.367188 L 357.320312 312.269531 L 356.441406 312.152344 L 355.785156 312.050781 L 355.179688 311.933594 L 354.742188 311.824219 L 354.300781 311.671875 L 354.082031 311.554688 L 353.972656 311.449219 Z M 353.972656 310.929688 "/>
<path style=" stroke:none;fill-rule:nonzero;fill:rgb(6.27451%,58.823529%,28.235294%);fill-opacity:1;" d="M 401.363281 312.445312 L 401.410156 312.441406 L 420.890625 309.566406 L 426.808594 309.566406 L 446.382812 312.449219 L 439.507812 312.449219 L 434.601562 311.695312 L 413.097656 311.695312 L 408.289062 312.445312 L 401.363281 312.445312 L 415.167969 311.386719 L 432.628906 311.382812 L 423.921875 310.039062 L 423.824219 310.035156 L 423.730469 310.042969 L 415.121094 311.382812 L 415.167969 311.386719 Z M 401.363281 312.445312 "/>
<path style=" stroke:none;fill-rule:nonzero;fill:rgb(83.921569%,15.686275%,22.352941%);fill-opacity:1;" d="M 401.363281 40.488281 L 446.382812 40.488281 L 446.382812 69.164062 L 427.621094 69.417969 L 427.621094 308.394531 L 420.070312 308.394531 L 420.070312 69.667969 L 419.960938 69.164062 L 401.363281 69.164062 Z M 401.363281 40.488281 "/>
<path style=" stroke:none;fill-rule:nonzero;fill:rgb(96.862745%,70.196078%,16.862745%);fill-opacity:1;" d="M 448.753906 147.46875 L 448.808594 147.207031 L 448.808594 141.933594 L 449.027344 130.070312 L 449.578125 113.722656 L 450.292969 100.277344 L 451.058594 89.730469 L 451.554688 84.195312 L 452.378906 76.285156 L 453.089844 70.484375 L 454.902344 58.621094 L 457.207031 47.546875 L 458.472656 42.800781 L 459.898438 38.320312 L 461.929688 33.308594 L 462.863281 31.464844 L 465.71875 27.246094 L 468.957031 24.609375 L 472.527344 23.816406 L 474.175781 24.082031 L 476.425781 25.136719 L 479.5 28.035156 L 481.257812 30.671875 L 482.628906 33.308594 L 484.058594 36.738281 L 485.8125 42.007812 L 487.460938 48.335938 L 488.777344 54.664062 L 490.097656 62.574219 L 491.195312 71.011719 L 492.128906 80.238281 L 492.953125 91.3125 L 493.445312 100.539062 L 493.773438 109.769531 L 486.144531 109.769531 L 485.703125 100.539062 L 485.210938 93.421875 L 484.386719 84.722656 L 483.5625 78.394531 L 482.738281 73.382812 L 481.203125 66.53125 L 479.882812 62.3125 L 478.238281 58.621094 L 476.644531 56.246094 L 474.832031 54.664062 L 473.734375 54.136719 L 470.824219 54.136719 L 468.191406 55.984375 L 466.652344 58.09375 L 465.554688 60.203125 L 464.015625 64.15625 L 463.082031 67.320312 L 462.535156 69.429688 L 460.886719 77.601562 L 459.789062 84.984375 L 459.183594 89.996094 L 458.417969 97.902344 L 457.867188 105.023438 L 457.265625 115.570312 L 456.933594 123.476562 L 456.496094 141.40625 L 456.441406 188.863281 L 456.605469 198.882812 L 456.933594 209.691406 L 457.375 219.183594 L 458.03125 229.203125 L 458.691406 236.847656 L 459.84375 247.132812 L 460.832031 253.988281 L 461.601562 258.46875 L 463.082031 265.585938 L 463.6875 267.960938 L 465.113281 272.707031 L 466.597656 276.398438 L 468.410156 279.5625 L 469.78125 281.144531 L 471.976562 282.460938 L 474.777344 282.460938 L 478.074219 280.878906 L 480.160156 278.769531 L 481.585938 276.660156 L 482.519531 274.816406 L 483.671875 271.914062 L 484.496094 269.277344 L 485.265625 266.378906 L 486.199219 261.894531 L 486.199219 198.882812 L 472.636719 198.621094 L 472.636719 169.089844 L 493.71875 168.828125 L 493.773438 271.914062 L 492.621094 279.035156 L 491.195312 285.886719 L 489.820312 291.160156 L 488.394531 295.644531 L 486.363281 300.652344 L 484.714844 303.816406 L 482.191406 307.507812 L 479.882812 309.878906 L 477.46875 311.460938 L 475.328125 312.253906 L 472.800781 312.515625 L 470.550781 311.988281 L 468.136719 310.40625 L 466.214844 308.296875 L 464.457031 305.664062 L 462.699219 302.234375 L 460.503906 296.699219 L 459.074219 292.214844 L 457.59375 286.679688 L 456.109375 280.089844 L 454.792969 272.96875 L 453.914062 267.433594 L 453.035156 261.105469 L 452.101562 253.195312 L 451.222656 244.230469 L 450.566406 236.058594 L 449.960938 226.832031 L 449.523438 218.128906 L 449.082031 206.265625 L 448.863281 196.773438 L 448.753906 188.601562 Z M 448.753906 147.46875 "/>
<path style=" stroke:none;fill-rule:nonzero;fill:rgb(14.509804%,36.078431%,60%);fill-opacity:1;" d="M 496.144531 306.578125 L 496.199219 306.566406 L 496.199219 306.324219 L 496.363281 305.941406 L 496.75 305.457031 L 497.132812 305.125 L 498.121094 304.527344 L 499.492188 303.953125 L 500.921875 303.511719 L 501.964844 303.246094 L 502.898438 303.046875 L 505.039062 302.671875 L 506.410156 302.480469 L 507.894531 302.308594 L 509.707031 302.136719 L 511.023438 302.035156 L 513.988281 301.875 L 516.183594 301.804688 L 517.886719 301.773438 L 521.566406 301.773438 L 523.761719 301.816406 L 525.351562 301.867188 L 527.109375 301.945312 L 528.59375 302.035156 L 531.171875 302.257812 L 533.480469 302.542969 L 534.523438 302.703125 L 536.167969 303.015625 L 537.433594 303.316406 L 538.308594 303.582031 L 539.296875 303.953125 L 540.175781 304.40625 L 540.835938 304.921875 L 541.164062 305.355469 L 533.480469 305.355469 L 533.09375 304.953125 L 532.65625 304.640625 L 531.832031 304.226562 L 531.007812 303.933594 L 529.855469 303.640625 L 528.8125 303.449219 L 527.382812 303.257812 L 526.121094 303.136719 L 524.804688 303.046875 L 523.542969 302.984375 L 521.125 302.925781 L 518.324219 302.925781 L 517.28125 302.945312 L 515.140625 303.027344 L 513.988281 303.097656 L 512.339844 303.238281 L 511.1875 303.367188 L 509.816406 303.570312 L 508.882812 303.742188 L 507.730469 304.003906 L 506.90625 304.234375 L 505.972656 304.570312 L 505.421875 304.820312 L 504.929688 305.105469 L 504.488281 305.4375 L 504.160156 305.789062 L 503.941406 306.164062 L 503.832031 306.527344 L 503.832031 308.089844 L 503.941406 308.453125 L 504.214844 308.875 L 504.929688 309.492188 L 505.972656 310.027344 L 507.179688 310.449219 L 508.332031 310.753906 L 508.992188 310.894531 L 509.871094 311.054688 L 511.242188 311.257812 L 513.21875 311.457031 L 514.371094 311.539062 L 516.128906 311.621094 L 517.941406 311.660156 L 520.355469 311.660156 L 522.5 311.621094 L 523.925781 311.570312 L 525.40625 311.488281 L 527.4375 311.316406 L 528.703125 311.15625 L 529.800781 310.964844 L 530.625 310.773438 L 531.171875 310.609375 L 531.996094 310.296875 L 532.65625 309.957031 L 533.148438 309.601562 L 533.480469 309.257812 L 541.164062 309.257812 L 540.835938 309.664062 L 540.34375 310.054688 L 539.847656 310.347656 L 539.078125 310.703125 L 538.199219 311.015625 L 536.9375 311.367188 L 535.894531 311.597656 L 534.523438 311.851562 L 533.257812 312.042969 L 531.886719 312.214844 L 529.855469 312.417969 L 528.539062 312.515625 L 527.109375 312.609375 L 525.40625 312.6875 L 523.265625 312.757812 L 520.960938 312.800781 L 518.820312 312.808594 L 516.511719 312.789062 L 514.8125 312.75 L 512.558594 312.660156 L 509.761719 312.476562 L 507.730469 312.285156 L 506.136719 312.09375 L 504.765625 311.890625 L 503.226562 311.621094 L 501.25 311.175781 L 500.042969 310.832031 L 499.21875 310.550781 L 498.285156 310.15625 L 497.625 309.804688 L 496.859375 309.238281 L 496.308594 308.523438 L 496.144531 307.96875 Z M 496.144531 306.578125 "/>
<path style=" stroke:none;fill-rule:nonzero;fill:rgb(96.862745%,70.196078%,16.862745%);fill-opacity:1;" d="M 496.144531 227.761719 L 496.199219 227.679688 L 496.199219 226.097656 L 496.417969 222.535156 L 496.96875 217.625 L 497.683594 213.585938 L 498.449219 210.417969 L 498.945312 208.753906 L 499.769531 206.378906 L 500.480469 204.636719 L 502.292969 201.070312 L 504.597656 197.746094 L 505.863281 196.320312 L 507.289062 194.972656 L 509.320312 193.46875 L 510.253906 192.914062 L 513.109375 191.648438 L 516.347656 190.855469 L 519.917969 190.617188 L 521.566406 190.695312 L 523.816406 191.011719 L 526.890625 191.882812 L 528.648438 192.675781 L 530.019531 193.46875 L 531.449219 194.5 L 533.203125 196.082031 L 534.851562 197.984375 L 536.167969 199.882812 L 537.488281 202.257812 L 538.585938 204.792969 L 539.519531 207.566406 L 540.34375 210.890625 L 540.835938 213.664062 L 541.164062 216.433594 L 533.535156 216.433594 L 533.09375 213.664062 L 532.601562 211.523438 L 531.777344 208.910156 L 530.953125 207.011719 L 530.128906 205.507812 L 528.59375 203.445312 L 527.273438 202.179688 L 525.628906 201.070312 L 524.035156 200.359375 L 522.222656 199.882812 L 521.125 199.726562 L 518.214844 199.726562 L 515.582031 200.28125 L 514.042969 200.914062 L 512.945312 201.546875 L 511.40625 202.734375 L 510.472656 203.683594 L 509.925781 204.320312 L 508.277344 206.773438 L 507.179688 208.992188 L 506.574219 210.496094 L 505.808594 212.871094 L 505.257812 215.011719 L 504.65625 218.175781 L 504.324219 220.554688 L 503.886719 225.9375 L 503.832031 240.195312 L 503.996094 243.203125 L 504.324219 246.449219 L 504.765625 249.300781 L 505.421875 252.3125 L 506.082031 254.609375 L 507.234375 257.695312 L 508.222656 259.753906 L 508.992188 261.101562 L 510.472656 263.242188 L 511.078125 263.953125 L 512.503906 265.378906 L 513.988281 266.488281 L 515.800781 267.4375 L 517.171875 267.914062 L 519.367188 268.308594 L 522.167969 268.308594 L 525.464844 267.832031 L 527.550781 267.199219 L 528.976562 266.566406 L 529.910156 266.011719 L 531.0625 265.140625 L 531.886719 264.347656 L 532.65625 263.476562 L 533.589844 262.132812 L 533.589844 243.203125 L 520.027344 243.125 L 520.027344 234.253906 L 541.109375 234.175781 L 541.164062 265.140625 L 540.011719 267.277344 L 538.585938 269.339844 L 537.210938 270.921875 L 535.785156 272.269531 L 533.753906 273.773438 L 532.105469 274.722656 L 529.582031 275.832031 L 527.273438 276.546875 L 524.859375 277.019531 L 522.71875 277.257812 L 520.191406 277.335938 L 517.941406 277.179688 L 515.523438 276.703125 L 513.605469 276.070312 L 511.847656 275.277344 L 510.089844 274.25 L 507.894531 272.585938 L 506.464844 271.238281 L 504.984375 269.574219 L 503.5 267.597656 L 502.183594 265.457031 L 501.304688 263.792969 L 500.425781 261.894531 L 499.492188 259.519531 L 498.613281 256.824219 L 497.957031 254.371094 L 497.351562 251.597656 L 496.914062 248.984375 L 496.472656 245.421875 L 496.253906 242.570312 L 496.144531 240.113281 Z M 496.144531 227.761719 "/>
<path style=" stroke:none;fill-rule:nonzero;fill:rgb(83.921569%,15.686275%,22.352941%);fill-opacity:1;" d="M 496.144531 278.511719 L 541.164062 278.511719 L 541.164062 280.875 L 522.402344 280.898438 L 522.402344 300.601562 L 514.851562 300.601562 L 514.851562 280.917969 L 514.742188 280.875 L 496.144531 280.875 Z M 496.144531 278.511719 "/>
<path style=" stroke:none;fill-rule:nonzero;fill:rgb(6.27451%,58.823529%,28.235294%);fill-opacity:1;" d="M 543.535156 282.6875 L 543.582031 282.640625 L 563.0625 233.894531 L 568.980469 233.894531 L 588.554688 282.734375 L 581.675781 282.734375 L 576.773438 269.984375 L 555.269531 269.984375 L 550.460938 282.6875 L 543.535156 282.6875 L 557.339844 264.710938 L 574.800781 264.664062 L 566.09375 241.871094 L 565.996094 241.828125 L 565.902344 241.964844 L 557.292969 264.664062 L 557.339844 264.710938 Z M 543.535156 282.6875 "/>
<path style=" stroke:none;fill-rule:nonzero;fill:rgb(14.509804%,36.078431%,60%);fill-opacity:1;" d="M 543.535156 291.695312 L 543.589844 291.675781 L 543.589844 291.285156 L 543.753906 290.664062 L 544.140625 289.878906 L 544.523438 289.339844 L 545.511719 288.375 L 546.882812 287.441406 L 548.3125 286.722656 L 549.355469 286.296875 L 550.289062 285.96875 L 552.429688 285.363281 L 553.800781 285.054688 L 555.285156 284.773438 L 557.097656 284.496094 L 558.414062 284.332031 L 561.378906 284.070312 L 563.574219 283.957031 L 565.277344 283.90625 L 568.957031 283.90625 L 571.152344 283.972656 L 572.742188 284.054688 L 574.5 284.1875 L 575.984375 284.332031 L 578.5625 284.691406 L 580.871094 285.152344 L 581.914062 285.414062 L 583.558594 285.921875 L 584.824219 286.410156 L 585.699219 286.835938 L 586.6875 287.441406 L 587.566406 288.175781 L 588.226562 289.011719 L 588.554688 289.714844 L 580.871094 289.714844 L 580.484375 289.0625 L 580.046875 288.554688 L 579.222656 287.882812 L 578.398438 287.410156 L 577.246094 286.933594 L 576.203125 286.625 L 574.773438 286.3125 L 573.511719 286.117188 L 572.195312 285.96875 L 570.933594 285.871094 L 568.515625 285.773438 L 565.714844 285.773438 L 564.671875 285.804688 L 562.53125 285.9375 L 561.378906 286.050781 L 559.730469 286.28125 L 558.578125 286.492188 L 557.207031 286.820312 L 556.273438 287.097656 L 555.121094 287.523438 L 554.296875 287.898438 L 553.363281 288.4375 L 552.8125 288.847656 L 552.320312 289.304688 L 551.878906 289.84375 L 551.550781 290.417969 L 551.332031 291.023438 L 551.222656 291.613281 L 551.222656 294.148438 L 551.332031 294.738281 L 551.605469 295.421875 L 552.320312 296.421875 L 553.363281 297.289062 L 554.570312 297.976562 L 555.722656 298.464844 L 556.382812 298.695312 L 557.261719 298.957031 L 558.632812 299.285156 L 560.609375 299.609375 L 561.761719 299.742188 L 563.519531 299.871094 L 565.332031 299.9375 L 567.746094 299.9375 L 569.886719 299.871094 L 571.316406 299.789062 L 572.796875 299.660156 L 574.828125 299.382812 L 576.09375 299.121094 L 577.191406 298.808594 L 578.015625 298.5 L 578.5625 298.238281 L 579.386719 297.730469 L 580.046875 297.171875 L 580.539062 296.601562 L 580.871094 296.046875 L 588.554688 296.046875 L 588.226562 296.699219 L 587.730469 297.335938 L 587.238281 297.8125 L 586.46875 298.382812 L 585.589844 298.890625 L 584.328125 299.464844 L 583.285156 299.839844 L 581.914062 300.25 L 580.648438 300.558594 L 579.277344 300.835938 L 577.246094 301.164062 L 575.929688 301.328125 L 574.5 301.476562 L 572.796875 301.605469 L 570.65625 301.722656 L 568.351562 301.785156 L 566.210938 301.800781 L 563.902344 301.769531 L 562.203125 301.703125 L 559.949219 301.558594 L 557.152344 301.261719 L 555.121094 300.953125 L 553.527344 300.640625 L 552.15625 300.3125 L 550.617188 299.871094 L 548.640625 299.152344 L 547.433594 298.597656 L 546.609375 298.136719 L 545.675781 297.5 L 545.015625 296.929688 L 544.25 296.011719 L 543.699219 294.851562 L 543.535156 293.953125 Z M 543.535156 291.695312 "/>
<path style=" stroke:none;fill-rule:nonzero;fill:rgb(96.862745%,70.196078%,16.862745%);fill-opacity:1;" d="M 543.535156 305.507812 L 543.589844 305.503906 L 543.589844 305.394531 L 543.808594 305.152344 L 544.359375 304.820312 L 545.070312 304.542969 L 545.839844 304.328125 L 546.335938 304.214844 L 547.160156 304.050781 L 547.871094 303.933594 L 549.683594 303.691406 L 551.988281 303.464844 L 553.253906 303.367188 L 554.679688 303.273438 L 556.710938 303.171875 L 557.644531 303.132812 L 560.5 303.046875 L 563.738281 302.992188 L 567.308594 302.976562 L 568.957031 302.984375 L 571.207031 303.003906 L 574.28125 303.0625 L 576.039062 303.117188 L 577.410156 303.171875 L 578.839844 303.242188 L 580.59375 303.351562 L 582.242188 303.480469 L 583.558594 303.609375 L 584.878906 303.769531 L 585.976562 303.945312 L 586.910156 304.132812 L 587.730469 304.359375 L 588.226562 304.546875 L 588.554688 304.738281 L 580.925781 304.738281 L 580.484375 304.546875 L 579.992188 304.402344 L 579.167969 304.226562 L 578.34375 304.09375 L 577.519531 303.992188 L 575.984375 303.851562 L 574.664062 303.765625 L 573.019531 303.691406 L 571.425781 303.640625 L 569.613281 303.609375 L 568.515625 303.597656 L 565.605469 303.597656 L 562.972656 303.636719 L 561.433594 303.679688 L 560.335938 303.722656 L 558.796875 303.804688 L 557.863281 303.867188 L 557.316406 303.910156 L 555.667969 304.078125 L 554.570312 304.230469 L 553.964844 304.332031 L 553.199219 304.496094 L 552.648438 304.640625 L 552.046875 304.855469 L 551.714844 305.019531 L 551.277344 305.386719 L 551.222656 306.355469 L 551.386719 306.5625 L 551.714844 306.785156 L 552.15625 306.976562 L 552.8125 307.183594 L 553.472656 307.339844 L 554.625 307.550781 L 555.613281 307.691406 L 556.382812 307.78125 L 557.863281 307.929688 L 558.46875 307.976562 L 559.894531 308.074219 L 561.378906 308.148438 L 563.191406 308.214844 L 564.5625 308.246094 L 566.757812 308.273438 L 569.558594 308.273438 L 572.851562 308.242188 L 574.941406 308.199219 L 576.367188 308.15625 L 577.300781 308.117188 L 578.453125 308.058594 L 579.277344 308.003906 L 580.046875 307.945312 L 580.980469 307.851562 L 580.980469 306.5625 L 567.417969 306.558594 L 567.417969 305.953125 L 588.5 305.945312 L 588.554688 308.058594 L 587.402344 308.203125 L 585.976562 308.34375 L 584.601562 308.453125 L 583.175781 308.542969 L 581.144531 308.648438 L 579.496094 308.710938 L 576.972656 308.785156 L 574.664062 308.835938 L 572.25 308.867188 L 570.109375 308.882812 L 567.582031 308.890625 L 565.332031 308.878906 L 562.914062 308.847656 L 560.996094 308.804688 L 559.238281 308.75 L 557.480469 308.679688 L 555.285156 308.566406 L 553.855469 308.472656 L 552.375 308.359375 L 550.890625 308.226562 L 549.574219 308.078125 L 548.695312 307.964844 L 547.816406 307.835938 L 546.882812 307.675781 L 546.003906 307.492188 L 545.347656 307.324219 L 544.742188 307.136719 L 544.304688 306.957031 L 543.863281 306.714844 L 543.644531 306.519531 L 543.535156 306.351562 Z M 543.535156 305.507812 "/>
<path style=" stroke:none;fill-rule:nonzero;fill:rgb(83.921569%,15.686275%,22.352941%);fill-opacity:1;" d="M 543.535156 310.0625 L 588.554688 310.0625 L 588.554688 310.398438 L 569.792969 310.402344 L 569.792969 313.195312 L 562.242188 313.195312 L 562.242188 310.40625 L 562.132812 310.398438 L 543.535156 310.398438 Z M 543.535156 310.0625 "/>
<path style=" stroke:none;fill-rule:nonzero;fill:rgb(6.27451%,58.823529%,28.235294%);fill-opacity:1;" d="M 590.925781 301.472656 L 590.972656 301.460938 L 610.453125 290.832031 L 616.371094 290.832031 L 635.945312 301.480469 L 629.066406 301.480469 L 624.164062 298.699219 L 602.660156 298.699219 L 597.851562 301.472656 L 590.925781 301.472656 L 604.730469 297.550781 L 622.191406 297.539062 L 613.484375 292.570312 L 613.386719 292.558594 L 613.292969 292.589844 L 604.683594 297.539062 L 604.730469 297.550781 Z M 590.925781 301.472656 "/>
<path style=" stroke:none;fill-rule:nonzero;fill:rgb(14.509804%,36.078431%,60%);fill-opacity:1;" d="M 590.925781 306.074219 L 590.980469 306.066406 L 590.980469 305.894531 L 591.144531 305.621094 L 591.53125 305.277344 L 591.914062 305.039062 L 592.902344 304.617188 L 594.273438 304.207031 L 595.703125 303.890625 L 596.746094 303.703125 L 597.679688 303.5625 L 599.820312 303.292969 L 601.191406 303.160156 L 602.675781 303.035156 L 604.488281 302.914062 L 605.804688 302.84375 L 608.769531 302.726562 L 610.964844 302.675781 L 612.667969 302.65625 L 616.347656 302.65625 L 618.542969 302.683594 L 620.132812 302.71875 L 621.890625 302.777344 L 623.375 302.84375 L 625.953125 303 L 628.261719 303.203125 L 629.304688 303.316406 L 630.949219 303.539062 L 632.214844 303.753906 L 633.089844 303.941406 L 634.078125 304.207031 L 634.957031 304.53125 L 635.617188 304.894531 L 635.945312 305.207031 L 628.261719 305.207031 L 627.875 304.917969 L 627.4375 304.695312 L 626.613281 304.402344 L 625.789062 304.191406 L 624.636719 303.984375 L 623.59375 303.847656 L 622.164062 303.710938 L 620.902344 303.625 L 619.585938 303.5625 L 618.324219 303.515625 L 615.90625 303.472656 L 613.105469 303.472656 L 612.0625 303.488281 L 609.921875 303.546875 L 608.769531 303.597656 L 607.121094 303.695312 L 605.96875 303.789062 L 604.597656 303.933594 L 603.664062 304.054688 L 602.511719 304.242188 L 601.6875 304.40625 L 600.753906 304.644531 L 600.203125 304.824219 L 599.710938 305.027344 L 599.269531 305.261719 L 598.941406 305.515625 L 598.722656 305.78125 L 598.613281 306.039062 L 598.613281 307.152344 L 598.722656 307.410156 L 598.996094 307.710938 L 599.710938 308.148438 L 600.753906 308.53125 L 601.960938 308.832031 L 603.113281 309.046875 L 603.773438 309.148438 L 604.652344 309.261719 L 606.023438 309.40625 L 608 309.550781 L 609.152344 309.609375 L 610.910156 309.664062 L 612.722656 309.695312 L 615.136719 309.695312 L 617.277344 309.664062 L 618.707031 309.628906 L 620.1875 309.570312 L 622.21875 309.449219 L 623.484375 309.335938 L 624.582031 309.199219 L 625.40625 309.0625 L 625.953125 308.945312 L 626.777344 308.722656 L 627.4375 308.480469 L 627.929688 308.230469 L 628.261719 307.984375 L 635.945312 307.984375 L 635.617188 308.273438 L 635.121094 308.550781 L 634.628906 308.761719 L 633.859375 309.011719 L 632.980469 309.234375 L 631.71875 309.484375 L 630.675781 309.652344 L 629.304688 309.832031 L 628.039062 309.96875 L 626.667969 310.089844 L 624.636719 310.234375 L 623.320312 310.304688 L 621.890625 310.371094 L 620.1875 310.425781 L 618.046875 310.476562 L 615.742188 310.503906 L 613.601562 310.511719 L 611.292969 310.5 L 609.59375 310.46875 L 607.339844 310.40625 L 604.542969 310.277344 L 602.511719 310.140625 L 600.917969 310.003906 L 599.546875 309.859375 L 598.007812 309.664062 L 596.03125 309.347656 L 594.824219 309.105469 L 594 308.902344 L 593.066406 308.625 L 592.40625 308.371094 L 591.640625 307.96875 L 591.089844 307.460938 L 590.925781 307.066406 Z M 590.925781 306.074219 "/>
<path style=" stroke:none;fill-rule:nonzero;fill:rgb(96.862745%,70.196078%,16.862745%);fill-opacity:1;" d="M 590.925781 312.332031 L 590.980469 312.332031 L 590.980469 312.304688 L 591.199219 312.242188 L 591.75 312.15625 L 592.460938 312.085938 L 593.230469 312.03125 L 593.726562 312.003906 L 594.550781 311.960938 L 595.261719 311.929688 L 597.074219 311.871094 L 599.378906 311.8125 L 600.644531 311.785156 L 602.070312 311.761719 L 604.101562 311.738281 L 605.035156 311.726562 L 607.890625 311.707031 L 611.128906 311.691406 L 614.699219 311.6875 L 616.347656 311.6875 L 618.597656 311.695312 L 621.671875 311.710938 L 623.429688 311.722656 L 624.800781 311.738281 L 626.230469 311.753906 L 627.984375 311.78125 L 629.632812 311.816406 L 630.949219 311.847656 L 632.269531 311.890625 L 633.367188 311.933594 L 634.300781 311.984375 L 635.121094 312.039062 L 635.617188 312.089844 L 635.945312 312.136719 L 628.316406 312.136719 L 627.875 312.089844 L 627.382812 312.050781 L 626.558594 312.007812 L 625.734375 311.972656 L 624.910156 311.945312 L 623.375 311.910156 L 622.054688 311.890625 L 620.410156 311.871094 L 618.816406 311.855469 L 617.003906 311.847656 L 612.996094 311.847656 L 610.363281 311.855469 L 608.824219 311.867188 L 607.726562 311.878906 L 606.1875 311.898438 L 605.253906 311.914062 L 604.707031 311.925781 L 603.058594 311.96875 L 601.960938 312.007812 L 601.355469 312.035156 L 600.589844 312.074219 L 600.039062 312.113281 L 599.433594 312.167969 L 599.105469 312.207031 L 598.667969 312.300781 L 598.613281 312.550781 L 598.777344 312.601562 L 599.105469 312.660156 L 599.546875 312.707031 L 600.203125 312.761719 L 600.863281 312.800781 L 602.015625 312.855469 L 603.003906 312.890625 L 603.773438 312.914062 L 605.253906 312.949219 L 605.859375 312.964844 L 607.285156 312.988281 L 608.769531 313.007812 L 610.582031 313.023438 L 611.953125 313.03125 L 614.148438 313.039062 L 616.949219 313.039062 L 620.242188 313.03125 L 622.332031 313.019531 L 623.757812 313.007812 L 624.691406 313 L 625.84375 312.984375 L 626.667969 312.96875 L 627.4375 312.953125 L 628.371094 312.929688 L 628.371094 312.601562 L 614.808594 312.601562 L 614.808594 312.445312 L 635.890625 312.445312 L 635.945312 312.984375 L 634.792969 313.019531 L 633.367188 313.058594 L 631.992188 313.085938 L 630.566406 313.109375 L 628.535156 313.132812 L 626.886719 313.148438 L 624.363281 313.167969 L 622.054688 313.183594 L 619.640625 313.191406 L 617.5 313.195312 L 614.972656 313.195312 L 612.722656 313.191406 L 610.304688 313.183594 L 608.386719 313.171875 L 606.628906 313.160156 L 604.871094 313.140625 L 602.675781 313.113281 L 601.246094 313.089844 L 599.765625 313.0625 L 598.28125 313.027344 L 596.964844 312.988281 L 596.085938 312.960938 L 595.207031 312.925781 L 594.273438 312.886719 L 593.394531 312.839844 L 592.738281 312.796875 L 592.132812 312.75 L 591.695312 312.703125 L 591.253906 312.640625 L 591.035156 312.589844 L 590.925781 312.546875 Z M 590.925781 312.332031 "/>
<path style=" stroke:none;fill-rule:nonzero;fill:rgb(83.921569%,15.686275%,22.352941%);fill-opacity:1;" d="M 590.925781 265.660156 L 635.945312 265.660156 L 635.945312 268.230469 L 617.183594 268.253906 L 617.183594 289.65625 L 609.632812 289.65625 L 609.632812 268.273438 L 609.523438 268.230469 L 590.925781 268.230469 Z M 590.925781 265.660156 "/>
<g style="fill:rgb(0%,0%,0%);fill-opacity:1;">
  <use xlink:href="#glyph0-1" x="21.957031" y="317.018555"/>
  <use xlink:href="#glyph0-2" x="27.291016" y="317.018555"/>
  <use xlink:href="#glyph0-1" x="29.958008" y="317.018555"/>
</g>
<g style="fill:rgb(0%,0%,0%);fill-opacity:1;">
  <use xlink:href="#glyph0-1" x="21.957031" y="243.401367"/>
  <use xlink:href="#glyph0-2" x="27.291016" y="243.401367"/>
  <use xlink:href="#glyph0-3" x="29.958008" y="243.401367"/>
</g>
<g style="fill:rgb(0%,0%,0%);fill-opacity:1;">
  <use xlink:href="#glyph0-4" x="21.957031" y="169.780273"/>
  <use xlink:href="#glyph0-2" x="27.291016" y="169.780273"/>
  <use xlink:href="#glyph0-1" x="29.958008" y="169.780273"/>
</g>
<g style="fill:rgb(0%,0%,0%);fill-opacity:1;">
  <use xlink:href="#glyph0-4" x="21.957031" y="96.163086"/>
  <use xlink:href="#glyph0-2" x="27.291016" y="96.163086"/>
  <use xlink:href="#glyph0-3" x="29.958008" y="96.163086"/>
</g>
<g style="fill:rgb(0%,0%,0%);fill-opacity:1;">
  <use xlink:href="#glyph0-5" x="21.957031" y="22.545898"/>
  <use xlink:href="#glyph0-2" x="27.291016" y="22.545898"/>
  <use xlink:href="#glyph0-1" x="29.958008" y="22.545898"/>
</g>
<g style="fill:rgb(0%,0%,0%);fill-opacity:1;">
  <use xlink:href="#glyph0-4" x="89.140625" y="338.19043"/>
</g>
<g style="fill:rgb(0%,0%,0%);fill-opacity:1;">
  <use xlink:href="#glyph0-5" x="136.53125" y="338.19043"/>
</g>
<g style="fill:rgb(0%,0%,0%);fill-opacity:1;">
  <use xlink:href="#glyph0-6" x="183.921875" y="338.19043"/>
</g>
<g style="fill:rgb(0%,0%,0%);fill-opacity:1;">
  <use xlink:href="#glyph0-7" x="231.3125" y="338.19043"/>
</g>
<g style="fill:rgb(0%,0%,0%);fill-opacity:1;">
  <use xlink:href="#glyph0-3" x="278.703125" y="338.19043"/>
</g>
<g style="fill:rgb(0%,0%,0%);fill-opacity:1;">
  <use xlink:href="#glyph0-8" x="326.09375" y="338.19043"/>
</g>
<g style="fill:rgb(0%,0%,0%);fill-opacity:1;">
  <use xlink:href="#glyph0-9" x="373.484375" y="338.19043"/>
</g>
<g style="fill:rgb(0%,0%,0%);fill-opacity:1;">
  <use xlink:href="#glyph0-10" x="420.875" y="338.19043"/>
</g>
<g style="fill:rgb(0%,0%,0%);fill-opacity:1;">
  <use xlink:href="#glyph0-11" x="468.265625" y="338.19043"/>
</g>
<g style="fill:rgb(0%,0%,0%);fill-opacity:1;">
  <use xlink:href="#glyph0-4" x="513.15625" y="338.19043"/>
  <use xlink:href="#glyph0-1" x="518.490234" y="338.19043"/>
</g>
<g style="fill:rgb(0%,0%,0%);fill-opacity:1;">
  <use xlink:href="#glyph0-4" x="560.546875" y="338.19043"/>
  <use xlink:href="#glyph0-4" x="565.880859" y="338.19043"/>
</g>
<g style="fill:rgb(0%,0%,0%);fill-opacity:1;">
  <use xlink:href="#glyph0-4" x="607.9375" y="338.19043"/>
  <use xlink:href="#glyph0-5" x="613.271484" y="338.19043"/>
</g>
<g style="fill:rgb(0%,0%,0%);fill-opacity:1;">
  <use xlink:href="#glyph0-4" x="655.328125" y="338.19043"/>
  <use xlink:href="#glyph0-6" x="660.662109" y="338.19043"/>
</g>
<g style="fill:rgb(0%,0%,0%);fill-opacity:1;">
  <use xlink:href="#glyph1-1" x="14.412109" y="178.015625"/>
  <use xlink:href="#glyph1-2" x="14.412109" y="170.011719"/>
  <use xlink:href="#glyph1-3" x="14.412109" y="167.347656"/>
  <use xlink:href="#glyph1-4" x="14.412109" y="164.011719"/>
</g>
</g>
</svg>
