<?xml version="1.0" encoding="UTF-8"?>
<svg xmlns="http://www.w3.org/2000/svg" xmlns:xlink="http://www.w3.org/1999/xlink" width="720pt" height="360pt" viewBox="0 0 720 360" version="1.1">
<defs>
<g>
<symbol overflow="visible" id="glyph0-0">
<path style="stroke:none;" d=""/>
</symbol>
<symbol overflow="visible" id="glyph0-1">
<path style="stroke:none;" d="M 2.640625 -6.796875 C 2 -6.796875 1.421875 -6.53125 1.078125 -6.046875 C 0.640625 -5.453125 0.40625 -4.546875 0.40625 -3.296875 C 0.40625 -1 1.1875 0.21875 2.640625 0.21875 C 4.078125 0.21875 4.859375 -1 4.859375 -3.234375 C 4.859375 -4.5625 4.65625 -5.4375 4.203125 -6.046875 C 3.84375 -6.53125 3.28125 -6.796875 2.640625 -6.796875 Z M 2.640625 -6.046875 C 3.546875 -6.046875 4 -5.125 4 -3.3125 C 4 -1.375 3.5625 -0.484375 2.625 -0.484375 C 1.734375 -0.484375 1.28125 -1.421875 1.28125 -3.28125 C 1.28125 -5.140625 1.734375 -6.046875 2.640625 -6.046875 Z M 2.640625 -6.046875 "/>
</symbol>
<symbol overflow="visible" id="glyph0-2">
<path style="stroke:none;" d="M 1.828125 -1 L 0.828125 -1 L 0.828125 0 L 1.828125 0 Z M 1.828125 -1 "/>
</symbol>
<symbol overflow="visible" id="glyph0-3">
<path style="stroke:none;" d="M 4.5625 -6.796875 L 1.0625 -6.796875 L 0.546875 -3.09375 L 1.328125 -3.09375 C 1.71875 -3.5625 2.046875 -3.734375 2.578125 -3.734375 C 3.484375 -3.734375 4.0625 -3.109375 4.0625 -2.09375 C 4.0625 -1.125 3.484375 -0.53125 2.578125 -0.53125 C 1.828125 -0.53125 1.375 -0.90625 1.1875 -1.671875 L 0.328125 -1.671875 C 0.453125 -1.109375 0.546875 -0.84375 0.75 -0.59375 C 1.125 -0.078125 1.828125 0.21875 2.59375 0.21875 C 3.96875 0.21875 4.921875 -0.78125 4.921875 -2.21875 C 4.921875 -3.5625 4.03125 -4.484375 2.71875 -4.484375 C 2.25 -4.484375 1.859375 -4.359375 1.46875 -4.0625 L 1.734375 -5.96875 L 4.5625 -5.96875 Z M 4.5625 -6.796875 "/>
</symbol>
<symbol overflow="visible" id="glyph0-4">
<path style="stroke:none;" d="M 2.484375 -4.84375 L 2.484375 0 L 3.328125 0 L 3.328125 -6.796875 L 2.765625 -6.796875 C 2.46875 -5.75 2.28125 -5.609375 0.984375 -5.453125 L 0.984375 -4.84375 Z M 2.484375 -4.84375 "/>
</symbol>
<symbol overflow="visible" id="glyph0-5">
<path style="stroke:none;" d="M 4.859375 -0.828125 L 1.28125 -0.828125 C 1.359375 -1.390625 1.671875 -1.75 2.5 -2.234375 L 3.46875 -2.75 C 4.40625 -3.265625 4.90625 -3.96875 4.90625 -4.8125 C 4.90625 -5.375 4.671875 -5.90625 4.265625 -6.265625 C 3.859375 -6.625 3.375 -6.796875 2.71875 -6.796875 C 1.859375 -6.796875 1.21875 -6.5 0.84375 -5.921875 C 0.609375 -5.5625 0.5 -5.125 0.484375 -4.4375 L 1.328125 -4.4375 C 1.359375 -4.90625 1.40625 -5.1875 1.53125 -5.40625 C 1.75 -5.8125 2.1875 -6.0625 2.703125 -6.0625 C 3.46875 -6.0625 4.03125 -5.515625 4.03125 -4.78125 C 4.03125 -4.25 3.71875 -3.796875 3.125 -3.4375 L 2.234375 -2.9375 C 0.8125 -2.140625 0.40625 -1.5 0.328125 0 L 4.859375 0 Z M 4.859375 -0.828125 "/>
</symbol>
<symbol overflow="visible" id="glyph0-6">
<path style="stroke:none;" d="M 2.125 -3.125 L 2.578125 -3.125 C 3.515625 -3.125 3.984375 -2.703125 3.984375 -1.890625 C 3.984375 -1.03125 3.46875 -0.53125 2.578125 -0.53125 C 1.65625 -0.53125 1.203125 -0.984375 1.15625 -1.96875 L 0.3125 -1.96875 C 0.34375 -1.421875 0.4375 -1.078125 0.609375 -0.765625 C 0.953125 -0.109375 1.625 0.21875 2.546875 0.21875 C 3.953125 0.21875 4.859375 -0.609375 4.859375 -1.90625 C 4.859375 -2.765625 4.515625 -3.25 3.703125 -3.515625 C 4.34375 -3.765625 4.65625 -4.25 4.65625 -4.9375 C 4.65625 -6.109375 3.875 -6.796875 2.578125 -6.796875 C 1.203125 -6.796875 0.484375 -6.046875 0.453125 -4.609375 L 1.296875 -4.609375 C 1.3125 -5.015625 1.34375 -5.25 1.453125 -5.453125 C 1.640625 -5.828125 2.0625 -6.0625 2.59375 -6.0625 C 3.34375 -6.0625 3.796875 -5.625 3.796875 -4.90625 C 3.796875 -4.421875 3.609375 -4.140625 3.25 -3.984375 C 3.015625 -3.890625 2.71875 -3.84375 2.125 -3.84375 Z M 2.125 -3.125 "/>
</symbol>
<symbol overflow="visible" id="glyph0-7">
<path style="stroke:none;" d="M 3.140625 -1.625 L 3.140625 0 L 3.984375 0 L 3.984375 -1.625 L 4.984375 -1.625 L 4.984375 -2.390625 L 3.984375 -2.390625 L 3.984375 -6.796875 L 3.359375 -6.796875 L 0.265625 -2.515625 L 0.265625 -1.625 Z M 3.140625 -2.390625 L 1 -2.390625 L 3.140625 -5.359375 Z M 3.140625 -2.390625 "/>
</symbol>
<symbol overflow="visible" id="glyph0-8">
<path style="stroke:none;" d="M 4.78125 -5.03125 C 4.609375 -6.140625 3.890625 -6.796875 2.84375 -6.796875 C 2.09375 -6.796875 1.421875 -6.4375 1.03125 -5.828125 C 0.609375 -5.171875 0.40625 -4.34375 0.40625 -3.09375 C 0.40625 -1.953125 0.578125 -1.234375 0.984375 -0.625 C 1.359375 -0.078125 1.953125 0.21875 2.703125 0.21875 C 3.984375 0.21875 4.921875 -0.734375 4.921875 -2.078125 C 4.921875 -3.34375 4.0625 -4.234375 2.84375 -4.234375 C 2.171875 -4.234375 1.640625 -3.96875 1.28125 -3.46875 C 1.28125 -5.125 1.828125 -6.046875 2.796875 -6.046875 C 3.390625 -6.046875 3.796875 -5.671875 3.9375 -5.03125 Z M 2.734375 -3.484375 C 3.546875 -3.484375 4.0625 -2.921875 4.0625 -2 C 4.0625 -1.15625 3.484375 -0.53125 2.703125 -0.53125 C 1.921875 -0.53125 1.328125 -1.1875 1.328125 -2.046875 C 1.328125 -2.890625 1.90625 -3.484375 2.734375 -3.484375 Z M 2.734375 -3.484375 "/>
</symbol>
<symbol overflow="visible" id="glyph0-9">
<path style="stroke:none;" d="M 4.984375 -6.796875 L 0.4375 -6.796875 L 0.4375 -5.96875 L 4.109375 -5.96875 C 2.5 -3.65625 1.828125 -2.234375 1.328125 0 L 2.21875 0 C 2.59375 -2.171875 3.453125 -4.046875 4.984375 -6.09375 Z M 4.984375 -6.796875 "/>
</symbol>
<symbol overflow="visible" id="glyph0-10">
<path style="stroke:none;" d="M 3.75 -3.578125 C 4.453125 -4 4.6875 -4.34375 4.6875 -4.984375 C 4.6875 -6.046875 3.84375 -6.796875 2.640625 -6.796875 C 1.4375 -6.796875 0.59375 -6.046875 0.59375 -4.984375 C 0.59375 -4.359375 0.828125 -4.015625 1.515625 -3.578125 C 0.734375 -3.203125 0.359375 -2.640625 0.359375 -1.890625 C 0.359375 -0.640625 1.296875 0.21875 2.640625 0.21875 C 3.984375 0.21875 4.921875 -0.640625 4.921875 -1.875 C 4.921875 -2.640625 4.53125 -3.203125 3.75 -3.578125 Z M 2.640625 -6.046875 C 3.359375 -6.046875 3.8125 -5.625 3.8125 -4.96875 C 3.8125 -4.34375 3.34375 -3.921875 2.640625 -3.921875 C 1.921875 -3.921875 1.453125 -4.34375 1.453125 -4.984375 C 1.453125 -5.625 1.921875 -6.046875 2.640625 -6.046875 Z M 2.640625 -3.203125 C 3.484375 -3.203125 4.0625 -2.671875 4.0625 -1.875 C 4.0625 -1.0625 3.484375 -0.53125 2.625 -0.53125 C 1.796875 -0.53125 1.21875 -1.078125 1.21875 -1.875 C 1.21875 -2.671875 1.796875 -3.203125 2.640625 -3.203125 Z M 2.640625 -3.203125 "/>
</symbol>
<symbol overflow="visible" id="glyph1-0">
<path style="stroke:none;" d=""/>
</symbol>
<symbol overflow="visible" id="glyph1-1">
<path style="stroke:none;" d="M 0 -0.953125 L 0 -4.890625 C 0 -5.71875 -0.234375 -6.34375 -0.734375 -6.796875 C -1.1875 -7.234375 -1.8125 -7.46875 -2.5 -7.46875 C -3.546875 -7.46875 -4.1875 -7 -4.625 -5.875 C -4.984375 -6.671875 -5.640625 -7.09375 -6.53125 -7.09375 C -7.15625 -7.09375 -7.734375 -6.859375 -8.140625 -6.390625 C -8.5625 -5.9375 -8.75 -5.34375 -8.75 -4.5 L -8.75 -0.953125 Z M -4.984375 -2.0625 L -7.765625 -2.0625 L -7.765625 -4.21875 C -7.765625 -4.84375 -7.6875 -5.203125 -7.453125 -5.5 C -7.21875 -5.8125 -6.859375 -5.96875 -6.375 -5.96875 C -5.90625 -5.96875 -5.53125 -5.8125 -5.296875 -5.5 C -5.0625 -5.203125 -4.984375 -4.84375 -4.984375 -4.21875 Z M -0.984375 -2.0625 L -4 -2.0625 L -4 -4.78125 C -4 -5.328125 -3.859375 -5.6875 -3.578125 -5.953125 C -3.296875 -6.21875 -2.921875 -6.359375 -2.484375 -6.359375 C -2.0625 -6.359375 -1.6875 -6.21875 -1.40625 -5.953125 C -1.109375 -5.6875 -0.984375 -5.328125 -0.984375 -4.78125 Z M -0.984375 -2.0625 "/>
</symbol>
<symbol overflow="visible" id="glyph1-2">
<path style="stroke:none;" d="M -6.28125 -1.796875 L -6.28125 -0.796875 L 0 -0.796875 L 0 -1.796875 Z M -8.75 -1.796875 L -8.75 -0.796875 L -7.484375 -0.796875 L -7.484375 -1.796875 Z M -8.75 -1.796875 "/>
</symbol>
<symbol overflow="visible" id="glyph1-3">
<path style="stroke:none;" d="M -6.28125 -3.046875 L -6.28125 -2.015625 L -8.015625 -2.015625 L -8.015625 -1.015625 L -6.28125 -1.015625 L -6.28125 -0.171875 L -5.46875 -0.171875 L -5.46875 -1.015625 L -0.71875 -1.015625 C -0.078125 -1.015625 0.28125 -1.453125 0.28125 -2.234375 C 0.28125 -2.46875 0.25 -2.71875 0.1875 -3.046875 L -0.640625 -3.046875 C -0.609375 -2.921875 -0.59375 -2.765625 -0.59375 -2.5625 C -0.59375 -2.140625 -0.71875 -2.015625 -1.15625 -2.015625 L -5.46875 -2.015625 L -5.46875 -3.046875 Z M -6.28125 -3.046875 "/>
</symbol>
<symbol overflow="visible" id="glyph1-4">
<path style="stroke:none;" d="M -4.53125 -5.25 C -5.765625 -5.25 -6.46875 -4.421875 -6.46875 -2.96875 C -6.46875 -1.515625 -5.71875 -0.5625 -4.546875 -0.5625 C -3.5625 -0.5625 -3.09375 -1.0625 -2.734375 -2.5625 L -2.515625 -3.484375 C -2.34375 -4.1875 -2.09375 -4.46875 -1.625 -4.46875 C -1.046875 -4.46875 -0.640625 -3.875 -0.640625 -3 C -0.640625 -2.453125 -0.796875 -2 -1.0625 -1.75 C -1.25 -1.59375 -1.421875 -1.53125 -1.875 -1.46875 L -1.875 -0.40625 C -0.421875 -0.453125 0.28125 -1.265625 0.28125 -2.921875 C 0.28125 -4.5 -0.5 -5.515625 -1.71875 -5.515625 C -2.65625 -5.515625 -3.171875 -4.984375 -3.46875 -3.734375 L -3.703125 -2.765625 C -3.890625 -1.953125 -4.15625 -1.609375 -4.59375 -1.609375 C -5.171875 -1.609375 -5.546875 -2.125 -5.546875 -2.9375 C -5.546875 -3.75 -5.203125 -4.171875 -4.53125 -4.203125 Z M -4.53125 -5.25 "/>
</symbol>
</g>
</defs>
<g id="surface92956">
<rect x="0" y="0" width="720" height="360" style="fill:rgb(100%,100%,100%);fill-opacity:1;stroke:none;"/>
<path style=" stroke:none;fill-rule:nonzero;fill:rgb(6.27451%,58.823529%,28.235294%);fill-opacity:1;" d="M 69.628906 311.109375 L 69.707031 311.105469 L 101.441406 308.980469 L 111.078125 308.980469 L 142.964844 311.109375 L 131.761719 311.109375 L 123.769531 310.554688 L 88.746094 310.554688 L 80.910156 311.109375 L 69.628906 311.109375 L 92.117188 310.324219 L 120.558594 310.324219 L 106.375 309.328125 L 106.21875 309.324219 L 106.0625 309.332031 L 92.039062 310.324219 L 92.117188 310.324219 Z M 69.628906 311.109375 "/>
<path style=" stroke:none;fill-rule:nonzero;fill:rgb(14.509804%,36.078431%,60%);fill-opacity:1;" d="M 69.628906 294.972656 L 69.71875 294.964844 L 69.71875 294.777344 L 69.988281 294.476562 L 70.613281 294.097656 L 71.238281 293.839844 L 72.847656 293.375 L 75.085938 292.921875 L 77.410156 292.578125 L 79.109375 292.371094 L 80.628906 292.214844 L 84.117188 291.921875 L 86.355469 291.773438 L 88.769531 291.636719 L 91.71875 291.503906 L 93.867188 291.425781 L 98.695312 291.300781 L 102.273438 291.242188 L 105.046875 291.21875 L 111.039062 291.21875 L 114.613281 291.25 L 117.207031 291.292969 L 120.070312 291.355469 L 122.484375 291.425781 L 126.6875 291.597656 L 130.445312 291.820312 L 132.144531 291.945312 L 134.828125 292.191406 L 136.882812 292.425781 L 138.316406 292.632812 L 139.925781 292.921875 L 141.355469 293.277344 L 142.429688 293.679688 L 142.964844 294.019531 L 130.445312 294.019531 L 129.820312 293.703125 L 129.101562 293.460938 L 127.761719 293.136719 L 126.421875 292.90625 L 124.542969 292.679688 L 122.84375 292.53125 L 120.515625 292.378906 L 118.460938 292.285156 L 116.3125 292.214844 L 114.257812 292.167969 L 110.320312 292.121094 L 105.761719 292.121094 L 104.0625 292.136719 L 100.574219 292.199219 L 98.695312 292.253906 L 96.011719 292.363281 L 94.132812 292.464844 L 91.898438 292.625 L 90.378906 292.757812 L 88.5 292.964844 L 87.160156 293.144531 L 85.636719 293.40625 L 84.742188 293.601562 L 83.9375 293.824219 L 83.222656 294.082031 L 82.6875 294.359375 L 82.328125 294.652344 L 82.148438 294.933594 L 82.148438 296.15625 L 82.328125 296.441406 L 82.777344 296.773438 L 83.9375 297.253906 L 85.636719 297.671875 L 87.605469 298.003906 L 89.484375 298.238281 L 90.558594 298.347656 L 91.988281 298.476562 L 94.222656 298.632812 L 97.445312 298.789062 L 99.320312 298.855469 L 102.183594 298.917969 L 105.136719 298.949219 L 109.070312 298.949219 L 112.558594 298.917969 L 114.882812 298.878906 L 117.296875 298.8125 L 120.605469 298.679688 L 122.664062 298.554688 L 124.453125 298.40625 L 125.792969 298.253906 L 126.6875 298.128906 L 128.03125 297.882812 L 129.101562 297.617188 L 129.90625 297.339844 L 130.445312 297.070312 L 142.964844 297.070312 L 142.429688 297.386719 L 141.625 297.695312 L 140.820312 297.921875 L 139.566406 298.199219 L 138.136719 298.445312 L 136.078125 298.71875 L 134.378906 298.902344 L 132.144531 299.097656 L 130.085938 299.25 L 127.851562 299.382812 L 124.542969 299.539062 L 122.394531 299.617188 L 120.070312 299.691406 L 117.296875 299.753906 L 113.808594 299.808594 L 110.054688 299.839844 L 106.566406 299.847656 L 102.808594 299.832031 L 100.035156 299.800781 L 96.371094 299.730469 L 91.808594 299.585938 L 88.5 299.4375 L 85.90625 299.289062 L 83.671875 299.128906 L 81.167969 298.917969 L 77.945312 298.570312 L 75.980469 298.300781 L 74.636719 298.082031 L 73.117188 297.773438 L 72.042969 297.496094 L 70.792969 297.054688 L 69.898438 296.496094 L 69.628906 296.0625 Z M 69.628906 294.972656 "/>
<path style=" stroke:none;fill-rule:nonzero;fill:rgb(96.862745%,70.196078%,16.862745%);fill-opacity:1;" d="M 69.628906 303.929688 L 69.71875 303.921875 L 69.71875 303.796875 L 70.078125 303.519531 L 70.972656 303.136719 L 72.132812 302.820312 L 73.386719 302.574219 L 74.191406 302.445312 L 75.53125 302.257812 L 76.695312 302.121094 L 79.644531 301.84375 L 83.402344 301.582031 L 85.460938 301.472656 L 87.785156 301.367188 L 91.09375 301.25 L 92.613281 301.207031 L 97.265625 301.105469 L 102.542969 301.046875 L 108.355469 301.027344 L 111.039062 301.03125 L 114.703125 301.058594 L 119.710938 301.125 L 122.574219 301.1875 L 124.808594 301.25 L 127.136719 301.328125 L 129.996094 301.453125 L 132.679688 301.601562 L 134.828125 301.75 L 136.972656 301.9375 L 138.761719 302.132812 L 140.28125 302.351562 L 141.625 302.609375 L 142.429688 302.828125 L 142.964844 303.042969 L 130.535156 303.042969 L 129.820312 302.828125 L 129.015625 302.660156 L 127.671875 302.457031 L 126.332031 302.308594 L 124.988281 302.191406 L 122.484375 302.027344 L 120.339844 301.929688 L 117.65625 301.84375 L 115.0625 301.789062 L 112.109375 301.75 L 110.320312 301.738281 L 105.582031 301.738281 L 101.289062 301.78125 L 98.785156 301.832031 L 96.996094 301.878906 L 94.492188 301.972656 L 92.972656 302.046875 L 92.078125 302.097656 L 89.394531 302.289062 L 87.605469 302.460938 L 86.621094 302.578125 L 85.371094 302.765625 L 84.476562 302.933594 L 83.492188 303.179688 L 82.953125 303.363281 L 82.238281 303.785156 L 82.148438 304.898438 L 82.417969 305.132812 L 82.953125 305.386719 L 83.671875 305.609375 L 84.742188 305.84375 L 85.816406 306.023438 L 87.695312 306.265625 L 89.304688 306.425781 L 90.558594 306.53125 L 92.972656 306.699219 L 93.957031 306.753906 L 96.28125 306.867188 L 98.695312 306.953125 L 101.648438 307.027344 L 103.882812 307.0625 L 107.460938 307.09375 L 112.019531 307.09375 L 117.386719 307.058594 L 120.785156 307.007812 L 123.109375 306.957031 L 124.632812 306.914062 L 126.507812 306.847656 L 127.851562 306.785156 L 129.101562 306.71875 L 130.625 306.613281 L 130.625 305.132812 L 108.535156 305.128906 L 108.535156 304.433594 L 142.875 304.429688 L 142.964844 306.847656 L 141.085938 307.015625 L 138.761719 307.175781 L 136.527344 307.300781 L 134.199219 307.402344 L 130.890625 307.523438 L 128.207031 307.597656 L 124.09375 307.683594 L 120.339844 307.738281 L 116.402344 307.773438 L 112.914062 307.792969 L 108.800781 307.800781 L 105.136719 307.789062 L 101.199219 307.75 L 98.070312 307.699219 L 95.207031 307.640625 L 92.34375 307.558594 L 88.769531 307.429688 L 86.441406 307.324219 L 84.027344 307.195312 L 81.613281 307.039062 L 79.46875 306.871094 L 78.035156 306.742188 L 76.605469 306.59375 L 75.085938 306.410156 L 73.652344 306.199219 L 72.582031 306.007812 L 71.597656 305.789062 L 70.882812 305.585938 L 70.164062 305.308594 L 69.808594 305.085938 L 69.628906 304.894531 Z M 69.628906 303.929688 "/>
<path style=" stroke:none;fill-rule:nonzero;fill:rgb(83.921569%,15.686275%,22.352941%);fill-opacity:1;" d="M 69.628906 312.289062 L 142.964844 312.289062 L 142.964844 312.511719 L 112.402344 312.515625 L 112.402344 314.371094 L 100.105469 314.371094 L 100.105469 312.515625 L 99.925781 312.511719 L 69.628906 312.511719 Z M 69.628906 312.289062 "/>
<path style=" stroke:none;fill-rule:nonzero;fill:rgb(6.27451%,58.823529%,28.235294%);fill-opacity:1;" d="M 146.824219 301.484375 L 146.902344 301.480469 L 178.636719 295.132812 L 188.273438 295.132812 L 220.160156 301.492188 L 208.957031 301.492188 L 200.964844 299.832031 L 165.941406 299.832031 L 158.109375 301.484375 L 146.824219 301.484375 L 169.3125 299.144531 L 197.753906 299.140625 L 183.570312 296.171875 L 183.414062 296.167969 L 183.257812 296.183594 L 169.234375 299.140625 L 169.3125 299.144531 Z M 146.824219 301.484375 "/>
<path style=" stroke:none;fill-rule:nonzero;fill:rgb(14.509804%,36.078431%,60%);fill-opacity:1;" d="M 146.824219 280.054688 L 146.914062 280.035156 L 146.914062 279.492188 L 147.183594 278.640625 L 147.808594 277.558594 L 148.433594 276.816406 L 150.042969 275.488281 L 152.28125 274.207031 L 154.605469 273.21875 L 156.304688 272.632812 L 157.824219 272.183594 L 161.3125 271.351562 L 163.550781 270.925781 L 165.964844 270.542969 L 168.914062 270.160156 L 171.0625 269.933594 L 175.890625 269.574219 L 179.46875 269.417969 L 182.242188 269.351562 L 188.234375 269.351562 L 191.8125 269.441406 L 194.40625 269.550781 L 197.265625 269.730469 L 199.679688 269.933594 L 203.882812 270.429688 L 207.640625 271.058594 L 209.339844 271.417969 L 212.023438 272.117188 L 214.078125 272.792969 L 215.511719 273.375 L 217.121094 274.207031 L 218.550781 275.21875 L 219.625 276.367188 L 220.160156 277.335938 L 207.640625 277.335938 L 207.015625 276.433594 L 206.300781 275.738281 L 204.957031 274.816406 L 203.617188 274.164062 L 201.738281 273.511719 L 200.039062 273.082031 L 197.714844 272.65625 L 195.65625 272.386719 L 193.511719 272.183594 L 191.453125 272.050781 L 187.519531 271.914062 L 182.957031 271.914062 L 181.257812 271.957031 L 177.769531 272.140625 L 175.890625 272.296875 L 173.207031 272.609375 L 171.332031 272.902344 L 169.09375 273.351562 L 167.574219 273.734375 L 165.695312 274.320312 L 164.355469 274.835938 L 162.835938 275.578125 L 161.941406 276.140625 L 161.136719 276.773438 L 160.417969 277.515625 L 159.882812 278.300781 L 159.523438 279.132812 L 159.347656 279.941406 L 159.347656 283.429688 L 159.523438 284.238281 L 159.972656 285.183594 L 161.136719 286.554688 L 162.835938 287.746094 L 164.800781 288.691406 L 166.679688 289.367188 L 167.753906 289.683594 L 169.183594 290.042969 L 171.417969 290.492188 L 174.640625 290.941406 L 176.515625 291.121094 L 179.378906 291.300781 L 182.332031 291.390625 L 186.265625 291.390625 L 189.753906 291.300781 L 192.078125 291.1875 L 194.492188 291.007812 L 197.804688 290.625 L 199.859375 290.265625 L 201.648438 289.839844 L 202.988281 289.410156 L 203.882812 289.050781 L 205.226562 288.355469 L 206.300781 287.589844 L 207.105469 286.804688 L 207.640625 286.039062 L 220.160156 286.039062 L 219.625 286.9375 L 218.820312 287.816406 L 218.015625 288.46875 L 216.761719 289.253906 L 215.332031 289.953125 L 213.273438 290.738281 L 211.574219 291.257812 L 209.339844 291.820312 L 207.28125 292.246094 L 205.046875 292.628906 L 201.738281 293.078125 L 199.589844 293.304688 L 197.265625 293.503906 L 194.492188 293.683594 L 191.003906 293.84375 L 187.25 293.933594 L 183.761719 293.957031 L 180.003906 293.910156 L 177.234375 293.820312 L 173.566406 293.617188 L 169.003906 293.214844 L 165.695312 292.785156 L 163.101562 292.359375 L 160.867188 291.910156 L 158.363281 291.300781 L 155.144531 290.3125 L 153.175781 289.546875 L 151.832031 288.917969 L 150.3125 288.039062 L 149.238281 287.253906 L 147.988281 285.992188 L 147.09375 284.398438 L 146.824219 283.160156 Z M 146.824219 280.054688 "/>
<path style=" stroke:none;fill-rule:nonzero;fill:rgb(96.862745%,70.196078%,16.862745%);fill-opacity:1;" d="M 146.824219 305.078125 L 146.914062 305.070312 L 146.914062 304.96875 L 147.273438 304.738281 L 148.167969 304.421875 L 149.328125 304.160156 L 150.582031 303.953125 L 151.386719 303.84375 L 152.726562 303.691406 L 153.890625 303.578125 L 156.84375 303.347656 L 160.597656 303.132812 L 162.65625 303.039062 L 164.980469 302.953125 L 168.289062 302.855469 L 169.808594 302.820312 L 174.460938 302.738281 L 179.738281 302.6875 L 185.550781 302.671875 L 188.234375 302.675781 L 191.898438 302.695312 L 196.910156 302.753906 L 199.769531 302.804688 L 202.007812 302.855469 L 204.332031 302.921875 L 207.195312 303.023438 L 209.875 303.148438 L 212.023438 303.269531 L 214.167969 303.425781 L 215.957031 303.589844 L 217.476562 303.769531 L 218.820312 303.984375 L 219.625 304.164062 L 220.160156 304.34375 L 207.730469 304.34375 L 207.015625 304.164062 L 206.210938 304.023438 L 204.867188 303.855469 L 203.527344 303.734375 L 202.183594 303.636719 L 199.679688 303.5 L 197.535156 303.417969 L 194.851562 303.347656 L 192.257812 303.300781 L 189.304688 303.269531 L 187.519531 303.261719 L 182.777344 303.261719 L 178.484375 303.296875 L 175.980469 303.335938 L 174.191406 303.378906 L 171.6875 303.457031 L 170.167969 303.515625 L 169.273438 303.558594 L 166.589844 303.71875 L 164.800781 303.859375 L 163.816406 303.957031 L 162.566406 304.113281 L 161.671875 304.25 L 160.6875 304.457031 L 160.152344 304.609375 L 159.433594 304.957031 L 159.347656 305.882812 L 159.613281 306.078125 L 160.152344 306.289062 L 160.867188 306.472656 L 161.941406 306.667969 L 163.011719 306.816406 L 164.890625 307.015625 L 166.5 307.148438 L 167.753906 307.238281 L 170.167969 307.375 L 171.152344 307.421875 L 173.476562 307.515625 L 175.890625 307.585938 L 178.84375 307.648438 L 181.078125 307.679688 L 184.65625 307.703125 L 189.21875 307.703125 L 194.582031 307.671875 L 197.980469 307.632812 L 200.308594 307.589844 L 201.828125 307.554688 L 203.707031 307.5 L 205.046875 307.449219 L 206.300781 307.390625 L 207.820312 307.304688 L 207.820312 306.078125 L 185.730469 306.070312 L 185.730469 305.496094 L 220.070312 305.492188 L 220.160156 307.5 L 218.285156 307.636719 L 215.957031 307.769531 L 213.722656 307.875 L 211.398438 307.960938 L 208.085938 308.058594 L 205.40625 308.121094 L 201.289062 308.191406 L 197.535156 308.238281 L 193.597656 308.269531 L 190.113281 308.285156 L 185.996094 308.289062 L 182.332031 308.277344 L 178.394531 308.246094 L 175.265625 308.207031 L 172.402344 308.15625 L 169.542969 308.089844 L 165.964844 307.980469 L 163.640625 307.894531 L 161.222656 307.785156 L 158.808594 307.65625 L 156.664062 307.519531 L 155.230469 307.410156 L 153.800781 307.289062 L 152.28125 307.132812 L 150.851562 306.960938 L 149.777344 306.800781 L 148.792969 306.621094 L 148.078125 306.453125 L 147.363281 306.222656 L 147.003906 306.035156 L 146.824219 305.878906 Z M 146.824219 305.078125 "/>
<path style=" stroke:none;fill-rule:nonzero;fill:rgb(83.921569%,15.686275%,22.352941%);fill-opacity:1;" d="M 146.824219 309.46875 L 220.160156 309.46875 L 220.160156 309.992188 L 189.597656 309.996094 L 189.597656 314.371094 L 177.300781 314.371094 L 177.300781 310.003906 L 177.121094 309.992188 L 146.824219 309.992188 Z M 146.824219 309.46875 "/>
<path style=" stroke:none;fill-rule:nonzero;fill:rgb(6.27451%,58.823529%,28.235294%);fill-opacity:1;" d="M 224.019531 314.136719 L 224.097656 314.132812 L 255.832031 311.097656 L 265.46875 311.097656 L 297.355469 314.136719 L 286.152344 314.136719 L 278.160156 313.34375 L 243.140625 313.34375 L 235.304688 314.136719 L 224.019531 314.136719 L 246.507812 313.015625 L 274.949219 313.015625 L 260.769531 311.597656 L 260.609375 311.59375 L 260.453125 311.601562 L 246.429688 313.015625 L 246.507812 313.015625 Z M 224.019531 314.136719 "/>
<path style=" stroke:none;fill-rule:nonzero;fill:rgb(14.509804%,36.078431%,60%);fill-opacity:1;" d="M 224.019531 302.894531 L 224.109375 302.882812 L 224.109375 302.613281 L 224.378906 302.179688 L 225.003906 301.632812 L 225.632812 301.257812 L 227.242188 300.589844 L 229.476562 299.941406 L 231.800781 299.441406 L 233.5 299.144531 L 235.023438 298.917969 L 238.507812 298.496094 L 240.746094 298.28125 L 243.160156 298.089844 L 246.113281 297.894531 L 248.257812 297.78125 L 253.085938 297.597656 L 256.664062 297.519531 L 259.4375 297.484375 L 265.429688 297.484375 L 269.007812 297.53125 L 271.601562 297.589844 L 274.460938 297.679688 L 276.875 297.78125 L 281.082031 298.03125 L 284.835938 298.347656 L 286.535156 298.53125 L 289.21875 298.882812 L 291.277344 299.226562 L 292.707031 299.519531 L 294.316406 299.941406 L 295.746094 300.453125 L 296.820312 301.03125 L 297.355469 301.519531 L 284.835938 301.519531 L 284.210938 301.066406 L 283.496094 300.714844 L 282.152344 300.246094 L 280.8125 299.917969 L 278.933594 299.589844 L 277.234375 299.371094 L 274.910156 299.15625 L 272.851562 299.019531 L 270.707031 298.917969 L 268.648438 298.851562 L 264.714844 298.78125 L 260.152344 298.78125 L 258.453125 298.804688 L 254.964844 298.894531 L 253.085938 298.976562 L 250.40625 299.132812 L 248.527344 299.28125 L 246.289062 299.507812 L 244.769531 299.703125 L 242.890625 299.996094 L 241.550781 300.257812 L 240.03125 300.632812 L 239.136719 300.917969 L 238.332031 301.238281 L 237.613281 301.613281 L 237.078125 302.007812 L 236.722656 302.429688 L 236.542969 302.839844 L 236.542969 304.601562 L 236.722656 305.011719 L 237.167969 305.488281 L 238.332031 306.179688 L 240.03125 306.78125 L 241.996094 307.261719 L 243.875 307.601562 L 244.949219 307.761719 L 246.378906 307.941406 L 248.617188 308.167969 L 251.835938 308.398438 L 253.714844 308.488281 L 256.574219 308.578125 L 259.527344 308.625 L 263.460938 308.625 L 266.949219 308.578125 L 269.273438 308.523438 L 271.691406 308.429688 L 275 308.238281 L 277.054688 308.054688 L 278.84375 307.839844 L 280.1875 307.625 L 281.082031 307.441406 L 282.421875 307.089844 L 283.496094 306.703125 L 284.300781 306.304688 L 284.835938 305.917969 L 297.355469 305.917969 L 296.820312 306.375 L 296.015625 306.816406 L 295.210938 307.148438 L 293.957031 307.542969 L 292.527344 307.898438 L 290.472656 308.292969 L 288.773438 308.554688 L 286.535156 308.839844 L 284.480469 309.054688 L 282.242188 309.25 L 278.933594 309.476562 L 276.789062 309.589844 L 274.460938 309.691406 L 271.691406 309.785156 L 268.203125 309.863281 L 264.445312 309.910156 L 260.957031 309.921875 L 257.203125 309.898438 L 254.429688 309.851562 L 250.761719 309.75 L 246.199219 309.546875 L 242.890625 309.328125 L 240.296875 309.113281 L 238.0625 308.886719 L 235.558594 308.578125 L 232.339844 308.078125 L 230.371094 307.691406 L 229.03125 307.375 L 227.507812 306.929688 L 226.4375 306.53125 L 225.183594 305.898438 L 224.289062 305.089844 L 224.019531 304.464844 Z M 224.019531 302.894531 "/>
<path style=" stroke:none;fill-rule:nonzero;fill:rgb(83.921569%,15.686275%,22.352941%);fill-opacity:1;" d="M 224.019531 89.0625 L 297.355469 89.0625 L 297.355469 111.246094 L 266.792969 111.441406 L 266.792969 296.304688 L 254.496094 296.304688 L 254.496094 111.632812 L 254.316406 111.246094 L 224.019531 111.246094 Z M 224.019531 89.0625 "/>
<path style=" stroke:none;fill-rule:nonzero;fill:rgb(6.27451%,58.823529%,28.235294%);fill-opacity:1;" d="M 301.21875 312.191406 L 301.296875 312.1875 L 333.027344 307.675781 L 342.664062 307.675781 L 374.554688 312.199219 L 363.347656 312.199219 L 355.355469 311.015625 L 320.335938 311.015625 L 312.5 312.191406 L 301.21875 312.191406 L 323.703125 310.527344 L 352.144531 310.523438 L 337.964844 308.414062 L 337.808594 308.410156 L 337.648438 308.425781 L 323.625 310.523438 L 323.703125 310.527344 Z M 301.21875 312.191406 "/>
<path style=" stroke:none;fill-rule:nonzero;fill:rgb(96.862745%,70.196078%,16.862745%);fill-opacity:1;" d="M 301.21875 161.242188 L 301.304688 161.007812 L 301.304688 156.367188 L 301.664062 145.925781 L 302.558594 131.539062 L 303.722656 119.707031 L 304.972656 110.425781 L 305.777344 105.550781 L 307.121094 98.589844 L 308.28125 93.484375 L 311.234375 83.042969 L 314.988281 73.296875 L 317.046875 69.121094 L 319.371094 65.175781 L 322.679688 60.769531 L 324.203125 59.144531 L 328.851562 55.429688 L 334.128906 53.109375 L 339.941406 52.414062 L 342.625 52.648438 L 346.292969 53.574219 L 351.300781 56.128906 L 354.164062 58.449219 L 356.398438 60.769531 L 358.722656 63.785156 L 361.585938 68.425781 L 364.269531 73.996094 L 366.414062 79.5625 L 368.5625 86.523438 L 370.351562 93.949219 L 371.871094 102.070312 L 373.210938 111.816406 L 374.015625 119.9375 L 374.554688 128.058594 L 362.121094 128.058594 L 361.40625 119.9375 L 360.601562 113.671875 L 359.261719 106.015625 L 357.917969 100.445312 L 356.578125 96.039062 L 354.074219 90.003906 L 351.925781 86.292969 L 349.242188 83.042969 L 346.648438 80.957031 L 343.699219 79.5625 L 341.910156 79.097656 L 337.167969 79.097656 L 332.875 80.722656 L 330.371094 82.578125 L 328.585938 84.4375 L 326.078125 87.917969 L 324.558594 90.703125 L 323.664062 92.558594 L 320.980469 99.75 L 319.195312 106.246094 L 318.210938 110.65625 L 316.957031 117.617188 L 316.0625 123.882812 L 315.078125 133.164062 L 314.542969 140.125 L 313.828125 155.902344 L 313.738281 197.671875 L 314.007812 206.488281 L 314.542969 216.003906 L 315.257812 224.355469 L 316.332031 233.171875 L 317.40625 239.902344 L 319.28125 248.953125 L 320.894531 254.984375 L 322.144531 258.929688 L 324.558594 265.195312 L 325.542969 267.28125 L 327.867188 271.460938 L 330.285156 274.707031 L 333.234375 277.492188 L 335.46875 278.882812 L 339.046875 280.042969 L 343.609375 280.042969 L 348.976562 278.652344 L 352.375 276.796875 L 354.699219 274.941406 L 356.21875 273.316406 L 358.097656 270.761719 L 359.4375 268.441406 L 360.691406 265.890625 L 362.210938 261.945312 L 362.210938 206.488281 L 340.121094 206.257812 L 340.121094 180.269531 L 374.464844 180.035156 L 374.554688 270.761719 L 372.675781 277.027344 L 370.351562 283.0625 L 368.113281 287.703125 L 365.789062 291.648438 L 362.480469 296.054688 L 359.796875 298.839844 L 355.683594 302.089844 L 351.925781 304.175781 L 347.992188 305.570312 L 344.503906 306.265625 L 340.390625 306.496094 L 336.722656 306.03125 L 332.789062 304.640625 L 329.65625 302.785156 L 326.796875 300.464844 L 323.933594 297.449219 L 320.355469 292.574219 L 318.03125 288.628906 L 315.617188 283.757812 L 313.203125 277.957031 L 311.054688 271.691406 L 309.625 266.820312 L 308.191406 261.25 L 306.671875 254.289062 L 305.242188 246.398438 L 304.167969 239.207031 L 303.183594 231.085938 L 302.46875 223.425781 L 301.753906 212.984375 L 301.394531 204.632812 L 301.21875 197.4375 Z M 301.21875 161.242188 "/>
<path style=" stroke:none;fill-rule:nonzero;fill:rgb(83.921569%,15.686275%,22.352941%);fill-opacity:1;" d="M 301.21875 313.378906 L 374.554688 313.378906 L 374.554688 313.453125 L 343.988281 313.453125 L 343.988281 314.085938 L 331.691406 314.085938 L 331.691406 313.453125 L 301.21875 313.453125 Z M 301.21875 313.378906 "/>
<path style=" stroke:none;fill-rule:nonzero;fill:rgb(6.27451%,58.823529%,28.235294%);fill-opacity:1;" d="M 378.414062 313.757812 L 378.492188 313.757812 L 410.222656 313.3125 L 419.859375 313.3125 L 451.75 313.757812 L 440.546875 313.757812 L 432.554688 313.640625 L 397.53125 313.640625 L 389.695312 313.757812 L 378.414062 313.757812 L 400.898438 313.59375 L 429.339844 313.59375 L 415.160156 313.386719 L 414.847656 313.386719 L 400.820312 313.59375 L 400.898438 313.59375 Z M 378.414062 313.757812 "/>
<path style=" stroke:none;fill-rule:nonzero;fill:rgb(14.509804%,36.078431%,60%);fill-opacity:1;" d="M 378.414062 304.921875 L 378.503906 304.910156 L 378.503906 304.628906 L 378.769531 304.1875 L 379.398438 303.625 L 380.023438 303.242188 L 381.632812 302.554688 L 383.867188 301.886719 L 386.195312 301.375 L 387.894531 301.070312 L 389.414062 300.835938 L 392.902344 300.40625 L 395.136719 300.183594 L 397.550781 299.984375 L 400.503906 299.789062 L 402.648438 299.671875 L 407.480469 299.484375 L 411.054688 299.402344 L 413.828125 299.367188 L 419.820312 299.367188 L 423.398438 299.414062 L 425.992188 299.472656 L 428.855469 299.566406 L 431.269531 299.671875 L 435.472656 299.925781 L 439.226562 300.253906 L 440.925781 300.441406 L 443.609375 300.800781 L 445.667969 301.152344 L 447.097656 301.457031 L 448.707031 301.886719 L 450.140625 302.414062 L 451.210938 303.007812 L 451.75 303.507812 L 439.226562 303.507812 L 438.601562 303.042969 L 437.886719 302.679688 L 436.546875 302.203125 L 435.203125 301.863281 L 433.324219 301.527344 L 431.625 301.304688 L 429.300781 301.082031 L 427.246094 300.941406 L 425.097656 300.835938 L 423.039062 300.765625 L 419.105469 300.699219 L 414.542969 300.699219 L 412.84375 300.722656 L 409.355469 300.8125 L 407.480469 300.894531 L 404.796875 301.058594 L 402.917969 301.210938 L 400.683594 301.445312 L 399.160156 301.644531 L 397.285156 301.945312 L 395.941406 302.214844 L 394.421875 302.597656 L 393.527344 302.890625 L 392.722656 303.21875 L 392.007812 303.601562 L 391.46875 304.011719 L 391.113281 304.441406 L 390.933594 304.863281 L 390.933594 306.671875 L 391.113281 307.09375 L 391.558594 307.582031 L 392.722656 308.292969 L 394.421875 308.914062 L 396.390625 309.402344 L 398.265625 309.753906 L 399.339844 309.917969 L 400.773438 310.101562 L 403.007812 310.335938 L 406.226562 310.570312 L 408.105469 310.664062 L 410.96875 310.757812 L 413.917969 310.804688 L 417.855469 310.804688 L 421.339844 310.757812 L 423.667969 310.699219 L 426.082031 310.605469 L 429.390625 310.40625 L 431.449219 310.21875 L 433.234375 309.996094 L 434.578125 309.777344 L 435.472656 309.589844 L 436.8125 309.226562 L 437.886719 308.832031 L 438.691406 308.421875 L 439.226562 308.027344 L 451.75 308.027344 L 451.210938 308.492188 L 450.40625 308.949219 L 449.601562 309.285156 L 448.351562 309.695312 L 446.917969 310.054688 L 444.863281 310.464844 L 443.164062 310.734375 L 440.925781 311.023438 L 438.871094 311.246094 L 436.636719 311.445312 L 433.324219 311.679688 L 431.179688 311.792969 L 428.855469 311.898438 L 426.082031 311.992188 L 422.59375 312.074219 L 418.835938 312.121094 L 415.347656 312.132812 L 411.59375 312.109375 L 408.820312 312.0625 L 405.152344 311.957031 L 400.59375 311.75 L 397.285156 311.527344 L 394.691406 311.304688 L 392.453125 311.070312 L 389.949219 310.757812 L 386.730469 310.242188 L 384.761719 309.847656 L 383.421875 309.519531 L 381.902344 309.0625 L 380.828125 308.65625 L 379.574219 308.003906 L 378.679688 307.171875 L 378.414062 306.53125 Z M 378.414062 304.921875 "/>
<path style=" stroke:none;fill-rule:nonzero;fill:rgb(83.921569%,15.686275%,22.352941%);fill-opacity:1;" d="M 378.414062 79.761719 L 451.75 79.761719 L 451.75 103.140625 L 421.183594 103.347656 L 421.183594 298.1875 L 408.886719 298.1875 L 408.886719 103.550781 L 408.710938 103.140625 L 378.414062 103.140625 Z M 378.414062 79.761719 "/>
<path style=" stroke:none;fill-rule:nonzero;fill:rgb(14.509804%,36.078431%,60%);fill-opacity:1;" d="M 455.609375 148.347656 L 455.699219 148.078125 L 455.699219 141.640625 L 455.964844 131.449219 L 456.59375 118.574219 L 457.21875 109.71875 L 458.828125 93.894531 L 461.066406 78.605469 L 463.390625 66.800781 L 465.089844 59.828125 L 466.609375 54.460938 L 470.097656 44.535156 L 472.332031 39.441406 L 474.746094 34.878906 L 477.699219 30.320312 L 479.847656 27.636719 L 484.675781 23.34375 L 488.253906 21.46875 L 491.023438 20.664062 L 497.015625 20.664062 L 500.59375 21.734375 L 503.1875 23.078125 L 506.050781 25.222656 L 508.464844 27.636719 L 512.667969 33.539062 L 516.425781 41.050781 L 518.125 45.339844 L 520.804688 53.65625 L 522.863281 61.703125 L 524.292969 68.679688 L 525.90625 78.605469 L 527.335938 90.675781 L 528.410156 104.355469 L 528.945312 115.890625 L 516.425781 115.890625 L 515.796875 105.160156 L 515.082031 96.84375 L 513.742188 85.847656 L 512.398438 78.066406 L 510.523438 70.289062 L 508.824219 65.191406 L 506.496094 60.09375 L 504.441406 56.875 L 502.292969 54.460938 L 500.238281 52.851562 L 496.300781 51.242188 L 491.742188 51.242188 L 490.042969 51.78125 L 486.554688 53.925781 L 484.675781 55.804688 L 481.992188 59.558594 L 480.113281 63.046875 L 477.878906 68.410156 L 476.359375 72.972656 L 474.480469 79.945312 L 473.136719 86.113281 L 471.617188 94.96875 L 470.722656 101.671875 L 469.917969 109.183594 L 469.203125 118.035156 L 468.667969 127.425781 L 468.308594 137.351562 L 468.128906 147.007812 L 468.128906 188.585938 L 468.308594 198.242188 L 468.757812 209.507812 L 469.917969 225.871094 L 471.617188 240.089844 L 473.585938 251.355469 L 475.464844 259.402344 L 476.535156 263.15625 L 477.96875 267.449219 L 480.203125 272.8125 L 483.421875 278.179688 L 485.300781 280.324219 L 488.164062 282.472656 L 491.113281 283.542969 L 495.050781 283.542969 L 498.539062 282.472656 L 500.863281 281.128906 L 503.277344 278.984375 L 506.585938 274.421875 L 508.644531 270.132812 L 510.433594 265.035156 L 511.773438 259.9375 L 512.667969 255.644531 L 514.007812 247.332031 L 515.082031 238.210938 L 515.886719 228.820312 L 516.425781 219.703125 L 528.945312 219.703125 L 528.410156 230.429688 L 527.605469 240.894531 L 526.796875 248.671875 L 525.546875 258.058594 L 524.117188 266.375 L 522.058594 275.765625 L 520.359375 281.933594 L 518.125 288.640625 L 516.066406 293.738281 L 513.832031 298.296875 L 510.523438 303.664062 L 508.375 306.34375 L 506.050781 308.757812 L 503.277344 310.90625 L 499.789062 312.78125 L 496.035156 313.855469 L 492.546875 314.125 L 488.789062 313.585938 L 486.015625 312.515625 L 482.351562 310.101562 L 477.789062 305.273438 L 474.480469 300.175781 L 471.886719 295.078125 L 469.648438 289.714844 L 467.144531 282.472656 L 463.925781 270.667969 L 461.957031 261.546875 L 460.617188 254.035156 L 459.097656 243.574219 L 458.023438 234.1875 L 456.773438 219.164062 L 455.878906 200.121094 L 455.609375 185.367188 Z M 455.609375 148.347656 "/>
<path style=" stroke:none;fill-rule:nonzero;fill:rgb(6.27451%,58.823529%,28.235294%);fill-opacity:1;" d="M 532.804688 289.917969 L 532.882812 289.773438 L 564.617188 134.074219 L 574.253906 134.074219 L 606.140625 290.066406 L 594.9375 290.066406 L 586.945312 249.347656 L 551.921875 249.347656 L 544.085938 289.917969 L 532.804688 289.917969 L 555.292969 232.503906 L 583.734375 232.355469 L 569.550781 159.5625 L 569.394531 159.414062 L 569.238281 159.855469 L 555.214844 232.355469 L 555.292969 232.503906 Z M 532.804688 289.917969 "/>
<path style=" stroke:none;fill-rule:nonzero;fill:rgb(14.509804%,36.078431%,60%);fill-opacity:1;" d="M 532.804688 311.816406 L 532.894531 311.8125 L 532.894531 311.710938 L 533.164062 311.554688 L 533.789062 311.355469 L 534.414062 311.21875 L 536.023438 310.976562 L 538.261719 310.738281 L 540.585938 310.558594 L 542.285156 310.449219 L 543.804688 310.367188 L 547.292969 310.214844 L 549.527344 310.136719 L 551.945312 310.066406 L 554.894531 309.996094 L 557.042969 309.953125 L 561.871094 309.886719 L 565.449219 309.859375 L 568.222656 309.847656 L 574.214844 309.847656 L 577.789062 309.863281 L 580.382812 309.882812 L 583.246094 309.917969 L 585.660156 309.953125 L 589.863281 310.046875 L 593.621094 310.160156 L 595.320312 310.226562 L 598.003906 310.355469 L 600.058594 310.480469 L 601.492188 310.585938 L 603.101562 310.738281 L 604.53125 310.925781 L 605.605469 311.136719 L 606.140625 311.316406 L 593.621094 311.316406 L 592.996094 311.148438 L 592.277344 311.019531 L 590.9375 310.851562 L 589.597656 310.730469 L 587.71875 310.613281 L 586.019531 310.535156 L 583.691406 310.453125 L 581.636719 310.40625 L 579.488281 310.367188 L 577.433594 310.34375 L 573.496094 310.316406 L 568.9375 310.316406 L 567.238281 310.328125 L 563.75 310.359375 L 561.871094 310.386719 L 559.1875 310.445312 L 557.308594 310.5 L 555.074219 310.582031 L 553.554688 310.652344 L 551.675781 310.761719 L 550.335938 310.855469 L 548.8125 310.992188 L 547.917969 311.09375 L 547.113281 311.210938 L 546.398438 311.347656 L 545.863281 311.492188 L 545.503906 311.644531 L 545.324219 311.792969 L 545.324219 312.433594 L 545.503906 312.585938 L 545.953125 312.757812 L 547.113281 313.011719 L 548.8125 313.230469 L 550.78125 313.402344 L 552.660156 313.527344 L 553.734375 313.585938 L 555.164062 313.652344 L 557.398438 313.734375 L 560.617188 313.816406 L 562.496094 313.851562 L 565.359375 313.882812 L 568.308594 313.898438 L 572.246094 313.898438 L 575.734375 313.882812 L 578.058594 313.863281 L 580.472656 313.828125 L 583.78125 313.757812 L 585.839844 313.691406 L 587.628906 313.613281 L 588.96875 313.535156 L 589.863281 313.46875 L 591.207031 313.339844 L 592.277344 313.199219 L 593.082031 313.054688 L 593.621094 312.914062 L 606.140625 312.914062 L 605.605469 313.082031 L 604.800781 313.242188 L 603.996094 313.363281 L 602.742188 313.507812 L 601.3125 313.632812 L 599.253906 313.78125 L 597.554688 313.875 L 595.320312 313.976562 L 593.261719 314.054688 L 591.027344 314.125 L 587.71875 314.210938 L 585.570312 314.25 L 583.246094 314.289062 L 580.472656 314.320312 L 576.984375 314.351562 L 573.230469 314.367188 L 569.742188 314.371094 L 565.984375 314.363281 L 563.210938 314.347656 L 559.546875 314.308594 L 554.984375 314.234375 L 551.675781 314.15625 L 549.082031 314.078125 L 546.847656 313.996094 L 544.34375 313.882812 L 541.121094 313.699219 L 539.15625 313.558594 L 537.8125 313.445312 L 536.292969 313.28125 L 535.21875 313.136719 L 533.96875 312.90625 L 533.074219 312.613281 L 532.804688 312.386719 Z M 532.804688 311.816406 "/>
<path style=" stroke:none;fill-rule:nonzero;fill:rgb(96.862745%,70.196078%,16.862745%);fill-opacity:1;" d="M 532.804688 304.539062 L 532.894531 304.53125 L 532.894531 304.398438 L 533.253906 304.101562 L 534.144531 303.695312 L 535.308594 303.359375 L 536.5625 303.09375 L 537.367188 302.957031 L 538.707031 302.757812 L 539.871094 302.613281 L 542.820312 302.316406 L 546.578125 302.039062 L 548.636719 301.921875 L 550.960938 301.808594 L 554.269531 301.683594 L 555.789062 301.636719 L 560.441406 301.53125 L 565.714844 301.464844 L 571.53125 301.445312 L 574.214844 301.453125 L 577.878906 301.476562 L 582.886719 301.550781 L 585.75 301.617188 L 587.984375 301.683594 L 590.3125 301.769531 L 593.171875 301.902344 L 595.855469 302.058594 L 598.003906 302.21875 L 600.148438 302.414062 L 601.9375 302.625 L 603.457031 302.855469 L 604.800781 303.132812 L 605.605469 303.363281 L 606.140625 303.59375 L 593.710938 303.59375 L 592.996094 303.363281 L 592.1875 303.1875 L 590.847656 302.96875 L 589.507812 302.8125 L 588.164062 302.683594 L 585.660156 302.515625 L 583.515625 302.410156 L 580.832031 302.316406 L 578.238281 302.257812 L 575.285156 302.21875 L 573.496094 302.203125 L 568.757812 302.203125 L 564.464844 302.25 L 561.960938 302.304688 L 560.171875 302.355469 L 557.667969 302.453125 L 556.148438 302.535156 L 555.253906 302.585938 L 552.570312 302.789062 L 550.78125 302.976562 L 549.796875 303.101562 L 548.546875 303.296875 L 547.652344 303.476562 L 546.667969 303.742188 L 546.128906 303.9375 L 545.414062 304.386719 L 545.324219 305.574219 L 545.59375 305.824219 L 546.128906 306.09375 L 546.847656 306.332031 L 547.917969 306.582031 L 548.992188 306.773438 L 550.871094 307.03125 L 552.480469 307.203125 L 553.734375 307.316406 L 556.148438 307.492188 L 557.132812 307.554688 L 559.457031 307.671875 L 561.871094 307.765625 L 564.824219 307.84375 L 567.058594 307.882812 L 570.636719 307.914062 L 575.195312 307.914062 L 580.5625 307.875 L 583.960938 307.824219 L 586.285156 307.769531 L 587.808594 307.722656 L 589.683594 307.652344 L 591.027344 307.585938 L 592.277344 307.511719 L 593.800781 307.402344 L 593.800781 305.824219 L 571.707031 305.816406 L 571.707031 305.078125 L 606.050781 305.074219 L 606.140625 307.652344 L 604.261719 307.828125 L 601.9375 308 L 599.703125 308.132812 L 597.375 308.246094 L 594.066406 308.371094 L 591.382812 308.449219 L 587.269531 308.542969 L 583.515625 308.601562 L 579.578125 308.640625 L 576.089844 308.660156 L 571.976562 308.667969 L 568.308594 308.652344 L 564.375 308.613281 L 561.246094 308.5625 L 558.382812 308.496094 L 555.519531 308.410156 L 551.945312 308.273438 L 549.617188 308.160156 L 547.203125 308.019531 L 544.789062 307.855469 L 542.644531 307.679688 L 541.210938 307.539062 L 539.78125 307.382812 L 538.261719 307.183594 L 536.828125 306.960938 L 535.757812 306.753906 L 534.773438 306.523438 L 534.058594 306.304688 L 533.339844 306.007812 L 532.984375 305.773438 L 532.804688 305.566406 Z M 532.804688 304.539062 "/>
<path style=" stroke:none;fill-rule:nonzero;fill:rgb(83.921569%,15.686275%,22.352941%);fill-opacity:1;" d="M 532.804688 291.246094 L 606.140625 291.246094 L 606.140625 292.210938 L 575.578125 292.21875 L 575.578125 300.265625 L 563.28125 300.265625 L 563.28125 292.226562 L 563.101562 292.210938 L 532.804688 292.210938 Z M 532.804688 291.246094 "/>
<path style=" stroke:none;fill-rule:nonzero;fill:rgb(6.27451%,58.823529%,28.235294%);fill-opacity:1;" d="M 610 281.367188 L 610.078125 281.339844 L 641.8125 251.9375 L 651.449219 251.9375 L 683.335938 281.394531 L 672.132812 281.394531 L 664.140625 273.707031 L 629.117188 273.707031 L 621.285156 281.367188 L 610 281.367188 L 632.488281 270.527344 L 660.929688 270.496094 L 646.746094 256.75 L 646.589844 256.722656 L 646.433594 256.804688 L 632.410156 270.496094 L 632.488281 270.527344 Z M 610 281.367188 "/>
<path style=" stroke:none;fill-rule:nonzero;fill:rgb(14.509804%,36.078431%,60%);fill-opacity:1;" d="M 610 305.535156 L 610.089844 305.523438 L 610.089844 305.199219 L 610.359375 304.691406 L 610.984375 304.046875 L 611.609375 303.601562 L 613.21875 302.808594 L 615.457031 302.042969 L 617.78125 301.453125 L 619.480469 301.105469 L 621 300.835938 L 624.488281 300.339844 L 626.726562 300.082031 L 629.140625 299.855469 L 632.089844 299.625 L 634.238281 299.492188 L 639.066406 299.277344 L 642.644531 299.183594 L 645.417969 299.144531 L 651.410156 299.144531 L 654.988281 299.195312 L 657.578125 299.265625 L 660.441406 299.371094 L 662.855469 299.492188 L 667.058594 299.789062 L 670.816406 300.164062 L 672.515625 300.378906 L 675.199219 300.796875 L 677.253906 301.199219 L 678.6875 301.546875 L 680.296875 302.042969 L 681.726562 302.648438 L 682.800781 303.332031 L 683.335938 303.910156 L 670.816406 303.910156 L 670.191406 303.375 L 669.476562 302.957031 L 668.132812 302.40625 L 666.792969 302.015625 L 664.914062 301.628906 L 663.214844 301.371094 L 660.890625 301.117188 L 658.832031 300.957031 L 656.6875 300.835938 L 654.628906 300.753906 L 650.695312 300.675781 L 646.132812 300.675781 L 644.433594 300.699219 L 640.945312 300.808594 L 639.066406 300.902344 L 636.382812 301.089844 L 634.507812 301.265625 L 632.269531 301.535156 L 630.75 301.761719 L 628.871094 302.113281 L 627.53125 302.421875 L 626.007812 302.863281 L 625.117188 303.199219 L 624.308594 303.574219 L 623.59375 304.019531 L 623.058594 304.488281 L 622.699219 304.984375 L 622.523438 305.46875 L 622.523438 307.550781 L 622.699219 308.035156 L 623.148438 308.597656 L 624.308594 309.417969 L 626.007812 310.128906 L 627.976562 310.695312 L 629.855469 311.097656 L 630.929688 311.285156 L 632.359375 311.5 L 634.59375 311.769531 L 637.816406 312.039062 L 639.691406 312.144531 L 642.554688 312.253906 L 645.507812 312.308594 L 649.441406 312.308594 L 652.929688 312.253906 L 655.253906 312.1875 L 657.667969 312.078125 L 660.976562 311.851562 L 663.035156 311.636719 L 664.824219 311.378906 L 666.164062 311.125 L 667.058594 310.910156 L 668.402344 310.492188 L 669.476562 310.035156 L 670.28125 309.566406 L 670.816406 309.109375 L 683.335938 309.109375 L 682.800781 309.648438 L 681.996094 310.171875 L 681.191406 310.558594 L 679.9375 311.03125 L 678.507812 311.445312 L 676.449219 311.917969 L 674.75 312.226562 L 672.515625 312.5625 L 670.457031 312.816406 L 668.222656 313.046875 L 664.914062 313.3125 L 662.765625 313.449219 L 660.441406 313.570312 L 657.667969 313.675781 L 654.179688 313.769531 L 650.425781 313.824219 L 646.9375 313.839844 L 643.179688 313.8125 L 640.410156 313.757812 L 636.742188 313.636719 L 632.179688 313.394531 L 628.871094 313.140625 L 626.277344 312.882812 L 624.042969 312.617188 L 621.539062 312.253906 L 618.316406 311.660156 L 616.351562 311.207031 L 615.007812 310.828125 L 613.488281 310.304688 L 612.414062 309.835938 L 611.164062 309.082031 L 610.269531 308.128906 L 610 307.390625 Z M 610 305.535156 "/>
<path style=" stroke:none;fill-rule:nonzero;fill:rgb(83.921569%,15.686275%,22.352941%);fill-opacity:1;" d="M 610 282.574219 L 683.335938 282.574219 L 683.335938 284.222656 L 652.773438 284.238281 L 652.773438 297.964844 L 640.476562 297.964844 L 640.476562 284.253906 L 640.296875 284.222656 L 610 284.222656 Z M 610 282.574219 "/>
<g style="fill:rgb(0%,0%,0%);fill-opacity:1;">
  <use xlink:href="#glyph0-1" x="21.957031" y="318.198242"/>
  <use xlink:href="#glyph0-2" x="27.291016" y="318.198242"/>
  <use xlink:href="#glyph0-1" x="29.958008" y="318.198242"/>
</g>
<g style="fill:rgb(0%,0%,0%);fill-opacity:1;">
  <use xlink:href="#glyph0-1" x="21.957031" y="244.116211"/>
  <use xlink:href="#glyph0-2" x="27.291016" y="244.116211"/>
  <use xlink:href="#glyph0-3" x="29.958008" y="244.116211"/>
</g>
<g style="fill:rgb(0%,0%,0%);fill-opacity:1;">
  <use xlink:href="#glyph0-4" x="21.957031" y="170.030273"/>
  <use xlink:href="#glyph0-2" x="27.291016" y="170.030273"/>
  <use xlink:href="#glyph0-1" x="29.958008" y="170.030273"/>
</g>
<g style="fill:rgb(0%,0%,0%);fill-opacity:1;">
  <use xlink:href="#glyph0-4" x="21.957031" y="95.948242"/>
  <use xlink:href="#glyph0-2" x="27.291016" y="95.948242"/>
  <use xlink:href="#glyph0-3" x="29.958008" y="95.948242"/>
</g>
<g style="fill:rgb(0%,0%,0%);fill-opacity:1;">
  <use xlink:href="#glyph0-5" x="21.957031" y="21.866211"/>
  <use xlink:href="#glyph0-2" x="27.291016" y="21.866211"/>
  <use xlink:href="#glyph0-1" x="29.958008" y="21.866211"/>
</g>
<g style="fill:rgb(0%,0%,0%);fill-opacity:1;">
  <use xlink:href="#glyph0-4" x="103.296875" y="338.19043"/>
</g>
<g style="fill:rgb(0%,0%,0%);fill-opacity:1;">
  <use xlink:href="#glyph0-5" x="180.492188" y="338.19043"/>
</g>
<g style="fill:rgb(0%,0%,0%);fill-opacity:1;">
  <use xlink:href="#glyph0-6" x="257.6875" y="338.19043"/>
</g>
<g style="fill:rgb(0%,0%,0%);fill-opacity:1;">
  <use xlink:href="#glyph0-7" x="334.886719" y="338.19043"/>
</g>
<g style="fill:rgb(0%,0%,0%);fill-opacity:1;">
  <use xlink:href="#glyph0-3" x="412.082031" y="338.19043"/>
</g>
<g style="fill:rgb(0%,0%,0%);fill-opacity:1;">
  <use xlink:href="#glyph0-8" x="489.277344" y="338.19043"/>
</g>
<g style="fill:rgb(0%,0%,0%);fill-opacity:1;">
  <use xlink:href="#glyph0-9" x="566.472656" y="338.19043"/>
</g>
<g style="fill:rgb(0%,0%,0%);fill-opacity:1;">
  <use xlink:href="#glyph0-10" x="643.667969" y="338.19043"/>
</g>
<g style="fill:rgb(0%,0%,0%);fill-opacity:1;">
  <use xlink:href="#glyph1-1" x="14.412109" y="178.015625"/>
  <use xlink:href="#glyph1-2" x="14.412109" y="170.011719"/>
  <use xlink:href="#glyph1-3" x="14.412109" y="167.347656"/>
  <use xlink:href="#glyph1-4" x="14.412109" y="164.011719"/>
</g>
</g>
</svg>
