<?xml version="1.0" encoding="UTF-8"?>
<svg xmlns="http://www.w3.org/2000/svg" xmlns:xlink="http://www.w3.org/1999/xlink" width="720pt" height="360pt" viewBox="0 0 720 360" version="1.1">
<defs>
<g>
<symbol overflow="visible" id="glyph0-0">
<path style="stroke:none;" d=""/>
</symbol>
<symbol overflow="visible" id="glyph0-1">
<path style="stroke:none;" d="M 2.640625 -6.796875 C 2 -6.796875 1.421875 -6.53125 1.078125 -6.046875 C 0.640625 -5.453125 0.40625 -4.546875 0.40625 -3.296875 C 0.40625 -1 1.1875 0.21875 2.640625 0.21875 C 4.078125 0.21875 4.859375 -1 4.859375 -3.234375 C 4.859375 -4.5625 4.65625 -5.4375 4.203125 -6.046875 C 3.84375 -6.53125 3.28125 -6.796875 2.640625 -6.796875 Z M 2.640625 -6.046875 C 3.546875 -6.046875 4 -5.125 4 -3.3125 C 4 -1.375 3.5625 -0.484375 2.625 -0.484375 C 1.734375 -0.484375 1.28125 -1.421875 1.28125 -3.28125 C 1.28125 -5.140625 1.734375 -6.046875 2.640625 -6.046875 Z M 2.640625 -6.046875 "/>
</symbol>
<symbol overflow="visible" id="glyph0-2">
<path style="stroke:none;" d="M 1.828125 -1 L 0.828125 -1 L 0.828125 0 L 1.828125 0 Z M 1.828125 -1 "/>
</symbol>
<symbol overflow="visible" id="glyph0-3">
<path style="stroke:none;" d="M 4.5625 -6.796875 L 1.0625 -6.796875 L 0.546875 -3.09375 L 1.328125 -3.09375 C 1.71875 -3.5625 2.046875 -3.734375 2.578125 -3.734375 C 3.484375 -3.734375 4.0625 -3.109375 4.0625 -2.09375 C 4.0625 -1.125 3.484375 -0.53125 2.578125 -0.53125 C 1.828125 -0.53125 1.375 -0.90625 1.1875 -1.671875 L 0.328125 -1.671875 C 0.453125 -1.109375 0.546875 -0.84375 0.75 -0.59375 C 1.125 -0.078125 1.828125 0.21875 2.59375 0.21875 C 3.96875 0.21875 4.921875 -0.78125 4.921875 -2.21875 C 4.921875 -3.5625 4.03125 -4.484375 2.71875 -4.484375 C 2.25 -4.484375 1.859375 -4.359375 1.46875 -4.0625 L 1.734375 -5.96875 L 4.5625 -5.96875 Z M 4.5625 -6.796875 "/>
</symbol>
<symbol overflow="visible" id="glyph0-4">
<path style="stroke:none;" d="M 2.484375 -4.84375 L 2.484375 0 L 3.328125 0 L 3.328125 -6.796875 L 2.765625 -6.796875 C 2.46875 -5.75 2.28125 -5.609375 0.984375 -5.453125 L 0.984375 -4.84375 Z M 2.484375 -4.84375 "/>
</symbol>
<symbol overflow="visible" id="glyph0-5">
<path style="stroke:none;" d="M 4.859375 -0.828125 L 1.28125 -0.828125 C 1.359375 -1.390625 1.671875 -1.75 2.5 -2.234375 L 3.46875 -2.75 C 4.40625 -3.265625 4.90625 -3.96875 4.90625 -4.8125 C 4.90625 -5.375 4.671875 -5.90625 4.265625 -6.265625 C 3.859375 -6.625 3.375 -6.796875 2.71875 -6.796875 C 1.859375 -6.796875 1.21875 -6.5 0.84375 -5.921875 C 0.609375 -5.5625 0.5 -5.125 0.484375 -4.4375 L 1.328125 -4.4375 C 1.359375 -4.90625 1.40625 -5.1875 1.53125 -5.40625 C 1.75 -5.8125 2.1875 -6.0625 2.703125 -6.0625 C 3.46875 -6.0625 4.03125 -5.515625 4.03125 -4.78125 C 4.03125 -4.25 3.71875 -3.796875 3.125 -3.4375 L 2.234375 -2.9375 C 0.8125 -2.140625 0.40625 -1.5 0.328125 0 L 4.859375 0 Z M 4.859375 -0.828125 "/>
</symbol>
<symbol overflow="visible" id="glyph0-6">
<path style="stroke:none;" d="M 2.125 -3.125 L 2.578125 -3.125 C 3.515625 -3.125 3.984375 -2.703125 3.984375 -1.890625 C 3.984375 -1.03125 3.46875 -0.53125 2.578125 -0.53125 C 1.65625 -0.53125 1.203125 -0.984375 1.15625 -1.96875 L 0.3125 -1.96875 C 0.34375 -1.421875 0.4375 -1.078125 0.609375 -0.765625 C 0.953125 -0.109375 1.625 0.21875 2.546875 0.21875 C 3.953125 0.21875 4.859375 -0.609375 4.859375 -1.90625 C 4.859375 -2.765625 4.515625 -3.25 3.703125 -3.515625 C 4.34375 -3.765625 4.65625 -4.25 4.65625 -4.9375 C 4.65625 -6.109375 3.875 -6.796875 2.578125 -6.796875 C 1.203125 -6.796875 0.484375 -6.046875 0.453125 -4.609375 L 1.296875 -4.609375 C 1.3125 -5.015625 1.34375 -5.25 1.453125 -5.453125 C 1.640625 -5.828125 2.0625 -6.0625 2.59375 -6.0625 C 3.34375 -6.0625 3.796875 -5.625 3.796875 -4.90625 C 3.796875 -4.421875 3.609375 -4.140625 3.25 -3.984375 C 3.015625 -3.890625 2.71875 -3.84375 2.125 -3.84375 Z M 2.125 -3.125 "/>
</symbol>
<symbol overflow="visible" id="glyph0-7">
<path style="stroke:none;" d="M 3.140625 -1.625 L 3.140625 0 L 3.984375 0 L 3.984375 -1.625 L 4.984375 -1.625 L 4.984375 -2.390625 L 3.984375 -2.390625 L 3.984375 -6.796875 L 3.359375 -6.796875 L 0.265625 -2.515625 L 0.265625 -1.625 Z M 3.140625 -2.390625 L 1 -2.390625 L 3.140625 -5.359375 Z M 3.140625 -2.390625 "/>
</symbol>
<symbol overflow="visible" id="glyph0-8">
<path style="stroke:none;" d="M 4.78125 -5.03125 C 4.609375 -6.140625 3.890625 -6.796875 2.84375 -6.796875 C 2.09375 -6.796875 1.421875 -6.4375 1.03125 -5.828125 C 0.609375 -5.171875 0.40625 -4.34375 0.40625 -3.09375 C 0.40625 -1.953125 0.578125 -1.234375 0.984375 -0.625 C 1.359375 -0.078125 1.953125 0.21875 2.703125 0.21875 C 3.984375 0.21875 4.921875 -0.734375 4.921875 -2.078125 C 4.921875 -3.34375 4.0625 -4.234375 2.84375 -4.234375 C 2.171875 -4.234375 1.640625 -3.96875 1.28125 -3.46875 C 1.28125 -5.125 1.828125 -6.046875 2.796875 -6.046875 C 3.390625 -6.046875 3.796875 -5.671875 3.9375 -5.03125 Z M 2.734375 -3.484375 C 3.546875 -3.484375 4.0625 -2.921875 4.0625 -2 C 4.0625 -1.15625 3.484375 -0.53125 2.703125 -0.53125 C 1.921875 -0.53125 1.328125 -1.1875 1.328125 -2.046875 C 1.328125 -2.890625 1.90625 -3.484375 2.734375 -3.484375 Z M 2.734375 -3.484375 "/>
</symbol>
<symbol overflow="visible" id="glyph0-9">
<path style="stroke:none;" d="M 4.984375 -6.796875 L 0.4375 -6.796875 L 0.4375 -5.96875 L 4.109375 -5.96875 C 2.5 -3.65625 1.828125 -2.234375 1.328125 0 L 2.21875 0 C 2.59375 -2.171875 3.453125 -4.046875 4.984375 -6.09375 Z M 4.984375 -6.796875 "/>
</symbol>
<symbol overflow="visible" id="glyph0-10">
<path style="stroke:none;" d="M 3.75 -3.578125 C 4.453125 -4 4.6875 -4.34375 4.6875 -4.984375 C 4.6875 -6.046875 3.84375 -6.796875 2.640625 -6.796875 C 1.4375 -6.796875 0.59375 -6.046875 0.59375 -4.984375 C 0.59375 -4.359375 0.828125 -4.015625 1.515625 -3.578125 C 0.734375 -3.203125 0.359375 -2.640625 0.359375 -1.890625 C 0.359375 -0.640625 1.296875 0.21875 2.640625 0.21875 C 3.984375 0.21875 4.921875 -0.640625 4.921875 -1.875 C 4.921875 -2.640625 4.53125 -3.203125 3.75 -3.578125 Z M 2.640625 -6.046875 C 3.359375 -6.046875 3.8125 -5.625 3.8125 -4.96875 C 3.8125 -4.34375 3.34375 -3.921875 2.640625 -3.921875 C 1.921875 -3.921875 1.453125 -4.34375 1.453125 -4.984375 C 1.453125 -5.625 1.921875 -6.046875 2.640625 -6.046875 Z M 2.640625 -3.203125 C 3.484375 -3.203125 4.0625 -2.671875 4.0625 -1.875 C 4.0625 -1.0625 3.484375 -0.53125 2.625 -0.53125 C 1.796875 -0.53125 1.21875 -1.078125 1.21875 -1.875 C 1.21875 -2.671875 1.796875 -3.203125 2.640625 -3.203125 Z M 2.640625 -3.203125 "/>
</symbol>
<symbol overflow="visible" id="glyph0-11">
<path style="stroke:none;" d="M 0.515625 -1.546875 C 0.671875 -0.4375 1.40625 0.21875 2.4375 0.21875 C 3.1875 0.21875 3.859375 -0.140625 4.265625 -0.75 C 4.6875 -1.40625 4.890625 -2.25 4.890625 -3.484375 C 4.890625 -4.625 4.703125 -5.359375 4.3125 -5.953125 C 3.9375 -6.5 3.34375 -6.796875 2.59375 -6.796875 C 1.296875 -6.796875 0.359375 -5.84375 0.359375 -4.515625 C 0.359375 -3.25 1.234375 -2.34375 2.453125 -2.34375 C 3.09375 -2.34375 3.5625 -2.578125 4.015625 -3.109375 C 4 -1.453125 3.46875 -0.53125 2.5 -0.53125 C 1.90625 -0.53125 1.484375 -0.90625 1.359375 -1.546875 Z M 2.578125 -6.0625 C 3.375 -6.0625 3.96875 -5.40625 3.96875 -4.53125 C 3.96875 -3.6875 3.375 -3.09375 2.546875 -3.09375 C 1.734375 -3.09375 1.234375 -3.671875 1.234375 -4.578125 C 1.234375 -5.4375 1.796875 -6.0625 2.578125 -6.0625 Z M 2.578125 -6.0625 "/>
</symbol>
<symbol overflow="visible" id="glyph1-0">
<path style="stroke:none;" d=""/>
</symbol>
<symbol overflow="visible" id="glyph1-1">
<path style="stroke:none;" d="M 0 -0.953125 L 0 -4.890625 C 0 -5.71875 -0.234375 -6.34375 -0.734375 -6.796875 C -1.1875 -7.234375 -1.8125 -7.46875 -2.5 -7.46875 C -3.546875 -7.46875 -4.1875 -7 -4.625 -5.875 C -4.984375 -6.671875 -5.640625 -7.09375 -6.53125 -7.09375 C -7.15625 -7.09375 -7.734375 -6.859375 -8.140625 -6.390625 C -8.5625 -5.9375 -8.75 -5.34375 -8.75 -4.5 L -8.75 -0.953125 Z M -4.984375 -2.0625 L -7.765625 -2.0625 L -7.765625 -4.21875 C -7.765625 -4.84375 -7.6875 -5.203125 -7.453125 -5.5 C -7.21875 -5.8125 -6.859375 -5.96875 -6.375 -5.96875 C -5.90625 -5.96875 -5.53125 -5.8125 -5.296875 -5.5 C -5.0625 -5.203125 -4.984375 -4.84375 -4.984375 -4.21875 Z M -0.984375 -2.0625 L -4 -2.0625 L -4 -4.78125 C -4 -5.328125 -3.859375 -5.6875 -3.578125 -5.953125 C -3.296875 -6.21875 -2.921875 -6.359375 -2.484375 -6.359375 C -2.0625 -6.359375 -1.6875 -6.21875 -1.40625 -5.953125 C -1.109375 -5.6875 -0.984375 -5.328125 -0.984375 -4.78125 Z M -0.984375 -2.0625 "/>
</symbol>
<symbol overflow="visible" id="glyph1-2">
<path style="stroke:none;" d="M -6.28125 -1.796875 L -6.28125 -0.796875 L 0 -0.796875 L 0 -1.796875 Z M -8.75 -1.796875 L -8.75 -0.796875 L -7.484375 -0.796875 L -7.484375 -1.796875 Z M -8.75 -1.796875 "/>
</symbol>
<symbol overflow="visible" id="glyph1-3">
<path style="stroke:none;" d="M -6.28125 -3.046875 L -6.28125 -2.015625 L -8.015625 -2.015625 L -8.015625 -1.015625 L -6.28125 -1.015625 L -6.28125 -0.171875 L -5.46875 -0.171875 L -5.46875 -1.015625 L -0.71875 -1.015625 C -0.078125 -1.015625 0.28125 -1.453125 0.28125 -2.234375 C 0.28125 -2.46875 0.25 -2.71875 0.1875 -3.046875 L -0.640625 -3.046875 C -0.609375 -2.921875 -0.59375 -2.765625 -0.59375 -2.5625 C -0.59375 -2.140625 -0.71875 -2.015625 -1.15625 -2.015625 L -5.46875 -2.015625 L -5.46875 -3.046875 Z M -6.28125 -3.046875 "/>
</symbol>
<symbol overflow="visible" id="glyph1-4">
<path style="stroke:none;" d="M -4.53125 -5.25 C -5.765625 -5.25 -6.46875 -4.421875 -6.46875 -2.96875 C -6.46875 -1.515625 -5.71875 -0.5625 -4.546875 -0.5625 C -3.5625 -0.5625 -3.09375 -1.0625 -2.734375 -2.5625 L -2.515625 -3.484375 C -2.34375 -4.1875 -2.09375 -4.46875 -1.625 -4.46875 C -1.046875 -4.46875 -0.640625 -3.875 -0.640625 -3 C -0.640625 -2.453125 -0.796875 -2 -1.0625 -1.75 C -1.25 -1.59375 -1.421875 -1.53125 -1.875 -1.46875 L -1.875 -0.40625 C -0.421875 -0.453125 0.28125 -1.265625 0.28125 -2.921875 C 0.28125 -4.5 -0.5 -5.515625 -1.71875 -5.515625 C -2.65625 -5.515625 -3.171875 -4.984375 -3.46875 -3.734375 L -3.703125 -2.765625 C -3.890625 -1.953125 -4.15625 -1.609375 -4.59375 -1.609375 C -5.171875 -1.609375 -5.546875 -2.125 -5.546875 -2.9375 C -5.546875 -3.75 -5.203125 -4.171875 -4.53125 -4.203125 Z M -4.53125 -5.25 "/>
</symbol>
</g>
</defs>
<g id="surface91396">
<rect x="0" y="0" width="720" height="360" style="fill:rgb(100%,100%,100%);fill-opacity:1;stroke:none;"/>
<path style=" stroke:none;fill-rule:nonzero;fill:rgb(6.27451%,58.823529%,28.235294%);fill-opacity:1;" d="M 69.628906 314.371094 L 69.667969 314.367188 L 84.550781 312.832031 L 89.070312 312.832031 L 104.027344 314.371094 L 98.769531 314.371094 L 95.023438 313.96875 L 78.597656 313.96875 L 74.921875 314.371094 L 69.628906 314.371094 L 80.175781 313.804688 L 93.515625 313.800781 L 86.863281 313.082031 L 86.789062 313.082031 L 86.71875 313.085938 L 80.140625 313.800781 L 80.175781 313.804688 Z M 69.628906 314.371094 "/>
<path style=" stroke:none;fill-rule:nonzero;fill:rgb(14.509804%,36.078431%,60%);fill-opacity:1;" d="M 69.628906 310.691406 L 69.671875 310.691406 L 69.671875 310.652344 L 69.796875 310.59375 L 70.089844 310.519531 L 70.382812 310.46875 L 71.140625 310.378906 L 72.1875 310.289062 L 73.277344 310.21875 L 74.074219 310.179688 L 74.789062 310.148438 L 76.425781 310.089844 L 77.472656 310.0625 L 78.605469 310.035156 L 79.992188 310.007812 L 80.996094 309.992188 L 83.261719 309.96875 L 84.941406 309.957031 L 86.242188 309.953125 L 89.050781 309.953125 L 90.730469 309.960938 L 91.945312 309.96875 L 93.289062 309.980469 L 94.421875 309.992188 L 96.390625 310.027344 L 98.152344 310.070312 L 98.949219 310.097656 L 100.207031 310.144531 L 101.171875 310.191406 L 101.84375 310.230469 L 102.601562 310.289062 L 103.269531 310.359375 L 103.773438 310.4375 L 104.027344 310.503906 L 98.152344 310.503906 L 97.859375 310.441406 L 97.523438 310.394531 L 96.894531 310.332031 L 96.265625 310.285156 L 95.386719 310.242188 L 94.585938 310.210938 L 93.496094 310.183594 L 92.53125 310.164062 L 91.527344 310.148438 L 90.5625 310.140625 L 88.714844 310.128906 L 86.574219 310.128906 L 85.777344 310.132812 L 84.144531 310.144531 L 83.261719 310.15625 L 82.003906 310.179688 L 81.121094 310.199219 L 80.074219 310.230469 L 79.359375 310.257812 L 78.480469 310.296875 L 77.851562 310.332031 L 77.136719 310.382812 L 76.71875 310.421875 L 76.339844 310.464844 L 76.003906 310.515625 L 75.753906 310.570312 L 75.585938 310.628906 L 75.5 310.683594 L 75.5 310.925781 L 75.585938 310.980469 L 75.796875 311.046875 L 76.339844 311.140625 L 77.136719 311.222656 L 78.0625 311.289062 L 78.941406 311.335938 L 79.445312 311.355469 L 80.117188 311.382812 L 81.164062 311.414062 L 82.675781 311.445312 L 83.554688 311.457031 L 84.898438 311.46875 L 86.28125 311.476562 L 88.128906 311.476562 L 89.765625 311.46875 L 90.855469 311.460938 L 91.988281 311.449219 L 93.539062 311.421875 L 94.503906 311.398438 L 95.34375 311.367188 L 95.972656 311.339844 L 96.390625 311.3125 L 97.019531 311.265625 L 97.523438 311.214844 L 97.902344 311.160156 L 98.152344 311.105469 L 104.027344 311.105469 L 103.773438 311.167969 L 103.398438 311.226562 L 103.019531 311.273438 L 102.433594 311.328125 L 101.761719 311.375 L 100.796875 311.429688 L 100 311.464844 L 98.949219 311.503906 L 97.984375 311.535156 L 96.9375 311.5625 L 95.386719 311.59375 L 94.378906 311.605469 L 93.289062 311.621094 L 91.988281 311.632812 L 90.351562 311.644531 L 88.589844 311.652344 L 86.953125 311.652344 L 85.191406 311.648438 L 83.890625 311.644531 L 82.171875 311.628906 L 80.03125 311.601562 L 78.480469 311.570312 L 77.265625 311.542969 L 76.214844 311.511719 L 75.039062 311.46875 L 73.53125 311.402344 L 72.609375 311.347656 L 71.976562 311.304688 L 71.265625 311.242188 L 70.761719 311.191406 L 70.175781 311.101562 L 69.753906 310.992188 L 69.628906 310.90625 Z M 69.628906 310.691406 "/>
<path style=" stroke:none;fill-rule:nonzero;fill:rgb(96.862745%,70.196078%,16.862745%);fill-opacity:1;" d="M 69.628906 307.214844 L 69.671875 307.210938 L 69.671875 307.164062 L 69.839844 307.050781 L 70.257812 306.894531 L 70.804688 306.769531 L 71.390625 306.667969 L 71.769531 306.617188 L 72.398438 306.542969 L 72.941406 306.488281 L 74.328125 306.375 L 76.089844 306.269531 L 77.054688 306.226562 L 78.144531 306.183594 L 79.695312 306.136719 L 80.410156 306.117188 L 82.589844 306.078125 L 85.066406 306.054688 L 87.792969 306.046875 L 89.050781 306.050781 L 90.769531 306.058594 L 93.121094 306.085938 L 94.460938 306.113281 L 95.511719 306.136719 L 96.601562 306.167969 L 97.945312 306.21875 L 99.203125 306.277344 L 100.207031 306.339844 L 101.214844 306.414062 L 102.054688 306.492188 L 102.765625 306.578125 L 103.398438 306.683594 L 103.773438 306.769531 L 104.027344 306.859375 L 98.195312 306.859375 L 97.859375 306.769531 L 97.480469 306.703125 L 96.851562 306.621094 L 96.222656 306.5625 L 95.59375 306.515625 L 94.421875 306.449219 L 93.414062 306.410156 L 92.15625 306.375 L 90.9375 306.351562 L 89.554688 306.339844 L 88.714844 306.332031 L 86.492188 306.332031 L 84.480469 306.351562 L 83.304688 306.371094 L 82.464844 306.390625 L 81.289062 306.429688 L 80.578125 306.457031 L 80.15625 306.476562 L 78.898438 306.554688 L 78.0625 306.625 L 77.597656 306.671875 L 77.011719 306.746094 L 76.59375 306.8125 L 76.132812 306.914062 L 75.878906 306.988281 L 75.542969 307.15625 L 75.5 307.605469 L 75.628906 307.699219 L 75.878906 307.800781 L 76.214844 307.890625 L 76.71875 307.988281 L 77.222656 308.058594 L 78.101562 308.15625 L 78.859375 308.222656 L 79.445312 308.261719 L 80.578125 308.332031 L 81.039062 308.351562 L 82.128906 308.398438 L 83.261719 308.433594 L 84.644531 308.460938 L 85.695312 308.476562 L 87.371094 308.488281 L 89.511719 308.488281 L 92.027344 308.476562 L 93.625 308.453125 L 94.714844 308.433594 L 95.425781 308.417969 L 96.308594 308.390625 L 96.9375 308.367188 L 97.523438 308.339844 L 98.238281 308.296875 L 98.238281 307.699219 L 87.875 307.699219 L 87.875 307.417969 L 103.984375 307.417969 L 104.027344 308.390625 L 103.144531 308.457031 L 102.054688 308.523438 L 101.003906 308.570312 L 99.914062 308.613281 L 98.363281 308.660156 L 97.105469 308.691406 L 95.175781 308.726562 L 93.414062 308.75 L 91.566406 308.765625 L 89.933594 308.769531 L 88.003906 308.773438 L 86.28125 308.769531 L 84.4375 308.753906 L 82.96875 308.734375 L 81.625 308.710938 L 80.285156 308.675781 L 78.605469 308.625 L 77.515625 308.582031 L 76.382812 308.53125 L 75.25 308.46875 L 74.242188 308.398438 L 73.574219 308.347656 L 72.902344 308.289062 L 72.1875 308.214844 L 71.515625 308.128906 L 71.011719 308.050781 L 70.550781 307.964844 L 70.214844 307.882812 L 69.882812 307.769531 L 69.714844 307.679688 L 69.628906 307.601562 Z M 69.628906 307.214844 "/>
<path style=" stroke:none;fill-rule:nonzero;fill:rgb(83.921569%,15.686275%,22.352941%);fill-opacity:1;" d="M 69.628906 299.152344 L 104.027344 299.152344 L 104.027344 299.761719 L 89.691406 299.769531 L 89.691406 304.867188 L 83.921875 304.867188 L 83.921875 299.773438 L 83.839844 299.761719 L 69.628906 299.761719 Z M 69.628906 299.152344 "/>
<path style=" stroke:none;fill-rule:nonzero;fill:rgb(6.27451%,58.823529%,28.235294%);fill-opacity:1;" d="M 105.835938 305.03125 L 105.871094 304.996094 L 120.757812 266.457031 L 125.277344 266.457031 L 140.234375 305.066406 L 134.976562 305.066406 L 131.230469 294.988281 L 114.804688 294.988281 L 111.128906 305.03125 L 105.835938 305.03125 L 116.382812 290.820312 L 129.722656 290.78125 L 123.070312 272.765625 L 122.996094 272.726562 L 122.925781 272.835938 L 116.347656 290.78125 L 116.382812 290.820312 Z M 105.835938 305.03125 "/>
<path style=" stroke:none;fill-rule:nonzero;fill:rgb(14.509804%,36.078431%,60%);fill-opacity:1;" d="M 105.835938 241.40625 L 105.878906 241.367188 L 105.878906 240.441406 L 106.003906 238.972656 L 106.296875 237.121094 L 106.589844 235.84375 L 107.347656 233.566406 L 108.394531 231.363281 L 109.484375 229.664062 L 110.28125 228.660156 L 110.996094 227.886719 L 112.632812 226.460938 L 113.679688 225.726562 L 114.8125 225.070312 L 116.195312 224.414062 L 117.203125 224.027344 L 119.46875 223.40625 L 121.148438 223.136719 L 122.449219 223.023438 L 125.257812 223.023438 L 126.9375 223.175781 L 128.152344 223.371094 L 129.496094 223.679688 L 130.628906 224.027344 L 132.597656 224.875 L 134.359375 225.957031 L 135.15625 226.574219 L 136.414062 227.773438 L 137.378906 228.929688 L 138.050781 229.933594 L 138.808594 231.363281 L 139.476562 233.101562 L 139.980469 235.074219 L 140.234375 236.734375 L 134.359375 236.734375 L 134.066406 235.1875 L 133.730469 233.992188 L 133.101562 232.40625 L 132.472656 231.289062 L 131.589844 230.167969 L 130.792969 229.433594 L 129.703125 228.699219 L 128.738281 228.234375 L 127.734375 227.886719 L 126.769531 227.65625 L 124.921875 227.425781 L 122.78125 227.425781 L 121.984375 227.503906 L 120.351562 227.8125 L 119.46875 228.082031 L 118.210938 228.621094 L 117.328125 229.125 L 116.28125 229.898438 L 115.566406 230.554688 L 114.6875 231.558594 L 114.058594 232.445312 L 113.34375 233.71875 L 112.925781 234.6875 L 112.546875 235.765625 L 112.210938 237.042969 L 111.960938 238.394531 L 111.792969 239.824219 L 111.707031 241.214844 L 111.707031 247.199219 L 111.792969 248.589844 L 112.003906 250.210938 L 112.546875 252.570312 L 113.34375 254.617188 L 114.269531 256.238281 L 115.148438 257.398438 L 115.652344 257.9375 L 116.324219 258.554688 L 117.371094 259.328125 L 118.882812 260.101562 L 119.761719 260.410156 L 121.105469 260.71875 L 122.488281 260.871094 L 124.335938 260.871094 L 125.972656 260.71875 L 127.0625 260.523438 L 128.195312 260.214844 L 129.746094 259.558594 L 130.710938 258.941406 L 131.550781 258.207031 L 132.179688 257.472656 L 132.597656 256.855469 L 133.226562 255.660156 L 133.730469 254.34375 L 134.109375 252.992188 L 134.359375 251.679688 L 140.234375 251.679688 L 139.980469 253.226562 L 139.605469 254.730469 L 139.226562 255.851562 L 138.640625 257.203125 L 137.96875 258.402344 L 137.003906 259.753906 L 136.207031 260.640625 L 135.15625 261.605469 L 134.191406 262.339844 L 133.144531 262.996094 L 131.589844 263.769531 L 130.585938 264.15625 L 129.496094 264.503906 L 128.195312 264.8125 L 126.558594 265.082031 L 124.796875 265.238281 L 123.160156 265.277344 L 121.398438 265.199219 L 120.097656 265.042969 L 118.378906 264.695312 L 116.238281 264 L 114.6875 263.265625 L 113.46875 262.535156 L 112.421875 261.761719 L 111.246094 260.71875 L 109.738281 259.019531 L 108.816406 257.707031 L 108.183594 256.625 L 107.472656 255.117188 L 106.96875 253.765625 L 106.382812 251.601562 L 105.960938 248.859375 L 105.835938 246.738281 Z M 105.835938 241.40625 "/>
<path style=" stroke:none;fill-rule:nonzero;fill:rgb(96.862745%,70.196078%,16.862745%);fill-opacity:1;" d="M 105.835938 309.707031 L 105.878906 309.699219 L 105.878906 309.550781 L 106.046875 309.21875 L 106.464844 308.761719 L 107.011719 308.386719 L 107.597656 308.089844 L 107.976562 307.9375 L 108.605469 307.714844 L 109.148438 307.550781 L 110.535156 307.21875 L 112.296875 306.910156 L 113.261719 306.777344 L 114.351562 306.652344 L 115.902344 306.511719 L 116.617188 306.460938 L 118.796875 306.34375 L 121.273438 306.269531 L 124 306.246094 L 125.257812 306.253906 L 126.976562 306.285156 L 129.328125 306.363281 L 130.667969 306.4375 L 131.71875 306.511719 L 132.808594 306.609375 L 134.152344 306.753906 L 135.410156 306.933594 L 136.414062 307.109375 L 137.421875 307.332031 L 138.261719 307.566406 L 138.972656 307.824219 L 139.605469 308.136719 L 139.980469 308.394531 L 140.234375 308.652344 L 134.402344 308.652344 L 134.066406 308.394531 L 133.6875 308.195312 L 133.058594 307.949219 L 132.429688 307.773438 L 131.800781 307.632812 L 130.628906 307.441406 L 129.621094 307.324219 L 128.363281 307.21875 L 127.144531 307.152344 L 125.761719 307.109375 L 124.921875 307.09375 L 122.699219 307.09375 L 120.6875 307.144531 L 119.511719 307.207031 L 118.671875 307.265625 L 117.496094 307.375 L 116.785156 307.464844 L 116.363281 307.523438 L 115.105469 307.75 L 114.269531 307.957031 L 113.804688 308.097656 L 113.21875 308.320312 L 112.800781 308.519531 L 112.339844 308.8125 L 112.085938 309.035156 L 111.75 309.535156 L 111.707031 310.863281 L 111.835938 311.144531 L 112.085938 311.445312 L 112.421875 311.710938 L 112.925781 311.992188 L 113.429688 312.207031 L 114.308594 312.496094 L 115.066406 312.6875 L 115.652344 312.8125 L 116.785156 313.011719 L 117.246094 313.078125 L 118.335938 313.210938 L 119.46875 313.3125 L 120.851562 313.402344 L 121.902344 313.445312 L 123.578125 313.484375 L 125.71875 313.484375 L 128.234375 313.4375 L 129.828125 313.378906 L 130.921875 313.320312 L 131.632812 313.269531 L 132.515625 313.1875 L 133.144531 313.113281 L 133.730469 313.035156 L 134.445312 312.90625 L 134.445312 311.144531 L 124.082031 311.136719 L 124.082031 310.3125 L 140.191406 310.304688 L 140.234375 313.1875 L 139.351562 313.386719 L 138.261719 313.578125 L 137.210938 313.726562 L 136.121094 313.851562 L 134.570312 313.992188 L 133.3125 314.082031 L 131.382812 314.183594 L 129.621094 314.25 L 127.773438 314.292969 L 126.136719 314.316406 L 124.210938 314.324219 L 122.488281 314.308594 L 120.644531 314.265625 L 119.175781 314.207031 L 117.832031 314.132812 L 116.492188 314.035156 L 114.8125 313.882812 L 113.722656 313.757812 L 112.589844 313.601562 L 111.457031 313.417969 L 110.449219 313.21875 L 109.78125 313.0625 L 109.109375 312.886719 L 108.394531 312.664062 L 107.722656 312.414062 L 107.21875 312.183594 L 106.757812 311.925781 L 106.421875 311.683594 L 106.089844 311.351562 L 105.921875 311.085938 L 105.835938 310.855469 Z M 105.835938 309.707031 "/>
<path style=" stroke:none;fill-rule:nonzero;fill:rgb(14.509804%,36.078431%,60%);fill-opacity:1;" d="M 142.042969 176.253906 L 142.085938 176.066406 L 142.085938 171.523438 L 142.210938 164.335938 L 142.503906 155.253906 L 142.796875 149.011719 L 143.554688 137.851562 L 144.601562 127.070312 L 145.691406 118.746094 L 146.488281 113.828125 L 147.203125 110.042969 L 148.839844 103.042969 L 149.886719 99.449219 L 151.019531 96.234375 L 152.402344 93.019531 L 153.410156 91.125 L 155.675781 88.097656 L 157.355469 86.773438 L 158.652344 86.207031 L 161.464844 86.207031 L 163.144531 86.964844 L 164.359375 87.910156 L 165.703125 89.421875 L 166.832031 91.125 L 168.804688 95.289062 L 170.566406 100.585938 L 171.363281 103.613281 L 172.621094 109.476562 L 173.585938 115.152344 L 174.257812 120.070312 L 175.011719 127.070312 L 175.683594 135.582031 L 176.1875 145.230469 L 176.441406 153.363281 L 170.566406 153.363281 L 170.273438 145.796875 L 169.9375 139.933594 L 169.308594 132.175781 L 168.679688 126.691406 L 167.796875 121.203125 L 167 117.609375 L 165.910156 114.015625 L 164.945312 111.746094 L 163.941406 110.042969 L 162.976562 108.910156 L 161.128906 107.773438 L 158.988281 107.773438 L 158.191406 108.152344 L 156.558594 109.664062 L 155.675781 110.988281 L 154.417969 113.636719 L 153.535156 116.097656 L 152.488281 119.878906 L 151.773438 123.097656 L 150.894531 128.015625 L 150.265625 132.367188 L 149.550781 138.609375 L 149.132812 143.339844 L 148.753906 148.636719 L 148.417969 154.878906 L 148.167969 161.5 L 148 168.496094 L 147.914062 175.308594 L 147.914062 204.628906 L 148 211.441406 L 148.210938 219.386719 L 148.753906 230.925781 L 149.550781 240.949219 L 150.472656 248.894531 L 151.355469 254.570312 L 151.859375 257.21875 L 152.53125 260.246094 L 153.578125 264.03125 L 155.089844 267.8125 L 155.96875 269.328125 L 157.3125 270.839844 L 158.695312 271.597656 L 160.542969 271.597656 L 162.179688 270.839844 L 163.269531 269.894531 L 164.402344 268.382812 L 165.953125 265.164062 L 166.917969 262.136719 L 167.757812 258.542969 L 168.386719 254.949219 L 168.804688 251.921875 L 169.433594 246.058594 L 169.9375 239.625 L 170.316406 233.003906 L 170.566406 226.574219 L 176.441406 226.574219 L 176.1875 234.140625 L 175.8125 241.519531 L 175.433594 247.003906 L 174.847656 253.625 L 174.175781 259.488281 L 173.210938 266.109375 L 172.414062 270.460938 L 171.363281 275.191406 L 170.398438 278.785156 L 169.351562 282 L 167.796875 285.785156 L 166.792969 287.675781 L 165.703125 289.378906 L 164.402344 290.894531 L 162.765625 292.21875 L 161.003906 292.972656 L 159.367188 293.164062 L 157.605469 292.785156 L 156.304688 292.027344 L 154.585938 290.324219 L 152.445312 286.921875 L 150.894531 283.324219 L 149.675781 279.730469 L 148.628906 275.949219 L 147.453125 270.839844 L 145.945312 262.515625 L 145.019531 256.085938 L 144.390625 250.789062 L 143.679688 243.410156 L 143.175781 236.789062 L 142.589844 226.195312 L 142.167969 212.765625 L 142.042969 202.359375 Z M 142.042969 176.253906 "/>
<path style=" stroke:none;fill-rule:nonzero;fill:rgb(83.921569%,15.686275%,22.352941%);fill-opacity:1;" d="M 142.042969 294.34375 L 176.441406 294.34375 L 176.441406 296.480469 L 162.105469 296.5 L 162.105469 314.3125 L 156.335938 314.3125 L 156.335938 296.519531 L 156.253906 296.480469 L 142.042969 296.480469 Z M 142.042969 294.34375 "/>
<path style=" stroke:none;fill-rule:nonzero;fill:rgb(6.27451%,58.823529%,28.235294%);fill-opacity:1;" d="M 178.25 313.585938 L 178.285156 313.3125 L 193.171875 23.269531 L 197.691406 23.269531 L 212.648438 313.859375 L 207.390625 313.859375 L 203.644531 238.003906 L 187.21875 238.003906 L 183.542969 313.585938 L 178.25 313.585938 L 188.796875 206.625 L 202.136719 206.351562 L 195.484375 70.746094 L 195.410156 70.472656 L 195.339844 71.289062 L 188.761719 206.351562 L 188.796875 206.625 Z M 178.25 313.585938 "/>
<path style=" stroke:none;fill-rule:nonzero;fill:rgb(6.27451%,58.823529%,28.235294%);fill-opacity:1;" d="M 214.457031 312.390625 L 214.492188 312.386719 L 229.378906 310.570312 L 233.898438 310.570312 L 248.855469 312.390625 L 243.597656 312.390625 L 239.851562 311.917969 L 223.421875 311.917969 L 219.75 312.390625 L 214.457031 312.390625 L 225.003906 311.71875 L 238.34375 311.71875 L 231.691406 310.871094 L 231.617188 310.867188 L 231.546875 310.871094 L 224.96875 311.71875 L 225.003906 311.71875 Z M 214.457031 312.390625 "/>
<path style=" stroke:none;fill-rule:nonzero;fill:rgb(14.509804%,36.078431%,60%);fill-opacity:1;" d="M 214.457031 313.917969 L 214.5 313.917969 L 214.5 313.902344 L 214.625 313.871094 L 214.917969 313.835938 L 215.210938 313.8125 L 215.96875 313.769531 L 217.015625 313.730469 L 218.105469 313.695312 L 218.902344 313.675781 L 219.617188 313.664062 L 221.253906 313.636719 L 222.300781 313.621094 L 223.433594 313.609375 L 224.816406 313.597656 L 225.824219 313.589844 L 228.089844 313.578125 L 229.769531 313.574219 L 231.066406 313.570312 L 233.878906 313.570312 L 235.554688 313.574219 L 236.773438 313.578125 L 238.117188 313.582031 L 239.246094 313.589844 L 241.21875 313.605469 L 242.980469 313.625 L 243.777344 313.636719 L 245.035156 313.660156 L 246 313.683594 L 246.671875 313.703125 L 247.425781 313.730469 L 248.097656 313.761719 L 248.601562 313.800781 L 248.855469 313.832031 L 242.980469 313.832031 L 242.6875 313.800781 L 242.351562 313.777344 L 241.722656 313.75 L 241.09375 313.726562 L 240.210938 313.707031 L 239.414062 313.691406 L 238.324219 313.679688 L 237.359375 313.667969 L 236.351562 313.664062 L 235.390625 313.660156 L 233.542969 313.652344 L 231.402344 313.652344 L 230.605469 313.65625 L 228.972656 313.660156 L 228.089844 313.667969 L 226.832031 313.675781 L 225.949219 313.6875 L 224.902344 313.699219 L 224.1875 313.714844 L 223.308594 313.734375 L 222.679688 313.75 L 221.964844 313.773438 L 221.546875 313.792969 L 221.167969 313.8125 L 220.832031 313.835938 L 220.582031 313.863281 L 220.414062 313.890625 L 220.328125 313.914062 L 220.328125 314.027344 L 220.414062 314.054688 L 220.625 314.085938 L 221.167969 314.128906 L 221.964844 314.167969 L 222.886719 314.199219 L 223.769531 314.222656 L 224.273438 314.230469 L 224.945312 314.242188 L 225.992188 314.257812 L 227.503906 314.273438 L 228.382812 314.277344 L 229.726562 314.285156 L 231.109375 314.289062 L 232.957031 314.289062 L 234.589844 314.285156 L 235.683594 314.28125 L 236.816406 314.273438 L 238.367188 314.261719 L 239.332031 314.25 L 240.171875 314.238281 L 240.800781 314.222656 L 241.21875 314.210938 L 241.847656 314.1875 L 242.351562 314.164062 L 242.730469 314.136719 L 242.980469 314.113281 L 248.855469 314.113281 L 248.601562 314.140625 L 248.222656 314.171875 L 247.847656 314.191406 L 247.257812 314.21875 L 246.589844 314.242188 L 245.625 314.265625 L 244.828125 314.28125 L 243.777344 314.300781 L 242.8125 314.316406 L 241.765625 314.328125 L 240.210938 314.34375 L 239.207031 314.347656 L 238.117188 314.355469 L 236.816406 314.363281 L 235.179688 314.367188 L 233.417969 314.371094 L 230.019531 314.371094 L 228.71875 314.367188 L 227 314.359375 L 224.859375 314.347656 L 223.308594 314.332031 L 222.089844 314.320312 L 221.042969 314.304688 L 219.867188 314.285156 L 218.359375 314.253906 L 217.433594 314.226562 L 216.804688 314.207031 L 216.09375 314.179688 L 215.589844 314.152344 L 215.003906 314.113281 L 214.582031 314.058594 L 214.457031 314.019531 Z M 214.457031 313.917969 "/>
<path style=" stroke:none;fill-rule:nonzero;fill:rgb(96.862745%,70.196078%,16.862745%);fill-opacity:1;" d="M 214.457031 305.816406 L 214.5 305.808594 L 214.5 305.695312 L 214.667969 305.4375 L 215.085938 305.082031 L 215.632812 304.792969 L 216.21875 304.5625 L 216.597656 304.441406 L 217.226562 304.273438 L 217.769531 304.144531 L 219.15625 303.890625 L 220.917969 303.648438 L 221.882812 303.546875 L 222.972656 303.449219 L 224.523438 303.339844 L 225.238281 303.300781 L 227.417969 303.207031 L 229.894531 303.152344 L 232.621094 303.132812 L 233.878906 303.140625 L 235.597656 303.164062 L 237.949219 303.226562 L 239.289062 303.28125 L 240.339844 303.339844 L 241.429688 303.414062 L 242.769531 303.527344 L 244.03125 303.664062 L 245.035156 303.804688 L 246.042969 303.976562 L 246.882812 304.15625 L 247.59375 304.359375 L 248.222656 304.597656 L 248.601562 304.796875 L 248.855469 304.996094 L 243.023438 304.996094 L 242.6875 304.796875 L 242.308594 304.644531 L 241.679688 304.453125 L 241.050781 304.316406 L 240.421875 304.207031 L 239.246094 304.058594 L 238.242188 303.96875 L 236.984375 303.890625 L 235.765625 303.835938 L 234.382812 303.804688 L 233.542969 303.792969 L 231.320312 303.792969 L 229.304688 303.832031 L 228.132812 303.878906 L 227.292969 303.921875 L 226.117188 304.007812 L 225.40625 304.078125 L 224.984375 304.125 L 223.726562 304.300781 L 222.886719 304.460938 L 222.425781 304.570312 L 221.839844 304.742188 L 221.421875 304.894531 L 220.957031 305.125 L 220.707031 305.292969 L 220.371094 305.683594 L 220.328125 306.710938 L 220.457031 306.929688 L 220.707031 307.164062 L 221.042969 307.371094 L 221.546875 307.585938 L 222.050781 307.753906 L 222.929688 307.976562 L 223.683594 308.125 L 224.273438 308.222656 L 225.40625 308.375 L 225.867188 308.425781 L 226.957031 308.53125 L 228.089844 308.609375 L 229.472656 308.679688 L 230.523438 308.710938 L 232.199219 308.742188 L 234.339844 308.742188 L 236.855469 308.707031 L 238.449219 308.660156 L 239.542969 308.613281 L 240.253906 308.574219 L 241.136719 308.511719 L 241.765625 308.457031 L 242.351562 308.390625 L 243.066406 308.296875 L 243.066406 306.929688 L 232.703125 306.921875 L 232.703125 306.285156 L 248.8125 306.277344 L 248.855469 308.511719 L 247.972656 308.667969 L 246.882812 308.816406 L 245.832031 308.929688 L 244.742188 309.027344 L 243.191406 309.136719 L 241.933594 309.203125 L 240.003906 309.285156 L 238.242188 309.335938 L 236.394531 309.371094 L 234.757812 309.386719 L 232.828125 309.390625 L 231.109375 309.382812 L 229.265625 309.347656 L 227.796875 309.300781 L 226.453125 309.242188 L 225.113281 309.167969 L 223.433594 309.050781 L 222.34375 308.953125 L 221.210938 308.832031 L 220.078125 308.6875 L 219.070312 308.535156 L 218.398438 308.414062 L 217.730469 308.277344 L 217.015625 308.105469 L 216.34375 307.914062 L 215.839844 307.734375 L 215.378906 307.535156 L 215.042969 307.347656 L 214.707031 307.089844 L 214.539062 306.882812 L 214.457031 306.707031 Z M 214.457031 305.816406 "/>
<path style=" stroke:none;fill-rule:nonzero;fill:rgb(83.921569%,15.686275%,22.352941%);fill-opacity:1;" d="M 214.457031 73.59375 L 248.855469 73.59375 L 248.855469 98.039062 L 234.519531 98.253906 L 234.519531 301.953125 L 228.75 301.953125 L 228.75 98.46875 L 228.667969 98.039062 L 214.457031 98.039062 Z M 214.457031 73.59375 "/>
<path style=" stroke:none;fill-rule:nonzero;fill:rgb(6.27451%,58.823529%,28.235294%);fill-opacity:1;" d="M 250.664062 314.027344 L 250.699219 314.023438 L 265.582031 310.496094 L 270.105469 310.496094 L 285.0625 314.027344 L 279.804688 314.027344 L 276.058594 313.105469 L 259.628906 313.105469 L 255.957031 314.027344 L 250.664062 314.027344 L 261.210938 312.726562 L 274.550781 312.722656 L 267.898438 311.074219 L 267.824219 311.070312 L 267.753906 311.082031 L 261.175781 312.722656 L 261.210938 312.726562 Z M 250.664062 314.027344 "/>
<path style=" stroke:none;fill-rule:nonzero;fill:rgb(14.509804%,36.078431%,60%);fill-opacity:1;" d="M 250.664062 157.636719 L 250.707031 157.394531 L 250.707031 151.503906 L 250.832031 142.175781 L 251.125 130.394531 L 251.417969 122.296875 L 252.175781 107.816406 L 253.222656 93.824219 L 254.3125 83.027344 L 255.109375 76.644531 L 255.824219 71.738281 L 257.460938 62.65625 L 258.507812 57.992188 L 259.640625 53.820312 L 261.023438 49.648438 L 262.03125 47.191406 L 264.296875 43.265625 L 265.976562 41.546875 L 267.273438 40.8125 L 270.085938 40.8125 L 271.761719 41.792969 L 272.980469 43.019531 L 274.320312 44.984375 L 275.453125 47.191406 L 277.425781 52.59375 L 279.1875 59.464844 L 279.984375 63.390625 L 281.242188 71 L 282.207031 78.363281 L 282.878906 84.746094 L 283.632812 93.824219 L 284.304688 104.871094 L 284.808594 117.386719 L 285.0625 127.941406 L 279.1875 127.941406 L 278.894531 118.125 L 278.558594 110.515625 L 277.929688 100.453125 L 277.300781 93.335938 L 276.417969 86.21875 L 275.621094 81.554688 L 274.53125 76.890625 L 273.566406 73.945312 L 272.558594 71.738281 L 271.59375 70.265625 L 269.75 68.792969 L 267.609375 68.792969 L 266.8125 69.28125 L 265.179688 71.246094 L 264.296875 72.964844 L 263.039062 76.398438 L 262.15625 79.589844 L 261.109375 84.5 L 260.394531 88.671875 L 259.515625 95.054688 L 258.886719 100.699219 L 258.171875 108.796875 L 257.753906 114.933594 L 257.375 121.804688 L 257.039062 129.90625 L 256.789062 138.496094 L 256.621094 147.574219 L 256.535156 156.410156 L 256.535156 194.453125 L 256.621094 203.289062 L 256.832031 213.597656 L 257.375 228.570312 L 258.171875 241.578125 L 259.09375 251.886719 L 259.976562 259.25 L 260.480469 262.683594 L 261.152344 266.613281 L 262.199219 271.519531 L 263.710938 276.429688 L 264.589844 278.390625 L 265.933594 280.355469 L 267.316406 281.335938 L 269.164062 281.335938 L 270.796875 280.355469 L 271.890625 279.128906 L 273.023438 277.164062 L 274.574219 272.992188 L 275.539062 269.066406 L 276.378906 264.402344 L 277.007812 259.738281 L 277.425781 255.8125 L 278.054688 248.203125 L 278.558594 239.859375 L 278.9375 231.269531 L 279.1875 222.925781 L 285.0625 222.925781 L 284.808594 232.742188 L 284.429688 242.3125 L 284.054688 249.429688 L 283.464844 258.019531 L 282.796875 265.628906 L 281.832031 274.21875 L 281.035156 279.863281 L 279.984375 286 L 279.019531 290.664062 L 277.972656 294.835938 L 276.417969 299.746094 L 275.414062 302.199219 L 274.320312 304.410156 L 273.023438 306.371094 L 271.386719 308.089844 L 269.625 309.070312 L 267.988281 309.316406 L 266.226562 308.828125 L 264.925781 307.84375 L 263.207031 305.636719 L 261.066406 301.21875 L 259.515625 296.554688 L 258.296875 291.890625 L 257.25 286.984375 L 256.074219 280.355469 L 254.566406 269.558594 L 253.640625 261.210938 L 253.011719 254.339844 L 252.300781 244.769531 L 251.796875 236.175781 L 251.210938 222.433594 L 250.789062 205.007812 L 250.664062 191.507812 Z M 250.664062 157.636719 "/>
<path style=" stroke:none;fill-rule:nonzero;fill:rgb(14.509804%,36.078431%,60%);fill-opacity:1;" d="M 286.871094 150.253906 L 286.914062 149.988281 L 286.914062 143.648438 L 287.039062 133.613281 L 287.332031 120.933594 L 287.625 112.21875 L 288.382812 96.632812 L 289.429688 81.574219 L 290.519531 69.953125 L 291.316406 63.085938 L 292.03125 57.800781 L 293.667969 48.027344 L 294.714844 43.011719 L 295.847656 38.519531 L 297.230469 34.027344 L 298.238281 31.386719 L 300.503906 27.160156 L 302.183594 25.3125 L 303.480469 24.519531 L 306.292969 24.519531 L 307.96875 25.578125 L 309.1875 26.898438 L 310.527344 29.011719 L 311.660156 31.386719 L 313.632812 37.199219 L 315.394531 44.59375 L 316.191406 48.820312 L 317.449219 57.011719 L 318.414062 64.933594 L 319.085938 71.800781 L 319.839844 81.574219 L 320.511719 93.460938 L 321.015625 106.933594 L 321.269531 118.292969 L 315.394531 118.292969 L 315.101562 107.726562 L 314.765625 99.539062 L 314.136719 88.707031 L 313.507812 81.046875 L 312.625 73.386719 L 311.828125 68.367188 L 310.738281 63.347656 L 309.773438 60.179688 L 308.765625 57.800781 L 307.800781 56.21875 L 305.957031 54.632812 L 303.816406 54.632812 L 303.019531 55.160156 L 301.382812 57.273438 L 300.503906 59.125 L 299.246094 62.820312 L 298.363281 66.253906 L 297.316406 71.539062 L 296.601562 76.027344 L 295.722656 82.894531 L 295.09375 88.972656 L 294.378906 97.6875 L 293.960938 104.292969 L 293.582031 111.6875 L 293.246094 120.40625 L 292.996094 129.652344 L 292.828125 139.425781 L 292.742188 148.933594 L 292.742188 189.875 L 292.828125 199.386719 L 293.039062 210.480469 L 293.582031 226.59375 L 294.378906 240.59375 L 295.300781 251.6875 L 296.183594 259.609375 L 296.6875 263.308594 L 297.359375 267.535156 L 298.40625 272.820312 L 299.917969 278.101562 L 300.796875 280.214844 L 302.140625 282.328125 L 303.523438 283.382812 L 305.371094 283.382812 L 307.003906 282.328125 L 308.097656 281.007812 L 309.230469 278.894531 L 310.78125 274.402344 L 311.746094 270.175781 L 312.585938 265.15625 L 313.214844 260.140625 L 313.632812 255.914062 L 314.261719 247.722656 L 314.765625 238.742188 L 315.144531 229.5 L 315.394531 220.515625 L 321.269531 220.515625 L 321.015625 231.082031 L 320.636719 241.386719 L 320.261719 249.046875 L 319.671875 258.289062 L 319.003906 266.480469 L 318.039062 275.722656 L 317.242188 281.800781 L 316.191406 288.402344 L 315.226562 293.421875 L 314.179688 297.914062 L 312.625 303.195312 L 311.621094 305.835938 L 310.527344 308.214844 L 309.230469 310.328125 L 307.59375 312.175781 L 305.832031 313.234375 L 304.195312 313.496094 L 302.433594 312.96875 L 301.132812 311.914062 L 299.414062 309.535156 L 297.273438 304.78125 L 295.722656 299.761719 L 294.503906 294.742188 L 293.457031 289.460938 L 292.28125 282.328125 L 290.773438 270.707031 L 289.847656 261.722656 L 289.21875 254.328125 L 288.507812 244.027344 L 288.003906 234.78125 L 287.417969 219.988281 L 286.996094 201.234375 L 286.871094 186.707031 Z M 286.871094 150.253906 "/>
<path style=" stroke:none;fill-rule:nonzero;fill:rgb(14.509804%,36.078431%,60%);fill-opacity:1;" d="M 323.078125 148.421875 L 323.121094 148.15625 L 323.121094 141.714844 L 323.246094 131.515625 L 323.539062 118.628906 L 323.832031 109.773438 L 324.589844 93.9375 L 325.636719 78.636719 L 326.726562 66.828125 L 327.523438 59.851562 L 328.238281 54.480469 L 329.875 44.550781 L 330.921875 39.453125 L 332.054688 34.886719 L 333.4375 30.324219 L 334.445312 27.640625 L 336.710938 23.347656 L 338.386719 21.46875 L 339.6875 20.664062 L 342.5 20.664062 L 344.175781 21.738281 L 345.394531 23.078125 L 346.734375 25.226562 L 347.867188 27.640625 L 349.839844 33.546875 L 351.601562 41.0625 L 352.398438 45.355469 L 353.65625 53.675781 L 354.621094 61.730469 L 355.292969 68.707031 L 356.046875 78.636719 L 356.71875 90.714844 L 357.222656 104.40625 L 357.472656 115.945312 L 351.601562 115.945312 L 351.308594 105.210938 L 350.972656 96.890625 L 350.34375 85.886719 L 349.714844 78.101562 L 348.832031 70.316406 L 348.035156 65.21875 L 346.945312 60.117188 L 345.980469 56.898438 L 344.972656 54.480469 L 344.007812 52.871094 L 342.164062 51.261719 L 340.023438 51.261719 L 339.226562 51.796875 L 337.589844 53.945312 L 336.710938 55.824219 L 335.453125 59.582031 L 334.570312 63.070312 L 333.523438 68.4375 L 332.808594 73 L 331.929688 79.980469 L 331.300781 86.152344 L 330.585938 95.011719 L 330.167969 101.722656 L 329.789062 109.234375 L 329.453125 118.09375 L 329.203125 127.488281 L 329.035156 137.417969 L 328.949219 147.082031 L 328.949219 188.683594 L 329.035156 198.347656 L 329.246094 209.621094 L 329.789062 225.992188 L 330.585938 240.21875 L 331.507812 251.488281 L 332.390625 259.542969 L 332.894531 263.300781 L 333.566406 267.59375 L 334.613281 272.960938 L 336.125 278.332031 L 337.003906 280.476562 L 338.347656 282.625 L 339.730469 283.699219 L 341.578125 283.699219 L 343.210938 282.625 L 344.304688 281.28125 L 345.4375 279.136719 L 346.988281 274.574219 L 347.953125 270.277344 L 348.792969 265.179688 L 349.421875 260.078125 L 349.839844 255.785156 L 350.46875 247.464844 L 350.972656 238.339844 L 351.351562 228.945312 L 351.601562 219.820312 L 357.472656 219.820312 L 357.222656 230.554688 L 356.84375 241.023438 L 356.46875 248.804688 L 355.878906 258.199219 L 355.210938 266.519531 L 354.246094 275.914062 L 353.449219 282.089844 L 352.398438 288.796875 L 351.433594 293.898438 L 350.386719 298.460938 L 348.832031 303.828125 L 347.828125 306.511719 L 346.734375 308.929688 L 345.4375 311.074219 L 343.800781 312.953125 L 342.039062 314.027344 L 340.402344 314.296875 L 338.640625 313.761719 L 337.339844 312.6875 L 335.621094 310.269531 L 333.480469 305.4375 L 331.929688 300.339844 L 330.710938 295.238281 L 329.664062 289.871094 L 328.488281 282.625 L 326.980469 270.816406 L 326.054688 261.691406 L 325.425781 254.175781 L 324.714844 243.707031 L 324.210938 234.3125 L 323.625 219.28125 L 323.203125 200.226562 L 323.078125 185.460938 Z M 323.078125 148.421875 "/>
<path style=" stroke:none;fill-rule:nonzero;fill:rgb(6.27451%,58.823529%,28.235294%);fill-opacity:1;" d="M 359.285156 313.511719 L 359.320312 313.242188 L 374.203125 23.628906 L 378.726562 23.628906 L 393.679688 313.785156 L 388.425781 313.785156 L 384.679688 238.046875 L 368.25 238.046875 L 364.578125 313.511719 L 359.285156 313.511719 L 369.832031 206.714844 L 383.171875 206.441406 L 376.519531 71.035156 L 376.445312 70.761719 L 376.371094 71.582031 L 369.796875 206.441406 L 369.832031 206.714844 Z M 359.285156 313.511719 "/>
<path style=" stroke:none;fill-rule:nonzero;fill:rgb(83.921569%,15.686275%,22.352941%);fill-opacity:1;" d="M 395.492188 23.570312 L 429.886719 23.570312 L 429.886719 54.628906 L 415.554688 54.902344 L 415.554688 313.714844 L 409.785156 313.714844 L 409.785156 55.171875 L 409.703125 54.628906 L 395.492188 54.628906 Z M 395.492188 23.570312 "/>
<path style=" stroke:none;fill-rule:nonzero;fill:rgb(6.27451%,58.823529%,28.235294%);fill-opacity:1;" d="M 431.699219 313.511719 L 431.734375 313.238281 L 446.617188 23.242188 L 451.140625 23.242188 L 466.09375 313.785156 L 460.839844 313.785156 L 457.09375 237.945312 L 440.664062 237.945312 L 436.992188 313.511719 L 431.699219 313.511719 L 442.246094 206.570312 L 455.585938 206.296875 L 448.933594 70.710938 L 448.859375 70.441406 L 448.785156 71.257812 L 442.207031 206.296875 L 442.246094 206.570312 Z M 431.699219 313.511719 "/>
<path style=" stroke:none;fill-rule:nonzero;fill:rgb(6.27451%,58.823529%,28.235294%);fill-opacity:1;" d="M 467.90625 313.65625 L 467.941406 313.382812 L 482.824219 22.894531 L 487.34375 22.894531 L 502.300781 313.929688 L 497.046875 313.929688 L 493.300781 237.960938 L 476.871094 237.960938 L 473.199219 313.65625 L 467.90625 313.65625 L 478.453125 206.535156 L 491.792969 206.261719 L 485.140625 70.445312 L 485.066406 70.171875 L 484.992188 70.988281 L 478.414062 206.261719 L 478.453125 206.535156 Z M 467.90625 313.65625 "/>
<path style=" stroke:none;fill-rule:nonzero;fill:rgb(83.921569%,15.686275%,22.352941%);fill-opacity:1;" d="M 504.113281 24.253906 L 538.507812 24.253906 L 538.507812 55.230469 L 524.175781 55.503906 L 524.175781 313.640625 L 518.40625 313.640625 L 518.40625 55.773438 L 518.324219 55.230469 L 504.113281 55.230469 Z M 504.113281 24.253906 "/>
<path style=" stroke:none;fill-rule:nonzero;fill:rgb(6.27451%,58.823529%,28.235294%);fill-opacity:1;" d="M 540.320312 308.492188 L 540.355469 308.246094 L 555.238281 46.386719 L 559.757812 46.386719 L 574.714844 308.738281 L 569.460938 308.738281 L 565.710938 240.253906 L 549.285156 240.253906 L 545.613281 308.492188 L 540.320312 308.492188 L 550.867188 211.925781 L 564.207031 211.679688 L 557.554688 89.25 L 557.480469 89.003906 L 557.40625 89.742188 L 550.828125 211.679688 L 550.867188 211.925781 Z M 540.320312 308.492188 "/>
<path style=" stroke:none;fill-rule:nonzero;fill:rgb(96.862745%,70.196078%,16.862745%);fill-opacity:1;" d="M 540.320312 310.648438 L 540.363281 310.644531 L 540.363281 310.613281 L 540.53125 310.542969 L 540.949219 310.449219 L 541.492188 310.367188 L 542.082031 310.304688 L 542.457031 310.273438 L 543.089844 310.226562 L 543.632812 310.191406 L 545.019531 310.121094 L 546.78125 310.058594 L 547.746094 310.03125 L 548.835938 310.003906 L 550.386719 309.972656 L 551.101562 309.960938 L 553.28125 309.9375 L 555.757812 309.921875 L 558.484375 309.917969 L 559.742188 309.917969 L 561.460938 309.925781 L 563.808594 309.941406 L 565.152344 309.957031 L 566.199219 309.972656 L 567.292969 309.992188 L 568.632812 310.023438 L 569.890625 310.0625 L 570.898438 310.097656 L 571.90625 310.144531 L 572.746094 310.195312 L 573.457031 310.25 L 574.085938 310.316406 L 574.464844 310.371094 L 574.714844 310.425781 L 568.886719 310.425781 L 568.550781 310.371094 L 568.171875 310.328125 L 567.542969 310.277344 L 566.914062 310.238281 L 566.285156 310.210938 L 565.109375 310.167969 L 564.105469 310.144531 L 562.84375 310.121094 L 561.628906 310.109375 L 560.246094 310.097656 L 557.183594 310.097656 L 555.167969 310.105469 L 553.996094 310.121094 L 553.15625 310.132812 L 551.980469 310.15625 L 551.269531 310.175781 L 550.847656 310.1875 L 549.589844 310.234375 L 548.75 310.277344 L 548.289062 310.308594 L 547.703125 310.355469 L 547.28125 310.398438 L 546.820312 310.457031 L 546.570312 310.503906 L 546.234375 310.613281 L 546.191406 310.890625 L 546.316406 310.949219 L 546.570312 311.015625 L 546.90625 311.070312 L 547.410156 311.128906 L 547.910156 311.175781 L 548.792969 311.234375 L 549.546875 311.277344 L 550.136719 311.300781 L 551.269531 311.34375 L 551.730469 311.359375 L 552.820312 311.386719 L 553.953125 311.40625 L 555.335938 311.425781 L 556.386719 311.4375 L 558.0625 311.445312 L 560.203125 311.445312 L 562.71875 311.433594 L 564.3125 311.421875 L 565.402344 311.410156 L 566.117188 311.398438 L 566.996094 311.382812 L 567.628906 311.367188 L 568.214844 311.347656 L 568.925781 311.324219 L 568.925781 310.949219 L 558.566406 310.949219 L 558.566406 310.773438 L 574.675781 310.773438 L 574.714844 311.382812 L 573.835938 311.421875 L 572.746094 311.464844 L 571.695312 311.496094 L 570.605469 311.523438 L 569.054688 311.550781 L 567.796875 311.570312 L 565.867188 311.589844 L 564.105469 311.605469 L 562.257812 311.613281 L 560.621094 311.621094 L 558.691406 311.621094 L 556.972656 311.617188 L 555.125 311.609375 L 553.660156 311.597656 L 552.316406 311.582031 L 550.972656 311.5625 L 549.296875 311.527344 L 548.207031 311.5 L 547.074219 311.46875 L 545.941406 311.429688 L 544.933594 311.386719 L 544.261719 311.355469 L 543.589844 311.316406 L 542.878906 311.269531 L 542.207031 311.21875 L 541.703125 311.171875 L 541.242188 311.117188 L 540.90625 311.0625 L 540.570312 310.996094 L 540.402344 310.9375 L 540.320312 310.890625 Z M 540.320312 310.648438 "/>
<path style=" stroke:none;fill-rule:nonzero;fill:rgb(83.921569%,15.686275%,22.352941%);fill-opacity:1;" d="M 540.320312 312.800781 L 574.714844 312.800781 L 574.714844 312.847656 L 560.378906 312.847656 L 560.378906 313.230469 L 554.613281 313.230469 L 554.613281 312.847656 L 540.320312 312.847656 Z M 540.320312 312.800781 "/>
<path style=" stroke:none;fill-rule:nonzero;fill:rgb(6.27451%,58.823529%,28.235294%);fill-opacity:1;" d="M 576.527344 311.660156 L 576.5625 311.660156 L 591.445312 311.070312 L 595.964844 311.070312 L 610.921875 311.660156 L 605.667969 311.660156 L 601.917969 311.507812 L 585.492188 311.507812 L 581.816406 311.660156 L 576.527344 311.660156 L 587.074219 311.441406 L 600.414062 311.441406 L 593.761719 311.164062 L 593.6875 311.164062 L 593.613281 311.167969 L 587.035156 311.441406 L 587.074219 311.441406 Z M 576.527344 311.660156 "/>
<path style=" stroke:none;fill-rule:nonzero;fill:rgb(14.509804%,36.078431%,60%);fill-opacity:1;" d="M 576.527344 309.351562 L 576.570312 309.351562 L 576.570312 309.332031 L 576.695312 309.296875 L 576.988281 309.257812 L 577.28125 309.226562 L 578.035156 309.175781 L 579.085938 309.125 L 580.175781 309.089844 L 580.972656 309.066406 L 581.6875 309.046875 L 583.320312 309.015625 L 584.371094 309 L 585.503906 308.984375 L 586.886719 308.96875 L 587.894531 308.960938 L 590.160156 308.949219 L 591.835938 308.941406 L 593.136719 308.9375 L 595.949219 308.9375 L 597.625 308.941406 L 598.84375 308.945312 L 600.183594 308.953125 L 601.316406 308.960938 L 603.289062 308.980469 L 605.050781 309.003906 L 605.847656 309.019531 L 607.105469 309.046875 L 608.070312 309.070312 L 608.742188 309.09375 L 609.496094 309.125 L 610.167969 309.164062 L 610.671875 309.210938 L 610.921875 309.246094 L 605.050781 309.246094 L 604.757812 309.210938 L 604.421875 309.1875 L 603.792969 309.148438 L 603.164062 309.125 L 602.28125 309.097656 L 601.484375 309.082031 L 600.394531 309.066406 L 599.429688 309.054688 L 598.421875 309.046875 L 597.457031 309.042969 L 595.613281 309.039062 L 592.675781 309.039062 L 591.039062 309.046875 L 590.160156 309.050781 L 588.902344 309.066406 L 588.019531 309.074219 L 586.972656 309.09375 L 586.257812 309.109375 L 585.378906 309.128906 L 584.75 309.152344 L 584.035156 309.179688 L 583.617188 309.203125 L 583.238281 309.226562 L 582.902344 309.253906 L 582.652344 309.285156 L 582.484375 309.316406 L 582.398438 309.347656 L 582.398438 309.484375 L 582.484375 309.515625 L 582.691406 309.550781 L 583.238281 309.605469 L 584.035156 309.648438 L 584.957031 309.6875 L 585.839844 309.710938 L 586.34375 309.722656 L 587.011719 309.738281 L 588.0625 309.753906 L 589.570312 309.773438 L 590.453125 309.78125 L 591.796875 309.785156 L 593.179688 309.789062 L 595.023438 309.789062 L 596.660156 309.785156 L 597.75 309.78125 L 598.882812 309.777344 L 600.4375 309.761719 L 601.402344 309.746094 L 602.238281 309.730469 L 602.871094 309.714844 L 603.289062 309.699219 L 603.917969 309.671875 L 604.421875 309.644531 L 604.800781 309.613281 L 605.050781 309.582031 L 610.921875 309.582031 L 610.671875 309.617188 L 610.292969 309.652344 L 609.917969 309.675781 L 609.328125 309.707031 L 608.65625 309.734375 L 607.691406 309.765625 L 606.894531 309.785156 L 605.847656 309.808594 L 604.882812 309.824219 L 603.835938 309.839844 L 602.28125 309.855469 L 601.273438 309.863281 L 600.183594 309.871094 L 598.882812 309.878906 L 597.25 309.886719 L 595.488281 309.886719 L 593.851562 309.890625 L 592.089844 309.886719 L 590.789062 309.882812 L 589.070312 309.875 L 586.929688 309.859375 L 585.378906 309.84375 L 584.160156 309.828125 L 583.113281 309.808594 L 581.9375 309.785156 L 580.425781 309.75 L 579.503906 309.71875 L 578.875 309.695312 L 578.164062 309.660156 L 577.660156 309.628906 L 577.070312 309.582031 L 576.652344 309.519531 L 576.527344 309.472656 Z M 576.527344 309.351562 "/>
<path style=" stroke:none;fill-rule:nonzero;fill:rgb(83.921569%,15.686275%,22.352941%);fill-opacity:1;" d="M 576.527344 312.839844 L 610.921875 312.839844 L 610.921875 312.894531 L 596.585938 312.894531 L 596.585938 313.34375 L 590.820312 313.34375 L 590.820312 312.894531 L 576.527344 312.894531 Z M 576.527344 312.839844 "/>
<path style=" stroke:none;fill-rule:nonzero;fill:rgb(6.27451%,58.823529%,28.235294%);fill-opacity:1;" d="M 612.734375 314.371094 L 612.769531 314.367188 L 627.652344 312.957031 L 632.171875 312.957031 L 647.128906 314.371094 L 641.875 314.371094 L 638.125 314.003906 L 621.699219 314.003906 L 618.023438 314.371094 L 612.734375 314.371094 L 623.28125 313.851562 L 636.621094 313.847656 L 629.96875 313.1875 L 629.894531 313.1875 L 629.820312 313.191406 L 623.242188 313.847656 L 623.28125 313.851562 Z M 612.734375 314.371094 "/>
<path style=" stroke:none;fill-rule:nonzero;fill:rgb(14.509804%,36.078431%,60%);fill-opacity:1;" d="M 612.734375 293.609375 L 612.777344 293.601562 L 612.777344 293.355469 L 612.902344 292.96875 L 613.195312 292.480469 L 613.488281 292.144531 L 614.242188 291.542969 L 615.292969 290.960938 L 616.382812 290.511719 L 617.179688 290.25 L 617.894531 290.042969 L 619.527344 289.667969 L 620.578125 289.472656 L 621.710938 289.300781 L 623.09375 289.128906 L 624.101562 289.027344 L 626.367188 288.863281 L 628.042969 288.792969 L 629.34375 288.761719 L 632.15625 288.761719 L 633.832031 288.800781 L 635.050781 288.851562 L 636.390625 288.933594 L 637.523438 289.027344 L 639.496094 289.25 L 641.257812 289.535156 L 642.054688 289.699219 L 643.3125 290.015625 L 644.277344 290.320312 L 644.949219 290.585938 L 645.703125 290.960938 L 646.375 291.421875 L 646.878906 291.941406 L 647.128906 292.378906 L 641.257812 292.378906 L 640.964844 291.96875 L 640.628906 291.65625 L 640 291.238281 L 639.371094 290.941406 L 638.488281 290.644531 L 637.691406 290.453125 L 636.601562 290.257812 L 635.636719 290.136719 L 634.628906 290.042969 L 633.664062 289.984375 L 631.820312 289.921875 L 629.679688 289.921875 L 628.882812 289.941406 L 627.246094 290.023438 L 626.367188 290.09375 L 625.109375 290.238281 L 624.226562 290.371094 L 623.179688 290.574219 L 622.464844 290.746094 L 621.585938 291.011719 L 620.957031 291.246094 L 620.242188 291.582031 L 619.824219 291.835938 L 619.445312 292.121094 L 619.109375 292.460938 L 618.859375 292.816406 L 618.691406 293.191406 L 618.605469 293.558594 L 618.605469 295.136719 L 618.691406 295.503906 L 618.898438 295.933594 L 619.445312 296.554688 L 620.242188 297.09375 L 621.164062 297.523438 L 622.046875 297.828125 L 622.550781 297.972656 L 623.21875 298.132812 L 624.269531 298.335938 L 625.777344 298.542969 L 626.660156 298.621094 L 628.003906 298.703125 L 629.386719 298.746094 L 631.230469 298.746094 L 632.867188 298.703125 L 633.957031 298.652344 L 635.089844 298.570312 L 636.644531 298.398438 L 637.609375 298.234375 L 638.445312 298.042969 L 639.078125 297.847656 L 639.496094 297.683594 L 640.125 297.371094 L 640.628906 297.023438 L 641.003906 296.667969 L 641.257812 296.320312 L 647.128906 296.320312 L 646.878906 296.726562 L 646.5 297.125 L 646.125 297.421875 L 645.535156 297.777344 L 644.863281 298.09375 L 643.898438 298.449219 L 643.101562 298.683594 L 642.054688 298.9375 L 641.089844 299.132812 L 640.042969 299.304688 L 638.488281 299.507812 L 637.480469 299.609375 L 636.390625 299.703125 L 635.089844 299.785156 L 633.457031 299.855469 L 631.695312 299.894531 L 630.058594 299.90625 L 628.296875 299.886719 L 626.996094 299.84375 L 625.277344 299.753906 L 623.136719 299.570312 L 621.585938 299.375 L 620.367188 299.183594 L 619.320312 298.980469 L 618.144531 298.703125 L 616.632812 298.257812 L 615.710938 297.910156 L 615.082031 297.625 L 614.371094 297.226562 L 613.867188 296.871094 L 613.277344 296.300781 L 612.859375 295.578125 L 612.734375 295.015625 Z M 612.734375 293.609375 "/>
<path style=" stroke:none;fill-rule:nonzero;fill:rgb(96.862745%,70.196078%,16.862745%);fill-opacity:1;" d="M 612.734375 305.664062 L 612.777344 305.65625 L 612.777344 305.460938 L 612.941406 305.019531 L 613.363281 304.414062 L 613.90625 303.917969 L 614.496094 303.527344 L 614.871094 303.320312 L 615.503906 303.027344 L 616.046875 302.8125 L 617.429688 302.375 L 619.191406 301.964844 L 620.15625 301.789062 L 621.25 301.621094 L 622.800781 301.4375 L 623.515625 301.367188 L 625.695312 301.210938 L 628.171875 301.113281 L 630.898438 301.085938 L 632.15625 301.09375 L 633.875 301.132812 L 636.222656 301.242188 L 637.566406 301.339844 L 638.613281 301.4375 L 639.707031 301.5625 L 641.046875 301.757812 L 642.304688 301.992188 L 643.3125 302.226562 L 644.320312 302.519531 L 645.160156 302.832031 L 645.871094 303.175781 L 646.5 303.585938 L 646.878906 303.925781 L 647.128906 304.269531 L 641.300781 304.269531 L 640.964844 303.925781 L 640.585938 303.664062 L 639.957031 303.339844 L 639.328125 303.105469 L 638.699219 302.921875 L 637.523438 302.667969 L 636.515625 302.511719 L 635.257812 302.375 L 634.042969 302.285156 L 632.660156 302.226562 L 631.820312 302.207031 L 629.597656 302.207031 L 627.582031 302.277344 L 626.410156 302.355469 L 625.570312 302.433594 L 624.394531 302.578125 L 623.683594 302.695312 L 623.261719 302.773438 L 622.003906 303.078125 L 621.164062 303.351562 L 620.703125 303.535156 L 620.117188 303.828125 L 619.695312 304.09375 L 619.234375 304.484375 L 618.984375 304.777344 L 618.648438 305.441406 L 618.605469 307.199219 L 618.730469 307.570312 L 618.984375 307.96875 L 619.320312 308.320312 L 619.824219 308.691406 L 620.324219 308.976562 L 621.207031 309.355469 L 621.960938 309.609375 L 622.550781 309.777344 L 623.683594 310.039062 L 624.144531 310.128906 L 625.234375 310.304688 L 626.367188 310.441406 L 627.75 310.558594 L 628.800781 310.617188 L 630.476562 310.664062 L 632.617188 310.664062 L 635.132812 310.605469 L 636.726562 310.527344 L 637.816406 310.449219 L 638.53125 310.382812 L 639.410156 310.273438 L 640.042969 310.175781 L 640.628906 310.070312 L 641.339844 309.902344 L 641.339844 307.570312 L 630.980469 307.558594 L 630.980469 306.464844 L 647.089844 306.457031 L 647.128906 310.273438 L 646.25 310.539062 L 645.160156 310.792969 L 644.109375 310.988281 L 643.019531 311.152344 L 641.46875 311.339844 L 640.207031 311.457031 L 638.277344 311.59375 L 636.515625 311.679688 L 634.671875 311.738281 L 633.035156 311.769531 L 631.105469 311.777344 L 629.386719 311.757812 L 627.539062 311.699219 L 626.074219 311.621094 L 624.730469 311.523438 L 623.386719 311.398438 L 621.710938 311.191406 L 620.621094 311.027344 L 619.488281 310.820312 L 618.355469 310.578125 L 617.347656 310.3125 L 616.675781 310.109375 L 616.003906 309.875 L 615.292969 309.582031 L 614.621094 309.25 L 614.117188 308.945312 L 613.65625 308.605469 L 613.320312 308.28125 L 612.984375 307.84375 L 612.816406 307.492188 L 612.734375 307.1875 Z M 612.734375 305.664062 "/>
<path style=" stroke:none;fill-rule:nonzero;fill:rgb(83.921569%,15.686275%,22.352941%);fill-opacity:1;" d="M 612.734375 254.5 L 647.128906 254.5 L 647.128906 258.039062 L 632.792969 258.070312 L 632.792969 287.582031 L 627.027344 287.582031 L 627.027344 258.101562 L 626.945312 258.039062 L 612.734375 258.039062 Z M 612.734375 254.5 "/>
<path style=" stroke:none;fill-rule:nonzero;fill:rgb(6.27451%,58.823529%,28.235294%);fill-opacity:1;" d="M 648.941406 300.269531 L 648.976562 300.253906 L 663.859375 283.132812 L 668.378906 283.132812 L 683.335938 300.285156 L 678.082031 300.285156 L 674.332031 295.808594 L 657.90625 295.808594 L 654.230469 300.269531 L 648.941406 300.269531 L 659.488281 293.957031 L 672.828125 293.941406 L 666.175781 285.933594 L 666.101562 285.917969 L 666.027344 285.96875 L 659.449219 293.941406 L 659.488281 293.957031 Z M 648.941406 300.269531 "/>
<path style=" stroke:none;fill-rule:nonzero;fill:rgb(14.509804%,36.078431%,60%);fill-opacity:1;" d="M 648.941406 248.511719 L 648.980469 248.457031 L 648.980469 247.15625 L 649.109375 245.101562 L 649.402344 242.503906 L 649.695312 240.71875 L 650.449219 237.527344 L 651.5 234.441406 L 652.589844 232.058594 L 653.386719 230.652344 L 654.101562 229.570312 L 655.734375 227.570312 L 656.785156 226.539062 L 657.917969 225.621094 L 659.300781 224.699219 L 660.308594 224.160156 L 662.574219 223.292969 L 664.25 222.914062 L 665.550781 222.753906 L 668.363281 222.753906 L 670.039062 222.96875 L 671.257812 223.238281 L 672.597656 223.671875 L 673.730469 224.160156 L 675.703125 225.351562 L 677.464844 226.867188 L 678.261719 227.730469 L 679.519531 229.410156 L 680.484375 231.03125 L 681.15625 232.4375 L 681.910156 234.441406 L 682.582031 236.875 L 683.085938 239.636719 L 683.335938 241.964844 L 677.464844 241.964844 L 677.171875 239.796875 L 676.835938 238.121094 L 676.207031 235.902344 L 675.578125 234.332031 L 674.695312 232.765625 L 673.898438 231.734375 L 672.808594 230.707031 L 671.84375 230.058594 L 670.835938 229.570312 L 669.871094 229.246094 L 668.027344 228.921875 L 665.886719 228.921875 L 665.089844 229.03125 L 663.453125 229.464844 L 662.574219 229.84375 L 661.316406 230.597656 L 660.433594 231.304688 L 659.386719 232.386719 L 658.671875 233.304688 L 657.792969 234.710938 L 657.160156 235.957031 L 656.449219 237.742188 L 656.03125 239.09375 L 655.652344 240.609375 L 655.316406 242.394531 L 655.066406 244.289062 L 654.898438 246.292969 L 654.8125 248.238281 L 654.8125 256.628906 L 654.898438 258.574219 L 655.105469 260.847656 L 655.652344 264.148438 L 656.449219 267.015625 L 657.371094 269.289062 L 658.253906 270.914062 L 658.757812 271.671875 L 659.425781 272.535156 L 660.476562 273.617188 L 661.984375 274.703125 L 662.867188 275.132812 L 664.210938 275.566406 L 665.59375 275.785156 L 667.4375 275.785156 L 669.074219 275.566406 L 670.164062 275.296875 L 671.296875 274.863281 L 672.851562 273.945312 L 673.816406 273.078125 L 674.652344 272.050781 L 675.28125 271.023438 L 675.703125 270.15625 L 676.332031 268.476562 L 676.835938 266.636719 L 677.210938 264.746094 L 677.464844 262.90625 L 683.335938 262.90625 L 683.085938 265.070312 L 682.707031 267.179688 L 682.332031 268.75 L 681.742188 270.644531 L 681.070312 272.320312 L 680.105469 274.214844 L 679.308594 275.457031 L 678.261719 276.8125 L 677.296875 277.839844 L 676.246094 278.761719 L 674.695312 279.84375 L 673.6875 280.382812 L 672.597656 280.871094 L 671.296875 281.304688 L 669.664062 281.683594 L 667.902344 281.898438 L 666.265625 281.953125 L 664.503906 281.84375 L 663.203125 281.628906 L 661.484375 281.140625 L 659.34375 280.167969 L 657.792969 279.136719 L 656.574219 278.109375 L 655.527344 277.027344 L 654.351562 275.566406 L 652.839844 273.1875 L 651.917969 271.347656 L 651.289062 269.832031 L 650.578125 267.722656 L 650.074219 265.828125 L 649.484375 262.796875 L 649.066406 258.953125 L 648.941406 255.976562 Z M 648.941406 248.511719 "/>
<path style=" stroke:none;fill-rule:nonzero;fill:rgb(96.862745%,70.196078%,16.862745%);fill-opacity:1;" d="M 648.941406 313.824219 L 648.980469 313.824219 L 648.980469 313.804688 L 649.148438 313.765625 L 649.570312 313.710938 L 650.113281 313.667969 L 650.703125 313.632812 L 651.078125 313.613281 L 651.707031 313.585938 L 652.253906 313.566406 L 653.636719 313.527344 L 655.398438 313.492188 L 656.363281 313.476562 L 657.457031 313.460938 L 659.007812 313.445312 L 659.722656 313.4375 L 661.902344 313.425781 L 664.378906 313.417969 L 667.105469 313.414062 L 668.363281 313.414062 L 670.082031 313.417969 L 672.429688 313.425781 L 673.773438 313.4375 L 674.820312 313.445312 L 675.914062 313.457031 L 677.253906 313.472656 L 678.511719 313.496094 L 679.519531 313.515625 L 680.527344 313.542969 L 681.367188 313.570312 L 682.078125 313.601562 L 682.707031 313.636719 L 683.085938 313.667969 L 683.335938 313.699219 L 677.507812 313.699219 L 677.171875 313.667969 L 676.792969 313.644531 L 676.164062 313.617188 L 675.535156 313.59375 L 674.90625 313.578125 L 673.730469 313.554688 L 672.722656 313.542969 L 671.464844 313.527344 L 670.25 313.519531 L 668.867188 313.515625 L 665.804688 313.515625 L 663.789062 313.519531 L 662.613281 313.527344 L 661.777344 313.535156 L 660.601562 313.546875 L 659.886719 313.558594 L 659.46875 313.566406 L 658.210938 313.59375 L 657.371094 313.617188 L 656.910156 313.632812 L 656.324219 313.660156 L 655.902344 313.683594 L 655.441406 313.71875 L 655.191406 313.742188 L 654.855469 313.804688 L 654.8125 313.960938 L 654.9375 313.992188 L 655.191406 314.03125 L 655.527344 314.0625 L 656.03125 314.09375 L 656.53125 314.121094 L 657.414062 314.152344 L 658.167969 314.175781 L 658.757812 314.191406 L 659.886719 314.214844 L 660.351562 314.222656 L 661.441406 314.238281 L 662.574219 314.25 L 663.957031 314.261719 L 665.007812 314.265625 L 666.683594 314.269531 L 668.824219 314.269531 L 671.339844 314.265625 L 672.933594 314.257812 L 674.023438 314.25 L 674.738281 314.246094 L 675.617188 314.234375 L 676.246094 314.226562 L 676.835938 314.21875 L 677.546875 314.203125 L 677.546875 313.992188 L 667.1875 313.992188 L 667.1875 313.894531 L 683.296875 313.894531 L 683.335938 314.234375 L 682.457031 314.257812 L 681.367188 314.28125 L 680.316406 314.300781 L 679.226562 314.316406 L 677.675781 314.332031 L 676.414062 314.34375 L 674.484375 314.355469 L 672.722656 314.363281 L 670.878906 314.367188 L 669.242188 314.371094 L 667.3125 314.371094 L 665.59375 314.367188 L 663.746094 314.363281 L 662.28125 314.355469 L 660.9375 314.347656 L 659.59375 314.335938 L 657.917969 314.316406 L 656.828125 314.304688 L 655.695312 314.285156 L 654.5625 314.261719 L 652.882812 314.222656 L 652.210938 314.199219 L 651.5 314.175781 L 650.828125 314.144531 L 650.324219 314.117188 L 649.863281 314.085938 L 649.527344 314.058594 L 649.191406 314.019531 L 649.023438 313.988281 L 648.941406 313.960938 Z M 648.941406 313.824219 "/>
<path style=" stroke:none;fill-rule:nonzero;fill:rgb(83.921569%,15.686275%,22.352941%);fill-opacity:1;" d="M 648.941406 301.464844 L 683.335938 301.464844 L 683.335938 302.617188 L 669 302.628906 L 669 312.234375 L 663.234375 312.234375 L 663.234375 302.640625 L 663.152344 302.617188 L 648.941406 302.617188 Z M 648.941406 301.464844 "/>
<g style="fill:rgb(0%,0%,0%);fill-opacity:1;">
  <use xlink:href="#glyph0-1" x="21.957031" y="318.198242"/>
  <use xlink:href="#glyph0-2" x="27.291016" y="318.198242"/>
  <use xlink:href="#glyph0-1" x="29.958008" y="318.198242"/>
</g>
<g style="fill:rgb(0%,0%,0%);fill-opacity:1;">
  <use xlink:href="#glyph0-1" x="21.957031" y="244.350586"/>
  <use xlink:href="#glyph0-2" x="27.291016" y="244.350586"/>
  <use xlink:href="#glyph0-3" x="29.958008" y="244.350586"/>
</g>
<g style="fill:rgb(0%,0%,0%);fill-opacity:1;">
  <use xlink:href="#glyph0-4" x="21.957031" y="170.506836"/>
  <use xlink:href="#glyph0-2" x="27.291016" y="170.506836"/>
  <use xlink:href="#glyph0-1" x="29.958008" y="170.506836"/>
</g>
<g style="fill:rgb(0%,0%,0%);fill-opacity:1;">
  <use xlink:href="#glyph0-4" x="21.957031" y="96.65918"/>
  <use xlink:href="#glyph0-2" x="27.291016" y="96.65918"/>
  <use xlink:href="#glyph0-3" x="29.958008" y="96.65918"/>
</g>
<g style="fill:rgb(0%,0%,0%);fill-opacity:1;">
  <use xlink:href="#glyph0-5" x="21.957031" y="22.81543"/>
  <use xlink:href="#glyph0-2" x="27.291016" y="22.81543"/>
  <use xlink:href="#glyph0-1" x="29.958008" y="22.81543"/>
</g>
<g style="fill:rgb(0%,0%,0%);fill-opacity:1;">
  <use xlink:href="#glyph0-4" x="83.828125" y="338.19043"/>
</g>
<g style="fill:rgb(0%,0%,0%);fill-opacity:1;">
  <use xlink:href="#glyph0-5" x="120.035156" y="338.19043"/>
</g>
<g style="fill:rgb(0%,0%,0%);fill-opacity:1;">
  <use xlink:href="#glyph0-6" x="156.242188" y="338.19043"/>
</g>
<g style="fill:rgb(0%,0%,0%);fill-opacity:1;">
  <use xlink:href="#glyph0-7" x="192.449219" y="338.19043"/>
</g>
<g style="fill:rgb(0%,0%,0%);fill-opacity:1;">
  <use xlink:href="#glyph0-3" x="228.65625" y="338.19043"/>
</g>
<g style="fill:rgb(0%,0%,0%);fill-opacity:1;">
  <use xlink:href="#glyph0-8" x="264.863281" y="338.19043"/>
</g>
<g style="fill:rgb(0%,0%,0%);fill-opacity:1;">
  <use xlink:href="#glyph0-9" x="301.070312" y="338.19043"/>
</g>
<g style="fill:rgb(0%,0%,0%);fill-opacity:1;">
  <use xlink:href="#glyph0-10" x="337.277344" y="338.19043"/>
</g>
<g style="fill:rgb(0%,0%,0%);fill-opacity:1;">
  <use xlink:href="#glyph0-11" x="373.484375" y="338.19043"/>
</g>
<g style="fill:rgb(0%,0%,0%);fill-opacity:1;">
  <use xlink:href="#glyph0-4" x="407.191406" y="338.19043"/>
  <use xlink:href="#glyph0-1" x="412.525391" y="338.19043"/>
</g>
<g style="fill:rgb(0%,0%,0%);fill-opacity:1;">
  <use xlink:href="#glyph0-4" x="443.398438" y="338.19043"/>
  <use xlink:href="#glyph0-4" x="448.732422" y="338.19043"/>
</g>
<g style="fill:rgb(0%,0%,0%);fill-opacity:1;">
  <use xlink:href="#glyph0-4" x="479.605469" y="338.19043"/>
  <use xlink:href="#glyph0-5" x="484.939453" y="338.19043"/>
</g>
<g style="fill:rgb(0%,0%,0%);fill-opacity:1;">
  <use xlink:href="#glyph0-4" x="515.8125" y="338.19043"/>
  <use xlink:href="#glyph0-6" x="521.146484" y="338.19043"/>
</g>
<g style="fill:rgb(0%,0%,0%);fill-opacity:1;">
  <use xlink:href="#glyph0-4" x="552.019531" y="338.19043"/>
  <use xlink:href="#glyph0-7" x="557.353516" y="338.19043"/>
</g>
<g style="fill:rgb(0%,0%,0%);fill-opacity:1;">
  <use xlink:href="#glyph0-4" x="588.226562" y="338.19043"/>
  <use xlink:href="#glyph0-3" x="593.560547" y="338.19043"/>
</g>
<g style="fill:rgb(0%,0%,0%);fill-opacity:1;">
  <use xlink:href="#glyph0-4" x="624.433594" y="338.19043"/>
  <use xlink:href="#glyph0-8" x="629.767578" y="338.19043"/>
</g>
<g style="fill:rgb(0%,0%,0%);fill-opacity:1;">
  <use xlink:href="#glyph0-4" x="660.640625" y="338.19043"/>
  <use xlink:href="#glyph0-9" x="665.974609" y="338.19043"/>
</g>
<g style="fill:rgb(0%,0%,0%);fill-opacity:1;">
  <use xlink:href="#glyph1-1" x="14.412109" y="178.015625"/>
  <use xlink:href="#glyph1-2" x="14.412109" y="170.011719"/>
  <use xlink:href="#glyph1-3" x="14.412109" y="167.347656"/>
  <use xlink:href="#glyph1-4" x="14.412109" y="164.011719"/>
</g>
</g>
</svg>
