<?xml version="1.0" encoding="UTF-8"?>
<svg xmlns="http://www.w3.org/2000/svg" xmlns:xlink="http://www.w3.org/1999/xlink" width="720pt" height="360pt" viewBox="0 0 720 360" version="1.1">
<defs>
<g>
<symbol overflow="visible" id="glyph0-0">
<path style="stroke:none;" d=""/>
</symbol>
<symbol overflow="visible" id="glyph0-1">
<path style="stroke:none;" d="M 2.640625 -6.796875 C 2 -6.796875 1.421875 -6.53125 1.078125 -6.046875 C 0.640625 -5.453125 0.40625 -4.546875 0.40625 -3.296875 C 0.40625 -1 1.1875 0.21875 2.640625 0.21875 C 4.078125 0.21875 4.859375 -1 4.859375 -3.234375 C 4.859375 -4.5625 4.65625 -5.4375 4.203125 -6.046875 C 3.84375 -6.53125 3.28125 -6.796875 2.640625 -6.796875 Z M 2.640625 -6.046875 C 3.546875 -6.046875 4 -5.125 4 -3.3125 C 4 -1.375 3.5625 -0.484375 2.625 -0.484375 C 1.734375 -0.484375 1.28125 -1.421875 1.28125 -3.28125 C 1.28125 -5.140625 1.734375 -6.046875 2.640625 -6.046875 Z M 2.640625 -6.046875 "/>
</symbol>
<symbol overflow="visible" id="glyph0-2">
<path style="stroke:none;" d="M 1.828125 -1 L 0.828125 -1 L 0.828125 0 L 1.828125 0 Z M 1.828125 -1 "/>
</symbol>
<symbol overflow="visible" id="glyph0-3">
<path style="stroke:none;" d="M 4.5625 -6.796875 L 1.0625 -6.796875 L 0.546875 -3.09375 L 1.328125 -3.09375 C 1.71875 -3.5625 2.046875 -3.734375 2.578125 -3.734375 C 3.484375 -3.734375 4.0625 -3.109375 4.0625 -2.09375 C 4.0625 -1.125 3.484375 -0.53125 2.578125 -0.53125 C 1.828125 -0.53125 1.375 -0.90625 1.1875 -1.671875 L 0.328125 -1.671875 C 0.453125 -1.109375 0.546875 -0.84375 0.75 -0.59375 C 1.125 -0.078125 1.828125 0.21875 2.59375 0.21875 C 3.96875 0.21875 4.921875 -0.78125 4.921875 -2.21875 C 4.921875 -3.5625 4.03125 -4.484375 2.71875 -4.484375 C 2.25 -4.484375 1.859375 -4.359375 1.46875 -4.0625 L 1.734375 -5.96875 L 4.5625 -5.96875 Z M 4.5625 -6.796875 "/>
</symbol>
<symbol overflow="visible" id="glyph0-4">
<path style="stroke:none;" d="M 2.484375 -4.84375 L 2.484375 0 L 3.328125 0 L 3.328125 -6.796875 L 2.765625 -6.796875 C 2.46875 -5.75 2.28125 -5.609375 0.984375 -5.453125 L 0.984375 -4.84375 Z M 2.484375 -4.84375 "/>
</symbol>
<symbol overflow="visible" id="glyph0-5">
<path style="stroke:none;" d="M 4.859375 -0.828125 L 1.28125 -0.828125 C 1.359375 -1.390625 1.671875 -1.75 2.5 -2.234375 L 3.46875 -2.75 C 4.40625 -3.265625 4.90625 -3.96875 4.90625 -4.8125 C 4.90625 -5.375 4.671875 -5.90625 4.265625 -6.265625 C 3.859375 -6.625 3.375 -6.796875 2.71875 -6.796875 C 1.859375 -6.796875 1.21875 -6.5 0.84375 -5.921875 C 0.609375 -5.5625 0.5 -5.125 0.484375 -4.4375 L 1.328125 -4.4375 C 1.359375 -4.90625 1.40625 -5.1875 1.53125 -5.40625 C 1.75 -5.8125 2.1875 -6.0625 2.703125 -6.0625 C 3.46875 -6.0625 4.03125 -5.515625 4.03125 -4.78125 C 4.03125 -4.25 3.71875 -3.796875 3.125 -3.4375 L 2.234375 -2.9375 C 0.8125 -2.140625 0.40625 -1.5 0.328125 0 L 4.859375 0 Z M 4.859375 -0.828125 "/>
</symbol>
<symbol overflow="visible" id="glyph0-6">
<path style="stroke:none;" d="M 2.125 -3.125 L 2.578125 -3.125 C 3.515625 -3.125 3.984375 -2.703125 3.984375 -1.890625 C 3.984375 -1.03125 3.46875 -0.53125 2.578125 -0.53125 C 1.65625 -0.53125 1.203125 -0.984375 1.15625 -1.96875 L 0.3125 -1.96875 C 0.34375 -1.421875 0.4375 -1.078125 0.609375 -0.765625 C 0.953125 -0.109375 1.625 0.21875 2.546875 0.21875 C 3.953125 0.21875 4.859375 -0.609375 4.859375 -1.90625 C 4.859375 -2.765625 4.515625 -3.25 3.703125 -3.515625 C 4.34375 -3.765625 4.65625 -4.25 4.65625 -4.9375 C 4.65625 -6.109375 3.875 -6.796875 2.578125 -6.796875 C 1.203125 -6.796875 0.484375 -6.046875 0.453125 -4.609375 L 1.296875 -4.609375 C 1.3125 -5.015625 1.34375 -5.25 1.453125 -5.453125 C 1.640625 -5.828125 2.0625 -6.0625 2.59375 -6.0625 C 3.34375 -6.0625 3.796875 -5.625 3.796875 -4.90625 C 3.796875 -4.421875 3.609375 -4.140625 3.25 -3.984375 C 3.015625 -3.890625 2.71875 -3.84375 2.125 -3.84375 Z M 2.125 -3.125 "/>
</symbol>
<symbol overflow="visible" id="glyph0-7">
<path style="stroke:none;" d="M 3.140625 -1.625 L 3.140625 0 L 3.984375 0 L 3.984375 -1.625 L 4.984375 -1.625 L 4.984375 -2.390625 L 3.984375 -2.390625 L 3.984375 -6.796875 L 3.359375 -6.796875 L 0.265625 -2.515625 L 0.265625 -1.625 Z M 3.140625 -2.390625 L 1 -2.390625 L 3.140625 -5.359375 Z M 3.140625 -2.390625 "/>
</symbol>
<symbol overflow="visible" id="glyph0-8">
<path style="stroke:none;" d="M 4.78125 -5.03125 C 4.609375 -6.140625 3.890625 -6.796875 2.84375 -6.796875 C 2.09375 -6.796875 1.421875 -6.4375 1.03125 -5.828125 C 0.609375 -5.171875 0.40625 -4.34375 0.40625 -3.09375 C 0.40625 -1.953125 0.578125 -1.234375 0.984375 -0.625 C 1.359375 -0.078125 1.953125 0.21875 2.703125 0.21875 C 3.984375 0.21875 4.921875 -0.734375 4.921875 -2.078125 C 4.921875 -3.34375 4.0625 -4.234375 2.84375 -4.234375 C 2.171875 -4.234375 1.640625 -3.96875 1.28125 -3.46875 C 1.28125 -5.125 1.828125 -6.046875 2.796875 -6.046875 C 3.390625 -6.046875 3.796875 -5.671875 3.9375 -5.03125 Z M 2.734375 -3.484375 C 3.546875 -3.484375 4.0625 -2.921875 4.0625 -2 C 4.0625 -1.15625 3.484375 -0.53125 2.703125 -0.53125 C 1.921875 -0.53125 1.328125 -1.1875 1.328125 -2.046875 C 1.328125 -2.890625 1.90625 -3.484375 2.734375 -3.484375 Z M 2.734375 -3.484375 "/>
</symbol>
<symbol overflow="visible" id="glyph0-9">
<path style="stroke:none;" d="M 4.984375 -6.796875 L 0.4375 -6.796875 L 0.4375 -5.96875 L 4.109375 -5.96875 C 2.5 -3.65625 1.828125 -2.234375 1.328125 0 L 2.21875 0 C 2.59375 -2.171875 3.453125 -4.046875 4.984375 -6.09375 Z M 4.984375 -6.796875 "/>
</symbol>
<symbol overflow="visible" id="glyph0-10">
<path style="stroke:none;" d="M 3.75 -3.578125 C 4.453125 -4 4.6875 -4.34375 4.6875 -4.984375 C 4.6875 -6.046875 3.84375 -6.796875 2.640625 -6.796875 C 1.4375 -6.796875 0.59375 -6.046875 0.59375 -4.984375 C 0.59375 -4.359375 0.828125 -4.015625 1.515625 -3.578125 C 0.734375 -3.203125 0.359375 -2.640625 0.359375 -1.890625 C 0.359375 -0.640625 1.296875 0.21875 2.640625 0.21875 C 3.984375 0.21875 4.921875 -0.640625 4.921875 -1.875 C 4.921875 -2.640625 4.53125 -3.203125 3.75 -3.578125 Z M 2.640625 -6.046875 C 3.359375 -6.046875 3.8125 -5.625 3.8125 -4.96875 C 3.8125 -4.34375 3.34375 -3.921875 2.640625 -3.921875 C 1.921875 -3.921875 1.453125 -4.34375 1.453125 -4.984375 C 1.453125 -5.625 1.921875 -6.046875 2.640625 -6.046875 Z M 2.640625 -3.203125 C 3.484375 -3.203125 4.0625 -2.671875 4.0625 -1.875 C 4.0625 -1.0625 3.484375 -0.53125 2.625 -0.53125 C 1.796875 -0.53125 1.21875 -1.078125 1.21875 -1.875 C 1.21875 -2.671875 1.796875 -3.203125 2.640625 -3.203125 Z M 2.640625 -3.203125 "/>
</symbol>
<symbol overflow="visible" id="glyph1-0">
<path style="stroke:none;" d=""/>
</symbol>
<symbol overflow="visible" id="glyph1-1">
<path style="stroke:none;" d="M 0 -0.953125 L 0 -4.890625 C 0 -5.71875 -0.234375 -6.34375 -0.734375 -6.796875 C -1.1875 -7.234375 -1.8125 -7.46875 -2.5 -7.46875 C -3.546875 -7.46875 -4.1875 -7 -4.625 -5.875 C -4.984375 -6.671875 -5.640625 -7.09375 -6.53125 -7.09375 C -7.15625 -7.09375 -7.734375 -6.859375 -8.140625 -6.390625 C -8.5625 -5.9375 -8.75 -5.34375 -8.75 -4.5 L -8.75 -0.953125 Z M -4.984375 -2.0625 L -7.765625 -2.0625 L -7.765625 -4.21875 C -7.765625 -4.84375 -7.6875 -5.203125 -7.453125 -5.5 C -7.21875 -5.8125 -6.859375 -5.96875 -6.375 -5.96875 C -5.90625 -5.96875 -5.53125 -5.8125 -5.296875 -5.5 C -5.0625 -5.203125 -4.984375 -4.84375 -4.984375 -4.21875 Z M -0.984375 -2.0625 L -4 -2.0625 L -4 -4.78125 C -4 -5.328125 -3.859375 -5.6875 -3.578125 -5.953125 C -3.296875 -6.21875 -2.921875 -6.359375 -2.484375 -6.359375 C -2.0625 -6.359375 -1.6875 -6.21875 -1.40625 -5.953125 C -1.109375 -5.6875 -0.984375 -5.328125 -0.984375 -4.78125 Z M -0.984375 -2.0625 "/>
</symbol>
<symbol overflow="visible" id="glyph1-2">
<path style="stroke:none;" d="M -6.28125 -1.796875 L -6.28125 -0.796875 L 0 -0.796875 L 0 -1.796875 Z M -8.75 -1.796875 L -8.75 -0.796875 L -7.484375 -0.796875 L -7.484375 -1.796875 Z M -8.75 -1.796875 "/>
</symbol>
<symbol overflow="visible" id="glyph1-3">
<path style="stroke:none;" d="M -6.28125 -3.046875 L -6.28125 -2.015625 L -8.015625 -2.015625 L -8.015625 -1.015625 L -6.28125 -1.015625 L -6.28125 -0.171875 L -5.46875 -0.171875 L -5.46875 -1.015625 L -0.71875 -1.015625 C -0.078125 -1.015625 0.28125 -1.453125 0.28125 -2.234375 C 0.28125 -2.46875 0.25 -2.71875 0.1875 -3.046875 L -0.640625 -3.046875 C -0.609375 -2.921875 -0.59375 -2.765625 -0.59375 -2.5625 C -0.59375 -2.140625 -0.71875 -2.015625 -1.15625 -2.015625 L -5.46875 -2.015625 L -5.46875 -3.046875 Z M -6.28125 -3.046875 "/>
</symbol>
<symbol overflow="visible" id="glyph1-4">
<path style="stroke:none;" d="M -4.53125 -5.25 C -5.765625 -5.25 -6.46875 -4.421875 -6.46875 -2.96875 C -6.46875 -1.515625 -5.71875 -0.5625 -4.546875 -0.5625 C -3.5625 -0.5625 -3.09375 -1.0625 -2.734375 -2.5625 L -2.515625 -3.484375 C -2.34375 -4.1875 -2.09375 -4.46875 -1.625 -4.46875 C -1.046875 -4.46875 -0.640625 -3.875 -0.640625 -3 C -0.640625 -2.453125 -0.796875 -2 -1.0625 -1.75 C -1.25 -1.59375 -1.421875 -1.53125 -1.875 -1.46875 L -1.875 -0.40625 C -0.421875 -0.453125 0.28125 -1.265625 0.28125 -2.921875 C 0.28125 -4.5 -0.5 -5.515625 -1.71875 -5.515625 C -2.65625 -5.515625 -3.171875 -4.984375 -3.46875 -3.734375 L -3.703125 -2.765625 C -3.890625 -1.953125 -4.15625 -1.609375 -4.59375 -1.609375 C -5.171875 -1.609375 -5.546875 -2.125 -5.546875 -2.9375 C -5.546875 -3.75 -5.203125 -4.171875 -4.53125 -4.203125 Z M -4.53125 -5.25 "/>
</symbol>
</g>
</defs>
<g id="surface88314">
<rect x="0" y="0" width="720" height="360" style="fill:rgb(100%,100%,100%);fill-opacity:1;stroke:none;"/>
<path style=" stroke:none;fill-rule:nonzero;fill:rgb(6.27451%,58.823529%,28.235294%);fill-opacity:1;" d="M 146.824219 309.984375 L 146.902344 309.976562 L 178.636719 300.933594 L 188.273438 300.933594 L 220.160156 309.992188 L 208.957031 309.992188 L 200.964844 307.628906 L 165.941406 307.628906 L 158.109375 309.984375 L 146.824219 309.984375 L 169.3125 306.648438 L 197.753906 306.640625 L 183.570312 302.414062 L 183.414062 302.40625 L 183.257812 302.429688 L 169.234375 306.640625 L 169.3125 306.648438 Z M 146.824219 309.984375 "/>
<path style=" stroke:none;fill-rule:nonzero;fill:rgb(14.509804%,36.078431%,60%);fill-opacity:1;" d="M 146.824219 285.195312 L 146.914062 285.171875 L 146.914062 284.609375 L 147.183594 283.710938 L 147.808594 282.582031 L 148.433594 281.804688 L 150.042969 280.414062 L 152.28125 279.070312 L 154.605469 278.035156 L 156.304688 277.421875 L 157.824219 276.949219 L 161.3125 276.078125 L 163.550781 275.628906 L 165.964844 275.230469 L 168.914062 274.828125 L 171.0625 274.59375 L 175.890625 274.214844 L 179.46875 274.050781 L 182.242188 273.980469 L 188.234375 273.980469 L 191.8125 274.074219 L 194.40625 274.191406 L 197.265625 274.382812 L 199.679688 274.59375 L 203.882812 275.113281 L 207.640625 275.773438 L 209.339844 276.148438 L 212.023438 276.878906 L 214.078125 277.585938 L 215.511719 278.199219 L 217.121094 279.070312 L 218.550781 280.128906 L 219.625 281.332031 L 220.160156 282.34375 L 207.640625 282.34375 L 207.015625 281.402344 L 206.300781 280.671875 L 204.957031 279.707031 L 203.617188 279.023438 L 201.738281 278.339844 L 200.039062 277.890625 L 197.714844 277.445312 L 195.65625 277.160156 L 193.511719 276.949219 L 191.453125 276.808594 L 187.519531 276.667969 L 182.957031 276.667969 L 181.257812 276.714844 L 177.769531 276.902344 L 175.890625 277.066406 L 173.207031 277.398438 L 171.332031 277.703125 L 169.09375 278.175781 L 167.574219 278.574219 L 165.695312 279.1875 L 164.355469 279.730469 L 162.835938 280.507812 L 161.941406 281.097656 L 161.136719 281.757812 L 160.417969 282.535156 L 159.882812 283.359375 L 159.523438 284.230469 L 159.347656 285.078125 L 159.347656 288.730469 L 159.523438 289.578125 L 159.972656 290.570312 L 161.136719 292.007812 L 162.835938 293.253906 L 164.800781 294.246094 L 166.679688 294.953125 L 167.753906 295.28125 L 169.183594 295.65625 L 171.417969 296.128906 L 174.640625 296.601562 L 176.515625 296.789062 L 179.378906 296.976562 L 182.332031 297.070312 L 186.265625 297.070312 L 189.753906 296.976562 L 192.078125 296.859375 L 194.492188 296.671875 L 197.804688 296.269531 L 199.859375 295.894531 L 201.648438 295.445312 L 202.988281 295 L 203.882812 294.621094 L 205.226562 293.890625 L 206.300781 293.089844 L 207.105469 292.265625 L 207.640625 291.464844 L 220.160156 291.464844 L 219.625 292.40625 L 218.820312 293.324219 L 218.015625 294.007812 L 216.761719 294.832031 L 215.332031 295.5625 L 213.273438 296.386719 L 211.574219 296.929688 L 209.339844 297.519531 L 207.28125 297.96875 L 205.046875 298.367188 L 201.738281 298.839844 L 199.589844 299.074219 L 197.265625 299.285156 L 194.492188 299.476562 L 191.003906 299.640625 L 187.25 299.734375 L 183.761719 299.757812 L 180.003906 299.710938 L 177.234375 299.617188 L 173.566406 299.40625 L 169.003906 298.980469 L 165.695312 298.53125 L 163.101562 298.085938 L 160.867188 297.613281 L 158.363281 296.976562 L 155.144531 295.941406 L 153.175781 295.140625 L 151.832031 294.480469 L 150.3125 293.5625 L 149.238281 292.738281 L 147.988281 291.417969 L 147.09375 289.742188 L 146.824219 288.449219 Z M 146.824219 285.195312 "/>
<path style=" stroke:none;fill-rule:nonzero;fill:rgb(96.862745%,70.196078%,16.862745%);fill-opacity:1;" d="M 146.824219 312.035156 L 146.914062 312.035156 L 146.914062 311.996094 L 147.273438 311.914062 L 148.167969 311.800781 L 149.328125 311.707031 L 150.582031 311.632812 L 151.386719 311.59375 L 152.726562 311.535156 L 153.890625 311.496094 L 156.84375 311.414062 L 160.597656 311.335938 L 162.65625 311.300781 L 164.980469 311.269531 L 168.289062 311.234375 L 169.808594 311.222656 L 174.460938 311.191406 L 179.738281 311.175781 L 185.550781 311.167969 L 188.234375 311.171875 L 191.898438 311.175781 L 196.910156 311.199219 L 199.769531 311.214844 L 202.007812 311.234375 L 204.332031 311.257812 L 207.195312 311.296875 L 209.875 311.339844 L 212.023438 311.386719 L 214.167969 311.441406 L 215.957031 311.5 L 217.476562 311.566406 L 218.820312 311.640625 L 219.625 311.707031 L 220.160156 311.773438 L 207.730469 311.773438 L 207.015625 311.707031 L 206.210938 311.65625 L 204.867188 311.597656 L 203.527344 311.550781 L 202.183594 311.515625 L 199.679688 311.46875 L 197.535156 311.4375 L 194.851562 311.414062 L 192.257812 311.394531 L 189.304688 311.386719 L 187.519531 311.382812 L 182.777344 311.382812 L 178.484375 311.394531 L 175.980469 311.410156 L 174.191406 311.425781 L 171.6875 311.453125 L 170.167969 311.472656 L 169.273438 311.488281 L 166.589844 311.546875 L 164.800781 311.597656 L 163.816406 311.632812 L 162.566406 311.6875 L 161.671875 311.738281 L 160.6875 311.8125 L 160.152344 311.867188 L 159.433594 311.996094 L 159.347656 312.328125 L 159.613281 312.398438 L 160.152344 312.472656 L 160.867188 312.539062 L 161.941406 312.609375 L 163.011719 312.664062 L 164.890625 312.738281 L 166.5 312.785156 L 167.753906 312.816406 L 170.167969 312.867188 L 171.152344 312.882812 L 173.476562 312.917969 L 175.890625 312.941406 L 178.84375 312.964844 L 181.078125 312.976562 L 184.65625 312.984375 L 189.21875 312.984375 L 194.582031 312.972656 L 197.980469 312.957031 L 200.308594 312.945312 L 201.828125 312.929688 L 203.707031 312.910156 L 205.046875 312.890625 L 206.300781 312.871094 L 207.820312 312.839844 L 207.820312 312.398438 L 185.730469 312.394531 L 185.730469 312.1875 L 220.070312 312.1875 L 220.160156 312.910156 L 218.285156 312.960938 L 215.957031 313.007812 L 213.722656 313.046875 L 211.398438 313.078125 L 208.085938 313.113281 L 205.40625 313.132812 L 201.289062 313.160156 L 197.535156 313.175781 L 193.597656 313.1875 L 190.113281 313.195312 L 185.996094 313.195312 L 182.332031 313.191406 L 178.394531 313.179688 L 175.265625 313.167969 L 172.402344 313.148438 L 169.542969 313.125 L 165.964844 313.085938 L 163.640625 313.054688 L 161.222656 313.015625 L 158.808594 312.96875 L 156.664062 312.917969 L 155.230469 312.878906 L 153.800781 312.835938 L 152.28125 312.777344 L 150.851562 312.714844 L 149.777344 312.660156 L 148.792969 312.59375 L 148.078125 312.53125 L 147.363281 312.449219 L 147.003906 312.382812 L 146.824219 312.324219 Z M 146.824219 312.035156 "/>
<path style=" stroke:none;fill-rule:nonzero;fill:rgb(83.921569%,15.686275%,22.352941%);fill-opacity:1;" d="M 146.824219 222.765625 L 220.160156 222.765625 L 220.160156 228.121094 L 189.597656 228.167969 L 189.597656 272.804688 L 177.300781 272.804688 L 177.300781 228.214844 L 177.121094 228.121094 L 146.824219 228.121094 Z M 146.824219 222.765625 "/>
<path style=" stroke:none;fill-rule:nonzero;fill:rgb(6.27451%,58.823529%,28.235294%);fill-opacity:1;" d="M 224.019531 276.542969 L 224.097656 276.414062 L 255.832031 139.535156 L 265.46875 139.535156 L 297.355469 276.671875 L 286.152344 276.671875 L 278.160156 240.875 L 243.140625 240.875 L 235.304688 276.542969 L 224.019531 276.542969 L 246.507812 226.066406 L 274.949219 225.9375 L 260.769531 161.941406 L 260.609375 161.8125 L 260.453125 162.199219 L 246.429688 225.9375 L 246.507812 226.066406 Z M 224.019531 276.542969 "/>
<path style=" stroke:none;fill-rule:nonzero;fill:rgb(14.509804%,36.078431%,60%);fill-opacity:1;" d="M 224.019531 308.03125 L 224.109375 308.019531 L 224.109375 307.820312 L 224.378906 307.503906 L 225.003906 307.101562 L 225.632812 306.824219 L 227.242188 306.332031 L 229.476562 305.855469 L 231.800781 305.488281 L 233.5 305.269531 L 235.023438 305.105469 L 238.507812 304.792969 L 240.746094 304.636719 L 243.160156 304.492188 L 246.113281 304.351562 L 248.257812 304.269531 L 253.085938 304.132812 L 256.664062 304.074219 L 259.4375 304.050781 L 265.429688 304.050781 L 269.007812 304.082031 L 271.601562 304.125 L 274.460938 304.191406 L 276.875 304.269531 L 281.082031 304.453125 L 284.835938 304.6875 L 286.535156 304.820312 L 289.21875 305.078125 L 291.277344 305.328125 L 292.707031 305.546875 L 294.316406 305.855469 L 295.746094 306.230469 L 296.820312 306.660156 L 297.355469 307.019531 L 284.835938 307.019531 L 284.210938 306.683594 L 283.496094 306.425781 L 282.152344 306.082031 L 280.8125 305.839844 L 278.933594 305.597656 L 277.234375 305.4375 L 274.910156 305.28125 L 272.851562 305.179688 L 270.707031 305.105469 L 268.648438 305.054688 L 264.714844 305.003906 L 260.152344 305.003906 L 258.453125 305.019531 L 254.964844 305.085938 L 253.085938 305.144531 L 250.40625 305.261719 L 248.527344 305.371094 L 246.289062 305.539062 L 244.769531 305.679688 L 242.890625 305.898438 L 241.550781 306.089844 L 240.03125 306.367188 L 239.136719 306.574219 L 238.332031 306.808594 L 237.613281 307.085938 L 237.078125 307.378906 L 236.722656 307.6875 L 236.542969 307.988281 L 236.542969 309.285156 L 236.722656 309.585938 L 237.167969 309.9375 L 238.332031 310.445312 L 240.03125 310.886719 L 241.996094 311.238281 L 243.875 311.492188 L 244.949219 311.609375 L 246.378906 311.742188 L 248.617188 311.910156 L 251.835938 312.074219 L 253.714844 312.140625 L 256.574219 312.210938 L 259.527344 312.242188 L 263.460938 312.242188 L 266.949219 312.210938 L 269.273438 312.167969 L 271.691406 312.101562 L 275 311.957031 L 277.054688 311.824219 L 278.84375 311.667969 L 280.1875 311.507812 L 281.082031 311.375 L 282.421875 311.113281 L 283.496094 310.828125 L 284.300781 310.539062 L 284.835938 310.253906 L 297.355469 310.253906 L 296.820312 310.585938 L 296.015625 310.914062 L 295.210938 311.15625 L 293.957031 311.449219 L 292.527344 311.707031 L 290.472656 312 L 288.773438 312.191406 L 286.535156 312.402344 L 284.480469 312.558594 L 282.242188 312.703125 L 278.933594 312.871094 L 276.789062 312.953125 L 274.460938 313.027344 L 271.691406 313.09375 L 268.203125 313.152344 L 264.445312 313.1875 L 260.957031 313.195312 L 257.203125 313.179688 L 254.429688 313.144531 L 250.761719 313.070312 L 246.199219 312.921875 L 242.890625 312.761719 L 240.296875 312.601562 L 238.0625 312.433594 L 235.558594 312.210938 L 232.339844 311.839844 L 230.371094 311.558594 L 229.03125 311.324219 L 227.507812 310.996094 L 226.4375 310.703125 L 225.183594 310.238281 L 224.289062 309.644531 L 224.019531 309.183594 Z M 224.019531 308.03125 "/>
<path style=" stroke:none;fill-rule:nonzero;fill:rgb(96.862745%,70.196078%,16.862745%);fill-opacity:1;" d="M 224.019531 297.203125 L 224.109375 297.195312 L 224.109375 297.011719 L 224.46875 296.605469 L 225.363281 296.042969 L 226.523438 295.582031 L 227.777344 295.21875 L 228.582031 295.03125 L 229.925781 294.757812 L 231.085938 294.558594 L 234.039062 294.152344 L 237.792969 293.769531 L 239.851562 293.605469 L 242.175781 293.453125 L 245.484375 293.28125 L 247.003906 293.21875 L 251.65625 293.074219 L 256.933594 292.980469 L 262.746094 292.953125 L 265.429688 292.964844 L 269.097656 293 L 274.105469 293.097656 L 276.964844 293.191406 L 279.203125 293.28125 L 281.527344 293.398438 L 284.390625 293.578125 L 287.074219 293.796875 L 289.21875 294.015625 L 291.367188 294.285156 L 293.152344 294.578125 L 294.675781 294.894531 L 296.015625 295.273438 L 296.820312 295.589844 L 297.355469 295.910156 L 284.925781 295.910156 L 284.210938 295.589844 L 283.40625 295.347656 L 282.0625 295.046875 L 280.722656 294.832031 L 279.382812 294.65625 L 276.875 294.421875 L 274.730469 294.277344 L 272.046875 294.152344 L 269.453125 294.070312 L 266.503906 294.015625 L 264.714844 293.996094 L 259.972656 293.996094 L 255.679688 294.058594 L 253.175781 294.132812 L 251.386719 294.203125 L 248.882812 294.339844 L 247.363281 294.449219 L 246.46875 294.523438 L 243.785156 294.804688 L 241.996094 295.054688 L 241.015625 295.230469 L 239.761719 295.5 L 238.867188 295.746094 L 237.882812 296.109375 L 237.347656 296.378906 L 236.632812 296.996094 L 236.542969 298.625 L 236.808594 298.96875 L 237.347656 299.34375 L 238.0625 299.667969 L 239.136719 300.011719 L 240.207031 300.273438 L 242.085938 300.628906 L 243.695312 300.863281 L 244.949219 301.019531 L 247.363281 301.261719 L 248.347656 301.34375 L 250.671875 301.507812 L 253.085938 301.632812 L 256.039062 301.742188 L 258.273438 301.796875 L 261.851562 301.84375 L 266.414062 301.84375 L 271.777344 301.789062 L 275.175781 301.714844 L 277.503906 301.644531 L 279.023438 301.578125 L 280.902344 301.480469 L 282.242188 301.390625 L 283.496094 301.289062 L 285.015625 301.136719 L 285.015625 298.96875 L 262.925781 298.960938 L 262.925781 297.945312 L 297.269531 297.9375 L 297.355469 301.480469 L 295.480469 301.726562 L 293.152344 301.960938 L 290.917969 302.140625 L 288.59375 302.296875 L 285.285156 302.46875 L 282.601562 302.578125 L 278.488281 302.703125 L 274.730469 302.785156 L 270.796875 302.839844 L 267.308594 302.867188 L 263.195312 302.875 L 259.527344 302.859375 L 255.589844 302.804688 L 252.460938 302.730469 L 249.597656 302.640625 L 246.738281 302.523438 L 243.160156 302.332031 L 240.835938 302.179688 L 238.421875 301.988281 L 236.003906 301.761719 L 233.859375 301.515625 L 232.429688 301.328125 L 230.996094 301.109375 L 229.476562 300.835938 L 228.046875 300.527344 L 226.972656 300.25 L 225.988281 299.929688 L 225.273438 299.632812 L 224.558594 299.222656 L 224.199219 298.898438 L 224.019531 298.617188 Z M 224.019531 297.203125 "/>
<path style=" stroke:none;fill-rule:nonzero;fill:rgb(83.921569%,15.686275%,22.352941%);fill-opacity:1;" d="M 224.019531 277.84375 L 297.355469 277.84375 L 297.355469 279.335938 L 266.792969 279.351562 L 266.792969 291.78125 L 254.496094 291.78125 L 254.496094 279.363281 L 254.316406 279.335938 L 224.019531 279.335938 Z M 224.019531 277.84375 "/>
<path style=" stroke:none;fill-rule:nonzero;fill:rgb(6.27451%,58.823529%,28.235294%);fill-opacity:1;" d="M 301.21875 293.855469 L 301.296875 293.597656 L 333.027344 20.664062 L 342.664062 20.664062 L 374.554688 294.109375 L 363.347656 294.109375 L 355.355469 222.730469 L 320.335938 222.730469 L 312.5 293.855469 L 301.21875 293.855469 L 323.703125 193.203125 L 352.144531 192.949219 L 337.964844 65.339844 L 337.808594 65.082031 L 337.648438 65.851562 L 323.625 192.949219 L 323.703125 193.203125 Z M 301.21875 293.855469 "/>
<path style=" stroke:none;fill-rule:nonzero;fill:rgb(14.509804%,36.078431%,60%);fill-opacity:1;" d="M 301.21875 308.710938 L 301.304688 308.707031 L 301.304688 308.644531 L 301.574219 308.546875 L 302.199219 308.421875 L 302.828125 308.335938 L 304.4375 308.183594 L 306.671875 308.035156 L 308.996094 307.921875 L 310.695312 307.851562 L 312.21875 307.800781 L 315.707031 307.703125 L 317.941406 307.65625 L 320.355469 307.609375 L 323.308594 307.566406 L 325.453125 307.539062 L 330.285156 307.5 L 333.859375 307.480469 L 336.632812 307.472656 L 342.625 307.472656 L 346.203125 307.484375 L 348.796875 307.496094 L 351.65625 307.515625 L 354.074219 307.539062 L 358.277344 307.597656 L 362.03125 307.671875 L 363.730469 307.710938 L 366.414062 307.792969 L 368.472656 307.871094 L 369.902344 307.9375 L 371.511719 308.035156 L 372.945312 308.152344 L 374.015625 308.285156 L 374.554688 308.394531 L 362.03125 308.394531 L 361.40625 308.292969 L 360.691406 308.210938 L 359.347656 308.105469 L 358.007812 308.03125 L 356.128906 307.953125 L 354.429688 307.90625 L 352.105469 307.855469 L 350.046875 307.824219 L 347.902344 307.800781 L 345.84375 307.785156 L 341.910156 307.769531 L 337.347656 307.769531 L 335.648438 307.773438 L 332.160156 307.796875 L 330.285156 307.8125 L 327.601562 307.851562 L 325.722656 307.882812 L 323.484375 307.9375 L 321.964844 307.980469 L 320.085938 308.046875 L 318.746094 308.105469 L 317.226562 308.191406 L 316.332031 308.257812 L 315.527344 308.332031 L 314.8125 308.417969 L 314.273438 308.507812 L 313.917969 308.605469 L 313.738281 308.699219 L 313.738281 309.101562 L 313.917969 309.195312 L 314.363281 309.304688 L 315.527344 309.460938 L 317.226562 309.597656 L 319.195312 309.707031 L 321.070312 309.785156 L 322.144531 309.824219 L 323.574219 309.863281 L 325.8125 309.917969 L 329.03125 309.96875 L 330.910156 309.988281 L 333.769531 310.007812 L 336.722656 310.019531 L 340.65625 310.019531 L 344.144531 310.007812 L 346.472656 309.996094 L 348.886719 309.976562 L 352.195312 309.933594 L 354.25 309.890625 L 356.039062 309.839844 L 357.382812 309.792969 L 358.277344 309.75 L 359.617188 309.667969 L 360.691406 309.582031 L 361.496094 309.488281 L 362.03125 309.402344 L 374.554688 309.402344 L 374.015625 309.503906 L 373.210938 309.605469 L 372.40625 309.683594 L 371.15625 309.773438 L 369.722656 309.855469 L 367.667969 309.945312 L 365.96875 310.003906 L 363.730469 310.070312 L 361.675781 310.117188 L 359.4375 310.164062 L 356.128906 310.214844 L 353.984375 310.242188 L 351.65625 310.265625 L 348.886719 310.285156 L 345.398438 310.304688 L 341.640625 310.3125 L 338.152344 310.316406 L 334.398438 310.3125 L 331.625 310.300781 L 327.957031 310.277344 L 323.398438 310.230469 L 320.085938 310.179688 L 317.496094 310.132812 L 315.257812 310.078125 L 312.753906 310.007812 L 309.535156 309.894531 L 307.566406 309.808594 L 306.226562 309.734375 L 304.707031 309.632812 L 303.632812 309.542969 L 302.378906 309.394531 L 301.484375 309.210938 L 301.21875 309.070312 Z M 301.21875 308.710938 "/>
<path style=" stroke:none;fill-rule:nonzero;fill:rgb(96.862745%,70.196078%,16.862745%);fill-opacity:1;" d="M 301.21875 312.222656 L 301.304688 312.21875 L 301.304688 312.1875 L 301.664062 312.117188 L 302.558594 312.023438 L 303.722656 311.941406 L 304.972656 311.878906 L 305.777344 311.847656 L 307.121094 311.800781 L 308.28125 311.765625 L 311.234375 311.695312 L 314.988281 311.632812 L 317.046875 311.601562 L 319.371094 311.578125 L 322.679688 311.546875 L 324.203125 311.535156 L 328.851562 311.511719 L 334.128906 311.496094 L 339.941406 311.492188 L 342.625 311.492188 L 346.292969 311.5 L 351.300781 311.515625 L 354.164062 311.53125 L 356.398438 311.546875 L 358.722656 311.566406 L 361.585938 311.597656 L 364.269531 311.636719 L 366.414062 311.671875 L 368.5625 311.71875 L 370.351562 311.769531 L 371.871094 311.824219 L 373.210938 311.890625 L 374.015625 311.945312 L 374.554688 312 L 362.121094 312 L 361.40625 311.945312 L 360.601562 311.902344 L 359.261719 311.851562 L 357.917969 311.8125 L 356.578125 311.785156 L 354.074219 311.742188 L 351.925781 311.71875 L 349.242188 311.695312 L 346.648438 311.683594 L 343.699219 311.671875 L 337.167969 311.671875 L 332.875 311.679688 L 330.371094 311.695312 L 328.585938 311.707031 L 326.078125 311.730469 L 324.558594 311.746094 L 320.980469 311.808594 L 319.195312 311.851562 L 318.210938 311.882812 L 316.957031 311.929688 L 316.0625 311.96875 L 315.078125 312.03125 L 314.542969 312.078125 L 313.828125 312.183594 L 313.738281 312.464844 L 314.007812 312.523438 L 314.542969 312.589844 L 315.257812 312.644531 L 316.332031 312.703125 L 317.40625 312.75 L 319.28125 312.808594 L 320.894531 312.851562 L 322.144531 312.875 L 324.558594 312.917969 L 325.542969 312.933594 L 327.867188 312.960938 L 330.285156 312.984375 L 333.234375 313 L 335.46875 313.011719 L 339.046875 313.019531 L 343.609375 313.019531 L 348.976562 313.007812 L 352.375 312.996094 L 354.699219 312.984375 L 356.21875 312.972656 L 358.097656 312.957031 L 359.4375 312.941406 L 360.691406 312.921875 L 362.210938 312.898438 L 362.210938 312.523438 L 340.121094 312.523438 L 340.121094 312.347656 L 374.464844 312.347656 L 374.554688 312.957031 L 372.675781 313 L 370.351562 313.039062 L 368.113281 313.070312 L 365.789062 313.097656 L 362.480469 313.125 L 359.796875 313.144531 L 355.683594 313.167969 L 351.925781 313.179688 L 347.992188 313.191406 L 344.503906 313.195312 L 340.390625 313.195312 L 336.722656 313.191406 L 332.789062 313.183594 L 329.65625 313.171875 L 326.796875 313.15625 L 323.933594 313.136719 L 320.355469 313.101562 L 318.03125 313.074219 L 315.617188 313.042969 L 313.203125 313.003906 L 311.054688 312.960938 L 309.625 312.929688 L 308.191406 312.890625 L 306.671875 312.84375 L 305.242188 312.792969 L 304.167969 312.746094 L 303.183594 312.691406 L 302.46875 312.636719 L 301.753906 312.570312 L 301.394531 312.511719 L 301.21875 312.464844 Z M 301.21875 312.222656 "/>
<path style=" stroke:none;fill-rule:nonzero;fill:rgb(83.921569%,15.686275%,22.352941%);fill-opacity:1;" d="M 301.21875 295.285156 L 374.554688 295.285156 L 374.554688 296.464844 L 343.988281 296.476562 L 343.988281 306.296875 L 331.691406 306.296875 L 331.691406 296.484375 L 331.515625 296.464844 L 301.21875 296.464844 Z M 301.21875 295.285156 "/>
<path style=" stroke:none;fill-rule:nonzero;fill:rgb(6.27451%,58.823529%,28.235294%);fill-opacity:1;" d="M 378.414062 309.59375 L 378.492188 309.574219 L 410.222656 290.6875 L 419.859375 290.6875 L 451.75 309.613281 L 440.546875 309.613281 L 432.554688 304.671875 L 397.53125 304.671875 L 389.695312 309.59375 L 378.414062 309.59375 L 400.898438 302.628906 L 429.339844 302.609375 L 415.160156 293.78125 L 415.003906 293.761719 L 414.847656 293.816406 L 400.820312 302.609375 L 400.898438 302.628906 Z M 378.414062 309.59375 "/>
<path style=" stroke:none;fill-rule:nonzero;fill:rgb(96.862745%,70.196078%,16.862745%);fill-opacity:1;" d="M 378.414062 311.515625 L 378.503906 311.515625 L 378.503906 311.484375 L 378.859375 311.414062 L 379.753906 311.316406 L 380.917969 311.238281 L 382.167969 311.175781 L 382.972656 311.144531 L 384.316406 311.097656 L 385.476562 311.0625 L 388.429688 310.992188 L 392.1875 310.925781 L 394.242188 310.898438 L 396.566406 310.871094 L 399.878906 310.84375 L 401.398438 310.832031 L 406.046875 310.804688 L 411.324219 310.789062 L 417.136719 310.785156 L 419.820312 310.789062 L 423.488281 310.792969 L 428.496094 310.8125 L 431.359375 310.828125 L 433.59375 310.84375 L 435.917969 310.863281 L 438.78125 310.894531 L 441.464844 310.929688 L 443.609375 310.96875 L 445.757812 311.015625 L 447.546875 311.066406 L 449.066406 311.121094 L 450.40625 311.183594 L 451.210938 311.238281 L 451.75 311.292969 L 439.316406 311.292969 L 438.601562 311.238281 L 437.796875 311.199219 L 436.457031 311.144531 L 435.113281 311.109375 L 433.773438 311.078125 L 431.269531 311.039062 L 429.121094 311.015625 L 426.4375 310.992188 L 423.847656 310.976562 L 420.894531 310.96875 L 419.105469 310.964844 L 414.367188 310.964844 L 410.074219 310.976562 L 407.570312 310.988281 L 405.78125 311 L 403.277344 311.023438 L 401.753906 311.042969 L 400.859375 311.054688 L 398.179688 311.105469 L 396.390625 311.148438 L 395.40625 311.175781 L 394.152344 311.222656 L 393.257812 311.265625 L 392.277344 311.328125 L 391.738281 311.375 L 391.023438 311.480469 L 390.933594 311.761719 L 391.203125 311.820312 L 391.738281 311.882812 L 392.453125 311.941406 L 393.527344 312 L 394.601562 312.042969 L 396.480469 312.105469 L 398.089844 312.144531 L 399.339844 312.171875 L 401.753906 312.214844 L 402.738281 312.230469 L 405.066406 312.257812 L 407.480469 312.277344 L 410.429688 312.296875 L 412.667969 312.304688 L 416.242188 312.3125 L 420.804688 312.3125 L 426.171875 312.304688 L 429.570312 312.292969 L 431.894531 312.28125 L 433.414062 312.269531 L 435.292969 312.25 L 436.636719 312.238281 L 437.886719 312.21875 L 439.40625 312.191406 L 439.40625 311.820312 L 417.316406 311.820312 L 417.316406 311.644531 L 451.660156 311.644531 L 451.75 312.25 L 449.871094 312.292969 L 447.546875 312.335938 L 445.308594 312.367188 L 442.984375 312.390625 L 439.675781 312.421875 L 436.992188 312.441406 L 432.878906 312.460938 L 429.121094 312.476562 L 425.1875 312.484375 L 421.699219 312.488281 L 417.585938 312.492188 L 413.917969 312.488281 L 409.984375 312.480469 L 406.851562 312.46875 L 403.992188 312.453125 L 401.128906 312.429688 L 397.550781 312.398438 L 395.226562 312.371094 L 392.8125 312.339844 L 390.398438 312.300781 L 388.25 312.257812 L 386.820312 312.226562 L 385.390625 312.1875 L 383.867188 312.140625 L 382.4375 312.089844 L 381.363281 312.039062 L 380.378906 311.984375 L 379.664062 311.933594 L 378.949219 311.863281 L 378.59375 311.808594 L 378.414062 311.757812 Z M 378.414062 311.515625 "/>
<path style=" stroke:none;fill-rule:nonzero;fill:rgb(83.921569%,15.686275%,22.352941%);fill-opacity:1;" d="M 378.414062 28.199219 L 451.75 28.199219 L 451.75 56.171875 L 421.183594 56.417969 L 421.183594 289.515625 L 408.886719 289.515625 L 408.886719 56.664062 L 408.710938 56.171875 L 378.414062 56.171875 Z M 378.414062 28.199219 "/>
<path style=" stroke:none;fill-rule:nonzero;fill:rgb(6.27451%,58.823529%,28.235294%);fill-opacity:1;" d="M 455.609375 298.25 L 455.6875 298.226562 L 487.417969 275.097656 L 497.054688 275.097656 L 528.945312 298.269531 L 517.742188 298.269531 L 509.75 292.222656 L 474.726562 292.222656 L 466.890625 298.25 L 455.609375 298.25 L 478.09375 289.71875 L 506.535156 289.699219 L 492.355469 278.886719 L 492.199219 278.863281 L 492.042969 278.929688 L 478.015625 289.699219 L 478.09375 289.71875 Z M 455.609375 298.25 "/>
<path style=" stroke:none;fill-rule:nonzero;fill:rgb(14.509804%,36.078431%,60%);fill-opacity:1;" d="M 455.609375 309.679688 L 455.699219 309.671875 L 455.699219 309.539062 L 455.964844 309.320312 L 456.59375 309.046875 L 457.21875 308.859375 L 458.828125 308.523438 L 461.066406 308.199219 L 463.390625 307.949219 L 465.089844 307.800781 L 466.609375 307.6875 L 470.097656 307.476562 L 472.332031 307.371094 L 474.746094 307.273438 L 477.699219 307.175781 L 479.847656 307.117188 L 484.675781 307.027344 L 488.253906 306.988281 L 491.023438 306.972656 L 497.015625 306.972656 L 500.59375 306.992188 L 503.1875 307.023438 L 506.050781 307.066406 L 508.464844 307.117188 L 512.667969 307.246094 L 516.425781 307.402344 L 518.125 307.496094 L 520.804688 307.671875 L 522.863281 307.839844 L 524.292969 307.988281 L 525.90625 308.199219 L 527.335938 308.457031 L 528.410156 308.746094 L 528.945312 308.992188 L 516.425781 308.992188 L 515.796875 308.761719 L 515.082031 308.585938 L 513.742188 308.355469 L 512.398438 308.1875 L 510.523438 308.023438 L 508.824219 307.914062 L 506.496094 307.808594 L 504.441406 307.738281 L 502.292969 307.6875 L 500.238281 307.652344 L 496.300781 307.621094 L 491.742188 307.621094 L 490.042969 307.632812 L 486.554688 307.675781 L 484.675781 307.714844 L 481.992188 307.796875 L 480.113281 307.871094 L 477.878906 307.984375 L 476.359375 308.082031 L 474.480469 308.230469 L 473.136719 308.359375 L 471.617188 308.546875 L 470.722656 308.691406 L 469.917969 308.847656 L 469.203125 309.035156 L 468.667969 309.234375 L 468.308594 309.445312 L 468.128906 309.652344 L 468.128906 310.53125 L 468.308594 310.738281 L 468.757812 310.976562 L 469.917969 311.324219 L 471.617188 311.625 L 473.585938 311.863281 L 475.464844 312.035156 L 476.535156 312.113281 L 477.96875 312.207031 L 480.203125 312.320312 L 483.421875 312.433594 L 485.300781 312.480469 L 488.164062 312.523438 L 491.113281 312.546875 L 495.050781 312.546875 L 498.539062 312.523438 L 500.863281 312.496094 L 503.277344 312.449219 L 506.585938 312.355469 L 508.644531 312.261719 L 510.433594 312.15625 L 511.773438 312.046875 L 512.667969 311.957031 L 514.007812 311.777344 L 515.082031 311.585938 L 515.886719 311.386719 L 516.425781 311.191406 L 528.945312 311.191406 L 528.410156 311.421875 L 527.605469 311.640625 L 526.796875 311.808594 L 525.546875 312.007812 L 524.117188 312.183594 L 522.058594 312.382812 L 520.359375 312.511719 L 518.125 312.65625 L 516.066406 312.761719 L 513.832031 312.859375 L 510.523438 312.972656 L 508.375 313.03125 L 506.050781 313.082031 L 503.277344 313.128906 L 499.789062 313.167969 L 496.035156 313.191406 L 492.546875 313.195312 L 488.789062 313.183594 L 486.015625 313.160156 L 482.351562 313.109375 L 477.789062 313.007812 L 474.480469 312.898438 L 471.886719 312.792969 L 469.648438 312.679688 L 467.144531 312.523438 L 463.925781 312.273438 L 461.957031 312.082031 L 460.617188 311.921875 L 459.097656 311.699219 L 458.023438 311.5 L 456.773438 311.179688 L 455.878906 310.777344 L 455.609375 310.464844 Z M 455.609375 309.679688 "/>
<path style=" stroke:none;fill-rule:nonzero;fill:rgb(96.862745%,70.196078%,16.862745%);fill-opacity:1;" d="M 455.609375 302.164062 L 455.699219 302.160156 L 455.699219 302.042969 L 456.054688 301.78125 L 456.949219 301.421875 L 458.113281 301.128906 L 459.367188 300.894531 L 460.171875 300.773438 L 461.511719 300.597656 L 462.675781 300.472656 L 465.625 300.210938 L 469.382812 299.96875 L 471.4375 299.863281 L 473.765625 299.765625 L 477.074219 299.652344 L 478.59375 299.613281 L 483.246094 299.519531 L 488.519531 299.460938 L 494.335938 299.445312 L 497.015625 299.449219 L 500.683594 299.472656 L 505.691406 299.539062 L 508.554688 299.597656 L 510.789062 299.652344 L 513.117188 299.730469 L 515.976562 299.84375 L 518.660156 299.984375 L 520.804688 300.125 L 522.953125 300.296875 L 524.742188 300.484375 L 526.261719 300.6875 L 527.605469 300.929688 L 528.410156 301.132812 L 528.945312 301.335938 L 516.515625 301.335938 L 515.796875 301.132812 L 514.992188 300.976562 L 513.652344 300.785156 L 512.308594 300.644531 L 510.96875 300.535156 L 508.464844 300.386719 L 506.316406 300.292969 L 503.636719 300.210938 L 501.042969 300.160156 L 498.089844 300.125 L 496.300781 300.113281 L 491.5625 300.113281 L 487.269531 300.152344 L 484.765625 300.199219 L 482.976562 300.246094 L 480.472656 300.332031 L 478.953125 300.402344 L 478.058594 300.449219 L 475.375 300.628906 L 473.585938 300.789062 L 472.601562 300.902344 L 471.347656 301.074219 L 470.457031 301.230469 L 469.472656 301.464844 L 468.933594 301.636719 L 468.21875 302.03125 L 468.128906 303.074219 L 468.398438 303.296875 L 468.933594 303.535156 L 469.648438 303.742188 L 470.722656 303.964844 L 471.796875 304.132812 L 473.675781 304.359375 L 475.285156 304.507812 L 476.535156 304.605469 L 478.953125 304.765625 L 479.933594 304.816406 L 482.261719 304.921875 L 484.675781 305 L 487.625 305.070312 L 489.863281 305.105469 L 493.441406 305.136719 L 498 305.136719 L 503.367188 305.101562 L 506.765625 305.054688 L 509.089844 305.007812 L 510.609375 304.96875 L 512.488281 304.902344 L 513.832031 304.84375 L 515.082031 304.78125 L 516.601562 304.683594 L 516.601562 303.296875 L 494.511719 303.289062 L 494.511719 302.640625 L 528.855469 302.636719 L 528.945312 304.902344 L 527.066406 305.058594 L 524.742188 305.210938 L 522.507812 305.328125 L 520.179688 305.425781 L 516.871094 305.535156 L 514.1875 305.605469 L 510.074219 305.6875 L 506.316406 305.738281 L 502.382812 305.773438 L 498.894531 305.789062 L 494.78125 305.796875 L 491.113281 305.785156 L 487.179688 305.75 L 484.050781 305.703125 L 481.1875 305.644531 L 478.324219 305.570312 L 474.746094 305.449219 L 472.421875 305.351562 L 470.007812 305.226562 L 467.59375 305.082031 L 465.445312 304.925781 L 464.015625 304.804688 L 462.585938 304.664062 L 461.066406 304.492188 L 459.632812 304.292969 L 458.558594 304.113281 L 457.578125 303.910156 L 456.859375 303.71875 L 456.144531 303.457031 L 455.789062 303.25 L 455.609375 303.070312 Z M 455.609375 302.164062 "/>
<path style=" stroke:none;fill-rule:nonzero;fill:rgb(83.921569%,15.686275%,22.352941%);fill-opacity:1;" d="M 455.609375 201.085938 L 528.945312 201.085938 L 528.945312 208.882812 L 498.382812 208.953125 L 498.382812 273.925781 L 486.085938 273.925781 L 486.085938 209.019531 L 485.90625 208.882812 L 455.609375 208.882812 Z M 455.609375 201.085938 "/>
<path style=" stroke:none;fill-rule:nonzero;fill:rgb(6.27451%,58.823529%,28.235294%);fill-opacity:1;" d="M 532.804688 280.792969 L 532.882812 280.585938 L 564.617188 63.183594 L 574.253906 63.183594 L 606.140625 280.996094 L 594.9375 280.996094 L 586.945312 224.140625 L 551.921875 224.140625 L 544.085938 280.792969 L 532.804688 280.792969 L 555.292969 200.621094 L 583.734375 200.414062 L 569.550781 98.769531 L 569.394531 98.5625 L 569.238281 99.175781 L 555.214844 200.414062 L 555.292969 200.621094 Z M 532.804688 280.792969 "/>
<path style=" stroke:none;fill-rule:nonzero;fill:rgb(14.509804%,36.078431%,60%);fill-opacity:1;" d="M 532.804688 309.957031 L 532.894531 309.953125 L 532.894531 309.867188 L 533.164062 309.734375 L 533.789062 309.566406 L 534.414062 309.449219 L 536.023438 309.242188 L 538.261719 309.042969 L 540.585938 308.886719 L 542.285156 308.796875 L 543.804688 308.726562 L 547.292969 308.597656 L 549.527344 308.527344 L 551.945312 308.46875 L 554.894531 308.410156 L 557.042969 308.375 L 561.871094 308.316406 L 565.449219 308.292969 L 568.222656 308.28125 L 574.214844 308.28125 L 577.789062 308.296875 L 580.382812 308.316406 L 583.246094 308.34375 L 585.660156 308.375 L 589.863281 308.453125 L 593.621094 308.550781 L 595.320312 308.605469 L 598.003906 308.714844 L 600.058594 308.820312 L 601.492188 308.914062 L 603.101562 309.042969 L 604.53125 309.199219 L 605.605469 309.378906 L 606.140625 309.53125 L 593.621094 309.53125 L 592.996094 309.390625 L 592.277344 309.28125 L 590.9375 309.136719 L 589.597656 309.035156 L 587.71875 308.933594 L 586.019531 308.867188 L 583.691406 308.800781 L 581.636719 308.757812 L 579.488281 308.726562 L 577.433594 308.703125 L 573.496094 308.683594 L 568.9375 308.683594 L 567.238281 308.691406 L 563.75 308.71875 L 561.871094 308.742188 L 559.1875 308.792969 L 557.308594 308.839844 L 555.074219 308.910156 L 553.554688 308.96875 L 551.675781 309.058594 L 550.335938 309.140625 L 548.8125 309.257812 L 547.917969 309.34375 L 547.113281 309.441406 L 546.398438 309.558594 L 545.863281 309.683594 L 545.503906 309.8125 L 545.324219 309.9375 L 545.324219 310.484375 L 545.503906 310.609375 L 545.953125 310.757812 L 547.113281 310.972656 L 548.8125 311.15625 L 550.78125 311.304688 L 552.660156 311.410156 L 553.734375 311.460938 L 555.164062 311.515625 L 557.398438 311.585938 L 560.617188 311.65625 L 562.496094 311.683594 L 565.359375 311.714844 L 568.308594 311.726562 L 572.246094 311.726562 L 575.734375 311.714844 L 578.058594 311.695312 L 580.472656 311.667969 L 583.78125 311.609375 L 585.839844 311.550781 L 587.628906 311.484375 L 588.96875 311.417969 L 589.863281 311.363281 L 591.207031 311.253906 L 592.277344 311.132812 L 593.082031 311.011719 L 593.621094 310.890625 L 606.140625 310.890625 L 605.605469 311.03125 L 604.800781 311.167969 L 603.996094 311.269531 L 602.742188 311.394531 L 601.3125 311.503906 L 599.253906 311.625 L 597.554688 311.707031 L 595.320312 311.792969 L 593.261719 311.859375 L 591.027344 311.921875 L 587.71875 311.992188 L 585.570312 312.027344 L 583.246094 312.058594 L 580.472656 312.085938 L 576.984375 312.109375 L 573.230469 312.125 L 569.742188 312.128906 L 565.984375 312.121094 L 563.210938 312.105469 L 559.546875 312.074219 L 554.984375 312.011719 L 551.675781 311.945312 L 549.082031 311.878906 L 546.847656 311.808594 L 544.34375 311.714844 L 541.121094 311.558594 L 539.15625 311.4375 L 537.8125 311.339844 L 536.292969 311.203125 L 535.21875 311.082031 L 533.96875 310.882812 L 533.074219 310.632812 L 532.804688 310.441406 Z M 532.804688 309.957031 "/>
<path style=" stroke:none;fill-rule:nonzero;fill:rgb(83.921569%,15.686275%,22.352941%);fill-opacity:1;" d="M 532.804688 282.171875 L 606.140625 282.171875 L 606.140625 284.839844 L 575.578125 284.863281 L 575.578125 307.109375 L 563.28125 307.109375 L 563.28125 284.886719 L 563.101562 284.839844 L 532.804688 284.839844 Z M 532.804688 282.171875 "/>
<path style=" stroke:none;fill-rule:nonzero;fill:rgb(6.27451%,58.823529%,28.235294%);fill-opacity:1;" d="M 610 291.335938 L 610.078125 291.316406 L 641.8125 269.507812 L 651.449219 269.507812 L 683.335938 291.355469 L 672.132812 291.355469 L 664.140625 285.652344 L 629.117188 285.652344 L 621.285156 291.335938 L 610 291.335938 L 632.488281 283.292969 L 660.929688 283.273438 L 646.746094 273.078125 L 646.589844 273.058594 L 646.433594 273.117188 L 632.410156 283.273438 L 632.488281 283.292969 Z M 610 291.335938 "/>
<path style=" stroke:none;fill-rule:nonzero;fill:rgb(14.509804%,36.078431%,60%);fill-opacity:1;" d="M 610 304.023438 L 610.089844 304.015625 L 610.089844 303.882812 L 610.359375 303.671875 L 610.984375 303.40625 L 611.609375 303.222656 L 613.21875 302.898438 L 615.457031 302.582031 L 617.78125 302.335938 L 619.480469 302.191406 L 621 302.082031 L 624.488281 301.875 L 626.726562 301.769531 L 629.140625 301.675781 L 632.089844 301.582031 L 634.238281 301.527344 L 639.066406 301.4375 L 642.644531 301.398438 L 645.417969 301.382812 L 651.410156 301.382812 L 654.988281 301.40625 L 657.578125 301.433594 L 660.441406 301.476562 L 662.855469 301.527344 L 667.058594 301.648438 L 670.816406 301.804688 L 672.515625 301.894531 L 675.199219 302.066406 L 677.253906 302.230469 L 678.6875 302.375 L 680.296875 302.582031 L 681.726562 302.832031 L 682.800781 303.113281 L 683.335938 303.351562 L 670.816406 303.351562 L 670.191406 303.128906 L 669.476562 302.957031 L 668.132812 302.730469 L 666.792969 302.570312 L 664.914062 302.410156 L 663.214844 302.304688 L 660.890625 302.199219 L 658.832031 302.132812 L 656.6875 302.082031 L 654.628906 302.046875 L 650.695312 302.015625 L 646.132812 302.015625 L 644.433594 302.027344 L 640.945312 302.070312 L 639.066406 302.109375 L 636.382812 302.1875 L 634.507812 302.257812 L 632.269531 302.371094 L 630.75 302.464844 L 628.871094 302.609375 L 627.53125 302.734375 L 626.007812 302.917969 L 625.117188 303.058594 L 624.308594 303.214844 L 623.59375 303.394531 L 623.058594 303.589844 L 622.699219 303.796875 L 622.523438 303.996094 L 622.523438 304.855469 L 622.699219 305.054688 L 623.148438 305.289062 L 624.308594 305.625 L 626.007812 305.921875 L 627.976562 306.152344 L 629.855469 306.320312 L 630.929688 306.398438 L 632.359375 306.484375 L 634.59375 306.597656 L 637.816406 306.707031 L 639.691406 306.753906 L 642.554688 306.796875 L 645.507812 306.820312 L 649.441406 306.820312 L 652.929688 306.796875 L 655.253906 306.769531 L 657.667969 306.722656 L 660.976562 306.628906 L 663.035156 306.542969 L 664.824219 306.4375 L 666.164062 306.332031 L 667.058594 306.242188 L 668.402344 306.070312 L 669.476562 305.882812 L 670.28125 305.6875 L 670.816406 305.5 L 683.335938 305.5 L 682.800781 305.71875 L 681.996094 305.9375 L 681.191406 306.097656 L 679.9375 306.292969 L 678.507812 306.464844 L 676.449219 306.65625 L 674.75 306.785156 L 672.515625 306.925781 L 670.457031 307.03125 L 668.222656 307.125 L 664.914062 307.234375 L 662.765625 307.289062 L 660.441406 307.339844 L 657.667969 307.382812 L 654.179688 307.421875 L 650.425781 307.445312 L 646.9375 307.453125 L 643.179688 307.441406 L 640.410156 307.417969 L 636.742188 307.367188 L 632.179688 307.269531 L 628.871094 307.164062 L 626.277344 307.058594 L 624.042969 306.945312 L 621.539062 306.796875 L 618.316406 306.550781 L 616.351562 306.363281 L 615.007812 306.207031 L 613.488281 305.992188 L 612.414062 305.796875 L 611.164062 305.488281 L 610.269531 305.09375 L 610 304.789062 Z M 610 304.023438 "/>
<path style=" stroke:none;fill-rule:nonzero;fill:rgb(96.862745%,70.196078%,16.862745%);fill-opacity:1;" d="M 610 295.820312 L 610.089844 295.8125 L 610.089844 295.671875 L 610.449219 295.355469 L 611.34375 294.921875 L 612.503906 294.5625 L 613.757812 294.28125 L 614.5625 294.136719 L 615.902344 293.925781 L 617.066406 293.769531 L 620.015625 293.457031 L 623.773438 293.160156 L 625.832031 293.035156 L 628.15625 292.914062 L 631.464844 292.78125 L 632.984375 292.734375 L 637.636719 292.621094 L 642.914062 292.550781 L 648.726562 292.53125 L 651.410156 292.539062 L 655.074219 292.566406 L 660.085938 292.640625 L 662.945312 292.710938 L 665.183594 292.78125 L 667.507812 292.875 L 670.367188 293.015625 L 673.050781 293.183594 L 675.199219 293.351562 L 677.34375 293.5625 L 679.132812 293.785156 L 680.652344 294.03125 L 681.996094 294.324219 L 682.800781 294.570312 L 683.335938 294.816406 L 670.90625 294.816406 L 670.191406 294.570312 L 669.386719 294.382812 L 668.042969 294.148438 L 666.703125 293.980469 L 665.359375 293.847656 L 662.855469 293.667969 L 660.710938 293.554688 L 658.027344 293.457031 L 655.433594 293.394531 L 652.480469 293.351562 L 650.695312 293.335938 L 645.953125 293.335938 L 641.660156 293.386719 L 639.15625 293.441406 L 637.367188 293.496094 L 634.863281 293.601562 L 633.34375 293.6875 L 632.449219 293.742188 L 629.765625 293.960938 L 627.976562 294.15625 L 626.992188 294.289062 L 625.742188 294.5 L 624.847656 294.691406 L 623.863281 294.96875 L 623.328125 295.179688 L 622.609375 295.65625 L 622.523438 296.917969 L 622.789062 297.1875 L 623.328125 297.472656 L 624.042969 297.726562 L 625.117188 297.992188 L 626.1875 298.195312 L 628.066406 298.46875 L 629.675781 298.652344 L 630.929688 298.769531 L 633.34375 298.960938 L 634.328125 299.023438 L 636.652344 299.148438 L 639.066406 299.246094 L 642.019531 299.332031 L 644.253906 299.375 L 647.832031 299.410156 L 652.394531 299.410156 L 657.757812 299.367188 L 661.15625 299.308594 L 663.484375 299.253906 L 665.003906 299.203125 L 666.882812 299.128906 L 668.222656 299.058594 L 669.476562 298.980469 L 670.996094 298.863281 L 670.996094 297.1875 L 648.90625 297.179688 L 648.90625 296.394531 L 683.246094 296.386719 L 683.335938 299.128906 L 681.457031 299.316406 L 679.132812 299.5 L 676.898438 299.640625 L 674.574219 299.757812 L 671.261719 299.890625 L 668.582031 299.976562 L 664.464844 300.074219 L 660.710938 300.136719 L 656.773438 300.179688 L 653.285156 300.199219 L 649.171875 300.207031 L 645.507812 300.195312 L 641.570312 300.152344 L 638.441406 300.09375 L 635.578125 300.023438 L 632.71875 299.933594 L 629.140625 299.785156 L 626.816406 299.667969 L 624.398438 299.519531 L 621.984375 299.34375 L 619.839844 299.15625 L 618.40625 299.007812 L 616.976562 298.839844 L 615.457031 298.628906 L 614.027344 298.390625 L 612.953125 298.175781 L 611.96875 297.929688 L 611.253906 297.699219 L 610.539062 297.382812 L 610.179688 297.128906 L 610 296.914062 Z M 610 295.820312 "/>
<path style=" stroke:none;fill-rule:nonzero;fill:rgb(83.921569%,15.686275%,22.352941%);fill-opacity:1;" d="M 610 308.625 L 683.335938 308.625 L 683.335938 309.117188 L 652.773438 309.121094 L 652.773438 313.195312 L 640.476562 313.195312 L 640.476562 309.125 L 640.296875 309.117188 L 610 309.117188 Z M 610 308.625 "/>
<g style="fill:rgb(0%,0%,0%);fill-opacity:1;">
  <use xlink:href="#glyph0-1" x="21.957031" y="317.018555"/>
  <use xlink:href="#glyph0-2" x="27.291016" y="317.018555"/>
  <use xlink:href="#glyph0-1" x="29.958008" y="317.018555"/>
</g>
<g style="fill:rgb(0%,0%,0%);fill-opacity:1;">
  <use xlink:href="#glyph0-1" x="21.957031" y="223.405273"/>
  <use xlink:href="#glyph0-2" x="27.291016" y="223.405273"/>
  <use xlink:href="#glyph0-3" x="29.958008" y="223.405273"/>
</g>
<g style="fill:rgb(0%,0%,0%);fill-opacity:1;">
  <use xlink:href="#glyph0-4" x="21.957031" y="129.791992"/>
  <use xlink:href="#glyph0-2" x="27.291016" y="129.791992"/>
  <use xlink:href="#glyph0-1" x="29.958008" y="129.791992"/>
</g>
<g style="fill:rgb(0%,0%,0%);fill-opacity:1;">
  <use xlink:href="#glyph0-4" x="21.957031" y="36.182617"/>
  <use xlink:href="#glyph0-2" x="27.291016" y="36.182617"/>
  <use xlink:href="#glyph0-3" x="29.958008" y="36.182617"/>
</g>
<g style="fill:rgb(0%,0%,0%);fill-opacity:1;">
  <use xlink:href="#glyph0-4" x="103.296875" y="338.19043"/>
</g>
<g style="fill:rgb(0%,0%,0%);fill-opacity:1;">
  <use xlink:href="#glyph0-5" x="180.492188" y="338.19043"/>
</g>
<g style="fill:rgb(0%,0%,0%);fill-opacity:1;">
  <use xlink:href="#glyph0-6" x="257.6875" y="338.19043"/>
</g>
<g style="fill:rgb(0%,0%,0%);fill-opacity:1;">
  <use xlink:href="#glyph0-7" x="334.886719" y="338.19043"/>
</g>
<g style="fill:rgb(0%,0%,0%);fill-opacity:1;">
  <use xlink:href="#glyph0-3" x="412.082031" y="338.19043"/>
</g>
<g style="fill:rgb(0%,0%,0%);fill-opacity:1;">
  <use xlink:href="#glyph0-8" x="489.277344" y="338.19043"/>
</g>
<g style="fill:rgb(0%,0%,0%);fill-opacity:1;">
  <use xlink:href="#glyph0-9" x="566.472656" y="338.19043"/>
</g>
<g style="fill:rgb(0%,0%,0%);fill-opacity:1;">
  <use xlink:href="#glyph0-10" x="643.667969" y="338.19043"/>
</g>
<g style="fill:rgb(0%,0%,0%);fill-opacity:1;">
  <use xlink:href="#glyph1-1" x="14.412109" y="178.015625"/>
  <use xlink:href="#glyph1-2" x="14.412109" y="170.011719"/>
  <use xlink:href="#glyph1-3" x="14.412109" y="167.347656"/>
  <use xlink:href="#glyph1-4" x="14.412109" y="164.011719"/>
</g>
</g>
</svg>
