<?xml version="1.0" encoding="UTF-8"?>
<svg xmlns="http://www.w3.org/2000/svg" xmlns:xlink="http://www.w3.org/1999/xlink" width="720pt" height="360pt" viewBox="0 0 720 360" version="1.1">
<defs>
<g>
<symbol overflow="visible" id="glyph0-0">
<path style="stroke:none;" d=""/>
</symbol>
<symbol overflow="visible" id="glyph0-1">
<path style="stroke:none;" d="M 2.640625 -6.796875 C 2 -6.796875 1.421875 -6.53125 1.078125 -6.046875 C 0.640625 -5.453125 0.40625 -4.546875 0.40625 -3.296875 C 0.40625 -1 1.1875 0.21875 2.640625 0.21875 C 4.078125 0.21875 4.859375 -1 4.859375 -3.234375 C 4.859375 -4.5625 4.65625 -5.4375 4.203125 -6.046875 C 3.84375 -6.53125 3.28125 -6.796875 2.640625 -6.796875 Z M 2.640625 -6.046875 C 3.546875 -6.046875 4 -5.125 4 -3.3125 C 4 -1.375 3.5625 -0.484375 2.625 -0.484375 C 1.734375 -0.484375 1.28125 -1.421875 1.28125 -3.28125 C 1.28125 -5.140625 1.734375 -6.046875 2.640625 -6.046875 Z M 2.640625 -6.046875 "/>
</symbol>
<symbol overflow="visible" id="glyph0-2">
<path style="stroke:none;" d="M 1.828125 -1 L 0.828125 -1 L 0.828125 0 L 1.828125 0 Z M 1.828125 -1 "/>
</symbol>
<symbol overflow="visible" id="glyph0-3">
<path style="stroke:none;" d="M 4.5625 -6.796875 L 1.0625 -6.796875 L 0.546875 -3.09375 L 1.328125 -3.09375 C 1.71875 -3.5625 2.046875 -3.734375 2.578125 -3.734375 C 3.484375 -3.734375 4.0625 -3.109375 4.0625 -2.09375 C 4.0625 -1.125 3.484375 -0.53125 2.578125 -0.53125 C 1.828125 -0.53125 1.375 -0.90625 1.1875 -1.671875 L 0.328125 -1.671875 C 0.453125 -1.109375 0.546875 -0.84375 0.75 -0.59375 C 1.125 -0.078125 1.828125 0.21875 2.59375 0.21875 C 3.96875 0.21875 4.921875 -0.78125 4.921875 -2.21875 C 4.921875 -3.5625 4.03125 -4.484375 2.71875 -4.484375 C 2.25 -4.484375 1.859375 -4.359375 1.46875 -4.0625 L 1.734375 -5.96875 L 4.5625 -5.96875 Z M 4.5625 -6.796875 "/>
</symbol>
<symbol overflow="visible" id="glyph0-4">
<path style="stroke:none;" d="M 2.484375 -4.84375 L 2.484375 0 L 3.328125 0 L 3.328125 -6.796875 L 2.765625 -6.796875 C 2.46875 -5.75 2.28125 -5.609375 0.984375 -5.453125 L 0.984375 -4.84375 Z M 2.484375 -4.84375 "/>
</symbol>
<symbol overflow="visible" id="glyph0-5">
<path style="stroke:none;" d="M 4.859375 -0.828125 L 1.28125 -0.828125 C 1.359375 -1.390625 1.671875 -1.75 2.5 -2.234375 L 3.46875 -2.75 C 4.40625 -3.265625 4.90625 -3.96875 4.90625 -4.8125 C 4.90625 -5.375 4.671875 -5.90625 4.265625 -6.265625 C 3.859375 -6.625 3.375 -6.796875 2.71875 -6.796875 C 1.859375 -6.796875 1.21875 -6.5 0.84375 -5.921875 C 0.609375 -5.5625 0.5 -5.125 0.484375 -4.4375 L 1.328125 -4.4375 C 1.359375 -4.90625 1.40625 -5.1875 1.53125 -5.40625 C 1.75 -5.8125 2.1875 -6.0625 2.703125 -6.0625 C 3.46875 -6.0625 4.03125 -5.515625 4.03125 -4.78125 C 4.03125 -4.25 3.71875 -3.796875 3.125 -3.4375 L 2.234375 -2.9375 C 0.8125 -2.140625 0.40625 -1.5 0.328125 0 L 4.859375 0 Z M 4.859375 -0.828125 "/>
</symbol>
<symbol overflow="visible" id="glyph0-6">
<path style="stroke:none;" d="M 2.125 -3.125 L 2.578125 -3.125 C 3.515625 -3.125 3.984375 -2.703125 3.984375 -1.890625 C 3.984375 -1.03125 3.46875 -0.53125 2.578125 -0.53125 C 1.65625 -0.53125 1.203125 -0.984375 1.15625 -1.96875 L 0.3125 -1.96875 C 0.34375 -1.421875 0.4375 -1.078125 0.609375 -0.765625 C 0.953125 -0.109375 1.625 0.21875 2.546875 0.21875 C 3.953125 0.21875 4.859375 -0.609375 4.859375 -1.90625 C 4.859375 -2.765625 4.515625 -3.25 3.703125 -3.515625 C 4.34375 -3.765625 4.65625 -4.25 4.65625 -4.9375 C 4.65625 -6.109375 3.875 -6.796875 2.578125 -6.796875 C 1.203125 -6.796875 0.484375 -6.046875 0.453125 -4.609375 L 1.296875 -4.609375 C 1.3125 -5.015625 1.34375 -5.25 1.453125 -5.453125 C 1.640625 -5.828125 2.0625 -6.0625 2.59375 -6.0625 C 3.34375 -6.0625 3.796875 -5.625 3.796875 -4.90625 C 3.796875 -4.421875 3.609375 -4.140625 3.25 -3.984375 C 3.015625 -3.890625 2.71875 -3.84375 2.125 -3.84375 Z M 2.125 -3.125 "/>
</symbol>
<symbol overflow="visible" id="glyph0-7">
<path style="stroke:none;" d="M 3.140625 -1.625 L 3.140625 0 L 3.984375 0 L 3.984375 -1.625 L 4.984375 -1.625 L 4.984375 -2.390625 L 3.984375 -2.390625 L 3.984375 -6.796875 L 3.359375 -6.796875 L 0.265625 -2.515625 L 0.265625 -1.625 Z M 3.140625 -2.390625 L 1 -2.390625 L 3.140625 -5.359375 Z M 3.140625 -2.390625 "/>
</symbol>
<symbol overflow="visible" id="glyph0-8">
<path style="stroke:none;" d="M 4.78125 -5.03125 C 4.609375 -6.140625 3.890625 -6.796875 2.84375 -6.796875 C 2.09375 -6.796875 1.421875 -6.4375 1.03125 -5.828125 C 0.609375 -5.171875 0.40625 -4.34375 0.40625 -3.09375 C 0.40625 -1.953125 0.578125 -1.234375 0.984375 -0.625 C 1.359375 -0.078125 1.953125 0.21875 2.703125 0.21875 C 3.984375 0.21875 4.921875 -0.734375 4.921875 -2.078125 C 4.921875 -3.34375 4.0625 -4.234375 2.84375 -4.234375 C 2.171875 -4.234375 1.640625 -3.96875 1.28125 -3.46875 C 1.28125 -5.125 1.828125 -6.046875 2.796875 -6.046875 C 3.390625 -6.046875 3.796875 -5.671875 3.9375 -5.03125 Z M 2.734375 -3.484375 C 3.546875 -3.484375 4.0625 -2.921875 4.0625 -2 C 4.0625 -1.15625 3.484375 -0.53125 2.703125 -0.53125 C 1.921875 -0.53125 1.328125 -1.1875 1.328125 -2.046875 C 1.328125 -2.890625 1.90625 -3.484375 2.734375 -3.484375 Z M 2.734375 -3.484375 "/>
</symbol>
<symbol overflow="visible" id="glyph0-9">
<path style="stroke:none;" d="M 4.984375 -6.796875 L 0.4375 -6.796875 L 0.4375 -5.96875 L 4.109375 -5.96875 C 2.5 -3.65625 1.828125 -2.234375 1.328125 0 L 2.21875 0 C 2.59375 -2.171875 3.453125 -4.046875 4.984375 -6.09375 Z M 4.984375 -6.796875 "/>
</symbol>
<symbol overflow="visible" id="glyph0-10">
<path style="stroke:none;" d="M 3.75 -3.578125 C 4.453125 -4 4.6875 -4.34375 4.6875 -4.984375 C 4.6875 -6.046875 3.84375 -6.796875 2.640625 -6.796875 C 1.4375 -6.796875 0.59375 -6.046875 0.59375 -4.984375 C 0.59375 -4.359375 0.828125 -4.015625 1.515625 -3.578125 C 0.734375 -3.203125 0.359375 -2.640625 0.359375 -1.890625 C 0.359375 -0.640625 1.296875 0.21875 2.640625 0.21875 C 3.984375 0.21875 4.921875 -0.640625 4.921875 -1.875 C 4.921875 -2.640625 4.53125 -3.203125 3.75 -3.578125 Z M 2.640625 -6.046875 C 3.359375 -6.046875 3.8125 -5.625 3.8125 -4.96875 C 3.8125 -4.34375 3.34375 -3.921875 2.640625 -3.921875 C 1.921875 -3.921875 1.453125 -4.34375 1.453125 -4.984375 C 1.453125 -5.625 1.921875 -6.046875 2.640625 -6.046875 Z M 2.640625 -3.203125 C 3.484375 -3.203125 4.0625 -2.671875 4.0625 -1.875 C 4.0625 -1.0625 3.484375 -0.53125 2.625 -0.53125 C 1.796875 -0.53125 1.21875 -1.078125 1.21875 -1.875 C 1.21875 -2.671875 1.796875 -3.203125 2.640625 -3.203125 Z M 2.640625 -3.203125 "/>
</symbol>
<symbol overflow="visible" id="glyph1-0">
<path style="stroke:none;" d=""/>
</symbol>
<symbol overflow="visible" id="glyph1-1">
<path style="stroke:none;" d="M 0 -0.953125 L 0 -4.890625 C 0 -5.71875 -0.234375 -6.34375 -0.734375 -6.796875 C -1.1875 -7.234375 -1.8125 -7.46875 -2.5 -7.46875 C -3.546875 -7.46875 -4.1875 -7 -4.625 -5.875 C -4.984375 -6.671875 -5.640625 -7.09375 -6.53125 -7.09375 C -7.15625 -7.09375 -7.734375 -6.859375 -8.140625 -6.390625 C -8.5625 -5.9375 -8.75 -5.34375 -8.75 -4.5 L -8.75 -0.953125 Z M -4.984375 -2.0625 L -7.765625 -2.0625 L -7.765625 -4.21875 C -7.765625 -4.84375 -7.6875 -5.203125 -7.453125 -5.5 C -7.21875 -5.8125 -6.859375 -5.96875 -6.375 -5.96875 C -5.90625 -5.96875 -5.53125 -5.8125 -5.296875 -5.5 C -5.0625 -5.203125 -4.984375 -4.84375 -4.984375 -4.21875 Z M -0.984375 -2.0625 L -4 -2.0625 L -4 -4.78125 C -4 -5.328125 -3.859375 -5.6875 -3.578125 -5.953125 C -3.296875 -6.21875 -2.921875 -6.359375 -2.484375 -6.359375 C -2.0625 -6.359375 -1.6875 -6.21875 -1.40625 -5.953125 C -1.109375 -5.6875 -0.984375 -5.328125 -0.984375 -4.78125 Z M -0.984375 -2.0625 "/>
</symbol>
<symbol overflow="visible" id="glyph1-2">
<path style="stroke:none;" d="M -6.28125 -1.796875 L -6.28125 -0.796875 L 0 -0.796875 L 0 -1.796875 Z M -8.75 -1.796875 L -8.75 -0.796875 L -7.484375 -0.796875 L -7.484375 -1.796875 Z M -8.75 -1.796875 "/>
</symbol>
<symbol overflow="visible" id="glyph1-3">
<path style="stroke:none;" d="M -6.28125 -3.046875 L -6.28125 -2.015625 L -8.015625 -2.015625 L -8.015625 -1.015625 L -6.28125 -1.015625 L -6.28125 -0.171875 L -5.46875 -0.171875 L -5.46875 -1.015625 L -0.71875 -1.015625 C -0.078125 -1.015625 0.28125 -1.453125 0.28125 -2.234375 C 0.28125 -2.46875 0.25 -2.71875 0.1875 -3.046875 L -0.640625 -3.046875 C -0.609375 -2.921875 -0.59375 -2.765625 -0.59375 -2.5625 C -0.59375 -2.140625 -0.71875 -2.015625 -1.15625 -2.015625 L -5.46875 -2.015625 L -5.46875 -3.046875 Z M -6.28125 -3.046875 "/>
</symbol>
<symbol overflow="visible" id="glyph1-4">
<path style="stroke:none;" d="M -4.53125 -5.25 C -5.765625 -5.25 -6.46875 -4.421875 -6.46875 -2.96875 C -6.46875 -1.515625 -5.71875 -0.5625 -4.546875 -0.5625 C -3.5625 -0.5625 -3.09375 -1.0625 -2.734375 -2.5625 L -2.515625 -3.484375 C -2.34375 -4.1875 -2.09375 -4.46875 -1.625 -4.46875 C -1.046875 -4.46875 -0.640625 -3.875 -0.640625 -3 C -0.640625 -2.453125 -0.796875 -2 -1.0625 -1.75 C -1.25 -1.59375 -1.421875 -1.53125 -1.875 -1.46875 L -1.875 -0.40625 C -0.421875 -0.453125 0.28125 -1.265625 0.28125 -2.921875 C 0.28125 -4.5 -0.5 -5.515625 -1.71875 -5.515625 C -2.65625 -5.515625 -3.171875 -4.984375 -3.46875 -3.734375 L -3.703125 -2.765625 C -3.890625 -1.953125 -4.15625 -1.609375 -4.59375 -1.609375 C -5.171875 -1.609375 -5.546875 -2.125 -5.546875 -2.9375 C -5.546875 -3.75 -5.203125 -4.171875 -4.53125 -4.203125 Z M -4.53125 -5.25 "/>
</symbol>
</g>
</defs>
<g id="surface99386">
<rect x="0" y="0" width="720" height="360" style="fill:rgb(100%,100%,100%);fill-opacity:1;stroke:none;"/>
<path style=" stroke:none;fill-rule:nonzero;fill:rgb(6.27451%,58.823529%,28.235294%);fill-opacity:1;" d="M 146.824219 304.820312 L 146.902344 304.804688 L 178.636719 286.957031 L 188.273438 286.957031 L 220.160156 304.839844 L 208.957031 304.839844 L 200.964844 300.171875 L 165.941406 300.171875 L 158.109375 304.820312 L 146.824219 304.820312 L 169.3125 298.238281 L 197.753906 298.222656 L 183.570312 289.878906 L 183.414062 289.859375 L 183.257812 289.910156 L 169.234375 298.222656 L 169.3125 298.238281 Z M 146.824219 304.820312 "/>
<path style=" stroke:none;fill-rule:nonzero;fill:rgb(14.509804%,36.078431%,60%);fill-opacity:1;" d="M 146.824219 312.285156 L 146.914062 312.285156 L 146.914062 312.25 L 147.183594 312.191406 L 147.808594 312.121094 L 148.433594 312.074219 L 150.042969 311.988281 L 152.28125 311.902344 L 154.605469 311.839844 L 156.304688 311.800781 L 157.824219 311.769531 L 161.3125 311.714844 L 163.550781 311.6875 L 165.964844 311.664062 L 168.914062 311.636719 L 171.0625 311.625 L 175.890625 311.601562 L 179.46875 311.589844 L 182.242188 311.585938 L 188.234375 311.585938 L 191.8125 311.589844 L 194.40625 311.597656 L 197.265625 311.609375 L 199.679688 311.625 L 203.882812 311.65625 L 207.640625 311.695312 L 209.339844 311.71875 L 212.023438 311.765625 L 214.078125 311.808594 L 215.511719 311.847656 L 217.121094 311.902344 L 218.550781 311.96875 L 219.625 312.042969 L 220.160156 312.109375 L 207.640625 312.109375 L 207.015625 312.050781 L 206.300781 312.003906 L 204.957031 311.941406 L 203.617188 311.898438 L 201.738281 311.859375 L 200.039062 311.828125 L 197.714844 311.800781 L 195.65625 311.785156 L 193.511719 311.769531 L 191.453125 311.761719 L 187.519531 311.753906 L 181.257812 311.753906 L 177.769531 311.769531 L 175.890625 311.777344 L 173.207031 311.796875 L 171.332031 311.816406 L 169.09375 311.847656 L 167.574219 311.871094 L 165.695312 311.910156 L 164.355469 311.945312 L 162.835938 311.992188 L 161.941406 312.03125 L 161.136719 312.070312 L 160.417969 312.121094 L 159.882812 312.171875 L 159.523438 312.226562 L 159.347656 312.277344 L 159.347656 312.507812 L 159.523438 312.558594 L 159.972656 312.621094 L 161.136719 312.710938 L 162.835938 312.789062 L 164.800781 312.851562 L 166.679688 312.894531 L 167.753906 312.917969 L 169.183594 312.941406 L 171.417969 312.96875 L 174.640625 313 L 176.515625 313.011719 L 179.378906 313.023438 L 182.332031 313.027344 L 186.265625 313.027344 L 189.753906 313.023438 L 192.078125 313.015625 L 194.492188 313.003906 L 197.804688 312.976562 L 199.859375 312.953125 L 201.648438 312.925781 L 202.988281 312.898438 L 203.882812 312.875 L 205.226562 312.828125 L 206.300781 312.777344 L 207.105469 312.726562 L 207.640625 312.675781 L 220.160156 312.675781 L 219.625 312.738281 L 218.820312 312.792969 L 218.015625 312.835938 L 216.761719 312.886719 L 215.332031 312.933594 L 213.273438 312.984375 L 211.574219 313.019531 L 209.339844 313.054688 L 207.28125 313.082031 L 205.046875 313.109375 L 201.738281 313.136719 L 199.589844 313.152344 L 197.265625 313.167969 L 194.492188 313.179688 L 191.003906 313.1875 L 187.25 313.195312 L 183.761719 313.195312 L 180.003906 313.191406 L 177.234375 313.1875 L 173.566406 313.171875 L 169.003906 313.148438 L 165.695312 313.121094 L 163.101562 313.089844 L 160.867188 313.0625 L 158.363281 313.023438 L 155.144531 312.957031 L 153.175781 312.90625 L 151.832031 312.867188 L 150.3125 312.808594 L 149.238281 312.757812 L 147.988281 312.675781 L 147.09375 312.570312 L 146.824219 312.488281 Z M 146.824219 312.285156 "/>
<path style=" stroke:none;fill-rule:nonzero;fill:rgb(96.862745%,70.196078%,16.862745%);fill-opacity:1;" d="M 146.824219 307.898438 L 146.914062 307.894531 L 146.914062 307.8125 L 147.273438 307.632812 L 148.167969 307.382812 L 149.328125 307.179688 L 150.582031 307.015625 L 151.386719 306.933594 L 152.726562 306.8125 L 153.890625 306.722656 L 156.84375 306.542969 L 160.597656 306.375 L 162.65625 306.304688 L 164.980469 306.234375 L 168.289062 306.160156 L 169.808594 306.128906 L 174.460938 306.066406 L 179.738281 306.027344 L 185.550781 306.015625 L 188.234375 306.019531 L 191.898438 306.035156 L 196.910156 306.078125 L 199.769531 306.117188 L 202.007812 306.160156 L 204.332031 306.210938 L 207.195312 306.289062 L 209.875 306.386719 L 212.023438 306.484375 L 214.167969 306.605469 L 215.957031 306.734375 L 217.476562 306.871094 L 218.820312 307.042969 L 219.625 307.183594 L 220.160156 307.324219 L 207.730469 307.324219 L 207.015625 307.183594 L 206.210938 307.074219 L 204.867188 306.941406 L 203.527344 306.84375 L 202.183594 306.769531 L 199.679688 306.664062 L 197.535156 306.601562 L 194.851562 306.542969 L 192.257812 306.507812 L 189.304688 306.484375 L 187.519531 306.476562 L 182.777344 306.476562 L 178.484375 306.503906 L 175.980469 306.535156 L 174.191406 306.566406 L 171.6875 306.628906 L 170.167969 306.675781 L 169.273438 306.707031 L 166.589844 306.832031 L 164.800781 306.945312 L 163.816406 307.023438 L 162.566406 307.140625 L 161.671875 307.25 L 160.6875 307.410156 L 160.152344 307.53125 L 159.433594 307.804688 L 159.347656 308.527344 L 159.613281 308.679688 L 160.152344 308.84375 L 160.867188 308.988281 L 161.941406 309.140625 L 163.011719 309.257812 L 164.890625 309.414062 L 166.5 309.519531 L 167.753906 309.585938 L 170.167969 309.695312 L 171.152344 309.730469 L 173.476562 309.804688 L 175.890625 309.859375 L 178.84375 309.910156 L 181.078125 309.933594 L 184.65625 309.953125 L 189.21875 309.953125 L 194.582031 309.929688 L 197.980469 309.894531 L 200.308594 309.863281 L 201.828125 309.835938 L 203.707031 309.792969 L 205.046875 309.75 L 206.300781 309.707031 L 207.820312 309.640625 L 207.820312 308.679688 L 185.730469 308.675781 L 185.730469 308.226562 L 220.070312 308.222656 L 220.160156 309.792969 L 218.285156 309.898438 L 215.957031 310.003906 L 213.722656 310.085938 L 211.398438 310.152344 L 208.085938 310.230469 L 205.40625 310.277344 L 201.289062 310.332031 L 197.535156 310.371094 L 193.597656 310.394531 L 190.113281 310.40625 L 185.996094 310.410156 L 182.332031 310.402344 L 178.394531 310.378906 L 175.265625 310.347656 L 172.402344 310.304688 L 169.542969 310.253906 L 165.964844 310.167969 L 163.640625 310.101562 L 161.222656 310.015625 L 158.808594 309.917969 L 156.664062 309.808594 L 155.230469 309.722656 L 153.800781 309.628906 L 152.28125 309.507812 L 150.851562 309.371094 L 149.777344 309.246094 L 148.792969 309.105469 L 148.078125 308.972656 L 147.363281 308.792969 L 147.003906 308.648438 L 146.824219 308.523438 Z M 146.824219 307.898438 "/>
<path style=" stroke:none;fill-rule:nonzero;fill:rgb(83.921569%,15.686275%,22.352941%);fill-opacity:1;" d="M 146.824219 84.984375 L 220.160156 84.984375 L 220.160156 106.480469 L 189.597656 106.667969 L 189.597656 285.78125 L 177.300781 285.78125 L 177.300781 106.855469 L 177.121094 106.480469 L 146.824219 106.480469 Z M 146.824219 84.984375 "/>
<path style=" stroke:none;fill-rule:nonzero;fill:rgb(6.27451%,58.823529%,28.235294%);fill-opacity:1;" d="M 224.019531 282.441406 L 224.097656 282.289062 L 255.832031 122.0625 L 265.46875 122.0625 L 297.355469 282.589844 L 286.152344 282.589844 L 278.160156 240.6875 L 243.140625 240.6875 L 235.304688 282.441406 L 224.019531 282.441406 L 246.507812 223.351562 L 274.949219 223.203125 L 260.769531 148.289062 L 260.609375 148.136719 L 260.453125 148.589844 L 246.429688 223.203125 L 246.507812 223.351562 Z M 224.019531 282.441406 "/>
<path style=" stroke:none;fill-rule:nonzero;fill:rgb(14.509804%,36.078431%,60%);fill-opacity:1;" d="M 224.019531 299.410156 L 224.109375 299.402344 L 224.109375 299.210938 L 224.378906 298.902344 L 225.003906 298.515625 L 225.632812 298.25 L 227.242188 297.777344 L 229.476562 297.316406 L 231.800781 296.964844 L 233.5 296.753906 L 235.023438 296.59375 L 238.507812 296.296875 L 240.746094 296.144531 L 243.160156 296.003906 L 246.113281 295.867188 L 248.257812 295.789062 L 253.085938 295.660156 L 256.664062 295.601562 L 259.4375 295.578125 L 265.429688 295.578125 L 269.007812 295.613281 L 271.601562 295.652344 L 274.460938 295.714844 L 276.875 295.789062 L 281.082031 295.964844 L 284.835938 296.191406 L 286.535156 296.320312 L 289.21875 296.570312 L 291.277344 296.8125 L 292.707031 297.019531 L 294.316406 297.316406 L 295.746094 297.679688 L 296.820312 298.089844 L 297.355469 298.4375 L 284.835938 298.4375 L 284.210938 298.113281 L 283.496094 297.867188 L 282.152344 297.535156 L 280.8125 297.300781 L 278.933594 297.070312 L 277.234375 296.914062 L 274.910156 296.761719 L 272.851562 296.664062 L 270.707031 296.59375 L 268.648438 296.546875 L 264.714844 296.496094 L 260.152344 296.496094 L 258.453125 296.511719 L 254.964844 296.578125 L 253.085938 296.632812 L 250.40625 296.746094 L 248.527344 296.851562 L 246.289062 297.011719 L 244.769531 297.148438 L 242.890625 297.359375 L 241.550781 297.542969 L 240.03125 297.808594 L 239.136719 298.011719 L 238.332031 298.234375 L 237.613281 298.5 L 237.078125 298.78125 L 236.722656 299.082031 L 236.542969 299.371094 L 236.542969 300.617188 L 236.722656 300.90625 L 237.167969 301.246094 L 238.332031 301.738281 L 240.03125 302.164062 L 241.996094 302.5 L 243.875 302.742188 L 244.949219 302.855469 L 246.378906 302.984375 L 248.617188 303.144531 L 251.835938 303.308594 L 253.714844 303.371094 L 256.574219 303.433594 L 259.527344 303.46875 L 263.460938 303.46875 L 266.949219 303.433594 L 269.273438 303.394531 L 271.691406 303.332031 L 275 303.195312 L 277.054688 303.066406 L 278.84375 302.914062 L 280.1875 302.757812 L 281.082031 302.628906 L 282.421875 302.382812 L 283.496094 302.105469 L 284.300781 301.824219 L 284.835938 301.550781 L 297.355469 301.550781 L 296.820312 301.875 L 296.015625 302.1875 L 295.210938 302.421875 L 293.957031 302.703125 L 292.527344 302.953125 L 290.472656 303.234375 L 288.773438 303.417969 L 286.535156 303.621094 L 284.480469 303.773438 L 282.242188 303.910156 L 278.933594 304.070312 L 276.789062 304.152344 L 274.460938 304.222656 L 271.691406 304.289062 L 268.203125 304.34375 L 264.445312 304.378906 L 260.957031 304.386719 L 257.203125 304.371094 L 254.429688 304.335938 L 250.761719 304.265625 L 246.199219 304.121094 L 242.890625 303.964844 L 240.296875 303.8125 L 238.0625 303.652344 L 235.558594 303.433594 L 232.339844 303.082031 L 230.371094 302.808594 L 229.03125 302.582031 L 227.507812 302.269531 L 226.4375 301.988281 L 225.183594 301.535156 L 224.289062 300.964844 L 224.019531 300.523438 Z M 224.019531 299.410156 "/>
<path style=" stroke:none;fill-rule:nonzero;fill:rgb(96.862745%,70.196078%,16.862745%);fill-opacity:1;" d="M 224.019531 288.324219 L 224.109375 288.3125 L 224.109375 288.117188 L 224.46875 287.679688 L 225.363281 287.078125 L 226.523438 286.582031 L 227.777344 286.195312 L 228.582031 285.992188 L 229.925781 285.699219 L 231.085938 285.484375 L 234.039062 285.046875 L 237.792969 284.640625 L 239.851562 284.464844 L 242.175781 284.300781 L 245.484375 284.117188 L 247.003906 284.046875 L 251.65625 283.890625 L 256.933594 283.792969 L 262.746094 283.765625 L 265.429688 283.773438 L 269.097656 283.8125 L 274.105469 283.921875 L 276.964844 284.019531 L 279.203125 284.117188 L 281.527344 284.242188 L 284.390625 284.4375 L 287.074219 284.667969 L 289.21875 284.902344 L 291.367188 285.195312 L 293.152344 285.503906 L 294.675781 285.84375 L 296.015625 286.253906 L 296.820312 286.59375 L 297.355469 286.933594 L 284.925781 286.933594 L 284.210938 286.59375 L 283.40625 286.332031 L 282.0625 286.011719 L 280.722656 285.777344 L 279.382812 285.59375 L 276.875 285.339844 L 274.730469 285.183594 L 272.046875 285.046875 L 269.453125 284.960938 L 266.503906 284.902344 L 264.714844 284.882812 L 259.972656 284.882812 L 255.679688 284.949219 L 253.175781 285.027344 L 251.386719 285.105469 L 248.882812 285.253906 L 247.363281 285.367188 L 246.46875 285.445312 L 243.785156 285.746094 L 241.996094 286.019531 L 241.015625 286.203125 L 239.761719 286.496094 L 238.867188 286.757812 L 237.882812 287.148438 L 237.347656 287.4375 L 236.632812 288.097656 L 236.542969 289.847656 L 236.808594 290.21875 L 237.347656 290.613281 L 238.0625 290.964844 L 239.136719 291.335938 L 240.207031 291.617188 L 242.085938 291.996094 L 243.695312 292.246094 L 244.949219 292.414062 L 247.363281 292.675781 L 248.347656 292.761719 L 250.671875 292.9375 L 253.085938 293.074219 L 256.039062 293.191406 L 258.273438 293.25 L 261.851562 293.296875 L 266.414062 293.296875 L 271.777344 293.238281 L 275.175781 293.160156 L 277.503906 293.082031 L 279.023438 293.015625 L 280.902344 292.90625 L 282.242188 292.8125 L 283.496094 292.703125 L 285.015625 292.539062 L 285.015625 290.21875 L 262.925781 290.207031 L 262.925781 289.117188 L 297.269531 289.109375 L 297.355469 292.90625 L 295.480469 293.171875 L 293.152344 293.421875 L 290.917969 293.617188 L 288.59375 293.78125 L 285.285156 293.96875 L 282.601562 294.082031 L 278.488281 294.21875 L 274.730469 294.308594 L 270.796875 294.367188 L 267.308594 294.394531 L 263.195312 294.40625 L 259.527344 294.386719 L 255.589844 294.328125 L 252.460938 294.25 L 249.597656 294.152344 L 246.738281 294.027344 L 243.160156 293.820312 L 240.835938 293.65625 L 238.421875 293.453125 L 236.003906 293.210938 L 233.859375 292.945312 L 232.429688 292.742188 L 230.996094 292.511719 L 229.476562 292.21875 L 228.046875 291.886719 L 226.972656 291.585938 L 225.988281 291.246094 L 225.273438 290.925781 L 224.558594 290.488281 L 224.199219 290.140625 L 224.019531 289.839844 Z M 224.019531 288.324219 "/>
<path style=" stroke:none;fill-rule:nonzero;fill:rgb(83.921569%,15.686275%,22.352941%);fill-opacity:1;" d="M 224.019531 305.558594 L 297.355469 305.558594 L 297.355469 306.378906 L 266.792969 306.382812 L 266.792969 313.195312 L 254.496094 313.195312 L 254.496094 306.390625 L 254.316406 306.378906 L 224.019531 306.378906 Z M 224.019531 305.558594 "/>
<path style=" stroke:none;fill-rule:nonzero;fill:rgb(6.27451%,58.823529%,28.235294%);fill-opacity:1;" d="M 301.21875 301.410156 L 301.296875 301.144531 L 333.027344 20.664062 L 342.664062 20.664062 L 374.554688 301.675781 L 363.347656 301.675781 L 355.355469 228.320312 L 320.335938 228.320312 L 312.5 301.410156 L 301.21875 301.410156 L 323.703125 197.976562 L 352.144531 197.714844 L 337.964844 66.574219 L 337.808594 66.3125 L 337.648438 67.101562 L 323.625 197.714844 L 323.703125 197.976562 Z M 301.21875 301.410156 "/>
<path style=" stroke:none;fill-rule:nonzero;fill:rgb(14.509804%,36.078431%,60%);fill-opacity:1;" d="M 301.21875 312.554688 L 301.304688 312.550781 L 301.304688 312.527344 L 301.574219 312.488281 L 302.199219 312.4375 L 302.828125 312.402344 L 304.4375 312.34375 L 306.671875 312.28125 L 308.996094 312.238281 L 310.695312 312.210938 L 312.21875 312.191406 L 315.707031 312.152344 L 317.941406 312.132812 L 320.355469 312.113281 L 323.308594 312.097656 L 325.453125 312.085938 L 330.285156 312.070312 L 333.859375 312.0625 L 336.632812 312.058594 L 342.625 312.058594 L 346.203125 312.0625 L 348.796875 312.066406 L 351.65625 312.078125 L 354.074219 312.085938 L 358.277344 312.109375 L 362.03125 312.136719 L 363.730469 312.152344 L 366.414062 312.1875 L 368.472656 312.21875 L 369.902344 312.246094 L 371.511719 312.28125 L 372.945312 312.328125 L 374.015625 312.382812 L 374.554688 312.425781 L 362.03125 312.425781 L 361.40625 312.386719 L 360.691406 312.355469 L 359.347656 312.3125 L 358.007812 312.28125 L 356.128906 312.25 L 354.429688 312.230469 L 352.105469 312.210938 L 350.046875 312.199219 L 347.902344 312.191406 L 345.84375 312.183594 L 341.910156 312.175781 L 337.347656 312.175781 L 335.648438 312.179688 L 332.160156 312.1875 L 330.285156 312.195312 L 327.601562 312.210938 L 325.722656 312.222656 L 323.484375 312.242188 L 321.964844 312.261719 L 320.085938 312.289062 L 318.746094 312.3125 L 317.226562 312.347656 L 316.332031 312.371094 L 315.527344 312.402344 L 314.8125 312.4375 L 314.273438 312.472656 L 313.917969 312.511719 L 313.738281 312.546875 L 313.738281 312.710938 L 313.917969 312.746094 L 314.363281 312.789062 L 315.527344 312.855469 L 317.226562 312.910156 L 319.195312 312.953125 L 321.070312 312.984375 L 322.144531 313 L 323.574219 313.015625 L 325.8125 313.035156 L 329.03125 313.054688 L 330.910156 313.066406 L 333.769531 313.074219 L 336.722656 313.078125 L 340.65625 313.078125 L 344.144531 313.074219 L 346.472656 313.066406 L 348.886719 313.058594 L 352.195312 313.042969 L 354.25 313.023438 L 356.039062 313.003906 L 357.382812 312.984375 L 358.277344 312.96875 L 359.617188 312.9375 L 360.691406 312.902344 L 361.496094 312.867188 L 362.03125 312.828125 L 374.554688 312.828125 L 374.015625 312.871094 L 373.210938 312.910156 L 372.40625 312.941406 L 371.15625 312.980469 L 369.722656 313.011719 L 367.667969 313.046875 L 365.96875 313.070312 L 363.730469 313.097656 L 361.675781 313.117188 L 359.4375 313.132812 L 356.128906 313.15625 L 353.984375 313.164062 L 351.65625 313.175781 L 348.886719 313.183594 L 345.398438 313.191406 L 341.640625 313.195312 L 334.398438 313.195312 L 331.625 313.191406 L 327.957031 313.179688 L 323.398438 313.160156 L 320.085938 313.140625 L 317.496094 313.121094 L 315.257812 313.101562 L 312.753906 313.074219 L 309.535156 313.027344 L 307.566406 312.992188 L 306.226562 312.964844 L 304.707031 312.921875 L 303.632812 312.886719 L 302.378906 312.828125 L 301.484375 312.753906 L 301.21875 312.695312 Z M 301.21875 312.554688 "/>
<path style=" stroke:none;fill-rule:nonzero;fill:rgb(96.862745%,70.196078%,16.862745%);fill-opacity:1;" d="M 301.21875 310.101562 L 301.304688 310.101562 L 301.304688 310.074219 L 301.664062 310.019531 L 302.558594 309.941406 L 303.722656 309.878906 L 304.972656 309.828125 L 305.777344 309.800781 L 307.121094 309.765625 L 308.28125 309.738281 L 311.234375 309.679688 L 314.988281 309.628906 L 317.046875 309.605469 L 319.371094 309.585938 L 322.679688 309.558594 L 324.203125 309.550781 L 328.851562 309.53125 L 334.128906 309.519531 L 339.941406 309.515625 L 342.625 309.515625 L 346.292969 309.523438 L 351.300781 309.535156 L 354.164062 309.546875 L 356.398438 309.558594 L 358.722656 309.578125 L 361.585938 309.601562 L 364.269531 309.632812 L 366.414062 309.660156 L 368.5625 309.699219 L 370.351562 309.738281 L 371.871094 309.78125 L 373.210938 309.835938 L 374.015625 309.878906 L 374.554688 309.921875 L 362.121094 309.921875 L 361.40625 309.878906 L 360.601562 309.84375 L 359.261719 309.804688 L 357.917969 309.773438 L 356.578125 309.75 L 354.074219 309.71875 L 351.925781 309.699219 L 349.242188 309.679688 L 346.648438 309.667969 L 343.699219 309.660156 L 337.167969 309.660156 L 332.875 309.667969 L 330.371094 309.679688 L 328.585938 309.6875 L 326.078125 309.707031 L 324.558594 309.722656 L 323.664062 309.730469 L 320.980469 309.769531 L 319.195312 309.804688 L 318.210938 309.828125 L 316.957031 309.867188 L 316.0625 309.898438 L 315.078125 309.949219 L 314.542969 309.988281 L 313.828125 310.074219 L 313.738281 310.296875 L 314.007812 310.34375 L 314.542969 310.394531 L 315.257812 310.441406 L 316.332031 310.488281 L 317.40625 310.523438 L 319.28125 310.574219 L 320.894531 310.605469 L 322.144531 310.628906 L 324.558594 310.660156 L 325.542969 310.671875 L 327.867188 310.695312 L 330.285156 310.710938 L 333.234375 310.726562 L 335.46875 310.734375 L 339.046875 310.742188 L 343.609375 310.742188 L 348.976562 310.734375 L 352.375 310.722656 L 354.699219 310.714844 L 356.21875 310.703125 L 358.097656 310.691406 L 359.4375 310.679688 L 360.691406 310.664062 L 362.210938 310.644531 L 362.210938 310.34375 L 340.121094 310.34375 L 340.121094 310.203125 L 374.464844 310.203125 L 374.554688 310.691406 L 372.675781 310.726562 L 370.351562 310.757812 L 368.113281 310.78125 L 365.789062 310.804688 L 362.480469 310.828125 L 359.796875 310.84375 L 355.683594 310.859375 L 351.925781 310.871094 L 347.992188 310.878906 L 344.503906 310.882812 L 336.722656 310.882812 L 332.789062 310.875 L 329.65625 310.863281 L 326.796875 310.851562 L 323.933594 310.835938 L 320.355469 310.808594 L 318.03125 310.789062 L 315.617188 310.761719 L 313.203125 310.730469 L 311.054688 310.695312 L 309.625 310.671875 L 308.191406 310.640625 L 306.671875 310.601562 L 305.242188 310.558594 L 304.167969 310.519531 L 303.183594 310.476562 L 302.46875 310.4375 L 301.753906 310.378906 L 301.394531 310.335938 L 301.21875 310.296875 Z M 301.21875 310.101562 "/>
<path style=" stroke:none;fill-rule:nonzero;fill:rgb(83.921569%,15.686275%,22.352941%);fill-opacity:1;" d="M 301.21875 302.847656 L 374.554688 302.847656 L 374.554688 303.4375 L 343.988281 303.441406 L 343.988281 308.339844 L 331.691406 308.339844 L 331.691406 303.445312 L 331.515625 303.4375 L 301.21875 303.4375 Z M 301.21875 302.847656 "/>
<path style=" stroke:none;fill-rule:nonzero;fill:rgb(6.27451%,58.823529%,28.235294%);fill-opacity:1;" d="M 378.414062 311.414062 L 378.492188 311.40625 L 410.222656 304.03125 L 419.859375 304.03125 L 451.75 311.421875 L 440.546875 311.421875 L 432.554688 309.492188 L 397.53125 309.492188 L 389.695312 311.414062 L 378.414062 311.414062 L 400.898438 308.695312 L 429.339844 308.6875 L 415.160156 305.238281 L 415.003906 305.230469 L 414.847656 305.253906 L 400.820312 308.6875 L 400.898438 308.695312 Z M 378.414062 311.414062 "/>
<path style=" stroke:none;fill-rule:nonzero;fill:rgb(14.509804%,36.078431%,60%);fill-opacity:1;" d="M 378.414062 312.855469 L 378.503906 312.855469 L 378.503906 312.84375 L 378.769531 312.820312 L 379.398438 312.796875 L 380.023438 312.777344 L 381.632812 312.746094 L 383.867188 312.714844 L 386.195312 312.691406 L 387.894531 312.675781 L 389.414062 312.664062 L 392.902344 312.644531 L 395.136719 312.632812 L 397.550781 312.625 L 400.503906 312.613281 L 402.648438 312.609375 L 407.480469 312.601562 L 411.054688 312.597656 L 413.828125 312.59375 L 419.820312 312.59375 L 423.398438 312.597656 L 425.992188 312.601562 L 428.855469 312.605469 L 431.269531 312.609375 L 435.472656 312.621094 L 439.226562 312.636719 L 440.925781 312.644531 L 443.609375 312.664062 L 445.667969 312.679688 L 447.097656 312.691406 L 448.707031 312.714844 L 450.140625 312.738281 L 451.210938 312.765625 L 451.75 312.789062 L 439.226562 312.789062 L 438.601562 312.769531 L 437.886719 312.75 L 436.546875 312.726562 L 435.203125 312.710938 L 433.324219 312.695312 L 431.625 312.6875 L 429.300781 312.675781 L 427.246094 312.667969 L 425.097656 312.664062 L 423.039062 312.660156 L 419.105469 312.65625 L 414.542969 312.65625 L 412.84375 312.660156 L 409.355469 312.664062 L 407.480469 312.667969 L 404.796875 312.675781 L 402.917969 312.683594 L 400.683594 312.691406 L 399.160156 312.703125 L 397.285156 312.714844 L 395.941406 312.730469 L 394.421875 312.746094 L 393.527344 312.761719 L 392.722656 312.777344 L 392.007812 312.792969 L 391.46875 312.8125 L 391.113281 312.832031 L 390.933594 312.855469 L 390.933594 312.9375 L 391.113281 312.957031 L 391.558594 312.980469 L 392.722656 313.015625 L 394.421875 313.042969 L 396.390625 313.066406 L 398.265625 313.082031 L 399.339844 313.089844 L 400.773438 313.101562 L 403.007812 313.109375 L 406.226562 313.121094 L 408.105469 313.125 L 410.96875 313.132812 L 421.339844 313.132812 L 423.667969 313.128906 L 426.082031 313.125 L 429.390625 313.113281 L 431.449219 313.105469 L 433.234375 313.09375 L 434.578125 313.085938 L 435.472656 313.074219 L 436.8125 313.058594 L 437.886719 313.039062 L 438.691406 313.019531 L 439.226562 313.003906 L 451.75 313.003906 L 451.210938 313.023438 L 450.40625 313.046875 L 449.601562 313.0625 L 448.351562 313.082031 L 446.917969 313.097656 L 444.863281 313.117188 L 443.164062 313.128906 L 440.925781 313.144531 L 438.871094 313.152344 L 436.636719 313.164062 L 433.324219 313.175781 L 431.179688 313.179688 L 428.855469 313.183594 L 426.082031 313.1875 L 422.59375 313.191406 L 418.835938 313.195312 L 411.59375 313.195312 L 408.820312 313.191406 L 405.152344 313.1875 L 400.59375 313.175781 L 397.285156 313.167969 L 394.691406 313.15625 L 392.453125 313.144531 L 389.949219 313.132812 L 386.730469 313.105469 L 384.761719 313.089844 L 383.421875 313.074219 L 381.902344 313.050781 L 380.828125 313.03125 L 379.574219 313 L 378.679688 312.960938 L 378.414062 312.933594 Z M 378.414062 312.855469 "/>
<path style=" stroke:none;fill-rule:nonzero;fill:rgb(96.862745%,70.196078%,16.862745%);fill-opacity:1;" d="M 378.414062 294.753906 L 378.503906 294.742188 L 378.503906 294.480469 L 378.859375 293.898438 L 379.753906 293.097656 L 380.917969 292.4375 L 382.167969 291.917969 L 382.972656 291.644531 L 384.316406 291.257812 L 385.476562 290.972656 L 388.429688 290.390625 L 392.1875 289.847656 L 394.242188 289.613281 L 396.566406 289.394531 L 399.878906 289.148438 L 401.398438 289.058594 L 406.046875 288.851562 L 411.324219 288.71875 L 417.136719 288.683594 L 419.820312 288.695312 L 423.488281 288.746094 L 428.496094 288.890625 L 431.359375 289.019531 L 433.59375 289.148438 L 435.917969 289.316406 L 438.78125 289.574219 L 441.464844 289.886719 L 443.609375 290.195312 L 445.757812 290.585938 L 447.546875 291 L 449.066406 291.453125 L 450.40625 291.996094 L 451.210938 292.449219 L 451.75 292.902344 L 439.316406 292.902344 L 438.601562 292.449219 L 437.796875 292.097656 L 436.457031 291.671875 L 435.113281 291.363281 L 433.773438 291.117188 L 431.269531 290.777344 L 429.121094 290.570312 L 426.4375 290.390625 L 423.847656 290.273438 L 420.894531 290.195312 L 419.105469 290.171875 L 414.367188 290.171875 L 410.074219 290.261719 L 407.570312 290.363281 L 405.78125 290.46875 L 403.277344 290.664062 L 401.753906 290.816406 L 400.859375 290.921875 L 398.179688 291.324219 L 396.390625 291.683594 L 395.40625 291.929688 L 394.152344 292.320312 L 393.257812 292.667969 L 392.277344 293.1875 L 391.738281 293.574219 L 391.023438 294.457031 L 390.933594 296.785156 L 391.203125 297.277344 L 391.738281 297.808594 L 392.453125 298.273438 L 393.527344 298.765625 L 394.601562 299.140625 L 396.480469 299.648438 L 398.089844 299.984375 L 399.339844 300.203125 L 401.753906 300.554688 L 402.738281 300.667969 L 405.066406 300.902344 L 407.480469 301.082031 L 410.429688 301.238281 L 412.667969 301.316406 L 416.242188 301.382812 L 420.804688 301.382812 L 426.171875 301.304688 L 429.570312 301.199219 L 431.894531 301.097656 L 433.414062 301.007812 L 435.292969 300.863281 L 436.636719 300.734375 L 437.886719 300.589844 L 439.40625 300.371094 L 439.40625 297.277344 L 417.316406 297.265625 L 417.316406 295.816406 L 451.660156 295.800781 L 451.75 300.863281 L 449.871094 301.214844 L 447.546875 301.550781 L 445.308594 301.808594 L 442.984375 302.027344 L 439.675781 302.273438 L 436.992188 302.429688 L 432.878906 302.609375 L 429.121094 302.726562 L 425.1875 302.804688 L 421.699219 302.84375 L 417.585938 302.855469 L 413.917969 302.832031 L 409.984375 302.753906 L 406.851562 302.648438 L 403.992188 302.519531 L 401.128906 302.351562 L 397.550781 302.082031 L 395.226562 301.859375 L 392.8125 301.589844 L 390.398438 301.265625 L 388.25 300.914062 L 386.820312 300.644531 L 385.390625 300.332031 L 383.867188 299.945312 L 382.4375 299.503906 L 381.363281 299.101562 L 380.378906 298.648438 L 379.664062 298.222656 L 378.949219 297.640625 L 378.59375 297.175781 L 378.414062 296.773438 Z M 378.414062 294.753906 "/>
<path style=" stroke:none;fill-rule:nonzero;fill:rgb(83.921569%,15.686275%,22.352941%);fill-opacity:1;" d="M 378.414062 78.960938 L 451.75 78.960938 L 451.75 101.28125 L 421.183594 101.480469 L 421.183594 287.507812 L 408.886719 287.507812 L 408.886719 101.675781 L 408.710938 101.28125 L 378.414062 101.28125 Z M 378.414062 78.960938 "/>
<path style=" stroke:none;fill-rule:nonzero;fill:rgb(6.27451%,58.823529%,28.235294%);fill-opacity:1;" d="M 455.609375 304.117188 L 455.6875 304.109375 L 487.417969 295.367188 L 497.054688 295.367188 L 528.945312 304.125 L 517.742188 304.125 L 509.75 301.839844 L 474.726562 301.839844 L 466.890625 304.117188 L 455.609375 304.117188 L 478.09375 300.894531 L 506.535156 300.886719 L 492.355469 296.796875 L 492.199219 296.789062 L 492.042969 296.816406 L 478.015625 300.886719 L 478.09375 300.894531 Z M 455.609375 304.117188 "/>
<path style=" stroke:none;fill-rule:nonzero;fill:rgb(14.509804%,36.078431%,60%);fill-opacity:1;" d="M 455.609375 308.738281 L 455.699219 308.730469 L 455.699219 308.554688 L 455.964844 308.28125 L 456.59375 307.933594 L 457.21875 307.699219 L 458.828125 307.273438 L 461.066406 306.859375 L 463.390625 306.542969 L 465.089844 306.355469 L 466.609375 306.210938 L 470.097656 305.945312 L 472.332031 305.808594 L 474.746094 305.683594 L 477.699219 305.5625 L 479.847656 305.488281 L 484.675781 305.375 L 488.253906 305.324219 L 491.023438 305.300781 L 497.015625 305.300781 L 500.59375 305.332031 L 503.1875 305.367188 L 506.050781 305.425781 L 508.464844 305.488281 L 512.667969 305.648438 L 516.425781 305.851562 L 518.125 305.964844 L 520.804688 306.1875 L 522.863281 306.40625 L 524.292969 306.59375 L 525.90625 306.859375 L 527.335938 307.183594 L 528.410156 307.554688 L 528.945312 307.863281 L 516.425781 307.863281 L 515.796875 307.574219 L 515.082031 307.351562 L 513.742188 307.054688 L 512.398438 306.847656 L 510.523438 306.636719 L 508.824219 306.5 L 506.496094 306.363281 L 504.441406 306.277344 L 502.292969 306.210938 L 500.238281 306.167969 L 496.300781 306.125 L 491.742188 306.125 L 490.042969 306.136719 L 486.554688 306.195312 L 484.675781 306.246094 L 481.992188 306.347656 L 480.113281 306.441406 L 477.878906 306.585938 L 476.359375 306.707031 L 474.480469 306.894531 L 473.136719 307.0625 L 471.617188 307.300781 L 470.722656 307.480469 L 469.917969 307.683594 L 469.203125 307.921875 L 468.667969 308.171875 L 468.308594 308.441406 L 468.128906 308.699219 L 468.128906 309.820312 L 468.308594 310.078125 L 468.757812 310.382812 L 469.917969 310.820312 L 471.617188 311.203125 L 473.585938 311.507812 L 475.464844 311.722656 L 476.535156 311.824219 L 477.96875 311.941406 L 480.203125 312.085938 L 483.421875 312.230469 L 485.300781 312.285156 L 488.164062 312.34375 L 491.113281 312.375 L 495.050781 312.375 L 498.539062 312.34375 L 500.863281 312.308594 L 503.277344 312.25 L 506.585938 312.128906 L 508.644531 312.011719 L 510.433594 311.875 L 511.773438 311.738281 L 512.667969 311.621094 L 514.007812 311.398438 L 515.082031 311.152344 L 515.886719 310.902344 L 516.425781 310.65625 L 528.945312 310.65625 L 528.410156 310.945312 L 527.605469 311.226562 L 526.796875 311.433594 L 525.546875 311.6875 L 524.117188 311.910156 L 522.058594 312.164062 L 520.359375 312.328125 L 518.125 312.511719 L 516.066406 312.648438 L 513.832031 312.769531 L 510.523438 312.914062 L 508.375 312.988281 L 506.050781 313.050781 L 503.277344 313.109375 L 499.789062 313.160156 L 496.035156 313.1875 L 492.546875 313.195312 L 488.789062 313.179688 L 486.015625 313.152344 L 482.351562 313.085938 L 477.789062 312.957031 L 474.480469 312.820312 L 471.886719 312.683594 L 469.648438 312.539062 L 467.144531 312.34375 L 463.925781 312.027344 L 461.957031 311.78125 L 460.617188 311.578125 L 459.097656 311.296875 L 458.023438 311.046875 L 456.773438 310.640625 L 455.878906 310.128906 L 455.609375 309.730469 Z M 455.609375 308.738281 "/>
<path style=" stroke:none;fill-rule:nonzero;fill:rgb(96.862745%,70.196078%,16.862745%);fill-opacity:1;" d="M 455.609375 286.074219 L 455.699219 286.0625 L 455.699219 285.804688 L 456.054688 285.21875 L 456.949219 284.417969 L 458.113281 283.753906 L 459.367188 283.234375 L 460.171875 282.964844 L 461.511719 282.574219 L 462.675781 282.289062 L 465.625 281.707031 L 469.382812 281.160156 L 471.4375 280.929688 L 473.765625 280.707031 L 477.074219 280.460938 L 478.59375 280.371094 L 483.246094 280.164062 L 488.519531 280.035156 L 494.335938 279.996094 L 497.015625 280.007812 L 500.683594 280.058594 L 505.691406 280.203125 L 508.554688 280.332031 L 510.789062 280.460938 L 513.117188 280.628906 L 515.976562 280.890625 L 518.660156 281.199219 L 520.804688 281.511719 L 522.953125 281.902344 L 524.742188 282.316406 L 526.261719 282.769531 L 527.605469 283.3125 L 528.410156 283.769531 L 528.945312 284.222656 L 516.515625 284.222656 L 515.796875 283.769531 L 514.992188 283.417969 L 513.652344 282.988281 L 512.308594 282.679688 L 510.96875 282.433594 L 508.464844 282.09375 L 506.316406 281.886719 L 503.636719 281.707031 L 501.042969 281.589844 L 498.089844 281.511719 L 496.300781 281.484375 L 491.5625 281.484375 L 487.269531 281.578125 L 484.765625 281.679688 L 482.976562 281.785156 L 480.472656 281.980469 L 478.953125 282.132812 L 478.058594 282.238281 L 475.375 282.640625 L 473.585938 283.003906 L 472.601562 283.25 L 471.347656 283.636719 L 470.457031 283.988281 L 469.472656 284.507812 L 468.933594 284.894531 L 468.21875 285.777344 L 468.128906 288.113281 L 468.398438 288.605469 L 468.933594 289.136719 L 469.648438 289.601562 L 470.722656 290.09375 L 471.796875 290.472656 L 473.675781 290.976562 L 475.285156 291.3125 L 476.535156 291.535156 L 478.953125 291.882812 L 479.933594 292 L 482.261719 292.234375 L 484.675781 292.417969 L 487.625 292.570312 L 489.863281 292.648438 L 493.441406 292.714844 L 498 292.714844 L 503.367188 292.636719 L 506.765625 292.53125 L 509.089844 292.429688 L 510.609375 292.339844 L 512.488281 292.195312 L 513.832031 292.066406 L 515.082031 291.921875 L 516.601562 291.703125 L 516.601562 288.605469 L 494.511719 288.589844 L 494.511719 287.140625 L 528.855469 287.125 L 528.945312 292.195312 L 527.066406 292.546875 L 524.742188 292.882812 L 522.507812 293.140625 L 520.179688 293.363281 L 516.871094 293.609375 L 514.1875 293.765625 L 510.074219 293.945312 L 506.316406 294.0625 L 502.382812 294.140625 L 498.894531 294.179688 L 494.78125 294.191406 L 491.113281 294.167969 L 487.179688 294.089844 L 484.050781 293.984375 L 481.1875 293.855469 L 478.324219 293.6875 L 474.746094 293.414062 L 472.421875 293.195312 L 470.007812 292.921875 L 467.59375 292.597656 L 465.445312 292.246094 L 464.015625 291.976562 L 462.585938 291.664062 L 461.066406 291.273438 L 459.632812 290.835938 L 458.558594 290.433594 L 457.578125 289.980469 L 456.859375 289.550781 L 456.144531 288.96875 L 455.789062 288.5 L 455.609375 288.097656 Z M 455.609375 286.074219 "/>
<path style=" stroke:none;fill-rule:nonzero;fill:rgb(83.921569%,15.686275%,22.352941%);fill-opacity:1;" d="M 455.609375 166.855469 L 528.945312 166.855469 L 528.945312 178.839844 L 498.382812 178.945312 L 498.382812 278.820312 L 486.085938 278.820312 L 486.085938 179.050781 L 485.90625 178.839844 L 455.609375 178.839844 Z M 455.609375 166.855469 "/>
<path style=" stroke:none;fill-rule:nonzero;fill:rgb(6.27451%,58.823529%,28.235294%);fill-opacity:1;" d="M 532.804688 303.859375 L 532.882812 303.824219 L 564.617188 264.773438 L 574.253906 264.773438 L 606.140625 303.898438 L 594.9375 303.898438 L 586.945312 293.683594 L 551.921875 293.683594 L 544.085938 303.859375 L 532.804688 303.859375 L 555.292969 289.460938 L 583.734375 289.421875 L 569.550781 271.164062 L 569.394531 271.128906 L 569.238281 271.238281 L 555.214844 289.421875 L 555.292969 289.460938 Z M 532.804688 303.859375 "/>
<path style=" stroke:none;fill-rule:nonzero;fill:rgb(14.509804%,36.078431%,60%);fill-opacity:1;" d="M 532.804688 312.6875 L 532.894531 312.6875 L 532.894531 312.667969 L 533.164062 312.636719 L 533.789062 312.597656 L 534.414062 312.570312 L 536.023438 312.523438 L 538.261719 312.476562 L 540.585938 312.441406 L 542.285156 312.417969 L 543.804688 312.402344 L 547.292969 312.371094 L 549.527344 312.355469 L 551.945312 312.34375 L 554.894531 312.328125 L 557.042969 312.320312 L 561.871094 312.308594 L 565.449219 312.300781 L 568.222656 312.296875 L 574.214844 312.296875 L 577.789062 312.300781 L 580.382812 312.304688 L 583.246094 312.3125 L 585.660156 312.320312 L 589.863281 312.339844 L 593.621094 312.359375 L 595.320312 312.375 L 598.003906 312.398438 L 600.058594 312.425781 L 601.492188 312.445312 L 603.101562 312.476562 L 604.53125 312.511719 L 605.605469 312.554688 L 606.140625 312.589844 L 593.621094 312.589844 L 592.996094 312.558594 L 592.277344 312.53125 L 590.9375 312.496094 L 589.597656 312.472656 L 587.71875 312.449219 L 586.019531 312.433594 L 583.691406 312.417969 L 581.636719 312.410156 L 579.488281 312.402344 L 577.433594 312.398438 L 573.496094 312.390625 L 568.9375 312.390625 L 567.238281 312.394531 L 563.75 312.402344 L 561.871094 312.40625 L 559.1875 312.417969 L 557.308594 312.429688 L 555.074219 312.445312 L 553.554688 312.457031 L 551.675781 312.480469 L 550.335938 312.5 L 548.8125 312.527344 L 547.917969 312.546875 L 547.113281 312.570312 L 546.398438 312.597656 L 545.863281 312.625 L 545.503906 312.65625 L 545.324219 312.683594 L 545.324219 312.8125 L 545.503906 312.839844 L 545.953125 312.875 L 547.113281 312.925781 L 548.8125 312.96875 L 550.78125 313.003906 L 552.660156 313.027344 L 553.734375 313.039062 L 555.164062 313.054688 L 557.398438 313.070312 L 560.617188 313.085938 L 562.496094 313.09375 L 565.359375 313.097656 L 568.308594 313.101562 L 572.246094 313.101562 L 575.734375 313.097656 L 578.058594 313.09375 L 580.472656 313.089844 L 583.78125 313.074219 L 585.839844 313.0625 L 587.628906 313.046875 L 588.96875 313.03125 L 589.863281 313.015625 L 591.207031 312.992188 L 592.277344 312.964844 L 593.082031 312.933594 L 593.621094 312.90625 L 606.140625 312.90625 L 605.605469 312.941406 L 604.800781 312.972656 L 603.996094 312.996094 L 602.742188 313.023438 L 601.3125 313.050781 L 599.253906 313.078125 L 597.554688 313.097656 L 595.320312 313.117188 L 593.261719 313.132812 L 591.027344 313.148438 L 587.71875 313.164062 L 585.570312 313.171875 L 583.246094 313.179688 L 580.472656 313.1875 L 576.984375 313.191406 L 573.230469 313.195312 L 565.984375 313.195312 L 563.210938 313.191406 L 559.546875 313.183594 L 554.984375 313.167969 L 551.675781 313.152344 L 549.082031 313.136719 L 546.847656 313.121094 L 544.34375 313.097656 L 541.121094 313.0625 L 539.15625 313.035156 L 537.8125 313.011719 L 536.292969 312.980469 L 535.21875 312.953125 L 533.96875 312.90625 L 533.074219 312.847656 L 532.804688 312.800781 Z M 532.804688 312.6875 "/>
<path style=" stroke:none;fill-rule:nonzero;fill:rgb(96.862745%,70.196078%,16.862745%);fill-opacity:1;" d="M 532.804688 234.417969 L 532.894531 234.371094 L 532.894531 233.441406 L 533.253906 231.34375 L 534.144531 228.453125 L 535.308594 226.074219 L 536.5625 224.210938 L 537.367188 223.234375 L 538.707031 221.835938 L 539.871094 220.808594 L 542.820312 218.710938 L 546.578125 216.753906 L 548.636719 215.914062 L 550.960938 215.121094 L 554.269531 214.238281 L 555.789062 213.910156 L 560.441406 213.164062 L 565.714844 212.699219 L 571.53125 212.558594 L 574.214844 212.605469 L 577.878906 212.792969 L 582.886719 213.304688 L 585.75 213.769531 L 587.984375 214.238281 L 590.3125 214.84375 L 593.171875 215.773438 L 595.855469 216.894531 L 598.003906 218.011719 L 600.148438 219.410156 L 601.9375 220.902344 L 603.457031 222.535156 L 604.800781 224.492188 L 605.605469 226.121094 L 606.140625 227.753906 L 593.710938 227.753906 L 592.996094 226.121094 L 592.1875 224.863281 L 590.847656 223.324219 L 589.507812 222.207031 L 588.164062 221.320312 L 585.660156 220.109375 L 583.515625 219.363281 L 580.832031 218.710938 L 578.238281 218.292969 L 575.285156 218.011719 L 573.496094 217.917969 L 568.757812 217.917969 L 564.464844 218.246094 L 561.960938 218.617188 L 560.171875 218.992188 L 557.667969 219.691406 L 556.148438 220.25 L 555.253906 220.621094 L 552.570312 222.066406 L 550.78125 223.371094 L 549.796875 224.257812 L 548.546875 225.65625 L 547.652344 226.914062 L 546.667969 228.777344 L 546.128906 230.175781 L 545.414062 233.347656 L 545.324219 241.738281 L 545.59375 243.507812 L 546.128906 245.417969 L 546.847656 247.097656 L 547.917969 248.867188 L 548.992188 250.21875 L 550.871094 252.039062 L 552.480469 253.25 L 553.734375 254.042969 L 556.148438 255.300781 L 557.132812 255.71875 L 559.457031 256.558594 L 561.871094 257.210938 L 564.824219 257.769531 L 567.058594 258.050781 L 570.636719 258.285156 L 575.195312 258.285156 L 580.5625 258.003906 L 583.960938 257.632812 L 586.285156 257.257812 L 587.808594 256.933594 L 589.683594 256.417969 L 591.027344 255.953125 L 592.277344 255.441406 L 593.800781 254.648438 L 593.800781 243.507812 L 571.707031 243.460938 L 571.707031 238.242188 L 606.050781 238.195312 L 606.140625 256.417969 L 604.261719 257.679688 L 601.9375 258.890625 L 599.703125 259.820312 L 597.375 260.613281 L 594.066406 261.5 L 591.382812 262.058594 L 587.269531 262.710938 L 583.515625 263.132812 L 579.578125 263.410156 L 576.089844 263.550781 L 571.976562 263.597656 L 568.308594 263.503906 L 564.375 263.222656 L 561.246094 262.851562 L 558.382812 262.386719 L 555.519531 261.78125 L 551.945312 260.800781 L 549.617188 260.007812 L 547.203125 259.03125 L 544.789062 257.863281 L 542.644531 256.605469 L 541.210938 255.628906 L 539.78125 254.507812 L 538.261719 253.109375 L 536.828125 251.523438 L 535.757812 250.082031 L 534.773438 248.449219 L 534.058594 246.910156 L 533.339844 244.8125 L 532.984375 243.136719 L 532.804688 241.691406 Z M 532.804688 234.417969 "/>
<path style=" stroke:none;fill-rule:nonzero;fill:rgb(83.921569%,15.686275%,22.352941%);fill-opacity:1;" d="M 532.804688 305.074219 L 606.140625 305.074219 L 606.140625 305.71875 L 575.578125 305.726562 L 575.578125 311.125 L 563.28125 311.125 L 563.28125 305.730469 L 563.101562 305.71875 L 532.804688 305.71875 Z M 532.804688 305.074219 "/>
<path style=" stroke:none;fill-rule:nonzero;fill:rgb(14.509804%,36.078431%,60%);fill-opacity:1;" d="M 610 309.964844 L 610.089844 309.960938 L 610.089844 309.945312 L 610.359375 309.917969 L 610.984375 309.878906 L 611.609375 309.855469 L 613.21875 309.8125 L 615.457031 309.769531 L 617.78125 309.738281 L 619.480469 309.71875 L 621 309.703125 L 624.488281 309.675781 L 626.726562 309.660156 L 629.140625 309.648438 L 632.089844 309.636719 L 634.238281 309.628906 L 639.066406 309.617188 L 642.644531 309.613281 L 645.417969 309.609375 L 651.410156 309.609375 L 654.988281 309.613281 L 657.578125 309.617188 L 660.441406 309.621094 L 662.855469 309.628906 L 667.058594 309.644531 L 670.816406 309.667969 L 672.515625 309.679688 L 675.199219 309.703125 L 677.253906 309.722656 L 678.6875 309.742188 L 680.296875 309.769531 L 681.726562 309.804688 L 682.800781 309.839844 L 683.335938 309.875 L 670.816406 309.875 L 670.191406 309.84375 L 669.476562 309.820312 L 668.132812 309.789062 L 666.792969 309.769531 L 664.914062 309.746094 L 663.214844 309.734375 L 660.890625 309.71875 L 658.832031 309.710938 L 656.6875 309.703125 L 654.628906 309.699219 L 650.695312 309.695312 L 644.433594 309.695312 L 640.945312 309.703125 L 639.066406 309.707031 L 636.382812 309.71875 L 634.507812 309.726562 L 632.269531 309.742188 L 630.75 309.753906 L 628.871094 309.773438 L 627.53125 309.792969 L 626.007812 309.816406 L 625.117188 309.835938 L 624.308594 309.855469 L 623.59375 309.878906 L 623.058594 309.90625 L 622.699219 309.933594 L 622.523438 309.960938 L 622.523438 310.074219 L 622.699219 310.101562 L 623.148438 310.132812 L 624.308594 310.175781 L 626.007812 310.214844 L 627.976562 310.246094 L 629.855469 310.269531 L 630.929688 310.28125 L 632.359375 310.292969 L 634.59375 310.308594 L 637.816406 310.320312 L 639.691406 310.328125 L 642.554688 310.332031 L 645.507812 310.335938 L 649.441406 310.335938 L 652.929688 310.332031 L 655.253906 310.328125 L 657.667969 310.324219 L 660.976562 310.3125 L 663.035156 310.300781 L 664.824219 310.285156 L 666.164062 310.269531 L 667.058594 310.257812 L 668.402344 310.238281 L 669.476562 310.210938 L 670.28125 310.183594 L 670.816406 310.160156 L 683.335938 310.160156 L 682.800781 310.191406 L 681.996094 310.21875 L 681.191406 310.242188 L 679.9375 310.265625 L 678.507812 310.289062 L 676.449219 310.316406 L 674.75 310.332031 L 672.515625 310.351562 L 670.457031 310.363281 L 668.222656 310.378906 L 664.914062 310.390625 L 662.765625 310.398438 L 660.441406 310.40625 L 657.667969 310.414062 L 654.179688 310.417969 L 650.425781 310.421875 L 646.9375 310.421875 L 643.179688 310.417969 L 640.410156 310.417969 L 636.742188 310.410156 L 632.179688 310.398438 L 628.871094 310.382812 L 626.277344 310.367188 L 624.042969 310.355469 L 621.539062 310.332031 L 618.316406 310.300781 L 616.351562 310.277344 L 615.007812 310.253906 L 613.488281 310.226562 L 612.414062 310.199219 L 611.164062 310.160156 L 610.269531 310.105469 L 610 310.066406 Z M 610 309.964844 "/>
<path style=" stroke:none;fill-rule:nonzero;fill:rgb(96.862745%,70.196078%,16.862745%);fill-opacity:1;" d="M 610 307.832031 L 610.089844 307.828125 L 610.089844 307.808594 L 610.449219 307.765625 L 611.34375 307.707031 L 612.503906 307.65625 L 613.757812 307.617188 L 614.5625 307.597656 L 615.902344 307.570312 L 617.066406 307.546875 L 620.015625 307.503906 L 623.773438 307.464844 L 625.832031 307.445312 L 628.15625 307.429688 L 631.464844 307.410156 L 632.984375 307.40625 L 637.636719 307.390625 L 642.914062 307.378906 L 651.410156 307.378906 L 655.074219 307.382812 L 660.085938 307.390625 L 662.945312 307.402344 L 665.183594 307.410156 L 667.507812 307.425781 L 670.367188 307.445312 L 673.050781 307.46875 L 675.199219 307.488281 L 677.34375 307.519531 L 679.132812 307.550781 L 680.652344 307.582031 L 681.996094 307.625 L 682.800781 307.660156 L 683.335938 307.691406 L 670.90625 307.691406 L 670.191406 307.660156 L 669.386719 307.632812 L 668.042969 307.601562 L 666.703125 307.578125 L 665.359375 307.558594 L 662.855469 307.535156 L 660.710938 307.519531 L 658.027344 307.503906 L 655.433594 307.496094 L 652.480469 307.488281 L 645.953125 307.488281 L 641.660156 307.496094 L 639.15625 307.503906 L 637.367188 307.511719 L 634.863281 307.523438 L 633.34375 307.535156 L 632.449219 307.542969 L 629.765625 307.574219 L 627.976562 307.601562 L 626.992188 307.621094 L 625.742188 307.648438 L 624.847656 307.675781 L 623.863281 307.714844 L 623.328125 307.742188 L 622.609375 307.808594 L 622.523438 307.980469 L 622.789062 308.019531 L 623.328125 308.058594 L 624.042969 308.09375 L 625.117188 308.128906 L 626.1875 308.15625 L 628.066406 308.195312 L 629.675781 308.222656 L 630.929688 308.238281 L 633.34375 308.261719 L 634.328125 308.273438 L 636.652344 308.289062 L 639.066406 308.304688 L 642.019531 308.316406 L 644.253906 308.320312 L 647.832031 308.324219 L 652.394531 308.324219 L 657.757812 308.320312 L 661.15625 308.3125 L 663.484375 308.304688 L 665.003906 308.296875 L 666.882812 308.285156 L 668.222656 308.277344 L 669.476562 308.265625 L 670.996094 308.25 L 670.996094 308.019531 L 648.90625 308.019531 L 648.90625 307.910156 L 683.246094 307.910156 L 683.335938 308.285156 L 681.457031 308.3125 L 679.132812 308.335938 L 676.898438 308.355469 L 674.574219 308.375 L 671.261719 308.390625 L 668.582031 308.402344 L 664.464844 308.417969 L 660.710938 308.425781 L 656.773438 308.429688 L 653.285156 308.433594 L 645.507812 308.433594 L 641.570312 308.425781 L 638.441406 308.417969 L 635.578125 308.410156 L 632.71875 308.398438 L 629.140625 308.378906 L 626.816406 308.359375 L 624.398438 308.339844 L 621.984375 308.316406 L 619.839844 308.289062 L 618.40625 308.269531 L 616.976562 308.246094 L 615.457031 308.21875 L 614.027344 308.183594 L 612.953125 308.15625 L 611.96875 308.121094 L 611.253906 308.089844 L 610.539062 308.046875 L 610.179688 308.011719 L 610 307.980469 Z M 610 307.832031 "/>
<path style=" stroke:none;fill-rule:nonzero;fill:rgb(83.921569%,15.686275%,22.352941%);fill-opacity:1;" d="M 610 311.597656 L 683.335938 311.597656 L 683.335938 311.644531 L 652.773438 311.644531 L 652.773438 312.042969 L 640.476562 312.042969 L 640.476562 311.644531 L 610 311.644531 Z M 610 311.597656 "/>
<g style="fill:rgb(0%,0%,0%);fill-opacity:1;">
  <use xlink:href="#glyph0-1" x="21.957031" y="317.018555"/>
  <use xlink:href="#glyph0-2" x="27.291016" y="317.018555"/>
  <use xlink:href="#glyph0-1" x="29.958008" y="317.018555"/>
</g>
<g style="fill:rgb(0%,0%,0%);fill-opacity:1;">
  <use xlink:href="#glyph0-1" x="21.957031" y="230.948242"/>
  <use xlink:href="#glyph0-2" x="27.291016" y="230.948242"/>
  <use xlink:href="#glyph0-3" x="29.958008" y="230.948242"/>
</g>
<g style="fill:rgb(0%,0%,0%);fill-opacity:1;">
  <use xlink:href="#glyph0-4" x="21.957031" y="144.87793"/>
  <use xlink:href="#glyph0-2" x="27.291016" y="144.87793"/>
  <use xlink:href="#glyph0-1" x="29.958008" y="144.87793"/>
</g>
<g style="fill:rgb(0%,0%,0%);fill-opacity:1;">
  <use xlink:href="#glyph0-4" x="21.957031" y="58.811523"/>
  <use xlink:href="#glyph0-2" x="27.291016" y="58.811523"/>
  <use xlink:href="#glyph0-3" x="29.958008" y="58.811523"/>
</g>
<g style="fill:rgb(0%,0%,0%);fill-opacity:1;">
  <use xlink:href="#glyph0-4" x="103.296875" y="338.19043"/>
</g>
<g style="fill:rgb(0%,0%,0%);fill-opacity:1;">
  <use xlink:href="#glyph0-5" x="180.492188" y="338.19043"/>
</g>
<g style="fill:rgb(0%,0%,0%);fill-opacity:1;">
  <use xlink:href="#glyph0-6" x="257.6875" y="338.19043"/>
</g>
<g style="fill:rgb(0%,0%,0%);fill-opacity:1;">
  <use xlink:href="#glyph0-7" x="334.886719" y="338.19043"/>
</g>
<g style="fill:rgb(0%,0%,0%);fill-opacity:1;">
  <use xlink:href="#glyph0-3" x="412.082031" y="338.19043"/>
</g>
<g style="fill:rgb(0%,0%,0%);fill-opacity:1;">
  <use xlink:href="#glyph0-8" x="489.277344" y="338.19043"/>
</g>
<g style="fill:rgb(0%,0%,0%);fill-opacity:1;">
  <use xlink:href="#glyph0-9" x="566.472656" y="338.19043"/>
</g>
<g style="fill:rgb(0%,0%,0%);fill-opacity:1;">
  <use xlink:href="#glyph0-10" x="643.667969" y="338.19043"/>
</g>
<g style="fill:rgb(0%,0%,0%);fill-opacity:1;">
  <use xlink:href="#glyph1-1" x="14.412109" y="178.015625"/>
  <use xlink:href="#glyph1-2" x="14.412109" y="170.011719"/>
  <use xlink:href="#glyph1-3" x="14.412109" y="167.347656"/>
  <use xlink:href="#glyph1-4" x="14.412109" y="164.011719"/>
</g>
</g>
</svg>
