<?xml version="1.0" encoding="UTF-8"?>
<svg xmlns="http://www.w3.org/2000/svg" xmlns:xlink="http://www.w3.org/1999/xlink" width="720pt" height="360pt" viewBox="0 0 720 360" version="1.1">
<defs>
<g>
<symbol overflow="visible" id="glyph0-0">
<path style="stroke:none;" d=""/>
</symbol>
<symbol overflow="visible" id="glyph0-1">
<path style="stroke:none;" d="M 2.640625 -6.796875 C 2 -6.796875 1.421875 -6.53125 1.078125 -6.046875 C 0.640625 -5.453125 0.40625 -4.546875 0.40625 -3.296875 C 0.40625 -1 1.1875 0.21875 2.640625 0.21875 C 4.078125 0.21875 4.859375 -1 4.859375 -3.234375 C 4.859375 -4.5625 4.65625 -5.4375 4.203125 -6.046875 C 3.84375 -6.53125 3.28125 -6.796875 2.640625 -6.796875 Z M 2.640625 -6.046875 C 3.546875 -6.046875 4 -5.125 4 -3.3125 C 4 -1.375 3.5625 -0.484375 2.625 -0.484375 C 1.734375 -0.484375 1.28125 -1.421875 1.28125 -3.28125 C 1.28125 -5.140625 1.734375 -6.046875 2.640625 -6.046875 Z M 2.640625 -6.046875 "/>
</symbol>
<symbol overflow="visible" id="glyph0-2">
<path style="stroke:none;" d="M 1.828125 -1 L 0.828125 -1 L 0.828125 0 L 1.828125 0 Z M 1.828125 -1 "/>
</symbol>
<symbol overflow="visible" id="glyph0-3">
<path style="stroke:none;" d="M 4.5625 -6.796875 L 1.0625 -6.796875 L 0.546875 -3.09375 L 1.328125 -3.09375 C 1.71875 -3.5625 2.046875 -3.734375 2.578125 -3.734375 C 3.484375 -3.734375 4.0625 -3.109375 4.0625 -2.09375 C 4.0625 -1.125 3.484375 -0.53125 2.578125 -0.53125 C 1.828125 -0.53125 1.375 -0.90625 1.1875 -1.671875 L 0.328125 -1.671875 C 0.453125 -1.109375 0.546875 -0.84375 0.75 -0.59375 C 1.125 -0.078125 1.828125 0.21875 2.59375 0.21875 C 3.96875 0.21875 4.921875 -0.78125 4.921875 -2.21875 C 4.921875 -3.5625 4.03125 -4.484375 2.71875 -4.484375 C 2.25 -4.484375 1.859375 -4.359375 1.46875 -4.0625 L 1.734375 -5.96875 L 4.5625 -5.96875 Z M 4.5625 -6.796875 "/>
</symbol>
<symbol overflow="visible" id="glyph0-4">
<path style="stroke:none;" d="M 2.484375 -4.84375 L 2.484375 0 L 3.328125 0 L 3.328125 -6.796875 L 2.765625 -6.796875 C 2.46875 -5.75 2.28125 -5.609375 0.984375 -5.453125 L 0.984375 -4.84375 Z M 2.484375 -4.84375 "/>
</symbol>
<symbol overflow="visible" id="glyph0-5">
<path style="stroke:none;" d="M 4.859375 -0.828125 L 1.28125 -0.828125 C 1.359375 -1.390625 1.671875 -1.75 2.5 -2.234375 L 3.46875 -2.75 C 4.40625 -3.265625 4.90625 -3.96875 4.90625 -4.8125 C 4.90625 -5.375 4.671875 -5.90625 4.265625 -6.265625 C 3.859375 -6.625 3.375 -6.796875 2.71875 -6.796875 C 1.859375 -6.796875 1.21875 -6.5 0.84375 -5.921875 C 0.609375 -5.5625 0.5 -5.125 0.484375 -4.4375 L 1.328125 -4.4375 C 1.359375 -4.90625 1.40625 -5.1875 1.53125 -5.40625 C 1.75 -5.8125 2.1875 -6.0625 2.703125 -6.0625 C 3.46875 -6.0625 4.03125 -5.515625 4.03125 -4.78125 C 4.03125 -4.25 3.71875 -3.796875 3.125 -3.4375 L 2.234375 -2.9375 C 0.8125 -2.140625 0.40625 -1.5 0.328125 0 L 4.859375 0 Z M 4.859375 -0.828125 "/>
</symbol>
<symbol overflow="visible" id="glyph0-6">
<path style="stroke:none;" d="M 2.125 -3.125 L 2.578125 -3.125 C 3.515625 -3.125 3.984375 -2.703125 3.984375 -1.890625 C 3.984375 -1.03125 3.46875 -0.53125 2.578125 -0.53125 C 1.65625 -0.53125 1.203125 -0.984375 1.15625 -1.96875 L 0.3125 -1.96875 C 0.34375 -1.421875 0.4375 -1.078125 0.609375 -0.765625 C 0.953125 -0.109375 1.625 0.21875 2.546875 0.21875 C 3.953125 0.21875 4.859375 -0.609375 4.859375 -1.90625 C 4.859375 -2.765625 4.515625 -3.25 3.703125 -3.515625 C 4.34375 -3.765625 4.65625 -4.25 4.65625 -4.9375 C 4.65625 -6.109375 3.875 -6.796875 2.578125 -6.796875 C 1.203125 -6.796875 0.484375 -6.046875 0.453125 -4.609375 L 1.296875 -4.609375 C 1.3125 -5.015625 1.34375 -5.25 1.453125 -5.453125 C 1.640625 -5.828125 2.0625 -6.0625 2.59375 -6.0625 C 3.34375 -6.0625 3.796875 -5.625 3.796875 -4.90625 C 3.796875 -4.421875 3.609375 -4.140625 3.25 -3.984375 C 3.015625 -3.890625 2.71875 -3.84375 2.125 -3.84375 Z M 2.125 -3.125 "/>
</symbol>
<symbol overflow="visible" id="glyph0-7">
<path style="stroke:none;" d="M 3.140625 -1.625 L 3.140625 0 L 3.984375 0 L 3.984375 -1.625 L 4.984375 -1.625 L 4.984375 -2.390625 L 3.984375 -2.390625 L 3.984375 -6.796875 L 3.359375 -6.796875 L 0.265625 -2.515625 L 0.265625 -1.625 Z M 3.140625 -2.390625 L 1 -2.390625 L 3.140625 -5.359375 Z M 3.140625 -2.390625 "/>
</symbol>
<symbol overflow="visible" id="glyph0-8">
<path style="stroke:none;" d="M 4.78125 -5.03125 C 4.609375 -6.140625 3.890625 -6.796875 2.84375 -6.796875 C 2.09375 -6.796875 1.421875 -6.4375 1.03125 -5.828125 C 0.609375 -5.171875 0.40625 -4.34375 0.40625 -3.09375 C 0.40625 -1.953125 0.578125 -1.234375 0.984375 -0.625 C 1.359375 -0.078125 1.953125 0.21875 2.703125 0.21875 C 3.984375 0.21875 4.921875 -0.734375 4.921875 -2.078125 C 4.921875 -3.34375 4.0625 -4.234375 2.84375 -4.234375 C 2.171875 -4.234375 1.640625 -3.96875 1.28125 -3.46875 C 1.28125 -5.125 1.828125 -6.046875 2.796875 -6.046875 C 3.390625 -6.046875 3.796875 -5.671875 3.9375 -5.03125 Z M 2.734375 -3.484375 C 3.546875 -3.484375 4.0625 -2.921875 4.0625 -2 C 4.0625 -1.15625 3.484375 -0.53125 2.703125 -0.53125 C 1.921875 -0.53125 1.328125 -1.1875 1.328125 -2.046875 C 1.328125 -2.890625 1.90625 -3.484375 2.734375 -3.484375 Z M 2.734375 -3.484375 "/>
</symbol>
<symbol overflow="visible" id="glyph0-9">
<path style="stroke:none;" d="M 4.984375 -6.796875 L 0.4375 -6.796875 L 0.4375 -5.96875 L 4.109375 -5.96875 C 2.5 -3.65625 1.828125 -2.234375 1.328125 0 L 2.21875 0 C 2.59375 -2.171875 3.453125 -4.046875 4.984375 -6.09375 Z M 4.984375 -6.796875 "/>
</symbol>
<symbol overflow="visible" id="glyph0-10">
<path style="stroke:none;" d="M 3.75 -3.578125 C 4.453125 -4 4.6875 -4.34375 4.6875 -4.984375 C 4.6875 -6.046875 3.84375 -6.796875 2.640625 -6.796875 C 1.4375 -6.796875 0.59375 -6.046875 0.59375 -4.984375 C 0.59375 -4.359375 0.828125 -4.015625 1.515625 -3.578125 C 0.734375 -3.203125 0.359375 -2.640625 0.359375 -1.890625 C 0.359375 -0.640625 1.296875 0.21875 2.640625 0.21875 C 3.984375 0.21875 4.921875 -0.640625 4.921875 -1.875 C 4.921875 -2.640625 4.53125 -3.203125 3.75 -3.578125 Z M 2.640625 -6.046875 C 3.359375 -6.046875 3.8125 -5.625 3.8125 -4.96875 C 3.8125 -4.34375 3.34375 -3.921875 2.640625 -3.921875 C 1.921875 -3.921875 1.453125 -4.34375 1.453125 -4.984375 C 1.453125 -5.625 1.921875 -6.046875 2.640625 -6.046875 Z M 2.640625 -3.203125 C 3.484375 -3.203125 4.0625 -2.671875 4.0625 -1.875 C 4.0625 -1.0625 3.484375 -0.53125 2.625 -0.53125 C 1.796875 -0.53125 1.21875 -1.078125 1.21875 -1.875 C 1.21875 -2.671875 1.796875 -3.203125 2.640625 -3.203125 Z M 2.640625 -3.203125 "/>
</symbol>
<symbol overflow="visible" id="glyph0-11">
<path style="stroke:none;" d="M 0.515625 -1.546875 C 0.671875 -0.4375 1.40625 0.21875 2.4375 0.21875 C 3.1875 0.21875 3.859375 -0.140625 4.265625 -0.75 C 4.6875 -1.40625 4.890625 -2.25 4.890625 -3.484375 C 4.890625 -4.625 4.703125 -5.359375 4.3125 -5.953125 C 3.9375 -6.5 3.34375 -6.796875 2.59375 -6.796875 C 1.296875 -6.796875 0.359375 -5.84375 0.359375 -4.515625 C 0.359375 -3.25 1.234375 -2.34375 2.453125 -2.34375 C 3.09375 -2.34375 3.5625 -2.578125 4.015625 -3.109375 C 4 -1.453125 3.46875 -0.53125 2.5 -0.53125 C 1.90625 -0.53125 1.484375 -0.90625 1.359375 -1.546875 Z M 2.578125 -6.0625 C 3.375 -6.0625 3.96875 -5.40625 3.96875 -4.53125 C 3.96875 -3.6875 3.375 -3.09375 2.546875 -3.09375 C 1.734375 -3.09375 1.234375 -3.671875 1.234375 -4.578125 C 1.234375 -5.4375 1.796875 -6.0625 2.578125 -6.0625 Z M 2.578125 -6.0625 "/>
</symbol>
<symbol overflow="visible" id="glyph1-0">
<path style="stroke:none;" d=""/>
</symbol>
<symbol overflow="visible" id="glyph1-1">
<path style="stroke:none;" d="M 0 -0.953125 L 0 -4.890625 C 0 -5.71875 -0.234375 -6.34375 -0.734375 -6.796875 C -1.1875 -7.234375 -1.8125 -7.46875 -2.5 -7.46875 C -3.546875 -7.46875 -4.1875 -7 -4.625 -5.875 C -4.984375 -6.671875 -5.640625 -7.09375 -6.53125 -7.09375 C -7.15625 -7.09375 -7.734375 -6.859375 -8.140625 -6.390625 C -8.5625 -5.9375 -8.75 -5.34375 -8.75 -4.5 L -8.75 -0.953125 Z M -4.984375 -2.0625 L -7.765625 -2.0625 L -7.765625 -4.21875 C -7.765625 -4.84375 -7.6875 -5.203125 -7.453125 -5.5 C -7.21875 -5.8125 -6.859375 -5.96875 -6.375 -5.96875 C -5.90625 -5.96875 -5.53125 -5.8125 -5.296875 -5.5 C -5.0625 -5.203125 -4.984375 -4.84375 -4.984375 -4.21875 Z M -0.984375 -2.0625 L -4 -2.0625 L -4 -4.78125 C -4 -5.328125 -3.859375 -5.6875 -3.578125 -5.953125 C -3.296875 -6.21875 -2.921875 -6.359375 -2.484375 -6.359375 C -2.0625 -6.359375 -1.6875 -6.21875 -1.40625 -5.953125 C -1.109375 -5.6875 -0.984375 -5.328125 -0.984375 -4.78125 Z M -0.984375 -2.0625 "/>
</symbol>
<symbol overflow="visible" id="glyph1-2">
<path style="stroke:none;" d="M -6.28125 -1.796875 L -6.28125 -0.796875 L 0 -0.796875 L 0 -1.796875 Z M -8.75 -1.796875 L -8.75 -0.796875 L -7.484375 -0.796875 L -7.484375 -1.796875 Z M -8.75 -1.796875 "/>
</symbol>
<symbol overflow="visible" id="glyph1-3">
<path style="stroke:none;" d="M -6.28125 -3.046875 L -6.28125 -2.015625 L -8.015625 -2.015625 L -8.015625 -1.015625 L -6.28125 -1.015625 L -6.28125 -0.171875 L -5.46875 -0.171875 L -5.46875 -1.015625 L -0.71875 -1.015625 C -0.078125 -1.015625 0.28125 -1.453125 0.28125 -2.234375 C 0.28125 -2.46875 0.25 -2.71875 0.1875 -3.046875 L -0.640625 -3.046875 C -0.609375 -2.921875 -0.59375 -2.765625 -0.59375 -2.5625 C -0.59375 -2.140625 -0.71875 -2.015625 -1.15625 -2.015625 L -5.46875 -2.015625 L -5.46875 -3.046875 Z M -6.28125 -3.046875 "/>
</symbol>
<symbol overflow="visible" id="glyph1-4">
<path style="stroke:none;" d="M -4.53125 -5.25 C -5.765625 -5.25 -6.46875 -4.421875 -6.46875 -2.96875 C -6.46875 -1.515625 -5.71875 -0.5625 -4.546875 -0.5625 C -3.5625 -0.5625 -3.09375 -1.0625 -2.734375 -2.5625 L -2.515625 -3.484375 C -2.34375 -4.1875 -2.09375 -4.46875 -1.625 -4.46875 C -1.046875 -4.46875 -0.640625 -3.875 -0.640625 -3 C -0.640625 -2.453125 -0.796875 -2 -1.0625 -1.75 C -1.25 -1.59375 -1.421875 -1.53125 -1.875 -1.46875 L -1.875 -0.40625 C -0.421875 -0.453125 0.28125 -1.265625 0.28125 -2.921875 C 0.28125 -4.5 -0.5 -5.515625 -1.71875 -5.515625 C -2.65625 -5.515625 -3.171875 -4.984375 -3.46875 -3.734375 L -3.703125 -2.765625 C -3.890625 -1.953125 -4.15625 -1.609375 -4.59375 -1.609375 C -5.171875 -1.609375 -5.546875 -2.125 -5.546875 -2.9375 C -5.546875 -3.75 -5.203125 -4.171875 -4.53125 -4.203125 Z M -4.53125 -5.25 "/>
</symbol>
</g>
</defs>
<g id="surface99872">
<rect x="0" y="0" width="720" height="360" style="fill:rgb(100%,100%,100%);fill-opacity:1;stroke:none;"/>
<path style=" stroke:none;fill-rule:nonzero;fill:rgb(14.509804%,36.078431%,60%);fill-opacity:1;" d="M 69.628906 312.316406 L 69.699219 312.316406 L 69.914062 312.3125 L 70.914062 312.304688 L 72.203125 312.300781 L 73.988281 312.296875 L 75.847656 312.292969 L 77.203125 312.289062 L 78.417969 312.289062 L 81.207031 312.285156 L 82.992188 312.28125 L 87.28125 312.28125 L 88.996094 312.277344 L 111.859375 312.277344 L 115.21875 312.28125 L 118.21875 312.285156 L 119.578125 312.285156 L 121.722656 312.289062 L 123.367188 312.289062 L 124.507812 312.292969 L 125.796875 312.296875 L 126.9375 312.300781 L 127.796875 312.304688 L 128.222656 312.308594 L 118.21875 312.308594 L 117.71875 312.304688 L 117.148438 312.300781 L 116.078125 312.296875 L 115.003906 312.296875 L 113.503906 312.292969 L 112.148438 312.289062 L 106.929688 312.289062 L 105.285156 312.285156 L 97.140625 312.285156 L 94.355469 312.289062 L 89.207031 312.289062 L 87.421875 312.292969 L 86.207031 312.292969 L 84.707031 312.296875 L 83.636719 312.296875 L 82.421875 312.300781 L 81.707031 312.300781 L 81.0625 312.304688 L 80.492188 312.308594 L 80.0625 312.308594 L 79.777344 312.3125 L 79.632812 312.316406 L 79.632812 312.328125 L 79.777344 312.332031 L 80.132812 312.335938 L 81.0625 312.339844 L 82.421875 312.347656 L 83.992188 312.347656 L 85.492188 312.351562 L 86.351562 312.351562 L 87.492188 312.355469 L 89.28125 312.355469 L 91.851562 312.359375 L 107.714844 312.359375 L 110.359375 312.355469 L 113.433594 312.355469 L 114.503906 312.351562 L 115.21875 312.351562 L 116.292969 312.347656 L 117.148438 312.34375 L 117.792969 312.34375 L 118.21875 312.339844 L 128.222656 312.339844 L 127.796875 312.34375 L 127.152344 312.347656 L 126.507812 312.347656 L 125.507812 312.351562 L 124.367188 312.355469 L 122.722656 312.355469 L 121.363281 312.359375 L 119.578125 312.359375 L 117.933594 312.363281 L 116.148438 312.363281 L 113.503906 312.367188 L 104.929688 312.367188 L 101.929688 312.371094 L 99.140625 312.371094 L 96.140625 312.367188 L 87.351562 312.367188 L 84.707031 312.363281 L 80.847656 312.363281 L 78.847656 312.359375 L 76.273438 312.355469 L 74.703125 312.351562 L 73.632812 312.351562 L 72.417969 312.347656 L 71.558594 312.34375 L 70.558594 312.339844 L 69.84375 312.332031 L 69.628906 312.328125 Z M 69.628906 312.316406 "/>
<path style=" stroke:none;fill-rule:nonzero;fill:rgb(96.862745%,70.196078%,16.862745%);fill-opacity:1;" d="M 69.628906 310.832031 L 69.699219 310.828125 L 69.699219 310.820312 L 69.988281 310.800781 L 70.703125 310.777344 L 71.628906 310.753906 L 72.628906 310.738281 L 73.273438 310.726562 L 74.34375 310.714844 L 75.273438 310.707031 L 77.632812 310.6875 L 80.632812 310.667969 L 82.277344 310.660156 L 84.136719 310.652344 L 86.777344 310.644531 L 87.992188 310.640625 L 91.710938 310.636719 L 95.925781 310.632812 L 100.570312 310.628906 L 102.714844 310.628906 L 105.644531 310.632812 L 109.644531 310.636719 L 111.933594 310.640625 L 113.71875 310.644531 L 115.578125 310.652344 L 117.863281 310.660156 L 120.007812 310.667969 L 123.4375 310.691406 L 124.867188 310.707031 L 126.082031 310.722656 L 127.152344 310.738281 L 127.796875 310.753906 L 128.222656 310.769531 L 118.292969 310.769531 L 117.71875 310.753906 L 117.078125 310.742188 L 116.003906 310.730469 L 114.933594 310.71875 L 113.863281 310.710938 L 111.859375 310.699219 L 110.144531 310.691406 L 108.003906 310.6875 L 105.929688 310.683594 L 103.570312 310.679688 L 98.355469 310.679688 L 94.925781 310.683594 L 92.925781 310.6875 L 91.496094 310.6875 L 89.496094 310.695312 L 88.28125 310.699219 L 87.566406 310.703125 L 85.421875 310.71875 L 83.992188 310.730469 L 83.207031 310.738281 L 82.207031 310.75 L 81.492188 310.761719 L 80.707031 310.777344 L 80.277344 310.792969 L 79.703125 310.820312 L 79.632812 310.898438 L 79.847656 310.914062 L 80.277344 310.929688 L 80.847656 310.945312 L 81.707031 310.960938 L 82.5625 310.976562 L 84.0625 310.992188 L 85.351562 311.003906 L 86.351562 311.011719 L 88.28125 311.019531 L 89.066406 311.023438 L 90.921875 311.03125 L 92.851562 311.039062 L 95.210938 311.042969 L 96.996094 311.046875 L 107.789062 311.046875 L 110.503906 311.042969 L 112.359375 311.039062 L 113.574219 311.035156 L 115.078125 311.03125 L 116.148438 311.027344 L 117.148438 311.023438 L 118.363281 311.015625 L 118.363281 310.914062 L 100.714844 310.914062 L 100.714844 310.863281 L 128.152344 310.863281 L 128.222656 311.03125 L 126.722656 311.042969 L 124.867188 311.054688 L 123.078125 311.0625 L 121.222656 311.070312 L 118.578125 311.078125 L 116.433594 311.082031 L 113.148438 311.089844 L 110.144531 311.09375 L 107 311.09375 L 104.214844 311.097656 L 97.996094 311.097656 L 94.855469 311.09375 L 92.351562 311.089844 L 87.78125 311.082031 L 84.921875 311.070312 L 83.0625 311.0625 L 81.132812 311.054688 L 79.203125 311.042969 L 77.488281 311.035156 L 76.347656 311.023438 L 75.203125 311.015625 L 73.988281 311 L 72.84375 310.988281 L 71.988281 310.972656 L 71.203125 310.957031 L 70.628906 310.945312 L 70.058594 310.925781 L 69.773438 310.910156 L 69.628906 310.898438 Z M 69.628906 310.832031 "/>
<path style=" stroke:none;fill-rule:nonzero;fill:rgb(6.27451%,58.823529%,28.235294%);fill-opacity:1;" d="M 131.308594 314.371094 L 131.371094 314.367188 L 156.726562 313.011719 L 164.425781 313.011719 L 189.902344 314.371094 L 180.953125 314.371094 L 174.566406 314.015625 L 146.582031 314.015625 L 140.324219 314.371094 L 131.308594 314.371094 L 149.273438 313.867188 L 172 313.867188 L 160.667969 313.234375 L 160.542969 313.230469 L 160.417969 313.234375 L 149.210938 313.867188 L 149.273438 313.867188 Z M 131.308594 314.371094 "/>
<path style=" stroke:none;fill-rule:nonzero;fill:rgb(14.509804%,36.078431%,60%);fill-opacity:1;" d="M 131.308594 300.570312 L 131.378906 300.566406 L 131.378906 300.441406 L 131.59375 300.25 L 132.09375 300.003906 L 132.59375 299.835938 L 133.882812 299.53125 L 135.667969 299.242188 L 137.523438 299.015625 L 138.882812 298.882812 L 140.097656 298.78125 L 142.882812 298.59375 L 144.671875 298.496094 L 146.601562 298.410156 L 148.957031 298.324219 L 150.671875 298.269531 L 154.53125 298.191406 L 157.390625 298.152344 L 159.605469 298.136719 L 164.394531 298.136719 L 167.25 298.160156 L 169.324219 298.183594 L 171.609375 298.226562 L 173.539062 298.269531 L 176.898438 298.382812 L 179.898438 298.527344 L 181.257812 298.609375 L 183.402344 298.765625 L 185.042969 298.921875 L 186.1875 299.054688 L 187.472656 299.242188 L 188.617188 299.472656 L 189.476562 299.730469 L 189.902344 299.953125 L 179.898438 299.953125 L 179.398438 299.746094 L 178.828125 299.589844 L 177.757812 299.378906 L 176.683594 299.230469 L 175.183594 299.082031 L 173.824219 298.988281 L 171.96875 298.890625 L 170.324219 298.828125 L 168.609375 298.78125 L 166.964844 298.75 L 163.820312 298.722656 L 160.175781 298.722656 L 158.820312 298.730469 L 156.03125 298.773438 L 154.53125 298.808594 L 152.386719 298.878906 L 150.886719 298.945312 L 149.101562 299.046875 L 147.886719 299.132812 L 146.386719 299.265625 L 145.3125 299.386719 L 144.097656 299.554688 L 143.386719 299.679688 L 142.742188 299.824219 L 142.171875 299.992188 L 141.742188 300.171875 L 141.457031 300.359375 L 141.3125 300.542969 L 141.3125 301.335938 L 141.457031 301.519531 L 141.8125 301.734375 L 142.742188 302.046875 L 144.097656 302.316406 L 145.671875 302.53125 L 147.171875 302.683594 L 148.03125 302.757812 L 149.171875 302.839844 L 150.960938 302.941406 L 153.53125 303.042969 L 155.03125 303.082031 L 157.320312 303.125 L 159.675781 303.144531 L 162.820312 303.144531 L 165.609375 303.125 L 167.464844 303.097656 L 169.394531 303.058594 L 172.039062 302.972656 L 173.683594 302.890625 L 175.113281 302.792969 L 176.183594 302.695312 L 176.898438 302.613281 L 177.96875 302.457031 L 178.828125 302.28125 L 179.472656 302.101562 L 179.898438 301.929688 L 189.902344 301.929688 L 189.476562 302.132812 L 188.832031 302.332031 L 188.1875 302.480469 L 187.1875 302.660156 L 186.046875 302.816406 L 184.402344 302.996094 L 183.042969 303.113281 L 181.257812 303.242188 L 179.613281 303.339844 L 177.828125 303.425781 L 175.183594 303.527344 L 173.46875 303.578125 L 171.609375 303.625 L 169.394531 303.664062 L 166.609375 303.703125 L 163.605469 303.722656 L 160.820312 303.726562 L 157.820312 303.71875 L 155.605469 303.695312 L 152.675781 303.652344 L 149.03125 303.558594 L 146.386719 303.460938 L 144.3125 303.363281 L 142.527344 303.261719 L 140.527344 303.125 L 137.953125 302.898438 L 136.382812 302.726562 L 135.308594 302.582031 L 134.09375 302.382812 L 133.238281 302.203125 L 132.238281 301.917969 L 131.523438 301.554688 L 131.308594 301.273438 Z M 131.308594 300.570312 "/>
<path style=" stroke:none;fill-rule:nonzero;fill:rgb(96.862745%,70.196078%,16.862745%);fill-opacity:1;" d="M 131.308594 310.867188 L 131.378906 310.867188 L 131.378906 310.835938 L 131.664062 310.765625 L 132.378906 310.671875 L 133.308594 310.59375 L 134.308594 310.53125 L 134.953125 310.5 L 136.023438 310.453125 L 136.953125 310.417969 L 139.3125 310.351562 L 142.3125 310.285156 L 143.957031 310.257812 L 145.8125 310.230469 L 148.457031 310.203125 L 149.671875 310.191406 L 153.390625 310.167969 L 157.605469 310.152344 L 162.25 310.148438 L 164.394531 310.148438 L 167.324219 310.15625 L 171.324219 310.171875 L 173.613281 310.1875 L 175.398438 310.203125 L 177.253906 310.222656 L 179.542969 310.253906 L 181.6875 310.289062 L 183.402344 310.328125 L 185.117188 310.371094 L 186.546875 310.421875 L 187.761719 310.476562 L 188.832031 310.539062 L 189.476562 310.59375 L 189.902344 310.648438 L 179.972656 310.648438 L 179.398438 310.59375 L 178.757812 310.554688 L 177.683594 310.503906 L 176.613281 310.464844 L 175.539062 310.4375 L 173.539062 310.394531 L 171.824219 310.371094 L 169.679688 310.351562 L 167.609375 310.335938 L 165.25 310.328125 L 163.820312 310.324219 L 160.035156 310.324219 L 156.605469 310.335938 L 154.605469 310.347656 L 153.175781 310.359375 L 151.171875 310.382812 L 149.957031 310.402344 L 149.246094 310.414062 L 147.101562 310.460938 L 145.671875 310.503906 L 144.886719 310.53125 L 143.886719 310.578125 L 143.171875 310.621094 L 142.382812 310.683594 L 141.957031 310.726562 L 141.382812 310.832031 L 141.3125 311.109375 L 141.527344 311.167969 L 141.957031 311.230469 L 142.527344 311.285156 L 143.386719 311.34375 L 144.242188 311.390625 L 145.742188 311.449219 L 147.027344 311.488281 L 148.03125 311.515625 L 149.957031 311.558594 L 150.746094 311.570312 L 152.601562 311.597656 L 154.53125 311.621094 L 156.890625 311.640625 L 158.675781 311.648438 L 161.535156 311.65625 L 165.179688 311.65625 L 169.46875 311.648438 L 172.183594 311.632812 L 174.039062 311.621094 L 175.253906 311.613281 L 176.753906 311.59375 L 177.828125 311.578125 L 178.828125 311.5625 L 180.042969 311.535156 L 180.042969 311.167969 L 162.390625 311.167969 L 162.390625 310.996094 L 189.832031 310.992188 L 189.902344 311.59375 L 188.402344 311.636719 L 186.546875 311.675781 L 184.757812 311.707031 L 182.902344 311.734375 L 180.257812 311.761719 L 178.113281 311.78125 L 174.824219 311.800781 L 171.824219 311.816406 L 168.679688 311.824219 L 165.894531 311.828125 L 162.605469 311.832031 L 159.675781 311.828125 L 156.53125 311.820312 L 154.03125 311.808594 L 151.746094 311.792969 L 149.457031 311.769531 L 146.601562 311.738281 L 144.742188 311.714844 L 142.8125 311.679688 L 140.882812 311.640625 L 139.167969 311.601562 L 138.027344 311.570312 L 136.882812 311.53125 L 135.667969 311.484375 L 134.523438 311.433594 L 133.667969 311.386719 L 132.878906 311.332031 L 132.308594 311.28125 L 131.738281 311.210938 L 131.453125 311.15625 L 131.308594 311.109375 Z M 131.308594 310.867188 "/>
<path style=" stroke:none;fill-rule:nonzero;fill:rgb(83.921569%,15.686275%,22.352941%);fill-opacity:1;" d="M 131.308594 304.90625 L 189.902344 304.90625 L 189.902344 305.339844 L 165.484375 305.34375 L 165.484375 308.96875 L 155.65625 308.96875 L 155.65625 305.347656 L 155.515625 305.339844 L 131.308594 305.339844 Z M 131.308594 304.90625 "/>
<path style=" stroke:none;fill-rule:nonzero;fill:rgb(6.27451%,58.823529%,28.235294%);fill-opacity:1;" d="M 192.988281 313.367188 L 193.050781 313.363281 L 218.402344 308.257812 L 226.105469 308.257812 L 251.582031 313.375 L 242.628906 313.375 L 236.246094 312.039062 L 208.261719 312.039062 L 202.003906 313.367188 L 192.988281 313.367188 L 210.953125 311.484375 L 233.679688 311.480469 L 222.347656 309.09375 L 222.222656 309.089844 L 222.097656 309.105469 L 210.890625 311.480469 L 210.953125 311.484375 Z M 192.988281 313.367188 "/>
<path style=" stroke:none;fill-rule:nonzero;fill:rgb(83.921569%,15.686275%,22.352941%);fill-opacity:1;" d="M 192.988281 43.277344 L 251.582031 43.277344 L 251.582031 71.515625 L 227.164062 71.765625 L 227.164062 307.078125 L 217.335938 307.078125 L 217.335938 72.011719 L 217.195312 71.515625 L 192.988281 71.515625 Z M 192.988281 43.277344 "/>
<path style=" stroke:none;fill-rule:nonzero;fill:rgb(6.27451%,58.823529%,28.235294%);fill-opacity:1;" d="M 254.667969 301 L 254.730469 300.78125 L 280.082031 71.742188 L 287.78125 71.742188 L 313.261719 301.214844 L 304.308594 301.214844 L 297.925781 241.3125 L 269.941406 241.3125 L 263.679688 301 L 254.667969 301 L 272.632812 216.535156 L 295.359375 216.320312 L 284.027344 109.234375 L 283.902344 109.019531 L 283.777344 109.664062 L 272.570312 216.320312 L 272.632812 216.535156 Z M 254.667969 301 "/>
<path style=" stroke:none;fill-rule:nonzero;fill:rgb(14.509804%,36.078431%,60%);fill-opacity:1;" d="M 254.667969 304.347656 L 254.738281 304.34375 L 254.738281 304.246094 L 254.953125 304.089844 L 255.453125 303.890625 L 255.953125 303.757812 L 257.238281 303.515625 L 259.027344 303.28125 L 260.882812 303.101562 L 262.242188 302.992188 L 263.457031 302.910156 L 266.242188 302.757812 L 268.03125 302.679688 L 269.957031 302.609375 L 272.316406 302.542969 L 274.03125 302.5 L 277.890625 302.433594 L 280.75 302.40625 L 282.964844 302.394531 L 287.75 302.394531 L 290.609375 302.410156 L 292.683594 302.429688 L 294.96875 302.464844 L 296.898438 302.5 L 300.257812 302.589844 L 303.257812 302.707031 L 304.617188 302.769531 L 306.757812 302.898438 L 308.402344 303.023438 L 309.546875 303.128906 L 310.832031 303.28125 L 311.976562 303.464844 L 312.832031 303.675781 L 313.261719 303.851562 L 303.257812 303.851562 L 302.757812 303.6875 L 302.1875 303.558594 L 301.113281 303.390625 L 300.042969 303.273438 L 298.542969 303.152344 L 297.183594 303.074219 L 295.328125 302.996094 L 293.683594 302.949219 L 291.96875 302.910156 L 290.324219 302.886719 L 287.179688 302.863281 L 283.535156 302.863281 L 282.179688 302.871094 L 279.390625 302.902344 L 277.890625 302.929688 L 275.746094 302.988281 L 274.246094 303.042969 L 272.460938 303.125 L 271.246094 303.195312 L 269.746094 303.300781 L 268.671875 303.394531 L 267.457031 303.53125 L 266.742188 303.632812 L 266.101562 303.75 L 265.527344 303.882812 L 265.101562 304.027344 L 264.8125 304.179688 L 264.671875 304.328125 L 264.671875 304.964844 L 264.8125 305.113281 L 265.171875 305.285156 L 266.101562 305.535156 L 267.457031 305.753906 L 269.03125 305.925781 L 270.53125 306.046875 L 271.386719 306.105469 L 272.53125 306.171875 L 274.316406 306.253906 L 276.890625 306.335938 L 278.390625 306.367188 L 280.675781 306.402344 L 283.035156 306.417969 L 286.179688 306.417969 L 288.964844 306.402344 L 290.824219 306.382812 L 292.753906 306.347656 L 295.398438 306.277344 L 297.042969 306.210938 L 298.46875 306.132812 L 299.542969 306.058594 L 300.257812 305.992188 L 301.328125 305.863281 L 302.1875 305.722656 L 302.828125 305.582031 L 303.257812 305.441406 L 313.261719 305.441406 L 312.832031 305.605469 L 312.191406 305.765625 L 311.546875 305.882812 L 310.546875 306.027344 L 309.402344 306.15625 L 307.761719 306.300781 L 306.402344 306.394531 L 304.617188 306.496094 L 302.972656 306.574219 L 301.1875 306.644531 L 298.542969 306.726562 L 296.828125 306.765625 L 294.96875 306.804688 L 292.753906 306.835938 L 289.96875 306.867188 L 286.964844 306.882812 L 284.179688 306.886719 L 281.175781 306.878906 L 278.960938 306.863281 L 276.03125 306.824219 L 272.386719 306.75 L 269.746094 306.671875 L 267.671875 306.59375 L 265.886719 306.511719 L 263.886719 306.402344 L 261.3125 306.222656 L 259.742188 306.082031 L 258.667969 305.964844 L 257.453125 305.804688 L 256.597656 305.664062 L 255.597656 305.433594 L 254.882812 305.140625 L 254.667969 304.914062 Z M 254.667969 304.347656 "/>
<path style=" stroke:none;fill-rule:nonzero;fill:rgb(96.862745%,70.196078%,16.862745%);fill-opacity:1;" d="M 254.667969 309.617188 L 254.738281 309.613281 L 254.738281 309.546875 L 255.023438 309.398438 L 255.738281 309.195312 L 256.667969 309.027344 L 257.667969 308.894531 L 258.3125 308.824219 L 259.382812 308.722656 L 260.3125 308.652344 L 262.671875 308.503906 L 265.671875 308.363281 L 267.316406 308.304688 L 269.171875 308.246094 L 271.816406 308.183594 L 273.03125 308.160156 L 276.746094 308.109375 L 280.964844 308.074219 L 285.609375 308.066406 L 287.75 308.070312 L 290.679688 308.082031 L 294.683594 308.117188 L 296.96875 308.152344 L 298.757812 308.183594 L 300.613281 308.226562 L 302.902344 308.292969 L 305.042969 308.375 L 306.757812 308.453125 L 308.472656 308.550781 L 309.902344 308.660156 L 311.117188 308.773438 L 312.191406 308.914062 L 312.832031 309.027344 L 313.261719 309.144531 L 303.328125 309.144531 L 302.757812 309.027344 L 302.113281 308.941406 L 301.042969 308.832031 L 299.972656 308.75 L 298.898438 308.6875 L 296.898438 308.601562 L 295.183594 308.550781 L 293.039062 308.503906 L 290.96875 308.472656 L 288.609375 308.453125 L 287.179688 308.445312 L 283.394531 308.445312 L 279.960938 308.46875 L 277.960938 308.496094 L 276.53125 308.523438 L 274.53125 308.570312 L 273.316406 308.613281 L 272.601562 308.636719 L 270.457031 308.742188 L 269.03125 308.832031 L 268.242188 308.898438 L 267.242188 308.996094 L 266.527344 309.085938 L 265.742188 309.21875 L 265.3125 309.316406 L 264.742188 309.542969 L 264.671875 310.136719 L 264.886719 310.265625 L 265.3125 310.398438 L 265.886719 310.519531 L 266.742188 310.644531 L 267.601562 310.742188 L 269.101562 310.871094 L 270.386719 310.957031 L 271.386719 311.011719 L 273.316406 311.101562 L 274.101562 311.132812 L 275.960938 311.191406 L 277.890625 311.238281 L 280.25 311.277344 L 282.035156 311.296875 L 284.894531 311.3125 L 288.539062 311.3125 L 292.824219 311.292969 L 295.539062 311.265625 L 297.398438 311.242188 L 298.613281 311.21875 L 300.113281 311.179688 L 301.1875 311.148438 L 302.1875 311.109375 L 303.402344 311.054688 L 303.402344 310.265625 L 285.75 310.261719 L 285.75 309.890625 L 313.191406 309.886719 L 313.261719 311.179688 L 311.761719 311.269531 L 309.902344 311.355469 L 308.117188 311.421875 L 306.257812 311.480469 L 303.617188 311.542969 L 301.472656 311.582031 L 298.183594 311.628906 L 295.183594 311.65625 L 292.039062 311.675781 L 289.253906 311.6875 L 285.964844 311.691406 L 283.035156 311.683594 L 279.890625 311.664062 L 277.390625 311.636719 L 275.105469 311.605469 L 272.816406 311.5625 L 269.957031 311.492188 L 268.101562 311.433594 L 266.171875 311.367188 L 264.242188 311.285156 L 262.527344 311.195312 L 261.382812 311.125 L 260.242188 311.046875 L 259.027344 310.945312 L 257.882812 310.832031 L 257.023438 310.730469 L 256.238281 310.613281 L 255.667969 310.503906 L 255.09375 310.355469 L 254.808594 310.238281 L 254.667969 310.132812 Z M 254.667969 309.617188 "/>
<path style=" stroke:none;fill-rule:nonzero;fill:rgb(83.921569%,15.686275%,22.352941%);fill-opacity:1;" d="M 254.667969 312.871094 L 313.261719 312.871094 L 313.261719 313.03125 L 288.839844 313.03125 L 288.839844 314.371094 L 279.015625 314.371094 L 279.015625 313.035156 L 278.875 313.03125 L 254.667969 313.03125 Z M 254.667969 312.871094 "/>
<path style=" stroke:none;fill-rule:nonzero;fill:rgb(6.27451%,58.823529%,28.235294%);fill-opacity:1;" d="M 316.347656 312.746094 L 316.410156 312.46875 L 341.761719 20.664062 L 349.460938 20.664062 L 374.941406 313.019531 L 365.988281 313.019531 L 359.605469 236.703125 L 331.621094 236.703125 L 325.359375 312.746094 L 316.347656 312.746094 L 334.3125 205.136719 L 357.039062 204.859375 L 345.707031 68.429688 L 345.582031 68.152344 L 345.457031 68.976562 L 334.25 204.859375 L 334.3125 205.136719 Z M 316.347656 312.746094 "/>
<path style=" stroke:none;fill-rule:nonzero;fill:rgb(96.862745%,70.196078%,16.862745%);fill-opacity:1;" d="M 378.023438 312.167969 L 378.097656 312.164062 L 378.097656 312.140625 L 378.382812 312.082031 L 379.097656 312.007812 L 380.027344 311.941406 L 381.027344 311.890625 L 381.667969 311.867188 L 382.742188 311.828125 L 383.671875 311.800781 L 386.027344 311.742188 L 389.03125 311.691406 L 390.671875 311.667969 L 392.53125 311.648438 L 395.175781 311.625 L 396.390625 311.613281 L 400.105469 311.59375 L 404.320312 311.582031 L 408.964844 311.578125 L 411.109375 311.578125 L 414.039062 311.585938 L 418.042969 311.597656 L 420.328125 311.609375 L 422.113281 311.625 L 423.972656 311.640625 L 426.257812 311.664062 L 428.402344 311.695312 L 430.117188 311.726562 L 431.832031 311.761719 L 433.261719 311.804688 L 434.476562 311.847656 L 435.546875 311.898438 L 436.191406 311.941406 L 436.621094 311.988281 L 426.6875 311.988281 L 426.117188 311.941406 L 425.472656 311.910156 L 424.402344 311.867188 L 423.328125 311.839844 L 422.257812 311.8125 L 420.257812 311.78125 L 418.542969 311.761719 L 416.398438 311.742188 L 414.324219 311.734375 L 411.96875 311.726562 L 410.539062 311.722656 L 406.75 311.722656 L 403.320312 311.730469 L 401.320312 311.742188 L 399.890625 311.75 L 397.890625 311.769531 L 396.675781 311.785156 L 395.960938 311.796875 L 393.816406 311.835938 L 392.386719 311.871094 L 391.601562 311.894531 L 390.601562 311.929688 L 389.886719 311.964844 L 389.101562 312.015625 L 388.671875 312.050781 L 388.101562 312.136719 L 388.027344 312.363281 L 388.242188 312.410156 L 388.671875 312.460938 L 389.242188 312.507812 L 390.101562 312.554688 L 390.960938 312.589844 L 392.460938 312.640625 L 393.746094 312.671875 L 394.746094 312.695312 L 396.675781 312.726562 L 397.460938 312.738281 L 399.320312 312.761719 L 401.25 312.78125 L 403.605469 312.792969 L 405.394531 312.800781 L 408.25 312.808594 L 411.894531 312.808594 L 416.183594 312.800781 L 418.898438 312.789062 L 420.757812 312.78125 L 421.972656 312.773438 L 423.472656 312.757812 L 424.542969 312.746094 L 425.542969 312.730469 L 426.757812 312.710938 L 426.757812 312.410156 L 409.109375 312.410156 L 409.109375 312.269531 L 436.550781 312.269531 L 436.621094 312.757812 L 435.121094 312.792969 L 433.261719 312.824219 L 431.476562 312.851562 L 429.617188 312.871094 L 426.972656 312.894531 L 424.828125 312.910156 L 421.542969 312.925781 L 418.542969 312.9375 L 415.398438 312.945312 L 412.609375 312.949219 L 409.324219 312.953125 L 406.394531 312.949219 L 403.25 312.941406 L 400.75 312.929688 L 398.460938 312.917969 L 396.175781 312.902344 L 393.316406 312.875 L 391.460938 312.855469 L 389.53125 312.828125 L 387.601562 312.796875 L 385.886719 312.761719 L 384.742188 312.738281 L 383.597656 312.707031 L 382.382812 312.667969 L 381.242188 312.625 L 380.382812 312.585938 L 379.597656 312.542969 L 379.027344 312.503906 L 378.453125 312.445312 L 378.167969 312.402344 L 378.023438 312.363281 Z M 378.023438 312.167969 "/>
<path style=" stroke:none;fill-rule:nonzero;fill:rgb(83.921569%,15.686275%,22.352941%);fill-opacity:1;" d="M 378.023438 32.164062 L 436.621094 32.164062 L 436.621094 61.945312 L 412.199219 62.207031 L 412.199219 310.398438 L 402.375 310.398438 L 402.375 62.46875 L 402.230469 61.945312 L 378.023438 61.945312 Z M 378.023438 32.164062 "/>
<path style=" stroke:none;fill-rule:nonzero;fill:rgb(6.27451%,58.823529%,28.235294%);fill-opacity:1;" d="M 439.703125 314.371094 L 439.765625 314.371094 L 465.121094 313.71875 L 472.820312 313.71875 L 498.300781 314.371094 L 489.347656 314.371094 L 482.960938 314.199219 L 454.980469 314.199219 L 448.71875 314.371094 L 439.703125 314.371094 L 457.671875 314.128906 L 480.394531 314.128906 L 469.066406 313.824219 L 468.9375 313.824219 L 468.8125 313.828125 L 457.609375 314.128906 L 457.671875 314.128906 Z M 439.703125 314.371094 "/>
<path style=" stroke:none;fill-rule:nonzero;fill:rgb(14.509804%,36.078431%,60%);fill-opacity:1;" d="M 439.703125 303.53125 L 439.777344 303.527344 L 439.777344 303.355469 L 439.988281 303.082031 L 440.492188 302.742188 L 440.992188 302.507812 L 442.277344 302.085938 L 444.0625 301.679688 L 445.921875 301.363281 L 447.277344 301.179688 L 448.492188 301.035156 L 451.28125 300.773438 L 453.066406 300.636719 L 454.996094 300.515625 L 457.355469 300.394531 L 459.070312 300.324219 L 462.929688 300.210938 L 465.785156 300.160156 L 468 300.136719 L 472.789062 300.136719 L 475.648438 300.167969 L 477.71875 300.203125 L 480.007812 300.257812 L 481.9375 300.324219 L 485.292969 300.480469 L 488.296875 300.679688 L 489.652344 300.792969 L 491.796875 301.015625 L 493.441406 301.230469 L 494.582031 301.414062 L 495.871094 301.679688 L 497.011719 302 L 497.871094 302.363281 L 498.300781 302.667969 L 488.296875 302.667969 L 487.796875 302.382812 L 487.222656 302.164062 L 486.152344 301.871094 L 485.078125 301.664062 L 483.578125 301.457031 L 482.222656 301.320312 L 480.363281 301.1875 L 478.71875 301.101562 L 477.003906 301.035156 L 475.363281 300.992188 L 472.21875 300.953125 L 468.574219 300.953125 L 467.214844 300.964844 L 464.429688 301.023438 L 462.929688 301.074219 L 460.785156 301.171875 L 459.285156 301.265625 L 457.496094 301.40625 L 456.28125 301.527344 L 454.78125 301.714844 L 453.710938 301.878906 L 452.496094 302.113281 L 451.78125 302.292969 L 451.136719 302.492188 L 450.566406 302.726562 L 450.136719 302.976562 L 449.851562 303.242188 L 449.707031 303.496094 L 449.707031 304.601562 L 449.851562 304.859375 L 450.207031 305.160156 L 451.136719 305.59375 L 452.496094 305.972656 L 454.066406 306.269531 L 455.566406 306.484375 L 456.425781 306.585938 L 457.570312 306.699219 L 459.355469 306.839844 L 461.925781 306.984375 L 463.429688 307.042969 L 465.714844 307.097656 L 468.074219 307.125 L 471.21875 307.125 L 474.003906 307.097656 L 475.863281 307.0625 L 477.792969 307.003906 L 480.433594 306.882812 L 482.078125 306.769531 L 483.507812 306.632812 L 484.578125 306.5 L 485.292969 306.386719 L 486.367188 306.164062 L 487.222656 305.921875 L 487.867188 305.671875 L 488.296875 305.429688 L 498.300781 305.429688 L 497.871094 305.714844 L 497.226562 305.992188 L 496.585938 306.199219 L 495.585938 306.449219 L 494.441406 306.671875 L 492.796875 306.921875 L 491.441406 307.082031 L 489.652344 307.261719 L 488.007812 307.398438 L 486.222656 307.519531 L 483.578125 307.660156 L 481.863281 307.734375 L 480.007812 307.796875 L 477.792969 307.855469 L 475.003906 307.902344 L 472.003906 307.933594 L 469.214844 307.941406 L 466.214844 307.925781 L 464 307.898438 L 461.070312 307.832031 L 457.425781 307.703125 L 454.78125 307.570312 L 452.710938 307.433594 L 450.921875 307.289062 L 448.921875 307.097656 L 446.351562 306.785156 L 444.777344 306.542969 L 443.707031 306.34375 L 442.492188 306.0625 L 441.632812 305.816406 L 440.632812 305.414062 L 439.917969 304.910156 L 439.703125 304.515625 Z M 439.703125 303.53125 "/>
<path style=" stroke:none;fill-rule:nonzero;fill:rgb(96.862745%,70.196078%,16.862745%);fill-opacity:1;" d="M 439.703125 310.582031 L 439.777344 310.582031 L 439.777344 310.519531 L 440.0625 310.378906 L 440.777344 310.183594 L 441.707031 310.023438 L 442.707031 309.898438 L 443.347656 309.835938 L 444.421875 309.742188 L 445.347656 309.671875 L 447.707031 309.53125 L 450.707031 309.398438 L 452.351562 309.34375 L 454.210938 309.289062 L 456.855469 309.230469 L 458.070312 309.210938 L 461.785156 309.160156 L 466 309.128906 L 470.644531 309.121094 L 472.789062 309.121094 L 475.71875 309.136719 L 479.71875 309.167969 L 482.007812 309.199219 L 483.792969 309.230469 L 485.652344 309.273438 L 487.9375 309.335938 L 490.082031 309.410156 L 491.796875 309.484375 L 493.511719 309.578125 L 494.941406 309.679688 L 496.15625 309.789062 L 497.226562 309.917969 L 497.871094 310.027344 L 498.300781 310.136719 L 488.367188 310.136719 L 487.796875 310.027344 L 487.152344 309.945312 L 486.082031 309.839844 L 485.007812 309.765625 L 483.9375 309.707031 L 481.9375 309.625 L 480.222656 309.574219 L 478.078125 309.53125 L 476.003906 309.503906 L 473.648438 309.484375 L 472.21875 309.476562 L 468.429688 309.476562 L 465 309.5 L 463 309.523438 L 461.570312 309.550781 L 459.570312 309.597656 L 458.355469 309.632812 L 457.640625 309.660156 L 455.496094 309.757812 L 454.066406 309.84375 L 453.28125 309.902344 L 452.28125 309.996094 L 451.566406 310.082031 L 450.78125 310.207031 L 450.351562 310.300781 L 449.78125 310.511719 L 449.707031 311.074219 L 449.921875 311.191406 L 450.351562 311.320312 L 450.921875 311.433594 L 451.78125 311.550781 L 452.636719 311.644531 L 454.140625 311.765625 L 455.425781 311.84375 L 456.425781 311.898438 L 458.355469 311.984375 L 459.140625 312.011719 L 461 312.066406 L 462.929688 312.109375 L 465.285156 312.148438 L 467.074219 312.167969 L 469.929688 312.183594 L 473.574219 312.183594 L 477.863281 312.164062 L 480.578125 312.140625 L 482.4375 312.113281 L 483.652344 312.09375 L 485.152344 312.058594 L 486.222656 312.027344 L 487.222656 311.992188 L 488.4375 311.9375 L 488.4375 311.191406 L 470.789062 311.191406 L 470.789062 310.839844 L 498.226562 310.835938 L 498.300781 312.058594 L 496.800781 312.140625 L 494.941406 312.222656 L 493.15625 312.285156 L 491.296875 312.339844 L 488.652344 312.398438 L 486.507812 312.4375 L 483.222656 312.480469 L 480.222656 312.507812 L 477.078125 312.527344 L 474.289062 312.535156 L 471.003906 312.539062 L 468.074219 312.53125 L 464.929688 312.515625 L 462.429688 312.488281 L 460.140625 312.457031 L 457.855469 312.417969 L 454.996094 312.351562 L 453.136719 312.296875 L 451.210938 312.234375 L 449.28125 312.15625 L 447.566406 312.070312 L 446.421875 312.003906 L 445.277344 311.929688 L 444.0625 311.835938 L 442.921875 311.730469 L 442.0625 311.632812 L 441.277344 311.523438 L 440.703125 311.421875 L 440.132812 311.28125 L 439.847656 311.167969 L 439.703125 311.070312 Z M 439.703125 310.582031 "/>
<path style=" stroke:none;fill-rule:nonzero;fill:rgb(83.921569%,15.686275%,22.352941%);fill-opacity:1;" d="M 439.703125 79.320312 L 498.300781 79.320312 L 498.300781 102.832031 L 473.878906 103.039062 L 473.878906 298.957031 L 464.054688 298.957031 L 464.054688 103.246094 L 463.910156 102.832031 L 439.703125 102.832031 Z M 439.703125 79.320312 "/>
<path style=" stroke:none;fill-rule:nonzero;fill:rgb(6.27451%,58.823529%,28.235294%);fill-opacity:1;" d="M 501.382812 310.707031 L 501.445312 310.65625 L 526.800781 258.703125 L 534.5 258.703125 L 559.980469 310.757812 L 551.027344 310.757812 L 544.640625 297.167969 L 516.660156 297.167969 L 510.398438 310.707031 L 501.382812 310.707031 L 519.351562 291.546875 L 542.074219 291.5 L 530.742188 267.207031 L 530.617188 267.160156 L 530.492188 267.304688 L 519.289062 291.5 L 519.351562 291.546875 Z M 501.382812 310.707031 "/>
<path style=" stroke:none;fill-rule:nonzero;fill:rgb(96.862745%,70.196078%,16.862745%);fill-opacity:1;" d="M 501.382812 218.378906 L 501.453125 218.316406 L 501.453125 217.066406 L 501.742188 214.253906 L 502.457031 210.375 L 503.382812 207.1875 L 504.382812 204.6875 L 505.027344 203.371094 L 506.101562 201.496094 L 507.027344 200.121094 L 509.386719 197.308594 L 512.386719 194.679688 L 514.03125 193.554688 L 515.890625 192.492188 L 518.535156 191.304688 L 519.75 190.867188 L 523.464844 189.867188 L 527.679688 189.242188 L 532.324219 189.054688 L 534.46875 189.117188 L 537.398438 189.367188 L 541.398438 190.054688 L 543.6875 190.679688 L 545.472656 191.304688 L 547.332031 192.117188 L 549.617188 193.367188 L 551.761719 194.867188 L 553.476562 196.371094 L 555.191406 198.246094 L 556.621094 200.246094 L 557.835938 202.433594 L 558.90625 205.0625 L 559.550781 207.25 L 559.980469 209.4375 L 550.046875 209.4375 L 549.472656 207.25 L 548.832031 205.5625 L 547.757812 203.496094 L 546.6875 201.996094 L 545.617188 200.808594 L 543.613281 199.183594 L 541.898438 198.183594 L 539.757812 197.308594 L 537.683594 196.746094 L 535.324219 196.371094 L 533.898438 196.246094 L 530.109375 196.246094 L 526.679688 196.683594 L 524.679688 197.183594 L 523.25 197.683594 L 521.25 198.621094 L 520.035156 199.371094 L 519.320312 199.871094 L 517.175781 201.808594 L 515.746094 203.558594 L 514.960938 204.75 L 513.960938 206.625 L 513.246094 208.3125 L 512.460938 210.8125 L 512.03125 212.691406 L 511.460938 216.941406 L 511.386719 228.195312 L 511.601562 230.574219 L 512.03125 233.136719 L 512.601562 235.386719 L 513.460938 237.765625 L 514.316406 239.578125 L 515.816406 242.015625 L 517.105469 243.640625 L 518.105469 244.703125 L 520.035156 246.394531 L 520.820312 246.957031 L 522.679688 248.082031 L 524.605469 248.957031 L 526.964844 249.707031 L 528.75 250.082031 L 531.609375 250.394531 L 535.253906 250.394531 L 539.542969 250.019531 L 542.257812 249.519531 L 544.113281 249.019531 L 545.328125 248.582031 L 546.832031 247.894531 L 547.902344 247.269531 L 548.902344 246.582031 L 550.117188 245.519531 L 550.117188 230.574219 L 532.46875 230.511719 L 532.46875 223.507812 L 559.90625 223.445312 L 559.980469 247.894531 L 558.476562 249.582031 L 556.621094 251.207031 L 554.832031 252.457031 L 552.976562 253.519531 L 550.332031 254.710938 L 548.1875 255.460938 L 544.902344 256.335938 L 541.898438 256.898438 L 538.753906 257.273438 L 535.96875 257.460938 L 532.683594 257.523438 L 529.753906 257.398438 L 526.609375 257.023438 L 524.105469 256.523438 L 521.820312 255.898438 L 519.535156 255.085938 L 516.675781 253.773438 L 514.816406 252.707031 L 512.886719 251.394531 L 510.957031 249.832031 L 509.242188 248.144531 L 508.101562 246.832031 L 506.957031 245.328125 L 505.742188 243.453125 L 504.597656 241.328125 L 503.742188 239.390625 L 502.957031 237.203125 L 502.382812 235.136719 L 501.8125 232.324219 L 501.527344 230.074219 L 501.382812 228.132812 Z M 501.382812 218.378906 "/>
<path style=" stroke:none;fill-rule:nonzero;fill:rgb(83.921569%,15.686275%,22.352941%);fill-opacity:1;" d="M 501.382812 311.933594 L 559.980469 311.933594 L 559.980469 312.144531 L 535.558594 312.148438 L 535.558594 313.894531 L 525.734375 313.894531 L 525.734375 312.148438 L 525.589844 312.144531 L 501.382812 312.144531 Z M 501.382812 311.933594 "/>
<path style=" stroke:none;fill-rule:nonzero;fill:rgb(6.27451%,58.823529%,28.235294%);fill-opacity:1;" d="M 563.0625 311.917969 L 563.125 311.914062 L 588.480469 310.0625 L 596.179688 310.0625 L 621.65625 311.917969 L 612.707031 311.917969 L 606.320312 311.433594 L 578.335938 311.433594 L 572.078125 311.917969 L 563.0625 311.917969 L 581.03125 311.234375 L 603.753906 311.230469 L 592.421875 310.367188 L 592.296875 310.363281 L 592.171875 310.367188 L 580.964844 311.230469 L 581.03125 311.234375 Z M 563.0625 311.917969 "/>
<path style=" stroke:none;fill-rule:nonzero;fill:rgb(14.509804%,36.078431%,60%);fill-opacity:1;" d="M 563.0625 306.445312 L 563.132812 306.441406 L 563.132812 306.347656 L 563.347656 306.195312 L 563.847656 306.007812 L 564.347656 305.878906 L 565.636719 305.644531 L 567.421875 305.417969 L 569.28125 305.246094 L 570.636719 305.144531 L 571.851562 305.066406 L 574.640625 304.917969 L 576.425781 304.84375 L 578.355469 304.777344 L 580.710938 304.710938 L 582.425781 304.671875 L 586.285156 304.605469 L 589.144531 304.578125 L 591.359375 304.566406 L 596.148438 304.566406 L 599.003906 304.582031 L 601.078125 304.601562 L 603.363281 304.632812 L 605.292969 304.671875 L 608.652344 304.757812 L 611.652344 304.867188 L 613.011719 304.929688 L 615.15625 305.054688 L 616.796875 305.171875 L 617.941406 305.273438 L 619.226562 305.417969 L 620.371094 305.597656 L 621.230469 305.796875 L 621.65625 305.96875 L 611.652344 305.96875 L 611.152344 305.808594 L 610.582031 305.6875 L 609.511719 305.527344 L 608.4375 305.410156 L 606.9375 305.296875 L 605.578125 305.222656 L 603.722656 305.148438 L 602.078125 305.101562 L 600.363281 305.066406 L 598.71875 305.039062 L 595.574219 305.015625 L 591.929688 305.015625 L 590.574219 305.023438 L 587.785156 305.058594 L 586.285156 305.085938 L 584.144531 305.140625 L 582.640625 305.191406 L 580.855469 305.269531 L 579.640625 305.335938 L 578.140625 305.4375 L 577.066406 305.53125 L 575.855469 305.660156 L 575.140625 305.757812 L 574.496094 305.871094 L 573.925781 306 L 573.496094 306.136719 L 573.210938 306.285156 L 573.066406 306.425781 L 573.066406 307.035156 L 573.210938 307.179688 L 573.566406 307.34375 L 574.496094 307.585938 L 575.855469 307.792969 L 577.425781 307.960938 L 578.925781 308.078125 L 579.785156 308.132812 L 580.925781 308.195312 L 582.714844 308.273438 L 585.285156 308.355469 L 586.785156 308.386719 L 589.074219 308.417969 L 591.429688 308.433594 L 594.574219 308.433594 L 597.363281 308.417969 L 599.21875 308.398438 L 601.148438 308.367188 L 603.792969 308.300781 L 605.4375 308.234375 L 606.867188 308.160156 L 607.9375 308.085938 L 608.652344 308.023438 L 609.722656 307.902344 L 610.582031 307.765625 L 611.226562 307.628906 L 611.652344 307.496094 L 621.65625 307.496094 L 621.230469 307.652344 L 620.585938 307.804688 L 619.941406 307.921875 L 618.941406 308.058594 L 617.800781 308.179688 L 616.15625 308.320312 L 614.796875 308.410156 L 613.011719 308.507812 L 611.367188 308.582031 L 609.582031 308.648438 L 606.9375 308.730469 L 605.222656 308.769531 L 603.363281 308.804688 L 601.148438 308.835938 L 598.363281 308.863281 L 595.363281 308.878906 L 592.574219 308.882812 L 589.574219 308.875 L 587.359375 308.859375 L 584.429688 308.824219 L 580.785156 308.753906 L 578.140625 308.675781 L 576.066406 308.601562 L 574.28125 308.523438 L 572.28125 308.417969 L 569.707031 308.242188 L 568.136719 308.109375 L 567.0625 308 L 565.847656 307.84375 L 564.992188 307.707031 L 563.992188 307.488281 L 563.277344 307.207031 L 563.0625 306.988281 Z M 563.0625 306.445312 "/>
<path style=" stroke:none;fill-rule:nonzero;fill:rgb(96.862745%,70.196078%,16.862745%);fill-opacity:1;" d="M 563.0625 300.144531 L 563.132812 300.136719 L 563.132812 300.035156 L 563.421875 299.800781 L 564.132812 299.480469 L 565.0625 299.214844 L 566.0625 299.007812 L 566.707031 298.898438 L 567.777344 298.742188 L 568.707031 298.628906 L 571.066406 298.394531 L 574.066406 298.179688 L 575.710938 298.085938 L 577.570312 297.996094 L 580.210938 297.898438 L 581.425781 297.863281 L 585.144531 297.78125 L 589.359375 297.726562 L 594.003906 297.710938 L 596.148438 297.71875 L 599.078125 297.738281 L 603.078125 297.792969 L 605.367188 297.847656 L 607.152344 297.898438 L 609.011719 297.964844 L 611.296875 298.070312 L 613.441406 298.195312 L 615.15625 298.320312 L 616.871094 298.472656 L 618.300781 298.640625 L 619.515625 298.820312 L 620.585938 299.039062 L 621.230469 299.21875 L 621.65625 299.402344 L 611.726562 299.402344 L 611.152344 299.21875 L 610.511719 299.082031 L 609.4375 298.910156 L 608.367188 298.785156 L 607.292969 298.6875 L 605.292969 298.550781 L 603.578125 298.46875 L 601.433594 298.394531 L 599.363281 298.347656 L 597.003906 298.320312 L 595.574219 298.308594 L 591.789062 298.308594 L 588.359375 298.34375 L 586.359375 298.386719 L 584.929688 298.425781 L 582.929688 298.503906 L 581.714844 298.566406 L 581 298.609375 L 578.855469 298.769531 L 577.425781 298.914062 L 576.640625 299.011719 L 575.640625 299.167969 L 574.925781 299.308594 L 574.136719 299.515625 L 573.710938 299.671875 L 573.136719 300.023438 L 573.066406 300.957031 L 573.28125 301.152344 L 573.710938 301.367188 L 574.28125 301.554688 L 575.140625 301.75 L 575.996094 301.898438 L 577.496094 302.101562 L 578.785156 302.238281 L 579.785156 302.324219 L 581.714844 302.464844 L 582.5 302.511719 L 584.355469 302.605469 L 586.285156 302.679688 L 588.644531 302.738281 L 590.429688 302.769531 L 593.289062 302.796875 L 596.933594 302.796875 L 601.222656 302.765625 L 603.9375 302.722656 L 605.792969 302.683594 L 607.007812 302.648438 L 608.507812 302.589844 L 609.582031 302.539062 L 610.582031 302.480469 L 611.796875 302.394531 L 611.796875 301.152344 L 594.148438 301.148438 L 594.148438 300.566406 L 621.585938 300.5625 L 621.65625 302.589844 L 620.15625 302.730469 L 618.300781 302.863281 L 616.511719 302.96875 L 614.65625 303.054688 L 612.011719 303.15625 L 609.867188 303.21875 L 606.582031 303.289062 L 603.578125 303.335938 L 600.433594 303.367188 L 597.648438 303.382812 L 594.359375 303.386719 L 591.429688 303.378906 L 588.289062 303.347656 L 585.785156 303.304688 L 583.5 303.253906 L 581.210938 303.1875 L 578.355469 303.078125 L 576.496094 302.988281 L 574.566406 302.878906 L 572.636719 302.75 L 570.921875 302.609375 L 569.78125 302.5 L 568.636719 302.378906 L 567.421875 302.222656 L 566.277344 302.046875 L 565.421875 301.886719 L 564.632812 301.703125 L 564.0625 301.53125 L 563.492188 301.300781 L 563.207031 301.113281 L 563.0625 300.953125 Z M 563.0625 300.144531 "/>
<path style=" stroke:none;fill-rule:nonzero;fill:rgb(83.921569%,15.686275%,22.352941%);fill-opacity:1;" d="M 563.0625 313.097656 L 621.65625 313.097656 L 621.65625 313.234375 L 597.238281 313.234375 L 597.238281 314.371094 L 587.410156 314.371094 L 587.410156 313.238281 L 587.269531 313.234375 L 563.0625 313.234375 Z M 563.0625 313.097656 "/>
<path style=" stroke:none;fill-rule:nonzero;fill:rgb(6.27451%,58.823529%,28.235294%);fill-opacity:1;" d="M 624.742188 314.371094 L 624.804688 314.367188 L 650.15625 313.417969 L 657.859375 313.417969 L 683.335938 314.371094 L 674.386719 314.371094 L 668 314.121094 L 640.015625 314.121094 L 633.757812 314.371094 L 624.742188 314.371094 L 642.707031 314.019531 L 665.433594 314.019531 L 654.101562 313.574219 L 653.976562 313.574219 L 653.851562 313.578125 L 642.644531 314.019531 L 642.707031 314.019531 Z M 624.742188 314.371094 "/>
<path style=" stroke:none;fill-rule:nonzero;fill:rgb(14.509804%,36.078431%,60%);fill-opacity:1;" d="M 624.742188 307.351562 L 624.8125 307.347656 L 624.8125 307.273438 L 625.027344 307.152344 L 625.527344 307 L 626.027344 306.894531 L 627.3125 306.710938 L 629.101562 306.527344 L 630.957031 306.390625 L 632.316406 306.308594 L 633.53125 306.246094 L 636.316406 306.128906 L 638.105469 306.066406 L 640.035156 306.011719 L 642.390625 305.960938 L 644.105469 305.929688 L 647.964844 305.878906 L 650.824219 305.855469 L 653.039062 305.84375 L 657.828125 305.84375 L 660.683594 305.859375 L 662.757812 305.875 L 665.042969 305.898438 L 666.972656 305.929688 L 670.332031 305.996094 L 673.332031 306.085938 L 674.691406 306.136719 L 676.835938 306.234375 L 678.476562 306.328125 L 679.621094 306.410156 L 680.90625 306.527344 L 682.050781 306.671875 L 682.910156 306.832031 L 683.335938 306.96875 L 673.332031 306.96875 L 672.832031 306.84375 L 672.261719 306.746094 L 671.1875 306.613281 L 670.117188 306.523438 L 668.617188 306.429688 L 667.257812 306.371094 L 665.402344 306.3125 L 663.757812 306.273438 L 662.042969 306.246094 L 660.398438 306.226562 L 657.253906 306.207031 L 653.609375 306.207031 L 652.253906 306.210938 L 649.464844 306.238281 L 647.964844 306.261719 L 645.820312 306.304688 L 644.320312 306.34375 L 642.535156 306.410156 L 641.320312 306.460938 L 639.820312 306.542969 L 638.746094 306.617188 L 637.53125 306.722656 L 636.816406 306.800781 L 636.175781 306.890625 L 635.601562 306.996094 L 635.175781 307.105469 L 634.890625 307.222656 L 634.746094 307.335938 L 634.746094 307.828125 L 634.890625 307.941406 L 635.246094 308.074219 L 636.175781 308.265625 L 637.53125 308.433594 L 639.105469 308.566406 L 640.605469 308.660156 L 641.464844 308.707031 L 642.605469 308.757812 L 644.394531 308.820312 L 646.964844 308.882812 L 648.464844 308.910156 L 650.753906 308.933594 L 653.109375 308.945312 L 656.253906 308.945312 L 659.042969 308.933594 L 660.898438 308.917969 L 662.828125 308.890625 L 665.472656 308.839844 L 667.117188 308.789062 L 668.546875 308.726562 L 669.617188 308.667969 L 670.332031 308.617188 L 671.402344 308.519531 L 672.261719 308.410156 L 672.902344 308.300781 L 673.332031 308.191406 L 683.335938 308.191406 L 682.910156 308.320312 L 682.265625 308.441406 L 681.621094 308.535156 L 680.621094 308.644531 L 679.476562 308.742188 L 677.835938 308.855469 L 676.476562 308.925781 L 674.691406 309.007812 L 673.046875 309.066406 L 671.261719 309.121094 L 668.617188 309.183594 L 666.902344 309.214844 L 665.042969 309.242188 L 662.828125 309.269531 L 660.042969 309.292969 L 657.039062 309.304688 L 654.253906 309.308594 L 651.253906 309.300781 L 649.039062 309.289062 L 646.109375 309.257812 L 642.464844 309.203125 L 639.820312 309.140625 L 637.746094 309.082031 L 635.960938 309.019531 L 633.960938 308.933594 L 631.386719 308.792969 L 629.816406 308.6875 L 628.742188 308.597656 L 627.527344 308.476562 L 626.671875 308.363281 L 625.671875 308.1875 L 624.957031 307.960938 L 624.742188 307.789062 Z M 624.742188 307.351562 "/>
<path style=" stroke:none;fill-rule:nonzero;fill:rgb(96.862745%,70.196078%,16.862745%);fill-opacity:1;" d="M 624.742188 311.238281 L 624.8125 311.234375 L 624.8125 311.203125 L 625.097656 311.132812 L 625.8125 311.03125 L 626.742188 310.949219 L 627.742188 310.886719 L 628.386719 310.851562 L 629.457031 310.804688 L 630.386719 310.769531 L 632.746094 310.699219 L 635.746094 310.628906 L 637.390625 310.601562 L 639.246094 310.574219 L 641.890625 310.542969 L 643.105469 310.53125 L 646.820312 310.507812 L 651.039062 310.492188 L 655.683594 310.488281 L 657.828125 310.488281 L 660.757812 310.496094 L 664.757812 310.511719 L 667.042969 310.527344 L 668.832031 310.542969 L 670.6875 310.566406 L 672.976562 310.597656 L 675.121094 310.636719 L 676.835938 310.675781 L 678.550781 310.722656 L 679.980469 310.773438 L 681.191406 310.828125 L 682.265625 310.894531 L 682.910156 310.953125 L 683.335938 311.007812 L 673.40625 311.007812 L 672.832031 310.953125 L 672.191406 310.910156 L 671.117188 310.855469 L 670.046875 310.816406 L 668.972656 310.789062 L 666.972656 310.746094 L 665.257812 310.71875 L 663.113281 310.699219 L 661.042969 310.683594 L 658.683594 310.675781 L 657.253906 310.671875 L 653.46875 310.671875 L 650.039062 310.683594 L 648.035156 310.695312 L 646.609375 310.707031 L 644.605469 310.730469 L 643.390625 310.75 L 642.675781 310.761719 L 640.535156 310.8125 L 639.105469 310.859375 L 638.320312 310.886719 L 637.316406 310.9375 L 636.605469 310.980469 L 635.816406 311.042969 L 635.390625 311.089844 L 634.816406 311.199219 L 634.746094 311.488281 L 634.960938 311.550781 L 635.390625 311.617188 L 635.960938 311.671875 L 636.816406 311.734375 L 637.675781 311.78125 L 639.175781 311.84375 L 640.460938 311.882812 L 641.464844 311.910156 L 643.390625 311.953125 L 644.179688 311.96875 L 646.035156 311.996094 L 647.964844 312.019531 L 650.324219 312.039062 L 652.109375 312.050781 L 654.96875 312.058594 L 658.613281 312.058594 L 662.898438 312.046875 L 665.617188 312.035156 L 667.472656 312.023438 L 668.6875 312.011719 L 670.1875 311.992188 L 671.261719 311.976562 L 672.261719 311.960938 L 673.476562 311.933594 L 673.476562 311.550781 L 655.824219 311.546875 L 655.824219 311.367188 L 683.265625 311.367188 L 683.335938 311.992188 L 681.835938 312.035156 L 679.980469 312.078125 L 678.191406 312.109375 L 676.335938 312.136719 L 673.691406 312.167969 L 671.546875 312.1875 L 668.257812 312.210938 L 665.257812 312.222656 L 662.113281 312.234375 L 659.328125 312.238281 L 653.109375 312.238281 L 649.964844 312.226562 L 647.464844 312.214844 L 645.179688 312.199219 L 642.890625 312.175781 L 640.035156 312.144531 L 638.175781 312.117188 L 636.246094 312.082031 L 634.316406 312.042969 L 632.601562 312 L 631.457031 311.964844 L 630.316406 311.925781 L 629.101562 311.878906 L 627.957031 311.824219 L 627.101562 311.773438 L 626.3125 311.71875 L 625.742188 311.667969 L 625.171875 311.59375 L 624.882812 311.535156 L 624.742188 311.488281 Z M 624.742188 311.238281 "/>
<path style=" stroke:none;fill-rule:nonzero;fill:rgb(83.921569%,15.686275%,22.352941%);fill-opacity:1;" d="M 624.742188 299.957031 L 683.335938 299.957031 L 683.335938 300.460938 L 658.917969 300.464844 L 658.917969 304.667969 L 649.089844 304.667969 L 649.089844 300.46875 L 648.949219 300.460938 L 624.742188 300.460938 Z M 624.742188 299.957031 "/>
<g style="fill:rgb(0%,0%,0%);fill-opacity:1;">
  <use xlink:href="#glyph0-1" x="21.957031" y="318.198242"/>
  <use xlink:href="#glyph0-2" x="27.291016" y="318.198242"/>
  <use xlink:href="#glyph0-1" x="29.958008" y="318.198242"/>
</g>
<g style="fill:rgb(0%,0%,0%);fill-opacity:1;">
  <use xlink:href="#glyph0-1" x="21.957031" y="242.709961"/>
  <use xlink:href="#glyph0-2" x="27.291016" y="242.709961"/>
  <use xlink:href="#glyph0-3" x="29.958008" y="242.709961"/>
</g>
<g style="fill:rgb(0%,0%,0%);fill-opacity:1;">
  <use xlink:href="#glyph0-4" x="21.957031" y="167.22168"/>
  <use xlink:href="#glyph0-2" x="27.291016" y="167.22168"/>
  <use xlink:href="#glyph0-1" x="29.958008" y="167.22168"/>
</g>
<g style="fill:rgb(0%,0%,0%);fill-opacity:1;">
  <use xlink:href="#glyph0-4" x="21.957031" y="91.733398"/>
  <use xlink:href="#glyph0-2" x="27.291016" y="91.733398"/>
  <use xlink:href="#glyph0-3" x="29.958008" y="91.733398"/>
</g>
<g style="fill:rgb(0%,0%,0%);fill-opacity:1;">
  <use xlink:href="#glyph0-5" x="21.957031" y="16.245117"/>
  <use xlink:href="#glyph0-2" x="27.291016" y="16.245117"/>
  <use xlink:href="#glyph0-1" x="29.958008" y="16.245117"/>
</g>
<g style="fill:rgb(0%,0%,0%);fill-opacity:1;">
  <use xlink:href="#glyph0-4" x="95.925781" y="338.19043"/>
</g>
<g style="fill:rgb(0%,0%,0%);fill-opacity:1;">
  <use xlink:href="#glyph0-5" x="157.605469" y="338.19043"/>
</g>
<g style="fill:rgb(0%,0%,0%);fill-opacity:1;">
  <use xlink:href="#glyph0-6" x="219.285156" y="338.19043"/>
</g>
<g style="fill:rgb(0%,0%,0%);fill-opacity:1;">
  <use xlink:href="#glyph0-7" x="280.964844" y="338.19043"/>
</g>
<g style="fill:rgb(0%,0%,0%);fill-opacity:1;">
  <use xlink:href="#glyph0-3" x="342.644531" y="338.19043"/>
</g>
<g style="fill:rgb(0%,0%,0%);fill-opacity:1;">
  <use xlink:href="#glyph0-8" x="404.324219" y="338.19043"/>
</g>
<g style="fill:rgb(0%,0%,0%);fill-opacity:1;">
  <use xlink:href="#glyph0-9" x="466" y="338.19043"/>
</g>
<g style="fill:rgb(0%,0%,0%);fill-opacity:1;">
  <use xlink:href="#glyph0-10" x="527.679688" y="338.19043"/>
</g>
<g style="fill:rgb(0%,0%,0%);fill-opacity:1;">
  <use xlink:href="#glyph0-11" x="589.359375" y="338.19043"/>
</g>
<g style="fill:rgb(0%,0%,0%);fill-opacity:1;">
  <use xlink:href="#glyph0-4" x="648.539062" y="338.19043"/>
  <use xlink:href="#glyph0-1" x="653.873047" y="338.19043"/>
</g>
<g style="fill:rgb(0%,0%,0%);fill-opacity:1;">
  <use xlink:href="#glyph1-1" x="14.412109" y="178.015625"/>
  <use xlink:href="#glyph1-2" x="14.412109" y="170.011719"/>
  <use xlink:href="#glyph1-3" x="14.412109" y="167.347656"/>
  <use xlink:href="#glyph1-4" x="14.412109" y="164.011719"/>
</g>
</g>
</svg>
