<?xml version="1.0" encoding="UTF-8"?>
<svg xmlns="http://www.w3.org/2000/svg" xmlns:xlink="http://www.w3.org/1999/xlink" width="720pt" height="360pt" viewBox="0 0 720 360" version="1.1">
<defs>
<g>
<symbol overflow="visible" id="glyph0-0">
<path style="stroke:none;" d=""/>
</symbol>
<symbol overflow="visible" id="glyph0-1">
<path style="stroke:none;" d="M 2.640625 -6.796875 C 2 -6.796875 1.421875 -6.53125 1.078125 -6.046875 C 0.640625 -5.453125 0.40625 -4.546875 0.40625 -3.296875 C 0.40625 -1 1.1875 0.21875 2.640625 0.21875 C 4.078125 0.21875 4.859375 -1 4.859375 -3.234375 C 4.859375 -4.5625 4.65625 -5.4375 4.203125 -6.046875 C 3.84375 -6.53125 3.28125 -6.796875 2.640625 -6.796875 Z M 2.640625 -6.046875 C 3.546875 -6.046875 4 -5.125 4 -3.3125 C 4 -1.375 3.5625 -0.484375 2.625 -0.484375 C 1.734375 -0.484375 1.28125 -1.421875 1.28125 -3.28125 C 1.28125 -5.140625 1.734375 -6.046875 2.640625 -6.046875 Z M 2.640625 -6.046875 "/>
</symbol>
<symbol overflow="visible" id="glyph0-2">
<path style="stroke:none;" d="M 1.828125 -1 L 0.828125 -1 L 0.828125 0 L 1.828125 0 Z M 1.828125 -1 "/>
</symbol>
<symbol overflow="visible" id="glyph0-3">
<path style="stroke:none;" d="M 4.5625 -6.796875 L 1.0625 -6.796875 L 0.546875 -3.09375 L 1.328125 -3.09375 C 1.71875 -3.5625 2.046875 -3.734375 2.578125 -3.734375 C 3.484375 -3.734375 4.0625 -3.109375 4.0625 -2.09375 C 4.0625 -1.125 3.484375 -0.53125 2.578125 -0.53125 C 1.828125 -0.53125 1.375 -0.90625 1.1875 -1.671875 L 0.328125 -1.671875 C 0.453125 -1.109375 0.546875 -0.84375 0.75 -0.59375 C 1.125 -0.078125 1.828125 0.21875 2.59375 0.21875 C 3.96875 0.21875 4.921875 -0.78125 4.921875 -2.21875 C 4.921875 -3.5625 4.03125 -4.484375 2.71875 -4.484375 C 2.25 -4.484375 1.859375 -4.359375 1.46875 -4.0625 L 1.734375 -5.96875 L 4.5625 -5.96875 Z M 4.5625 -6.796875 "/>
</symbol>
<symbol overflow="visible" id="glyph0-4">
<path style="stroke:none;" d="M 2.484375 -4.84375 L 2.484375 0 L 3.328125 0 L 3.328125 -6.796875 L 2.765625 -6.796875 C 2.46875 -5.75 2.28125 -5.609375 0.984375 -5.453125 L 0.984375 -4.84375 Z M 2.484375 -4.84375 "/>
</symbol>
<symbol overflow="visible" id="glyph0-5">
<path style="stroke:none;" d="M 4.859375 -0.828125 L 1.28125 -0.828125 C 1.359375 -1.390625 1.671875 -1.75 2.5 -2.234375 L 3.46875 -2.75 C 4.40625 -3.265625 4.90625 -3.96875 4.90625 -4.8125 C 4.90625 -5.375 4.671875 -5.90625 4.265625 -6.265625 C 3.859375 -6.625 3.375 -6.796875 2.71875 -6.796875 C 1.859375 -6.796875 1.21875 -6.5 0.84375 -5.921875 C 0.609375 -5.5625 0.5 -5.125 0.484375 -4.4375 L 1.328125 -4.4375 C 1.359375 -4.90625 1.40625 -5.1875 1.53125 -5.40625 C 1.75 -5.8125 2.1875 -6.0625 2.703125 -6.0625 C 3.46875 -6.0625 4.03125 -5.515625 4.03125 -4.78125 C 4.03125 -4.25 3.71875 -3.796875 3.125 -3.4375 L 2.234375 -2.9375 C 0.8125 -2.140625 0.40625 -1.5 0.328125 0 L 4.859375 0 Z M 4.859375 -0.828125 "/>
</symbol>
<symbol overflow="visible" id="glyph0-6">
<path style="stroke:none;" d="M 2.125 -3.125 L 2.578125 -3.125 C 3.515625 -3.125 3.984375 -2.703125 3.984375 -1.890625 C 3.984375 -1.03125 3.46875 -0.53125 2.578125 -0.53125 C 1.65625 -0.53125 1.203125 -0.984375 1.15625 -1.96875 L 0.3125 -1.96875 C 0.34375 -1.421875 0.4375 -1.078125 0.609375 -0.765625 C 0.953125 -0.109375 1.625 0.21875 2.546875 0.21875 C 3.953125 0.21875 4.859375 -0.609375 4.859375 -1.90625 C 4.859375 -2.765625 4.515625 -3.25 3.703125 -3.515625 C 4.34375 -3.765625 4.65625 -4.25 4.65625 -4.9375 C 4.65625 -6.109375 3.875 -6.796875 2.578125 -6.796875 C 1.203125 -6.796875 0.484375 -6.046875 0.453125 -4.609375 L 1.296875 -4.609375 C 1.3125 -5.015625 1.34375 -5.25 1.453125 -5.453125 C 1.640625 -5.828125 2.0625 -6.0625 2.59375 -6.0625 C 3.34375 -6.0625 3.796875 -5.625 3.796875 -4.90625 C 3.796875 -4.421875 3.609375 -4.140625 3.25 -3.984375 C 3.015625 -3.890625 2.71875 -3.84375 2.125 -3.84375 Z M 2.125 -3.125 "/>
</symbol>
<symbol overflow="visible" id="glyph0-7">
<path style="stroke:none;" d="M 3.140625 -1.625 L 3.140625 0 L 3.984375 0 L 3.984375 -1.625 L 4.984375 -1.625 L 4.984375 -2.390625 L 3.984375 -2.390625 L 3.984375 -6.796875 L 3.359375 -6.796875 L 0.265625 -2.515625 L 0.265625 -1.625 Z M 3.140625 -2.390625 L 1 -2.390625 L 3.140625 -5.359375 Z M 3.140625 -2.390625 "/>
</symbol>
<symbol overflow="visible" id="glyph0-8">
<path style="stroke:none;" d="M 4.78125 -5.03125 C 4.609375 -6.140625 3.890625 -6.796875 2.84375 -6.796875 C 2.09375 -6.796875 1.421875 -6.4375 1.03125 -5.828125 C 0.609375 -5.171875 0.40625 -4.34375 0.40625 -3.09375 C 0.40625 -1.953125 0.578125 -1.234375 0.984375 -0.625 C 1.359375 -0.078125 1.953125 0.21875 2.703125 0.21875 C 3.984375 0.21875 4.921875 -0.734375 4.921875 -2.078125 C 4.921875 -3.34375 4.0625 -4.234375 2.84375 -4.234375 C 2.171875 -4.234375 1.640625 -3.96875 1.28125 -3.46875 C 1.28125 -5.125 1.828125 -6.046875 2.796875 -6.046875 C 3.390625 -6.046875 3.796875 -5.671875 3.9375 -5.03125 Z M 2.734375 -3.484375 C 3.546875 -3.484375 4.0625 -2.921875 4.0625 -2 C 4.0625 -1.15625 3.484375 -0.53125 2.703125 -0.53125 C 1.921875 -0.53125 1.328125 -1.1875 1.328125 -2.046875 C 1.328125 -2.890625 1.90625 -3.484375 2.734375 -3.484375 Z M 2.734375 -3.484375 "/>
</symbol>
<symbol overflow="visible" id="glyph0-9">
<path style="stroke:none;" d="M 4.984375 -6.796875 L 0.4375 -6.796875 L 0.4375 -5.96875 L 4.109375 -5.96875 C 2.5 -3.65625 1.828125 -2.234375 1.328125 0 L 2.21875 0 C 2.59375 -2.171875 3.453125 -4.046875 4.984375 -6.09375 Z M 4.984375 -6.796875 "/>
</symbol>
<symbol overflow="visible" id="glyph0-10">
<path style="stroke:none;" d="M 3.75 -3.578125 C 4.453125 -4 4.6875 -4.34375 4.6875 -4.984375 C 4.6875 -6.046875 3.84375 -6.796875 2.640625 -6.796875 C 1.4375 -6.796875 0.59375 -6.046875 0.59375 -4.984375 C 0.59375 -4.359375 0.828125 -4.015625 1.515625 -3.578125 C 0.734375 -3.203125 0.359375 -2.640625 0.359375 -1.890625 C 0.359375 -0.640625 1.296875 0.21875 2.640625 0.21875 C 3.984375 0.21875 4.921875 -0.640625 4.921875 -1.875 C 4.921875 -2.640625 4.53125 -3.203125 3.75 -3.578125 Z M 2.640625 -6.046875 C 3.359375 -6.046875 3.8125 -5.625 3.8125 -4.96875 C 3.8125 -4.34375 3.34375 -3.921875 2.640625 -3.921875 C 1.921875 -3.921875 1.453125 -4.34375 1.453125 -4.984375 C 1.453125 -5.625 1.921875 -6.046875 2.640625 -6.046875 Z M 2.640625 -3.203125 C 3.484375 -3.203125 4.0625 -2.671875 4.0625 -1.875 C 4.0625 -1.0625 3.484375 -0.53125 2.625 -0.53125 C 1.796875 -0.53125 1.21875 -1.078125 1.21875 -1.875 C 1.21875 -2.671875 1.796875 -3.203125 2.640625 -3.203125 Z M 2.640625 -3.203125 "/>
</symbol>
<symbol overflow="visible" id="glyph0-11">
<path style="stroke:none;" d="M 0.515625 -1.546875 C 0.671875 -0.4375 1.40625 0.21875 2.4375 0.21875 C 3.1875 0.21875 3.859375 -0.140625 4.265625 -0.75 C 4.6875 -1.40625 4.890625 -2.25 4.890625 -3.484375 C 4.890625 -4.625 4.703125 -5.359375 4.3125 -5.953125 C 3.9375 -6.5 3.34375 -6.796875 2.59375 -6.796875 C 1.296875 -6.796875 0.359375 -5.84375 0.359375 -4.515625 C 0.359375 -3.25 1.234375 -2.34375 2.453125 -2.34375 C 3.09375 -2.34375 3.5625 -2.578125 4.015625 -3.109375 C 4 -1.453125 3.46875 -0.53125 2.5 -0.53125 C 1.90625 -0.53125 1.484375 -0.90625 1.359375 -1.546875 Z M 2.578125 -6.0625 C 3.375 -6.0625 3.96875 -5.40625 3.96875 -4.53125 C 3.96875 -3.6875 3.375 -3.09375 2.546875 -3.09375 C 1.734375 -3.09375 1.234375 -3.671875 1.234375 -4.578125 C 1.234375 -5.4375 1.796875 -6.0625 2.578125 -6.0625 Z M 2.578125 -6.0625 "/>
</symbol>
<symbol overflow="visible" id="glyph1-0">
<path style="stroke:none;" d=""/>
</symbol>
<symbol overflow="visible" id="glyph1-1">
<path style="stroke:none;" d="M 0 -0.953125 L 0 -4.890625 C 0 -5.71875 -0.234375 -6.34375 -0.734375 -6.796875 C -1.1875 -7.234375 -1.8125 -7.46875 -2.5 -7.46875 C -3.546875 -7.46875 -4.1875 -7 -4.625 -5.875 C -4.984375 -6.671875 -5.640625 -7.09375 -6.53125 -7.09375 C -7.15625 -7.09375 -7.734375 -6.859375 -8.140625 -6.390625 C -8.5625 -5.9375 -8.75 -5.34375 -8.75 -4.5 L -8.75 -0.953125 Z M -4.984375 -2.0625 L -7.765625 -2.0625 L -7.765625 -4.21875 C -7.765625 -4.84375 -7.6875 -5.203125 -7.453125 -5.5 C -7.21875 -5.8125 -6.859375 -5.96875 -6.375 -5.96875 C -5.90625 -5.96875 -5.53125 -5.8125 -5.296875 -5.5 C -5.0625 -5.203125 -4.984375 -4.84375 -4.984375 -4.21875 Z M -0.984375 -2.0625 L -4 -2.0625 L -4 -4.78125 C -4 -5.328125 -3.859375 -5.6875 -3.578125 -5.953125 C -3.296875 -6.21875 -2.921875 -6.359375 -2.484375 -6.359375 C -2.0625 -6.359375 -1.6875 -6.21875 -1.40625 -5.953125 C -1.109375 -5.6875 -0.984375 -5.328125 -0.984375 -4.78125 Z M -0.984375 -2.0625 "/>
</symbol>
<symbol overflow="visible" id="glyph1-2">
<path style="stroke:none;" d="M -6.28125 -1.796875 L -6.28125 -0.796875 L 0 -0.796875 L 0 -1.796875 Z M -8.75 -1.796875 L -8.75 -0.796875 L -7.484375 -0.796875 L -7.484375 -1.796875 Z M -8.75 -1.796875 "/>
</symbol>
<symbol overflow="visible" id="glyph1-3">
<path style="stroke:none;" d="M -6.28125 -3.046875 L -6.28125 -2.015625 L -8.015625 -2.015625 L -8.015625 -1.015625 L -6.28125 -1.015625 L -6.28125 -0.171875 L -5.46875 -0.171875 L -5.46875 -1.015625 L -0.71875 -1.015625 C -0.078125 -1.015625 0.28125 -1.453125 0.28125 -2.234375 C 0.28125 -2.46875 0.25 -2.71875 0.1875 -3.046875 L -0.640625 -3.046875 C -0.609375 -2.921875 -0.59375 -2.765625 -0.59375 -2.5625 C -0.59375 -2.140625 -0.71875 -2.015625 -1.15625 -2.015625 L -5.46875 -2.015625 L -5.46875 -3.046875 Z M -6.28125 -3.046875 "/>
</symbol>
<symbol overflow="visible" id="glyph1-4">
<path style="stroke:none;" d="M -4.53125 -5.25 C -5.765625 -5.25 -6.46875 -4.421875 -6.46875 -2.96875 C -6.46875 -1.515625 -5.71875 -0.5625 -4.546875 -0.5625 C -3.5625 -0.5625 -3.09375 -1.0625 -2.734375 -2.5625 L -2.515625 -3.484375 C -2.34375 -4.1875 -2.09375 -4.46875 -1.625 -4.46875 C -1.046875 -4.46875 -0.640625 -3.875 -0.640625 -3 C -0.640625 -2.453125 -0.796875 -2 -1.0625 -1.75 C -1.25 -1.59375 -1.421875 -1.53125 -1.875 -1.46875 L -1.875 -0.40625 C -0.421875 -0.453125 0.28125 -1.265625 0.28125 -2.921875 C 0.28125 -4.5 -0.5 -5.515625 -1.71875 -5.515625 C -2.65625 -5.515625 -3.171875 -4.984375 -3.46875 -3.734375 L -3.703125 -2.765625 C -3.890625 -1.953125 -4.15625 -1.609375 -4.59375 -1.609375 C -5.171875 -1.609375 -5.546875 -2.125 -5.546875 -2.9375 C -5.546875 -3.75 -5.203125 -4.171875 -4.53125 -4.203125 Z M -4.53125 -5.25 "/>
</symbol>
</g>
</defs>
<g id="surface96146">
<rect x="0" y="0" width="720" height="360" style="fill:rgb(100%,100%,100%);fill-opacity:1;stroke:none;"/>
<path style=" stroke:none;fill-rule:nonzero;fill:rgb(6.27451%,58.823529%,28.235294%);fill-opacity:1;" d="M 69.628906 273.734375 L 69.691406 273.65625 L 95.046875 188.320312 L 102.746094 188.320312 L 128.222656 273.816406 L 119.273438 273.816406 L 112.886719 251.496094 L 84.902344 251.496094 L 78.644531 273.734375 L 69.628906 273.734375 L 87.597656 242.265625 L 110.320312 242.1875 L 98.988281 202.289062 L 98.863281 202.207031 L 98.738281 202.449219 L 87.535156 242.1875 L 87.597656 242.265625 Z M 69.628906 273.734375 "/>
<path style=" stroke:none;fill-rule:nonzero;fill:rgb(14.509804%,36.078431%,60%);fill-opacity:1;" d="M 69.628906 309.851562 L 69.699219 309.84375 L 69.699219 309.683594 L 69.914062 309.429688 L 70.414062 309.109375 L 70.914062 308.886719 L 72.203125 308.492188 L 73.988281 308.113281 L 75.847656 307.816406 L 77.203125 307.644531 L 78.417969 307.511719 L 81.207031 307.261719 L 82.992188 307.136719 L 84.921875 307.023438 L 87.28125 306.90625 L 88.996094 306.839844 L 92.851562 306.734375 L 95.710938 306.6875 L 97.925781 306.667969 L 102.714844 306.667969 L 105.574219 306.695312 L 107.644531 306.726562 L 109.929688 306.78125 L 111.859375 306.839844 L 115.21875 306.988281 L 118.21875 307.175781 L 119.578125 307.28125 L 121.722656 307.488281 L 123.367188 307.691406 L 124.507812 307.863281 L 125.796875 308.113281 L 126.9375 308.414062 L 127.796875 308.753906 L 128.222656 309.039062 L 118.21875 309.039062 L 117.71875 308.773438 L 117.148438 308.566406 L 116.078125 308.292969 L 115.003906 308.097656 L 113.503906 307.90625 L 112.148438 307.777344 L 110.289062 307.648438 L 108.644531 307.570312 L 106.929688 307.511719 L 105.285156 307.46875 L 102.140625 307.429688 L 98.5 307.429688 L 97.140625 307.441406 L 94.355469 307.496094 L 92.851562 307.542969 L 90.710938 307.636719 L 89.207031 307.722656 L 87.421875 307.859375 L 86.207031 307.972656 L 84.707031 308.144531 L 83.636719 308.296875 L 82.421875 308.519531 L 81.707031 308.6875 L 81.0625 308.875 L 80.492188 309.09375 L 80.0625 309.328125 L 79.777344 309.574219 L 79.632812 309.816406 L 79.632812 310.851562 L 79.777344 311.09375 L 80.132812 311.375 L 81.0625 311.78125 L 82.421875 312.136719 L 83.992188 312.417969 L 85.492188 312.617188 L 86.351562 312.710938 L 87.492188 312.820312 L 89.28125 312.953125 L 91.851562 313.085938 L 93.351562 313.140625 L 95.640625 313.191406 L 97.996094 313.21875 L 101.140625 313.21875 L 103.929688 313.191406 L 105.785156 313.160156 L 107.714844 313.105469 L 110.359375 312.992188 L 112.003906 312.886719 L 113.433594 312.757812 L 114.503906 312.632812 L 115.21875 312.523438 L 116.292969 312.316406 L 117.148438 312.089844 L 117.792969 311.855469 L 118.21875 311.628906 L 128.222656 311.628906 L 127.796875 311.894531 L 127.152344 312.15625 L 126.507812 312.351562 L 125.507812 312.585938 L 124.367188 312.792969 L 122.722656 313.027344 L 121.363281 313.179688 L 119.578125 313.347656 L 117.933594 313.472656 L 116.148438 313.585938 L 113.503906 313.722656 L 111.789062 313.789062 L 109.929688 313.847656 L 107.714844 313.902344 L 104.929688 313.949219 L 101.929688 313.976562 L 99.140625 313.980469 L 96.140625 313.96875 L 93.925781 313.941406 L 90.996094 313.882812 L 87.351562 313.761719 L 84.707031 313.632812 L 82.632812 313.507812 L 80.847656 313.375 L 78.847656 313.191406 L 76.273438 312.898438 L 74.703125 312.671875 L 73.632812 312.484375 L 72.417969 312.222656 L 71.558594 311.988281 L 70.558594 311.613281 L 69.84375 311.140625 L 69.628906 310.773438 Z M 69.628906 309.851562 "/>
<path style=" stroke:none;fill-rule:nonzero;fill:rgb(96.862745%,70.196078%,16.862745%);fill-opacity:1;" d="M 69.628906 288.054688 L 69.699219 288.027344 L 69.699219 287.46875 L 69.988281 286.21875 L 70.703125 284.492188 L 71.628906 283.070312 L 72.628906 281.957031 L 73.273438 281.371094 L 74.34375 280.535156 L 75.273438 279.921875 L 77.632812 278.671875 L 80.632812 277.5 L 82.277344 277 L 84.136719 276.527344 L 86.777344 275.996094 L 87.992188 275.800781 L 91.710938 275.355469 L 95.925781 275.078125 L 100.570312 274.996094 L 102.714844 275.023438 L 105.644531 275.132812 L 109.644531 275.441406 L 111.933594 275.71875 L 113.71875 275.996094 L 115.578125 276.359375 L 117.863281 276.914062 L 120.007812 277.585938 L 121.722656 278.253906 L 123.4375 279.089844 L 124.867188 279.980469 L 126.082031 280.953125 L 127.152344 282.125 L 127.796875 283.097656 L 128.222656 284.074219 L 118.292969 284.074219 L 117.71875 283.097656 L 117.078125 282.347656 L 116.003906 281.425781 L 114.933594 280.757812 L 113.863281 280.230469 L 111.859375 279.503906 L 110.144531 279.058594 L 108.003906 278.671875 L 105.929688 278.417969 L 103.570312 278.253906 L 102.140625 278.195312 L 98.355469 278.195312 L 94.925781 278.390625 L 92.925781 278.613281 L 91.496094 278.835938 L 89.496094 279.253906 L 88.28125 279.589844 L 87.566406 279.8125 L 85.421875 280.675781 L 83.992188 281.457031 L 83.207031 281.984375 L 82.207031 282.820312 L 81.492188 283.570312 L 80.707031 284.683594 L 80.277344 285.519531 L 79.703125 287.414062 L 79.632812 292.425781 L 79.847656 293.484375 L 80.277344 294.628906 L 80.847656 295.628906 L 81.707031 296.6875 L 82.5625 297.496094 L 84.0625 298.582031 L 85.351562 299.304688 L 86.351562 299.777344 L 88.28125 300.53125 L 89.066406 300.78125 L 90.921875 301.28125 L 92.851562 301.671875 L 95.210938 302.007812 L 96.996094 302.175781 L 99.855469 302.3125 L 103.5 302.3125 L 107.789062 302.144531 L 110.503906 301.921875 L 112.359375 301.699219 L 113.574219 301.503906 L 115.078125 301.199219 L 116.148438 300.921875 L 117.148438 300.613281 L 118.363281 300.140625 L 118.363281 293.484375 L 100.714844 293.457031 L 100.714844 290.339844 L 128.152344 290.3125 L 128.222656 301.199219 L 126.722656 301.953125 L 124.867188 302.675781 L 123.078125 303.230469 L 121.222656 303.707031 L 118.578125 304.234375 L 116.433594 304.570312 L 113.148438 304.957031 L 110.144531 305.210938 L 107 305.375 L 104.214844 305.460938 L 100.929688 305.488281 L 97.996094 305.433594 L 94.855469 305.265625 L 92.351562 305.042969 L 90.066406 304.765625 L 87.78125 304.402344 L 84.921875 303.816406 L 83.0625 303.34375 L 81.132812 302.757812 L 79.203125 302.0625 L 77.488281 301.3125 L 76.347656 300.726562 L 75.203125 300.058594 L 73.988281 299.222656 L 72.84375 298.273438 L 71.988281 297.410156 L 71.203125 296.4375 L 70.628906 295.519531 L 70.058594 294.265625 L 69.773438 293.261719 L 69.628906 292.398438 Z M 69.628906 288.054688 "/>
<path style=" stroke:none;fill-rule:nonzero;fill:rgb(6.27451%,58.823529%,28.235294%);fill-opacity:1;" d="M 131.308594 307.636719 L 131.371094 307.621094 L 156.726562 291.113281 L 164.425781 291.113281 L 189.902344 307.652344 L 180.953125 307.652344 L 174.566406 303.335938 L 146.582031 303.335938 L 140.324219 307.636719 L 131.308594 307.636719 L 149.273438 301.550781 L 172 301.535156 L 160.667969 293.816406 L 160.542969 293.800781 L 160.417969 293.847656 L 149.210938 301.535156 L 149.273438 301.550781 Z M 131.308594 307.636719 "/>
<path style=" stroke:none;fill-rule:nonzero;fill:rgb(14.509804%,36.078431%,60%);fill-opacity:1;" d="M 131.308594 310.921875 L 131.378906 310.917969 L 131.378906 310.8125 L 131.59375 310.644531 L 132.09375 310.433594 L 132.59375 310.289062 L 133.882812 310.03125 L 135.667969 309.78125 L 137.523438 309.585938 L 138.882812 309.472656 L 140.097656 309.382812 L 142.882812 309.222656 L 144.671875 309.140625 L 146.601562 309.0625 L 148.957031 308.988281 L 150.671875 308.945312 L 154.53125 308.875 L 157.390625 308.84375 L 159.605469 308.832031 L 164.394531 308.832031 L 167.25 308.847656 L 169.324219 308.871094 L 171.609375 308.90625 L 173.539062 308.945312 L 176.898438 309.042969 L 179.898438 309.164062 L 181.257812 309.234375 L 183.402344 309.371094 L 185.042969 309.503906 L 186.1875 309.617188 L 187.472656 309.78125 L 188.617188 309.976562 L 189.476562 310.203125 L 189.902344 310.390625 L 179.898438 310.390625 L 179.398438 310.214844 L 178.828125 310.078125 L 177.757812 309.898438 L 176.683594 309.769531 L 175.183594 309.644531 L 173.824219 309.558594 L 171.96875 309.476562 L 170.324219 309.425781 L 168.609375 309.382812 L 166.964844 309.359375 L 163.820312 309.332031 L 160.175781 309.332031 L 158.820312 309.339844 L 156.03125 309.375 L 154.53125 309.40625 L 152.386719 309.46875 L 150.886719 309.523438 L 149.101562 309.613281 L 147.886719 309.6875 L 146.386719 309.800781 L 145.3125 309.902344 L 144.097656 310.046875 L 143.386719 310.15625 L 142.742188 310.28125 L 142.171875 310.425781 L 141.742188 310.578125 L 141.457031 310.742188 L 141.3125 310.898438 L 141.3125 311.578125 L 141.457031 311.738281 L 141.8125 311.921875 L 142.742188 312.191406 L 144.097656 312.421875 L 145.671875 312.605469 L 147.171875 312.738281 L 148.03125 312.800781 L 149.171875 312.871094 L 150.960938 312.957031 L 153.53125 313.046875 L 155.03125 313.082031 L 157.320312 313.117188 L 159.675781 313.132812 L 162.820312 313.132812 L 165.609375 313.117188 L 167.464844 313.09375 L 169.394531 313.058594 L 172.039062 312.984375 L 173.683594 312.914062 L 175.113281 312.832031 L 176.183594 312.746094 L 176.898438 312.675781 L 177.96875 312.542969 L 178.828125 312.390625 L 179.472656 312.238281 L 179.898438 312.089844 L 189.902344 312.089844 L 189.476562 312.265625 L 188.832031 312.4375 L 188.1875 312.5625 L 187.1875 312.71875 L 186.046875 312.851562 L 184.402344 313.007812 L 183.042969 313.109375 L 181.257812 313.21875 L 179.613281 313.300781 L 177.828125 313.375 L 175.183594 313.464844 L 173.46875 313.507812 L 171.609375 313.546875 L 169.394531 313.582031 L 166.609375 313.613281 L 163.605469 313.628906 L 160.820312 313.632812 L 157.820312 313.625 L 155.605469 313.609375 L 152.675781 313.570312 L 149.03125 313.488281 L 146.386719 313.40625 L 144.3125 313.324219 L 142.527344 313.234375 L 140.527344 313.117188 L 137.953125 312.921875 L 136.382812 312.773438 L 135.308594 312.652344 L 134.09375 312.480469 L 133.238281 312.324219 L 132.238281 312.082031 L 131.523438 311.769531 L 131.308594 311.527344 Z M 131.308594 310.921875 "/>
<path style=" stroke:none;fill-rule:nonzero;fill:rgb(83.921569%,15.686275%,22.352941%);fill-opacity:1;" d="M 131.308594 109.019531 L 189.902344 109.019531 L 189.902344 128.386719 L 165.484375 128.554688 L 165.484375 289.933594 L 155.65625 289.933594 L 155.65625 128.726562 L 155.515625 128.386719 L 131.308594 128.386719 Z M 131.308594 109.019531 "/>
<path style=" stroke:none;fill-rule:nonzero;fill:rgb(14.509804%,36.078431%,60%);fill-opacity:1;" d="M 192.988281 147.683594 L 193.058594 147.414062 L 193.058594 141.011719 L 193.273438 130.871094 L 193.773438 118.0625 L 194.273438 109.257812 L 195.558594 93.511719 L 197.347656 78.300781 L 199.203125 66.558594 L 200.5625 59.621094 L 201.777344 54.285156 L 204.5625 44.414062 L 206.351562 39.34375 L 208.28125 34.804688 L 210.636719 30.269531 L 212.351562 27.601562 L 216.210938 23.332031 L 219.070312 21.464844 L 221.285156 20.664062 L 226.074219 20.664062 L 228.929688 21.730469 L 231.003906 23.066406 L 233.289062 25.199219 L 235.21875 27.601562 L 238.578125 33.472656 L 241.578125 40.941406 L 242.9375 45.210938 L 245.082031 53.484375 L 246.722656 61.492188 L 247.867188 68.429688 L 249.152344 78.300781 L 250.296875 90.308594 L 251.152344 103.917969 L 251.582031 115.394531 L 241.578125 115.394531 L 241.078125 104.71875 L 240.507812 96.449219 L 239.433594 85.507812 L 238.363281 77.769531 L 236.863281 70.03125 L 235.503906 64.960938 L 233.648438 59.890625 L 232.003906 56.6875 L 230.289062 54.285156 L 228.644531 52.683594 L 225.5 51.082031 L 221.855469 51.082031 L 220.5 51.617188 L 217.710938 53.75 L 216.210938 55.621094 L 214.066406 59.355469 L 212.566406 62.824219 L 210.78125 68.160156 L 209.566406 72.699219 L 208.066406 79.636719 L 206.992188 85.773438 L 205.777344 94.578125 L 205.0625 101.25 L 204.421875 108.722656 L 203.847656 117.527344 L 203.421875 126.867188 L 203.132812 136.742188 L 202.992188 146.347656 L 202.992188 187.707031 L 203.132812 197.316406 L 203.492188 208.523438 L 204.421875 224.800781 L 205.777344 238.941406 L 207.351562 250.152344 L 208.851562 258.15625 L 209.707031 261.890625 L 210.851562 266.160156 L 212.636719 271.5 L 215.210938 276.835938 L 216.710938 278.96875 L 219 281.105469 L 221.355469 282.171875 L 224.5 282.171875 L 227.289062 281.105469 L 229.144531 279.769531 L 231.074219 277.636719 L 233.71875 273.101562 L 235.363281 268.832031 L 236.792969 263.761719 L 237.863281 258.691406 L 238.578125 254.421875 L 239.648438 246.148438 L 240.507812 237.074219 L 241.148438 227.734375 L 241.578125 218.664062 L 251.582031 218.664062 L 251.152344 229.335938 L 250.511719 239.742188 L 249.867188 247.480469 L 248.867188 256.820312 L 247.722656 265.09375 L 246.082031 274.433594 L 244.722656 280.570312 L 242.9375 287.242188 L 241.292969 292.3125 L 239.507812 296.847656 L 236.863281 302.1875 L 235.148438 304.855469 L 233.289062 307.257812 L 231.074219 309.390625 L 228.289062 311.257812 L 225.285156 312.324219 L 222.5 312.59375 L 219.5 312.058594 L 217.285156 310.992188 L 214.351562 308.589844 L 210.710938 303.785156 L 208.066406 298.71875 L 205.992188 293.648438 L 204.207031 288.308594 L 202.207031 281.105469 L 199.632812 269.363281 L 198.0625 260.289062 L 196.988281 252.820312 L 195.773438 242.414062 L 194.917969 233.074219 L 193.917969 218.128906 L 193.203125 199.183594 L 192.988281 184.507812 Z M 192.988281 147.683594 "/>
<path style=" stroke:none;fill-rule:nonzero;fill:rgb(96.862745%,70.196078%,16.862745%);fill-opacity:1;" d="M 192.988281 313.773438 L 251.582031 313.773438 L 203.0625 313.773438 L 202.992188 313.777344 L 241.722656 313.777344 L 224.070312 313.777344 L 224.070312 313.773438 L 251.511719 313.773438 L 251.582031 313.777344 L 192.988281 313.777344 Z M 192.988281 313.773438 "/>
<path style=" stroke:none;fill-rule:nonzero;fill:rgb(6.27451%,58.823529%,28.235294%);fill-opacity:1;" d="M 254.667969 307.992188 L 254.730469 307.738281 L 280.082031 37.171875 L 287.78125 37.171875 L 313.261719 308.246094 L 304.308594 308.246094 L 297.925781 237.488281 L 269.941406 237.488281 L 263.679688 307.992188 L 254.667969 307.992188 L 272.632812 208.214844 L 295.359375 207.960938 L 284.027344 81.460938 L 283.902344 81.203125 L 283.777344 81.96875 L 272.570312 207.960938 L 272.632812 208.214844 Z M 254.667969 307.992188 "/>
<path style=" stroke:none;fill-rule:nonzero;fill:rgb(96.862745%,70.196078%,16.862745%);fill-opacity:1;" d="M 254.667969 311.132812 L 254.738281 311.128906 L 254.738281 311.054688 L 255.023438 310.890625 L 255.738281 310.667969 L 256.667969 310.480469 L 257.667969 310.335938 L 258.3125 310.257812 L 259.382812 310.148438 L 260.3125 310.070312 L 262.671875 309.90625 L 265.671875 309.753906 L 267.316406 309.6875 L 269.171875 309.625 L 271.816406 309.558594 L 273.03125 309.53125 L 276.746094 309.472656 L 280.964844 309.4375 L 285.609375 309.425781 L 287.75 309.429688 L 290.679688 309.445312 L 294.683594 309.484375 L 296.96875 309.519531 L 298.757812 309.558594 L 300.613281 309.605469 L 302.902344 309.675781 L 305.042969 309.765625 L 306.757812 309.851562 L 308.472656 309.960938 L 309.902344 310.078125 L 311.117188 310.203125 L 312.191406 310.355469 L 312.832031 310.484375 L 313.261719 310.613281 L 303.328125 310.613281 L 302.757812 310.484375 L 302.113281 310.386719 L 301.042969 310.265625 L 299.972656 310.179688 L 298.898438 310.109375 L 296.898438 310.015625 L 295.183594 309.957031 L 293.039062 309.90625 L 290.96875 309.875 L 288.609375 309.851562 L 287.179688 309.84375 L 283.394531 309.84375 L 279.960938 309.871094 L 277.960938 309.898438 L 276.53125 309.929688 L 274.53125 309.984375 L 273.316406 310.027344 L 272.601562 310.054688 L 270.457031 310.167969 L 269.03125 310.269531 L 268.242188 310.339844 L 267.242188 310.449219 L 266.527344 310.546875 L 265.742188 310.691406 L 265.3125 310.800781 L 264.742188 311.046875 L 264.671875 311.703125 L 264.886719 311.839844 L 265.3125 311.988281 L 265.886719 312.121094 L 266.742188 312.257812 L 267.601562 312.363281 L 269.101562 312.503906 L 270.386719 312.601562 L 271.386719 312.664062 L 273.316406 312.761719 L 274.101562 312.792969 L 275.960938 312.859375 L 277.890625 312.910156 L 280.25 312.953125 L 282.035156 312.976562 L 284.894531 312.992188 L 288.539062 312.992188 L 292.824219 312.972656 L 295.539062 312.941406 L 297.398438 312.914062 L 298.613281 312.886719 L 300.113281 312.847656 L 301.1875 312.8125 L 302.1875 312.769531 L 303.402344 312.710938 L 303.402344 311.839844 L 285.75 311.835938 L 285.75 311.429688 L 313.191406 311.425781 L 313.261719 312.847656 L 311.761719 312.945312 L 309.902344 313.039062 L 308.117188 313.113281 L 306.257812 313.175781 L 303.617188 313.242188 L 301.472656 313.289062 L 298.183594 313.339844 L 295.183594 313.371094 L 292.039062 313.394531 L 289.253906 313.402344 L 285.964844 313.40625 L 283.035156 313.398438 L 279.890625 313.378906 L 277.390625 313.347656 L 275.105469 313.3125 L 272.816406 313.265625 L 269.957031 313.1875 L 268.101562 313.128906 L 266.171875 313.050781 L 264.242188 312.960938 L 262.527344 312.863281 L 261.382812 312.785156 L 260.242188 312.699219 L 259.027344 312.589844 L 257.882812 312.464844 L 257.023438 312.351562 L 256.238281 312.226562 L 255.667969 312.105469 L 255.09375 311.941406 L 254.808594 311.8125 L 254.667969 311.699219 Z M 254.667969 311.132812 "/>
<path style=" stroke:none;fill-rule:nonzero;fill:rgb(14.509804%,36.078431%,60%);fill-opacity:1;" d="M 316.347656 155.792969 L 316.417969 155.546875 L 316.417969 149.644531 L 316.632812 140.296875 L 317.132812 128.488281 L 317.632812 120.371094 L 318.917969 105.855469 L 320.703125 91.835938 L 322.5625 81.011719 L 323.921875 74.617188 L 325.136719 69.695312 L 327.921875 60.59375 L 329.707031 55.921875 L 331.636719 51.738281 L 333.996094 47.558594 L 335.710938 45.097656 L 339.570312 41.164062 L 342.429688 39.441406 L 344.644531 38.703125 L 349.429688 38.703125 L 352.289062 39.6875 L 354.363281 40.917969 L 356.648438 42.882812 L 358.578125 45.097656 L 361.9375 50.511719 L 364.9375 57.398438 L 366.292969 61.332031 L 368.4375 68.960938 L 370.082031 76.339844 L 371.226562 82.734375 L 372.511719 91.835938 L 373.65625 102.90625 L 374.511719 115.449219 L 374.941406 126.027344 L 364.9375 126.027344 L 364.4375 116.1875 L 363.867188 108.5625 L 362.792969 98.476562 L 361.722656 91.34375 L 360.222656 84.210938 L 358.863281 79.535156 L 357.003906 74.863281 L 355.363281 71.910156 L 353.648438 69.695312 L 352.003906 68.222656 L 348.859375 66.746094 L 345.214844 66.746094 L 343.855469 67.238281 L 341.070312 69.207031 L 339.570312 70.925781 L 337.425781 74.371094 L 335.925781 77.570312 L 334.140625 82.488281 L 332.925781 86.671875 L 331.421875 93.066406 L 330.351562 98.722656 L 329.136719 106.839844 L 328.421875 112.992188 L 327.777344 119.878906 L 327.207031 127.996094 L 326.777344 136.605469 L 326.492188 145.707031 L 326.351562 154.5625 L 326.351562 192.691406 L 326.492188 201.546875 L 326.851562 211.878906 L 327.777344 226.882812 L 329.136719 239.921875 L 330.707031 250.253906 L 332.210938 257.632812 L 333.066406 261.074219 L 334.210938 265.011719 L 335.996094 269.929688 L 338.570312 274.851562 L 340.070312 276.820312 L 342.355469 278.785156 L 344.714844 279.769531 L 347.859375 279.769531 L 350.644531 278.785156 L 352.503906 277.558594 L 354.433594 275.589844 L 357.078125 271.40625 L 358.71875 267.472656 L 360.148438 262.796875 L 361.222656 258.125 L 361.9375 254.1875 L 363.007812 246.5625 L 363.867188 238.199219 L 364.507812 229.589844 L 364.9375 221.226562 L 374.941406 221.226562 L 374.511719 231.066406 L 373.871094 240.660156 L 373.226562 247.792969 L 372.226562 256.402344 L 371.082031 264.027344 L 369.4375 272.636719 L 368.082031 278.292969 L 366.292969 284.445312 L 364.652344 289.117188 L 362.863281 293.300781 L 360.222656 298.21875 L 358.507812 300.679688 L 356.648438 302.894531 L 354.433594 304.863281 L 351.644531 306.582031 L 348.644531 307.566406 L 345.859375 307.8125 L 342.855469 307.320312 L 340.640625 306.335938 L 337.710938 304.125 L 334.066406 299.695312 L 331.421875 295.023438 L 329.351562 290.347656 L 327.566406 285.429688 L 325.5625 278.785156 L 322.992188 267.964844 L 321.417969 259.601562 L 320.347656 252.710938 L 319.132812 243.117188 L 318.273438 234.507812 L 317.273438 220.734375 L 316.558594 203.269531 L 316.347656 189.738281 Z M 316.347656 155.792969 "/>
<path style=" stroke:none;fill-rule:nonzero;fill:rgb(96.862745%,70.196078%,16.862745%);fill-opacity:1;" d="M 316.347656 310.886719 L 316.417969 310.882812 L 316.417969 310.800781 L 316.703125 310.621094 L 317.417969 310.371094 L 318.347656 310.164062 L 319.347656 310.003906 L 319.992188 309.917969 L 321.0625 309.796875 L 321.992188 309.707031 L 324.347656 309.527344 L 327.351562 309.355469 L 328.992188 309.285156 L 330.851562 309.214844 L 333.496094 309.136719 L 334.710938 309.109375 L 338.425781 309.046875 L 342.640625 309.003906 L 347.289062 308.992188 L 349.429688 308.996094 L 352.359375 309.011719 L 356.363281 309.058594 L 358.648438 309.097656 L 360.433594 309.136719 L 362.292969 309.191406 L 364.578125 309.269531 L 366.722656 309.367188 L 368.4375 309.464844 L 370.152344 309.585938 L 371.582031 309.714844 L 372.796875 309.855469 L 373.871094 310.027344 L 374.511719 310.167969 L 374.941406 310.308594 L 365.007812 310.308594 L 364.4375 310.167969 L 363.792969 310.058594 L 362.722656 309.925781 L 361.648438 309.828125 L 360.578125 309.75 L 358.578125 309.648438 L 356.863281 309.582031 L 354.71875 309.527344 L 352.644531 309.488281 L 350.289062 309.464844 L 348.859375 309.457031 L 345.070312 309.457031 L 341.640625 309.484375 L 339.640625 309.519531 L 338.210938 309.550781 L 336.210938 309.609375 L 334.996094 309.660156 L 334.28125 309.691406 L 332.136719 309.816406 L 330.707031 309.929688 L 329.921875 310.007812 L 328.921875 310.128906 L 328.207031 310.238281 L 327.421875 310.398438 L 326.992188 310.519531 L 326.421875 310.792969 L 326.351562 311.519531 L 326.5625 311.675781 L 326.992188 311.839844 L 327.566406 311.984375 L 328.421875 312.136719 L 329.28125 312.253906 L 330.78125 312.414062 L 332.066406 312.519531 L 333.066406 312.585938 L 334.996094 312.695312 L 335.78125 312.730469 L 337.640625 312.804688 L 339.570312 312.859375 L 341.929688 312.910156 L 343.714844 312.933594 L 346.574219 312.953125 L 350.21875 312.953125 L 354.503906 312.929688 L 357.21875 312.898438 L 359.078125 312.863281 L 360.292969 312.835938 L 361.792969 312.792969 L 362.863281 312.753906 L 363.867188 312.707031 L 365.078125 312.640625 L 365.078125 311.675781 L 347.429688 311.671875 L 347.429688 311.21875 L 374.871094 311.214844 L 374.941406 312.792969 L 373.441406 312.902344 L 371.582031 313.007812 L 369.796875 313.085938 L 367.9375 313.15625 L 365.292969 313.234375 L 363.152344 313.28125 L 359.863281 313.335938 L 356.863281 313.375 L 353.71875 313.398438 L 350.929688 313.410156 L 347.644531 313.414062 L 344.714844 313.40625 L 341.570312 313.382812 L 339.070312 313.351562 L 336.78125 313.308594 L 334.496094 313.257812 L 331.636719 313.171875 L 329.78125 313.101562 L 327.851562 313.019531 L 325.921875 312.917969 L 324.207031 312.808594 L 323.0625 312.722656 L 321.917969 312.625 L 320.703125 312.503906 L 319.5625 312.367188 L 318.703125 312.242188 L 317.917969 312.101562 L 317.347656 311.96875 L 316.773438 311.785156 L 316.488281 311.640625 L 316.347656 311.515625 Z M 316.347656 310.886719 "/>
<path style=" stroke:none;fill-rule:nonzero;fill:rgb(14.509804%,36.078431%,60%);fill-opacity:1;" d="M 378.023438 303.328125 L 378.097656 303.308594 L 378.097656 302.925781 L 378.3125 302.316406 L 378.8125 301.550781 L 379.3125 301.019531 L 380.597656 300.078125 L 382.382812 299.164062 L 384.242188 298.460938 L 385.601562 298.042969 L 386.8125 297.722656 L 389.601562 297.132812 L 391.386719 296.828125 L 393.316406 296.554688 L 395.675781 296.28125 L 397.390625 296.121094 L 401.25 295.867188 L 404.105469 295.753906 L 406.324219 295.707031 L 411.109375 295.707031 L 413.96875 295.769531 L 416.039062 295.851562 L 418.328125 295.980469 L 420.257812 296.121094 L 423.613281 296.476562 L 426.617188 296.921875 L 427.972656 297.179688 L 430.117188 297.675781 L 431.761719 298.15625 L 432.90625 298.570312 L 434.191406 299.164062 L 435.335938 299.886719 L 436.191406 300.703125 L 436.621094 301.390625 L 426.617188 301.390625 L 426.117188 300.75 L 425.542969 300.253906 L 424.472656 299.597656 L 423.402344 299.132812 L 421.898438 298.667969 L 420.542969 298.363281 L 418.683594 298.058594 L 417.039062 297.867188 L 415.324219 297.722656 L 413.683594 297.628906 L 410.539062 297.53125 L 406.894531 297.53125 L 405.535156 297.5625 L 402.75 297.691406 L 401.25 297.804688 L 399.105469 298.027344 L 397.605469 298.234375 L 395.816406 298.554688 L 394.601562 298.828125 L 393.101562 299.246094 L 392.03125 299.613281 L 390.816406 300.140625 L 390.101562 300.542969 L 389.457031 300.988281 L 388.886719 301.519531 L 388.457031 302.078125 L 388.171875 302.671875 L 388.027344 303.246094 L 388.027344 305.726562 L 388.171875 306.304688 L 388.53125 306.976562 L 389.457031 307.953125 L 390.816406 308.800781 L 392.386719 309.472656 L 393.890625 309.953125 L 394.746094 310.179688 L 395.890625 310.433594 L 397.675781 310.753906 L 400.25 311.074219 L 401.75 311.203125 L 404.035156 311.332031 L 406.394531 311.394531 L 409.539062 311.394531 L 412.324219 311.332031 L 414.183594 311.25 L 416.113281 311.121094 L 418.757812 310.851562 L 420.398438 310.59375 L 421.828125 310.289062 L 422.902344 309.984375 L 423.613281 309.730469 L 424.6875 309.234375 L 425.542969 308.6875 L 426.1875 308.128906 L 426.617188 307.585938 L 436.621094 307.585938 L 436.191406 308.226562 L 435.546875 308.847656 L 434.90625 309.3125 L 433.90625 309.875 L 432.761719 310.371094 L 431.117188 310.929688 L 429.761719 311.296875 L 427.972656 311.699219 L 426.332031 312.003906 L 424.542969 312.273438 L 421.898438 312.59375 L 420.183594 312.753906 L 418.328125 312.898438 L 416.113281 313.027344 L 413.324219 313.140625 L 410.324219 313.203125 L 407.539062 313.21875 L 404.535156 313.1875 L 402.320312 313.125 L 399.390625 312.980469 L 395.746094 312.691406 L 393.101562 312.386719 L 391.03125 312.082031 L 389.242188 311.761719 L 387.242188 311.332031 L 384.671875 310.625 L 383.097656 310.082031 L 382.027344 309.632812 L 380.8125 309.007812 L 379.953125 308.449219 L 378.953125 307.550781 L 378.238281 306.417969 L 378.023438 305.535156 Z M 378.023438 303.328125 "/>
<path style=" stroke:none;fill-rule:nonzero;fill:rgb(96.862745%,70.196078%,16.862745%);fill-opacity:1;" d="M 378.023438 171.195312 L 378.097656 171 L 378.097656 167.058594 L 378.382812 158.195312 L 379.097656 145.980469 L 380.027344 135.933594 L 381.027344 128.050781 L 381.667969 123.914062 L 382.742188 118.003906 L 383.671875 113.667969 L 386.027344 104.804688 L 389.03125 96.53125 L 390.671875 92.984375 L 392.53125 89.632812 L 395.175781 85.890625 L 396.390625 84.511719 L 400.105469 81.359375 L 404.320312 79.390625 L 408.964844 78.796875 L 411.109375 78.996094 L 414.039062 79.785156 L 418.042969 81.949219 L 420.328125 83.921875 L 422.113281 85.890625 L 423.972656 88.453125 L 426.257812 92.390625 L 428.402344 97.121094 L 430.117188 101.847656 L 431.832031 107.757812 L 433.261719 114.0625 L 434.476562 120.957031 L 435.546875 129.234375 L 436.191406 136.128906 L 436.621094 143.023438 L 426.6875 143.023438 L 426.117188 136.128906 L 425.472656 130.808594 L 424.402344 124.308594 L 423.328125 119.578125 L 422.257812 115.835938 L 420.257812 110.714844 L 418.542969 107.5625 L 416.398438 104.804688 L 414.324219 103.03125 L 411.96875 101.847656 L 410.539062 101.453125 L 406.75 101.453125 L 403.320312 102.832031 L 401.320312 104.410156 L 399.890625 105.984375 L 397.890625 108.941406 L 396.675781 111.304688 L 395.960938 112.882812 L 393.816406 118.988281 L 392.386719 124.503906 L 391.601562 128.25 L 390.601562 134.160156 L 389.886719 139.476562 L 389.101562 147.359375 L 388.671875 153.269531 L 388.101562 166.664062 L 388.027344 202.128906 L 388.242188 209.613281 L 388.671875 217.691406 L 389.242188 224.785156 L 390.101562 232.269531 L 390.960938 237.984375 L 392.460938 245.667969 L 393.746094 250.789062 L 394.746094 254.140625 L 396.675781 259.457031 L 397.460938 261.230469 L 399.320312 264.777344 L 401.25 267.535156 L 403.605469 269.902344 L 405.394531 271.082031 L 408.25 272.066406 L 411.894531 272.066406 L 416.183594 270.886719 L 418.898438 269.308594 L 420.757812 267.734375 L 421.972656 266.355469 L 423.472656 264.1875 L 424.542969 262.21875 L 425.542969 260.050781 L 426.757812 256.699219 L 426.757812 209.613281 L 409.109375 209.417969 L 409.109375 187.351562 L 436.550781 187.15625 L 436.621094 264.1875 L 435.121094 269.507812 L 433.261719 274.628906 L 431.476562 278.570312 L 429.617188 281.917969 L 426.972656 285.660156 L 424.828125 288.027344 L 421.542969 290.785156 L 418.542969 292.558594 L 415.398438 293.738281 L 412.609375 294.332031 L 409.324219 294.527344 L 406.394531 294.132812 L 403.25 292.949219 L 400.75 291.375 L 398.460938 289.40625 L 396.175781 286.84375 L 393.316406 282.707031 L 391.460938 279.355469 L 389.53125 275.21875 L 387.601562 270.292969 L 385.886719 264.976562 L 384.742188 260.839844 L 383.597656 256.109375 L 382.382812 250.199219 L 381.242188 243.5 L 380.382812 237.394531 L 379.597656 230.496094 L 379.027344 223.996094 L 378.453125 215.132812 L 378.167969 208.039062 L 378.023438 201.929688 Z M 378.023438 171.195312 "/>
<path style=" stroke:none;fill-rule:nonzero;fill:rgb(6.27451%,58.823529%,28.235294%);fill-opacity:1;" d="M 439.703125 314.371094 L 439.765625 314.367188 L 465.121094 313.019531 L 472.820312 313.019531 L 498.300781 314.371094 L 489.347656 314.371094 L 482.960938 314.019531 L 454.980469 314.019531 L 448.71875 314.371094 L 439.703125 314.371094 L 457.671875 313.871094 L 480.394531 313.871094 L 469.066406 313.242188 L 468.9375 313.242188 L 468.8125 313.246094 L 457.609375 313.871094 L 457.671875 313.871094 Z M 439.703125 314.371094 "/>
<path style=" stroke:none;fill-rule:nonzero;fill:rgb(14.509804%,36.078431%,60%);fill-opacity:1;" d="M 439.703125 304.714844 L 439.777344 304.703125 L 439.777344 304.425781 L 439.988281 303.988281 L 440.492188 303.433594 L 440.992188 303.054688 L 442.277344 302.375 L 444.0625 301.71875 L 445.921875 301.210938 L 447.277344 300.910156 L 448.492188 300.679688 L 451.28125 300.253906 L 453.066406 300.035156 L 454.996094 299.835938 L 457.355469 299.640625 L 459.070312 299.527344 L 462.929688 299.34375 L 465.785156 299.261719 L 468 299.226562 L 472.789062 299.226562 L 475.648438 299.273438 L 477.71875 299.332031 L 480.007812 299.421875 L 481.9375 299.527344 L 485.292969 299.78125 L 488.296875 300.101562 L 489.652344 300.289062 L 491.796875 300.644531 L 493.441406 300.992188 L 494.582031 301.289062 L 495.871094 301.71875 L 497.011719 302.234375 L 497.871094 302.824219 L 498.300781 303.320312 L 488.296875 303.320312 L 487.796875 302.859375 L 487.222656 302.5 L 486.152344 302.027344 L 485.078125 301.695312 L 483.578125 301.359375 L 482.222656 301.140625 L 480.363281 300.921875 L 478.71875 300.785156 L 477.003906 300.679688 L 475.363281 300.609375 L 472.21875 300.542969 L 468.574219 300.542969 L 467.214844 300.5625 L 464.429688 300.65625 L 462.929688 300.738281 L 460.785156 300.898438 L 459.285156 301.046875 L 457.496094 301.277344 L 456.28125 301.476562 L 454.78125 301.773438 L 453.710938 302.039062 L 452.496094 302.421875 L 451.78125 302.710938 L 451.136719 303.03125 L 450.566406 303.414062 L 450.136719 303.816406 L 449.851562 304.242188 L 449.707031 304.65625 L 449.707031 306.445312 L 449.851562 306.859375 L 450.207031 307.34375 L 451.136719 308.046875 L 452.496094 308.660156 L 454.066406 309.144531 L 455.566406 309.488281 L 456.425781 309.652344 L 457.570312 309.835938 L 459.355469 310.066406 L 461.925781 310.296875 L 463.429688 310.390625 L 465.714844 310.480469 L 468.074219 310.527344 L 471.21875 310.527344 L 474.003906 310.480469 L 475.863281 310.421875 L 477.792969 310.332031 L 480.433594 310.136719 L 482.078125 309.949219 L 483.507812 309.730469 L 484.578125 309.511719 L 485.292969 309.328125 L 486.367188 308.96875 L 487.222656 308.578125 L 487.867188 308.175781 L 488.296875 307.78125 L 498.300781 307.78125 L 497.871094 308.242188 L 497.226562 308.695312 L 496.585938 309.027344 L 495.585938 309.433594 L 494.441406 309.789062 L 492.796875 310.191406 L 491.441406 310.457031 L 489.652344 310.746094 L 488.007812 310.964844 L 486.222656 311.160156 L 483.578125 311.390625 L 481.863281 311.507812 L 480.007812 311.609375 L 477.792969 311.703125 L 475.003906 311.785156 L 472.003906 311.832031 L 469.214844 311.839844 L 466.214844 311.820312 L 464 311.773438 L 461.070312 311.667969 L 457.425781 311.460938 L 454.78125 311.242188 L 452.710938 311.023438 L 450.921875 310.792969 L 448.921875 310.480469 L 446.351562 309.972656 L 444.777344 309.582031 L 443.707031 309.257812 L 442.492188 308.808594 L 441.632812 308.40625 L 440.632812 307.757812 L 439.917969 306.941406 L 439.703125 306.308594 Z M 439.703125 304.714844 "/>
<path style=" stroke:none;fill-rule:nonzero;fill:rgb(83.921569%,15.686275%,22.352941%);fill-opacity:1;" d="M 439.703125 71.789062 L 498.300781 71.789062 L 498.300781 96.007812 L 473.878906 96.222656 L 473.878906 298.046875 L 464.054688 298.046875 L 464.054688 96.433594 L 463.910156 96.007812 L 439.703125 96.007812 Z M 439.703125 71.789062 "/>
<path style=" stroke:none;fill-rule:nonzero;fill:rgb(96.862745%,70.196078%,16.862745%);fill-opacity:1;" d="M 501.382812 145.847656 L 501.453125 145.582031 L 501.453125 140.253906 L 501.742188 128.269531 L 502.457031 111.753906 L 503.382812 98.167969 L 504.382812 87.515625 L 505.027344 81.921875 L 506.101562 73.929688 L 507.027344 68.070312 L 509.386719 56.082031 L 512.386719 44.894531 L 514.03125 40.101562 L 515.890625 35.574219 L 518.535156 30.511719 L 519.75 28.648438 L 523.464844 24.386719 L 527.679688 21.722656 L 532.324219 20.921875 L 534.46875 21.1875 L 537.398438 22.253906 L 541.398438 25.183594 L 543.6875 27.847656 L 545.472656 30.511719 L 547.332031 33.972656 L 549.617188 39.300781 L 551.761719 45.695312 L 553.476562 52.085938 L 555.191406 60.078125 L 556.621094 68.601562 L 557.835938 77.925781 L 558.90625 89.113281 L 559.550781 98.433594 L 559.980469 107.757812 L 550.046875 107.757812 L 549.472656 98.433594 L 548.832031 91.242188 L 547.757812 82.453125 L 546.6875 76.058594 L 545.617188 71 L 543.613281 64.074219 L 541.898438 59.8125 L 539.757812 56.082031 L 537.683594 53.683594 L 535.324219 52.085938 L 533.898438 51.554688 L 530.109375 51.554688 L 526.679688 53.417969 L 524.679688 55.550781 L 523.25 57.679688 L 521.25 61.675781 L 520.035156 64.871094 L 519.320312 67.003906 L 517.175781 75.261719 L 515.746094 82.71875 L 514.960938 87.78125 L 513.960938 95.769531 L 513.246094 102.964844 L 512.460938 113.617188 L 512.03125 121.609375 L 511.460938 139.722656 L 511.386719 187.667969 L 511.601562 197.789062 L 512.03125 208.710938 L 512.601562 218.300781 L 513.460938 228.421875 L 514.316406 236.148438 L 515.816406 246.535156 L 517.105469 253.460938 L 518.105469 257.988281 L 520.035156 265.179688 L 520.820312 267.578125 L 522.679688 272.371094 L 524.605469 276.101562 L 526.964844 279.296875 L 528.75 280.898438 L 531.609375 282.230469 L 535.253906 282.230469 L 539.542969 280.628906 L 542.257812 278.5 L 544.113281 276.367188 L 545.328125 274.503906 L 546.832031 271.574219 L 547.902344 268.910156 L 548.902344 265.980469 L 550.117188 261.453125 L 550.117188 197.789062 L 532.46875 197.523438 L 532.46875 167.691406 L 559.90625 167.425781 L 559.980469 271.574219 L 558.476562 278.765625 L 556.621094 285.691406 L 554.832031 291.019531 L 552.976562 295.546875 L 550.332031 300.609375 L 548.1875 303.804688 L 544.902344 307.535156 L 541.898438 309.929688 L 538.753906 311.527344 L 535.96875 312.328125 L 532.683594 312.59375 L 529.753906 312.0625 L 526.609375 310.464844 L 524.105469 308.332031 L 521.820312 305.667969 L 519.535156 302.207031 L 516.675781 296.613281 L 514.816406 292.085938 L 512.886719 286.492188 L 510.957031 279.832031 L 509.242188 272.640625 L 508.101562 267.046875 L 506.957031 260.652344 L 505.742188 252.660156 L 504.597656 243.605469 L 503.742188 235.347656 L 502.957031 226.023438 L 502.382812 217.234375 L 501.8125 205.25 L 501.527344 195.660156 L 501.382812 187.402344 Z M 501.382812 145.847656 "/>
<path style=" stroke:none;fill-rule:nonzero;fill:rgb(6.27451%,58.823529%,28.235294%);fill-opacity:1;" d="M 563.0625 303.488281 L 563.125 303.253906 L 588.480469 55.519531 L 596.179688 55.519531 L 621.65625 303.71875 L 612.707031 303.71875 L 606.320312 238.933594 L 578.335938 238.933594 L 572.078125 303.488281 L 563.0625 303.488281 L 581.03125 212.132812 L 603.753906 211.898438 L 592.421875 96.070312 L 592.296875 95.839844 L 592.171875 96.539062 L 580.964844 211.898438 L 581.03125 212.132812 Z M 563.0625 303.488281 "/>
<path style=" stroke:none;fill-rule:nonzero;fill:rgb(96.862745%,70.196078%,16.862745%);fill-opacity:1;" d="M 563.0625 313.136719 L 563.132812 313.132812 L 563.132812 313.109375 L 563.421875 313.058594 L 564.132812 312.984375 L 565.0625 312.925781 L 566.0625 312.878906 L 566.707031 312.855469 L 567.777344 312.820312 L 568.707031 312.792969 L 571.066406 312.742188 L 574.066406 312.691406 L 575.710938 312.671875 L 577.570312 312.652344 L 580.210938 312.628906 L 581.425781 312.621094 L 585.144531 312.601562 L 589.359375 312.589844 L 596.148438 312.589844 L 599.078125 312.59375 L 603.078125 312.605469 L 605.367188 312.617188 L 607.152344 312.628906 L 609.011719 312.644531 L 611.296875 312.667969 L 613.441406 312.695312 L 615.15625 312.726562 L 616.871094 312.761719 L 618.300781 312.796875 L 619.515625 312.839844 L 620.585938 312.886719 L 621.230469 312.929688 L 621.65625 312.96875 L 611.726562 312.96875 L 611.152344 312.929688 L 610.511719 312.894531 L 609.4375 312.859375 L 608.367188 312.828125 L 607.292969 312.808594 L 605.292969 312.777344 L 603.578125 312.757812 L 601.433594 312.742188 L 599.363281 312.730469 L 597.003906 312.726562 L 595.574219 312.722656 L 591.789062 312.722656 L 588.359375 312.730469 L 586.359375 312.738281 L 584.929688 312.75 L 582.929688 312.765625 L 581.714844 312.78125 L 581 312.789062 L 578.855469 312.828125 L 577.425781 312.859375 L 576.640625 312.882812 L 575.640625 312.917969 L 574.925781 312.949219 L 574.136719 312.996094 L 573.710938 313.03125 L 573.136719 313.109375 L 573.066406 313.320312 L 573.28125 313.363281 L 573.710938 313.410156 L 574.28125 313.453125 L 575.140625 313.496094 L 575.996094 313.53125 L 577.496094 313.578125 L 578.785156 313.605469 L 579.785156 313.628906 L 581.714844 313.660156 L 582.5 313.667969 L 584.355469 313.691406 L 586.285156 313.707031 L 588.644531 313.71875 L 590.429688 313.726562 L 593.289062 313.734375 L 596.933594 313.734375 L 601.222656 313.726562 L 603.9375 313.71875 L 605.792969 313.707031 L 607.007812 313.699219 L 608.507812 313.6875 L 609.582031 313.675781 L 610.582031 313.664062 L 611.796875 313.640625 L 611.796875 313.363281 L 594.148438 313.363281 L 594.148438 313.230469 L 621.585938 313.230469 L 621.65625 313.6875 L 620.15625 313.71875 L 618.300781 313.75 L 616.511719 313.773438 L 614.65625 313.792969 L 612.011719 313.8125 L 609.867188 313.828125 L 606.582031 313.84375 L 603.578125 313.855469 L 600.433594 313.863281 L 597.648438 313.867188 L 594.359375 313.867188 L 591.429688 313.863281 L 588.289062 313.855469 L 585.785156 313.847656 L 583.5 313.835938 L 581.210938 313.820312 L 578.355469 313.796875 L 576.496094 313.777344 L 574.566406 313.753906 L 572.636719 313.722656 L 570.921875 313.691406 L 569.78125 313.667969 L 568.636719 313.640625 L 567.421875 313.605469 L 566.277344 313.5625 L 565.421875 313.527344 L 564.632812 313.488281 L 564.0625 313.449219 L 563.492188 313.394531 L 563.207031 313.355469 L 563.0625 313.316406 Z M 563.0625 313.136719 "/>
<path style=" stroke:none;fill-rule:nonzero;fill:rgb(83.921569%,15.686275%,22.352941%);fill-opacity:1;" d="M 563.0625 304.898438 L 621.65625 304.898438 L 621.65625 305.597656 L 597.238281 305.601562 L 597.238281 311.410156 L 587.410156 311.410156 L 587.410156 305.609375 L 587.269531 305.597656 L 563.0625 305.597656 Z M 563.0625 304.898438 "/>
<path style=" stroke:none;fill-rule:nonzero;fill:rgb(14.509804%,36.078431%,60%);fill-opacity:1;" d="M 624.742188 218.738281 L 624.8125 218.679688 L 624.8125 217.292969 L 625.027344 215.097656 L 625.527344 212.320312 L 626.027344 210.414062 L 627.3125 207.003906 L 629.101562 203.710938 L 630.957031 201.167969 L 632.316406 199.667969 L 633.53125 198.511719 L 636.316406 196.371094 L 638.105469 195.273438 L 640.035156 194.292969 L 642.390625 193.308594 L 644.105469 192.730469 L 647.964844 191.808594 L 650.824219 191.402344 L 653.039062 191.230469 L 657.828125 191.230469 L 660.683594 191.460938 L 662.757812 191.75 L 665.042969 192.210938 L 666.972656 192.730469 L 670.332031 194.003906 L 673.332031 195.621094 L 674.691406 196.546875 L 676.835938 198.335938 L 678.476562 200.070312 L 679.621094 201.574219 L 680.90625 203.710938 L 682.050781 206.3125 L 682.910156 209.257812 L 683.335938 211.742188 L 673.332031 211.742188 L 672.832031 209.433594 L 672.261719 207.640625 L 671.1875 205.273438 L 670.117188 203.597656 L 668.617188 201.921875 L 667.257812 200.820312 L 665.402344 199.722656 L 663.757812 199.03125 L 662.042969 198.511719 L 660.398438 198.164062 L 657.253906 197.816406 L 653.609375 197.816406 L 652.253906 197.933594 L 649.464844 198.394531 L 647.964844 198.800781 L 645.820312 199.609375 L 644.320312 200.359375 L 642.535156 201.515625 L 641.320312 202.496094 L 639.820312 204 L 638.746094 205.328125 L 637.53125 207.238281 L 636.816406 208.679688 L 636.175781 210.300781 L 635.601562 212.207031 L 635.175781 214.230469 L 634.890625 216.367188 L 634.746094 218.449219 L 634.746094 227.40625 L 634.890625 229.484375 L 635.246094 231.910156 L 636.175781 235.4375 L 637.53125 238.5 L 639.105469 240.925781 L 640.605469 242.660156 L 641.464844 243.46875 L 642.605469 244.394531 L 644.394531 245.550781 L 646.964844 246.707031 L 648.464844 247.167969 L 650.753906 247.628906 L 653.109375 247.863281 L 656.253906 247.863281 L 659.042969 247.628906 L 660.898438 247.339844 L 662.828125 246.878906 L 665.472656 245.898438 L 667.117188 244.972656 L 668.546875 243.875 L 669.617188 242.777344 L 670.332031 241.851562 L 671.402344 240.058594 L 672.261719 238.09375 L 672.902344 236.074219 L 673.332031 234.109375 L 683.335938 234.109375 L 682.910156 236.417969 L 682.265625 238.671875 L 681.621094 240.347656 L 680.621094 242.371094 L 679.476562 244.164062 L 677.835938 246.1875 L 676.476562 247.515625 L 674.691406 248.960938 L 673.046875 250.058594 L 671.261719 251.039062 L 668.617188 252.195312 L 666.902344 252.773438 L 665.042969 253.292969 L 662.828125 253.753906 L 660.042969 254.160156 L 657.039062 254.390625 L 654.253906 254.449219 L 651.253906 254.332031 L 649.039062 254.101562 L 646.109375 253.582031 L 642.464844 252.542969 L 639.820312 251.445312 L 637.746094 250.347656 L 635.960938 249.191406 L 633.960938 247.628906 L 631.386719 245.085938 L 629.816406 243.121094 L 628.742188 241.503906 L 627.527344 239.25 L 626.671875 237.230469 L 625.671875 233.992188 L 624.957031 229.890625 L 624.742188 226.710938 Z M 624.742188 218.738281 "/>
<path style=" stroke:none;fill-rule:nonzero;fill:rgb(96.862745%,70.196078%,16.862745%);fill-opacity:1;" d="M 624.742188 312.625 L 624.8125 312.621094 L 624.8125 312.585938 L 625.097656 312.503906 L 625.8125 312.390625 L 626.742188 312.300781 L 627.742188 312.226562 L 628.386719 312.1875 L 629.457031 312.132812 L 630.386719 312.09375 L 632.746094 312.011719 L 635.746094 311.9375 L 637.390625 311.902344 L 639.246094 311.871094 L 641.890625 311.839844 L 643.105469 311.824219 L 646.820312 311.796875 L 651.039062 311.777344 L 655.683594 311.773438 L 657.828125 311.773438 L 660.757812 311.78125 L 664.757812 311.800781 L 667.042969 311.820312 L 668.832031 311.839844 L 670.6875 311.863281 L 672.976562 311.898438 L 675.121094 311.941406 L 676.835938 311.984375 L 678.550781 312.039062 L 679.980469 312.097656 L 681.191406 312.160156 L 682.265625 312.238281 L 682.910156 312.300781 L 683.335938 312.363281 L 673.40625 312.363281 L 672.832031 312.300781 L 672.191406 312.253906 L 671.117188 312.191406 L 670.046875 312.148438 L 668.972656 312.113281 L 666.972656 312.066406 L 665.257812 312.039062 L 663.113281 312.011719 L 661.042969 311.996094 L 658.683594 311.984375 L 657.253906 311.980469 L 653.46875 311.980469 L 650.039062 311.996094 L 648.035156 312.007812 L 646.609375 312.023438 L 644.605469 312.050781 L 643.390625 312.074219 L 642.675781 312.085938 L 640.535156 312.144531 L 639.105469 312.195312 L 638.320312 312.230469 L 637.316406 312.28125 L 636.605469 312.332031 L 635.816406 312.40625 L 635.390625 312.460938 L 634.816406 312.582031 L 634.746094 312.910156 L 634.960938 312.980469 L 635.390625 313.054688 L 635.960938 313.117188 L 636.816406 313.1875 L 637.675781 313.238281 L 639.175781 313.3125 L 640.460938 313.359375 L 641.464844 313.390625 L 643.390625 313.4375 L 644.179688 313.453125 L 646.035156 313.488281 L 647.964844 313.511719 L 650.324219 313.535156 L 652.109375 313.546875 L 654.96875 313.554688 L 658.613281 313.554688 L 662.898438 313.542969 L 665.617188 313.527344 L 667.472656 313.515625 L 668.6875 313.5 L 670.1875 313.480469 L 671.261719 313.464844 L 672.261719 313.445312 L 673.476562 313.414062 L 673.476562 312.980469 L 655.824219 312.976562 L 655.824219 312.773438 L 683.265625 312.773438 L 683.335938 313.480469 L 681.835938 313.53125 L 679.980469 313.578125 L 678.191406 313.613281 L 676.335938 313.644531 L 673.691406 313.679688 L 671.546875 313.703125 L 668.257812 313.726562 L 665.257812 313.742188 L 662.113281 313.753906 L 659.328125 313.757812 L 656.039062 313.761719 L 653.109375 313.757812 L 649.964844 313.746094 L 647.464844 313.730469 L 645.179688 313.714844 L 642.890625 313.691406 L 640.035156 313.652344 L 638.175781 313.621094 L 636.246094 313.582031 L 634.316406 313.539062 L 632.601562 313.488281 L 631.457031 313.449219 L 630.316406 313.40625 L 629.101562 313.351562 L 627.957031 313.292969 L 627.101562 313.234375 L 626.3125 313.171875 L 625.742188 313.109375 L 625.171875 313.03125 L 624.882812 312.964844 L 624.742188 312.90625 Z M 624.742188 312.625 "/>
<path style=" stroke:none;fill-rule:nonzero;fill:rgb(83.921569%,15.686275%,22.352941%);fill-opacity:1;" d="M 624.742188 255.628906 L 683.335938 255.628906 L 683.335938 261.511719 L 658.917969 261.5625 L 658.917969 310.59375 L 649.089844 310.59375 L 649.089844 261.617188 L 648.949219 261.511719 L 624.742188 261.511719 Z M 624.742188 255.628906 "/>
<g style="fill:rgb(0%,0%,0%);fill-opacity:1;">
  <use xlink:href="#glyph0-1" x="21.957031" y="318.198242"/>
  <use xlink:href="#glyph0-2" x="27.291016" y="318.198242"/>
  <use xlink:href="#glyph0-1" x="29.958008" y="318.198242"/>
</g>
<g style="fill:rgb(0%,0%,0%);fill-opacity:1;">
  <use xlink:href="#glyph0-1" x="21.957031" y="242.206055"/>
  <use xlink:href="#glyph0-2" x="27.291016" y="242.206055"/>
  <use xlink:href="#glyph0-3" x="29.958008" y="242.206055"/>
</g>
<g style="fill:rgb(0%,0%,0%);fill-opacity:1;">
  <use xlink:href="#glyph0-4" x="21.957031" y="166.213867"/>
  <use xlink:href="#glyph0-2" x="27.291016" y="166.213867"/>
  <use xlink:href="#glyph0-1" x="29.958008" y="166.213867"/>
</g>
<g style="fill:rgb(0%,0%,0%);fill-opacity:1;">
  <use xlink:href="#glyph0-4" x="21.957031" y="90.22168"/>
  <use xlink:href="#glyph0-2" x="27.291016" y="90.22168"/>
  <use xlink:href="#glyph0-3" x="29.958008" y="90.22168"/>
</g>
<g style="fill:rgb(0%,0%,0%);fill-opacity:1;">
  <use xlink:href="#glyph0-5" x="21.957031" y="14.229492"/>
  <use xlink:href="#glyph0-2" x="27.291016" y="14.229492"/>
  <use xlink:href="#glyph0-1" x="29.958008" y="14.229492"/>
</g>
<g style="fill:rgb(0%,0%,0%);fill-opacity:1;">
  <use xlink:href="#glyph0-4" x="95.925781" y="338.19043"/>
</g>
<g style="fill:rgb(0%,0%,0%);fill-opacity:1;">
  <use xlink:href="#glyph0-5" x="157.605469" y="338.19043"/>
</g>
<g style="fill:rgb(0%,0%,0%);fill-opacity:1;">
  <use xlink:href="#glyph0-6" x="219.285156" y="338.19043"/>
</g>
<g style="fill:rgb(0%,0%,0%);fill-opacity:1;">
  <use xlink:href="#glyph0-7" x="280.964844" y="338.19043"/>
</g>
<g style="fill:rgb(0%,0%,0%);fill-opacity:1;">
  <use xlink:href="#glyph0-3" x="342.644531" y="338.19043"/>
</g>
<g style="fill:rgb(0%,0%,0%);fill-opacity:1;">
  <use xlink:href="#glyph0-8" x="404.324219" y="338.19043"/>
</g>
<g style="fill:rgb(0%,0%,0%);fill-opacity:1;">
  <use xlink:href="#glyph0-9" x="466" y="338.19043"/>
</g>
<g style="fill:rgb(0%,0%,0%);fill-opacity:1;">
  <use xlink:href="#glyph0-10" x="527.679688" y="338.19043"/>
</g>
<g style="fill:rgb(0%,0%,0%);fill-opacity:1;">
  <use xlink:href="#glyph0-11" x="589.359375" y="338.19043"/>
</g>
<g style="fill:rgb(0%,0%,0%);fill-opacity:1;">
  <use xlink:href="#glyph0-4" x="648.539062" y="338.19043"/>
  <use xlink:href="#glyph0-1" x="653.873047" y="338.19043"/>
</g>
<g style="fill:rgb(0%,0%,0%);fill-opacity:1;">
  <use xlink:href="#glyph1-1" x="14.412109" y="178.015625"/>
  <use xlink:href="#glyph1-2" x="14.412109" y="170.011719"/>
  <use xlink:href="#glyph1-3" x="14.412109" y="167.347656"/>
  <use xlink:href="#glyph1-4" x="14.412109" y="164.011719"/>
</g>
</g>
</svg>
