<?xml version="1.0" encoding="UTF-8"?>
<svg xmlns="http://www.w3.org/2000/svg" xmlns:xlink="http://www.w3.org/1999/xlink" width="720pt" height="360pt" viewBox="0 0 720 360" version="1.1">
<defs>
<g>
<symbol overflow="visible" id="glyph0-0">
<path style="stroke:none;" d=""/>
</symbol>
<symbol overflow="visible" id="glyph0-1">
<path style="stroke:none;" d="M 2.640625 -6.796875 C 2 -6.796875 1.421875 -6.53125 1.078125 -6.046875 C 0.640625 -5.453125 0.40625 -4.546875 0.40625 -3.296875 C 0.40625 -1 1.1875 0.21875 2.640625 0.21875 C 4.078125 0.21875 4.859375 -1 4.859375 -3.234375 C 4.859375 -4.5625 4.65625 -5.4375 4.203125 -6.046875 C 3.84375 -6.53125 3.28125 -6.796875 2.640625 -6.796875 Z M 2.640625 -6.046875 C 3.546875 -6.046875 4 -5.125 4 -3.3125 C 4 -1.375 3.5625 -0.484375 2.625 -0.484375 C 1.734375 -0.484375 1.28125 -1.421875 1.28125 -3.28125 C 1.28125 -5.140625 1.734375 -6.046875 2.640625 -6.046875 Z M 2.640625 -6.046875 "/>
</symbol>
<symbol overflow="visible" id="glyph0-2">
<path style="stroke:none;" d="M 1.828125 -1 L 0.828125 -1 L 0.828125 0 L 1.828125 0 Z M 1.828125 -1 "/>
</symbol>
<symbol overflow="visible" id="glyph0-3">
<path style="stroke:none;" d="M 4.5625 -6.796875 L 1.0625 -6.796875 L 0.546875 -3.09375 L 1.328125 -3.09375 C 1.71875 -3.5625 2.046875 -3.734375 2.578125 -3.734375 C 3.484375 -3.734375 4.0625 -3.109375 4.0625 -2.09375 C 4.0625 -1.125 3.484375 -0.53125 2.578125 -0.53125 C 1.828125 -0.53125 1.375 -0.90625 1.1875 -1.671875 L 0.328125 -1.671875 C 0.453125 -1.109375 0.546875 -0.84375 0.75 -0.59375 C 1.125 -0.078125 1.828125 0.21875 2.59375 0.21875 C 3.96875 0.21875 4.921875 -0.78125 4.921875 -2.21875 C 4.921875 -3.5625 4.03125 -4.484375 2.71875 -4.484375 C 2.25 -4.484375 1.859375 -4.359375 1.46875 -4.0625 L 1.734375 -5.96875 L 4.5625 -5.96875 Z M 4.5625 -6.796875 "/>
</symbol>
<symbol overflow="visible" id="glyph0-4">
<path style="stroke:none;" d="M 2.484375 -4.84375 L 2.484375 0 L 3.328125 0 L 3.328125 -6.796875 L 2.765625 -6.796875 C 2.46875 -5.75 2.28125 -5.609375 0.984375 -5.453125 L 0.984375 -4.84375 Z M 2.484375 -4.84375 "/>
</symbol>
<symbol overflow="visible" id="glyph0-5">
<path style="stroke:none;" d="M 4.859375 -0.828125 L 1.28125 -0.828125 C 1.359375 -1.390625 1.671875 -1.75 2.5 -2.234375 L 3.46875 -2.75 C 4.40625 -3.265625 4.90625 -3.96875 4.90625 -4.8125 C 4.90625 -5.375 4.671875 -5.90625 4.265625 -6.265625 C 3.859375 -6.625 3.375 -6.796875 2.71875 -6.796875 C 1.859375 -6.796875 1.21875 -6.5 0.84375 -5.921875 C 0.609375 -5.5625 0.5 -5.125 0.484375 -4.4375 L 1.328125 -4.4375 C 1.359375 -4.90625 1.40625 -5.1875 1.53125 -5.40625 C 1.75 -5.8125 2.1875 -6.0625 2.703125 -6.0625 C 3.46875 -6.0625 4.03125 -5.515625 4.03125 -4.78125 C 4.03125 -4.25 3.71875 -3.796875 3.125 -3.4375 L 2.234375 -2.9375 C 0.8125 -2.140625 0.40625 -1.5 0.328125 0 L 4.859375 0 Z M 4.859375 -0.828125 "/>
</symbol>
<symbol overflow="visible" id="glyph0-6">
<path style="stroke:none;" d="M 2.125 -3.125 L 2.578125 -3.125 C 3.515625 -3.125 3.984375 -2.703125 3.984375 -1.890625 C 3.984375 -1.03125 3.46875 -0.53125 2.578125 -0.53125 C 1.65625 -0.53125 1.203125 -0.984375 1.15625 -1.96875 L 0.3125 -1.96875 C 0.34375 -1.421875 0.4375 -1.078125 0.609375 -0.765625 C 0.953125 -0.109375 1.625 0.21875 2.546875 0.21875 C 3.953125 0.21875 4.859375 -0.609375 4.859375 -1.90625 C 4.859375 -2.765625 4.515625 -3.25 3.703125 -3.515625 C 4.34375 -3.765625 4.65625 -4.25 4.65625 -4.9375 C 4.65625 -6.109375 3.875 -6.796875 2.578125 -6.796875 C 1.203125 -6.796875 0.484375 -6.046875 0.453125 -4.609375 L 1.296875 -4.609375 C 1.3125 -5.015625 1.34375 -5.25 1.453125 -5.453125 C 1.640625 -5.828125 2.0625 -6.0625 2.59375 -6.0625 C 3.34375 -6.0625 3.796875 -5.625 3.796875 -4.90625 C 3.796875 -4.421875 3.609375 -4.140625 3.25 -3.984375 C 3.015625 -3.890625 2.71875 -3.84375 2.125 -3.84375 Z M 2.125 -3.125 "/>
</symbol>
<symbol overflow="visible" id="glyph0-7">
<path style="stroke:none;" d="M 3.140625 -1.625 L 3.140625 0 L 3.984375 0 L 3.984375 -1.625 L 4.984375 -1.625 L 4.984375 -2.390625 L 3.984375 -2.390625 L 3.984375 -6.796875 L 3.359375 -6.796875 L 0.265625 -2.515625 L 0.265625 -1.625 Z M 3.140625 -2.390625 L 1 -2.390625 L 3.140625 -5.359375 Z M 3.140625 -2.390625 "/>
</symbol>
<symbol overflow="visible" id="glyph0-8">
<path style="stroke:none;" d="M 4.78125 -5.03125 C 4.609375 -6.140625 3.890625 -6.796875 2.84375 -6.796875 C 2.09375 -6.796875 1.421875 -6.4375 1.03125 -5.828125 C 0.609375 -5.171875 0.40625 -4.34375 0.40625 -3.09375 C 0.40625 -1.953125 0.578125 -1.234375 0.984375 -0.625 C 1.359375 -0.078125 1.953125 0.21875 2.703125 0.21875 C 3.984375 0.21875 4.921875 -0.734375 4.921875 -2.078125 C 4.921875 -3.34375 4.0625 -4.234375 2.84375 -4.234375 C 2.171875 -4.234375 1.640625 -3.96875 1.28125 -3.46875 C 1.28125 -5.125 1.828125 -6.046875 2.796875 -6.046875 C 3.390625 -6.046875 3.796875 -5.671875 3.9375 -5.03125 Z M 2.734375 -3.484375 C 3.546875 -3.484375 4.0625 -2.921875 4.0625 -2 C 4.0625 -1.15625 3.484375 -0.53125 2.703125 -0.53125 C 1.921875 -0.53125 1.328125 -1.1875 1.328125 -2.046875 C 1.328125 -2.890625 1.90625 -3.484375 2.734375 -3.484375 Z M 2.734375 -3.484375 "/>
</symbol>
<symbol overflow="visible" id="glyph0-9">
<path style="stroke:none;" d="M 4.984375 -6.796875 L 0.4375 -6.796875 L 0.4375 -5.96875 L 4.109375 -5.96875 C 2.5 -3.65625 1.828125 -2.234375 1.328125 0 L 2.21875 0 C 2.59375 -2.171875 3.453125 -4.046875 4.984375 -6.09375 Z M 4.984375 -6.796875 "/>
</symbol>
<symbol overflow="visible" id="glyph0-10">
<path style="stroke:none;" d="M 3.75 -3.578125 C 4.453125 -4 4.6875 -4.34375 4.6875 -4.984375 C 4.6875 -6.046875 3.84375 -6.796875 2.640625 -6.796875 C 1.4375 -6.796875 0.59375 -6.046875 0.59375 -4.984375 C 0.59375 -4.359375 0.828125 -4.015625 1.515625 -3.578125 C 0.734375 -3.203125 0.359375 -2.640625 0.359375 -1.890625 C 0.359375 -0.640625 1.296875 0.21875 2.640625 0.21875 C 3.984375 0.21875 4.921875 -0.640625 4.921875 -1.875 C 4.921875 -2.640625 4.53125 -3.203125 3.75 -3.578125 Z M 2.640625 -6.046875 C 3.359375 -6.046875 3.8125 -5.625 3.8125 -4.96875 C 3.8125 -4.34375 3.34375 -3.921875 2.640625 -3.921875 C 1.921875 -3.921875 1.453125 -4.34375 1.453125 -4.984375 C 1.453125 -5.625 1.921875 -6.046875 2.640625 -6.046875 Z M 2.640625 -3.203125 C 3.484375 -3.203125 4.0625 -2.671875 4.0625 -1.875 C 4.0625 -1.0625 3.484375 -0.53125 2.625 -0.53125 C 1.796875 -0.53125 1.21875 -1.078125 1.21875 -1.875 C 1.21875 -2.671875 1.796875 -3.203125 2.640625 -3.203125 Z M 2.640625 -3.203125 "/>
</symbol>
<symbol overflow="visible" id="glyph0-11">
<path style="stroke:none;" d="M 0.515625 -1.546875 C 0.671875 -0.4375 1.40625 0.21875 2.4375 0.21875 C 3.1875 0.21875 3.859375 -0.140625 4.265625 -0.75 C 4.6875 -1.40625 4.890625 -2.25 4.890625 -3.484375 C 4.890625 -4.625 4.703125 -5.359375 4.3125 -5.953125 C 3.9375 -6.5 3.34375 -6.796875 2.59375 -6.796875 C 1.296875 -6.796875 0.359375 -5.84375 0.359375 -4.515625 C 0.359375 -3.25 1.234375 -2.34375 2.453125 -2.34375 C 3.09375 -2.34375 3.5625 -2.578125 4.015625 -3.109375 C 4 -1.453125 3.46875 -0.53125 2.5 -0.53125 C 1.90625 -0.53125 1.484375 -0.90625 1.359375 -1.546875 Z M 2.578125 -6.0625 C 3.375 -6.0625 3.96875 -5.40625 3.96875 -4.53125 C 3.96875 -3.6875 3.375 -3.09375 2.546875 -3.09375 C 1.734375 -3.09375 1.234375 -3.671875 1.234375 -4.578125 C 1.234375 -5.4375 1.796875 -6.0625 2.578125 -6.0625 Z M 2.578125 -6.0625 "/>
</symbol>
<symbol overflow="visible" id="glyph1-0">
<path style="stroke:none;" d=""/>
</symbol>
<symbol overflow="visible" id="glyph1-1">
<path style="stroke:none;" d="M 0 -0.953125 L 0 -4.890625 C 0 -5.71875 -0.234375 -6.34375 -0.734375 -6.796875 C -1.1875 -7.234375 -1.8125 -7.46875 -2.5 -7.46875 C -3.546875 -7.46875 -4.1875 -7 -4.625 -5.875 C -4.984375 -6.671875 -5.640625 -7.09375 -6.53125 -7.09375 C -7.15625 -7.09375 -7.734375 -6.859375 -8.140625 -6.390625 C -8.5625 -5.9375 -8.75 -5.34375 -8.75 -4.5 L -8.75 -0.953125 Z M -4.984375 -2.0625 L -7.765625 -2.0625 L -7.765625 -4.21875 C -7.765625 -4.84375 -7.6875 -5.203125 -7.453125 -5.5 C -7.21875 -5.8125 -6.859375 -5.96875 -6.375 -5.96875 C -5.90625 -5.96875 -5.53125 -5.8125 -5.296875 -5.5 C -5.0625 -5.203125 -4.984375 -4.84375 -4.984375 -4.21875 Z M -0.984375 -2.0625 L -4 -2.0625 L -4 -4.78125 C -4 -5.328125 -3.859375 -5.6875 -3.578125 -5.953125 C -3.296875 -6.21875 -2.921875 -6.359375 -2.484375 -6.359375 C -2.0625 -6.359375 -1.6875 -6.21875 -1.40625 -5.953125 C -1.109375 -5.6875 -0.984375 -5.328125 -0.984375 -4.78125 Z M -0.984375 -2.0625 "/>
</symbol>
<symbol overflow="visible" id="glyph1-2">
<path style="stroke:none;" d="M -6.28125 -1.796875 L -6.28125 -0.796875 L 0 -0.796875 L 0 -1.796875 Z M -8.75 -1.796875 L -8.75 -0.796875 L -7.484375 -0.796875 L -7.484375 -1.796875 Z M -8.75 -1.796875 "/>
</symbol>
<symbol overflow="visible" id="glyph1-3">
<path style="stroke:none;" d="M -6.28125 -3.046875 L -6.28125 -2.015625 L -8.015625 -2.015625 L -8.015625 -1.015625 L -6.28125 -1.015625 L -6.28125 -0.171875 L -5.46875 -0.171875 L -5.46875 -1.015625 L -0.71875 -1.015625 C -0.078125 -1.015625 0.28125 -1.453125 0.28125 -2.234375 C 0.28125 -2.46875 0.25 -2.71875 0.1875 -3.046875 L -0.640625 -3.046875 C -0.609375 -2.921875 -0.59375 -2.765625 -0.59375 -2.5625 C -0.59375 -2.140625 -0.71875 -2.015625 -1.15625 -2.015625 L -5.46875 -2.015625 L -5.46875 -3.046875 Z M -6.28125 -3.046875 "/>
</symbol>
<symbol overflow="visible" id="glyph1-4">
<path style="stroke:none;" d="M -4.53125 -5.25 C -5.765625 -5.25 -6.46875 -4.421875 -6.46875 -2.96875 C -6.46875 -1.515625 -5.71875 -0.5625 -4.546875 -0.5625 C -3.5625 -0.5625 -3.09375 -1.0625 -2.734375 -2.5625 L -2.515625 -3.484375 C -2.34375 -4.1875 -2.09375 -4.46875 -1.625 -4.46875 C -1.046875 -4.46875 -0.640625 -3.875 -0.640625 -3 C -0.640625 -2.453125 -0.796875 -2 -1.0625 -1.75 C -1.25 -1.59375 -1.421875 -1.53125 -1.875 -1.46875 L -1.875 -0.40625 C -0.421875 -0.453125 0.28125 -1.265625 0.28125 -2.921875 C 0.28125 -4.5 -0.5 -5.515625 -1.71875 -5.515625 C -2.65625 -5.515625 -3.171875 -4.984375 -3.46875 -3.734375 L -3.703125 -2.765625 C -3.890625 -1.953125 -4.15625 -1.609375 -4.59375 -1.609375 C -5.171875 -1.609375 -5.546875 -2.125 -5.546875 -2.9375 C -5.546875 -3.75 -5.203125 -4.171875 -4.53125 -4.203125 Z M -4.53125 -5.25 "/>
</symbol>
</g>
</defs>
<g id="surface100533">
<rect x="0" y="0" width="720" height="360" style="fill:rgb(100%,100%,100%);fill-opacity:1;stroke:none;"/>
<path style=" stroke:none;fill-rule:nonzero;fill:rgb(6.27451%,58.823529%,28.235294%);fill-opacity:1;" d="M 69.628906 309.292969 L 69.691406 309.292969 L 95.046875 308.378906 L 102.746094 308.378906 L 128.222656 309.292969 L 119.273438 309.292969 L 112.886719 309.054688 L 84.902344 309.054688 L 78.644531 309.292969 L 69.628906 309.292969 L 87.597656 308.957031 L 110.320312 308.953125 L 98.988281 308.527344 L 98.738281 308.527344 L 87.535156 308.953125 L 87.597656 308.957031 Z M 69.628906 309.292969 "/>
<path style=" stroke:none;fill-rule:nonzero;fill:rgb(96.862745%,70.196078%,16.862745%);fill-opacity:1;" d="M 69.628906 310.59375 L 69.699219 310.59375 L 69.699219 310.585938 L 69.988281 310.574219 L 70.703125 310.558594 L 71.628906 310.546875 L 72.628906 310.535156 L 73.273438 310.527344 L 74.34375 310.519531 L 75.273438 310.515625 L 77.632812 310.503906 L 80.632812 310.492188 L 82.277344 310.488281 L 84.136719 310.484375 L 86.777344 310.476562 L 87.992188 310.476562 L 91.710938 310.472656 L 95.925781 310.46875 L 105.644531 310.46875 L 109.644531 310.472656 L 111.933594 310.476562 L 113.71875 310.476562 L 115.578125 310.480469 L 117.863281 310.488281 L 120.007812 310.492188 L 123.4375 310.507812 L 124.867188 310.515625 L 126.082031 310.523438 L 127.152344 310.535156 L 127.796875 310.546875 L 128.222656 310.554688 L 118.292969 310.554688 L 117.71875 310.546875 L 117.078125 310.539062 L 116.003906 310.53125 L 114.933594 310.523438 L 113.863281 310.519531 L 111.859375 310.511719 L 110.144531 310.507812 L 108.003906 310.503906 L 105.929688 310.5 L 94.925781 310.5 L 92.925781 310.503906 L 91.496094 310.503906 L 89.496094 310.507812 L 88.28125 310.511719 L 87.566406 310.515625 L 85.421875 310.523438 L 83.992188 310.53125 L 83.207031 310.535156 L 82.207031 310.542969 L 81.492188 310.550781 L 80.707031 310.558594 L 80.277344 310.566406 L 79.703125 310.585938 L 79.632812 310.632812 L 79.847656 310.644531 L 80.277344 310.65625 L 80.847656 310.664062 L 81.707031 310.675781 L 82.5625 310.683594 L 84.0625 310.691406 L 85.351562 310.699219 L 86.351562 310.703125 L 88.28125 310.710938 L 89.066406 310.714844 L 90.921875 310.71875 L 92.851562 310.722656 L 95.210938 310.722656 L 96.996094 310.726562 L 107.789062 310.726562 L 110.503906 310.722656 L 112.359375 310.722656 L 113.574219 310.71875 L 115.078125 310.71875 L 116.148438 310.714844 L 117.148438 310.710938 L 118.363281 310.707031 L 118.363281 310.644531 L 100.714844 310.644531 L 100.714844 310.613281 L 128.152344 310.613281 L 128.222656 310.71875 L 126.722656 310.722656 L 124.867188 310.730469 L 123.078125 310.734375 L 121.222656 310.742188 L 118.578125 310.746094 L 116.433594 310.75 L 113.148438 310.753906 L 110.144531 310.753906 L 107 310.757812 L 97.996094 310.757812 L 94.855469 310.753906 L 92.351562 310.753906 L 87.78125 310.746094 L 84.921875 310.742188 L 83.0625 310.738281 L 81.132812 310.730469 L 79.203125 310.726562 L 77.488281 310.71875 L 76.347656 310.710938 L 75.203125 310.707031 L 73.988281 310.699219 L 72.84375 310.6875 L 71.988281 310.679688 L 71.203125 310.671875 L 70.628906 310.664062 L 70.058594 310.652344 L 69.773438 310.640625 L 69.628906 310.632812 Z M 69.628906 310.59375 "/>
<path style=" stroke:none;fill-rule:nonzero;fill:rgb(83.921569%,15.686275%,22.352941%);fill-opacity:1;" d="M 69.628906 311.933594 L 128.222656 311.933594 L 128.222656 311.941406 L 103.804688 311.941406 L 103.804688 312.023438 L 93.980469 312.023438 L 93.980469 311.941406 L 69.628906 311.941406 Z M 69.628906 311.933594 "/>
<path style=" stroke:none;fill-rule:nonzero;fill:rgb(6.27451%,58.823529%,28.235294%);fill-opacity:1;" d="M 131.308594 311.824219 L 131.371094 311.824219 L 156.726562 311.402344 L 164.425781 311.402344 L 189.902344 311.824219 L 180.953125 311.824219 L 174.566406 311.714844 L 146.582031 311.714844 L 140.324219 311.824219 L 131.308594 311.824219 L 149.273438 311.667969 L 172 311.667969 L 160.667969 311.46875 L 160.542969 311.46875 L 160.417969 311.472656 L 149.210938 311.667969 L 149.273438 311.667969 Z M 131.308594 311.824219 "/>
<path style=" stroke:none;fill-rule:nonzero;fill:rgb(14.509804%,36.078431%,60%);fill-opacity:1;" d="M 131.308594 306.921875 L 131.378906 306.917969 L 131.378906 306.886719 L 131.59375 306.839844 L 132.09375 306.777344 L 132.59375 306.734375 L 133.882812 306.65625 L 135.667969 306.582031 L 137.523438 306.527344 L 138.882812 306.492188 L 140.097656 306.46875 L 142.882812 306.417969 L 144.671875 306.394531 L 146.601562 306.371094 L 148.957031 306.351562 L 150.671875 306.335938 L 154.53125 306.316406 L 157.390625 306.308594 L 159.605469 306.304688 L 164.394531 306.304688 L 167.25 306.308594 L 169.324219 306.316406 L 171.609375 306.324219 L 173.539062 306.335938 L 176.898438 306.367188 L 179.898438 306.402344 L 181.257812 306.421875 L 183.402344 306.464844 L 185.042969 306.5 L 186.1875 306.535156 L 187.472656 306.582031 L 188.617188 306.640625 L 189.476562 306.707031 L 189.902344 306.761719 L 179.898438 306.761719 L 179.398438 306.710938 L 178.828125 306.671875 L 177.757812 306.617188 L 176.683594 306.582031 L 175.183594 306.542969 L 173.824219 306.519531 L 171.96875 306.492188 L 170.324219 306.480469 L 168.609375 306.46875 L 166.964844 306.460938 L 163.820312 306.453125 L 158.820312 306.453125 L 156.03125 306.464844 L 154.53125 306.472656 L 152.386719 306.492188 L 150.886719 306.507812 L 149.101562 306.535156 L 147.886719 306.554688 L 146.386719 306.589844 L 145.3125 306.621094 L 144.097656 306.664062 L 143.386719 306.695312 L 142.742188 306.730469 L 142.171875 306.773438 L 141.742188 306.820312 L 141.457031 306.867188 L 141.3125 306.914062 L 141.3125 307.113281 L 141.457031 307.160156 L 141.8125 307.214844 L 142.742188 307.292969 L 144.097656 307.363281 L 145.671875 307.417969 L 147.171875 307.457031 L 148.03125 307.476562 L 149.171875 307.496094 L 150.960938 307.523438 L 153.53125 307.546875 L 155.03125 307.558594 L 157.320312 307.566406 L 159.675781 307.574219 L 162.820312 307.574219 L 165.609375 307.566406 L 167.464844 307.5625 L 169.394531 307.550781 L 172.039062 307.53125 L 173.683594 307.507812 L 175.113281 307.484375 L 176.183594 307.460938 L 176.898438 307.4375 L 177.96875 307.398438 L 178.828125 307.355469 L 179.472656 307.308594 L 179.898438 307.265625 L 189.902344 307.265625 L 189.476562 307.316406 L 188.832031 307.367188 L 188.1875 307.40625 L 187.1875 307.449219 L 186.046875 307.492188 L 184.402344 307.535156 L 183.042969 307.566406 L 181.257812 307.597656 L 179.613281 307.621094 L 177.828125 307.644531 L 175.183594 307.671875 L 173.46875 307.683594 L 171.609375 307.695312 L 169.394531 307.707031 L 166.609375 307.714844 L 163.605469 307.71875 L 160.820312 307.722656 L 157.820312 307.71875 L 155.605469 307.714844 L 152.675781 307.703125 L 149.03125 307.679688 L 146.386719 307.652344 L 144.3125 307.628906 L 142.527344 307.601562 L 140.527344 307.566406 L 137.953125 307.511719 L 136.382812 307.46875 L 135.308594 307.429688 L 134.09375 307.378906 L 133.238281 307.335938 L 132.238281 307.261719 L 131.523438 307.171875 L 131.308594 307.097656 Z M 131.308594 306.921875 "/>
<path style=" stroke:none;fill-rule:nonzero;fill:rgb(96.862745%,70.196078%,16.862745%);fill-opacity:1;" d="M 131.308594 309.464844 L 131.378906 309.464844 L 131.378906 309.441406 L 131.664062 309.386719 L 132.378906 309.308594 L 133.308594 309.25 L 134.308594 309.199219 L 134.953125 309.175781 L 136.023438 309.136719 L 136.953125 309.109375 L 139.3125 309.054688 L 142.3125 309.003906 L 143.957031 308.984375 L 145.8125 308.960938 L 148.457031 308.941406 L 149.671875 308.929688 L 153.390625 308.910156 L 157.605469 308.898438 L 162.25 308.894531 L 164.394531 308.898438 L 167.324219 308.902344 L 171.324219 308.914062 L 173.613281 308.925781 L 175.398438 308.941406 L 177.253906 308.957031 L 179.542969 308.980469 L 181.6875 309.007812 L 183.402344 309.039062 L 185.117188 309.074219 L 186.546875 309.113281 L 187.761719 309.15625 L 188.832031 309.207031 L 189.476562 309.25 L 189.902344 309.292969 L 179.972656 309.292969 L 179.398438 309.25 L 178.757812 309.214844 L 177.683594 309.175781 L 176.613281 309.148438 L 175.539062 309.125 L 173.539062 309.09375 L 171.824219 309.074219 L 169.679688 309.054688 L 167.609375 309.046875 L 165.25 309.039062 L 163.820312 309.035156 L 160.035156 309.035156 L 156.605469 309.042969 L 154.605469 309.054688 L 153.175781 309.0625 L 151.171875 309.082031 L 149.957031 309.097656 L 149.246094 309.105469 L 147.101562 309.144531 L 145.671875 309.179688 L 144.886719 309.199219 L 143.886719 309.238281 L 143.171875 309.269531 L 142.382812 309.320312 L 141.957031 309.355469 L 141.382812 309.4375 L 141.3125 309.65625 L 141.527344 309.703125 L 141.957031 309.753906 L 142.527344 309.796875 L 143.386719 309.84375 L 144.242188 309.878906 L 145.742188 309.925781 L 147.027344 309.957031 L 148.03125 309.976562 L 149.957031 310.011719 L 150.746094 310.019531 L 152.601562 310.042969 L 154.53125 310.058594 L 156.890625 310.074219 L 158.675781 310.082031 L 161.535156 310.085938 L 165.179688 310.085938 L 169.46875 310.082031 L 172.183594 310.070312 L 174.039062 310.0625 L 175.253906 310.050781 L 176.753906 310.039062 L 177.828125 310.027344 L 178.828125 310.011719 L 180.042969 309.992188 L 180.042969 309.703125 L 162.390625 309.703125 L 162.390625 309.566406 L 189.832031 309.5625 L 189.902344 310.039062 L 188.402344 310.070312 L 186.546875 310.101562 L 184.757812 310.128906 L 182.902344 310.148438 L 180.257812 310.171875 L 178.113281 310.1875 L 174.824219 310.203125 L 171.824219 310.214844 L 168.679688 310.222656 L 165.894531 310.226562 L 162.605469 310.226562 L 159.675781 310.222656 L 156.53125 310.214844 L 154.03125 310.207031 L 151.746094 310.195312 L 149.457031 310.179688 L 146.601562 310.152344 L 144.742188 310.132812 L 140.882812 310.078125 L 139.167969 310.042969 L 138.027344 310.019531 L 136.882812 309.988281 L 135.667969 309.953125 L 134.523438 309.910156 L 133.667969 309.875 L 132.878906 309.832031 L 132.308594 309.792969 L 131.738281 309.738281 L 131.453125 309.691406 L 131.308594 309.65625 Z M 131.308594 309.464844 "/>
<path style=" stroke:none;fill-rule:nonzero;fill:rgb(83.921569%,15.686275%,22.352941%);fill-opacity:1;" d="M 131.308594 313 L 189.902344 313 L 189.902344 313.019531 L 165.484375 313.019531 L 165.484375 313.195312 L 155.65625 313.195312 L 155.65625 313.019531 L 131.308594 313.019531 Z M 131.308594 313 "/>
<path style=" stroke:none;fill-rule:nonzero;fill:rgb(6.27451%,58.823529%,28.235294%);fill-opacity:1;" d="M 192.988281 310.511719 L 193.050781 310.503906 L 218.402344 303.957031 L 226.105469 303.957031 L 251.582031 310.515625 L 242.628906 310.515625 L 236.246094 308.804688 L 208.261719 308.804688 L 202.003906 310.511719 L 192.988281 310.511719 L 210.953125 308.097656 L 233.679688 308.089844 L 222.347656 305.03125 L 222.222656 305.023438 L 222.097656 305.042969 L 210.890625 308.089844 L 210.953125 308.097656 Z M 192.988281 310.511719 "/>
<path style=" stroke:none;fill-rule:nonzero;fill:rgb(14.509804%,36.078431%,60%);fill-opacity:1;" d="M 192.988281 290.972656 L 193.058594 290.953125 L 193.058594 290.496094 L 193.273438 289.769531 L 193.773438 288.851562 L 194.273438 288.222656 L 195.558594 287.09375 L 197.347656 286.003906 L 199.203125 285.164062 L 200.5625 284.667969 L 201.777344 284.285156 L 204.5625 283.578125 L 206.351562 283.214844 L 208.28125 282.890625 L 210.636719 282.566406 L 212.351562 282.375 L 216.210938 282.070312 L 219.070312 281.933594 L 221.285156 281.878906 L 226.074219 281.878906 L 228.929688 281.953125 L 231.003906 282.050781 L 233.289062 282.203125 L 235.21875 282.375 L 238.578125 282.796875 L 241.578125 283.332031 L 242.9375 283.636719 L 245.082031 284.226562 L 246.722656 284.800781 L 247.867188 285.296875 L 249.152344 286.003906 L 250.296875 286.867188 L 251.152344 287.839844 L 251.582031 288.660156 L 241.578125 288.660156 L 241.078125 287.898438 L 240.507812 287.304688 L 239.433594 286.523438 L 238.363281 285.96875 L 236.863281 285.414062 L 235.503906 285.050781 L 233.648438 284.6875 L 232.003906 284.457031 L 230.289062 284.285156 L 228.644531 284.171875 L 225.5 284.054688 L 221.855469 284.054688 L 220.5 284.09375 L 217.710938 284.246094 L 216.210938 284.382812 L 214.066406 284.648438 L 212.566406 284.898438 L 210.78125 285.28125 L 209.566406 285.605469 L 208.066406 286.101562 L 206.992188 286.539062 L 205.777344 287.171875 L 205.0625 287.648438 L 204.421875 288.183594 L 203.847656 288.816406 L 203.421875 289.484375 L 203.132812 290.191406 L 202.992188 290.878906 L 202.992188 293.839844 L 203.132812 294.527344 L 203.492188 295.332031 L 204.421875 296.496094 L 205.777344 297.507812 L 207.351562 298.3125 L 208.851562 298.886719 L 209.707031 299.152344 L 210.851562 299.457031 L 212.636719 299.839844 L 215.210938 300.222656 L 216.710938 300.375 L 219 300.527344 L 221.355469 300.605469 L 224.5 300.605469 L 227.289062 300.527344 L 229.144531 300.433594 L 231.074219 300.28125 L 233.71875 299.957031 L 235.363281 299.648438 L 236.792969 299.285156 L 237.863281 298.921875 L 238.578125 298.617188 L 239.648438 298.023438 L 240.507812 297.375 L 241.148438 296.707031 L 241.578125 296.058594 L 251.582031 296.058594 L 251.152344 296.820312 L 250.511719 297.566406 L 249.867188 298.121094 L 248.867188 298.789062 L 247.722656 299.382812 L 246.082031 300.050781 L 244.722656 300.488281 L 242.9375 300.96875 L 241.292969 301.332031 L 239.507812 301.65625 L 236.863281 302.039062 L 235.148438 302.230469 L 233.289062 302.402344 L 231.074219 302.554688 L 228.289062 302.6875 L 225.285156 302.765625 L 222.5 302.785156 L 219.5 302.746094 L 217.285156 302.667969 L 214.351562 302.496094 L 210.710938 302.152344 L 208.066406 301.789062 L 205.992188 301.425781 L 204.207031 301.042969 L 202.207031 300.527344 L 199.632812 299.6875 L 198.0625 299.039062 L 196.988281 298.503906 L 195.773438 297.757812 L 194.917969 297.089844 L 193.917969 296.019531 L 193.203125 294.660156 L 192.988281 293.609375 Z M 192.988281 290.972656 "/>
<path style=" stroke:none;fill-rule:nonzero;fill:rgb(96.862745%,70.196078%,16.862745%);fill-opacity:1;" d="M 192.988281 312.335938 L 193.058594 312.335938 L 193.058594 312.308594 L 193.34375 312.246094 L 194.058594 312.160156 L 194.988281 312.089844 L 195.988281 312.035156 L 196.632812 312.007812 L 197.703125 311.964844 L 198.632812 311.933594 L 200.992188 311.875 L 203.992188 311.816406 L 205.636719 311.789062 L 207.492188 311.769531 L 210.136719 311.742188 L 211.351562 311.730469 L 215.066406 311.710938 L 219.285156 311.695312 L 223.929688 311.691406 L 226.074219 311.695312 L 229.003906 311.699219 L 233.003906 311.714844 L 235.289062 311.726562 L 237.078125 311.742188 L 238.933594 311.757812 L 241.222656 311.785156 L 243.367188 311.820312 L 245.082031 311.851562 L 246.796875 311.894531 L 248.222656 311.9375 L 249.4375 311.984375 L 250.511719 312.042969 L 251.152344 312.089844 L 251.582031 312.140625 L 241.648438 312.140625 L 241.078125 312.089844 L 240.433594 312.054688 L 239.363281 312.007812 L 238.292969 311.976562 L 237.21875 311.949219 L 235.21875 311.914062 L 233.503906 311.894531 L 231.359375 311.875 L 229.289062 311.859375 L 226.929688 311.851562 L 221.714844 311.851562 L 218.285156 311.859375 L 216.28125 311.871094 L 214.855469 311.882812 L 212.851562 311.902344 L 211.636719 311.917969 L 210.921875 311.929688 L 208.78125 311.972656 L 207.351562 312.011719 L 206.566406 312.035156 L 205.5625 312.078125 L 204.851562 312.113281 L 204.0625 312.171875 L 203.636719 312.210938 L 203.0625 312.304688 L 202.992188 312.550781 L 203.207031 312.605469 L 203.636719 312.660156 L 204.207031 312.710938 L 205.0625 312.761719 L 205.921875 312.800781 L 207.421875 312.855469 L 208.707031 312.890625 L 209.707031 312.914062 L 211.636719 312.953125 L 212.425781 312.964844 L 214.28125 312.988281 L 216.210938 313.007812 L 218.570312 313.023438 L 220.355469 313.03125 L 223.214844 313.039062 L 226.859375 313.039062 L 231.144531 313.03125 L 233.863281 313.019531 L 235.71875 313.007812 L 236.933594 313 L 238.433594 312.984375 L 239.507812 312.96875 L 240.507812 312.957031 L 241.722656 312.933594 L 241.722656 312.605469 L 224.070312 312.601562 L 224.070312 312.449219 L 251.511719 312.449219 L 251.582031 312.984375 L 250.082031 313.019531 L 248.222656 313.058594 L 246.4375 313.085938 L 244.578125 313.109375 L 241.9375 313.132812 L 239.792969 313.152344 L 236.503906 313.167969 L 233.503906 313.183594 L 230.359375 313.191406 L 227.574219 313.195312 L 224.285156 313.195312 L 221.355469 313.191406 L 218.210938 313.183594 L 215.710938 313.175781 L 213.425781 313.160156 L 211.136719 313.140625 L 208.28125 313.113281 L 206.421875 313.089844 L 204.492188 313.0625 L 202.5625 313.027344 L 200.847656 312.988281 L 199.703125 312.960938 L 198.5625 312.929688 L 197.347656 312.886719 L 196.203125 312.839844 L 195.347656 312.796875 L 194.558594 312.75 L 193.988281 312.703125 L 193.417969 312.640625 L 193.128906 312.59375 L 192.988281 312.550781 Z M 192.988281 312.335938 "/>
<path style=" stroke:none;fill-rule:nonzero;fill:rgb(83.921569%,15.686275%,22.352941%);fill-opacity:1;" d="M 192.988281 246.753906 L 251.582031 246.753906 L 251.582031 250.390625 L 227.164062 250.421875 L 227.164062 280.703125 L 217.335938 280.703125 L 217.335938 250.453125 L 217.195312 250.390625 L 192.988281 250.390625 Z M 192.988281 246.753906 "/>
<path style=" stroke:none;fill-rule:nonzero;fill:rgb(6.27451%,58.823529%,28.235294%);fill-opacity:1;" d="M 254.667969 274.9375 L 254.730469 274.894531 L 280.082031 231.304688 L 287.78125 231.304688 L 313.261719 274.976562 L 304.308594 274.976562 L 297.925781 263.578125 L 269.941406 263.578125 L 263.679688 274.9375 L 254.667969 274.9375 L 272.632812 258.863281 L 295.359375 258.820312 L 284.027344 238.441406 L 283.902344 238.398438 L 283.777344 238.523438 L 272.570312 258.820312 L 272.632812 258.863281 Z M 254.667969 274.9375 "/>
<path style=" stroke:none;fill-rule:nonzero;fill:rgb(14.509804%,36.078431%,60%);fill-opacity:1;" d="M 254.667969 288.425781 L 254.738281 288.402344 L 254.738281 287.78125 L 254.953125 286.800781 L 255.453125 285.5625 L 255.953125 284.714844 L 257.238281 283.191406 L 259.027344 281.722656 L 260.882812 280.585938 L 262.242188 279.917969 L 263.457031 279.402344 L 266.242188 278.445312 L 268.03125 277.957031 L 269.957031 277.519531 L 272.316406 277.082031 L 274.03125 276.824219 L 277.890625 276.410156 L 280.75 276.230469 L 282.964844 276.152344 L 287.75 276.152344 L 290.609375 276.253906 L 292.683594 276.382812 L 294.96875 276.589844 L 296.898438 276.824219 L 300.257812 277.390625 L 303.257812 278.113281 L 304.617188 278.523438 L 306.757812 279.324219 L 308.402344 280.097656 L 309.546875 280.769531 L 310.832031 281.722656 L 311.976562 282.882812 L 312.832031 284.199219 L 313.261719 285.304688 L 303.257812 285.304688 L 302.757812 284.273438 L 302.1875 283.476562 L 301.113281 282.417969 L 300.042969 281.671875 L 298.542969 280.921875 L 297.183594 280.433594 L 295.328125 279.941406 L 293.683594 279.632812 L 291.96875 279.402344 L 290.324219 279.246094 L 287.179688 279.09375 L 283.535156 279.09375 L 282.179688 279.144531 L 279.390625 279.351562 L 277.890625 279.53125 L 275.746094 279.890625 L 274.246094 280.226562 L 272.460938 280.742188 L 271.246094 281.179688 L 269.746094 281.851562 L 268.671875 282.445312 L 267.457031 283.296875 L 266.742188 283.941406 L 266.101562 284.660156 L 265.527344 285.511719 L 265.101562 286.414062 L 264.8125 287.367188 L 264.671875 288.296875 L 264.671875 292.292969 L 264.8125 293.222656 L 265.171875 294.304688 L 266.101562 295.878906 L 267.457031 297.246094 L 269.03125 298.328125 L 270.53125 299.101562 L 271.386719 299.460938 L 272.53125 299.875 L 274.316406 300.390625 L 276.890625 300.90625 L 278.390625 301.113281 L 280.675781 301.320312 L 283.035156 301.421875 L 286.179688 301.421875 L 288.964844 301.320312 L 290.824219 301.191406 L 292.753906 300.984375 L 295.398438 300.546875 L 297.042969 300.132812 L 298.46875 299.644531 L 299.542969 299.152344 L 300.257812 298.742188 L 301.328125 297.941406 L 302.1875 297.066406 L 302.828125 296.160156 L 303.257812 295.285156 L 313.261719 295.285156 L 312.832031 296.316406 L 312.191406 297.324219 L 311.546875 298.070312 L 310.546875 298.972656 L 309.402344 299.773438 L 307.761719 300.675781 L 306.402344 301.269531 L 304.617188 301.914062 L 302.972656 302.402344 L 301.1875 302.839844 L 298.542969 303.355469 L 296.828125 303.613281 L 294.96875 303.847656 L 292.753906 304.050781 L 289.96875 304.234375 L 286.964844 304.335938 L 284.179688 304.363281 L 281.175781 304.308594 L 278.960938 304.207031 L 276.03125 303.976562 L 272.386719 303.511719 L 269.746094 303.019531 L 267.671875 302.53125 L 265.886719 302.015625 L 263.886719 301.320312 L 261.3125 300.183594 L 259.742188 299.308594 L 258.667969 298.585938 L 257.453125 297.582031 L 256.597656 296.679688 L 255.597656 295.234375 L 254.882812 293.402344 L 254.667969 291.984375 Z M 254.667969 288.425781 "/>
<path style=" stroke:none;fill-rule:nonzero;fill:rgb(96.862745%,70.196078%,16.862745%);fill-opacity:1;" d="M 254.667969 307.097656 L 254.738281 307.097656 L 254.738281 307.027344 L 255.023438 306.878906 L 255.738281 306.671875 L 256.667969 306.503906 L 257.667969 306.371094 L 258.3125 306.300781 L 259.382812 306.199219 L 260.3125 306.125 L 262.671875 305.976562 L 265.671875 305.835938 L 267.316406 305.777344 L 269.171875 305.71875 L 271.816406 305.65625 L 273.03125 305.632812 L 276.746094 305.582031 L 280.964844 305.546875 L 285.609375 305.535156 L 287.75 305.539062 L 290.679688 305.554688 L 294.683594 305.589844 L 296.96875 305.625 L 298.757812 305.65625 L 300.613281 305.699219 L 302.902344 305.765625 L 305.042969 305.847656 L 306.757812 305.925781 L 308.472656 306.027344 L 309.902344 306.132812 L 311.117188 306.25 L 312.191406 306.390625 L 312.832031 306.507812 L 313.261719 306.621094 L 303.328125 306.621094 L 302.757812 306.507812 L 302.113281 306.417969 L 301.042969 306.304688 L 299.972656 306.226562 L 298.898438 306.164062 L 296.898438 306.078125 L 295.183594 306.023438 L 293.039062 305.976562 L 290.96875 305.945312 L 288.609375 305.925781 L 287.179688 305.921875 L 283.394531 305.921875 L 279.960938 305.941406 L 277.960938 305.96875 L 276.53125 305.996094 L 274.53125 306.046875 L 273.316406 306.085938 L 272.601562 306.113281 L 270.457031 306.214844 L 269.03125 306.308594 L 268.242188 306.371094 L 267.242188 306.472656 L 266.527344 306.5625 L 265.742188 306.695312 L 265.3125 306.796875 L 264.742188 307.023438 L 264.671875 307.621094 L 264.886719 307.75 L 265.3125 307.886719 L 265.886719 308.003906 L 266.742188 308.132812 L 267.601562 308.230469 L 269.101562 308.359375 L 270.386719 308.445312 L 271.386719 308.5 L 273.316406 308.589844 L 274.101562 308.621094 L 275.960938 308.679688 L 277.890625 308.726562 L 280.25 308.769531 L 282.035156 308.789062 L 284.894531 308.804688 L 288.539062 308.804688 L 292.824219 308.785156 L 295.539062 308.757812 L 297.398438 308.730469 L 298.613281 308.707031 L 300.113281 308.671875 L 301.1875 308.636719 L 302.1875 308.601562 L 303.402344 308.546875 L 303.402344 307.75 L 285.75 307.746094 L 285.75 307.371094 L 313.191406 307.367188 L 313.261719 308.671875 L 311.761719 308.761719 L 309.902344 308.847656 L 308.117188 308.914062 L 306.257812 308.972656 L 303.617188 309.035156 L 301.472656 309.074219 L 298.183594 309.121094 L 295.183594 309.152344 L 292.039062 309.171875 L 289.253906 309.179688 L 285.964844 309.183594 L 283.035156 309.179688 L 279.890625 309.15625 L 277.390625 309.132812 L 275.105469 309.097656 L 272.816406 309.054688 L 269.957031 308.984375 L 268.101562 308.929688 L 266.171875 308.859375 L 264.242188 308.773438 L 262.527344 308.683594 L 261.382812 308.613281 L 260.242188 308.535156 L 259.027344 308.433594 L 257.882812 308.320312 L 257.023438 308.21875 L 256.238281 308.101562 L 255.667969 307.992188 L 255.09375 307.84375 L 254.808594 307.722656 L 254.667969 307.617188 Z M 254.667969 307.097656 "/>
<path style=" stroke:none;fill-rule:nonzero;fill:rgb(83.921569%,15.686275%,22.352941%);fill-opacity:1;" d="M 254.667969 310.359375 L 313.261719 310.359375 L 313.261719 310.664062 L 288.839844 310.664062 L 288.839844 313.195312 L 279.015625 313.195312 L 279.015625 310.667969 L 278.875 310.664062 L 254.667969 310.664062 Z M 254.667969 310.359375 "/>
<path style=" stroke:none;fill-rule:nonzero;fill:rgb(6.27451%,58.823529%,28.235294%);fill-opacity:1;" d="M 316.347656 291.804688 L 316.410156 291.625 L 341.761719 101.410156 L 349.460938 101.410156 L 374.941406 291.984375 L 365.988281 291.984375 L 359.605469 242.238281 L 331.621094 242.238281 L 325.359375 291.804688 L 316.347656 291.804688 L 334.3125 221.660156 L 357.039062 221.480469 L 345.707031 132.546875 L 345.582031 132.367188 L 345.457031 132.90625 L 334.25 221.480469 L 334.3125 221.660156 Z M 316.347656 291.804688 "/>
<path style=" stroke:none;fill-rule:nonzero;fill:rgb(14.509804%,36.078431%,60%);fill-opacity:1;" d="M 316.347656 305.683594 L 316.417969 305.679688 L 316.417969 305.527344 L 316.632812 305.285156 L 317.132812 304.984375 L 317.632812 304.773438 L 318.917969 304.398438 L 320.703125 304.039062 L 322.5625 303.761719 L 323.921875 303.597656 L 325.136719 303.46875 L 327.921875 303.234375 L 329.707031 303.113281 L 331.636719 303.007812 L 333.996094 302.898438 L 335.710938 302.835938 L 339.570312 302.734375 L 342.429688 302.691406 L 344.644531 302.671875 L 349.429688 302.671875 L 352.289062 302.695312 L 354.363281 302.730469 L 356.648438 302.78125 L 358.578125 302.835938 L 361.9375 302.976562 L 364.9375 303.152344 L 366.292969 303.253906 L 368.4375 303.449219 L 370.082031 303.640625 L 371.226562 303.804688 L 372.511719 304.039062 L 373.65625 304.324219 L 374.511719 304.648438 L 374.941406 304.917969 L 364.9375 304.917969 L 364.4375 304.667969 L 363.867188 304.46875 L 362.792969 304.210938 L 361.722656 304.027344 L 360.222656 303.84375 L 358.863281 303.722656 L 357.003906 303.601562 L 355.363281 303.527344 L 353.648438 303.46875 L 352.003906 303.429688 L 348.859375 303.394531 L 345.214844 303.394531 L 343.855469 303.40625 L 341.070312 303.457031 L 339.570312 303.5 L 337.425781 303.589844 L 335.925781 303.671875 L 334.140625 303.796875 L 332.925781 303.90625 L 331.421875 304.070312 L 330.351562 304.214844 L 329.136719 304.425781 L 328.421875 304.582031 L 327.777344 304.761719 L 327.207031 304.96875 L 326.777344 305.191406 L 326.492188 305.425781 L 326.351562 305.652344 L 326.351562 306.636719 L 326.492188 306.863281 L 326.851562 307.128906 L 327.777344 307.515625 L 329.136719 307.851562 L 330.707031 308.117188 L 332.210938 308.308594 L 333.066406 308.394531 L 334.210938 308.496094 L 335.996094 308.625 L 338.570312 308.75 L 340.070312 308.800781 L 342.355469 308.851562 L 344.714844 308.875 L 347.859375 308.875 L 350.644531 308.851562 L 352.503906 308.820312 L 354.433594 308.769531 L 357.078125 308.660156 L 358.71875 308.558594 L 360.148438 308.441406 L 361.222656 308.320312 L 361.9375 308.21875 L 363.007812 308.023438 L 363.867188 307.804688 L 364.507812 307.585938 L 364.9375 307.371094 L 374.941406 307.371094 L 374.511719 307.621094 L 373.871094 307.871094 L 373.226562 308.054688 L 372.226562 308.273438 L 371.082031 308.472656 L 369.4375 308.691406 L 368.082031 308.839844 L 366.292969 308.996094 L 364.652344 309.117188 L 362.863281 309.226562 L 360.222656 309.351562 L 358.507812 309.414062 L 356.648438 309.472656 L 354.433594 309.523438 L 351.644531 309.566406 L 348.644531 309.59375 L 345.859375 309.597656 L 342.855469 309.585938 L 340.640625 309.558594 L 337.710938 309.503906 L 334.066406 309.390625 L 331.421875 309.269531 L 329.351562 309.148438 L 327.566406 309.023438 L 325.5625 308.851562 L 322.992188 308.574219 L 321.417969 308.359375 L 320.347656 308.179688 L 319.132812 307.933594 L 318.273438 307.710938 L 317.273438 307.355469 L 316.558594 306.90625 L 316.347656 306.558594 Z M 316.347656 305.683594 "/>
<path style=" stroke:none;fill-rule:nonzero;fill:rgb(96.862745%,70.196078%,16.862745%);fill-opacity:1;" d="M 316.347656 296.730469 L 316.417969 296.722656 L 316.417969 296.570312 L 316.703125 296.226562 L 317.417969 295.753906 L 318.347656 295.367188 L 319.347656 295.0625 L 319.992188 294.902344 L 321.0625 294.671875 L 321.992188 294.507812 L 324.347656 294.164062 L 327.351562 293.84375 L 328.992188 293.707031 L 330.851562 293.578125 L 333.496094 293.433594 L 334.710938 293.378906 L 338.425781 293.257812 L 342.640625 293.179688 L 347.289062 293.15625 L 349.429688 293.164062 L 352.359375 293.195312 L 356.363281 293.28125 L 358.648438 293.355469 L 360.433594 293.433594 L 362.292969 293.53125 L 364.578125 293.683594 L 366.722656 293.867188 L 368.4375 294.050781 L 370.152344 294.277344 L 371.582031 294.519531 L 372.796875 294.789062 L 373.871094 295.109375 L 374.511719 295.375 L 374.941406 295.640625 L 365.007812 295.640625 L 364.4375 295.375 L 363.792969 295.167969 L 362.722656 294.917969 L 361.648438 294.734375 L 360.578125 294.589844 L 358.578125 294.390625 L 356.863281 294.269531 L 354.71875 294.164062 L 352.644531 294.09375 L 350.289062 294.050781 L 348.859375 294.035156 L 345.070312 294.035156 L 341.640625 294.085938 L 339.640625 294.148438 L 338.210938 294.207031 L 336.210938 294.324219 L 334.996094 294.414062 L 334.28125 294.476562 L 332.136719 294.710938 L 330.707031 294.925781 L 329.921875 295.070312 L 328.921875 295.296875 L 328.207031 295.503906 L 327.421875 295.808594 L 326.992188 296.035156 L 326.421875 296.554688 L 326.351562 297.925781 L 326.5625 298.214844 L 326.992188 298.527344 L 327.566406 298.800781 L 328.421875 299.089844 L 329.28125 299.3125 L 330.78125 299.609375 L 332.066406 299.804688 L 333.066406 299.9375 L 334.996094 300.140625 L 335.78125 300.210938 L 337.640625 300.347656 L 339.570312 300.453125 L 341.929688 300.546875 L 343.714844 300.589844 L 346.574219 300.628906 L 350.21875 300.628906 L 354.503906 300.582031 L 357.21875 300.523438 L 359.078125 300.460938 L 360.292969 300.40625 L 361.792969 300.324219 L 362.863281 300.246094 L 363.867188 300.164062 L 365.078125 300.035156 L 365.078125 298.214844 L 347.429688 298.207031 L 347.429688 297.355469 L 374.871094 297.347656 L 374.941406 300.324219 L 373.441406 300.53125 L 371.582031 300.726562 L 369.796875 300.878906 L 367.9375 301.007812 L 365.292969 301.152344 L 363.152344 301.246094 L 359.863281 301.351562 L 356.863281 301.421875 L 353.71875 301.464844 L 350.929688 301.488281 L 347.644531 301.496094 L 344.714844 301.480469 L 341.570312 301.4375 L 339.070312 301.375 L 336.78125 301.300781 L 334.496094 301.199219 L 331.636719 301.039062 L 329.78125 300.910156 L 327.851562 300.75 L 325.921875 300.558594 L 324.207031 300.355469 L 323.0625 300.195312 L 321.917969 300.011719 L 320.703125 299.785156 L 319.5625 299.523438 L 318.703125 299.289062 L 317.917969 299.023438 L 317.347656 298.769531 L 316.773438 298.429688 L 316.488281 298.152344 L 316.347656 297.917969 Z M 316.347656 296.730469 "/>
<path style=" stroke:none;fill-rule:nonzero;fill:rgb(83.921569%,15.686275%,22.352941%);fill-opacity:1;" d="M 316.347656 310.773438 L 374.941406 310.773438 L 374.941406 311.03125 L 350.519531 311.035156 L 350.519531 313.195312 L 340.695312 313.195312 L 340.695312 311.039062 L 340.554688 311.03125 L 316.347656 311.03125 Z M 316.347656 310.773438 "/>
<path style=" stroke:none;fill-rule:nonzero;fill:rgb(14.509804%,36.078431%,60%);fill-opacity:1;" d="M 378.023438 311.953125 L 378.097656 311.949219 L 378.097656 311.902344 L 378.3125 311.824219 L 378.8125 311.730469 L 379.3125 311.664062 L 380.597656 311.542969 L 382.382812 311.429688 L 384.242188 311.339844 L 385.601562 311.289062 L 386.8125 311.246094 L 389.601562 311.171875 L 391.386719 311.136719 L 393.316406 311.101562 L 395.675781 311.066406 L 397.390625 311.046875 L 401.25 311.015625 L 404.105469 311 L 406.324219 310.996094 L 411.109375 310.996094 L 413.96875 311.003906 L 416.039062 311.011719 L 418.328125 311.027344 L 420.257812 311.046875 L 423.613281 311.089844 L 426.617188 311.148438 L 427.972656 311.179688 L 430.117188 311.242188 L 431.761719 311.300781 L 432.90625 311.355469 L 434.191406 311.429688 L 435.335938 311.519531 L 436.191406 311.621094 L 436.621094 311.707031 L 426.617188 311.707031 L 426.117188 311.628906 L 425.542969 311.566406 L 424.472656 311.484375 L 423.402344 311.425781 L 421.898438 311.367188 L 420.542969 311.328125 L 418.683594 311.289062 L 417.039062 311.265625 L 415.324219 311.246094 L 413.683594 311.234375 L 410.539062 311.222656 L 406.894531 311.222656 L 405.535156 311.226562 L 402.75 311.242188 L 401.25 311.257812 L 399.105469 311.285156 L 397.605469 311.3125 L 395.816406 311.351562 L 394.601562 311.386719 L 393.101562 311.4375 L 392.03125 311.484375 L 390.816406 311.550781 L 390.101562 311.601562 L 389.457031 311.660156 L 388.886719 311.726562 L 388.457031 311.796875 L 388.171875 311.871094 L 388.027344 311.941406 L 388.027344 312.253906 L 388.171875 312.328125 L 388.53125 312.410156 L 389.457031 312.535156 L 390.816406 312.640625 L 392.386719 312.726562 L 393.890625 312.785156 L 394.746094 312.8125 L 395.890625 312.84375 L 397.675781 312.886719 L 400.25 312.925781 L 401.75 312.941406 L 404.035156 312.957031 L 406.394531 312.964844 L 409.539062 312.964844 L 412.324219 312.957031 L 414.183594 312.949219 L 416.113281 312.933594 L 418.757812 312.898438 L 420.398438 312.867188 L 421.828125 312.828125 L 422.902344 312.789062 L 423.613281 312.757812 L 424.6875 312.695312 L 425.542969 312.625 L 426.1875 312.554688 L 426.617188 312.488281 L 436.621094 312.488281 L 436.191406 312.566406 L 435.546875 312.648438 L 434.90625 312.703125 L 433.90625 312.773438 L 432.761719 312.835938 L 431.117188 312.90625 L 429.761719 312.953125 L 427.972656 313.003906 L 426.332031 313.042969 L 424.542969 313.078125 L 421.898438 313.117188 L 420.183594 313.136719 L 418.328125 313.15625 L 416.113281 313.171875 L 413.324219 313.1875 L 410.324219 313.195312 L 407.539062 313.195312 L 404.535156 313.191406 L 402.320312 313.183594 L 399.390625 313.164062 L 395.746094 313.128906 L 393.101562 313.089844 L 391.03125 313.054688 L 389.242188 313.011719 L 387.242188 312.957031 L 384.671875 312.871094 L 383.097656 312.800781 L 382.027344 312.746094 L 380.8125 312.667969 L 379.953125 312.597656 L 378.953125 312.484375 L 378.238281 312.339844 L 378.023438 312.230469 Z M 378.023438 311.953125 "/>
<path style=" stroke:none;fill-rule:nonzero;fill:rgb(83.921569%,15.686275%,22.352941%);fill-opacity:1;" d="M 378.023438 20.664062 L 436.621094 20.664062 L 436.621094 51.613281 L 412.199219 51.886719 L 412.199219 309.820312 L 402.375 309.820312 L 402.375 52.15625 L 402.230469 51.613281 L 378.023438 51.613281 Z M 378.023438 20.664062 "/>
<path style=" stroke:none;fill-rule:nonzero;fill:rgb(6.27451%,58.823529%,28.235294%);fill-opacity:1;" d="M 439.703125 313.191406 L 439.765625 313.183594 L 465.121094 307.296875 L 472.820312 307.296875 L 498.300781 313.195312 L 489.347656 313.195312 L 482.960938 311.65625 L 454.980469 311.65625 L 448.71875 313.191406 L 439.703125 313.191406 L 457.671875 311.019531 L 480.394531 311.011719 L 469.066406 308.261719 L 468.9375 308.253906 L 468.8125 308.269531 L 457.609375 311.011719 L 457.671875 311.019531 Z M 439.703125 313.191406 "/>
<path style=" stroke:none;fill-rule:nonzero;fill:rgb(14.509804%,36.078431%,60%);fill-opacity:1;" d="M 439.703125 299.183594 L 439.777344 299.171875 L 439.777344 298.902344 L 439.988281 298.472656 L 440.492188 297.9375 L 440.992188 297.566406 L 442.277344 296.902344 L 444.0625 296.261719 L 445.921875 295.769531 L 447.277344 295.476562 L 448.492188 295.25 L 451.28125 294.835938 L 453.066406 294.625 L 454.996094 294.433594 L 457.355469 294.242188 L 459.070312 294.128906 L 462.929688 293.949219 L 465.785156 293.871094 L 468 293.835938 L 472.789062 293.835938 L 475.648438 293.882812 L 477.71875 293.9375 L 480.007812 294.027344 L 481.9375 294.128906 L 485.292969 294.375 L 488.296875 294.691406 L 489.652344 294.871094 L 491.796875 295.21875 L 493.441406 295.554688 L 494.582031 295.847656 L 495.871094 296.261719 L 497.011719 296.769531 L 497.871094 297.339844 L 498.300781 297.824219 L 488.296875 297.824219 L 487.796875 297.375 L 487.222656 297.027344 L 486.152344 296.566406 L 485.078125 296.238281 L 483.578125 295.914062 L 482.222656 295.699219 L 480.363281 295.488281 L 478.71875 295.351562 L 477.003906 295.25 L 475.363281 295.183594 L 472.21875 295.117188 L 468.574219 295.117188 L 467.214844 295.140625 L 464.429688 295.230469 L 462.929688 295.308594 L 460.785156 295.464844 L 459.285156 295.609375 L 457.496094 295.835938 L 456.28125 296.027344 L 454.78125 296.320312 L 453.710938 296.578125 L 452.496094 296.949219 L 451.78125 297.226562 L 451.136719 297.542969 L 450.566406 297.914062 L 450.136719 298.304688 L 449.851562 298.722656 L 449.707031 299.125 L 449.707031 300.867188 L 449.851562 301.269531 L 450.207031 301.742188 L 451.136719 302.425781 L 452.496094 303.023438 L 454.066406 303.492188 L 455.566406 303.832031 L 456.425781 303.988281 L 457.570312 304.167969 L 459.355469 304.390625 L 461.925781 304.617188 L 463.429688 304.707031 L 465.714844 304.796875 L 468.074219 304.839844 L 471.21875 304.839844 L 474.003906 304.796875 L 475.863281 304.742188 L 477.792969 304.652344 L 480.433594 304.460938 L 482.078125 304.28125 L 483.507812 304.066406 L 484.578125 303.851562 L 485.292969 303.671875 L 486.367188 303.324219 L 487.222656 302.945312 L 487.867188 302.550781 L 488.296875 302.167969 L 498.300781 302.167969 L 497.871094 302.617188 L 497.226562 303.054688 L 496.585938 303.382812 L 495.585938 303.773438 L 494.441406 304.121094 L 492.796875 304.515625 L 491.441406 304.773438 L 489.652344 305.054688 L 488.007812 305.269531 L 486.222656 305.457031 L 483.578125 305.683594 L 481.863281 305.796875 L 480.007812 305.898438 L 477.792969 305.988281 L 475.003906 306.066406 L 472.003906 306.109375 L 469.214844 306.121094 L 466.214844 306.097656 L 464 306.054688 L 461.070312 305.953125 L 457.425781 305.75 L 454.78125 305.539062 L 452.710938 305.324219 L 450.921875 305.097656 L 448.921875 304.796875 L 446.351562 304.300781 L 444.777344 303.921875 L 443.707031 303.605469 L 442.492188 303.167969 L 441.632812 302.773438 L 440.632812 302.144531 L 439.917969 301.347656 L 439.703125 300.730469 Z M 439.703125 299.183594 "/>
<path style=" stroke:none;fill-rule:nonzero;fill:rgb(83.921569%,15.686275%,22.352941%);fill-opacity:1;" d="M 439.703125 86.914062 L 498.300781 86.914062 L 498.300781 108.9375 L 473.878906 109.128906 L 473.878906 292.664062 L 464.054688 292.664062 L 464.054688 109.324219 L 463.910156 108.9375 L 439.703125 108.9375 Z M 439.703125 86.914062 "/>
<path style=" stroke:none;fill-rule:nonzero;fill:rgb(6.27451%,58.823529%,28.235294%);fill-opacity:1;" d="M 501.382812 299.824219 L 501.445312 299.597656 L 526.800781 56.617188 L 534.5 56.617188 L 559.980469 300.054688 L 551.027344 300.054688 L 544.640625 236.507812 L 516.660156 236.507812 L 510.398438 299.824219 L 501.382812 299.824219 L 519.351562 210.222656 L 542.074219 209.996094 L 530.742188 96.390625 L 530.617188 96.164062 L 530.492188 96.847656 L 519.289062 209.996094 L 519.351562 210.222656 Z M 501.382812 299.824219 "/>
<path style=" stroke:none;fill-rule:nonzero;fill:rgb(14.509804%,36.078431%,60%);fill-opacity:1;" d="M 501.382812 312.585938 L 501.453125 312.582031 L 501.453125 312.558594 L 501.667969 312.523438 L 502.167969 312.476562 L 502.667969 312.441406 L 503.957031 312.382812 L 505.742188 312.328125 L 507.601562 312.285156 L 508.957031 312.257812 L 510.171875 312.238281 L 512.960938 312.203125 L 514.746094 312.183594 L 516.675781 312.167969 L 519.035156 312.148438 L 520.75 312.140625 L 524.605469 312.125 L 527.464844 312.117188 L 529.679688 312.113281 L 534.46875 312.113281 L 537.328125 312.117188 L 539.398438 312.121094 L 541.6875 312.128906 L 543.613281 312.140625 L 546.972656 312.160156 L 549.976562 312.1875 L 551.332031 312.203125 L 553.476562 312.234375 L 555.121094 312.265625 L 556.261719 312.289062 L 557.550781 312.328125 L 558.691406 312.371094 L 559.550781 312.421875 L 559.980469 312.464844 L 549.976562 312.464844 L 549.472656 312.425781 L 548.902344 312.394531 L 547.832031 312.355469 L 546.757812 312.324219 L 545.257812 312.296875 L 543.902344 312.277344 L 542.042969 312.257812 L 540.398438 312.246094 L 538.683594 312.238281 L 537.039062 312.234375 L 533.898438 312.226562 L 530.253906 312.226562 L 528.894531 312.230469 L 526.109375 312.238281 L 524.605469 312.242188 L 522.464844 312.257812 L 520.960938 312.269531 L 519.175781 312.289062 L 517.960938 312.308594 L 516.460938 312.332031 L 515.390625 312.355469 L 514.175781 312.386719 L 513.460938 312.414062 L 512.816406 312.441406 L 512.246094 312.472656 L 511.816406 312.507812 L 511.53125 312.542969 L 511.386719 312.578125 L 511.386719 312.734375 L 511.53125 312.769531 L 511.886719 312.808594 L 512.816406 312.871094 L 514.175781 312.921875 L 515.746094 312.964844 L 517.246094 312.992188 L 518.105469 313.007812 L 519.246094 313.023438 L 521.035156 313.042969 L 523.605469 313.0625 L 525.105469 313.070312 L 527.394531 313.078125 L 529.753906 313.082031 L 532.894531 313.082031 L 535.683594 313.078125 L 537.542969 313.074219 L 539.46875 313.066406 L 542.113281 313.050781 L 543.757812 313.035156 L 545.1875 313.015625 L 546.257812 312.996094 L 546.972656 312.980469 L 548.046875 312.949219 L 548.902344 312.914062 L 549.546875 312.882812 L 549.976562 312.847656 L 559.980469 312.847656 L 559.550781 312.886719 L 558.90625 312.925781 L 558.265625 312.953125 L 557.261719 312.988281 L 556.121094 313.019531 L 554.476562 313.054688 L 553.117188 313.078125 L 551.332031 313.101562 L 549.6875 313.121094 L 547.902344 313.136719 L 545.257812 313.15625 L 543.542969 313.167969 L 541.6875 313.175781 L 539.46875 313.183594 L 536.683594 313.191406 L 533.683594 313.195312 L 527.894531 313.195312 L 525.679688 313.191406 L 522.75 313.179688 L 519.105469 313.164062 L 516.460938 313.144531 L 514.390625 313.125 L 512.601562 313.105469 L 510.601562 313.078125 L 508.027344 313.035156 L 506.457031 313.003906 L 505.386719 312.972656 L 504.171875 312.9375 L 503.3125 312.902344 L 502.3125 312.847656 L 501.597656 312.777344 L 501.382812 312.722656 Z M 501.382812 312.585938 "/>
<path style=" stroke:none;fill-rule:nonzero;fill:rgb(83.921569%,15.686275%,22.352941%);fill-opacity:1;" d="M 501.382812 301.230469 L 559.980469 301.230469 L 559.980469 302.269531 L 535.558594 302.277344 L 535.558594 310.9375 L 525.734375 310.9375 L 525.734375 302.285156 L 525.589844 302.269531 L 501.382812 302.269531 Z M 501.382812 301.230469 "/>
<path style=" stroke:none;fill-rule:nonzero;fill:rgb(6.27451%,58.823529%,28.235294%);fill-opacity:1;" d="M 563.0625 306.738281 L 563.125 306.734375 L 588.480469 299.839844 L 596.179688 299.839844 L 621.65625 306.746094 L 612.707031 306.746094 L 606.320312 304.945312 L 578.335938 304.945312 L 572.078125 306.738281 L 563.0625 306.738281 L 581.03125 304.199219 L 603.753906 304.191406 L 592.421875 300.96875 L 592.296875 300.960938 L 592.171875 300.980469 L 580.964844 304.191406 L 581.03125 304.199219 Z M 563.0625 306.738281 "/>
<path style=" stroke:none;fill-rule:nonzero;fill:rgb(14.509804%,36.078431%,60%);fill-opacity:1;" d="M 563.0625 309.050781 L 563.132812 309.046875 L 563.132812 308.992188 L 563.347656 308.902344 L 563.847656 308.789062 L 564.347656 308.707031 L 565.636719 308.570312 L 567.421875 308.433594 L 569.28125 308.328125 L 570.636719 308.269531 L 571.851562 308.21875 L 574.640625 308.132812 L 576.425781 308.085938 L 578.355469 308.046875 L 580.710938 308.007812 L 582.425781 307.984375 L 586.285156 307.945312 L 589.144531 307.929688 L 591.359375 307.921875 L 596.148438 307.921875 L 599.003906 307.929688 L 601.078125 307.941406 L 603.363281 307.960938 L 605.292969 307.984375 L 608.652344 308.035156 L 611.652344 308.101562 L 613.011719 308.140625 L 615.15625 308.214844 L 616.796875 308.285156 L 617.941406 308.347656 L 619.226562 308.433594 L 620.371094 308.539062 L 621.230469 308.660156 L 621.65625 308.761719 L 611.652344 308.761719 L 611.152344 308.667969 L 610.582031 308.59375 L 609.511719 308.496094 L 608.4375 308.429688 L 606.9375 308.359375 L 605.578125 308.316406 L 603.722656 308.269531 L 602.078125 308.242188 L 600.363281 308.21875 L 598.71875 308.207031 L 595.574219 308.191406 L 591.929688 308.191406 L 590.574219 308.195312 L 587.785156 308.214844 L 586.285156 308.230469 L 584.144531 308.265625 L 582.640625 308.296875 L 580.855469 308.34375 L 579.640625 308.382812 L 578.140625 308.445312 L 577.066406 308.5 L 575.855469 308.578125 L 575.140625 308.636719 L 574.496094 308.703125 L 573.925781 308.78125 L 573.496094 308.867188 L 573.210938 308.953125 L 573.066406 309.039062 L 573.066406 309.40625 L 573.210938 309.492188 L 573.566406 309.589844 L 574.496094 309.734375 L 575.855469 309.863281 L 577.425781 309.960938 L 578.925781 310.03125 L 579.785156 310.066406 L 580.925781 310.105469 L 582.714844 310.152344 L 585.285156 310.199219 L 586.785156 310.21875 L 589.074219 310.238281 L 591.429688 310.246094 L 594.574219 310.246094 L 597.363281 310.238281 L 599.21875 310.226562 L 601.148438 310.207031 L 603.792969 310.164062 L 605.4375 310.128906 L 606.867188 310.082031 L 607.9375 310.039062 L 608.652344 310 L 609.722656 309.925781 L 610.582031 309.84375 L 611.226562 309.761719 L 611.652344 309.679688 L 621.65625 309.679688 L 621.230469 309.777344 L 620.585938 309.867188 L 619.941406 309.9375 L 618.941406 310.019531 L 617.800781 310.09375 L 616.15625 310.175781 L 614.796875 310.230469 L 613.011719 310.292969 L 611.367188 310.335938 L 609.582031 310.375 L 606.9375 310.425781 L 605.222656 310.449219 L 603.363281 310.46875 L 601.148438 310.488281 L 598.363281 310.503906 L 595.363281 310.515625 L 592.574219 310.515625 L 589.574219 310.511719 L 587.359375 310.503906 L 584.429688 310.480469 L 580.785156 310.4375 L 578.140625 310.394531 L 576.066406 310.347656 L 574.28125 310.300781 L 572.28125 310.238281 L 569.707031 310.132812 L 568.136719 310.050781 L 567.0625 309.984375 L 565.847656 309.894531 L 564.992188 309.808594 L 563.992188 309.675781 L 563.277344 309.507812 L 563.0625 309.378906 Z M 563.0625 309.050781 "/>
<path style=" stroke:none;fill-rule:nonzero;fill:rgb(96.862745%,70.196078%,16.862745%);fill-opacity:1;" d="M 563.0625 294.523438 L 563.132812 294.519531 L 563.132812 294.386719 L 563.421875 294.089844 L 564.132812 293.679688 L 565.0625 293.339844 L 566.0625 293.074219 L 566.707031 292.9375 L 567.777344 292.738281 L 568.707031 292.59375 L 571.066406 292.296875 L 574.066406 292.015625 L 575.710938 291.898438 L 577.570312 291.785156 L 580.210938 291.660156 L 581.425781 291.613281 L 585.144531 291.507812 L 589.359375 291.441406 L 594.003906 291.421875 L 596.148438 291.429688 L 599.078125 291.457031 L 603.078125 291.527344 L 605.367188 291.59375 L 607.152344 291.660156 L 609.011719 291.746094 L 611.296875 291.878906 L 613.441406 292.039062 L 615.15625 292.195312 L 616.871094 292.394531 L 618.300781 292.605469 L 619.515625 292.835938 L 620.585938 293.117188 L 621.230469 293.347656 L 621.65625 293.578125 L 611.726562 293.578125 L 611.152344 293.347656 L 610.511719 293.167969 L 609.4375 292.949219 L 608.367188 292.792969 L 607.292969 292.664062 L 605.292969 292.492188 L 603.578125 292.386719 L 601.433594 292.296875 L 599.363281 292.234375 L 597.003906 292.195312 L 595.574219 292.183594 L 591.789062 292.183594 L 588.359375 292.230469 L 586.359375 292.28125 L 584.929688 292.335938 L 582.929688 292.433594 L 581.714844 292.511719 L 581 292.566406 L 578.855469 292.773438 L 577.425781 292.957031 L 576.640625 293.082031 L 575.640625 293.28125 L 574.925781 293.460938 L 574.136719 293.722656 L 573.710938 293.921875 L 573.136719 294.371094 L 573.066406 295.5625 L 573.28125 295.816406 L 573.710938 296.085938 L 574.28125 296.324219 L 575.140625 296.574219 L 575.996094 296.765625 L 577.496094 297.023438 L 578.785156 297.199219 L 579.785156 297.308594 L 581.714844 297.488281 L 582.5 297.546875 L 584.355469 297.667969 L 586.285156 297.757812 L 588.644531 297.839844 L 590.429688 297.878906 L 593.289062 297.910156 L 596.933594 297.910156 L 601.222656 297.871094 L 603.9375 297.820312 L 605.792969 297.765625 L 607.007812 297.71875 L 608.507812 297.648438 L 609.582031 297.582031 L 610.582031 297.507812 L 611.796875 297.394531 L 611.796875 295.816406 L 594.148438 295.808594 L 594.148438 295.066406 L 621.585938 295.0625 L 621.65625 297.648438 L 620.15625 297.824219 L 618.300781 297.996094 L 616.511719 298.128906 L 614.65625 298.242188 L 612.011719 298.367188 L 609.867188 298.449219 L 606.582031 298.539062 L 603.578125 298.601562 L 600.433594 298.640625 L 597.648438 298.660156 L 594.359375 298.664062 L 591.429688 298.652344 L 588.289062 298.613281 L 585.785156 298.558594 L 583.5 298.492188 L 581.210938 298.40625 L 578.355469 298.269531 L 576.496094 298.15625 L 574.566406 298.019531 L 572.636719 297.851562 L 570.921875 297.671875 L 569.78125 297.535156 L 568.636719 297.375 L 567.421875 297.175781 L 566.277344 296.953125 L 565.421875 296.746094 L 564.632812 296.515625 L 564.0625 296.296875 L 563.492188 296 L 563.207031 295.761719 L 563.0625 295.558594 Z M 563.0625 294.523438 "/>
<path style=" stroke:none;fill-rule:nonzero;fill:rgb(83.921569%,15.686275%,22.352941%);fill-opacity:1;" d="M 563.0625 311.691406 L 621.65625 311.691406 L 621.65625 311.851562 L 597.238281 311.855469 L 597.238281 313.195312 L 587.410156 313.195312 L 587.410156 311.855469 L 587.269531 311.851562 L 563.0625 311.851562 Z M 563.0625 311.691406 "/>
<g style="fill:rgb(0%,0%,0%);fill-opacity:1;">
  <use xlink:href="#glyph0-1" x="21.957031" y="317.018555"/>
  <use xlink:href="#glyph0-2" x="27.291016" y="317.018555"/>
  <use xlink:href="#glyph0-1" x="29.958008" y="317.018555"/>
</g>
<g style="fill:rgb(0%,0%,0%);fill-opacity:1;">
  <use xlink:href="#glyph0-1" x="21.957031" y="240.108398"/>
  <use xlink:href="#glyph0-2" x="27.291016" y="240.108398"/>
  <use xlink:href="#glyph0-3" x="29.958008" y="240.108398"/>
</g>
<g style="fill:rgb(0%,0%,0%);fill-opacity:1;">
  <use xlink:href="#glyph0-4" x="21.957031" y="163.202148"/>
  <use xlink:href="#glyph0-2" x="27.291016" y="163.202148"/>
  <use xlink:href="#glyph0-1" x="29.958008" y="163.202148"/>
</g>
<g style="fill:rgb(0%,0%,0%);fill-opacity:1;">
  <use xlink:href="#glyph0-4" x="21.957031" y="86.291992"/>
  <use xlink:href="#glyph0-2" x="27.291016" y="86.291992"/>
  <use xlink:href="#glyph0-3" x="29.958008" y="86.291992"/>
</g>
<g style="fill:rgb(0%,0%,0%);fill-opacity:1;">
  <use xlink:href="#glyph0-5" x="21.957031" y="9.381836"/>
  <use xlink:href="#glyph0-2" x="27.291016" y="9.381836"/>
  <use xlink:href="#glyph0-1" x="29.958008" y="9.381836"/>
</g>
<g style="fill:rgb(0%,0%,0%);fill-opacity:1;">
  <use xlink:href="#glyph0-4" x="95.925781" y="338.19043"/>
</g>
<g style="fill:rgb(0%,0%,0%);fill-opacity:1;">
  <use xlink:href="#glyph0-5" x="157.605469" y="338.19043"/>
</g>
<g style="fill:rgb(0%,0%,0%);fill-opacity:1;">
  <use xlink:href="#glyph0-6" x="219.285156" y="338.19043"/>
</g>
<g style="fill:rgb(0%,0%,0%);fill-opacity:1;">
  <use xlink:href="#glyph0-7" x="280.964844" y="338.19043"/>
</g>
<g style="fill:rgb(0%,0%,0%);fill-opacity:1;">
  <use xlink:href="#glyph0-3" x="342.644531" y="338.19043"/>
</g>
<g style="fill:rgb(0%,0%,0%);fill-opacity:1;">
  <use xlink:href="#glyph0-8" x="404.324219" y="338.19043"/>
</g>
<g style="fill:rgb(0%,0%,0%);fill-opacity:1;">
  <use xlink:href="#glyph0-9" x="466" y="338.19043"/>
</g>
<g style="fill:rgb(0%,0%,0%);fill-opacity:1;">
  <use xlink:href="#glyph0-10" x="527.679688" y="338.19043"/>
</g>
<g style="fill:rgb(0%,0%,0%);fill-opacity:1;">
  <use xlink:href="#glyph0-11" x="589.359375" y="338.19043"/>
</g>
<g style="fill:rgb(0%,0%,0%);fill-opacity:1;">
  <use xlink:href="#glyph0-4" x="648.539062" y="338.19043"/>
  <use xlink:href="#glyph0-1" x="653.873047" y="338.19043"/>
</g>
<g style="fill:rgb(0%,0%,0%);fill-opacity:1;">
  <use xlink:href="#glyph1-1" x="14.412109" y="178.015625"/>
  <use xlink:href="#glyph1-2" x="14.412109" y="170.011719"/>
  <use xlink:href="#glyph1-3" x="14.412109" y="167.347656"/>
  <use xlink:href="#glyph1-4" x="14.412109" y="164.011719"/>
</g>
</g>
</svg>
