<?xml version="1.0" encoding="UTF-8"?>
<svg xmlns="http://www.w3.org/2000/svg" xmlns:xlink="http://www.w3.org/1999/xlink" width="720pt" height="360pt" viewBox="0 0 720 360" version="1.1">
<defs>
<g>
<symbol overflow="visible" id="glyph0-0">
<path style="stroke:none;" d=""/>
</symbol>
<symbol overflow="visible" id="glyph0-1">
<path style="stroke:none;" d="M 2.640625 -6.796875 C 2 -6.796875 1.421875 -6.53125 1.078125 -6.046875 C 0.640625 -5.453125 0.40625 -4.546875 0.40625 -3.296875 C 0.40625 -1 1.1875 0.21875 2.640625 0.21875 C 4.078125 0.21875 4.859375 -1 4.859375 -3.234375 C 4.859375 -4.5625 4.65625 -5.4375 4.203125 -6.046875 C 3.84375 -6.53125 3.28125 -6.796875 2.640625 -6.796875 Z M 2.640625 -6.046875 C 3.546875 -6.046875 4 -5.125 4 -3.3125 C 4 -1.375 3.5625 -0.484375 2.625 -0.484375 C 1.734375 -0.484375 1.28125 -1.421875 1.28125 -3.28125 C 1.28125 -5.140625 1.734375 -6.046875 2.640625 -6.046875 Z M 2.640625 -6.046875 "/>
</symbol>
<symbol overflow="visible" id="glyph0-2">
<path style="stroke:none;" d="M 1.828125 -1 L 0.828125 -1 L 0.828125 0 L 1.828125 0 Z M 1.828125 -1 "/>
</symbol>
<symbol overflow="visible" id="glyph0-3">
<path style="stroke:none;" d="M 4.5625 -6.796875 L 1.0625 -6.796875 L 0.546875 -3.09375 L 1.328125 -3.09375 C 1.71875 -3.5625 2.046875 -3.734375 2.578125 -3.734375 C 3.484375 -3.734375 4.0625 -3.109375 4.0625 -2.09375 C 4.0625 -1.125 3.484375 -0.53125 2.578125 -0.53125 C 1.828125 -0.53125 1.375 -0.90625 1.1875 -1.671875 L 0.328125 -1.671875 C 0.453125 -1.109375 0.546875 -0.84375 0.75 -0.59375 C 1.125 -0.078125 1.828125 0.21875 2.59375 0.21875 C 3.96875 0.21875 4.921875 -0.78125 4.921875 -2.21875 C 4.921875 -3.5625 4.03125 -4.484375 2.71875 -4.484375 C 2.25 -4.484375 1.859375 -4.359375 1.46875 -4.0625 L 1.734375 -5.96875 L 4.5625 -5.96875 Z M 4.5625 -6.796875 "/>
</symbol>
<symbol overflow="visible" id="glyph0-4">
<path style="stroke:none;" d="M 2.484375 -4.84375 L 2.484375 0 L 3.328125 0 L 3.328125 -6.796875 L 2.765625 -6.796875 C 2.46875 -5.75 2.28125 -5.609375 0.984375 -5.453125 L 0.984375 -4.84375 Z M 2.484375 -4.84375 "/>
</symbol>
<symbol overflow="visible" id="glyph0-5">
<path style="stroke:none;" d="M 4.859375 -0.828125 L 1.28125 -0.828125 C 1.359375 -1.390625 1.671875 -1.75 2.5 -2.234375 L 3.46875 -2.75 C 4.40625 -3.265625 4.90625 -3.96875 4.90625 -4.8125 C 4.90625 -5.375 4.671875 -5.90625 4.265625 -6.265625 C 3.859375 -6.625 3.375 -6.796875 2.71875 -6.796875 C 1.859375 -6.796875 1.21875 -6.5 0.84375 -5.921875 C 0.609375 -5.5625 0.5 -5.125 0.484375 -4.4375 L 1.328125 -4.4375 C 1.359375 -4.90625 1.40625 -5.1875 1.53125 -5.40625 C 1.75 -5.8125 2.1875 -6.0625 2.703125 -6.0625 C 3.46875 -6.0625 4.03125 -5.515625 4.03125 -4.78125 C 4.03125 -4.25 3.71875 -3.796875 3.125 -3.4375 L 2.234375 -2.9375 C 0.8125 -2.140625 0.40625 -1.5 0.328125 0 L 4.859375 0 Z M 4.859375 -0.828125 "/>
</symbol>
<symbol overflow="visible" id="glyph0-6">
<path style="stroke:none;" d="M 2.125 -3.125 L 2.578125 -3.125 C 3.515625 -3.125 3.984375 -2.703125 3.984375 -1.890625 C 3.984375 -1.03125 3.46875 -0.53125 2.578125 -0.53125 C 1.65625 -0.53125 1.203125 -0.984375 1.15625 -1.96875 L 0.3125 -1.96875 C 0.34375 -1.421875 0.4375 -1.078125 0.609375 -0.765625 C 0.953125 -0.109375 1.625 0.21875 2.546875 0.21875 C 3.953125 0.21875 4.859375 -0.609375 4.859375 -1.90625 C 4.859375 -2.765625 4.515625 -3.25 3.703125 -3.515625 C 4.34375 -3.765625 4.65625 -4.25 4.65625 -4.9375 C 4.65625 -6.109375 3.875 -6.796875 2.578125 -6.796875 C 1.203125 -6.796875 0.484375 -6.046875 0.453125 -4.609375 L 1.296875 -4.609375 C 1.3125 -5.015625 1.34375 -5.25 1.453125 -5.453125 C 1.640625 -5.828125 2.0625 -6.0625 2.59375 -6.0625 C 3.34375 -6.0625 3.796875 -5.625 3.796875 -4.90625 C 3.796875 -4.421875 3.609375 -4.140625 3.25 -3.984375 C 3.015625 -3.890625 2.71875 -3.84375 2.125 -3.84375 Z M 2.125 -3.125 "/>
</symbol>
<symbol overflow="visible" id="glyph0-7">
<path style="stroke:none;" d="M 3.140625 -1.625 L 3.140625 0 L 3.984375 0 L 3.984375 -1.625 L 4.984375 -1.625 L 4.984375 -2.390625 L 3.984375 -2.390625 L 3.984375 -6.796875 L 3.359375 -6.796875 L 0.265625 -2.515625 L 0.265625 -1.625 Z M 3.140625 -2.390625 L 1 -2.390625 L 3.140625 -5.359375 Z M 3.140625 -2.390625 "/>
</symbol>
<symbol overflow="visible" id="glyph0-8">
<path style="stroke:none;" d="M 4.78125 -5.03125 C 4.609375 -6.140625 3.890625 -6.796875 2.84375 -6.796875 C 2.09375 -6.796875 1.421875 -6.4375 1.03125 -5.828125 C 0.609375 -5.171875 0.40625 -4.34375 0.40625 -3.09375 C 0.40625 -1.953125 0.578125 -1.234375 0.984375 -0.625 C 1.359375 -0.078125 1.953125 0.21875 2.703125 0.21875 C 3.984375 0.21875 4.921875 -0.734375 4.921875 -2.078125 C 4.921875 -3.34375 4.0625 -4.234375 2.84375 -4.234375 C 2.171875 -4.234375 1.640625 -3.96875 1.28125 -3.46875 C 1.28125 -5.125 1.828125 -6.046875 2.796875 -6.046875 C 3.390625 -6.046875 3.796875 -5.671875 3.9375 -5.03125 Z M 2.734375 -3.484375 C 3.546875 -3.484375 4.0625 -2.921875 4.0625 -2 C 4.0625 -1.15625 3.484375 -0.53125 2.703125 -0.53125 C 1.921875 -0.53125 1.328125 -1.1875 1.328125 -2.046875 C 1.328125 -2.890625 1.90625 -3.484375 2.734375 -3.484375 Z M 2.734375 -3.484375 "/>
</symbol>
<symbol overflow="visible" id="glyph0-9">
<path style="stroke:none;" d="M 4.984375 -6.796875 L 0.4375 -6.796875 L 0.4375 -5.96875 L 4.109375 -5.96875 C 2.5 -3.65625 1.828125 -2.234375 1.328125 0 L 2.21875 0 C 2.59375 -2.171875 3.453125 -4.046875 4.984375 -6.09375 Z M 4.984375 -6.796875 "/>
</symbol>
<symbol overflow="visible" id="glyph0-10">
<path style="stroke:none;" d="M 3.75 -3.578125 C 4.453125 -4 4.6875 -4.34375 4.6875 -4.984375 C 4.6875 -6.046875 3.84375 -6.796875 2.640625 -6.796875 C 1.4375 -6.796875 0.59375 -6.046875 0.59375 -4.984375 C 0.59375 -4.359375 0.828125 -4.015625 1.515625 -3.578125 C 0.734375 -3.203125 0.359375 -2.640625 0.359375 -1.890625 C 0.359375 -0.640625 1.296875 0.21875 2.640625 0.21875 C 3.984375 0.21875 4.921875 -0.640625 4.921875 -1.875 C 4.921875 -2.640625 4.53125 -3.203125 3.75 -3.578125 Z M 2.640625 -6.046875 C 3.359375 -6.046875 3.8125 -5.625 3.8125 -4.96875 C 3.8125 -4.34375 3.34375 -3.921875 2.640625 -3.921875 C 1.921875 -3.921875 1.453125 -4.34375 1.453125 -4.984375 C 1.453125 -5.625 1.921875 -6.046875 2.640625 -6.046875 Z M 2.640625 -3.203125 C 3.484375 -3.203125 4.0625 -2.671875 4.0625 -1.875 C 4.0625 -1.0625 3.484375 -0.53125 2.625 -0.53125 C 1.796875 -0.53125 1.21875 -1.078125 1.21875 -1.875 C 1.21875 -2.671875 1.796875 -3.203125 2.640625 -3.203125 Z M 2.640625 -3.203125 "/>
</symbol>
<symbol overflow="visible" id="glyph1-0">
<path style="stroke:none;" d=""/>
</symbol>
<symbol overflow="visible" id="glyph1-1">
<path style="stroke:none;" d="M 0 -0.953125 L 0 -4.890625 C 0 -5.71875 -0.234375 -6.34375 -0.734375 -6.796875 C -1.1875 -7.234375 -1.8125 -7.46875 -2.5 -7.46875 C -3.546875 -7.46875 -4.1875 -7 -4.625 -5.875 C -4.984375 -6.671875 -5.640625 -7.09375 -6.53125 -7.09375 C -7.15625 -7.09375 -7.734375 -6.859375 -8.140625 -6.390625 C -8.5625 -5.9375 -8.75 -5.34375 -8.75 -4.5 L -8.75 -0.953125 Z M -4.984375 -2.0625 L -7.765625 -2.0625 L -7.765625 -4.21875 C -7.765625 -4.84375 -7.6875 -5.203125 -7.453125 -5.5 C -7.21875 -5.8125 -6.859375 -5.96875 -6.375 -5.96875 C -5.90625 -5.96875 -5.53125 -5.8125 -5.296875 -5.5 C -5.0625 -5.203125 -4.984375 -4.84375 -4.984375 -4.21875 Z M -0.984375 -2.0625 L -4 -2.0625 L -4 -4.78125 C -4 -5.328125 -3.859375 -5.6875 -3.578125 -5.953125 C -3.296875 -6.21875 -2.921875 -6.359375 -2.484375 -6.359375 C -2.0625 -6.359375 -1.6875 -6.21875 -1.40625 -5.953125 C -1.109375 -5.6875 -0.984375 -5.328125 -0.984375 -4.78125 Z M -0.984375 -2.0625 "/>
</symbol>
<symbol overflow="visible" id="glyph1-2">
<path style="stroke:none;" d="M -6.28125 -1.796875 L -6.28125 -0.796875 L 0 -0.796875 L 0 -1.796875 Z M -8.75 -1.796875 L -8.75 -0.796875 L -7.484375 -0.796875 L -7.484375 -1.796875 Z M -8.75 -1.796875 "/>
</symbol>
<symbol overflow="visible" id="glyph1-3">
<path style="stroke:none;" d="M -6.28125 -3.046875 L -6.28125 -2.015625 L -8.015625 -2.015625 L -8.015625 -1.015625 L -6.28125 -1.015625 L -6.28125 -0.171875 L -5.46875 -0.171875 L -5.46875 -1.015625 L -0.71875 -1.015625 C -0.078125 -1.015625 0.28125 -1.453125 0.28125 -2.234375 C 0.28125 -2.46875 0.25 -2.71875 0.1875 -3.046875 L -0.640625 -3.046875 C -0.609375 -2.921875 -0.59375 -2.765625 -0.59375 -2.5625 C -0.59375 -2.140625 -0.71875 -2.015625 -1.15625 -2.015625 L -5.46875 -2.015625 L -5.46875 -3.046875 Z M -6.28125 -3.046875 "/>
</symbol>
<symbol overflow="visible" id="glyph1-4">
<path style="stroke:none;" d="M -4.53125 -5.25 C -5.765625 -5.25 -6.46875 -4.421875 -6.46875 -2.96875 C -6.46875 -1.515625 -5.71875 -0.5625 -4.546875 -0.5625 C -3.5625 -0.5625 -3.09375 -1.0625 -2.734375 -2.5625 L -2.515625 -3.484375 C -2.34375 -4.1875 -2.09375 -4.46875 -1.625 -4.46875 C -1.046875 -4.46875 -0.640625 -3.875 -0.640625 -3 C -0.640625 -2.453125 -0.796875 -2 -1.0625 -1.75 C -1.25 -1.59375 -1.421875 -1.53125 -1.875 -1.46875 L -1.875 -0.40625 C -0.421875 -0.453125 0.28125 -1.265625 0.28125 -2.921875 C 0.28125 -4.5 -0.5 -5.515625 -1.71875 -5.515625 C -2.65625 -5.515625 -3.171875 -4.984375 -3.46875 -3.734375 L -3.703125 -2.765625 C -3.890625 -1.953125 -4.15625 -1.609375 -4.59375 -1.609375 C -5.171875 -1.609375 -5.546875 -2.125 -5.546875 -2.9375 C -5.546875 -3.75 -5.203125 -4.171875 -4.53125 -4.203125 Z M -4.53125 -5.25 "/>
</symbol>
</g>
</defs>
<g id="surface102676">
<rect x="0" y="0" width="720" height="360" style="fill:rgb(100%,100%,100%);fill-opacity:1;stroke:none;"/>
<path style=" stroke:none;fill-rule:nonzero;fill:rgb(6.27451%,58.823529%,28.235294%);fill-opacity:1;" d="M 69.628906 300.542969 L 69.707031 300.324219 L 101.441406 68.101562 L 111.078125 68.101562 L 142.964844 300.761719 L 131.761719 300.761719 L 123.769531 240.03125 L 88.746094 240.03125 L 80.910156 300.542969 L 69.628906 300.542969 L 92.117188 214.90625 L 120.558594 214.6875 L 106.375 106.113281 L 106.21875 105.894531 L 106.0625 106.550781 L 92.039062 214.6875 L 92.117188 214.90625 Z M 69.628906 300.542969 "/>
<path style=" stroke:none;fill-rule:nonzero;fill:rgb(14.509804%,36.078431%,60%);fill-opacity:1;" d="M 69.628906 314.339844 L 69.71875 314.339844 L 69.71875 314.335938 L 69.988281 314.335938 L 70.613281 314.332031 L 71.238281 314.332031 L 72.847656 314.328125 L 75.085938 314.324219 L 77.410156 314.320312 L 80.628906 314.320312 L 84.117188 314.316406 L 91.71875 314.316406 L 93.867188 314.3125 L 122.484375 314.3125 L 126.6875 314.316406 L 132.144531 314.316406 L 134.828125 314.320312 L 136.882812 314.320312 L 138.316406 314.324219 L 139.925781 314.324219 L 141.355469 314.328125 L 142.429688 314.328125 L 142.964844 314.332031 L 130.445312 314.332031 L 129.820312 314.328125 L 129.101562 314.328125 L 127.761719 314.324219 L 124.542969 314.324219 L 122.84375 314.320312 L 94.132812 314.320312 L 91.898438 314.324219 L 87.160156 314.324219 L 85.636719 314.328125 L 84.742188 314.328125 L 83.9375 314.332031 L 82.6875 314.332031 L 82.328125 314.335938 L 82.148438 314.335938 L 82.148438 314.347656 L 82.328125 314.347656 L 82.777344 314.351562 L 83.9375 314.351562 L 85.636719 314.355469 L 87.605469 314.359375 L 90.558594 314.359375 L 91.988281 314.363281 L 122.664062 314.363281 L 124.453125 314.359375 L 128.03125 314.359375 L 129.101562 314.355469 L 129.90625 314.355469 L 130.445312 314.351562 L 142.964844 314.351562 L 142.429688 314.355469 L 141.625 314.355469 L 140.820312 314.359375 L 138.136719 314.359375 L 136.078125 314.363281 L 134.378906 314.363281 L 132.144531 314.367188 L 122.394531 314.367188 L 120.070312 314.371094 L 96.371094 314.371094 L 91.808594 314.367188 L 83.671875 314.367188 L 81.167969 314.363281 L 77.945312 314.363281 L 75.980469 314.359375 L 74.636719 314.359375 L 73.117188 314.355469 L 72.042969 314.355469 L 70.792969 314.351562 L 69.898438 314.347656 L 69.628906 314.34375 Z M 69.628906 314.339844 "/>
<path style=" stroke:none;fill-rule:nonzero;fill:rgb(96.862745%,70.196078%,16.862745%);fill-opacity:1;" d="M 69.628906 304.191406 L 69.71875 304.1875 L 69.71875 304.089844 L 70.078125 303.875 L 70.972656 303.578125 L 72.132812 303.332031 L 73.386719 303.140625 L 74.191406 303.039062 L 75.53125 302.894531 L 76.695312 302.789062 L 79.644531 302.574219 L 83.402344 302.371094 L 85.460938 302.285156 L 87.785156 302.203125 L 91.09375 302.113281 L 92.613281 302.078125 L 97.265625 302.003906 L 102.542969 301.953125 L 108.355469 301.941406 L 111.039062 301.945312 L 114.703125 301.964844 L 119.710938 302.015625 L 122.574219 302.066406 L 124.808594 302.113281 L 127.136719 302.175781 L 129.996094 302.273438 L 132.679688 302.386719 L 134.828125 302.503906 L 136.972656 302.644531 L 138.761719 302.800781 L 140.28125 302.96875 L 141.625 303.167969 L 142.429688 303.335938 L 142.964844 303.503906 L 130.535156 303.503906 L 129.820312 303.335938 L 129.015625 303.207031 L 127.671875 303.050781 L 126.332031 302.933594 L 124.988281 302.84375 L 122.484375 302.71875 L 120.339844 302.640625 L 117.65625 302.574219 L 115.0625 302.53125 L 112.109375 302.503906 L 110.320312 302.492188 L 105.582031 302.492188 L 101.289062 302.527344 L 98.785156 302.5625 L 96.996094 302.601562 L 94.492188 302.675781 L 92.972656 302.730469 L 92.078125 302.769531 L 89.394531 302.917969 L 87.605469 303.054688 L 86.621094 303.144531 L 85.371094 303.289062 L 84.476562 303.417969 L 83.492188 303.609375 L 82.953125 303.753906 L 82.238281 304.082031 L 82.148438 304.945312 L 82.417969 305.125 L 82.953125 305.324219 L 83.671875 305.496094 L 84.742188 305.679688 L 85.816406 305.816406 L 87.695312 306.003906 L 89.304688 306.128906 L 90.558594 306.210938 L 92.972656 306.339844 L 93.957031 306.382812 L 96.28125 306.46875 L 98.695312 306.539062 L 101.648438 306.59375 L 103.882812 306.625 L 107.460938 306.648438 L 112.019531 306.648438 L 117.386719 306.617188 L 120.785156 306.582031 L 123.109375 306.542969 L 124.632812 306.507812 L 126.507812 306.457031 L 127.851562 306.40625 L 129.101562 306.355469 L 130.625 306.273438 L 130.625 305.125 L 108.535156 305.121094 L 108.535156 304.585938 L 142.875 304.578125 L 142.964844 306.457031 L 141.085938 306.585938 L 138.761719 306.710938 L 136.527344 306.804688 L 134.199219 306.886719 L 130.890625 306.980469 L 128.207031 307.035156 L 124.09375 307.101562 L 120.339844 307.148438 L 116.402344 307.175781 L 112.914062 307.191406 L 108.800781 307.195312 L 105.136719 307.183594 L 101.199219 307.15625 L 98.070312 307.117188 L 95.207031 307.070312 L 92.34375 307.007812 L 88.769531 306.90625 L 86.441406 306.824219 L 84.027344 306.722656 L 81.613281 306.605469 L 79.46875 306.476562 L 78.035156 306.375 L 76.605469 306.257812 L 75.085938 306.113281 L 73.652344 305.953125 L 72.582031 305.804688 L 71.597656 305.636719 L 70.882812 305.476562 L 70.164062 305.261719 L 69.808594 305.089844 L 69.628906 304.941406 Z M 69.628906 304.191406 "/>
<path style=" stroke:none;fill-rule:nonzero;fill:rgb(83.921569%,15.686275%,22.352941%);fill-opacity:1;" d="M 69.628906 308.375 L 142.964844 308.375 L 142.964844 308.882812 L 112.402344 308.886719 L 112.402344 313.132812 L 100.105469 313.132812 L 100.105469 308.894531 L 99.925781 308.882812 L 69.628906 308.882812 Z M 69.628906 308.375 "/>
<path style=" stroke:none;fill-rule:nonzero;fill:rgb(96.862745%,70.196078%,16.862745%);fill-opacity:1;" d="M 146.824219 149.851562 L 146.914062 149.59375 L 146.914062 144.484375 L 147.273438 132.988281 L 148.167969 117.144531 L 149.328125 104.113281 L 150.582031 93.894531 L 151.386719 88.527344 L 152.726562 80.863281 L 153.890625 75.242188 L 156.84375 63.742188 L 160.597656 53.011719 L 162.65625 48.414062 L 164.980469 44.070312 L 168.289062 39.214844 L 169.808594 37.425781 L 174.460938 33.335938 L 179.738281 30.78125 L 185.550781 30.015625 L 188.234375 30.269531 L 191.898438 31.292969 L 196.910156 34.101562 L 199.769531 36.660156 L 202.007812 39.214844 L 204.332031 42.535156 L 207.195312 47.644531 L 209.875 53.777344 L 212.023438 59.910156 L 214.167969 67.574219 L 215.957031 75.753906 L 217.476562 84.695312 L 218.820312 95.425781 L 219.625 104.371094 L 220.160156 113.3125 L 207.730469 113.3125 L 207.015625 104.371094 L 206.210938 97.46875 L 204.867188 89.039062 L 203.527344 82.90625 L 202.183594 78.050781 L 199.679688 71.410156 L 197.535156 67.320312 L 194.851562 63.742188 L 192.257812 61.441406 L 189.304688 59.910156 L 187.519531 59.398438 L 182.777344 59.398438 L 178.484375 61.1875 L 175.980469 63.230469 L 174.191406 65.277344 L 171.6875 69.109375 L 170.167969 72.175781 L 169.273438 74.21875 L 166.589844 82.140625 L 164.800781 89.292969 L 163.816406 94.148438 L 162.566406 101.8125 L 161.671875 108.714844 L 160.6875 118.933594 L 160.152344 126.597656 L 159.433594 143.972656 L 159.347656 189.964844 L 159.613281 199.675781 L 160.152344 210.152344 L 160.867188 219.351562 L 161.941406 229.058594 L 163.011719 236.46875 L 164.890625 246.433594 L 166.5 253.078125 L 167.753906 257.421875 L 170.167969 264.320312 L 171.152344 266.621094 L 173.476562 271.21875 L 175.890625 274.796875 L 178.84375 277.863281 L 181.078125 279.394531 L 184.65625 280.671875 L 189.21875 280.671875 L 194.582031 279.140625 L 197.980469 277.097656 L 200.308594 275.050781 L 201.828125 273.265625 L 203.707031 270.453125 L 205.046875 267.898438 L 206.300781 265.085938 L 207.820312 260.742188 L 207.820312 199.675781 L 185.730469 199.421875 L 185.730469 170.804688 L 220.070312 170.546875 L 220.160156 270.453125 L 218.285156 277.351562 L 215.957031 283.996094 L 213.722656 289.105469 L 211.398438 293.449219 L 208.085938 298.304688 L 205.40625 301.371094 L 201.289062 304.949219 L 197.535156 307.246094 L 193.597656 308.78125 L 190.113281 309.546875 L 185.996094 309.800781 L 182.332031 309.292969 L 178.394531 307.757812 L 175.265625 305.714844 L 172.402344 303.160156 L 169.542969 299.835938 L 165.964844 294.472656 L 163.640625 290.128906 L 161.222656 284.761719 L 158.808594 278.375 L 156.664062 271.476562 L 155.230469 266.109375 L 153.800781 259.976562 L 152.28125 252.3125 L 150.851562 243.625 L 149.777344 235.703125 L 148.792969 226.761719 L 148.078125 218.328125 L 147.363281 206.832031 L 147.003906 197.632812 L 146.824219 189.710938 Z M 146.824219 149.851562 "/>
<path style=" stroke:none;fill-rule:nonzero;fill:rgb(83.921569%,15.686275%,22.352941%);fill-opacity:1;" d="M 146.824219 310.980469 L 220.160156 310.980469 L 220.160156 311.253906 L 189.597656 311.253906 L 189.597656 313.515625 L 177.300781 313.515625 L 177.300781 311.257812 L 177.121094 311.253906 L 146.824219 311.253906 Z M 146.824219 310.980469 "/>
<path style=" stroke:none;fill-rule:nonzero;fill:rgb(6.27451%,58.823529%,28.235294%);fill-opacity:1;" d="M 224.019531 311.464844 L 224.097656 311.195312 L 255.832031 22.984375 L 265.46875 22.984375 L 297.355469 311.738281 L 286.152344 311.738281 L 278.160156 236.363281 L 243.140625 236.363281 L 235.304688 311.464844 L 224.019531 311.464844 L 246.507812 205.183594 L 274.949219 204.914062 L 260.769531 70.160156 L 260.609375 69.890625 L 260.453125 70.703125 L 246.429688 204.914062 L 246.507812 205.183594 Z M 224.019531 311.464844 "/>
<path style=" stroke:none;fill-rule:nonzero;fill:rgb(83.921569%,15.686275%,22.352941%);fill-opacity:1;" d="M 224.019531 312.917969 L 297.355469 312.917969 L 297.355469 312.949219 L 266.792969 312.949219 L 266.792969 313.199219 L 254.496094 313.199219 L 254.496094 312.949219 L 224.019531 312.949219 Z M 224.019531 312.917969 "/>
<path style=" stroke:none;fill-rule:nonzero;fill:rgb(83.921569%,15.686275%,22.352941%);fill-opacity:1;" d="M 301.21875 20.664062 L 374.554688 20.664062 L 374.554688 51.882812 L 343.988281 52.15625 L 343.988281 312.304688 L 331.691406 312.304688 L 331.691406 52.429688 L 331.515625 51.882812 L 301.21875 51.882812 Z M 301.21875 20.664062 "/>
<path style=" stroke:none;fill-rule:nonzero;fill:rgb(6.27451%,58.823529%,28.235294%);fill-opacity:1;" d="M 378.414062 272.945312 L 378.492188 272.90625 L 410.222656 231.769531 L 419.859375 231.769531 L 451.75 272.980469 L 440.546875 272.980469 L 432.554688 262.222656 L 397.53125 262.222656 L 389.695312 272.945312 L 378.414062 272.945312 L 400.898438 257.773438 L 429.339844 257.734375 L 415.160156 238.5 L 415.003906 238.464844 L 414.847656 238.578125 L 400.820312 257.734375 L 400.898438 257.773438 Z M 378.414062 272.945312 "/>
<path style=" stroke:none;fill-rule:nonzero;fill:rgb(14.509804%,36.078431%,60%);fill-opacity:1;" d="M 378.414062 307.664062 L 378.503906 307.652344 L 378.503906 307.398438 L 378.769531 306.988281 L 379.398438 306.476562 L 380.023438 306.121094 L 381.632812 305.488281 L 383.867188 304.878906 L 386.195312 304.40625 L 387.894531 304.128906 L 389.414062 303.914062 L 392.902344 303.519531 L 395.136719 303.3125 L 397.550781 303.132812 L 400.503906 302.949219 L 402.648438 302.84375 L 407.480469 302.671875 L 411.054688 302.597656 L 413.828125 302.5625 L 419.820312 302.5625 L 423.398438 302.605469 L 425.992188 302.660156 L 428.855469 302.746094 L 431.269531 302.84375 L 435.472656 303.078125 L 439.226562 303.378906 L 440.925781 303.550781 L 443.609375 303.882812 L 445.667969 304.203125 L 447.097656 304.480469 L 448.707031 304.878906 L 450.140625 305.359375 L 451.210938 305.90625 L 451.75 306.367188 L 439.226562 306.367188 L 438.601562 305.9375 L 437.886719 305.605469 L 436.546875 305.167969 L 435.203125 304.855469 L 433.324219 304.546875 L 431.625 304.34375 L 429.300781 304.140625 L 427.246094 304.011719 L 425.097656 303.914062 L 423.039062 303.851562 L 419.105469 303.785156 L 414.542969 303.785156 L 412.84375 303.808594 L 409.355469 303.894531 L 407.480469 303.96875 L 404.796875 304.117188 L 402.917969 304.257812 L 400.683594 304.472656 L 399.160156 304.652344 L 397.285156 304.933594 L 395.941406 305.179688 L 394.421875 305.53125 L 393.527344 305.800781 L 392.722656 306.101562 L 392.007812 306.453125 L 391.46875 306.828125 L 391.113281 307.226562 L 390.933594 307.609375 L 390.933594 309.273438 L 391.113281 309.65625 L 391.558594 310.109375 L 392.722656 310.761719 L 394.421875 311.328125 L 396.390625 311.78125 L 398.265625 312.101562 L 399.339844 312.25 L 400.773438 312.421875 L 403.007812 312.636719 L 406.226562 312.851562 L 408.105469 312.9375 L 410.96875 313.023438 L 413.917969 313.066406 L 417.855469 313.066406 L 421.339844 313.023438 L 423.667969 312.96875 L 426.082031 312.882812 L 429.390625 312.699219 L 431.449219 312.53125 L 433.234375 312.324219 L 434.578125 312.121094 L 435.472656 311.949219 L 436.8125 311.617188 L 437.886719 311.253906 L 438.691406 310.878906 L 439.226562 310.515625 L 451.75 310.515625 L 451.210938 310.945312 L 450.40625 311.363281 L 449.601562 311.671875 L 448.351562 312.046875 L 446.917969 312.378906 L 444.863281 312.753906 L 443.164062 313 L 440.925781 313.269531 L 438.871094 313.472656 L 436.636719 313.65625 L 433.324219 313.867188 L 431.179688 313.976562 L 428.855469 314.074219 L 426.082031 314.160156 L 422.59375 314.234375 L 418.835938 314.277344 L 415.347656 314.285156 L 411.59375 314.265625 L 408.820312 314.222656 L 405.152344 314.125 L 400.59375 313.933594 L 397.285156 313.730469 L 394.691406 313.527344 L 392.453125 313.3125 L 389.949219 313.023438 L 386.730469 312.550781 L 384.761719 312.1875 L 383.421875 311.886719 L 381.902344 311.46875 L 380.828125 311.09375 L 379.574219 310.492188 L 378.679688 309.734375 L 378.414062 309.144531 Z M 378.414062 307.664062 "/>
<path style=" stroke:none;fill-rule:nonzero;fill:rgb(83.921569%,15.686275%,22.352941%);fill-opacity:1;" d="M 378.414062 274.160156 L 451.75 274.160156 L 451.75 277.074219 L 421.183594 277.101562 L 421.183594 301.382812 L 408.886719 301.382812 L 408.886719 277.128906 L 408.710938 277.074219 L 378.414062 277.074219 Z M 378.414062 274.160156 "/>
<path style=" stroke:none;fill-rule:nonzero;fill:rgb(14.509804%,36.078431%,60%);fill-opacity:1;" d="M 455.609375 159.761719 L 455.699219 159.53125 L 455.699219 153.941406 L 455.964844 145.089844 L 456.59375 133.910156 L 457.21875 126.222656 L 458.828125 112.480469 L 461.066406 99.207031 L 463.390625 88.957031 L 465.089844 82.902344 L 466.609375 78.242188 L 470.097656 69.625 L 472.332031 65.199219 L 474.746094 61.242188 L 477.699219 57.28125 L 479.847656 54.953125 L 484.675781 51.226562 L 488.253906 49.59375 L 491.023438 48.894531 L 497.015625 48.894531 L 500.59375 49.828125 L 503.1875 50.992188 L 506.050781 52.855469 L 508.464844 54.953125 L 512.667969 60.074219 L 516.425781 66.597656 L 518.125 70.324219 L 520.804688 77.542969 L 522.863281 84.53125 L 524.292969 90.585938 L 525.90625 99.207031 L 527.335938 109.6875 L 528.410156 121.566406 L 528.945312 131.582031 L 516.425781 131.582031 L 515.796875 122.265625 L 515.082031 115.042969 L 513.742188 105.496094 L 512.398438 98.738281 L 510.523438 91.984375 L 508.824219 87.558594 L 506.496094 83.132812 L 504.441406 80.339844 L 502.292969 78.242188 L 500.238281 76.847656 L 496.300781 75.449219 L 491.742188 75.449219 L 490.042969 75.914062 L 486.554688 77.777344 L 484.675781 79.40625 L 481.992188 82.667969 L 480.113281 85.695312 L 477.878906 90.355469 L 476.359375 94.3125 L 474.480469 100.371094 L 473.136719 105.726562 L 471.617188 113.414062 L 470.722656 119.234375 L 469.917969 125.757812 L 469.203125 133.445312 L 468.667969 141.597656 L 468.308594 150.214844 L 468.128906 158.597656 L 468.128906 194.699219 L 468.308594 203.085938 L 468.757812 212.867188 L 469.917969 227.074219 L 471.617188 239.421875 L 473.585938 249.203125 L 475.464844 256.191406 L 476.535156 259.449219 L 477.96875 263.175781 L 480.203125 267.835938 L 483.421875 272.492188 L 485.300781 274.355469 L 488.164062 276.21875 L 491.113281 277.152344 L 495.050781 277.152344 L 498.539062 276.21875 L 500.863281 275.054688 L 503.277344 273.191406 L 506.585938 269.234375 L 508.644531 265.507812 L 510.433594 261.082031 L 511.773438 256.65625 L 512.667969 252.929688 L 514.007812 245.707031 L 515.082031 237.789062 L 515.886719 229.636719 L 516.425781 221.71875 L 528.945312 221.71875 L 528.410156 231.035156 L 527.605469 240.117188 L 526.796875 246.875 L 525.546875 255.023438 L 524.117188 262.246094 L 522.058594 270.398438 L 520.359375 275.753906 L 518.125 281.578125 L 516.066406 286.003906 L 513.832031 289.960938 L 510.523438 294.621094 L 508.375 296.949219 L 506.050781 299.046875 L 503.277344 300.910156 L 499.789062 302.539062 L 496.035156 303.472656 L 492.546875 303.703125 L 488.789062 303.238281 L 486.015625 302.308594 L 482.351562 300.210938 L 477.789062 296.019531 L 474.480469 291.59375 L 471.886719 287.167969 L 469.648438 282.507812 L 467.144531 276.21875 L 463.925781 265.972656 L 461.957031 258.054688 L 460.617188 251.53125 L 459.097656 242.449219 L 458.023438 234.296875 L 456.773438 221.253906 L 455.878906 204.714844 L 455.609375 191.90625 Z M 455.609375 159.761719 "/>
<path style=" stroke:none;fill-rule:nonzero;fill:rgb(83.921569%,15.686275%,22.352941%);fill-opacity:1;" d="M 455.609375 304.882812 L 528.945312 304.882812 L 528.945312 305.84375 L 498.382812 305.851562 L 498.382812 313.835938 L 486.085938 313.835938 L 486.085938 305.859375 L 485.90625 305.84375 L 455.609375 305.84375 Z M 455.609375 304.882812 "/>
<path style=" stroke:none;fill-rule:nonzero;fill:rgb(6.27451%,58.823529%,28.235294%);fill-opacity:1;" d="M 532.804688 313.070312 L 532.882812 313.070312 L 564.617188 311.652344 L 574.253906 311.652344 L 606.140625 313.070312 L 594.9375 313.070312 L 586.945312 312.703125 L 551.921875 312.703125 L 544.085938 313.070312 L 532.804688 313.070312 L 555.292969 312.546875 L 583.734375 312.546875 L 569.550781 311.886719 L 569.394531 311.882812 L 569.238281 311.886719 L 555.214844 312.546875 L 555.292969 312.546875 Z M 532.804688 313.070312 "/>
<path style=" stroke:none;fill-rule:nonzero;fill:rgb(14.509804%,36.078431%,60%);fill-opacity:1;" d="M 532.804688 314.304688 L 532.894531 314.304688 L 532.894531 314.300781 L 533.164062 314.296875 L 534.414062 314.289062 L 536.023438 314.28125 L 538.261719 314.273438 L 540.585938 314.269531 L 542.285156 314.265625 L 543.804688 314.265625 L 547.292969 314.261719 L 549.527344 314.257812 L 551.945312 314.257812 L 554.894531 314.253906 L 561.871094 314.253906 L 565.449219 314.25 L 577.789062 314.25 L 580.382812 314.253906 L 585.660156 314.253906 L 589.863281 314.257812 L 593.621094 314.257812 L 595.320312 314.261719 L 598.003906 314.265625 L 600.058594 314.269531 L 601.492188 314.269531 L 603.101562 314.273438 L 604.53125 314.28125 L 605.605469 314.285156 L 606.140625 314.289062 L 593.621094 314.289062 L 592.996094 314.285156 L 592.277344 314.28125 L 589.597656 314.273438 L 587.71875 314.273438 L 586.019531 314.269531 L 583.691406 314.265625 L 559.1875 314.265625 L 557.308594 314.269531 L 555.074219 314.269531 L 553.554688 314.273438 L 551.675781 314.277344 L 550.335938 314.277344 L 548.8125 314.28125 L 547.917969 314.285156 L 547.113281 314.289062 L 546.398438 314.292969 L 545.863281 314.292969 L 545.324219 314.304688 L 545.324219 314.320312 L 545.503906 314.324219 L 545.953125 314.328125 L 547.113281 314.335938 L 548.8125 314.339844 L 550.78125 314.34375 L 552.660156 314.347656 L 553.734375 314.351562 L 555.164062 314.351562 L 557.398438 314.355469 L 562.496094 314.355469 L 565.359375 314.359375 L 575.734375 314.359375 L 578.058594 314.355469 L 583.78125 314.355469 L 585.839844 314.351562 L 587.628906 314.351562 L 588.96875 314.347656 L 589.863281 314.347656 L 591.207031 314.34375 L 592.277344 314.339844 L 593.082031 314.335938 L 593.621094 314.332031 L 606.140625 314.332031 L 605.605469 314.335938 L 603.996094 314.34375 L 602.742188 314.347656 L 601.3125 314.351562 L 599.253906 314.355469 L 597.554688 314.359375 L 595.320312 314.359375 L 593.261719 314.363281 L 591.027344 314.363281 L 587.71875 314.367188 L 583.246094 314.367188 L 580.472656 314.371094 L 563.210938 314.371094 L 559.546875 314.367188 L 554.984375 314.367188 L 551.675781 314.363281 L 549.082031 314.363281 L 546.847656 314.359375 L 544.34375 314.359375 L 541.121094 314.351562 L 539.15625 314.347656 L 537.8125 314.347656 L 536.292969 314.34375 L 535.21875 314.339844 L 533.96875 314.332031 L 533.074219 314.324219 L 532.804688 314.320312 Z M 532.804688 314.304688 "/>
<path style=" stroke:none;fill-rule:nonzero;fill:rgb(96.862745%,70.196078%,16.862745%);fill-opacity:1;" d="M 532.804688 161.839844 L 532.894531 161.613281 L 532.894531 157.082031 L 533.253906 146.882812 L 534.144531 132.832031 L 535.308594 121.273438 L 536.5625 112.207031 L 537.367188 107.445312 L 538.707031 100.648438 L 539.871094 95.660156 L 542.820312 85.460938 L 546.578125 75.941406 L 548.636719 71.863281 L 550.960938 68.011719 L 554.269531 63.703125 L 555.789062 62.117188 L 560.441406 58.492188 L 565.714844 56.222656 L 571.53125 55.542969 L 574.214844 55.769531 L 577.878906 56.679688 L 582.886719 59.171875 L 585.75 61.4375 L 587.984375 63.703125 L 590.3125 66.648438 L 593.171875 71.183594 L 595.855469 76.621094 L 598.003906 82.0625 L 600.148438 88.863281 L 601.9375 96.113281 L 603.457031 104.046875 L 604.800781 113.566406 L 605.605469 121.5 L 606.140625 129.429688 L 593.710938 129.429688 L 592.996094 121.5 L 592.1875 115.378906 L 590.847656 107.898438 L 589.507812 102.460938 L 588.164062 98.152344 L 585.660156 92.261719 L 583.515625 88.636719 L 580.832031 85.460938 L 578.238281 83.421875 L 575.285156 82.0625 L 573.496094 81.609375 L 568.757812 81.609375 L 564.464844 83.195312 L 561.960938 85.007812 L 560.171875 86.820312 L 557.667969 90.222656 L 556.148438 92.941406 L 555.253906 94.753906 L 552.570312 101.78125 L 550.78125 108.125 L 549.796875 112.433594 L 548.546875 119.230469 L 547.652344 125.351562 L 546.667969 134.417969 L 546.128906 141.214844 L 545.414062 156.628906 L 545.324219 197.425781 L 545.59375 206.035156 L 546.128906 215.328125 L 546.847656 223.488281 L 547.917969 232.101562 L 548.992188 238.675781 L 550.871094 247.511719 L 552.480469 253.40625 L 553.734375 257.257812 L 556.148438 263.378906 L 557.132812 265.417969 L 559.457031 269.496094 L 561.871094 272.671875 L 564.824219 275.390625 L 567.058594 276.75 L 570.636719 277.882812 L 575.195312 277.882812 L 580.5625 276.523438 L 583.960938 274.710938 L 586.285156 272.898438 L 587.808594 271.3125 L 589.683594 268.816406 L 591.027344 266.550781 L 592.277344 264.058594 L 593.800781 260.207031 L 593.800781 206.035156 L 571.707031 205.808594 L 571.707031 180.425781 L 606.050781 180.199219 L 606.140625 268.816406 L 604.261719 274.9375 L 601.9375 280.828125 L 599.703125 285.363281 L 597.375 289.214844 L 594.066406 293.523438 L 591.382812 296.242188 L 587.269531 299.414062 L 583.515625 301.453125 L 579.578125 302.816406 L 576.089844 303.496094 L 571.976562 303.722656 L 568.308594 303.269531 L 564.375 301.90625 L 561.246094 300.09375 L 558.382812 297.828125 L 555.519531 294.882812 L 551.945312 290.121094 L 549.617188 286.269531 L 547.203125 281.511719 L 544.789062 275.84375 L 542.644531 269.722656 L 541.210938 264.964844 L 539.78125 259.523438 L 538.261719 252.726562 L 536.828125 245.019531 L 535.757812 237.992188 L 534.773438 230.0625 L 534.058594 222.582031 L 533.339844 212.382812 L 532.984375 204.222656 L 532.804688 197.199219 Z M 532.804688 161.839844 "/>
<path style=" stroke:none;fill-rule:nonzero;fill:rgb(83.921569%,15.686275%,22.352941%);fill-opacity:1;" d="M 532.804688 304.902344 L 606.140625 304.902344 L 606.140625 305.496094 L 575.578125 305.503906 L 575.578125 310.472656 L 563.28125 310.472656 L 563.28125 305.507812 L 563.101562 305.496094 L 532.804688 305.496094 Z M 532.804688 304.902344 "/>
<path style=" stroke:none;fill-rule:nonzero;fill:rgb(6.27451%,58.823529%,28.235294%);fill-opacity:1;" d="M 610 311.882812 L 610.078125 311.878906 L 641.8125 306.625 L 651.449219 306.625 L 683.335938 311.886719 L 672.132812 311.886719 L 664.140625 310.511719 L 629.117188 310.511719 L 621.285156 311.882812 L 610 311.882812 L 632.488281 309.945312 L 660.929688 309.941406 L 646.746094 307.484375 L 646.589844 307.480469 L 646.433594 307.492188 L 632.410156 309.941406 L 632.488281 309.945312 Z M 610 311.882812 "/>
<path style=" stroke:none;fill-rule:nonzero;fill:rgb(14.509804%,36.078431%,60%);fill-opacity:1;" d="M 610 253.765625 L 610.089844 253.734375 L 610.089844 252.933594 L 610.359375 251.671875 L 610.984375 250.074219 L 611.609375 248.976562 L 613.21875 247.015625 L 615.457031 245.117188 L 617.78125 243.65625 L 619.480469 242.789062 L 621 242.125 L 624.488281 240.894531 L 626.726562 240.261719 L 629.140625 239.695312 L 632.089844 239.132812 L 634.238281 238.800781 L 639.066406 238.265625 L 642.644531 238.035156 L 645.417969 237.933594 L 651.410156 237.933594 L 654.988281 238.066406 L 657.578125 238.234375 L 660.441406 238.5 L 662.855469 238.800781 L 667.058594 239.53125 L 670.816406 240.460938 L 672.515625 240.996094 L 675.199219 242.023438 L 677.253906 243.023438 L 678.6875 243.886719 L 680.296875 245.117188 L 681.726562 246.617188 L 682.800781 248.3125 L 683.335938 249.742188 L 670.816406 249.742188 L 670.191406 248.410156 L 669.476562 247.378906 L 668.132812 246.015625 L 666.792969 245.050781 L 664.914062 244.085938 L 663.214844 243.457031 L 660.890625 242.824219 L 658.832031 242.425781 L 656.6875 242.125 L 654.628906 241.925781 L 650.695312 241.726562 L 646.132812 241.726562 L 644.433594 241.792969 L 640.945312 242.058594 L 639.066406 242.292969 L 636.382812 242.757812 L 634.507812 243.1875 L 632.269531 243.855469 L 630.75 244.421875 L 628.871094 245.285156 L 627.53125 246.050781 L 626.007812 247.148438 L 625.117188 247.980469 L 624.308594 248.910156 L 623.59375 250.007812 L 623.058594 251.171875 L 622.699219 252.402344 L 622.523438 253.601562 L 622.523438 258.753906 L 622.699219 259.953125 L 623.148438 261.347656 L 624.308594 263.378906 L 626.007812 265.140625 L 627.976562 266.539062 L 629.855469 267.535156 L 630.929688 268 L 632.359375 268.535156 L 634.59375 269.199219 L 637.816406 269.863281 L 639.691406 270.128906 L 642.554688 270.394531 L 645.507812 270.527344 L 649.441406 270.527344 L 652.929688 270.394531 L 655.253906 270.230469 L 657.667969 269.964844 L 660.976562 269.398438 L 663.035156 268.867188 L 664.824219 268.234375 L 666.164062 267.601562 L 667.058594 267.070312 L 668.402344 266.039062 L 669.476562 264.910156 L 670.28125 263.746094 L 670.816406 262.613281 L 683.335938 262.613281 L 682.800781 263.945312 L 681.996094 265.242188 L 681.191406 266.207031 L 679.9375 267.371094 L 678.507812 268.402344 L 676.449219 269.566406 L 674.75 270.328125 L 672.515625 271.160156 L 670.457031 271.792969 L 668.222656 272.359375 L 664.914062 273.023438 L 662.765625 273.355469 L 660.441406 273.65625 L 657.667969 273.921875 L 654.179688 274.15625 L 650.425781 274.289062 L 646.9375 274.320312 L 643.179688 274.253906 L 640.410156 274.121094 L 636.742188 273.820312 L 632.179688 273.222656 L 628.871094 272.589844 L 626.277344 271.960938 L 624.042969 271.292969 L 621.539062 270.394531 L 618.316406 268.933594 L 616.351562 267.800781 L 615.007812 266.871094 L 613.488281 265.574219 L 612.414062 264.410156 L 611.164062 262.546875 L 610.269531 260.183594 L 610 258.355469 Z M 610 253.765625 "/>
<path style=" stroke:none;fill-rule:nonzero;fill:rgb(96.862745%,70.196078%,16.862745%);fill-opacity:1;" d="M 610 288.324219 L 610.089844 288.296875 L 610.089844 287.75 L 610.449219 286.519531 L 611.34375 284.824219 L 612.503906 283.429688 L 613.757812 282.335938 L 614.5625 281.761719 L 615.902344 280.941406 L 617.066406 280.339844 L 620.015625 279.109375 L 623.773438 277.960938 L 625.832031 277.46875 L 628.15625 277.003906 L 631.464844 276.484375 L 632.984375 276.292969 L 637.636719 275.855469 L 642.914062 275.582031 L 648.726562 275.5 L 651.410156 275.527344 L 655.074219 275.636719 L 660.085938 275.9375 L 662.945312 276.210938 L 665.183594 276.484375 L 667.507812 276.839844 L 670.367188 277.386719 L 673.050781 278.042969 L 675.199219 278.699219 L 677.34375 279.519531 L 679.132812 280.394531 L 680.652344 281.351562 L 681.996094 282.5 L 682.800781 283.457031 L 683.335938 284.414062 L 670.90625 284.414062 L 670.191406 283.457031 L 669.386719 282.71875 L 668.042969 281.816406 L 666.703125 281.160156 L 665.359375 280.640625 L 662.855469 279.929688 L 660.710938 279.492188 L 658.027344 279.109375 L 655.433594 278.863281 L 652.480469 278.699219 L 650.695312 278.644531 L 645.953125 278.644531 L 641.660156 278.835938 L 639.15625 279.054688 L 637.367188 279.273438 L 634.863281 279.683594 L 633.34375 280.011719 L 632.449219 280.230469 L 629.765625 281.078125 L 627.976562 281.84375 L 626.992188 282.363281 L 625.742188 283.183594 L 624.847656 283.921875 L 623.863281 285.015625 L 623.328125 285.835938 L 622.609375 287.695312 L 622.523438 292.621094 L 622.789062 293.660156 L 623.328125 294.78125 L 624.042969 295.765625 L 625.117188 296.804688 L 626.1875 297.597656 L 628.066406 298.664062 L 629.675781 299.375 L 630.929688 299.839844 L 633.34375 300.578125 L 634.328125 300.824219 L 636.652344 301.316406 L 639.066406 301.699219 L 642.019531 302.027344 L 644.253906 302.191406 L 647.832031 302.328125 L 652.394531 302.328125 L 657.757812 302.164062 L 661.15625 301.945312 L 663.484375 301.726562 L 665.003906 301.535156 L 666.882812 301.234375 L 668.222656 300.960938 L 669.476562 300.660156 L 670.996094 300.195312 L 670.996094 293.660156 L 648.90625 293.632812 L 648.90625 290.566406 L 683.246094 290.539062 L 683.335938 301.234375 L 681.457031 301.972656 L 679.132812 302.683594 L 676.898438 303.230469 L 674.574219 303.695312 L 671.261719 304.214844 L 668.582031 304.542969 L 664.464844 304.925781 L 660.710938 305.171875 L 656.773438 305.335938 L 653.285156 305.417969 L 649.171875 305.445312 L 645.507812 305.390625 L 641.570312 305.226562 L 638.441406 305.007812 L 635.578125 304.734375 L 632.71875 304.378906 L 629.140625 303.804688 L 626.816406 303.339844 L 624.398438 302.765625 L 621.984375 302.082031 L 619.839844 301.34375 L 618.40625 300.769531 L 616.976562 300.113281 L 615.457031 299.292969 L 614.027344 298.363281 L 612.953125 297.515625 L 611.96875 296.558594 L 611.253906 295.65625 L 610.539062 294.425781 L 610.179688 293.441406 L 610 292.59375 Z M 610 288.324219 "/>
<path style=" stroke:none;fill-rule:nonzero;fill:rgb(83.921569%,15.686275%,22.352941%);fill-opacity:1;" d="M 610 313.066406 L 683.335938 313.066406 L 683.335938 313.207031 L 652.773438 313.207031 L 652.773438 314.371094 L 640.476562 314.371094 L 640.476562 313.207031 L 610 313.207031 Z M 610 313.066406 "/>
<g style="fill:rgb(0%,0%,0%);fill-opacity:1;">
  <use xlink:href="#glyph0-1" x="21.957031" y="318.198242"/>
  <use xlink:href="#glyph0-2" x="27.291016" y="318.198242"/>
  <use xlink:href="#glyph0-1" x="29.958008" y="318.198242"/>
</g>
<g style="fill:rgb(0%,0%,0%);fill-opacity:1;">
  <use xlink:href="#glyph0-1" x="21.957031" y="241.760742"/>
  <use xlink:href="#glyph0-2" x="27.291016" y="241.760742"/>
  <use xlink:href="#glyph0-3" x="29.958008" y="241.760742"/>
</g>
<g style="fill:rgb(0%,0%,0%);fill-opacity:1;">
  <use xlink:href="#glyph0-4" x="21.957031" y="165.323242"/>
  <use xlink:href="#glyph0-2" x="27.291016" y="165.323242"/>
  <use xlink:href="#glyph0-1" x="29.958008" y="165.323242"/>
</g>
<g style="fill:rgb(0%,0%,0%);fill-opacity:1;">
  <use xlink:href="#glyph0-4" x="21.957031" y="88.881836"/>
  <use xlink:href="#glyph0-2" x="27.291016" y="88.881836"/>
  <use xlink:href="#glyph0-3" x="29.958008" y="88.881836"/>
</g>
<g style="fill:rgb(0%,0%,0%);fill-opacity:1;">
  <use xlink:href="#glyph0-5" x="21.957031" y="12.444336"/>
  <use xlink:href="#glyph0-2" x="27.291016" y="12.444336"/>
  <use xlink:href="#glyph0-1" x="29.958008" y="12.444336"/>
</g>
<g style="fill:rgb(0%,0%,0%);fill-opacity:1;">
  <use xlink:href="#glyph0-4" x="103.296875" y="338.19043"/>
</g>
<g style="fill:rgb(0%,0%,0%);fill-opacity:1;">
  <use xlink:href="#glyph0-5" x="180.492188" y="338.19043"/>
</g>
<g style="fill:rgb(0%,0%,0%);fill-opacity:1;">
  <use xlink:href="#glyph0-6" x="257.6875" y="338.19043"/>
</g>
<g style="fill:rgb(0%,0%,0%);fill-opacity:1;">
  <use xlink:href="#glyph0-7" x="334.886719" y="338.19043"/>
</g>
<g style="fill:rgb(0%,0%,0%);fill-opacity:1;">
  <use xlink:href="#glyph0-3" x="412.082031" y="338.19043"/>
</g>
<g style="fill:rgb(0%,0%,0%);fill-opacity:1;">
  <use xlink:href="#glyph0-8" x="489.277344" y="338.19043"/>
</g>
<g style="fill:rgb(0%,0%,0%);fill-opacity:1;">
  <use xlink:href="#glyph0-9" x="566.472656" y="338.19043"/>
</g>
<g style="fill:rgb(0%,0%,0%);fill-opacity:1;">
  <use xlink:href="#glyph0-10" x="643.667969" y="338.19043"/>
</g>
<g style="fill:rgb(0%,0%,0%);fill-opacity:1;">
  <use xlink:href="#glyph1-1" x="14.412109" y="178.015625"/>
  <use xlink:href="#glyph1-2" x="14.412109" y="170.011719"/>
  <use xlink:href="#glyph1-3" x="14.412109" y="167.347656"/>
  <use xlink:href="#glyph1-4" x="14.412109" y="164.011719"/>
</g>
</g>
</svg>
