<?xml version="1.0" encoding="UTF-8"?>
<svg xmlns="http://www.w3.org/2000/svg" xmlns:xlink="http://www.w3.org/1999/xlink" width="720pt" height="360pt" viewBox="0 0 720 360" version="1.1">
<defs>
<g>
<symbol overflow="visible" id="glyph0-0">
<path style="stroke:none;" d=""/>
</symbol>
<symbol overflow="visible" id="glyph0-1">
<path style="stroke:none;" d="M 2.640625 -6.796875 C 2 -6.796875 1.421875 -6.53125 1.078125 -6.046875 C 0.640625 -5.453125 0.40625 -4.546875 0.40625 -3.296875 C 0.40625 -1 1.1875 0.21875 2.640625 0.21875 C 4.078125 0.21875 4.859375 -1 4.859375 -3.234375 C 4.859375 -4.5625 4.65625 -5.4375 4.203125 -6.046875 C 3.84375 -6.53125 3.28125 -6.796875 2.640625 -6.796875 Z M 2.640625 -6.046875 C 3.546875 -6.046875 4 -5.125 4 -3.3125 C 4 -1.375 3.5625 -0.484375 2.625 -0.484375 C 1.734375 -0.484375 1.28125 -1.421875 1.28125 -3.28125 C 1.28125 -5.140625 1.734375 -6.046875 2.640625 -6.046875 Z M 2.640625 -6.046875 "/>
</symbol>
<symbol overflow="visible" id="glyph0-2">
<path style="stroke:none;" d="M 1.828125 -1 L 0.828125 -1 L 0.828125 0 L 1.828125 0 Z M 1.828125 -1 "/>
</symbol>
<symbol overflow="visible" id="glyph0-3">
<path style="stroke:none;" d="M 4.5625 -6.796875 L 1.0625 -6.796875 L 0.546875 -3.09375 L 1.328125 -3.09375 C 1.71875 -3.5625 2.046875 -3.734375 2.578125 -3.734375 C 3.484375 -3.734375 4.0625 -3.109375 4.0625 -2.09375 C 4.0625 -1.125 3.484375 -0.53125 2.578125 -0.53125 C 1.828125 -0.53125 1.375 -0.90625 1.1875 -1.671875 L 0.328125 -1.671875 C 0.453125 -1.109375 0.546875 -0.84375 0.75 -0.59375 C 1.125 -0.078125 1.828125 0.21875 2.59375 0.21875 C 3.96875 0.21875 4.921875 -0.78125 4.921875 -2.21875 C 4.921875 -3.5625 4.03125 -4.484375 2.71875 -4.484375 C 2.25 -4.484375 1.859375 -4.359375 1.46875 -4.0625 L 1.734375 -5.96875 L 4.5625 -5.96875 Z M 4.5625 -6.796875 "/>
</symbol>
<symbol overflow="visible" id="glyph0-4">
<path style="stroke:none;" d="M 2.484375 -4.84375 L 2.484375 0 L 3.328125 0 L 3.328125 -6.796875 L 2.765625 -6.796875 C 2.46875 -5.75 2.28125 -5.609375 0.984375 -5.453125 L 0.984375 -4.84375 Z M 2.484375 -4.84375 "/>
</symbol>
<symbol overflow="visible" id="glyph0-5">
<path style="stroke:none;" d="M 4.859375 -0.828125 L 1.28125 -0.828125 C 1.359375 -1.390625 1.671875 -1.75 2.5 -2.234375 L 3.46875 -2.75 C 4.40625 -3.265625 4.90625 -3.96875 4.90625 -4.8125 C 4.90625 -5.375 4.671875 -5.90625 4.265625 -6.265625 C 3.859375 -6.625 3.375 -6.796875 2.71875 -6.796875 C 1.859375 -6.796875 1.21875 -6.5 0.84375 -5.921875 C 0.609375 -5.5625 0.5 -5.125 0.484375 -4.4375 L 1.328125 -4.4375 C 1.359375 -4.90625 1.40625 -5.1875 1.53125 -5.40625 C 1.75 -5.8125 2.1875 -6.0625 2.703125 -6.0625 C 3.46875 -6.0625 4.03125 -5.515625 4.03125 -4.78125 C 4.03125 -4.25 3.71875 -3.796875 3.125 -3.4375 L 2.234375 -2.9375 C 0.8125 -2.140625 0.40625 -1.5 0.328125 0 L 4.859375 0 Z M 4.859375 -0.828125 "/>
</symbol>
<symbol overflow="visible" id="glyph0-6">
<path style="stroke:none;" d="M 2.125 -3.125 L 2.578125 -3.125 C 3.515625 -3.125 3.984375 -2.703125 3.984375 -1.890625 C 3.984375 -1.03125 3.46875 -0.53125 2.578125 -0.53125 C 1.65625 -0.53125 1.203125 -0.984375 1.15625 -1.96875 L 0.3125 -1.96875 C 0.34375 -1.421875 0.4375 -1.078125 0.609375 -0.765625 C 0.953125 -0.109375 1.625 0.21875 2.546875 0.21875 C 3.953125 0.21875 4.859375 -0.609375 4.859375 -1.90625 C 4.859375 -2.765625 4.515625 -3.25 3.703125 -3.515625 C 4.34375 -3.765625 4.65625 -4.25 4.65625 -4.9375 C 4.65625 -6.109375 3.875 -6.796875 2.578125 -6.796875 C 1.203125 -6.796875 0.484375 -6.046875 0.453125 -4.609375 L 1.296875 -4.609375 C 1.3125 -5.015625 1.34375 -5.25 1.453125 -5.453125 C 1.640625 -5.828125 2.0625 -6.0625 2.59375 -6.0625 C 3.34375 -6.0625 3.796875 -5.625 3.796875 -4.90625 C 3.796875 -4.421875 3.609375 -4.140625 3.25 -3.984375 C 3.015625 -3.890625 2.71875 -3.84375 2.125 -3.84375 Z M 2.125 -3.125 "/>
</symbol>
<symbol overflow="visible" id="glyph0-7">
<path style="stroke:none;" d="M 3.140625 -1.625 L 3.140625 0 L 3.984375 0 L 3.984375 -1.625 L 4.984375 -1.625 L 4.984375 -2.390625 L 3.984375 -2.390625 L 3.984375 -6.796875 L 3.359375 -6.796875 L 0.265625 -2.515625 L 0.265625 -1.625 Z M 3.140625 -2.390625 L 1 -2.390625 L 3.140625 -5.359375 Z M 3.140625 -2.390625 "/>
</symbol>
<symbol overflow="visible" id="glyph0-8">
<path style="stroke:none;" d="M 4.78125 -5.03125 C 4.609375 -6.140625 3.890625 -6.796875 2.84375 -6.796875 C 2.09375 -6.796875 1.421875 -6.4375 1.03125 -5.828125 C 0.609375 -5.171875 0.40625 -4.34375 0.40625 -3.09375 C 0.40625 -1.953125 0.578125 -1.234375 0.984375 -0.625 C 1.359375 -0.078125 1.953125 0.21875 2.703125 0.21875 C 3.984375 0.21875 4.921875 -0.734375 4.921875 -2.078125 C 4.921875 -3.34375 4.0625 -4.234375 2.84375 -4.234375 C 2.171875 -4.234375 1.640625 -3.96875 1.28125 -3.46875 C 1.28125 -5.125 1.828125 -6.046875 2.796875 -6.046875 C 3.390625 -6.046875 3.796875 -5.671875 3.9375 -5.03125 Z M 2.734375 -3.484375 C 3.546875 -3.484375 4.0625 -2.921875 4.0625 -2 C 4.0625 -1.15625 3.484375 -0.53125 2.703125 -0.53125 C 1.921875 -0.53125 1.328125 -1.1875 1.328125 -2.046875 C 1.328125 -2.890625 1.90625 -3.484375 2.734375 -3.484375 Z M 2.734375 -3.484375 "/>
</symbol>
<symbol overflow="visible" id="glyph0-9">
<path style="stroke:none;" d="M 4.984375 -6.796875 L 0.4375 -6.796875 L 0.4375 -5.96875 L 4.109375 -5.96875 C 2.5 -3.65625 1.828125 -2.234375 1.328125 0 L 2.21875 0 C 2.59375 -2.171875 3.453125 -4.046875 4.984375 -6.09375 Z M 4.984375 -6.796875 "/>
</symbol>
<symbol overflow="visible" id="glyph0-10">
<path style="stroke:none;" d="M 3.75 -3.578125 C 4.453125 -4 4.6875 -4.34375 4.6875 -4.984375 C 4.6875 -6.046875 3.84375 -6.796875 2.640625 -6.796875 C 1.4375 -6.796875 0.59375 -6.046875 0.59375 -4.984375 C 0.59375 -4.359375 0.828125 -4.015625 1.515625 -3.578125 C 0.734375 -3.203125 0.359375 -2.640625 0.359375 -1.890625 C 0.359375 -0.640625 1.296875 0.21875 2.640625 0.21875 C 3.984375 0.21875 4.921875 -0.640625 4.921875 -1.875 C 4.921875 -2.640625 4.53125 -3.203125 3.75 -3.578125 Z M 2.640625 -6.046875 C 3.359375 -6.046875 3.8125 -5.625 3.8125 -4.96875 C 3.8125 -4.34375 3.34375 -3.921875 2.640625 -3.921875 C 1.921875 -3.921875 1.453125 -4.34375 1.453125 -4.984375 C 1.453125 -5.625 1.921875 -6.046875 2.640625 -6.046875 Z M 2.640625 -3.203125 C 3.484375 -3.203125 4.0625 -2.671875 4.0625 -1.875 C 4.0625 -1.0625 3.484375 -0.53125 2.625 -0.53125 C 1.796875 -0.53125 1.21875 -1.078125 1.21875 -1.875 C 1.21875 -2.671875 1.796875 -3.203125 2.640625 -3.203125 Z M 2.640625 -3.203125 "/>
</symbol>
<symbol overflow="visible" id="glyph0-11">
<path style="stroke:none;" d="M 0.515625 -1.546875 C 0.671875 -0.4375 1.40625 0.21875 2.4375 0.21875 C 3.1875 0.21875 3.859375 -0.140625 4.265625 -0.75 C 4.6875 -1.40625 4.890625 -2.25 4.890625 -3.484375 C 4.890625 -4.625 4.703125 -5.359375 4.3125 -5.953125 C 3.9375 -6.5 3.34375 -6.796875 2.59375 -6.796875 C 1.296875 -6.796875 0.359375 -5.84375 0.359375 -4.515625 C 0.359375 -3.25 1.234375 -2.34375 2.453125 -2.34375 C 3.09375 -2.34375 3.5625 -2.578125 4.015625 -3.109375 C 4 -1.453125 3.46875 -0.53125 2.5 -0.53125 C 1.90625 -0.53125 1.484375 -0.90625 1.359375 -1.546875 Z M 2.578125 -6.0625 C 3.375 -6.0625 3.96875 -5.40625 3.96875 -4.53125 C 3.96875 -3.6875 3.375 -3.09375 2.546875 -3.09375 C 1.734375 -3.09375 1.234375 -3.671875 1.234375 -4.578125 C 1.234375 -5.4375 1.796875 -6.0625 2.578125 -6.0625 Z M 2.578125 -6.0625 "/>
</symbol>
<symbol overflow="visible" id="glyph1-0">
<path style="stroke:none;" d=""/>
</symbol>
<symbol overflow="visible" id="glyph1-1">
<path style="stroke:none;" d="M 0 -0.953125 L 0 -4.890625 C 0 -5.71875 -0.234375 -6.34375 -0.734375 -6.796875 C -1.1875 -7.234375 -1.8125 -7.46875 -2.5 -7.46875 C -3.546875 -7.46875 -4.1875 -7 -4.625 -5.875 C -4.984375 -6.671875 -5.640625 -7.09375 -6.53125 -7.09375 C -7.15625 -7.09375 -7.734375 -6.859375 -8.140625 -6.390625 C -8.5625 -5.9375 -8.75 -5.34375 -8.75 -4.5 L -8.75 -0.953125 Z M -4.984375 -2.0625 L -7.765625 -2.0625 L -7.765625 -4.21875 C -7.765625 -4.84375 -7.6875 -5.203125 -7.453125 -5.5 C -7.21875 -5.8125 -6.859375 -5.96875 -6.375 -5.96875 C -5.90625 -5.96875 -5.53125 -5.8125 -5.296875 -5.5 C -5.0625 -5.203125 -4.984375 -4.84375 -4.984375 -4.21875 Z M -0.984375 -2.0625 L -4 -2.0625 L -4 -4.78125 C -4 -5.328125 -3.859375 -5.6875 -3.578125 -5.953125 C -3.296875 -6.21875 -2.921875 -6.359375 -2.484375 -6.359375 C -2.0625 -6.359375 -1.6875 -6.21875 -1.40625 -5.953125 C -1.109375 -5.6875 -0.984375 -5.328125 -0.984375 -4.78125 Z M -0.984375 -2.0625 "/>
</symbol>
<symbol overflow="visible" id="glyph1-2">
<path style="stroke:none;" d="M -6.28125 -1.796875 L -6.28125 -0.796875 L 0 -0.796875 L 0 -1.796875 Z M -8.75 -1.796875 L -8.75 -0.796875 L -7.484375 -0.796875 L -7.484375 -1.796875 Z M -8.75 -1.796875 "/>
</symbol>
<symbol overflow="visible" id="glyph1-3">
<path style="stroke:none;" d="M -6.28125 -3.046875 L -6.28125 -2.015625 L -8.015625 -2.015625 L -8.015625 -1.015625 L -6.28125 -1.015625 L -6.28125 -0.171875 L -5.46875 -0.171875 L -5.46875 -1.015625 L -0.71875 -1.015625 C -0.078125 -1.015625 0.28125 -1.453125 0.28125 -2.234375 C 0.28125 -2.46875 0.25 -2.71875 0.1875 -3.046875 L -0.640625 -3.046875 C -0.609375 -2.921875 -0.59375 -2.765625 -0.59375 -2.5625 C -0.59375 -2.140625 -0.71875 -2.015625 -1.15625 -2.015625 L -5.46875 -2.015625 L -5.46875 -3.046875 Z M -6.28125 -3.046875 "/>
</symbol>
<symbol overflow="visible" id="glyph1-4">
<path style="stroke:none;" d="M -4.53125 -5.25 C -5.765625 -5.25 -6.46875 -4.421875 -6.46875 -2.96875 C -6.46875 -1.515625 -5.71875 -0.5625 -4.546875 -0.5625 C -3.5625 -0.5625 -3.09375 -1.0625 -2.734375 -2.5625 L -2.515625 -3.484375 C -2.34375 -4.1875 -2.09375 -4.46875 -1.625 -4.46875 C -1.046875 -4.46875 -0.640625 -3.875 -0.640625 -3 C -0.640625 -2.453125 -0.796875 -2 -1.0625 -1.75 C -1.25 -1.59375 -1.421875 -1.53125 -1.875 -1.46875 L -1.875 -0.40625 C -0.421875 -0.453125 0.28125 -1.265625 0.28125 -2.921875 C 0.28125 -4.5 -0.5 -5.515625 -1.71875 -5.515625 C -2.65625 -5.515625 -3.171875 -4.984375 -3.46875 -3.734375 L -3.703125 -2.765625 C -3.890625 -1.953125 -4.15625 -1.609375 -4.59375 -1.609375 C -5.171875 -1.609375 -5.546875 -2.125 -5.546875 -2.9375 C -5.546875 -3.75 -5.203125 -4.171875 -4.53125 -4.203125 Z M -4.53125 -5.25 "/>
</symbol>
</g>
</defs>
<g id="surface108421">
<rect x="0" y="0" width="720" height="360" style="fill:rgb(100%,100%,100%);fill-opacity:1;stroke:none;"/>
<path style=" stroke:none;fill-rule:nonzero;fill:rgb(6.27451%,58.823529%,28.235294%);fill-opacity:1;" d="M 131.308594 313.195312 L 131.371094 313.195312 L 156.726562 312.097656 L 164.425781 312.097656 L 189.902344 313.195312 L 180.953125 313.195312 L 174.566406 312.910156 L 146.582031 312.910156 L 140.324219 313.195312 L 131.308594 313.195312 L 149.273438 312.789062 L 172 312.789062 L 160.667969 312.277344 L 160.542969 312.277344 L 160.417969 312.28125 L 149.210938 312.789062 L 149.273438 312.789062 Z M 131.308594 313.195312 "/>
<path style=" stroke:none;fill-rule:nonzero;fill:rgb(14.509804%,36.078431%,60%);fill-opacity:1;" d="M 131.308594 303.28125 L 131.378906 303.277344 L 131.378906 303.195312 L 131.59375 303.058594 L 132.09375 302.890625 L 132.59375 302.773438 L 133.882812 302.5625 L 135.667969 302.359375 L 137.523438 302.203125 L 138.882812 302.113281 L 140.097656 302.042969 L 142.882812 301.910156 L 144.671875 301.84375 L 146.601562 301.78125 L 148.957031 301.722656 L 150.671875 301.6875 L 154.53125 301.628906 L 157.390625 301.605469 L 159.605469 301.59375 L 164.394531 301.59375 L 167.25 301.609375 L 169.324219 301.625 L 171.609375 301.65625 L 173.539062 301.6875 L 176.898438 301.765625 L 179.898438 301.863281 L 181.257812 301.921875 L 183.402344 302.03125 L 185.042969 302.136719 L 186.1875 302.230469 L 187.472656 302.359375 L 188.617188 302.519531 L 189.476562 302.699219 L 189.902344 302.851562 L 179.898438 302.851562 L 179.398438 302.710938 L 178.828125 302.601562 L 177.757812 302.457031 L 176.683594 302.351562 L 175.183594 302.25 L 173.824219 302.183594 L 171.96875 302.117188 L 170.324219 302.074219 L 168.609375 302.042969 L 166.964844 302.019531 L 163.820312 302 L 160.175781 302 L 158.820312 302.007812 L 156.03125 302.035156 L 154.53125 302.058594 L 152.386719 302.109375 L 150.886719 302.15625 L 149.101562 302.226562 L 147.886719 302.285156 L 146.386719 302.378906 L 145.3125 302.460938 L 144.097656 302.578125 L 143.386719 302.664062 L 142.742188 302.765625 L 142.171875 302.882812 L 141.742188 303.007812 L 141.457031 303.136719 L 141.3125 303.265625 L 141.3125 303.816406 L 141.457031 303.941406 L 141.8125 304.089844 L 142.742188 304.308594 L 144.097656 304.496094 L 145.671875 304.644531 L 147.171875 304.75 L 148.03125 304.800781 L 149.171875 304.855469 L 150.960938 304.929688 L 153.53125 305 L 155.03125 305.027344 L 157.320312 305.054688 L 159.675781 305.070312 L 162.820312 305.070312 L 165.609375 305.054688 L 167.464844 305.039062 L 169.394531 305.007812 L 172.039062 304.949219 L 173.683594 304.890625 L 175.113281 304.824219 L 176.183594 304.757812 L 176.898438 304.699219 L 177.96875 304.589844 L 178.828125 304.46875 L 179.472656 304.347656 L 179.898438 304.226562 L 189.902344 304.226562 L 189.476562 304.367188 L 188.832031 304.507812 L 188.1875 304.609375 L 187.1875 304.734375 L 186.046875 304.84375 L 184.402344 304.96875 L 183.042969 305.046875 L 181.257812 305.136719 L 179.613281 305.203125 L 177.828125 305.265625 L 175.183594 305.335938 L 173.46875 305.371094 L 171.609375 305.402344 L 169.394531 305.429688 L 166.609375 305.457031 L 163.605469 305.46875 L 160.820312 305.472656 L 157.820312 305.46875 L 155.605469 305.453125 L 152.675781 305.421875 L 149.03125 305.355469 L 146.386719 305.289062 L 144.3125 305.222656 L 142.527344 305.152344 L 140.527344 305.054688 L 137.953125 304.898438 L 136.382812 304.777344 L 135.308594 304.679688 L 134.09375 304.542969 L 133.238281 304.417969 L 132.238281 304.21875 L 131.523438 303.96875 L 131.308594 303.773438 Z M 131.308594 303.28125 "/>
<path style=" stroke:none;fill-rule:nonzero;fill:rgb(96.862745%,70.196078%,16.862745%);fill-opacity:1;" d="M 131.308594 307.445312 L 131.378906 307.445312 L 131.378906 307.410156 L 131.664062 307.335938 L 132.378906 307.230469 L 133.308594 307.140625 L 134.308594 307.074219 L 134.953125 307.039062 L 136.023438 306.988281 L 136.953125 306.949219 L 139.3125 306.875 L 142.3125 306.800781 L 143.957031 306.769531 L 145.8125 306.742188 L 148.457031 306.710938 L 149.671875 306.699219 L 153.390625 306.671875 L 157.605469 306.652344 L 162.25 306.648438 L 164.394531 306.652344 L 167.324219 306.65625 L 171.324219 306.675781 L 173.613281 306.691406 L 175.398438 306.710938 L 177.253906 306.730469 L 179.542969 306.765625 L 181.6875 306.808594 L 183.402344 306.847656 L 185.117188 306.898438 L 186.546875 306.953125 L 187.761719 307.011719 L 188.832031 307.085938 L 189.476562 307.144531 L 189.902344 307.203125 L 179.972656 307.203125 L 179.398438 307.144531 L 178.757812 307.097656 L 177.683594 307.042969 L 176.613281 307 L 175.539062 306.96875 L 173.539062 306.925781 L 171.824219 306.898438 L 169.679688 306.875 L 167.609375 306.859375 L 165.25 306.847656 L 163.820312 306.84375 L 160.035156 306.84375 L 156.605469 306.855469 L 154.605469 306.871094 L 153.175781 306.882812 L 151.171875 306.910156 L 149.957031 306.929688 L 149.246094 306.941406 L 147.101562 306.996094 L 145.671875 307.042969 L 144.886719 307.074219 L 143.886719 307.125 L 143.171875 307.171875 L 142.382812 307.242188 L 141.957031 307.292969 L 141.382812 307.40625 L 141.3125 307.714844 L 141.527344 307.777344 L 141.957031 307.847656 L 142.527344 307.910156 L 143.386719 307.972656 L 144.242188 308.023438 L 145.742188 308.089844 L 147.027344 308.132812 L 148.03125 308.164062 L 149.957031 308.207031 L 150.746094 308.222656 L 152.601562 308.253906 L 154.53125 308.277344 L 156.890625 308.300781 L 158.675781 308.308594 L 161.535156 308.316406 L 165.179688 308.316406 L 169.46875 308.308594 L 172.183594 308.292969 L 174.039062 308.28125 L 175.253906 308.269531 L 176.753906 308.25 L 177.828125 308.234375 L 178.828125 308.214844 L 180.042969 308.183594 L 180.042969 307.777344 L 162.390625 307.777344 L 162.390625 307.585938 L 189.832031 307.585938 L 189.902344 308.25 L 188.402344 308.296875 L 186.546875 308.339844 L 184.757812 308.375 L 182.902344 308.402344 L 180.257812 308.433594 L 178.113281 308.457031 L 174.824219 308.480469 L 171.824219 308.496094 L 168.679688 308.503906 L 165.894531 308.511719 L 162.605469 308.511719 L 159.675781 308.507812 L 156.53125 308.5 L 154.03125 308.484375 L 151.746094 308.46875 L 149.457031 308.445312 L 146.601562 308.410156 L 144.742188 308.378906 L 142.8125 308.34375 L 140.882812 308.300781 L 139.167969 308.257812 L 138.027344 308.222656 L 136.882812 308.179688 L 135.667969 308.128906 L 134.523438 308.070312 L 133.667969 308.019531 L 132.878906 307.957031 L 132.308594 307.902344 L 131.738281 307.824219 L 131.453125 307.765625 L 131.308594 307.710938 Z M 131.308594 307.445312 "/>
<path style=" stroke:none;fill-rule:nonzero;fill:rgb(83.921569%,15.686275%,22.352941%);fill-opacity:1;" d="M 131.308594 309.6875 L 189.902344 309.6875 L 189.902344 309.820312 L 165.484375 309.820312 L 165.484375 310.925781 L 155.65625 310.925781 L 155.65625 309.820312 L 131.308594 309.820312 Z M 131.308594 309.6875 "/>
<path style=" stroke:none;fill-rule:nonzero;fill:rgb(6.27451%,58.823529%,28.235294%);fill-opacity:1;" d="M 192.988281 308.796875 L 193.050781 308.789062 L 218.402344 303.40625 L 226.105469 303.40625 L 251.582031 308.800781 L 242.628906 308.800781 L 236.246094 307.390625 L 208.261719 307.390625 L 202.003906 308.796875 L 192.988281 308.796875 L 210.953125 306.808594 L 233.679688 306.804688 L 222.347656 304.289062 L 222.222656 304.28125 L 222.097656 304.296875 L 210.890625 306.804688 L 210.953125 306.808594 Z M 192.988281 308.796875 "/>
<path style=" stroke:none;fill-rule:nonzero;fill:rgb(14.509804%,36.078431%,60%);fill-opacity:1;" d="M 192.988281 311.375 L 193.058594 311.375 L 193.058594 311.304688 L 193.273438 311.191406 L 193.773438 311.050781 L 194.273438 310.953125 L 195.558594 310.777344 L 197.347656 310.609375 L 199.203125 310.480469 L 200.5625 310.40625 L 201.777344 310.347656 L 204.5625 310.238281 L 206.351562 310.179688 L 208.28125 310.132812 L 210.636719 310.082031 L 212.351562 310.050781 L 216.210938 310.003906 L 219.070312 309.984375 L 221.285156 309.976562 L 226.074219 309.976562 L 228.929688 309.988281 L 231.003906 310 L 233.289062 310.023438 L 235.21875 310.050781 L 238.578125 310.117188 L 241.578125 310.199219 L 242.9375 310.246094 L 245.082031 310.335938 L 246.722656 310.425781 L 247.867188 310.503906 L 249.152344 310.609375 L 250.296875 310.742188 L 251.152344 310.894531 L 251.582031 311.019531 L 241.578125 311.019531 L 241.078125 310.902344 L 240.507812 310.8125 L 239.433594 310.691406 L 238.363281 310.605469 L 236.863281 310.519531 L 235.503906 310.464844 L 233.648438 310.40625 L 232.003906 310.371094 L 230.289062 310.347656 L 228.644531 310.328125 L 225.5 310.3125 L 221.855469 310.3125 L 220.5 310.316406 L 217.710938 310.339844 L 216.210938 310.359375 L 214.066406 310.402344 L 212.566406 310.441406 L 210.78125 310.5 L 209.566406 310.550781 L 208.066406 310.625 L 206.992188 310.691406 L 205.777344 310.789062 L 205.0625 310.863281 L 204.421875 310.945312 L 203.847656 311.042969 L 203.421875 311.148438 L 203.132812 311.253906 L 202.992188 311.363281 L 202.992188 311.816406 L 203.132812 311.925781 L 203.492188 312.046875 L 204.421875 312.226562 L 205.777344 312.382812 L 207.351562 312.507812 L 208.851562 312.59375 L 209.707031 312.636719 L 210.851562 312.683594 L 212.636719 312.742188 L 215.210938 312.800781 L 216.710938 312.824219 L 219 312.847656 L 221.355469 312.859375 L 224.5 312.859375 L 227.289062 312.847656 L 229.144531 312.832031 L 231.074219 312.808594 L 233.71875 312.761719 L 235.363281 312.714844 L 236.792969 312.65625 L 237.863281 312.601562 L 238.578125 312.554688 L 239.648438 312.460938 L 240.507812 312.363281 L 241.148438 312.257812 L 241.578125 312.160156 L 251.582031 312.160156 L 251.152344 312.277344 L 250.511719 312.390625 L 249.867188 312.476562 L 248.867188 312.582031 L 247.722656 312.671875 L 246.082031 312.773438 L 244.722656 312.84375 L 242.9375 312.917969 L 241.292969 312.972656 L 239.507812 313.023438 L 236.863281 313.082031 L 235.148438 313.109375 L 233.289062 313.136719 L 231.074219 313.160156 L 228.289062 313.179688 L 225.285156 313.191406 L 222.5 313.195312 L 219.5 313.191406 L 217.285156 313.179688 L 214.351562 313.152344 L 210.710938 313.097656 L 208.066406 313.042969 L 205.992188 312.988281 L 204.207031 312.929688 L 202.207031 312.847656 L 199.632812 312.71875 L 198.0625 312.617188 L 196.988281 312.535156 L 195.773438 312.421875 L 194.917969 312.320312 L 193.917969 312.152344 L 193.203125 311.945312 L 192.988281 311.78125 Z M 192.988281 311.375 "/>
<path style=" stroke:none;fill-rule:nonzero;fill:rgb(96.862745%,70.196078%,16.862745%);fill-opacity:1;" d="M 192.988281 275.582031 L 193.058594 275.5625 L 193.058594 275.109375 L 193.34375 274.089844 L 194.058594 272.691406 L 194.988281 271.535156 L 195.988281 270.632812 L 196.632812 270.15625 L 197.703125 269.480469 L 198.632812 268.984375 L 200.992188 267.964844 L 203.992188 267.015625 L 205.636719 266.609375 L 207.492188 266.222656 L 210.136719 265.792969 L 211.351562 265.636719 L 215.066406 265.273438 L 219.285156 265.046875 L 223.929688 264.980469 L 226.074219 265.003906 L 229.003906 265.09375 L 233.003906 265.34375 L 235.289062 265.570312 L 237.078125 265.792969 L 238.933594 266.089844 L 241.222656 266.539062 L 243.367188 267.082031 L 245.082031 267.625 L 246.796875 268.304688 L 248.222656 269.027344 L 249.4375 269.820312 L 250.511719 270.769531 L 251.152344 271.558594 L 251.582031 272.351562 L 241.648438 272.351562 L 241.078125 271.558594 L 240.433594 270.949219 L 239.363281 270.203125 L 238.292969 269.660156 L 237.21875 269.230469 L 235.21875 268.644531 L 233.503906 268.28125 L 231.359375 267.964844 L 229.289062 267.761719 L 226.929688 267.625 L 225.5 267.582031 L 221.714844 267.582031 L 218.285156 267.738281 L 216.28125 267.917969 L 214.855469 268.101562 L 212.851562 268.441406 L 211.636719 268.710938 L 210.921875 268.890625 L 208.78125 269.59375 L 207.351562 270.226562 L 206.566406 270.65625 L 205.5625 271.332031 L 204.851562 271.945312 L 204.0625 272.847656 L 203.636719 273.527344 L 203.0625 275.0625 L 202.992188 279.132812 L 203.207031 279.992188 L 203.636719 280.917969 L 204.207031 281.734375 L 205.0625 282.59375 L 205.921875 283.246094 L 207.421875 284.128906 L 208.707031 284.71875 L 209.707031 285.101562 L 211.636719 285.710938 L 212.425781 285.914062 L 214.28125 286.320312 L 216.210938 286.636719 L 218.570312 286.910156 L 220.355469 287.046875 L 223.214844 287.160156 L 226.859375 287.160156 L 231.144531 287.023438 L 233.863281 286.84375 L 235.71875 286.660156 L 236.933594 286.503906 L 238.433594 286.253906 L 239.507812 286.027344 L 240.507812 285.78125 L 241.722656 285.394531 L 241.722656 279.992188 L 224.070312 279.96875 L 224.070312 277.4375 L 251.511719 277.414062 L 251.582031 286.253906 L 250.082031 286.863281 L 248.222656 287.453125 L 246.4375 287.90625 L 244.578125 288.289062 L 241.9375 288.71875 L 239.792969 288.988281 L 236.503906 289.304688 L 233.503906 289.507812 L 230.359375 289.644531 L 227.574219 289.714844 L 224.285156 289.734375 L 221.355469 289.691406 L 218.210938 289.554688 L 215.710938 289.375 L 213.425781 289.148438 L 211.136719 288.855469 L 208.28125 288.378906 L 206.421875 287.996094 L 204.492188 287.519531 L 202.5625 286.953125 L 200.847656 286.34375 L 199.703125 285.871094 L 198.5625 285.328125 L 197.347656 284.648438 L 196.203125 283.878906 L 195.347656 283.179688 L 194.558594 282.386719 L 193.988281 281.640625 L 193.417969 280.625 L 193.128906 279.8125 L 192.988281 279.109375 Z M 192.988281 275.582031 "/>
<path style=" stroke:none;fill-rule:nonzero;fill:rgb(83.921569%,15.686275%,22.352941%);fill-opacity:1;" d="M 192.988281 290.910156 L 251.582031 290.910156 L 251.582031 292.121094 L 227.164062 292.132812 L 227.164062 302.230469 L 217.335938 302.230469 L 217.335938 292.144531 L 217.195312 292.121094 L 192.988281 292.121094 Z M 192.988281 290.910156 "/>
<path style=" stroke:none;fill-rule:nonzero;fill:rgb(6.27451%,58.823529%,28.235294%);fill-opacity:1;" d="M 254.667969 308.523438 L 254.730469 308.519531 L 280.082031 301.046875 L 287.78125 301.046875 L 313.261719 308.53125 L 304.308594 308.53125 L 297.925781 306.578125 L 269.941406 306.578125 L 263.679688 308.523438 L 254.667969 308.523438 L 272.632812 305.769531 L 295.359375 305.761719 L 284.027344 302.269531 L 283.902344 302.261719 L 283.777344 302.28125 L 272.570312 305.761719 L 272.632812 305.769531 Z M 254.667969 308.523438 "/>
<path style=" stroke:none;fill-rule:nonzero;fill:rgb(14.509804%,36.078431%,60%);fill-opacity:1;" d="M 254.667969 288.941406 L 254.738281 288.925781 L 254.738281 288.5 L 254.953125 287.828125 L 255.453125 286.980469 L 255.953125 286.394531 L 257.238281 285.351562 L 259.027344 284.34375 L 260.882812 283.566406 L 262.242188 283.105469 L 263.457031 282.753906 L 266.242188 282.097656 L 268.03125 281.761719 L 269.957031 281.460938 L 272.316406 281.160156 L 274.03125 280.984375 L 277.890625 280.703125 L 280.75 280.578125 L 282.964844 280.523438 L 287.75 280.523438 L 290.609375 280.59375 L 292.683594 280.683594 L 294.96875 280.824219 L 296.898438 280.984375 L 300.257812 281.375 L 303.257812 281.867188 L 304.617188 282.152344 L 306.757812 282.699219 L 308.402344 283.230469 L 309.546875 283.691406 L 310.832031 284.34375 L 311.976562 285.140625 L 312.832031 286.042969 L 313.261719 286.800781 L 303.257812 286.800781 L 302.757812 286.09375 L 302.1875 285.546875 L 301.113281 284.820312 L 300.042969 284.308594 L 298.542969 283.796875 L 297.183594 283.460938 L 295.328125 283.125 L 293.683594 282.910156 L 291.96875 282.753906 L 290.324219 282.648438 L 287.179688 282.539062 L 283.535156 282.539062 L 282.179688 282.574219 L 279.390625 282.71875 L 277.890625 282.839844 L 275.746094 283.089844 L 274.246094 283.320312 L 272.460938 283.671875 L 271.246094 283.972656 L 269.746094 284.433594 L 268.671875 284.839844 L 267.457031 285.421875 L 266.742188 285.863281 L 266.101562 286.359375 L 265.527344 286.945312 L 265.101562 287.5625 L 264.8125 288.21875 L 264.671875 288.855469 L 264.671875 291.59375 L 264.8125 292.230469 L 265.171875 292.972656 L 266.101562 294.050781 L 267.457031 294.988281 L 269.03125 295.734375 L 270.53125 296.261719 L 271.386719 296.511719 L 272.53125 296.792969 L 274.316406 297.148438 L 276.890625 297.5 L 278.390625 297.640625 L 280.675781 297.785156 L 283.035156 297.855469 L 286.179688 297.855469 L 288.964844 297.785156 L 290.824219 297.695312 L 292.753906 297.554688 L 295.398438 297.253906 L 297.042969 296.96875 L 298.46875 296.632812 L 299.542969 296.296875 L 300.257812 296.015625 L 301.328125 295.46875 L 302.1875 294.867188 L 302.828125 294.246094 L 303.257812 293.644531 L 313.261719 293.644531 L 312.832031 294.351562 L 312.191406 295.042969 L 311.546875 295.554688 L 310.546875 296.175781 L 309.402344 296.722656 L 307.761719 297.339844 L 306.402344 297.75 L 304.617188 298.191406 L 302.972656 298.527344 L 301.1875 298.828125 L 298.542969 299.179688 L 296.828125 299.359375 L 294.96875 299.515625 L 292.753906 299.660156 L 289.96875 299.78125 L 286.964844 299.851562 L 284.179688 299.871094 L 281.175781 299.835938 L 278.960938 299.765625 L 276.03125 299.605469 L 272.386719 299.285156 L 269.746094 298.949219 L 267.671875 298.613281 L 265.886719 298.261719 L 263.886719 297.785156 L 261.3125 297.003906 L 259.742188 296.40625 L 258.667969 295.910156 L 257.453125 295.21875 L 256.597656 294.601562 L 255.597656 293.609375 L 254.882812 292.355469 L 254.667969 291.382812 Z M 254.667969 288.941406 "/>
<path style=" stroke:none;fill-rule:nonzero;fill:rgb(96.862745%,70.196078%,16.862745%);fill-opacity:1;" d="M 254.667969 311.203125 L 254.738281 311.199219 L 254.738281 311.132812 L 255.023438 310.992188 L 255.738281 310.792969 L 256.667969 310.628906 L 257.667969 310.503906 L 258.3125 310.4375 L 259.382812 310.339844 L 260.3125 310.269531 L 262.671875 310.128906 L 265.671875 309.992188 L 267.316406 309.9375 L 269.171875 309.882812 L 271.816406 309.820312 L 273.03125 309.800781 L 276.746094 309.75 L 280.964844 309.714844 L 285.609375 309.707031 L 287.75 309.710938 L 290.679688 309.722656 L 294.683594 309.757812 L 296.96875 309.789062 L 298.757812 309.820312 L 300.613281 309.863281 L 302.902344 309.925781 L 305.042969 310.003906 L 306.757812 310.078125 L 308.472656 310.175781 L 309.902344 310.277344 L 311.117188 310.390625 L 312.191406 310.523438 L 312.832031 310.632812 L 313.261719 310.746094 L 303.328125 310.746094 L 302.757812 310.632812 L 302.113281 310.546875 L 301.042969 310.441406 L 299.972656 310.367188 L 298.898438 310.304688 L 296.898438 310.222656 L 295.183594 310.171875 L 293.039062 310.128906 L 290.96875 310.097656 L 288.609375 310.078125 L 287.179688 310.074219 L 283.394531 310.074219 L 279.960938 310.09375 L 277.960938 310.121094 L 276.53125 310.148438 L 274.53125 310.195312 L 273.316406 310.234375 L 272.601562 310.257812 L 270.457031 310.355469 L 269.03125 310.445312 L 268.242188 310.507812 L 267.242188 310.601562 L 266.527344 310.6875 L 265.742188 310.816406 L 265.3125 310.910156 L 264.742188 311.128906 L 264.671875 311.703125 L 264.886719 311.824219 L 265.3125 311.953125 L 265.886719 312.066406 L 266.742188 312.1875 L 267.601562 312.28125 L 269.101562 312.40625 L 270.386719 312.488281 L 271.386719 312.542969 L 273.316406 312.628906 L 274.101562 312.65625 L 275.960938 312.714844 L 277.890625 312.757812 L 280.25 312.796875 L 282.035156 312.816406 L 284.894531 312.832031 L 288.539062 312.832031 L 292.824219 312.8125 L 295.539062 312.789062 L 297.398438 312.761719 L 298.613281 312.738281 L 300.113281 312.707031 L 301.1875 312.671875 L 302.1875 312.636719 L 303.402344 312.585938 L 303.402344 311.824219 L 285.75 311.820312 L 285.75 311.460938 L 313.191406 311.460938 L 313.261719 312.707031 L 311.761719 312.792969 L 309.902344 312.875 L 308.117188 312.9375 L 306.257812 312.992188 L 303.617188 313.050781 L 301.472656 313.089844 L 298.183594 313.136719 L 295.183594 313.164062 L 292.039062 313.183594 L 289.253906 313.191406 L 285.964844 313.195312 L 283.035156 313.1875 L 279.890625 313.171875 L 277.390625 313.144531 L 275.105469 313.113281 L 272.816406 313.070312 L 269.957031 313.003906 L 268.101562 312.949219 L 266.171875 312.882812 L 264.242188 312.804688 L 262.527344 312.71875 L 261.382812 312.652344 L 260.242188 312.574219 L 259.027344 312.480469 L 257.882812 312.371094 L 257.023438 312.273438 L 256.238281 312.160156 L 255.667969 312.054688 L 255.09375 311.910156 L 254.808594 311.796875 L 254.667969 311.699219 Z M 254.667969 311.203125 "/>
<path style=" stroke:none;fill-rule:nonzero;fill:rgb(83.921569%,15.686275%,22.352941%);fill-opacity:1;" d="M 254.667969 181.117188 L 313.261719 181.117188 L 313.261719 191.632812 L 288.839844 191.726562 L 288.839844 279.351562 L 279.015625 279.351562 L 279.015625 191.816406 L 278.875 191.632812 L 254.667969 191.632812 Z M 254.667969 181.117188 "/>
<path style=" stroke:none;fill-rule:nonzero;fill:rgb(6.27451%,58.823529%,28.235294%);fill-opacity:1;" d="M 316.347656 308.988281 L 316.410156 308.976562 L 341.761719 299.992188 L 349.460938 299.992188 L 374.941406 308.996094 L 365.988281 308.996094 L 359.605469 306.644531 L 331.621094 306.644531 L 325.359375 308.988281 L 316.347656 308.988281 L 334.3125 305.671875 L 357.039062 305.664062 L 345.707031 301.460938 L 345.582031 301.453125 L 345.457031 301.480469 L 334.25 305.664062 L 334.3125 305.671875 Z M 316.347656 308.988281 "/>
<path style=" stroke:none;fill-rule:nonzero;fill:rgb(14.509804%,36.078431%,60%);fill-opacity:1;" d="M 316.347656 311.488281 L 316.417969 311.484375 L 316.417969 311.417969 L 316.632812 311.3125 L 317.132812 311.179688 L 317.632812 311.089844 L 318.917969 310.925781 L 320.703125 310.765625 L 322.5625 310.644531 L 323.921875 310.574219 L 325.136719 310.519531 L 327.921875 310.417969 L 329.707031 310.363281 L 331.636719 310.316406 L 333.996094 310.269531 L 335.710938 310.242188 L 339.570312 310.199219 L 342.429688 310.179688 L 344.644531 310.171875 L 349.429688 310.171875 L 352.289062 310.179688 L 354.363281 310.195312 L 356.648438 310.21875 L 358.578125 310.242188 L 361.9375 310.300781 L 364.9375 310.378906 L 366.292969 310.425781 L 368.4375 310.511719 L 370.082031 310.59375 L 371.226562 310.664062 L 372.511719 310.765625 L 373.65625 310.890625 L 374.511719 311.03125 L 374.941406 311.152344 L 364.9375 311.152344 L 364.4375 311.042969 L 363.867188 310.957031 L 362.792969 310.84375 L 361.722656 310.761719 L 360.222656 310.683594 L 358.863281 310.628906 L 357.003906 310.578125 L 355.363281 310.542969 L 353.648438 310.519531 L 352.003906 310.5 L 348.859375 310.484375 L 345.214844 310.484375 L 343.855469 310.492188 L 341.070312 310.511719 L 339.570312 310.53125 L 337.425781 310.570312 L 335.925781 310.605469 L 334.140625 310.664062 L 332.925781 310.710938 L 331.421875 310.78125 L 330.351562 310.84375 L 329.136719 310.9375 L 328.421875 311.003906 L 327.777344 311.082031 L 327.207031 311.175781 L 326.777344 311.269531 L 326.492188 311.375 L 326.351562 311.472656 L 326.351562 311.902344 L 326.492188 312 L 326.851562 312.117188 L 327.777344 312.285156 L 329.136719 312.433594 L 330.707031 312.546875 L 332.210938 312.632812 L 333.066406 312.671875 L 334.210938 312.714844 L 335.996094 312.769531 L 338.570312 312.824219 L 340.070312 312.847656 L 342.355469 312.871094 L 344.714844 312.878906 L 347.859375 312.878906 L 350.644531 312.871094 L 352.503906 312.855469 L 354.433594 312.832031 L 357.078125 312.785156 L 358.71875 312.742188 L 360.148438 312.691406 L 361.222656 312.636719 L 361.9375 312.59375 L 363.007812 312.507812 L 363.867188 312.414062 L 364.507812 312.316406 L 364.9375 312.222656 L 374.941406 312.222656 L 374.511719 312.332031 L 373.871094 312.441406 L 373.226562 312.519531 L 372.226562 312.617188 L 371.082031 312.703125 L 369.4375 312.800781 L 368.082031 312.863281 L 366.292969 312.933594 L 364.652344 312.984375 L 362.863281 313.03125 L 360.222656 313.089844 L 358.507812 313.117188 L 356.648438 313.140625 L 354.433594 313.164062 L 351.644531 313.183594 L 348.644531 313.191406 L 345.859375 313.195312 L 342.855469 313.191406 L 340.640625 313.179688 L 337.710938 313.15625 L 334.066406 313.105469 L 331.421875 313.050781 L 329.351562 313 L 327.566406 312.945312 L 325.5625 312.871094 L 322.992188 312.746094 L 321.417969 312.652344 L 320.347656 312.578125 L 319.132812 312.46875 L 318.273438 312.371094 L 317.273438 312.214844 L 316.558594 312.019531 L 316.347656 311.867188 Z M 316.347656 311.488281 "/>
<path style=" stroke:none;fill-rule:nonzero;fill:rgb(96.862745%,70.196078%,16.862745%);fill-opacity:1;" d="M 316.347656 289.882812 L 316.417969 289.867188 L 316.417969 289.582031 L 316.703125 288.941406 L 317.417969 288.054688 L 318.347656 287.328125 L 319.347656 286.757812 L 319.992188 286.457031 L 321.0625 286.027344 L 321.992188 285.714844 L 324.347656 285.074219 L 327.351562 284.472656 L 328.992188 284.214844 L 330.851562 283.972656 L 333.496094 283.703125 L 334.710938 283.601562 L 338.425781 283.375 L 342.640625 283.230469 L 347.289062 283.1875 L 349.429688 283.203125 L 352.359375 283.261719 L 356.363281 283.417969 L 358.648438 283.558594 L 360.433594 283.703125 L 362.292969 283.886719 L 364.578125 284.171875 L 366.722656 284.515625 L 368.4375 284.859375 L 370.152344 285.285156 L 371.582031 285.742188 L 372.796875 286.242188 L 373.871094 286.84375 L 374.511719 287.34375 L 374.941406 287.839844 L 365.007812 287.839844 L 364.4375 287.34375 L 363.792969 286.957031 L 362.722656 286.484375 L 361.648438 286.144531 L 360.578125 285.871094 L 358.578125 285.5 L 356.863281 285.273438 L 354.71875 285.074219 L 352.644531 284.945312 L 350.289062 284.859375 L 348.859375 284.828125 L 345.070312 284.828125 L 341.640625 284.929688 L 339.640625 285.042969 L 338.210938 285.15625 L 336.210938 285.371094 L 334.996094 285.542969 L 334.28125 285.65625 L 332.136719 286.101562 L 330.707031 286.5 L 329.921875 286.769531 L 328.921875 287.199219 L 328.207031 287.585938 L 327.421875 288.15625 L 326.992188 288.582031 L 326.421875 289.554688 L 326.351562 292.121094 L 326.5625 292.664062 L 326.992188 293.25 L 327.566406 293.765625 L 328.421875 294.304688 L 329.28125 294.71875 L 330.78125 295.277344 L 332.066406 295.648438 L 333.066406 295.890625 L 334.996094 296.277344 L 335.78125 296.40625 L 337.640625 296.660156 L 339.570312 296.859375 L 341.929688 297.03125 L 343.714844 297.117188 L 346.574219 297.191406 L 350.21875 297.191406 L 354.503906 297.105469 L 357.21875 296.988281 L 359.078125 296.875 L 360.292969 296.777344 L 361.792969 296.617188 L 362.863281 296.476562 L 363.867188 296.320312 L 365.078125 296.078125 L 365.078125 292.664062 L 347.429688 292.652344 L 347.429688 291.050781 L 374.871094 291.039062 L 374.941406 296.617188 L 373.441406 297.003906 L 371.582031 297.375 L 369.796875 297.660156 L 367.9375 297.902344 L 365.292969 298.175781 L 363.152344 298.34375 L 359.863281 298.546875 L 356.863281 298.671875 L 353.71875 298.757812 L 350.929688 298.800781 L 347.644531 298.816406 L 344.714844 298.789062 L 341.570312 298.703125 L 339.070312 298.589844 L 336.78125 298.445312 L 334.496094 298.261719 L 331.636719 297.960938 L 329.78125 297.71875 L 327.851562 297.417969 L 325.921875 297.0625 L 324.207031 296.675781 L 323.0625 296.375 L 321.917969 296.035156 L 320.703125 295.605469 L 319.5625 295.121094 L 318.703125 294.675781 L 317.917969 294.179688 L 317.347656 293.707031 L 316.773438 293.066406 L 316.488281 292.550781 L 316.347656 292.109375 Z M 316.347656 289.882812 "/>
<path style=" stroke:none;fill-rule:nonzero;fill:rgb(83.921569%,15.686275%,22.352941%);fill-opacity:1;" d="M 316.347656 152.804688 L 374.941406 152.804688 L 374.941406 166.636719 L 350.519531 166.757812 L 350.519531 282.015625 L 340.695312 282.015625 L 340.695312 166.878906 L 340.554688 166.636719 L 316.347656 166.636719 Z M 316.347656 152.804688 "/>
<path style=" stroke:none;fill-rule:nonzero;fill:rgb(96.862745%,70.196078%,16.862745%);fill-opacity:1;" d="M 378.023438 151.136719 L 378.097656 150.894531 L 378.097656 146.027344 L 378.382812 135.074219 L 379.097656 119.984375 L 380.027344 107.574219 L 381.027344 97.839844 L 381.667969 92.726562 L 382.742188 85.425781 L 383.671875 80.074219 L 386.027344 69.121094 L 389.03125 58.898438 L 390.671875 54.519531 L 392.53125 50.382812 L 395.175781 45.757812 L 396.390625 44.054688 L 400.105469 40.160156 L 404.320312 37.726562 L 408.964844 36.996094 L 411.109375 37.238281 L 414.039062 38.214844 L 418.042969 40.890625 L 420.328125 43.324219 L 422.113281 45.757812 L 423.972656 48.921875 L 426.257812 53.789062 L 428.402344 59.628906 L 430.117188 65.46875 L 431.832031 72.773438 L 433.261719 80.558594 L 434.476562 89.078125 L 435.546875 99.300781 L 436.191406 107.816406 L 436.621094 116.335938 L 426.6875 116.335938 L 426.117188 107.816406 L 425.472656 101.246094 L 424.402344 93.214844 L 423.328125 87.375 L 422.257812 82.75 L 420.257812 76.421875 L 418.542969 72.527344 L 416.398438 69.121094 L 414.324219 66.929688 L 411.96875 65.46875 L 410.539062 64.984375 L 406.75 64.984375 L 403.320312 66.6875 L 401.320312 68.632812 L 399.890625 70.582031 L 397.890625 74.230469 L 396.675781 77.152344 L 395.960938 79.097656 L 393.816406 86.644531 L 392.386719 93.457031 L 391.601562 98.082031 L 390.601562 105.382812 L 389.886719 111.953125 L 389.101562 121.6875 L 388.671875 128.992188 L 388.101562 145.539062 L 388.027344 189.347656 L 388.242188 198.59375 L 388.671875 208.574219 L 389.242188 217.335938 L 390.101562 226.582031 L 390.960938 233.640625 L 392.460938 243.132812 L 393.746094 249.460938 L 394.746094 253.597656 L 396.675781 260.167969 L 397.460938 262.359375 L 399.320312 266.738281 L 401.25 270.144531 L 403.605469 273.066406 L 405.394531 274.527344 L 408.25 275.742188 L 411.894531 275.742188 L 416.183594 274.28125 L 418.898438 272.335938 L 420.757812 270.390625 L 421.972656 268.6875 L 423.472656 266.007812 L 424.542969 263.574219 L 425.542969 260.898438 L 426.757812 256.761719 L 426.757812 198.59375 L 409.109375 198.351562 L 409.109375 171.09375 L 436.550781 170.851562 L 436.621094 266.007812 L 435.121094 272.578125 L 433.261719 278.90625 L 431.476562 283.773438 L 429.617188 287.910156 L 426.972656 292.535156 L 424.828125 295.457031 L 421.542969 298.863281 L 418.542969 301.054688 L 415.398438 302.515625 L 412.609375 303.246094 L 409.324219 303.488281 L 406.394531 303 L 403.25 301.539062 L 400.75 299.59375 L 398.460938 297.160156 L 396.175781 293.996094 L 393.316406 288.886719 L 391.460938 284.75 L 389.53125 279.636719 L 387.601562 273.554688 L 385.886719 266.980469 L 384.742188 261.871094 L 383.597656 256.03125 L 382.382812 248.730469 L 381.242188 240.453125 L 380.382812 232.910156 L 379.597656 224.390625 L 379.027344 216.359375 L 378.453125 205.410156 L 378.167969 196.648438 L 378.023438 189.101562 Z M 378.023438 151.136719 "/>
<path style=" stroke:none;fill-rule:nonzero;fill:rgb(83.921569%,15.686275%,22.352941%);fill-opacity:1;" d="M 378.023438 304.664062 L 436.621094 304.664062 L 436.621094 305.425781 L 412.199219 305.433594 L 412.199219 311.808594 L 402.375 311.808594 L 402.375 305.441406 L 402.230469 305.425781 L 378.023438 305.425781 Z M 378.023438 304.664062 "/>
<path style=" stroke:none;fill-rule:nonzero;fill:rgb(6.27451%,58.823529%,28.235294%);fill-opacity:1;" d="M 439.703125 308.226562 L 439.765625 307.957031 L 465.121094 20.664062 L 472.820312 20.664062 L 498.300781 308.496094 L 489.347656 308.496094 L 482.960938 233.363281 L 454.980469 233.363281 L 448.71875 308.226562 L 439.703125 308.226562 L 457.671875 202.28125 L 480.394531 202.011719 L 469.066406 67.6875 L 468.9375 67.417969 L 468.8125 68.230469 L 457.609375 202.011719 L 457.671875 202.28125 Z M 439.703125 308.226562 "/>
<path style=" stroke:none;fill-rule:nonzero;fill:rgb(83.921569%,15.686275%,22.352941%);fill-opacity:1;" d="M 439.703125 309.671875 L 498.300781 309.671875 L 498.300781 309.828125 L 473.878906 309.828125 L 473.878906 311.140625 L 464.054688 311.140625 L 464.054688 309.832031 L 463.910156 309.828125 L 439.703125 309.828125 Z M 439.703125 309.671875 "/>
<path style=" stroke:none;fill-rule:nonzero;fill:rgb(6.27451%,58.823529%,28.235294%);fill-opacity:1;" d="M 501.382812 310.042969 L 501.445312 310.035156 L 526.800781 301.007812 L 534.5 301.007812 L 559.980469 310.050781 L 551.027344 310.050781 L 544.640625 307.691406 L 516.660156 307.691406 L 510.398438 310.042969 L 501.382812 310.042969 L 519.351562 306.714844 L 542.074219 306.707031 L 530.742188 302.488281 L 530.617188 302.476562 L 530.492188 302.503906 L 519.289062 306.707031 L 519.351562 306.714844 Z M 501.382812 310.042969 "/>
<path style=" stroke:none;fill-rule:nonzero;fill:rgb(14.509804%,36.078431%,60%);fill-opacity:1;" d="M 501.382812 160.046875 L 501.453125 159.820312 L 501.453125 154.390625 L 501.667969 145.796875 L 502.167969 134.9375 L 502.667969 127.472656 L 503.957031 114.128906 L 505.742188 101.234375 L 507.601562 91.28125 L 508.957031 85.402344 L 510.171875 80.878906 L 512.960938 72.507812 L 514.746094 68.210938 L 516.675781 64.367188 L 519.035156 60.519531 L 520.75 58.257812 L 524.605469 54.640625 L 527.464844 53.054688 L 529.679688 52.378906 L 534.46875 52.378906 L 537.328125 53.28125 L 539.398438 54.414062 L 541.6875 56.222656 L 543.613281 58.257812 L 546.972656 63.234375 L 549.976562 69.566406 L 551.332031 73.1875 L 553.476562 80.199219 L 555.121094 86.984375 L 556.261719 92.867188 L 557.550781 101.234375 L 558.691406 111.414062 L 559.550781 122.949219 L 559.980469 132.675781 L 549.976562 132.675781 L 549.472656 123.628906 L 548.902344 116.617188 L 547.832031 107.34375 L 546.757812 100.78125 L 545.257812 94.222656 L 543.902344 89.925781 L 542.042969 85.628906 L 540.398438 82.914062 L 538.683594 80.878906 L 537.039062 79.519531 L 533.898438 78.164062 L 530.253906 78.164062 L 528.894531 78.617188 L 526.109375 80.425781 L 524.605469 82.007812 L 522.464844 85.175781 L 520.960938 88.117188 L 519.175781 92.640625 L 517.960938 96.484375 L 516.460938 102.367188 L 515.390625 107.570312 L 514.175781 115.035156 L 513.460938 120.6875 L 512.816406 127.023438 L 512.246094 134.484375 L 511.816406 142.402344 L 511.53125 150.773438 L 511.386719 158.914062 L 511.386719 193.976562 L 511.53125 202.117188 L 511.886719 211.617188 L 512.816406 225.417969 L 514.175781 237.40625 L 515.746094 246.90625 L 517.246094 253.691406 L 518.105469 256.855469 L 519.246094 260.476562 L 521.035156 265 L 523.605469 269.523438 L 525.105469 271.332031 L 527.394531 273.144531 L 529.753906 274.046875 L 532.894531 274.046875 L 535.683594 273.144531 L 537.542969 272.011719 L 539.46875 270.203125 L 542.113281 266.355469 L 543.757812 262.738281 L 545.1875 258.441406 L 546.257812 254.144531 L 546.972656 250.523438 L 548.046875 243.511719 L 548.902344 235.820312 L 549.546875 227.90625 L 549.976562 220.214844 L 559.980469 220.214844 L 559.550781 229.261719 L 558.90625 238.082031 L 558.265625 244.644531 L 557.261719 252.558594 L 556.121094 259.570312 L 554.476562 267.488281 L 553.117188 272.691406 L 551.332031 278.34375 L 549.6875 282.644531 L 547.902344 286.488281 L 545.257812 291.011719 L 543.542969 293.273438 L 541.6875 295.308594 L 539.46875 297.121094 L 536.683594 298.703125 L 533.683594 299.609375 L 530.894531 299.835938 L 527.894531 299.382812 L 525.679688 298.476562 L 522.75 296.441406 L 519.105469 292.371094 L 516.460938 288.070312 L 514.390625 283.773438 L 512.601562 279.25 L 510.601562 273.144531 L 508.027344 263.191406 L 506.457031 255.5 L 505.386719 249.167969 L 504.171875 240.34375 L 503.3125 232.429688 L 502.3125 219.761719 L 501.597656 203.703125 L 501.382812 191.261719 Z M 501.382812 160.046875 "/>
<path style=" stroke:none;fill-rule:nonzero;fill:rgb(96.862745%,70.196078%,16.862745%);fill-opacity:1;" d="M 501.382812 311.621094 L 501.453125 311.621094 L 501.453125 311.605469 L 501.742188 311.566406 L 502.457031 311.511719 L 503.382812 311.46875 L 504.382812 311.4375 L 505.027344 311.417969 L 506.101562 311.394531 L 507.027344 311.375 L 509.386719 311.335938 L 512.386719 311.300781 L 514.03125 311.289062 L 515.890625 311.273438 L 518.535156 311.257812 L 519.75 311.25 L 523.464844 311.238281 L 527.679688 311.230469 L 532.324219 311.226562 L 534.46875 311.226562 L 537.398438 311.230469 L 541.398438 311.238281 L 543.6875 311.25 L 545.472656 311.257812 L 547.332031 311.269531 L 549.617188 311.285156 L 551.761719 311.304688 L 553.476562 311.324219 L 555.191406 311.351562 L 556.621094 311.378906 L 557.835938 311.40625 L 558.90625 311.441406 L 559.550781 311.472656 L 559.980469 311.5 L 550.046875 311.5 L 549.472656 311.472656 L 548.832031 311.449219 L 547.757812 311.421875 L 546.6875 311.402344 L 545.617188 311.386719 L 543.613281 311.363281 L 541.898438 311.347656 L 539.757812 311.335938 L 537.683594 311.332031 L 535.324219 311.324219 L 530.109375 311.324219 L 526.679688 311.328125 L 524.679688 311.335938 L 523.25 311.34375 L 521.25 311.355469 L 520.035156 311.367188 L 519.320312 311.371094 L 517.175781 311.398438 L 515.746094 311.421875 L 514.960938 311.4375 L 513.960938 311.464844 L 513.246094 311.484375 L 512.460938 311.519531 L 512.03125 311.542969 L 511.460938 311.601562 L 511.386719 311.753906 L 511.601562 311.785156 L 512.03125 311.820312 L 512.601562 311.851562 L 513.460938 311.882812 L 514.316406 311.90625 L 515.816406 311.9375 L 517.105469 311.960938 L 518.105469 311.976562 L 520.035156 312 L 520.820312 312.003906 L 522.679688 312.019531 L 524.605469 312.03125 L 526.964844 312.042969 L 528.75 312.046875 L 531.609375 312.050781 L 535.253906 312.050781 L 539.542969 312.046875 L 542.257812 312.039062 L 544.113281 312.035156 L 545.328125 312.027344 L 546.832031 312.019531 L 547.902344 312.011719 L 548.902344 312 L 550.117188 311.988281 L 550.117188 311.785156 L 532.46875 311.785156 L 532.46875 311.691406 L 559.90625 311.6875 L 559.980469 312.019531 L 558.476562 312.042969 L 556.621094 312.0625 L 554.832031 312.078125 L 552.976562 312.09375 L 550.332031 312.109375 L 548.1875 312.121094 L 544.902344 312.132812 L 541.898438 312.140625 L 538.753906 312.144531 L 535.96875 312.148438 L 532.683594 312.148438 L 529.753906 312.144531 L 526.609375 312.140625 L 524.105469 312.132812 L 521.820312 312.125 L 519.535156 312.113281 L 516.675781 312.097656 L 514.816406 312.082031 L 512.886719 312.066406 L 510.957031 312.042969 L 509.242188 312.023438 L 508.101562 312.003906 L 506.957031 311.984375 L 505.742188 311.957031 L 504.597656 311.929688 L 503.742188 311.902344 L 502.957031 311.875 L 502.382812 311.847656 L 501.8125 311.808594 L 501.527344 311.777344 L 501.382812 311.753906 Z M 501.382812 311.621094 "/>
<path style=" stroke:none;fill-rule:nonzero;fill:rgb(6.27451%,58.823529%,28.235294%);fill-opacity:1;" d="M 563.0625 313.191406 L 563.125 313.191406 L 588.480469 310.332031 L 596.179688 310.332031 L 621.65625 313.195312 L 612.707031 313.195312 L 606.320312 312.449219 L 578.335938 312.449219 L 572.078125 313.191406 L 563.0625 313.191406 L 581.03125 312.140625 L 603.753906 312.136719 L 592.421875 310.800781 L 592.296875 310.796875 L 592.171875 310.804688 L 580.964844 312.136719 L 581.03125 312.140625 Z M 563.0625 313.191406 "/>
<path style=" stroke:none;fill-rule:nonzero;fill:rgb(14.509804%,36.078431%,60%);fill-opacity:1;" d="M 563.0625 268.53125 L 563.132812 268.507812 L 563.132812 267.957031 L 563.347656 267.082031 L 563.847656 265.972656 L 564.347656 265.214844 L 565.636719 263.855469 L 567.421875 262.539062 L 569.28125 261.527344 L 570.636719 260.925781 L 571.851562 260.464844 L 574.640625 259.613281 L 576.425781 259.175781 L 578.355469 258.785156 L 580.710938 258.394531 L 582.425781 258.164062 L 586.285156 257.792969 L 589.144531 257.632812 L 591.359375 257.5625 L 596.148438 257.5625 L 599.003906 257.65625 L 601.078125 257.769531 L 603.363281 257.953125 L 605.292969 258.164062 L 608.652344 258.667969 L 611.652344 259.316406 L 613.011719 259.683594 L 615.15625 260.398438 L 616.796875 261.089844 L 617.941406 261.6875 L 619.226562 262.539062 L 620.371094 263.578125 L 621.230469 264.753906 L 621.65625 265.742188 L 611.652344 265.742188 L 611.152344 264.820312 L 610.582031 264.109375 L 609.511719 263.164062 L 608.4375 262.496094 L 606.9375 261.828125 L 605.578125 261.386719 L 603.722656 260.949219 L 602.078125 260.675781 L 600.363281 260.464844 L 598.71875 260.328125 L 595.574219 260.191406 L 591.929688 260.191406 L 590.574219 260.238281 L 587.785156 260.421875 L 586.285156 260.582031 L 584.144531 260.90625 L 582.640625 261.203125 L 580.855469 261.664062 L 579.640625 262.058594 L 578.140625 262.65625 L 577.066406 263.1875 L 575.855469 263.945312 L 575.140625 264.523438 L 574.496094 265.167969 L 573.925781 265.929688 L 573.496094 266.734375 L 573.210938 267.585938 L 573.066406 268.417969 L 573.066406 271.988281 L 573.210938 272.820312 L 573.566406 273.785156 L 574.496094 275.191406 L 575.855469 276.414062 L 577.425781 277.382812 L 578.925781 278.074219 L 579.785156 278.394531 L 580.925781 278.765625 L 582.714844 279.226562 L 585.285156 279.683594 L 586.785156 279.871094 L 589.074219 280.054688 L 591.429688 280.144531 L 594.574219 280.144531 L 597.363281 280.054688 L 599.21875 279.9375 L 601.148438 279.753906 L 603.792969 279.363281 L 605.4375 278.996094 L 606.867188 278.554688 L 607.9375 278.117188 L 608.652344 277.75 L 609.722656 277.035156 L 610.582031 276.253906 L 611.226562 275.445312 L 611.652344 274.660156 L 621.65625 274.660156 L 621.230469 275.582031 L 620.585938 276.480469 L 619.941406 277.152344 L 618.941406 277.957031 L 617.800781 278.671875 L 616.15625 279.476562 L 614.796875 280.007812 L 613.011719 280.585938 L 611.367188 281.023438 L 609.582031 281.414062 L 606.9375 281.875 L 605.222656 282.105469 L 603.363281 282.3125 L 601.148438 282.496094 L 598.363281 282.660156 L 595.363281 282.75 L 592.574219 282.773438 L 589.574219 282.726562 L 587.359375 282.636719 L 584.429688 282.429688 L 580.785156 282.011719 L 578.140625 281.574219 L 576.066406 281.136719 L 574.28125 280.675781 L 572.28125 280.054688 L 569.707031 279.039062 L 568.136719 278.257812 L 567.0625 277.613281 L 565.847656 276.710938 L 564.992188 275.90625 L 563.992188 274.617188 L 563.277344 272.980469 L 563.0625 271.710938 Z M 563.0625 268.53125 "/>
<path style=" stroke:none;fill-rule:nonzero;fill:rgb(96.862745%,70.196078%,16.862745%);fill-opacity:1;" d="M 563.0625 306.710938 L 563.132812 306.707031 L 563.132812 306.628906 L 563.421875 306.449219 L 564.132812 306.207031 L 565.0625 306.007812 L 566.0625 305.851562 L 566.707031 305.769531 L 567.777344 305.652344 L 568.707031 305.566406 L 571.066406 305.390625 L 574.066406 305.226562 L 575.710938 305.15625 L 577.570312 305.089844 L 580.210938 305.015625 L 581.425781 304.988281 L 585.144531 304.925781 L 589.359375 304.886719 L 594.003906 304.875 L 596.148438 304.878906 L 599.078125 304.894531 L 603.078125 304.9375 L 605.367188 304.976562 L 607.152344 305.015625 L 609.011719 305.066406 L 611.296875 305.144531 L 613.441406 305.238281 L 615.15625 305.332031 L 616.871094 305.449219 L 618.300781 305.574219 L 619.515625 305.710938 L 620.585938 305.875 L 621.230469 306.011719 L 621.65625 306.148438 L 611.726562 306.148438 L 611.152344 306.011719 L 610.511719 305.90625 L 609.4375 305.777344 L 608.367188 305.683594 L 607.292969 305.609375 L 605.292969 305.507812 L 603.578125 305.445312 L 601.433594 305.390625 L 599.363281 305.355469 L 597.003906 305.332031 L 595.574219 305.324219 L 591.789062 305.324219 L 588.359375 305.351562 L 586.359375 305.382812 L 584.929688 305.414062 L 582.929688 305.472656 L 581.714844 305.519531 L 581 305.550781 L 578.855469 305.671875 L 577.425781 305.78125 L 576.640625 305.855469 L 575.640625 305.972656 L 574.925781 306.078125 L 574.136719 306.234375 L 573.710938 306.351562 L 573.136719 306.621094 L 573.066406 307.324219 L 573.28125 307.472656 L 573.710938 307.632812 L 574.28125 307.773438 L 575.140625 307.921875 L 575.996094 308.035156 L 577.496094 308.1875 L 578.785156 308.289062 L 579.785156 308.355469 L 581.714844 308.460938 L 582.5 308.496094 L 584.355469 308.566406 L 586.285156 308.621094 L 588.644531 308.667969 L 590.429688 308.691406 L 593.289062 308.710938 L 596.933594 308.710938 L 601.222656 308.6875 L 603.9375 308.65625 L 605.792969 308.625 L 607.007812 308.597656 L 608.507812 308.554688 L 609.582031 308.515625 L 610.582031 308.472656 L 611.796875 308.40625 L 611.796875 307.472656 L 594.148438 307.46875 L 594.148438 307.03125 L 621.585938 307.027344 L 621.65625 308.554688 L 620.15625 308.660156 L 618.300781 308.761719 L 616.511719 308.839844 L 614.65625 308.90625 L 612.011719 308.980469 L 609.867188 309.03125 L 606.582031 309.085938 L 603.578125 309.121094 L 600.433594 309.144531 L 597.648438 309.15625 L 594.359375 309.160156 L 591.429688 309.152344 L 588.289062 309.128906 L 585.785156 309.097656 L 583.5 309.058594 L 581.210938 309.007812 L 578.355469 308.921875 L 576.496094 308.855469 L 574.566406 308.773438 L 572.636719 308.675781 L 570.921875 308.570312 L 569.78125 308.488281 L 568.636719 308.394531 L 567.421875 308.277344 L 566.277344 308.144531 L 565.421875 308.023438 L 564.632812 307.886719 L 564.0625 307.757812 L 563.492188 307.582031 L 563.207031 307.441406 L 563.0625 307.320312 Z M 563.0625 306.710938 "/>
<path style=" stroke:none;fill-rule:nonzero;fill:rgb(83.921569%,15.686275%,22.352941%);fill-opacity:1;" d="M 563.0625 283.949219 L 621.65625 283.949219 L 621.65625 286.0625 L 597.238281 286.082031 L 597.238281 303.699219 L 587.410156 303.699219 L 587.410156 286.097656 L 587.269531 286.0625 L 563.0625 286.0625 Z M 563.0625 283.949219 "/>
<g style="fill:rgb(0%,0%,0%);fill-opacity:1;">
  <use xlink:href="#glyph0-1" x="21.957031" y="317.018555"/>
  <use xlink:href="#glyph0-2" x="27.291016" y="317.018555"/>
  <use xlink:href="#glyph0-1" x="29.958008" y="317.018555"/>
</g>
<g style="fill:rgb(0%,0%,0%);fill-opacity:1;">
  <use xlink:href="#glyph0-1" x="21.957031" y="238.018555"/>
  <use xlink:href="#glyph0-2" x="27.291016" y="238.018555"/>
  <use xlink:href="#glyph0-3" x="29.958008" y="238.018555"/>
</g>
<g style="fill:rgb(0%,0%,0%);fill-opacity:1;">
  <use xlink:href="#glyph0-4" x="21.957031" y="159.018555"/>
  <use xlink:href="#glyph0-2" x="27.291016" y="159.018555"/>
  <use xlink:href="#glyph0-1" x="29.958008" y="159.018555"/>
</g>
<g style="fill:rgb(0%,0%,0%);fill-opacity:1;">
  <use xlink:href="#glyph0-4" x="21.957031" y="80.022461"/>
  <use xlink:href="#glyph0-2" x="27.291016" y="80.022461"/>
  <use xlink:href="#glyph0-3" x="29.958008" y="80.022461"/>
</g>
<g style="fill:rgb(0%,0%,0%);fill-opacity:1;">
  <use xlink:href="#glyph0-4" x="95.925781" y="338.19043"/>
</g>
<g style="fill:rgb(0%,0%,0%);fill-opacity:1;">
  <use xlink:href="#glyph0-5" x="157.605469" y="338.19043"/>
</g>
<g style="fill:rgb(0%,0%,0%);fill-opacity:1;">
  <use xlink:href="#glyph0-6" x="219.285156" y="338.19043"/>
</g>
<g style="fill:rgb(0%,0%,0%);fill-opacity:1;">
  <use xlink:href="#glyph0-7" x="280.964844" y="338.19043"/>
</g>
<g style="fill:rgb(0%,0%,0%);fill-opacity:1;">
  <use xlink:href="#glyph0-3" x="342.644531" y="338.19043"/>
</g>
<g style="fill:rgb(0%,0%,0%);fill-opacity:1;">
  <use xlink:href="#glyph0-8" x="404.324219" y="338.19043"/>
</g>
<g style="fill:rgb(0%,0%,0%);fill-opacity:1;">
  <use xlink:href="#glyph0-9" x="466" y="338.19043"/>
</g>
<g style="fill:rgb(0%,0%,0%);fill-opacity:1;">
  <use xlink:href="#glyph0-10" x="527.679688" y="338.19043"/>
</g>
<g style="fill:rgb(0%,0%,0%);fill-opacity:1;">
  <use xlink:href="#glyph0-11" x="589.359375" y="338.19043"/>
</g>
<g style="fill:rgb(0%,0%,0%);fill-opacity:1;">
  <use xlink:href="#glyph0-4" x="648.539062" y="338.19043"/>
  <use xlink:href="#glyph0-1" x="653.873047" y="338.19043"/>
</g>
<g style="fill:rgb(0%,0%,0%);fill-opacity:1;">
  <use xlink:href="#glyph1-1" x="14.412109" y="178.015625"/>
  <use xlink:href="#glyph1-2" x="14.412109" y="170.011719"/>
  <use xlink:href="#glyph1-3" x="14.412109" y="167.347656"/>
  <use xlink:href="#glyph1-4" x="14.412109" y="164.011719"/>
</g>
</g>
</svg>
