<?xml version="1.0" encoding="UTF-8"?>
<svg xmlns="http://www.w3.org/2000/svg" xmlns:xlink="http://www.w3.org/1999/xlink" width="720pt" height="360pt" viewBox="0 0 720 360" version="1.1">
<defs>
<g>
<symbol overflow="visible" id="glyph0-0">
<path style="stroke:none;" d=""/>
</symbol>
<symbol overflow="visible" id="glyph0-1">
<path style="stroke:none;" d="M 2.640625 -6.796875 C 2 -6.796875 1.421875 -6.53125 1.078125 -6.046875 C 0.640625 -5.453125 0.40625 -4.546875 0.40625 -3.296875 C 0.40625 -1 1.1875 0.21875 2.640625 0.21875 C 4.078125 0.21875 4.859375 -1 4.859375 -3.234375 C 4.859375 -4.5625 4.65625 -5.4375 4.203125 -6.046875 C 3.84375 -6.53125 3.28125 -6.796875 2.640625 -6.796875 Z M 2.640625 -6.046875 C 3.546875 -6.046875 4 -5.125 4 -3.3125 C 4 -1.375 3.5625 -0.484375 2.625 -0.484375 C 1.734375 -0.484375 1.28125 -1.421875 1.28125 -3.28125 C 1.28125 -5.140625 1.734375 -6.046875 2.640625 -6.046875 Z M 2.640625 -6.046875 "/>
</symbol>
<symbol overflow="visible" id="glyph0-2">
<path style="stroke:none;" d="M 1.828125 -1 L 0.828125 -1 L 0.828125 0 L 1.828125 0 Z M 1.828125 -1 "/>
</symbol>
<symbol overflow="visible" id="glyph0-3">
<path style="stroke:none;" d="M 4.5625 -6.796875 L 1.0625 -6.796875 L 0.546875 -3.09375 L 1.328125 -3.09375 C 1.71875 -3.5625 2.046875 -3.734375 2.578125 -3.734375 C 3.484375 -3.734375 4.0625 -3.109375 4.0625 -2.09375 C 4.0625 -1.125 3.484375 -0.53125 2.578125 -0.53125 C 1.828125 -0.53125 1.375 -0.90625 1.1875 -1.671875 L 0.328125 -1.671875 C 0.453125 -1.109375 0.546875 -0.84375 0.75 -0.59375 C 1.125 -0.078125 1.828125 0.21875 2.59375 0.21875 C 3.96875 0.21875 4.921875 -0.78125 4.921875 -2.21875 C 4.921875 -3.5625 4.03125 -4.484375 2.71875 -4.484375 C 2.25 -4.484375 1.859375 -4.359375 1.46875 -4.0625 L 1.734375 -5.96875 L 4.5625 -5.96875 Z M 4.5625 -6.796875 "/>
</symbol>
<symbol overflow="visible" id="glyph0-4">
<path style="stroke:none;" d="M 2.484375 -4.84375 L 2.484375 0 L 3.328125 0 L 3.328125 -6.796875 L 2.765625 -6.796875 C 2.46875 -5.75 2.28125 -5.609375 0.984375 -5.453125 L 0.984375 -4.84375 Z M 2.484375 -4.84375 "/>
</symbol>
<symbol overflow="visible" id="glyph0-5">
<path style="stroke:none;" d="M 4.859375 -0.828125 L 1.28125 -0.828125 C 1.359375 -1.390625 1.671875 -1.75 2.5 -2.234375 L 3.46875 -2.75 C 4.40625 -3.265625 4.90625 -3.96875 4.90625 -4.8125 C 4.90625 -5.375 4.671875 -5.90625 4.265625 -6.265625 C 3.859375 -6.625 3.375 -6.796875 2.71875 -6.796875 C 1.859375 -6.796875 1.21875 -6.5 0.84375 -5.921875 C 0.609375 -5.5625 0.5 -5.125 0.484375 -4.4375 L 1.328125 -4.4375 C 1.359375 -4.90625 1.40625 -5.1875 1.53125 -5.40625 C 1.75 -5.8125 2.1875 -6.0625 2.703125 -6.0625 C 3.46875 -6.0625 4.03125 -5.515625 4.03125 -4.78125 C 4.03125 -4.25 3.71875 -3.796875 3.125 -3.4375 L 2.234375 -2.9375 C 0.8125 -2.140625 0.40625 -1.5 0.328125 0 L 4.859375 0 Z M 4.859375 -0.828125 "/>
</symbol>
<symbol overflow="visible" id="glyph0-6">
<path style="stroke:none;" d="M 2.125 -3.125 L 2.578125 -3.125 C 3.515625 -3.125 3.984375 -2.703125 3.984375 -1.890625 C 3.984375 -1.03125 3.46875 -0.53125 2.578125 -0.53125 C 1.65625 -0.53125 1.203125 -0.984375 1.15625 -1.96875 L 0.3125 -1.96875 C 0.34375 -1.421875 0.4375 -1.078125 0.609375 -0.765625 C 0.953125 -0.109375 1.625 0.21875 2.546875 0.21875 C 3.953125 0.21875 4.859375 -0.609375 4.859375 -1.90625 C 4.859375 -2.765625 4.515625 -3.25 3.703125 -3.515625 C 4.34375 -3.765625 4.65625 -4.25 4.65625 -4.9375 C 4.65625 -6.109375 3.875 -6.796875 2.578125 -6.796875 C 1.203125 -6.796875 0.484375 -6.046875 0.453125 -4.609375 L 1.296875 -4.609375 C 1.3125 -5.015625 1.34375 -5.25 1.453125 -5.453125 C 1.640625 -5.828125 2.0625 -6.0625 2.59375 -6.0625 C 3.34375 -6.0625 3.796875 -5.625 3.796875 -4.90625 C 3.796875 -4.421875 3.609375 -4.140625 3.25 -3.984375 C 3.015625 -3.890625 2.71875 -3.84375 2.125 -3.84375 Z M 2.125 -3.125 "/>
</symbol>
<symbol overflow="visible" id="glyph0-7">
<path style="stroke:none;" d="M 3.140625 -1.625 L 3.140625 0 L 3.984375 0 L 3.984375 -1.625 L 4.984375 -1.625 L 4.984375 -2.390625 L 3.984375 -2.390625 L 3.984375 -6.796875 L 3.359375 -6.796875 L 0.265625 -2.515625 L 0.265625 -1.625 Z M 3.140625 -2.390625 L 1 -2.390625 L 3.140625 -5.359375 Z M 3.140625 -2.390625 "/>
</symbol>
<symbol overflow="visible" id="glyph0-8">
<path style="stroke:none;" d="M 4.78125 -5.03125 C 4.609375 -6.140625 3.890625 -6.796875 2.84375 -6.796875 C 2.09375 -6.796875 1.421875 -6.4375 1.03125 -5.828125 C 0.609375 -5.171875 0.40625 -4.34375 0.40625 -3.09375 C 0.40625 -1.953125 0.578125 -1.234375 0.984375 -0.625 C 1.359375 -0.078125 1.953125 0.21875 2.703125 0.21875 C 3.984375 0.21875 4.921875 -0.734375 4.921875 -2.078125 C 4.921875 -3.34375 4.0625 -4.234375 2.84375 -4.234375 C 2.171875 -4.234375 1.640625 -3.96875 1.28125 -3.46875 C 1.28125 -5.125 1.828125 -6.046875 2.796875 -6.046875 C 3.390625 -6.046875 3.796875 -5.671875 3.9375 -5.03125 Z M 2.734375 -3.484375 C 3.546875 -3.484375 4.0625 -2.921875 4.0625 -2 C 4.0625 -1.15625 3.484375 -0.53125 2.703125 -0.53125 C 1.921875 -0.53125 1.328125 -1.1875 1.328125 -2.046875 C 1.328125 -2.890625 1.90625 -3.484375 2.734375 -3.484375 Z M 2.734375 -3.484375 "/>
</symbol>
<symbol overflow="visible" id="glyph0-9">
<path style="stroke:none;" d="M 4.984375 -6.796875 L 0.4375 -6.796875 L 0.4375 -5.96875 L 4.109375 -5.96875 C 2.5 -3.65625 1.828125 -2.234375 1.328125 0 L 2.21875 0 C 2.59375 -2.171875 3.453125 -4.046875 4.984375 -6.09375 Z M 4.984375 -6.796875 "/>
</symbol>
<symbol overflow="visible" id="glyph0-10">
<path style="stroke:none;" d="M 3.75 -3.578125 C 4.453125 -4 4.6875 -4.34375 4.6875 -4.984375 C 4.6875 -6.046875 3.84375 -6.796875 2.640625 -6.796875 C 1.4375 -6.796875 0.59375 -6.046875 0.59375 -4.984375 C 0.59375 -4.359375 0.828125 -4.015625 1.515625 -3.578125 C 0.734375 -3.203125 0.359375 -2.640625 0.359375 -1.890625 C 0.359375 -0.640625 1.296875 0.21875 2.640625 0.21875 C 3.984375 0.21875 4.921875 -0.640625 4.921875 -1.875 C 4.921875 -2.640625 4.53125 -3.203125 3.75 -3.578125 Z M 2.640625 -6.046875 C 3.359375 -6.046875 3.8125 -5.625 3.8125 -4.96875 C 3.8125 -4.34375 3.34375 -3.921875 2.640625 -3.921875 C 1.921875 -3.921875 1.453125 -4.34375 1.453125 -4.984375 C 1.453125 -5.625 1.921875 -6.046875 2.640625 -6.046875 Z M 2.640625 -3.203125 C 3.484375 -3.203125 4.0625 -2.671875 4.0625 -1.875 C 4.0625 -1.0625 3.484375 -0.53125 2.625 -0.53125 C 1.796875 -0.53125 1.21875 -1.078125 1.21875 -1.875 C 1.21875 -2.671875 1.796875 -3.203125 2.640625 -3.203125 Z M 2.640625 -3.203125 "/>
</symbol>
<symbol overflow="visible" id="glyph1-0">
<path style="stroke:none;" d=""/>
</symbol>
<symbol overflow="visible" id="glyph1-1">
<path style="stroke:none;" d="M 0 -0.953125 L 0 -4.890625 C 0 -5.71875 -0.234375 -6.34375 -0.734375 -6.796875 C -1.1875 -7.234375 -1.8125 -7.46875 -2.5 -7.46875 C -3.546875 -7.46875 -4.1875 -7 -4.625 -5.875 C -4.984375 -6.671875 -5.640625 -7.09375 -6.53125 -7.09375 C -7.15625 -7.09375 -7.734375 -6.859375 -8.140625 -6.390625 C -8.5625 -5.9375 -8.75 -5.34375 -8.75 -4.5 L -8.75 -0.953125 Z M -4.984375 -2.0625 L -7.765625 -2.0625 L -7.765625 -4.21875 C -7.765625 -4.84375 -7.6875 -5.203125 -7.453125 -5.5 C -7.21875 -5.8125 -6.859375 -5.96875 -6.375 -5.96875 C -5.90625 -5.96875 -5.53125 -5.8125 -5.296875 -5.5 C -5.0625 -5.203125 -4.984375 -4.84375 -4.984375 -4.21875 Z M -0.984375 -2.0625 L -4 -2.0625 L -4 -4.78125 C -4 -5.328125 -3.859375 -5.6875 -3.578125 -5.953125 C -3.296875 -6.21875 -2.921875 -6.359375 -2.484375 -6.359375 C -2.0625 -6.359375 -1.6875 -6.21875 -1.40625 -5.953125 C -1.109375 -5.6875 -0.984375 -5.328125 -0.984375 -4.78125 Z M -0.984375 -2.0625 "/>
</symbol>
<symbol overflow="visible" id="glyph1-2">
<path style="stroke:none;" d="M -6.28125 -1.796875 L -6.28125 -0.796875 L 0 -0.796875 L 0 -1.796875 Z M -8.75 -1.796875 L -8.75 -0.796875 L -7.484375 -0.796875 L -7.484375 -1.796875 Z M -8.75 -1.796875 "/>
</symbol>
<symbol overflow="visible" id="glyph1-3">
<path style="stroke:none;" d="M -6.28125 -3.046875 L -6.28125 -2.015625 L -8.015625 -2.015625 L -8.015625 -1.015625 L -6.28125 -1.015625 L -6.28125 -0.171875 L -5.46875 -0.171875 L -5.46875 -1.015625 L -0.71875 -1.015625 C -0.078125 -1.015625 0.28125 -1.453125 0.28125 -2.234375 C 0.28125 -2.46875 0.25 -2.71875 0.1875 -3.046875 L -0.640625 -3.046875 C -0.609375 -2.921875 -0.59375 -2.765625 -0.59375 -2.5625 C -0.59375 -2.140625 -0.71875 -2.015625 -1.15625 -2.015625 L -5.46875 -2.015625 L -5.46875 -3.046875 Z M -6.28125 -3.046875 "/>
</symbol>
<symbol overflow="visible" id="glyph1-4">
<path style="stroke:none;" d="M -4.53125 -5.25 C -5.765625 -5.25 -6.46875 -4.421875 -6.46875 -2.96875 C -6.46875 -1.515625 -5.71875 -0.5625 -4.546875 -0.5625 C -3.5625 -0.5625 -3.09375 -1.0625 -2.734375 -2.5625 L -2.515625 -3.484375 C -2.34375 -4.1875 -2.09375 -4.46875 -1.625 -4.46875 C -1.046875 -4.46875 -0.640625 -3.875 -0.640625 -3 C -0.640625 -2.453125 -0.796875 -2 -1.0625 -1.75 C -1.25 -1.59375 -1.421875 -1.53125 -1.875 -1.46875 L -1.875 -0.40625 C -0.421875 -0.453125 0.28125 -1.265625 0.28125 -2.921875 C 0.28125 -4.5 -0.5 -5.515625 -1.71875 -5.515625 C -2.65625 -5.515625 -3.171875 -4.984375 -3.46875 -3.734375 L -3.703125 -2.765625 C -3.890625 -1.953125 -4.15625 -1.609375 -4.59375 -1.609375 C -5.171875 -1.609375 -5.546875 -2.125 -5.546875 -2.9375 C -5.546875 -3.75 -5.203125 -4.171875 -4.53125 -4.203125 Z M -4.53125 -5.25 "/>
</symbol>
</g>
</defs>
<g id="surface107151">
<rect x="0" y="0" width="720" height="360" style="fill:rgb(100%,100%,100%);fill-opacity:1;stroke:none;"/>
<path style=" stroke:none;fill-rule:nonzero;fill:rgb(6.27451%,58.823529%,28.235294%);fill-opacity:1;" d="M 69.628906 314.371094 L 69.707031 314.371094 L 101.441406 313.941406 L 111.078125 313.941406 L 142.964844 314.371094 L 131.761719 314.371094 L 123.769531 314.257812 L 88.746094 314.257812 L 80.910156 314.371094 L 69.628906 314.371094 L 92.117188 314.210938 L 120.558594 314.210938 L 106.375 314.011719 L 106.21875 314.007812 L 106.0625 314.011719 L 92.039062 314.210938 L 92.117188 314.210938 Z M 69.628906 314.371094 "/>
<path style=" stroke:none;fill-rule:nonzero;fill:rgb(14.509804%,36.078431%,60%);fill-opacity:1;" d="M 69.628906 312.152344 L 69.71875 312.148438 L 69.71875 312.125 L 69.988281 312.089844 L 70.613281 312.042969 L 71.238281 312.007812 L 72.847656 311.953125 L 75.085938 311.894531 L 77.410156 311.851562 L 79.109375 311.824219 L 80.628906 311.804688 L 84.117188 311.769531 L 86.355469 311.75 L 88.769531 311.734375 L 91.71875 311.71875 L 93.867188 311.707031 L 98.695312 311.691406 L 102.273438 311.683594 L 111.039062 311.683594 L 114.613281 311.6875 L 117.207031 311.691406 L 120.070312 311.699219 L 122.484375 311.707031 L 126.6875 311.730469 L 130.445312 311.757812 L 132.144531 311.773438 L 134.828125 311.804688 L 136.882812 311.832031 L 138.316406 311.859375 L 139.925781 311.894531 L 141.355469 311.9375 L 142.429688 311.988281 L 142.964844 312.03125 L 130.445312 312.03125 L 129.820312 311.992188 L 129.101562 311.960938 L 127.761719 311.921875 L 126.421875 311.894531 L 124.542969 311.863281 L 122.84375 311.847656 L 120.515625 311.828125 L 118.460938 311.816406 L 116.3125 311.804688 L 114.257812 311.800781 L 110.320312 311.792969 L 105.761719 311.792969 L 104.0625 311.796875 L 100.574219 311.804688 L 98.695312 311.8125 L 96.011719 311.824219 L 94.132812 311.839844 L 91.898438 311.859375 L 90.378906 311.875 L 88.5 311.898438 L 87.160156 311.921875 L 85.636719 311.957031 L 84.742188 311.980469 L 83.9375 312.007812 L 83.222656 312.039062 L 82.6875 312.074219 L 82.328125 312.109375 L 82.148438 312.144531 L 82.148438 312.300781 L 82.328125 312.335938 L 82.777344 312.375 L 83.9375 312.4375 L 85.636719 312.488281 L 87.605469 312.53125 L 89.484375 312.558594 L 90.558594 312.574219 L 91.988281 312.589844 L 94.222656 312.609375 L 97.445312 312.628906 L 99.320312 312.636719 L 102.183594 312.644531 L 105.136719 312.648438 L 109.070312 312.648438 L 112.558594 312.644531 L 114.882812 312.640625 L 117.296875 312.632812 L 120.605469 312.613281 L 122.664062 312.597656 L 124.453125 312.578125 L 125.792969 312.5625 L 126.6875 312.546875 L 128.03125 312.515625 L 129.101562 312.480469 L 129.90625 312.445312 L 130.445312 312.414062 L 142.964844 312.414062 L 142.429688 312.453125 L 141.625 312.492188 L 140.820312 312.519531 L 139.566406 312.554688 L 138.136719 312.585938 L 136.078125 312.617188 L 134.378906 312.640625 L 132.144531 312.667969 L 130.085938 312.683594 L 127.851562 312.703125 L 124.542969 312.722656 L 122.394531 312.730469 L 120.070312 312.742188 L 117.296875 312.75 L 113.808594 312.753906 L 110.054688 312.757812 L 106.566406 312.761719 L 102.808594 312.757812 L 100.035156 312.753906 L 96.371094 312.746094 L 91.808594 312.726562 L 88.5 312.707031 L 85.90625 312.691406 L 83.671875 312.671875 L 81.167969 312.644531 L 77.945312 312.601562 L 75.980469 312.566406 L 74.636719 312.539062 L 73.117188 312.5 L 72.042969 312.464844 L 70.792969 312.410156 L 69.898438 312.339844 L 69.628906 312.289062 Z M 69.628906 312.152344 "/>
<path style=" stroke:none;fill-rule:nonzero;fill:rgb(96.862745%,70.196078%,16.862745%);fill-opacity:1;" d="M 69.628906 309.335938 L 69.71875 309.332031 L 69.71875 309.296875 L 70.078125 309.210938 L 70.972656 309.097656 L 72.132812 309 L 73.386719 308.925781 L 74.191406 308.886719 L 75.53125 308.832031 L 76.695312 308.789062 L 79.644531 308.707031 L 83.402344 308.628906 L 85.460938 308.59375 L 87.785156 308.5625 L 91.09375 308.527344 L 92.613281 308.515625 L 97.265625 308.484375 L 102.542969 308.464844 L 108.355469 308.460938 L 111.039062 308.460938 L 114.703125 308.46875 L 119.710938 308.492188 L 122.574219 308.507812 L 124.808594 308.527344 L 127.136719 308.550781 L 129.996094 308.589844 L 132.679688 308.632812 L 134.828125 308.679688 L 136.972656 308.734375 L 138.761719 308.792969 L 140.28125 308.859375 L 141.625 308.9375 L 142.429688 309.003906 L 142.964844 309.070312 L 130.535156 309.070312 L 129.820312 309.003906 L 129.015625 308.953125 L 127.671875 308.890625 L 126.332031 308.847656 L 124.988281 308.8125 L 122.484375 308.761719 L 120.339844 308.734375 L 117.65625 308.707031 L 115.0625 308.691406 L 112.109375 308.679688 L 110.320312 308.675781 L 105.582031 308.675781 L 101.289062 308.6875 L 98.785156 308.703125 L 96.996094 308.71875 L 94.492188 308.746094 L 92.972656 308.769531 L 92.078125 308.785156 L 89.394531 308.839844 L 87.605469 308.894531 L 86.621094 308.929688 L 85.371094 308.984375 L 84.476562 309.035156 L 83.492188 309.109375 L 82.953125 309.164062 L 82.238281 309.292969 L 82.148438 309.628906 L 82.417969 309.699219 L 82.953125 309.777344 L 83.671875 309.84375 L 84.742188 309.914062 L 85.816406 309.96875 L 87.695312 310.039062 L 89.304688 310.089844 L 90.558594 310.121094 L 92.972656 310.171875 L 93.957031 310.1875 L 96.28125 310.222656 L 98.695312 310.246094 L 101.648438 310.269531 L 103.882812 310.28125 L 107.460938 310.289062 L 112.019531 310.289062 L 117.386719 310.277344 L 120.785156 310.265625 L 123.109375 310.25 L 124.632812 310.234375 L 126.507812 310.214844 L 127.851562 310.195312 L 129.101562 310.175781 L 130.625 310.144531 L 130.625 309.699219 L 108.535156 309.695312 L 108.535156 309.488281 L 142.875 309.488281 L 142.964844 310.214844 L 141.085938 310.265625 L 138.761719 310.3125 L 136.527344 310.351562 L 134.199219 310.382812 L 130.890625 310.417969 L 128.207031 310.441406 L 124.09375 310.46875 L 120.339844 310.484375 L 116.402344 310.496094 L 112.914062 310.5 L 108.800781 310.503906 L 105.136719 310.5 L 101.199219 310.488281 L 98.070312 310.472656 L 95.207031 310.453125 L 92.34375 310.429688 L 88.769531 310.390625 L 86.441406 310.359375 L 84.027344 310.320312 L 81.613281 310.273438 L 79.46875 310.222656 L 78.035156 310.183594 L 76.605469 310.140625 L 75.085938 310.082031 L 73.652344 310.019531 L 72.582031 309.960938 L 71.597656 309.898438 L 70.882812 309.835938 L 70.164062 309.75 L 69.808594 309.683594 L 69.628906 309.625 Z M 69.628906 309.335938 "/>
<path style=" stroke:none;fill-rule:nonzero;fill:rgb(83.921569%,15.686275%,22.352941%);fill-opacity:1;" d="M 69.628906 304.59375 L 142.964844 304.59375 L 142.964844 304.878906 L 112.402344 304.882812 L 112.402344 307.28125 L 100.105469 307.28125 L 100.105469 304.886719 L 99.925781 304.878906 L 69.628906 304.878906 Z M 69.628906 304.59375 "/>
<path style=" stroke:none;fill-rule:nonzero;fill:rgb(6.27451%,58.823529%,28.235294%);fill-opacity:1;" d="M 146.824219 291.949219 L 146.902344 291.757812 L 178.636719 88.921875 L 188.273438 88.921875 L 220.160156 292.140625 L 208.957031 292.140625 L 200.964844 239.09375 L 165.941406 239.09375 L 158.109375 291.949219 L 146.824219 291.949219 L 169.3125 217.148438 L 197.753906 216.957031 L 183.570312 122.121094 L 183.414062 121.929688 L 183.257812 122.503906 L 169.234375 216.957031 L 169.3125 217.148438 Z M 146.824219 291.949219 "/>
<path style=" stroke:none;fill-rule:nonzero;fill:rgb(96.862745%,70.196078%,16.862745%);fill-opacity:1;" d="M 146.824219 302.335938 L 146.914062 302.316406 L 146.914062 301.929688 L 147.273438 301.066406 L 148.167969 299.875 L 149.328125 298.894531 L 150.582031 298.125 L 151.386719 297.722656 L 152.726562 297.144531 L 153.890625 296.722656 L 156.84375 295.855469 L 160.597656 295.046875 L 162.65625 294.703125 L 164.980469 294.375 L 168.289062 294.011719 L 169.808594 293.875 L 174.460938 293.566406 L 179.738281 293.375 L 185.550781 293.316406 L 188.234375 293.335938 L 191.898438 293.414062 L 196.910156 293.625 L 199.769531 293.816406 L 202.007812 294.011719 L 204.332031 294.261719 L 207.195312 294.644531 L 209.875 295.105469 L 212.023438 295.566406 L 214.167969 296.144531 L 215.957031 296.757812 L 217.476562 297.433594 L 218.820312 298.238281 L 219.625 298.914062 L 220.160156 299.585938 L 207.730469 299.585938 L 207.015625 298.914062 L 206.210938 298.394531 L 204.867188 297.757812 L 203.527344 297.296875 L 202.183594 296.933594 L 199.679688 296.433594 L 197.535156 296.125 L 194.851562 295.855469 L 192.257812 295.683594 L 189.304688 295.566406 L 187.519531 295.527344 L 182.777344 295.527344 L 178.484375 295.664062 L 175.980469 295.816406 L 174.191406 295.972656 L 171.6875 296.261719 L 170.167969 296.492188 L 169.273438 296.644531 L 166.589844 297.242188 L 164.800781 297.777344 L 163.816406 298.144531 L 162.566406 298.722656 L 161.671875 299.238281 L 160.6875 300.007812 L 160.152344 300.585938 L 159.433594 301.894531 L 159.347656 305.355469 L 159.613281 306.085938 L 160.152344 306.871094 L 160.867188 307.566406 L 161.941406 308.296875 L 163.011719 308.851562 L 164.890625 309.601562 L 166.5 310.101562 L 167.753906 310.429688 L 170.167969 310.949219 L 171.152344 311.121094 L 173.476562 311.46875 L 175.890625 311.738281 L 178.84375 311.96875 L 181.078125 312.082031 L 184.65625 312.179688 L 189.21875 312.179688 L 194.582031 312.0625 L 197.980469 311.910156 L 200.308594 311.757812 L 201.828125 311.621094 L 203.707031 311.410156 L 205.046875 311.21875 L 206.300781 311.007812 L 207.820312 310.679688 L 207.820312 306.085938 L 185.730469 306.066406 L 185.730469 303.910156 L 220.070312 303.890625 L 220.160156 311.410156 L 218.285156 311.929688 L 215.957031 312.429688 L 213.722656 312.8125 L 211.398438 313.140625 L 208.085938 313.503906 L 205.40625 313.734375 L 201.289062 314.003906 L 197.535156 314.179688 L 193.597656 314.292969 L 190.113281 314.351562 L 185.996094 314.371094 L 182.332031 314.332031 L 178.394531 314.21875 L 175.265625 314.0625 L 172.402344 313.871094 L 169.542969 313.621094 L 165.964844 313.21875 L 163.640625 312.890625 L 161.222656 312.488281 L 158.808594 312.007812 L 156.664062 311.488281 L 155.230469 311.082031 L 153.800781 310.621094 L 152.28125 310.042969 L 150.851562 309.390625 L 149.777344 308.796875 L 148.792969 308.121094 L 148.078125 307.488281 L 147.363281 306.621094 L 147.003906 305.929688 L 146.824219 305.335938 Z M 146.824219 302.335938 "/>
<path style=" stroke:none;fill-rule:nonzero;fill:rgb(14.509804%,36.078431%,60%);fill-opacity:1;" d="M 224.019531 156.382812 L 224.109375 156.132812 L 224.109375 150.167969 L 224.378906 140.726562 L 225.003906 128.800781 L 225.632812 120.601562 L 227.242188 105.945312 L 229.476562 91.78125 L 231.800781 80.847656 L 233.5 74.386719 L 235.023438 69.417969 L 238.507812 60.226562 L 240.746094 55.503906 L 243.160156 51.28125 L 246.113281 47.058594 L 248.257812 44.574219 L 253.085938 40.597656 L 256.664062 38.859375 L 259.4375 38.113281 L 265.429688 38.113281 L 269.007812 39.105469 L 271.601562 40.347656 L 274.460938 42.335938 L 276.875 44.574219 L 281.082031 50.039062 L 284.835938 56.996094 L 286.535156 60.972656 L 289.21875 68.675781 L 291.277344 76.128906 L 292.707031 82.585938 L 294.316406 91.78125 L 295.746094 102.960938 L 296.820312 115.632812 L 297.355469 126.316406 L 284.835938 126.316406 L 284.210938 116.378906 L 283.496094 108.675781 L 282.152344 98.488281 L 280.8125 91.285156 L 278.933594 84.078125 L 277.234375 79.359375 L 274.910156 74.636719 L 272.851562 71.65625 L 270.707031 69.417969 L 268.648438 67.929688 L 264.714844 66.4375 L 260.152344 66.4375 L 258.453125 66.933594 L 254.964844 68.921875 L 253.085938 70.660156 L 250.40625 74.140625 L 248.527344 77.371094 L 246.289062 82.339844 L 244.769531 86.5625 L 242.890625 93.023438 L 241.550781 98.738281 L 240.03125 106.9375 L 239.136719 113.148438 L 238.332031 120.105469 L 237.613281 128.304688 L 237.078125 137 L 236.722656 146.195312 L 236.542969 155.140625 L 236.542969 193.652344 L 236.722656 202.59375 L 237.167969 213.03125 L 238.332031 228.1875 L 240.03125 241.355469 L 241.996094 251.792969 L 243.875 259.246094 L 244.949219 262.722656 L 246.378906 266.699219 L 248.617188 271.667969 L 251.835938 276.636719 L 253.714844 278.625 L 256.574219 280.613281 L 259.527344 281.605469 L 263.460938 281.605469 L 266.949219 280.613281 L 269.273438 279.371094 L 271.691406 277.382812 L 275 273.160156 L 277.054688 269.183594 L 278.84375 264.464844 L 280.1875 259.742188 L 281.082031 255.765625 L 282.421875 248.0625 L 283.496094 239.617188 L 284.300781 230.921875 L 284.835938 222.472656 L 297.355469 222.472656 L 296.820312 232.410156 L 296.015625 242.101562 L 295.210938 249.304688 L 293.957031 258.003906 L 292.527344 265.707031 L 290.472656 274.402344 L 288.773438 280.117188 L 286.535156 286.328125 L 284.480469 291.046875 L 282.242188 295.273438 L 278.933594 300.242188 L 276.789062 302.726562 L 274.460938 304.960938 L 271.691406 306.949219 L 268.203125 308.6875 L 264.445312 309.683594 L 260.957031 309.933594 L 257.203125 309.433594 L 254.429688 308.441406 L 250.761719 306.203125 L 246.199219 301.730469 L 242.890625 297.011719 L 240.296875 292.289062 L 238.0625 287.320312 L 235.558594 280.613281 L 232.339844 269.679688 L 230.371094 261.234375 L 229.03125 254.277344 L 227.507812 244.585938 L 226.4375 235.890625 L 225.183594 221.976562 L 224.289062 204.335938 L 224.019531 190.667969 Z M 224.019531 156.382812 "/>
<path style=" stroke:none;fill-rule:nonzero;fill:rgb(83.921569%,15.686275%,22.352941%);fill-opacity:1;" d="M 224.019531 311.109375 L 297.355469 311.109375 L 297.355469 311.460938 L 266.792969 311.464844 L 266.792969 314.371094 L 254.496094 314.371094 L 254.496094 311.464844 L 254.316406 311.460938 L 224.019531 311.460938 Z M 224.019531 311.109375 "/>
<path style=" stroke:none;fill-rule:nonzero;fill:rgb(96.862745%,70.196078%,16.862745%);fill-opacity:1;" d="M 301.21875 146.460938 L 301.304688 146.191406 L 301.304688 140.828125 L 301.664062 128.757812 L 302.558594 112.128906 L 303.722656 98.449219 L 304.972656 87.71875 L 305.777344 82.085938 L 307.121094 74.039062 L 308.28125 68.140625 L 311.234375 56.070312 L 314.988281 44.804688 L 317.046875 39.976562 L 319.371094 35.414062 L 322.679688 30.320312 L 324.203125 28.441406 L 328.851562 24.148438 L 334.128906 21.46875 L 339.941406 20.664062 L 342.625 20.929688 L 346.292969 22.003906 L 351.300781 24.953125 L 354.164062 27.636719 L 356.398438 30.320312 L 358.722656 33.804688 L 361.585938 39.171875 L 364.269531 45.609375 L 366.414062 52.046875 L 368.5625 60.09375 L 370.351562 68.675781 L 371.871094 78.0625 L 373.210938 89.328125 L 374.015625 98.714844 L 374.554688 108.105469 L 362.121094 108.105469 L 361.40625 98.714844 L 360.601562 91.476562 L 359.261719 82.625 L 357.917969 76.1875 L 356.578125 71.089844 L 354.074219 64.117188 L 351.925781 59.824219 L 349.242188 56.070312 L 346.648438 53.65625 L 343.699219 52.046875 L 341.910156 51.507812 L 337.167969 51.507812 L 332.875 53.386719 L 330.371094 55.53125 L 328.585938 57.679688 L 326.078125 61.703125 L 324.558594 64.921875 L 323.664062 67.066406 L 320.980469 75.382812 L 319.195312 82.890625 L 318.210938 87.988281 L 316.957031 96.035156 L 316.0625 103.277344 L 315.078125 114.003906 L 314.542969 122.050781 L 313.828125 140.292969 L 313.738281 188.574219 L 314.007812 198.765625 L 314.542969 209.761719 L 315.257812 219.417969 L 316.332031 229.609375 L 317.40625 237.390625 L 319.28125 247.851562 L 320.894531 254.824219 L 322.144531 259.382812 L 324.558594 266.625 L 325.542969 269.039062 L 327.867188 273.867188 L 330.285156 277.625 L 333.234375 280.84375 L 335.46875 282.453125 L 339.046875 283.792969 L 343.609375 283.792969 L 348.976562 282.183594 L 352.375 280.039062 L 354.699219 277.890625 L 356.21875 276.015625 L 358.097656 273.0625 L 359.4375 270.382812 L 360.691406 267.429688 L 362.210938 262.871094 L 362.210938 198.765625 L 340.121094 198.496094 L 340.121094 168.457031 L 374.464844 168.1875 L 374.554688 273.0625 L 372.675781 280.304688 L 370.351562 287.28125 L 368.113281 292.644531 L 365.789062 297.203125 L 362.480469 302.300781 L 359.796875 305.519531 L 355.683594 309.273438 L 351.925781 311.6875 L 347.992188 313.296875 L 344.503906 314.101562 L 340.390625 314.371094 L 336.722656 313.835938 L 332.789062 312.226562 L 329.65625 310.078125 L 326.796875 307.398438 L 323.933594 303.910156 L 320.355469 298.277344 L 318.03125 293.71875 L 315.617188 288.085938 L 313.203125 281.378906 L 311.054688 274.136719 L 309.625 268.503906 L 308.191406 262.066406 L 306.671875 254.019531 L 305.242188 244.898438 L 304.167969 236.585938 L 303.183594 227.195312 L 302.46875 218.34375 L 301.753906 206.277344 L 301.394531 196.621094 L 301.21875 188.304688 Z M 301.21875 146.460938 "/>
<path style=" stroke:none;fill-rule:nonzero;fill:rgb(14.509804%,36.078431%,60%);fill-opacity:1;" d="M 378.414062 312.53125 L 378.503906 312.527344 L 378.503906 312.453125 L 378.769531 312.339844 L 379.398438 312.199219 L 380.023438 312.101562 L 381.632812 311.925781 L 383.867188 311.753906 L 386.195312 311.625 L 387.894531 311.546875 L 389.414062 311.488281 L 392.902344 311.375 L 395.136719 311.320312 L 397.550781 311.269531 L 400.503906 311.21875 L 402.648438 311.1875 L 407.480469 311.140625 L 411.054688 311.121094 L 413.828125 311.109375 L 419.820312 311.109375 L 423.398438 311.125 L 425.992188 311.136719 L 428.855469 311.160156 L 431.269531 311.1875 L 435.472656 311.253906 L 439.226562 311.335938 L 440.925781 311.386719 L 443.609375 311.476562 L 445.667969 311.566406 L 447.097656 311.644531 L 448.707031 311.753906 L 450.140625 311.890625 L 451.210938 312.039062 L 451.75 312.167969 L 439.226562 312.167969 L 438.601562 312.050781 L 437.886719 311.957031 L 436.546875 311.835938 L 435.203125 311.75 L 433.324219 311.664062 L 431.625 311.605469 L 429.300781 311.550781 L 427.246094 311.511719 L 425.097656 311.488281 L 423.039062 311.46875 L 419.105469 311.449219 L 414.542969 311.449219 L 412.84375 311.457031 L 409.355469 311.480469 L 407.480469 311.5 L 404.796875 311.542969 L 402.917969 311.582031 L 400.683594 311.640625 L 399.160156 311.691406 L 397.285156 311.769531 L 395.941406 311.839844 L 394.421875 311.9375 L 393.527344 312.011719 L 392.722656 312.09375 L 392.007812 312.191406 L 391.46875 312.296875 L 391.113281 312.40625 L 390.933594 312.515625 L 390.933594 312.976562 L 391.113281 313.082031 L 391.558594 313.207031 L 392.722656 313.390625 L 394.421875 313.546875 L 396.390625 313.671875 L 398.265625 313.761719 L 399.339844 313.804688 L 400.773438 313.851562 L 403.007812 313.910156 L 406.226562 313.972656 L 408.105469 313.996094 L 410.96875 314.019531 L 413.917969 314.03125 L 417.855469 314.03125 L 421.339844 314.019531 L 423.667969 314.003906 L 426.082031 313.980469 L 429.390625 313.929688 L 431.449219 313.882812 L 433.234375 313.824219 L 434.578125 313.769531 L 435.472656 313.722656 L 436.8125 313.628906 L 437.886719 313.527344 L 438.691406 313.421875 L 439.226562 313.320312 L 451.75 313.320312 L 451.210938 313.441406 L 450.40625 313.558594 L 449.601562 313.644531 L 448.351562 313.746094 L 446.917969 313.839844 L 444.863281 313.945312 L 443.164062 314.011719 L 440.925781 314.085938 L 438.871094 314.144531 L 436.636719 314.195312 L 433.324219 314.253906 L 431.179688 314.285156 L 428.855469 314.3125 L 426.082031 314.335938 L 422.59375 314.355469 L 418.835938 314.367188 L 415.347656 314.371094 L 411.59375 314.363281 L 408.820312 314.351562 L 405.152344 314.324219 L 400.59375 314.273438 L 397.285156 314.214844 L 394.691406 314.160156 L 392.453125 314.097656 L 389.949219 314.019531 L 386.730469 313.886719 L 384.761719 313.785156 L 383.421875 313.703125 L 381.902344 313.585938 L 380.828125 313.484375 L 379.574219 313.316406 L 378.679688 313.105469 L 378.414062 312.941406 Z M 378.414062 312.53125 "/>
<path style=" stroke:none;fill-rule:nonzero;fill:rgb(83.921569%,15.686275%,22.352941%);fill-opacity:1;" d="M 378.414062 38.113281 L 451.75 38.113281 L 451.75 67.210938 L 421.183594 67.464844 L 421.183594 309.933594 L 408.886719 309.933594 L 408.886719 67.71875 L 408.710938 67.210938 L 378.414062 67.210938 Z M 378.414062 38.113281 "/>
<path style=" stroke:none;fill-rule:nonzero;fill:rgb(6.27451%,58.823529%,28.235294%);fill-opacity:1;" d="M 455.609375 314.351562 L 455.6875 314.332031 L 487.417969 294.0625 L 497.054688 294.0625 L 528.945312 314.371094 L 517.742188 314.371094 L 509.75 309.070312 L 474.726562 309.070312 L 466.890625 314.351562 L 455.609375 314.351562 L 478.09375 306.875 L 506.535156 306.859375 L 492.355469 297.382812 L 492.199219 297.363281 L 492.042969 297.417969 L 478.015625 306.859375 L 478.09375 306.875 Z M 455.609375 314.351562 "/>
<path style=" stroke:none;fill-rule:nonzero;fill:rgb(14.509804%,36.078431%,60%);fill-opacity:1;" d="M 455.609375 176.5625 L 455.699219 176.371094 L 455.699219 171.855469 L 455.964844 164.703125 L 456.59375 155.667969 L 457.21875 149.457031 L 458.828125 138.351562 L 461.066406 127.621094 L 463.390625 119.339844 L 465.089844 114.445312 L 466.609375 110.683594 L 470.097656 103.71875 L 472.332031 100.140625 L 474.746094 96.941406 L 477.699219 93.742188 L 479.847656 91.859375 L 484.675781 88.847656 L 488.253906 87.53125 L 491.023438 86.964844 L 497.015625 86.964844 L 500.59375 87.71875 L 503.1875 88.660156 L 506.050781 90.164062 L 508.464844 91.859375 L 512.667969 96 L 516.425781 101.269531 L 518.125 104.28125 L 520.804688 110.117188 L 522.863281 115.765625 L 524.292969 120.65625 L 525.90625 127.621094 L 527.335938 136.09375 L 528.410156 145.691406 L 528.945312 153.785156 L 516.425781 153.785156 L 515.796875 146.257812 L 515.082031 140.421875 L 513.742188 132.703125 L 512.398438 127.246094 L 510.523438 121.789062 L 508.824219 118.210938 L 506.496094 114.636719 L 504.441406 112.375 L 502.292969 110.683594 L 500.238281 109.550781 L 496.300781 108.421875 L 491.742188 108.421875 L 490.042969 108.800781 L 486.554688 110.304688 L 484.675781 111.625 L 481.992188 114.257812 L 480.113281 116.707031 L 477.878906 120.46875 L 476.359375 123.667969 L 474.480469 128.5625 L 473.136719 132.894531 L 471.617188 139.105469 L 470.722656 143.808594 L 469.917969 149.078125 L 469.203125 155.292969 L 468.667969 161.878906 L 468.308594 168.84375 L 468.128906 175.621094 L 468.128906 204.792969 L 468.308594 211.570312 L 468.757812 219.476562 L 469.917969 230.957031 L 471.617188 240.933594 L 473.585938 248.839844 L 475.464844 254.484375 L 476.535156 257.121094 L 477.96875 260.132812 L 480.203125 263.898438 L 483.421875 267.660156 L 485.300781 269.167969 L 488.164062 270.671875 L 491.113281 271.425781 L 495.050781 271.425781 L 498.539062 270.671875 L 500.863281 269.730469 L 503.277344 268.226562 L 506.585938 265.027344 L 508.644531 262.015625 L 510.433594 258.4375 L 511.773438 254.863281 L 512.667969 251.851562 L 514.007812 246.015625 L 515.082031 239.617188 L 515.886719 233.027344 L 516.425781 226.628906 L 528.945312 226.628906 L 528.410156 234.15625 L 527.605469 241.5 L 526.796875 246.957031 L 525.546875 253.542969 L 524.117188 259.378906 L 522.058594 265.96875 L 520.359375 270.296875 L 518.125 275.003906 L 516.066406 278.578125 L 513.832031 281.777344 L 510.523438 285.542969 L 508.375 287.425781 L 506.050781 289.121094 L 503.277344 290.625 L 499.789062 291.941406 L 496.035156 292.695312 L 492.546875 292.882812 L 488.789062 292.507812 L 486.015625 291.753906 L 482.351562 290.058594 L 477.789062 286.671875 L 474.480469 283.097656 L 471.886719 279.519531 L 469.648438 275.753906 L 467.144531 270.671875 L 463.925781 262.390625 L 461.957031 255.992188 L 460.617188 250.722656 L 459.097656 243.378906 L 458.023438 236.792969 L 456.773438 226.253906 L 455.878906 212.886719 L 455.609375 202.535156 Z M 455.609375 176.5625 "/>
<path style=" stroke:none;fill-rule:nonzero;fill:rgb(6.27451%,58.823529%,28.235294%);fill-opacity:1;" d="M 532.804688 314.09375 L 532.882812 313.820312 L 564.617188 20.664062 L 574.253906 20.664062 L 606.140625 314.371094 L 594.9375 314.371094 L 586.945312 237.703125 L 551.921875 237.703125 L 544.085938 314.09375 L 532.804688 314.09375 L 555.292969 205.988281 L 583.734375 205.710938 L 569.550781 68.648438 L 569.394531 68.375 L 569.238281 69.199219 L 555.214844 205.710938 L 555.292969 205.988281 Z M 532.804688 314.09375 "/>
<path style=" stroke:none;fill-rule:nonzero;fill:rgb(14.509804%,36.078431%,60%);fill-opacity:1;" d="M 610 293.214844 L 610.089844 293.203125 L 610.089844 292.90625 L 610.359375 292.4375 L 610.984375 291.84375 L 611.609375 291.4375 L 613.21875 290.707031 L 615.457031 290.003906 L 617.78125 289.460938 L 619.480469 289.136719 L 621 288.890625 L 624.488281 288.433594 L 626.726562 288.199219 L 629.140625 287.988281 L 632.089844 287.78125 L 634.238281 287.65625 L 639.066406 287.457031 L 642.644531 287.371094 L 645.417969 287.335938 L 651.410156 287.335938 L 654.988281 287.382812 L 657.578125 287.445312 L 660.441406 287.546875 L 662.855469 287.65625 L 667.058594 287.929688 L 670.816406 288.273438 L 672.515625 288.472656 L 675.199219 288.855469 L 677.253906 289.226562 L 678.6875 289.546875 L 680.296875 290.003906 L 681.726562 290.558594 L 682.800781 291.1875 L 683.335938 291.71875 L 670.816406 291.71875 L 670.191406 291.226562 L 669.476562 290.84375 L 668.132812 290.335938 L 666.792969 289.976562 L 664.914062 289.621094 L 663.214844 289.386719 L 660.890625 289.152344 L 658.832031 289.003906 L 656.6875 288.890625 L 654.628906 288.816406 L 650.695312 288.742188 L 646.132812 288.742188 L 644.433594 288.769531 L 640.945312 288.867188 L 639.066406 288.953125 L 636.382812 289.125 L 634.507812 289.285156 L 632.269531 289.535156 L 630.75 289.742188 L 628.871094 290.066406 L 627.53125 290.347656 L 626.007812 290.757812 L 625.117188 291.066406 L 624.308594 291.410156 L 623.59375 291.820312 L 623.058594 292.25 L 622.699219 292.707031 L 622.523438 293.152344 L 622.523438 295.066406 L 622.699219 295.511719 L 623.148438 296.03125 L 624.308594 296.785156 L 626.007812 297.4375 L 627.976562 297.957031 L 629.855469 298.328125 L 630.929688 298.5 L 632.359375 298.699219 L 634.59375 298.945312 L 637.816406 299.191406 L 639.691406 299.292969 L 642.554688 299.390625 L 645.507812 299.441406 L 649.441406 299.441406 L 652.929688 299.390625 L 655.253906 299.328125 L 657.667969 299.230469 L 660.976562 299.019531 L 663.035156 298.820312 L 664.824219 298.585938 L 666.164062 298.351562 L 667.058594 298.15625 L 668.402344 297.773438 L 669.476562 297.351562 L 670.28125 296.921875 L 670.816406 296.5 L 683.335938 296.5 L 682.800781 296.996094 L 681.996094 297.476562 L 681.191406 297.835938 L 679.9375 298.265625 L 678.507812 298.648438 L 676.449219 299.082031 L 674.75 299.367188 L 672.515625 299.675781 L 670.457031 299.910156 L 668.222656 300.117188 L 664.914062 300.367188 L 662.765625 300.488281 L 660.441406 300.601562 L 657.667969 300.699219 L 654.179688 300.785156 L 650.425781 300.835938 L 646.9375 300.847656 L 643.179688 300.824219 L 640.410156 300.773438 L 636.742188 300.664062 L 632.179688 300.441406 L 628.871094 300.207031 L 626.277344 299.972656 L 624.042969 299.722656 L 621.539062 299.390625 L 618.316406 298.847656 L 616.351562 298.425781 L 615.007812 298.082031 L 613.488281 297.597656 L 612.414062 297.167969 L 611.164062 296.476562 L 610.269531 295.597656 L 610 294.917969 Z M 610 293.214844 "/>
<path style=" stroke:none;fill-rule:nonzero;fill:rgb(96.862745%,70.196078%,16.862745%);fill-opacity:1;" d="M 610 306.835938 L 610.089844 306.824219 L 610.089844 306.621094 L 610.449219 306.160156 L 611.34375 305.523438 L 612.503906 305 L 613.757812 304.589844 L 614.5625 304.375 L 615.902344 304.066406 L 617.066406 303.84375 L 620.015625 303.378906 L 623.773438 302.949219 L 625.832031 302.765625 L 628.15625 302.589844 L 631.464844 302.394531 L 632.984375 302.324219 L 637.636719 302.160156 L 642.914062 302.058594 L 648.726562 302.027344 L 651.410156 302.039062 L 655.074219 302.078125 L 660.085938 302.191406 L 662.945312 302.292969 L 665.183594 302.394531 L 667.507812 302.53125 L 670.367188 302.734375 L 673.050781 302.980469 L 675.199219 303.226562 L 677.34375 303.535156 L 679.132812 303.863281 L 680.652344 304.222656 L 681.996094 304.652344 L 682.800781 305.011719 L 683.335938 305.371094 L 670.90625 305.371094 L 670.191406 305.011719 L 669.386719 304.734375 L 668.042969 304.394531 L 666.703125 304.148438 L 665.359375 303.953125 L 662.855469 303.6875 L 660.710938 303.523438 L 658.027344 303.378906 L 655.433594 303.289062 L 652.480469 303.226562 L 650.695312 303.207031 L 645.953125 303.207031 L 641.660156 303.277344 L 639.15625 303.359375 L 637.367188 303.441406 L 634.863281 303.597656 L 633.34375 303.71875 L 632.449219 303.800781 L 629.765625 304.117188 L 627.976562 304.40625 L 626.992188 304.601562 L 625.742188 304.90625 L 624.847656 305.183594 L 623.863281 305.59375 L 623.328125 305.902344 L 622.609375 306.597656 L 622.523438 308.445312 L 622.789062 308.835938 L 623.328125 309.253906 L 624.042969 309.625 L 625.117188 310.011719 L 626.1875 310.308594 L 628.066406 310.710938 L 629.675781 310.976562 L 630.929688 311.152344 L 633.34375 311.425781 L 634.328125 311.519531 L 636.652344 311.703125 L 639.066406 311.847656 L 642.019531 311.972656 L 644.253906 312.03125 L 647.832031 312.082031 L 652.394531 312.082031 L 657.757812 312.023438 L 661.15625 311.941406 L 663.484375 311.859375 L 665.003906 311.785156 L 666.882812 311.671875 L 668.222656 311.570312 L 669.476562 311.457031 L 670.996094 311.285156 L 670.996094 308.835938 L 648.90625 308.824219 L 648.90625 307.675781 L 683.246094 307.664062 L 683.335938 311.671875 L 681.457031 311.949219 L 679.132812 312.21875 L 676.898438 312.421875 L 674.574219 312.597656 L 671.261719 312.789062 L 668.582031 312.914062 L 664.464844 313.058594 L 660.710938 313.148438 L 656.773438 313.210938 L 653.285156 313.242188 L 649.171875 313.253906 L 645.507812 313.230469 L 641.570312 313.171875 L 638.441406 313.089844 L 635.578125 312.984375 L 632.71875 312.851562 L 629.140625 312.636719 L 626.816406 312.464844 L 624.398438 312.246094 L 621.984375 311.992188 L 619.839844 311.714844 L 618.40625 311.5 L 616.976562 311.253906 L 615.457031 310.945312 L 614.027344 310.597656 L 612.953125 310.28125 L 611.96875 309.921875 L 611.253906 309.582031 L 610.539062 309.121094 L 610.179688 308.753906 L 610 308.433594 Z M 610 306.835938 "/>
<path style=" stroke:none;fill-rule:nonzero;fill:rgb(83.921569%,15.686275%,22.352941%);fill-opacity:1;" d="M 610 264.761719 L 683.335938 264.761719 L 683.335938 267.054688 L 652.773438 267.074219 L 652.773438 286.15625 L 640.476562 286.15625 L 640.476562 267.09375 L 640.296875 267.054688 L 610 267.054688 Z M 610 264.761719 "/>
<g style="fill:rgb(0%,0%,0%);fill-opacity:1;">
  <use xlink:href="#glyph0-1" x="21.957031" y="318.198242"/>
  <use xlink:href="#glyph0-2" x="27.291016" y="318.198242"/>
  <use xlink:href="#glyph0-1" x="29.958008" y="318.198242"/>
</g>
<g style="fill:rgb(0%,0%,0%);fill-opacity:1;">
  <use xlink:href="#glyph0-1" x="21.957031" y="244.475586"/>
  <use xlink:href="#glyph0-2" x="27.291016" y="244.475586"/>
  <use xlink:href="#glyph0-3" x="29.958008" y="244.475586"/>
</g>
<g style="fill:rgb(0%,0%,0%);fill-opacity:1;">
  <use xlink:href="#glyph0-4" x="21.957031" y="170.75293"/>
  <use xlink:href="#glyph0-2" x="27.291016" y="170.75293"/>
  <use xlink:href="#glyph0-1" x="29.958008" y="170.75293"/>
</g>
<g style="fill:rgb(0%,0%,0%);fill-opacity:1;">
  <use xlink:href="#glyph0-4" x="21.957031" y="97.03418"/>
  <use xlink:href="#glyph0-2" x="27.291016" y="97.03418"/>
  <use xlink:href="#glyph0-3" x="29.958008" y="97.03418"/>
</g>
<g style="fill:rgb(0%,0%,0%);fill-opacity:1;">
  <use xlink:href="#glyph0-5" x="21.957031" y="23.311523"/>
  <use xlink:href="#glyph0-2" x="27.291016" y="23.311523"/>
  <use xlink:href="#glyph0-1" x="29.958008" y="23.311523"/>
</g>
<g style="fill:rgb(0%,0%,0%);fill-opacity:1;">
  <use xlink:href="#glyph0-4" x="103.296875" y="338.19043"/>
</g>
<g style="fill:rgb(0%,0%,0%);fill-opacity:1;">
  <use xlink:href="#glyph0-5" x="180.492188" y="338.19043"/>
</g>
<g style="fill:rgb(0%,0%,0%);fill-opacity:1;">
  <use xlink:href="#glyph0-6" x="257.6875" y="338.19043"/>
</g>
<g style="fill:rgb(0%,0%,0%);fill-opacity:1;">
  <use xlink:href="#glyph0-7" x="334.886719" y="338.19043"/>
</g>
<g style="fill:rgb(0%,0%,0%);fill-opacity:1;">
  <use xlink:href="#glyph0-3" x="412.082031" y="338.19043"/>
</g>
<g style="fill:rgb(0%,0%,0%);fill-opacity:1;">
  <use xlink:href="#glyph0-8" x="489.277344" y="338.19043"/>
</g>
<g style="fill:rgb(0%,0%,0%);fill-opacity:1;">
  <use xlink:href="#glyph0-9" x="566.472656" y="338.19043"/>
</g>
<g style="fill:rgb(0%,0%,0%);fill-opacity:1;">
  <use xlink:href="#glyph0-10" x="643.667969" y="338.19043"/>
</g>
<g style="fill:rgb(0%,0%,0%);fill-opacity:1;">
  <use xlink:href="#glyph1-1" x="14.412109" y="178.015625"/>
  <use xlink:href="#glyph1-2" x="14.412109" y="170.011719"/>
  <use xlink:href="#glyph1-3" x="14.412109" y="167.347656"/>
  <use xlink:href="#glyph1-4" x="14.412109" y="164.011719"/>
</g>
</g>
</svg>
