<?xml version="1.0" encoding="UTF-8"?>
<svg xmlns="http://www.w3.org/2000/svg" xmlns:xlink="http://www.w3.org/1999/xlink" width="720pt" height="360pt" viewBox="0 0 720 360" version="1.1">
<defs>
<g>
<symbol overflow="visible" id="glyph0-0">
<path style="stroke:none;" d=""/>
</symbol>
<symbol overflow="visible" id="glyph0-1">
<path style="stroke:none;" d="M 2.640625 -6.796875 C 2 -6.796875 1.421875 -6.53125 1.078125 -6.046875 C 0.640625 -5.453125 0.40625 -4.546875 0.40625 -3.296875 C 0.40625 -1 1.1875 0.21875 2.640625 0.21875 C 4.078125 0.21875 4.859375 -1 4.859375 -3.234375 C 4.859375 -4.5625 4.65625 -5.4375 4.203125 -6.046875 C 3.84375 -6.53125 3.28125 -6.796875 2.640625 -6.796875 Z M 2.640625 -6.046875 C 3.546875 -6.046875 4 -5.125 4 -3.3125 C 4 -1.375 3.5625 -0.484375 2.625 -0.484375 C 1.734375 -0.484375 1.28125 -1.421875 1.28125 -3.28125 C 1.28125 -5.140625 1.734375 -6.046875 2.640625 -6.046875 Z M 2.640625 -6.046875 "/>
</symbol>
<symbol overflow="visible" id="glyph0-2">
<path style="stroke:none;" d="M 1.828125 -1 L 0.828125 -1 L 0.828125 0 L 1.828125 0 Z M 1.828125 -1 "/>
</symbol>
<symbol overflow="visible" id="glyph0-3">
<path style="stroke:none;" d="M 4.5625 -6.796875 L 1.0625 -6.796875 L 0.546875 -3.09375 L 1.328125 -3.09375 C 1.71875 -3.5625 2.046875 -3.734375 2.578125 -3.734375 C 3.484375 -3.734375 4.0625 -3.109375 4.0625 -2.09375 C 4.0625 -1.125 3.484375 -0.53125 2.578125 -0.53125 C 1.828125 -0.53125 1.375 -0.90625 1.1875 -1.671875 L 0.328125 -1.671875 C 0.453125 -1.109375 0.546875 -0.84375 0.75 -0.59375 C 1.125 -0.078125 1.828125 0.21875 2.59375 0.21875 C 3.96875 0.21875 4.921875 -0.78125 4.921875 -2.21875 C 4.921875 -3.5625 4.03125 -4.484375 2.71875 -4.484375 C 2.25 -4.484375 1.859375 -4.359375 1.46875 -4.0625 L 1.734375 -5.96875 L 4.5625 -5.96875 Z M 4.5625 -6.796875 "/>
</symbol>
<symbol overflow="visible" id="glyph0-4">
<path style="stroke:none;" d="M 2.484375 -4.84375 L 2.484375 0 L 3.328125 0 L 3.328125 -6.796875 L 2.765625 -6.796875 C 2.46875 -5.75 2.28125 -5.609375 0.984375 -5.453125 L 0.984375 -4.84375 Z M 2.484375 -4.84375 "/>
</symbol>
<symbol overflow="visible" id="glyph0-5">
<path style="stroke:none;" d="M 4.859375 -0.828125 L 1.28125 -0.828125 C 1.359375 -1.390625 1.671875 -1.75 2.5 -2.234375 L 3.46875 -2.75 C 4.40625 -3.265625 4.90625 -3.96875 4.90625 -4.8125 C 4.90625 -5.375 4.671875 -5.90625 4.265625 -6.265625 C 3.859375 -6.625 3.375 -6.796875 2.71875 -6.796875 C 1.859375 -6.796875 1.21875 -6.5 0.84375 -5.921875 C 0.609375 -5.5625 0.5 -5.125 0.484375 -4.4375 L 1.328125 -4.4375 C 1.359375 -4.90625 1.40625 -5.1875 1.53125 -5.40625 C 1.75 -5.8125 2.1875 -6.0625 2.703125 -6.0625 C 3.46875 -6.0625 4.03125 -5.515625 4.03125 -4.78125 C 4.03125 -4.25 3.71875 -3.796875 3.125 -3.4375 L 2.234375 -2.9375 C 0.8125 -2.140625 0.40625 -1.5 0.328125 0 L 4.859375 0 Z M 4.859375 -0.828125 "/>
</symbol>
<symbol overflow="visible" id="glyph0-6">
<path style="stroke:none;" d="M 2.125 -3.125 L 2.578125 -3.125 C 3.515625 -3.125 3.984375 -2.703125 3.984375 -1.890625 C 3.984375 -1.03125 3.46875 -0.53125 2.578125 -0.53125 C 1.65625 -0.53125 1.203125 -0.984375 1.15625 -1.96875 L 0.3125 -1.96875 C 0.34375 -1.421875 0.4375 -1.078125 0.609375 -0.765625 C 0.953125 -0.109375 1.625 0.21875 2.546875 0.21875 C 3.953125 0.21875 4.859375 -0.609375 4.859375 -1.90625 C 4.859375 -2.765625 4.515625 -3.25 3.703125 -3.515625 C 4.34375 -3.765625 4.65625 -4.25 4.65625 -4.9375 C 4.65625 -6.109375 3.875 -6.796875 2.578125 -6.796875 C 1.203125 -6.796875 0.484375 -6.046875 0.453125 -4.609375 L 1.296875 -4.609375 C 1.3125 -5.015625 1.34375 -5.25 1.453125 -5.453125 C 1.640625 -5.828125 2.0625 -6.0625 2.59375 -6.0625 C 3.34375 -6.0625 3.796875 -5.625 3.796875 -4.90625 C 3.796875 -4.421875 3.609375 -4.140625 3.25 -3.984375 C 3.015625 -3.890625 2.71875 -3.84375 2.125 -3.84375 Z M 2.125 -3.125 "/>
</symbol>
<symbol overflow="visible" id="glyph0-7">
<path style="stroke:none;" d="M 3.140625 -1.625 L 3.140625 0 L 3.984375 0 L 3.984375 -1.625 L 4.984375 -1.625 L 4.984375 -2.390625 L 3.984375 -2.390625 L 3.984375 -6.796875 L 3.359375 -6.796875 L 0.265625 -2.515625 L 0.265625 -1.625 Z M 3.140625 -2.390625 L 1 -2.390625 L 3.140625 -5.359375 Z M 3.140625 -2.390625 "/>
</symbol>
<symbol overflow="visible" id="glyph0-8">
<path style="stroke:none;" d="M 4.78125 -5.03125 C 4.609375 -6.140625 3.890625 -6.796875 2.84375 -6.796875 C 2.09375 -6.796875 1.421875 -6.4375 1.03125 -5.828125 C 0.609375 -5.171875 0.40625 -4.34375 0.40625 -3.09375 C 0.40625 -1.953125 0.578125 -1.234375 0.984375 -0.625 C 1.359375 -0.078125 1.953125 0.21875 2.703125 0.21875 C 3.984375 0.21875 4.921875 -0.734375 4.921875 -2.078125 C 4.921875 -3.34375 4.0625 -4.234375 2.84375 -4.234375 C 2.171875 -4.234375 1.640625 -3.96875 1.28125 -3.46875 C 1.28125 -5.125 1.828125 -6.046875 2.796875 -6.046875 C 3.390625 -6.046875 3.796875 -5.671875 3.9375 -5.03125 Z M 2.734375 -3.484375 C 3.546875 -3.484375 4.0625 -2.921875 4.0625 -2 C 4.0625 -1.15625 3.484375 -0.53125 2.703125 -0.53125 C 1.921875 -0.53125 1.328125 -1.1875 1.328125 -2.046875 C 1.328125 -2.890625 1.90625 -3.484375 2.734375 -3.484375 Z M 2.734375 -3.484375 "/>
</symbol>
<symbol overflow="visible" id="glyph0-9">
<path style="stroke:none;" d="M 4.984375 -6.796875 L 0.4375 -6.796875 L 0.4375 -5.96875 L 4.109375 -5.96875 C 2.5 -3.65625 1.828125 -2.234375 1.328125 0 L 2.21875 0 C 2.59375 -2.171875 3.453125 -4.046875 4.984375 -6.09375 Z M 4.984375 -6.796875 "/>
</symbol>
<symbol overflow="visible" id="glyph0-10">
<path style="stroke:none;" d="M 3.75 -3.578125 C 4.453125 -4 4.6875 -4.34375 4.6875 -4.984375 C 4.6875 -6.046875 3.84375 -6.796875 2.640625 -6.796875 C 1.4375 -6.796875 0.59375 -6.046875 0.59375 -4.984375 C 0.59375 -4.359375 0.828125 -4.015625 1.515625 -3.578125 C 0.734375 -3.203125 0.359375 -2.640625 0.359375 -1.890625 C 0.359375 -0.640625 1.296875 0.21875 2.640625 0.21875 C 3.984375 0.21875 4.921875 -0.640625 4.921875 -1.875 C 4.921875 -2.640625 4.53125 -3.203125 3.75 -3.578125 Z M 2.640625 -6.046875 C 3.359375 -6.046875 3.8125 -5.625 3.8125 -4.96875 C 3.8125 -4.34375 3.34375 -3.921875 2.640625 -3.921875 C 1.921875 -3.921875 1.453125 -4.34375 1.453125 -4.984375 C 1.453125 -5.625 1.921875 -6.046875 2.640625 -6.046875 Z M 2.640625 -3.203125 C 3.484375 -3.203125 4.0625 -2.671875 4.0625 -1.875 C 4.0625 -1.0625 3.484375 -0.53125 2.625 -0.53125 C 1.796875 -0.53125 1.21875 -1.078125 1.21875 -1.875 C 1.21875 -2.671875 1.796875 -3.203125 2.640625 -3.203125 Z M 2.640625 -3.203125 "/>
</symbol>
<symbol overflow="visible" id="glyph1-0">
<path style="stroke:none;" d=""/>
</symbol>
<symbol overflow="visible" id="glyph1-1">
<path style="stroke:none;" d="M 0 -0.953125 L 0 -4.890625 C 0 -5.71875 -0.234375 -6.34375 -0.734375 -6.796875 C -1.1875 -7.234375 -1.8125 -7.46875 -2.5 -7.46875 C -3.546875 -7.46875 -4.1875 -7 -4.625 -5.875 C -4.984375 -6.671875 -5.640625 -7.09375 -6.53125 -7.09375 C -7.15625 -7.09375 -7.734375 -6.859375 -8.140625 -6.390625 C -8.5625 -5.9375 -8.75 -5.34375 -8.75 -4.5 L -8.75 -0.953125 Z M -4.984375 -2.0625 L -7.765625 -2.0625 L -7.765625 -4.21875 C -7.765625 -4.84375 -7.6875 -5.203125 -7.453125 -5.5 C -7.21875 -5.8125 -6.859375 -5.96875 -6.375 -5.96875 C -5.90625 -5.96875 -5.53125 -5.8125 -5.296875 -5.5 C -5.0625 -5.203125 -4.984375 -4.84375 -4.984375 -4.21875 Z M -0.984375 -2.0625 L -4 -2.0625 L -4 -4.78125 C -4 -5.328125 -3.859375 -5.6875 -3.578125 -5.953125 C -3.296875 -6.21875 -2.921875 -6.359375 -2.484375 -6.359375 C -2.0625 -6.359375 -1.6875 -6.21875 -1.40625 -5.953125 C -1.109375 -5.6875 -0.984375 -5.328125 -0.984375 -4.78125 Z M -0.984375 -2.0625 "/>
</symbol>
<symbol overflow="visible" id="glyph1-2">
<path style="stroke:none;" d="M -6.28125 -1.796875 L -6.28125 -0.796875 L 0 -0.796875 L 0 -1.796875 Z M -8.75 -1.796875 L -8.75 -0.796875 L -7.484375 -0.796875 L -7.484375 -1.796875 Z M -8.75 -1.796875 "/>
</symbol>
<symbol overflow="visible" id="glyph1-3">
<path style="stroke:none;" d="M -6.28125 -3.046875 L -6.28125 -2.015625 L -8.015625 -2.015625 L -8.015625 -1.015625 L -6.28125 -1.015625 L -6.28125 -0.171875 L -5.46875 -0.171875 L -5.46875 -1.015625 L -0.71875 -1.015625 C -0.078125 -1.015625 0.28125 -1.453125 0.28125 -2.234375 C 0.28125 -2.46875 0.25 -2.71875 0.1875 -3.046875 L -0.640625 -3.046875 C -0.609375 -2.921875 -0.59375 -2.765625 -0.59375 -2.5625 C -0.59375 -2.140625 -0.71875 -2.015625 -1.15625 -2.015625 L -5.46875 -2.015625 L -5.46875 -3.046875 Z M -6.28125 -3.046875 "/>
</symbol>
<symbol overflow="visible" id="glyph1-4">
<path style="stroke:none;" d="M -4.53125 -5.25 C -5.765625 -5.25 -6.46875 -4.421875 -6.46875 -2.96875 C -6.46875 -1.515625 -5.71875 -0.5625 -4.546875 -0.5625 C -3.5625 -0.5625 -3.09375 -1.0625 -2.734375 -2.5625 L -2.515625 -3.484375 C -2.34375 -4.1875 -2.09375 -4.46875 -1.625 -4.46875 C -1.046875 -4.46875 -0.640625 -3.875 -0.640625 -3 C -0.640625 -2.453125 -0.796875 -2 -1.0625 -1.75 C -1.25 -1.59375 -1.421875 -1.53125 -1.875 -1.46875 L -1.875 -0.40625 C -0.421875 -0.453125 0.28125 -1.265625 0.28125 -2.921875 C 0.28125 -4.5 -0.5 -5.515625 -1.71875 -5.515625 C -2.65625 -5.515625 -3.171875 -4.984375 -3.46875 -3.734375 L -3.703125 -2.765625 C -3.890625 -1.953125 -4.15625 -1.609375 -4.59375 -1.609375 C -5.171875 -1.609375 -5.546875 -2.125 -5.546875 -2.9375 C -5.546875 -3.75 -5.203125 -4.171875 -4.53125 -4.203125 Z M -4.53125 -5.25 "/>
</symbol>
</g>
</defs>
<g id="surface109331">
<rect x="0" y="0" width="720" height="360" style="fill:rgb(100%,100%,100%);fill-opacity:1;stroke:none;"/>
<path style=" stroke:none;fill-rule:nonzero;fill:rgb(96.862745%,70.196078%,16.862745%);fill-opacity:1;" d="M 69.628906 145.324219 L 69.71875 145.058594 L 69.71875 139.742188 L 70.078125 127.78125 L 70.972656 111.300781 L 72.132812 97.746094 L 73.386719 87.113281 L 74.191406 81.53125 L 75.53125 73.558594 L 76.695312 67.710938 L 79.644531 55.75 L 83.402344 44.585938 L 85.460938 39.800781 L 87.785156 35.28125 L 91.09375 30.230469 L 92.613281 28.371094 L 97.265625 24.117188 L 102.542969 21.460938 L 108.355469 20.664062 L 111.039062 20.929688 L 114.703125 21.992188 L 119.710938 24.914062 L 122.574219 27.574219 L 124.808594 30.230469 L 127.136719 33.6875 L 129.996094 39.003906 L 132.679688 45.382812 L 134.828125 51.761719 L 136.972656 59.734375 L 138.761719 68.242188 L 140.28125 77.542969 L 141.625 88.707031 L 142.429688 98.011719 L 142.964844 107.3125 L 130.535156 107.3125 L 129.820312 98.011719 L 129.015625 90.835938 L 127.671875 82.0625 L 126.332031 75.683594 L 124.988281 70.632812 L 122.484375 63.722656 L 120.339844 59.46875 L 117.65625 55.75 L 115.0625 53.355469 L 112.109375 51.761719 L 110.320312 51.230469 L 105.582031 51.230469 L 101.289062 53.089844 L 98.785156 55.21875 L 96.996094 57.34375 L 94.492188 61.332031 L 92.972656 64.519531 L 92.078125 66.644531 L 89.394531 74.886719 L 87.605469 82.328125 L 86.621094 87.378906 L 85.371094 95.351562 L 84.476562 102.53125 L 83.492188 113.160156 L 82.953125 121.136719 L 82.238281 139.210938 L 82.148438 187.054688 L 82.417969 197.152344 L 82.953125 208.050781 L 83.671875 217.621094 L 84.742188 227.722656 L 85.816406 235.429688 L 87.695312 245.796875 L 89.304688 252.707031 L 90.558594 257.226562 L 92.972656 264.402344 L 93.957031 266.792969 L 96.28125 271.578125 L 98.695312 275.300781 L 101.648438 278.488281 L 103.882812 280.082031 L 107.460938 281.414062 L 112.019531 281.414062 L 117.386719 279.816406 L 120.785156 277.691406 L 123.109375 275.566406 L 124.632812 273.703125 L 126.507812 270.78125 L 127.851562 268.121094 L 129.101562 265.199219 L 130.625 260.679688 L 130.625 197.152344 L 108.535156 196.886719 L 108.535156 167.117188 L 142.875 166.851562 L 142.964844 270.78125 L 141.085938 277.957031 L 138.761719 284.867188 L 136.527344 290.183594 L 134.199219 294.703125 L 130.890625 299.753906 L 128.207031 302.941406 L 124.09375 306.664062 L 120.339844 309.054688 L 116.402344 310.652344 L 112.914062 311.449219 L 108.800781 311.714844 L 105.136719 311.183594 L 101.199219 309.585938 L 98.070312 307.460938 L 95.207031 304.804688 L 92.34375 301.347656 L 88.769531 295.765625 L 86.441406 291.246094 L 84.027344 285.664062 L 81.613281 279.019531 L 79.46875 271.84375 L 78.035156 266.261719 L 76.605469 259.882812 L 75.085938 251.910156 L 73.652344 242.871094 L 72.582031 234.632812 L 71.597656 225.328125 L 70.882812 216.558594 L 70.164062 204.597656 L 69.808594 195.027344 L 69.628906 186.789062 Z M 69.628906 145.324219 "/>
<path style=" stroke:none;fill-rule:nonzero;fill:rgb(96.862745%,70.196078%,16.862745%);fill-opacity:1;" d="M 146.824219 145.324219 L 146.914062 145.058594 L 146.914062 139.742188 L 147.273438 127.78125 L 148.167969 111.300781 L 149.328125 97.746094 L 150.582031 87.113281 L 151.386719 81.53125 L 152.726562 73.558594 L 153.890625 67.710938 L 156.84375 55.75 L 160.597656 44.585938 L 162.65625 39.800781 L 164.980469 35.28125 L 168.289062 30.230469 L 169.808594 28.371094 L 174.460938 24.117188 L 179.738281 21.460938 L 185.550781 20.664062 L 188.234375 20.929688 L 191.898438 21.992188 L 196.910156 24.914062 L 199.769531 27.574219 L 202.007812 30.230469 L 204.332031 33.6875 L 207.195312 39.003906 L 209.875 45.382812 L 212.023438 51.761719 L 214.167969 59.734375 L 215.957031 68.242188 L 217.476562 77.542969 L 218.820312 88.707031 L 219.625 98.011719 L 220.160156 107.3125 L 207.730469 107.3125 L 207.015625 98.011719 L 206.210938 90.835938 L 204.867188 82.0625 L 203.527344 75.683594 L 202.183594 70.632812 L 199.679688 63.722656 L 197.535156 59.46875 L 194.851562 55.75 L 192.257812 53.355469 L 189.304688 51.761719 L 187.519531 51.230469 L 182.777344 51.230469 L 178.484375 53.089844 L 175.980469 55.21875 L 174.191406 57.34375 L 171.6875 61.332031 L 170.167969 64.519531 L 169.273438 66.644531 L 166.589844 74.886719 L 164.800781 82.328125 L 163.816406 87.378906 L 162.566406 95.351562 L 161.671875 102.53125 L 160.6875 113.160156 L 160.152344 121.136719 L 159.433594 139.210938 L 159.347656 187.054688 L 159.613281 197.152344 L 160.152344 208.050781 L 160.867188 217.621094 L 161.941406 227.722656 L 163.011719 235.429688 L 164.890625 245.796875 L 166.5 252.707031 L 167.753906 257.226562 L 170.167969 264.402344 L 171.152344 266.792969 L 173.476562 271.578125 L 175.890625 275.300781 L 178.84375 278.488281 L 181.078125 280.082031 L 184.65625 281.414062 L 189.21875 281.414062 L 194.582031 279.816406 L 197.980469 277.691406 L 200.308594 275.566406 L 201.828125 273.703125 L 203.707031 270.78125 L 205.046875 268.121094 L 206.300781 265.199219 L 207.820312 260.679688 L 207.820312 197.152344 L 185.730469 196.886719 L 185.730469 167.117188 L 220.070312 166.851562 L 220.160156 270.78125 L 218.285156 277.957031 L 215.957031 284.867188 L 213.722656 290.183594 L 211.398438 294.703125 L 208.085938 299.753906 L 205.40625 302.941406 L 201.289062 306.664062 L 197.535156 309.054688 L 193.597656 310.652344 L 190.113281 311.449219 L 185.996094 311.714844 L 182.332031 311.183594 L 178.394531 309.585938 L 175.265625 307.460938 L 172.402344 304.804688 L 169.542969 301.347656 L 165.964844 295.765625 L 163.640625 291.246094 L 161.222656 285.664062 L 158.808594 279.019531 L 156.664062 271.84375 L 155.230469 266.261719 L 153.800781 259.882812 L 152.28125 251.910156 L 150.851562 242.871094 L 149.777344 234.632812 L 148.792969 225.328125 L 148.078125 216.558594 L 147.363281 204.597656 L 147.003906 195.027344 L 146.824219 186.789062 Z M 146.824219 145.324219 "/>
<path style=" stroke:none;fill-rule:nonzero;fill:rgb(14.509804%,36.078431%,60%);fill-opacity:1;" d="M 224.019531 284.335938 L 224.109375 284.289062 L 224.109375 283.160156 L 224.378906 281.371094 L 225.003906 279.113281 L 225.632812 277.558594 L 227.242188 274.78125 L 229.476562 272.097656 L 231.800781 270.027344 L 233.5 268.804688 L 235.023438 267.863281 L 238.507812 266.121094 L 240.746094 265.226562 L 243.160156 264.429688 L 246.113281 263.628906 L 248.257812 263.15625 L 253.085938 262.40625 L 256.664062 262.074219 L 259.4375 261.933594 L 265.429688 261.933594 L 269.007812 262.121094 L 271.601562 262.359375 L 274.460938 262.734375 L 276.875 263.15625 L 281.082031 264.191406 L 284.835938 265.511719 L 286.535156 266.265625 L 289.21875 267.722656 L 291.277344 269.132812 L 292.707031 270.359375 L 294.316406 272.097656 L 295.746094 274.21875 L 296.820312 276.617188 L 297.355469 278.640625 L 284.835938 278.640625 L 284.210938 276.757812 L 283.496094 275.300781 L 282.152344 273.371094 L 280.8125 272.003906 L 278.933594 270.640625 L 277.234375 269.746094 L 274.910156 268.851562 L 272.851562 268.289062 L 270.707031 267.863281 L 268.648438 267.582031 L 264.714844 267.300781 L 260.152344 267.300781 L 258.453125 267.394531 L 254.964844 267.769531 L 253.085938 268.097656 L 250.40625 268.757812 L 248.527344 269.371094 L 246.289062 270.3125 L 244.769531 271.109375 L 242.890625 272.335938 L 241.550781 273.417969 L 240.03125 274.96875 L 239.136719 276.148438 L 238.332031 277.464844 L 237.613281 279.015625 L 237.078125 280.664062 L 236.722656 282.40625 L 236.542969 284.101562 L 236.542969 291.394531 L 236.722656 293.089844 L 237.167969 295.066406 L 238.332031 297.9375 L 240.03125 300.429688 L 241.996094 302.40625 L 243.875 303.820312 L 244.949219 304.476562 L 246.378906 305.230469 L 248.617188 306.171875 L 251.835938 307.113281 L 253.714844 307.488281 L 256.574219 307.867188 L 259.527344 308.054688 L 263.460938 308.054688 L 266.949219 307.867188 L 269.273438 307.628906 L 271.691406 307.253906 L 275 306.453125 L 277.054688 305.699219 L 278.84375 304.808594 L 280.1875 303.914062 L 281.082031 303.160156 L 282.421875 301.699219 L 283.496094 300.101562 L 284.300781 298.453125 L 284.835938 296.851562 L 297.355469 296.851562 L 296.820312 298.734375 L 296.015625 300.570312 L 295.210938 301.9375 L 293.957031 303.582031 L 292.527344 305.042969 L 290.472656 306.6875 L 288.773438 307.773438 L 286.535156 308.949219 L 284.480469 309.84375 L 282.242188 310.640625 L 278.933594 311.582031 L 276.789062 312.054688 L 274.460938 312.476562 L 271.691406 312.855469 L 268.203125 313.183594 L 264.445312 313.371094 L 260.957031 313.417969 L 257.203125 313.324219 L 254.429688 313.136719 L 250.761719 312.714844 L 246.199219 311.867188 L 242.890625 310.972656 L 240.296875 310.078125 L 238.0625 309.136719 L 235.558594 307.867188 L 232.339844 305.796875 L 230.371094 304.195312 L 229.03125 302.878906 L 227.507812 301.042969 L 226.4375 299.394531 L 225.183594 296.757812 L 224.289062 293.417969 L 224.019531 290.828125 Z M 224.019531 284.335938 "/>
<path style=" stroke:none;fill-rule:nonzero;fill:rgb(96.862745%,70.196078%,16.862745%);fill-opacity:1;" d="M 224.019531 201.484375 L 224.109375 201.390625 L 224.109375 199.496094 L 224.46875 195.238281 L 225.363281 189.367188 L 226.523438 184.539062 L 227.777344 180.75 L 228.582031 178.761719 L 229.925781 175.921875 L 231.085938 173.839844 L 234.039062 169.578125 L 237.792969 165.601562 L 239.851562 163.898438 L 242.175781 162.289062 L 245.484375 160.488281 L 247.003906 159.828125 L 251.65625 158.3125 L 256.933594 157.367188 L 262.746094 157.082031 L 265.429688 157.175781 L 269.097656 157.554688 L 274.105469 158.597656 L 276.964844 159.542969 L 279.203125 160.488281 L 281.527344 161.71875 L 284.390625 163.613281 L 287.074219 165.886719 L 289.21875 168.160156 L 291.367188 171 L 293.152344 174.027344 L 294.675781 177.34375 L 296.015625 181.320312 L 296.820312 184.632812 L 297.355469 187.945312 L 284.925781 187.945312 L 284.210938 184.632812 L 283.40625 182.078125 L 282.0625 178.953125 L 280.722656 176.679688 L 279.382812 174.878906 L 276.875 172.417969 L 274.730469 170.90625 L 272.046875 169.578125 L 269.453125 168.726562 L 266.503906 168.160156 L 264.714844 167.96875 L 259.972656 167.96875 L 255.679688 168.632812 L 253.175781 169.390625 L 251.386719 170.148438 L 248.882812 171.566406 L 247.363281 172.703125 L 246.46875 173.460938 L 243.785156 176.394531 L 241.996094 179.046875 L 241.015625 180.84375 L 239.761719 183.6875 L 238.867188 186.242188 L 237.882812 190.03125 L 237.347656 192.871094 L 236.632812 199.308594 L 236.542969 216.351562 L 236.808594 219.949219 L 237.347656 223.828125 L 238.0625 227.238281 L 239.136719 230.835938 L 240.207031 233.582031 L 242.085938 237.273438 L 243.695312 239.734375 L 244.949219 241.34375 L 247.363281 243.902344 L 248.347656 244.753906 L 250.671875 246.457031 L 253.085938 247.785156 L 256.039062 248.917969 L 258.273438 249.488281 L 261.851562 249.960938 L 266.414062 249.960938 L 271.777344 249.394531 L 275.175781 248.636719 L 277.503906 247.878906 L 279.023438 247.214844 L 280.902344 246.175781 L 282.242188 245.226562 L 283.496094 244.1875 L 285.015625 242.578125 L 285.015625 219.949219 L 262.925781 219.851562 L 262.925781 209.25 L 297.269531 209.15625 L 297.355469 246.175781 L 295.480469 248.730469 L 293.152344 251.191406 L 290.917969 253.085938 L 288.59375 254.695312 L 285.285156 256.492188 L 282.601562 257.628906 L 278.488281 258.957031 L 274.730469 259.808594 L 270.796875 260.375 L 267.308594 260.660156 L 263.195312 260.753906 L 259.527344 260.566406 L 255.589844 259.996094 L 252.460938 259.238281 L 249.597656 258.292969 L 246.738281 257.0625 L 243.160156 255.074219 L 240.835938 253.464844 L 238.421875 251.476562 L 236.003906 249.109375 L 233.859375 246.550781 L 232.429688 244.5625 L 230.996094 242.292969 L 229.476562 239.453125 L 228.046875 236.234375 L 226.972656 233.296875 L 225.988281 229.984375 L 225.273438 226.859375 L 224.558594 222.597656 L 224.199219 219.191406 L 224.019531 216.253906 Z M 224.019531 201.484375 "/>
<path style=" stroke:none;fill-rule:nonzero;fill:rgb(6.27451%,58.823529%,28.235294%);fill-opacity:1;" d="M 301.21875 313.371094 L 301.296875 313.320312 L 333.027344 261.933594 L 342.664062 261.933594 L 374.554688 313.417969 L 363.347656 313.417969 L 355.355469 299.980469 L 320.335938 299.980469 L 312.5 313.371094 L 301.21875 313.371094 L 323.703125 294.421875 L 352.144531 294.371094 L 337.964844 270.34375 L 337.808594 270.296875 L 337.648438 270.441406 L 323.625 294.371094 L 323.703125 294.421875 Z M 301.21875 313.371094 "/>
<path style=" stroke:none;fill-rule:nonzero;fill:rgb(14.509804%,36.078431%,60%);fill-opacity:1;" d="M 301.21875 202.191406 L 301.304688 202.09375 L 301.304688 199.820312 L 301.574219 196.21875 L 302.199219 191.671875 L 302.828125 188.542969 L 304.4375 182.953125 L 306.671875 177.550781 L 308.996094 173.382812 L 310.695312 170.917969 L 312.21875 169.023438 L 315.707031 165.515625 L 317.941406 163.714844 L 320.355469 162.105469 L 323.308594 160.492188 L 325.453125 159.546875 L 330.285156 158.027344 L 333.859375 157.367188 L 336.632812 157.082031 L 342.625 157.082031 L 346.203125 157.460938 L 348.796875 157.933594 L 351.65625 158.691406 L 354.074219 159.546875 L 358.277344 161.628906 L 362.03125 164.285156 L 363.730469 165.800781 L 366.414062 168.738281 L 368.472656 171.582031 L 369.902344 174.042969 L 371.511719 177.550781 L 372.945312 181.816406 L 374.015625 186.648438 L 374.554688 190.722656 L 362.03125 190.722656 L 361.40625 186.933594 L 360.691406 183.996094 L 359.347656 180.109375 L 358.007812 177.359375 L 356.128906 174.613281 L 354.429688 172.8125 L 352.105469 171.011719 L 350.046875 169.875 L 347.902344 169.023438 L 345.84375 168.453125 L 341.910156 167.882812 L 337.347656 167.882812 L 335.648438 168.074219 L 332.160156 168.832031 L 330.285156 169.496094 L 327.601562 170.820312 L 325.722656 172.054688 L 323.484375 173.949219 L 321.964844 175.558594 L 320.085938 178.023438 L 318.746094 180.203125 L 317.226562 183.332031 L 316.332031 185.699219 L 315.527344 188.355469 L 314.8125 191.480469 L 314.273438 194.796875 L 313.917969 198.304688 L 313.738281 201.714844 L 313.738281 216.40625 L 313.917969 219.816406 L 314.363281 223.796875 L 315.527344 229.578125 L 317.226562 234.597656 L 319.195312 238.578125 L 321.070312 241.421875 L 322.144531 242.75 L 323.574219 244.265625 L 325.8125 246.160156 L 329.03125 248.054688 L 330.910156 248.8125 L 333.769531 249.570312 L 336.722656 249.953125 L 340.65625 249.953125 L 344.144531 249.570312 L 346.472656 249.097656 L 348.886719 248.339844 L 352.195312 246.730469 L 354.25 245.214844 L 356.039062 243.414062 L 357.382812 241.613281 L 358.277344 240.09375 L 359.617188 237.15625 L 360.691406 233.9375 L 361.496094 230.621094 L 362.03125 227.398438 L 374.554688 227.398438 L 374.015625 231.1875 L 373.210938 234.882812 L 372.40625 237.632812 L 371.15625 240.949219 L 369.722656 243.886719 L 367.667969 247.203125 L 365.96875 249.382812 L 363.730469 251.75 L 361.675781 253.550781 L 359.4375 255.164062 L 356.128906 257.058594 L 353.984375 258.007812 L 351.65625 258.859375 L 348.886719 259.617188 L 345.398438 260.28125 L 341.640625 260.660156 L 338.152344 260.753906 L 334.398438 260.566406 L 331.625 260.1875 L 327.957031 259.332031 L 323.398438 257.628906 L 320.085938 255.828125 L 317.496094 254.027344 L 315.257812 252.132812 L 312.753906 249.570312 L 309.535156 245.402344 L 307.566406 242.179688 L 306.226562 239.527344 L 304.707031 235.832031 L 303.632812 232.515625 L 302.378906 227.207031 L 301.484375 220.480469 L 301.21875 215.265625 Z M 301.21875 202.191406 "/>
<path style=" stroke:none;fill-rule:nonzero;fill:rgb(14.509804%,36.078431%,60%);fill-opacity:1;" d="M 378.414062 147.300781 L 378.503906 147.035156 L 378.503906 140.648438 L 378.769531 130.539062 L 379.398438 117.769531 L 380.023438 108.988281 L 381.632812 93.292969 L 383.867188 78.128906 L 386.195312 66.421875 L 387.894531 59.503906 L 389.414062 54.183594 L 392.902344 44.339844 L 395.136719 39.285156 L 397.550781 34.761719 L 400.503906 30.242188 L 402.648438 27.582031 L 407.480469 23.324219 L 411.054688 21.460938 L 413.828125 20.664062 L 419.820312 20.664062 L 423.398438 21.726562 L 425.992188 23.058594 L 428.855469 25.1875 L 431.269531 27.582031 L 435.472656 33.433594 L 439.226562 40.882812 L 440.925781 45.140625 L 443.609375 53.386719 L 445.667969 61.367188 L 447.097656 68.285156 L 448.707031 78.128906 L 450.140625 90.101562 L 451.210938 103.667969 L 451.75 115.109375 L 439.226562 115.109375 L 438.601562 104.464844 L 437.886719 96.21875 L 436.546875 85.3125 L 435.203125 77.597656 L 433.324219 69.882812 L 431.625 64.824219 L 429.300781 59.769531 L 427.246094 56.578125 L 425.097656 54.183594 L 423.039062 52.589844 L 419.105469 50.992188 L 414.542969 50.992188 L 412.84375 51.523438 L 409.355469 53.652344 L 407.480469 55.515625 L 404.796875 59.238281 L 402.917969 62.699219 L 400.683594 68.019531 L 399.160156 72.542969 L 397.285156 79.457031 L 395.941406 85.578125 L 394.421875 94.355469 L 393.527344 101.007812 L 392.722656 108.457031 L 392.007812 117.238281 L 391.46875 126.546875 L 391.113281 136.390625 L 390.933594 145.96875 L 390.933594 187.207031 L 391.113281 196.785156 L 391.558594 207.957031 L 392.722656 224.1875 L 394.421875 238.285156 L 396.390625 249.460938 L 398.265625 257.441406 L 399.339844 261.164062 L 400.773438 265.421875 L 403.007812 270.742188 L 406.226562 276.0625 L 408.105469 278.191406 L 410.96875 280.320312 L 413.917969 281.386719 L 417.855469 281.386719 L 421.339844 280.320312 L 423.667969 278.992188 L 426.082031 276.863281 L 429.390625 272.339844 L 431.449219 268.082031 L 433.234375 263.027344 L 434.578125 257.972656 L 435.472656 253.714844 L 436.8125 245.46875 L 437.886719 236.425781 L 438.691406 227.113281 L 439.226562 218.066406 L 451.75 218.066406 L 451.210938 228.707031 L 450.40625 239.085938 L 449.601562 246.800781 L 448.351562 256.109375 L 446.917969 264.359375 L 444.863281 273.667969 L 443.164062 279.789062 L 440.925781 286.441406 L 438.871094 291.496094 L 436.636719 296.015625 L 433.324219 301.339844 L 431.179688 304 L 428.855469 306.394531 L 426.082031 308.523438 L 422.59375 310.382812 L 418.835938 311.449219 L 415.347656 311.714844 L 411.59375 311.183594 L 408.820312 310.117188 L 405.152344 307.722656 L 400.59375 302.933594 L 397.285156 297.878906 L 394.691406 292.824219 L 392.453125 287.503906 L 389.949219 280.320312 L 386.730469 268.613281 L 384.761719 259.570312 L 383.421875 252.121094 L 381.902344 241.746094 L 380.828125 232.433594 L 379.574219 217.535156 L 378.679688 198.644531 L 378.414062 184.011719 Z M 378.414062 147.300781 "/>
<path style=" stroke:none;fill-rule:nonzero;fill:rgb(14.509804%,36.078431%,60%);fill-opacity:1;" d="M 455.609375 147.300781 L 455.699219 147.035156 L 455.699219 140.648438 L 455.964844 130.539062 L 456.59375 117.769531 L 457.21875 108.988281 L 458.828125 93.292969 L 461.066406 78.128906 L 463.390625 66.421875 L 465.089844 59.503906 L 466.609375 54.183594 L 470.097656 44.339844 L 472.332031 39.285156 L 474.746094 34.761719 L 477.699219 30.242188 L 479.847656 27.582031 L 484.675781 23.324219 L 488.253906 21.460938 L 491.023438 20.664062 L 497.015625 20.664062 L 500.59375 21.726562 L 503.1875 23.058594 L 506.050781 25.1875 L 508.464844 27.582031 L 512.667969 33.433594 L 516.425781 40.882812 L 518.125 45.140625 L 520.804688 53.386719 L 522.863281 61.367188 L 524.292969 68.285156 L 525.90625 78.128906 L 527.335938 90.101562 L 528.410156 103.667969 L 528.945312 115.109375 L 516.425781 115.109375 L 515.796875 104.464844 L 515.082031 96.21875 L 513.742188 85.3125 L 512.398438 77.597656 L 510.523438 69.882812 L 508.824219 64.824219 L 506.496094 59.769531 L 504.441406 56.578125 L 502.292969 54.183594 L 500.238281 52.589844 L 496.300781 50.992188 L 491.742188 50.992188 L 490.042969 51.523438 L 486.554688 53.652344 L 484.675781 55.515625 L 481.992188 59.238281 L 480.113281 62.699219 L 477.878906 68.019531 L 476.359375 72.542969 L 474.480469 79.457031 L 473.136719 85.578125 L 471.617188 94.355469 L 470.722656 101.007812 L 469.917969 108.457031 L 469.203125 117.238281 L 468.667969 126.546875 L 468.308594 136.390625 L 468.128906 145.96875 L 468.128906 187.207031 L 468.308594 196.785156 L 468.757812 207.957031 L 469.917969 224.1875 L 471.617188 238.285156 L 473.585938 249.460938 L 475.464844 257.441406 L 476.535156 261.164062 L 477.96875 265.421875 L 480.203125 270.742188 L 483.421875 276.0625 L 485.300781 278.191406 L 488.164062 280.320312 L 491.113281 281.386719 L 495.050781 281.386719 L 498.539062 280.320312 L 500.863281 278.992188 L 503.277344 276.863281 L 506.585938 272.339844 L 508.644531 268.082031 L 510.433594 263.027344 L 511.773438 257.972656 L 512.667969 253.714844 L 514.007812 245.46875 L 515.082031 236.425781 L 515.886719 227.113281 L 516.425781 218.066406 L 528.945312 218.066406 L 528.410156 228.707031 L 527.605469 239.085938 L 526.796875 246.800781 L 525.546875 256.109375 L 524.117188 264.359375 L 522.058594 273.667969 L 520.359375 279.789062 L 518.125 286.441406 L 516.066406 291.496094 L 513.832031 296.015625 L 510.523438 301.339844 L 508.375 304 L 506.050781 306.394531 L 503.277344 308.523438 L 499.789062 310.382812 L 496.035156 311.449219 L 492.546875 311.714844 L 488.789062 311.183594 L 486.015625 310.117188 L 482.351562 307.722656 L 477.789062 302.933594 L 474.480469 297.878906 L 471.886719 292.824219 L 469.648438 287.503906 L 467.144531 280.320312 L 463.925781 268.613281 L 461.957031 259.570312 L 460.617188 252.121094 L 459.097656 241.746094 L 458.023438 232.433594 L 456.773438 217.535156 L 455.878906 198.644531 L 455.609375 184.011719 Z M 455.609375 147.300781 "/>
<path style=" stroke:none;fill-rule:nonzero;fill:rgb(6.27451%,58.823529%,28.235294%);fill-opacity:1;" d="M 532.804688 311.441406 L 532.882812 311.167969 L 564.617188 20.664062 L 574.253906 20.664062 L 606.140625 311.714844 L 594.9375 311.714844 L 586.945312 235.738281 L 551.921875 235.738281 L 544.085938 311.441406 L 532.804688 311.441406 L 555.292969 204.3125 L 583.734375 204.039062 L 569.550781 68.214844 L 569.394531 67.941406 L 569.238281 68.761719 L 555.214844 204.039062 L 555.292969 204.3125 Z M 532.804688 311.441406 "/>
<path style=" stroke:none;fill-rule:nonzero;fill:rgb(6.27451%,58.823529%,28.235294%);fill-opacity:1;" d="M 610 314.371094 L 610.078125 314.371094 L 641.8125 314.113281 L 651.449219 314.113281 L 683.335938 314.371094 L 672.132812 314.371094 L 664.140625 314.304688 L 629.117188 314.304688 L 621.285156 314.371094 L 610 314.371094 L 632.488281 314.277344 L 660.929688 314.273438 L 646.746094 314.15625 L 646.433594 314.15625 L 632.410156 314.273438 L 632.488281 314.277344 Z M 610 314.371094 "/>
<path style=" stroke:none;fill-rule:nonzero;fill:rgb(14.509804%,36.078431%,60%);fill-opacity:1;" d="M 610 150.734375 L 610.089844 150.476562 L 610.089844 144.292969 L 610.359375 134.496094 L 610.984375 122.121094 L 611.609375 113.613281 L 613.21875 98.402344 L 615.457031 83.707031 L 617.78125 72.363281 L 619.480469 65.660156 L 621 60.503906 L 624.488281 50.964844 L 626.726562 46.070312 L 629.140625 41.6875 L 632.089844 37.304688 L 634.238281 34.726562 L 639.066406 30.601562 L 642.644531 28.796875 L 645.417969 28.023438 L 651.410156 28.023438 L 654.988281 29.054688 L 657.578125 30.34375 L 660.441406 32.40625 L 662.855469 34.726562 L 667.058594 40.398438 L 670.816406 47.617188 L 672.515625 51.738281 L 675.199219 59.730469 L 677.253906 67.464844 L 678.6875 74.167969 L 680.296875 83.707031 L 681.726562 95.308594 L 682.800781 108.457031 L 683.335938 119.542969 L 670.816406 119.542969 L 670.191406 109.230469 L 669.476562 101.238281 L 668.132812 90.667969 L 666.792969 83.191406 L 664.914062 75.714844 L 663.214844 70.816406 L 660.890625 65.917969 L 658.832031 62.824219 L 656.6875 60.503906 L 654.628906 58.957031 L 650.695312 57.410156 L 646.132812 57.410156 L 644.433594 57.925781 L 640.945312 59.988281 L 639.066406 61.792969 L 636.382812 65.402344 L 634.507812 68.753906 L 632.269531 73.910156 L 630.75 78.292969 L 628.871094 84.996094 L 627.53125 90.925781 L 626.007812 99.433594 L 625.117188 105.878906 L 624.308594 113.097656 L 623.59375 121.605469 L 623.058594 130.628906 L 622.699219 140.167969 L 622.523438 149.445312 L 622.523438 189.40625 L 622.699219 198.6875 L 623.148438 209.515625 L 624.308594 225.242188 L 626.007812 238.90625 L 627.976562 249.730469 L 629.855469 257.464844 L 630.929688 261.074219 L 632.359375 265.199219 L 634.59375 270.355469 L 637.816406 275.511719 L 639.691406 277.574219 L 642.554688 279.636719 L 645.507812 280.667969 L 649.441406 280.667969 L 652.929688 279.636719 L 655.253906 278.347656 L 657.667969 276.285156 L 660.976562 271.902344 L 663.035156 267.777344 L 664.824219 262.878906 L 666.164062 257.980469 L 667.058594 253.855469 L 668.402344 245.863281 L 669.476562 237.101562 L 670.28125 228.078125 L 670.816406 219.3125 L 683.335938 219.3125 L 682.800781 229.625 L 681.996094 239.679688 L 681.191406 247.152344 L 679.9375 256.175781 L 678.507812 264.167969 L 676.449219 273.191406 L 674.75 279.121094 L 672.515625 285.566406 L 670.457031 290.464844 L 668.222656 294.847656 L 664.914062 300.003906 L 662.765625 302.582031 L 660.441406 304.902344 L 657.667969 306.964844 L 654.179688 308.769531 L 650.425781 309.800781 L 646.9375 310.058594 L 643.179688 309.542969 L 640.410156 308.511719 L 636.742188 306.191406 L 632.179688 301.550781 L 628.871094 296.652344 L 626.277344 291.753906 L 624.042969 286.597656 L 621.539062 279.636719 L 618.316406 268.292969 L 616.351562 259.527344 L 615.007812 252.308594 L 613.488281 242.253906 L 612.414062 233.234375 L 611.164062 218.796875 L 610.269531 200.492188 L 610 186.3125 Z M 610 150.734375 "/>
<path style=" stroke:none;fill-rule:nonzero;fill:rgb(96.862745%,70.196078%,16.862745%);fill-opacity:1;" d="M 610 311.347656 L 610.089844 311.347656 L 610.089844 311.34375 L 610.449219 311.332031 L 611.34375 311.316406 L 612.503906 311.304688 L 613.757812 311.296875 L 614.5625 311.292969 L 615.902344 311.285156 L 617.066406 311.277344 L 620.015625 311.269531 L 623.773438 311.257812 L 625.832031 311.253906 L 628.15625 311.25 L 631.464844 311.246094 L 632.984375 311.242188 L 637.636719 311.242188 L 642.914062 311.238281 L 655.074219 311.238281 L 660.085938 311.242188 L 662.945312 311.242188 L 665.183594 311.246094 L 667.507812 311.25 L 670.367188 311.253906 L 673.050781 311.257812 L 675.199219 311.265625 L 677.34375 311.273438 L 679.132812 311.28125 L 680.652344 311.289062 L 681.996094 311.296875 L 682.800781 311.304688 L 683.335938 311.3125 L 670.90625 311.3125 L 670.191406 311.304688 L 669.386719 311.300781 L 668.042969 311.292969 L 666.703125 311.285156 L 665.359375 311.28125 L 662.855469 311.277344 L 660.710938 311.273438 L 658.027344 311.269531 L 655.433594 311.265625 L 641.660156 311.265625 L 639.15625 311.269531 L 637.367188 311.269531 L 634.863281 311.273438 L 633.34375 311.277344 L 632.449219 311.277344 L 629.765625 311.285156 L 627.976562 311.292969 L 626.992188 311.296875 L 625.742188 311.304688 L 624.847656 311.308594 L 623.863281 311.320312 L 623.328125 311.328125 L 622.609375 311.34375 L 622.523438 311.386719 L 622.789062 311.394531 L 623.328125 311.402344 L 624.042969 311.410156 L 625.117188 311.421875 L 626.1875 311.425781 L 628.066406 311.4375 L 629.675781 311.441406 L 630.929688 311.445312 L 633.34375 311.453125 L 634.328125 311.457031 L 636.652344 311.460938 L 639.066406 311.464844 L 642.019531 311.464844 L 644.253906 311.46875 L 657.757812 311.46875 L 661.15625 311.464844 L 663.484375 311.464844 L 665.003906 311.460938 L 666.882812 311.460938 L 668.222656 311.457031 L 669.476562 311.453125 L 670.996094 311.449219 L 670.996094 311.394531 L 648.90625 311.394531 L 648.90625 311.367188 L 683.246094 311.367188 L 683.335938 311.460938 L 681.457031 311.464844 L 679.132812 311.472656 L 676.898438 311.476562 L 674.574219 311.480469 L 671.261719 311.484375 L 668.582031 311.488281 L 664.464844 311.492188 L 660.710938 311.492188 L 656.773438 311.496094 L 645.507812 311.496094 L 641.570312 311.492188 L 638.441406 311.492188 L 635.578125 311.488281 L 632.71875 311.484375 L 629.140625 311.480469 L 626.816406 311.476562 L 624.398438 311.472656 L 621.984375 311.464844 L 619.839844 311.460938 L 618.40625 311.453125 L 616.976562 311.449219 L 615.457031 311.441406 L 614.027344 311.433594 L 612.953125 311.425781 L 611.96875 311.417969 L 610.539062 311.402344 L 610.179688 311.390625 L 610 311.382812 Z M 610 311.347656 "/>
<path style=" stroke:none;fill-rule:nonzero;fill:rgb(83.921569%,15.686275%,22.352941%);fill-opacity:1;" d="M 610 312.675781 L 683.335938 312.675781 L 683.335938 312.703125 L 652.773438 312.703125 L 652.773438 312.933594 L 640.476562 312.933594 L 640.476562 312.703125 L 610 312.703125 Z M 610 312.675781 "/>
<g style="fill:rgb(0%,0%,0%);fill-opacity:1;">
  <use xlink:href="#glyph0-1" x="21.957031" y="318.198242"/>
  <use xlink:href="#glyph0-2" x="27.291016" y="318.198242"/>
  <use xlink:href="#glyph0-1" x="29.958008" y="318.198242"/>
</g>
<g style="fill:rgb(0%,0%,0%);fill-opacity:1;">
  <use xlink:href="#glyph0-1" x="21.957031" y="241.06543"/>
  <use xlink:href="#glyph0-2" x="27.291016" y="241.06543"/>
  <use xlink:href="#glyph0-3" x="29.958008" y="241.06543"/>
</g>
<g style="fill:rgb(0%,0%,0%);fill-opacity:1;">
  <use xlink:href="#glyph0-4" x="21.957031" y="163.932617"/>
  <use xlink:href="#glyph0-2" x="27.291016" y="163.932617"/>
  <use xlink:href="#glyph0-1" x="29.958008" y="163.932617"/>
</g>
<g style="fill:rgb(0%,0%,0%);fill-opacity:1;">
  <use xlink:href="#glyph0-4" x="21.957031" y="86.799805"/>
  <use xlink:href="#glyph0-2" x="27.291016" y="86.799805"/>
  <use xlink:href="#glyph0-3" x="29.958008" y="86.799805"/>
</g>
<g style="fill:rgb(0%,0%,0%);fill-opacity:1;">
  <use xlink:href="#glyph0-5" x="21.957031" y="9.670898"/>
  <use xlink:href="#glyph0-2" x="27.291016" y="9.670898"/>
  <use xlink:href="#glyph0-1" x="29.958008" y="9.670898"/>
</g>
<g style="fill:rgb(0%,0%,0%);fill-opacity:1;">
  <use xlink:href="#glyph0-4" x="103.296875" y="338.19043"/>
</g>
<g style="fill:rgb(0%,0%,0%);fill-opacity:1;">
  <use xlink:href="#glyph0-5" x="180.492188" y="338.19043"/>
</g>
<g style="fill:rgb(0%,0%,0%);fill-opacity:1;">
  <use xlink:href="#glyph0-6" x="257.6875" y="338.19043"/>
</g>
<g style="fill:rgb(0%,0%,0%);fill-opacity:1;">
  <use xlink:href="#glyph0-7" x="334.886719" y="338.19043"/>
</g>
<g style="fill:rgb(0%,0%,0%);fill-opacity:1;">
  <use xlink:href="#glyph0-3" x="412.082031" y="338.19043"/>
</g>
<g style="fill:rgb(0%,0%,0%);fill-opacity:1;">
  <use xlink:href="#glyph0-8" x="489.277344" y="338.19043"/>
</g>
<g style="fill:rgb(0%,0%,0%);fill-opacity:1;">
  <use xlink:href="#glyph0-9" x="566.472656" y="338.19043"/>
</g>
<g style="fill:rgb(0%,0%,0%);fill-opacity:1;">
  <use xlink:href="#glyph0-10" x="643.667969" y="338.19043"/>
</g>
<g style="fill:rgb(0%,0%,0%);fill-opacity:1;">
  <use xlink:href="#glyph1-1" x="14.412109" y="178.015625"/>
  <use xlink:href="#glyph1-2" x="14.412109" y="170.011719"/>
  <use xlink:href="#glyph1-3" x="14.412109" y="167.347656"/>
  <use xlink:href="#glyph1-4" x="14.412109" y="164.011719"/>
</g>
</g>
</svg>
