<?xml version="1.0" encoding="UTF-8"?>
<svg xmlns="http://www.w3.org/2000/svg" xmlns:xlink="http://www.w3.org/1999/xlink" width="720pt" height="360pt" viewBox="0 0 720 360" version="1.1">
<defs>
<g>
<symbol overflow="visible" id="glyph0-0">
<path style="stroke:none;" d=""/>
</symbol>
<symbol overflow="visible" id="glyph0-1">
<path style="stroke:none;" d="M 2.640625 -6.796875 C 2 -6.796875 1.421875 -6.53125 1.078125 -6.046875 C 0.640625 -5.453125 0.40625 -4.546875 0.40625 -3.296875 C 0.40625 -1 1.1875 0.21875 2.640625 0.21875 C 4.078125 0.21875 4.859375 -1 4.859375 -3.234375 C 4.859375 -4.5625 4.65625 -5.4375 4.203125 -6.046875 C 3.84375 -6.53125 3.28125 -6.796875 2.640625 -6.796875 Z M 2.640625 -6.046875 C 3.546875 -6.046875 4 -5.125 4 -3.3125 C 4 -1.375 3.5625 -0.484375 2.625 -0.484375 C 1.734375 -0.484375 1.28125 -1.421875 1.28125 -3.28125 C 1.28125 -5.140625 1.734375 -6.046875 2.640625 -6.046875 Z M 2.640625 -6.046875 "/>
</symbol>
<symbol overflow="visible" id="glyph0-2">
<path style="stroke:none;" d="M 1.828125 -1 L 0.828125 -1 L 0.828125 0 L 1.828125 0 Z M 1.828125 -1 "/>
</symbol>
<symbol overflow="visible" id="glyph0-3">
<path style="stroke:none;" d="M 4.5625 -6.796875 L 1.0625 -6.796875 L 0.546875 -3.09375 L 1.328125 -3.09375 C 1.71875 -3.5625 2.046875 -3.734375 2.578125 -3.734375 C 3.484375 -3.734375 4.0625 -3.109375 4.0625 -2.09375 C 4.0625 -1.125 3.484375 -0.53125 2.578125 -0.53125 C 1.828125 -0.53125 1.375 -0.90625 1.1875 -1.671875 L 0.328125 -1.671875 C 0.453125 -1.109375 0.546875 -0.84375 0.75 -0.59375 C 1.125 -0.078125 1.828125 0.21875 2.59375 0.21875 C 3.96875 0.21875 4.921875 -0.78125 4.921875 -2.21875 C 4.921875 -3.5625 4.03125 -4.484375 2.71875 -4.484375 C 2.25 -4.484375 1.859375 -4.359375 1.46875 -4.0625 L 1.734375 -5.96875 L 4.5625 -5.96875 Z M 4.5625 -6.796875 "/>
</symbol>
<symbol overflow="visible" id="glyph0-4">
<path style="stroke:none;" d="M 2.484375 -4.84375 L 2.484375 0 L 3.328125 0 L 3.328125 -6.796875 L 2.765625 -6.796875 C 2.46875 -5.75 2.28125 -5.609375 0.984375 -5.453125 L 0.984375 -4.84375 Z M 2.484375 -4.84375 "/>
</symbol>
<symbol overflow="visible" id="glyph0-5">
<path style="stroke:none;" d="M 4.859375 -0.828125 L 1.28125 -0.828125 C 1.359375 -1.390625 1.671875 -1.75 2.5 -2.234375 L 3.46875 -2.75 C 4.40625 -3.265625 4.90625 -3.96875 4.90625 -4.8125 C 4.90625 -5.375 4.671875 -5.90625 4.265625 -6.265625 C 3.859375 -6.625 3.375 -6.796875 2.71875 -6.796875 C 1.859375 -6.796875 1.21875 -6.5 0.84375 -5.921875 C 0.609375 -5.5625 0.5 -5.125 0.484375 -4.4375 L 1.328125 -4.4375 C 1.359375 -4.90625 1.40625 -5.1875 1.53125 -5.40625 C 1.75 -5.8125 2.1875 -6.0625 2.703125 -6.0625 C 3.46875 -6.0625 4.03125 -5.515625 4.03125 -4.78125 C 4.03125 -4.25 3.71875 -3.796875 3.125 -3.4375 L 2.234375 -2.9375 C 0.8125 -2.140625 0.40625 -1.5 0.328125 0 L 4.859375 0 Z M 4.859375 -0.828125 "/>
</symbol>
<symbol overflow="visible" id="glyph0-6">
<path style="stroke:none;" d="M 2.125 -3.125 L 2.578125 -3.125 C 3.515625 -3.125 3.984375 -2.703125 3.984375 -1.890625 C 3.984375 -1.03125 3.46875 -0.53125 2.578125 -0.53125 C 1.65625 -0.53125 1.203125 -0.984375 1.15625 -1.96875 L 0.3125 -1.96875 C 0.34375 -1.421875 0.4375 -1.078125 0.609375 -0.765625 C 0.953125 -0.109375 1.625 0.21875 2.546875 0.21875 C 3.953125 0.21875 4.859375 -0.609375 4.859375 -1.90625 C 4.859375 -2.765625 4.515625 -3.25 3.703125 -3.515625 C 4.34375 -3.765625 4.65625 -4.25 4.65625 -4.9375 C 4.65625 -6.109375 3.875 -6.796875 2.578125 -6.796875 C 1.203125 -6.796875 0.484375 -6.046875 0.453125 -4.609375 L 1.296875 -4.609375 C 1.3125 -5.015625 1.34375 -5.25 1.453125 -5.453125 C 1.640625 -5.828125 2.0625 -6.0625 2.59375 -6.0625 C 3.34375 -6.0625 3.796875 -5.625 3.796875 -4.90625 C 3.796875 -4.421875 3.609375 -4.140625 3.25 -3.984375 C 3.015625 -3.890625 2.71875 -3.84375 2.125 -3.84375 Z M 2.125 -3.125 "/>
</symbol>
<symbol overflow="visible" id="glyph0-7">
<path style="stroke:none;" d="M 3.140625 -1.625 L 3.140625 0 L 3.984375 0 L 3.984375 -1.625 L 4.984375 -1.625 L 4.984375 -2.390625 L 3.984375 -2.390625 L 3.984375 -6.796875 L 3.359375 -6.796875 L 0.265625 -2.515625 L 0.265625 -1.625 Z M 3.140625 -2.390625 L 1 -2.390625 L 3.140625 -5.359375 Z M 3.140625 -2.390625 "/>
</symbol>
<symbol overflow="visible" id="glyph0-8">
<path style="stroke:none;" d="M 4.78125 -5.03125 C 4.609375 -6.140625 3.890625 -6.796875 2.84375 -6.796875 C 2.09375 -6.796875 1.421875 -6.4375 1.03125 -5.828125 C 0.609375 -5.171875 0.40625 -4.34375 0.40625 -3.09375 C 0.40625 -1.953125 0.578125 -1.234375 0.984375 -0.625 C 1.359375 -0.078125 1.953125 0.21875 2.703125 0.21875 C 3.984375 0.21875 4.921875 -0.734375 4.921875 -2.078125 C 4.921875 -3.34375 4.0625 -4.234375 2.84375 -4.234375 C 2.171875 -4.234375 1.640625 -3.96875 1.28125 -3.46875 C 1.28125 -5.125 1.828125 -6.046875 2.796875 -6.046875 C 3.390625 -6.046875 3.796875 -5.671875 3.9375 -5.03125 Z M 2.734375 -3.484375 C 3.546875 -3.484375 4.0625 -2.921875 4.0625 -2 C 4.0625 -1.15625 3.484375 -0.53125 2.703125 -0.53125 C 1.921875 -0.53125 1.328125 -1.1875 1.328125 -2.046875 C 1.328125 -2.890625 1.90625 -3.484375 2.734375 -3.484375 Z M 2.734375 -3.484375 "/>
</symbol>
<symbol overflow="visible" id="glyph0-9">
<path style="stroke:none;" d="M 4.984375 -6.796875 L 0.4375 -6.796875 L 0.4375 -5.96875 L 4.109375 -5.96875 C 2.5 -3.65625 1.828125 -2.234375 1.328125 0 L 2.21875 0 C 2.59375 -2.171875 3.453125 -4.046875 4.984375 -6.09375 Z M 4.984375 -6.796875 "/>
</symbol>
<symbol overflow="visible" id="glyph0-10">
<path style="stroke:none;" d="M 3.75 -3.578125 C 4.453125 -4 4.6875 -4.34375 4.6875 -4.984375 C 4.6875 -6.046875 3.84375 -6.796875 2.640625 -6.796875 C 1.4375 -6.796875 0.59375 -6.046875 0.59375 -4.984375 C 0.59375 -4.359375 0.828125 -4.015625 1.515625 -3.578125 C 0.734375 -3.203125 0.359375 -2.640625 0.359375 -1.890625 C 0.359375 -0.640625 1.296875 0.21875 2.640625 0.21875 C 3.984375 0.21875 4.921875 -0.640625 4.921875 -1.875 C 4.921875 -2.640625 4.53125 -3.203125 3.75 -3.578125 Z M 2.640625 -6.046875 C 3.359375 -6.046875 3.8125 -5.625 3.8125 -4.96875 C 3.8125 -4.34375 3.34375 -3.921875 2.640625 -3.921875 C 1.921875 -3.921875 1.453125 -4.34375 1.453125 -4.984375 C 1.453125 -5.625 1.921875 -6.046875 2.640625 -6.046875 Z M 2.640625 -3.203125 C 3.484375 -3.203125 4.0625 -2.671875 4.0625 -1.875 C 4.0625 -1.0625 3.484375 -0.53125 2.625 -0.53125 C 1.796875 -0.53125 1.21875 -1.078125 1.21875 -1.875 C 1.21875 -2.671875 1.796875 -3.203125 2.640625 -3.203125 Z M 2.640625 -3.203125 "/>
</symbol>
<symbol overflow="visible" id="glyph0-11">
<path style="stroke:none;" d="M 0.515625 -1.546875 C 0.671875 -0.4375 1.40625 0.21875 2.4375 0.21875 C 3.1875 0.21875 3.859375 -0.140625 4.265625 -0.75 C 4.6875 -1.40625 4.890625 -2.25 4.890625 -3.484375 C 4.890625 -4.625 4.703125 -5.359375 4.3125 -5.953125 C 3.9375 -6.5 3.34375 -6.796875 2.59375 -6.796875 C 1.296875 -6.796875 0.359375 -5.84375 0.359375 -4.515625 C 0.359375 -3.25 1.234375 -2.34375 2.453125 -2.34375 C 3.09375 -2.34375 3.5625 -2.578125 4.015625 -3.109375 C 4 -1.453125 3.46875 -0.53125 2.5 -0.53125 C 1.90625 -0.53125 1.484375 -0.90625 1.359375 -1.546875 Z M 2.578125 -6.0625 C 3.375 -6.0625 3.96875 -5.40625 3.96875 -4.53125 C 3.96875 -3.6875 3.375 -3.09375 2.546875 -3.09375 C 1.734375 -3.09375 1.234375 -3.671875 1.234375 -4.578125 C 1.234375 -5.4375 1.796875 -6.0625 2.578125 -6.0625 Z M 2.578125 -6.0625 "/>
</symbol>
<symbol overflow="visible" id="glyph1-0">
<path style="stroke:none;" d=""/>
</symbol>
<symbol overflow="visible" id="glyph1-1">
<path style="stroke:none;" d="M 0 -0.953125 L 0 -4.890625 C 0 -5.71875 -0.234375 -6.34375 -0.734375 -6.796875 C -1.1875 -7.234375 -1.8125 -7.46875 -2.5 -7.46875 C -3.546875 -7.46875 -4.1875 -7 -4.625 -5.875 C -4.984375 -6.671875 -5.640625 -7.09375 -6.53125 -7.09375 C -7.15625 -7.09375 -7.734375 -6.859375 -8.140625 -6.390625 C -8.5625 -5.9375 -8.75 -5.34375 -8.75 -4.5 L -8.75 -0.953125 Z M -4.984375 -2.0625 L -7.765625 -2.0625 L -7.765625 -4.21875 C -7.765625 -4.84375 -7.6875 -5.203125 -7.453125 -5.5 C -7.21875 -5.8125 -6.859375 -5.96875 -6.375 -5.96875 C -5.90625 -5.96875 -5.53125 -5.8125 -5.296875 -5.5 C -5.0625 -5.203125 -4.984375 -4.84375 -4.984375 -4.21875 Z M -0.984375 -2.0625 L -4 -2.0625 L -4 -4.78125 C -4 -5.328125 -3.859375 -5.6875 -3.578125 -5.953125 C -3.296875 -6.21875 -2.921875 -6.359375 -2.484375 -6.359375 C -2.0625 -6.359375 -1.6875 -6.21875 -1.40625 -5.953125 C -1.109375 -5.6875 -0.984375 -5.328125 -0.984375 -4.78125 Z M -0.984375 -2.0625 "/>
</symbol>
<symbol overflow="visible" id="glyph1-2">
<path style="stroke:none;" d="M -6.28125 -1.796875 L -6.28125 -0.796875 L 0 -0.796875 L 0 -1.796875 Z M -8.75 -1.796875 L -8.75 -0.796875 L -7.484375 -0.796875 L -7.484375 -1.796875 Z M -8.75 -1.796875 "/>
</symbol>
<symbol overflow="visible" id="glyph1-3">
<path style="stroke:none;" d="M -6.28125 -3.046875 L -6.28125 -2.015625 L -8.015625 -2.015625 L -8.015625 -1.015625 L -6.28125 -1.015625 L -6.28125 -0.171875 L -5.46875 -0.171875 L -5.46875 -1.015625 L -0.71875 -1.015625 C -0.078125 -1.015625 0.28125 -1.453125 0.28125 -2.234375 C 0.28125 -2.46875 0.25 -2.71875 0.1875 -3.046875 L -0.640625 -3.046875 C -0.609375 -2.921875 -0.59375 -2.765625 -0.59375 -2.5625 C -0.59375 -2.140625 -0.71875 -2.015625 -1.15625 -2.015625 L -5.46875 -2.015625 L -5.46875 -3.046875 Z M -6.28125 -3.046875 "/>
</symbol>
<symbol overflow="visible" id="glyph1-4">
<path style="stroke:none;" d="M -4.53125 -5.25 C -5.765625 -5.25 -6.46875 -4.421875 -6.46875 -2.96875 C -6.46875 -1.515625 -5.71875 -0.5625 -4.546875 -0.5625 C -3.5625 -0.5625 -3.09375 -1.0625 -2.734375 -2.5625 L -2.515625 -3.484375 C -2.34375 -4.1875 -2.09375 -4.46875 -1.625 -4.46875 C -1.046875 -4.46875 -0.640625 -3.875 -0.640625 -3 C -0.640625 -2.453125 -0.796875 -2 -1.0625 -1.75 C -1.25 -1.59375 -1.421875 -1.53125 -1.875 -1.46875 L -1.875 -0.40625 C -0.421875 -0.453125 0.28125 -1.265625 0.28125 -2.921875 C 0.28125 -4.5 -0.5 -5.515625 -1.71875 -5.515625 C -2.65625 -5.515625 -3.171875 -4.984375 -3.46875 -3.734375 L -3.703125 -2.765625 C -3.890625 -1.953125 -4.15625 -1.609375 -4.59375 -1.609375 C -5.171875 -1.609375 -5.546875 -2.125 -5.546875 -2.9375 C -5.546875 -3.75 -5.203125 -4.171875 -4.53125 -4.203125 Z M -4.53125 -5.25 "/>
</symbol>
</g>
</defs>
<g id="surface111176">
<rect x="0" y="0" width="720" height="360" style="fill:rgb(100%,100%,100%);fill-opacity:1;stroke:none;"/>
<path style=" stroke:none;fill-rule:nonzero;fill:rgb(6.27451%,58.823529%,28.235294%);fill-opacity:1;" d="M 69.628906 310.515625 L 69.6875 310.507812 L 92.722656 304.894531 L 99.722656 304.894531 L 122.875 310.519531 L 114.738281 310.519531 L 108.9375 309.050781 L 83.507812 309.050781 L 77.820312 310.515625 L 69.628906 310.515625 L 85.957031 308.445312 L 106.605469 308.4375 L 96.308594 305.8125 L 96.195312 305.808594 L 96.082031 305.824219 L 85.898438 308.4375 L 85.957031 308.445312 Z M 69.628906 310.515625 "/>
<path style=" stroke:none;fill-rule:nonzero;fill:rgb(14.509804%,36.078431%,60%);fill-opacity:1;" d="M 69.628906 312.863281 L 69.695312 312.859375 L 69.695312 312.800781 L 69.890625 312.707031 L 70.34375 312.589844 L 70.796875 312.511719 L 71.96875 312.367188 L 73.589844 312.226562 L 75.277344 312.117188 L 76.511719 312.054688 L 77.617188 312.007812 L 80.148438 311.917969 L 81.773438 311.871094 L 83.523438 311.828125 L 85.667969 311.785156 L 87.226562 311.761719 L 90.730469 311.722656 L 93.328125 311.707031 L 95.34375 311.699219 L 99.691406 311.699219 L 102.289062 311.707031 L 104.171875 311.722656 L 106.25 311.742188 L 108.003906 311.761719 L 111.054688 311.816406 L 113.78125 311.882812 L 115.015625 311.921875 L 116.964844 312 L 118.457031 312.074219 L 119.496094 312.136719 L 120.664062 312.226562 L 121.703125 312.335938 L 122.484375 312.460938 L 122.875 312.566406 L 113.78125 312.566406 L 113.328125 312.46875 L 112.808594 312.394531 L 111.835938 312.292969 L 110.859375 312.222656 L 109.496094 312.152344 L 108.265625 312.105469 L 106.574219 312.058594 L 105.082031 312.027344 L 103.523438 312.007812 L 102.03125 311.992188 L 99.171875 311.976562 L 95.863281 311.976562 L 94.628906 311.980469 L 92.097656 312 L 90.730469 312.019531 L 88.785156 312.054688 L 87.421875 312.085938 L 85.796875 312.132812 L 84.695312 312.175781 L 83.328125 312.238281 L 82.355469 312.296875 L 81.253906 312.375 L 80.601562 312.4375 L 80.019531 312.503906 L 79.5 312.585938 L 79.109375 312.671875 L 78.851562 312.761719 L 78.71875 312.847656 L 78.71875 313.226562 L 78.851562 313.316406 L 79.175781 313.417969 L 80.019531 313.566406 L 81.253906 313.695312 L 82.679688 313.800781 L 84.042969 313.871094 L 84.824219 313.90625 L 85.863281 313.945312 L 87.484375 313.996094 L 89.824219 314.042969 L 91.1875 314.0625 L 93.265625 314.082031 L 95.40625 314.09375 L 98.265625 314.09375 L 100.796875 314.082031 L 102.484375 314.070312 L 104.238281 314.050781 L 106.640625 314.007812 L 108.132812 313.96875 L 109.433594 313.921875 L 110.40625 313.878906 L 111.054688 313.839844 L 112.03125 313.761719 L 112.808594 313.679688 L 113.394531 313.59375 L 113.78125 313.511719 L 122.875 313.511719 L 122.484375 313.609375 L 121.898438 313.703125 L 121.316406 313.773438 L 120.40625 313.859375 L 119.367188 313.9375 L 117.875 314.019531 L 116.640625 314.078125 L 115.015625 314.136719 L 113.523438 314.183594 L 111.898438 314.226562 L 109.496094 314.277344 L 107.9375 314.300781 L 106.25 314.320312 L 104.238281 314.339844 L 101.707031 314.359375 L 98.976562 314.367188 L 96.445312 314.371094 L 93.71875 314.367188 L 91.707031 314.355469 L 89.042969 314.335938 L 85.730469 314.289062 L 83.328125 314.242188 L 81.445312 314.199219 L 79.824219 314.148438 L 78.003906 314.082031 L 75.667969 313.976562 L 74.238281 313.890625 L 73.265625 313.824219 L 72.160156 313.726562 L 71.382812 313.644531 L 70.472656 313.507812 L 69.824219 313.332031 L 69.628906 313.199219 Z M 69.628906 312.863281 "/>
<path style=" stroke:none;fill-rule:nonzero;fill:rgb(96.862745%,70.196078%,16.862745%);fill-opacity:1;" d="M 69.628906 293.53125 L 69.695312 293.515625 L 69.695312 293.191406 L 69.953125 292.457031 L 70.601562 291.449219 L 71.449219 290.621094 L 72.355469 289.96875 L 72.941406 289.628906 L 73.914062 289.140625 L 74.757812 288.78125 L 76.902344 288.050781 L 79.628906 287.367188 L 81.121094 287.074219 L 82.808594 286.796875 L 85.214844 286.488281 L 86.316406 286.375 L 89.691406 286.113281 L 93.523438 285.949219 L 97.746094 285.902344 L 99.691406 285.917969 L 102.355469 285.984375 L 105.992188 286.164062 L 108.070312 286.324219 L 109.691406 286.488281 L 111.378906 286.699219 L 113.457031 287.023438 L 115.40625 287.414062 L 116.964844 287.804688 L 118.523438 288.292969 L 119.820312 288.8125 L 120.925781 289.382812 L 121.898438 290.066406 L 122.484375 290.636719 L 122.875 291.203125 L 113.847656 291.203125 L 113.328125 290.636719 L 112.742188 290.195312 L 111.769531 289.660156 L 110.796875 289.269531 L 109.820312 288.960938 L 108.003906 288.539062 L 106.445312 288.277344 L 104.496094 288.050781 L 102.613281 287.902344 L 100.472656 287.804688 L 99.171875 287.773438 L 95.730469 287.773438 L 92.613281 287.886719 L 90.796875 288.015625 L 89.5 288.148438 L 87.679688 288.390625 L 86.578125 288.585938 L 85.925781 288.714844 L 83.980469 289.21875 L 82.679688 289.675781 L 81.964844 289.984375 L 81.058594 290.472656 L 80.40625 290.914062 L 79.695312 291.5625 L 79.304688 292.050781 L 78.785156 293.15625 L 78.71875 296.085938 L 78.914062 296.703125 L 79.304688 297.371094 L 79.824219 297.957031 L 80.601562 298.574219 L 81.382812 299.046875 L 82.746094 299.679688 L 83.914062 300.101562 L 84.824219 300.378906 L 86.578125 300.820312 L 87.289062 300.964844 L 88.980469 301.257812 L 90.730469 301.484375 L 92.875 301.679688 L 94.5 301.777344 L 97.09375 301.859375 L 100.40625 301.859375 L 104.304688 301.761719 L 106.769531 301.632812 L 108.457031 301.5 L 109.5625 301.386719 L 110.925781 301.210938 L 111.898438 301.046875 L 112.808594 300.867188 L 113.914062 300.589844 L 113.914062 296.703125 L 97.875 296.6875 L 97.875 294.863281 L 122.808594 294.847656 L 122.875 301.210938 L 121.511719 301.648438 L 119.820312 302.070312 L 118.199219 302.398438 L 116.511719 302.671875 L 114.109375 302.980469 L 112.160156 303.175781 L 109.171875 303.40625 L 106.445312 303.550781 L 103.589844 303.648438 L 101.054688 303.699219 L 98.070312 303.714844 L 95.40625 303.683594 L 92.550781 303.585938 L 90.277344 303.453125 L 88.199219 303.292969 L 86.121094 303.078125 L 83.523438 302.738281 L 81.835938 302.460938 L 80.082031 302.121094 L 78.332031 301.714844 L 76.773438 301.273438 L 75.734375 300.933594 L 74.695312 300.542969 L 73.589844 300.054688 L 72.550781 299.5 L 71.773438 298.996094 L 71.058594 298.425781 L 70.539062 297.890625 L 70.019531 297.160156 L 69.757812 296.574219 L 69.628906 296.070312 Z M 69.628906 293.53125 "/>
<path style=" stroke:none;fill-rule:nonzero;fill:rgb(83.921569%,15.686275%,22.352941%);fill-opacity:1;" d="M 69.628906 257.097656 L 122.875 257.097656 L 122.875 260.054688 L 100.683594 260.082031 L 100.683594 284.722656 L 91.753906 284.722656 L 91.753906 260.105469 L 91.625 260.054688 L 69.628906 260.054688 Z M 69.628906 257.097656 "/>
<path style=" stroke:none;fill-rule:nonzero;fill:rgb(6.27451%,58.823529%,28.235294%);fill-opacity:1;" d="M 125.675781 299.136719 L 125.734375 299.128906 L 148.769531 288.082031 L 155.769531 288.082031 L 178.917969 299.148438 L 170.785156 299.148438 L 164.984375 296.257812 L 139.554688 296.257812 L 133.867188 299.136719 L 125.675781 299.136719 L 142 295.0625 L 162.652344 295.054688 L 152.355469 289.886719 L 152.242188 289.878906 L 152.128906 289.910156 L 141.945312 295.054688 L 142 295.0625 Z M 125.675781 299.136719 "/>
<path style=" stroke:none;fill-rule:nonzero;fill:rgb(14.509804%,36.078431%,60%);fill-opacity:1;" d="M 125.675781 302.933594 L 125.742188 302.925781 L 125.742188 302.796875 L 125.933594 302.585938 L 126.390625 302.324219 L 126.84375 302.144531 L 128.011719 301.820312 L 129.636719 301.507812 L 131.324219 301.269531 L 132.558594 301.125 L 133.664062 301.015625 L 136.195312 300.816406 L 137.816406 300.710938 L 139.570312 300.617188 L 141.714844 300.523438 L 143.273438 300.46875 L 146.777344 300.382812 L 149.375 300.34375 L 151.390625 300.328125 L 155.738281 300.328125 L 158.335938 300.351562 L 160.21875 300.378906 L 162.296875 300.421875 L 164.050781 300.46875 L 167.101562 300.589844 L 169.828125 300.742188 L 171.0625 300.832031 L 173.011719 301 L 174.503906 301.164062 L 175.542969 301.308594 L 176.710938 301.507812 L 177.75 301.753906 L 178.53125 302.035156 L 178.917969 302.269531 L 169.828125 302.269531 L 169.375 302.050781 L 168.855469 301.882812 L 167.882812 301.65625 L 166.90625 301.5 L 165.542969 301.339844 L 164.308594 301.234375 L 162.621094 301.132812 L 161.128906 301.066406 L 159.570312 301.015625 L 158.078125 300.984375 L 155.21875 300.953125 L 151.90625 300.953125 L 150.675781 300.960938 L 148.140625 301.007812 L 146.777344 301.042969 L 144.832031 301.121094 L 143.46875 301.191406 L 141.84375 301.300781 L 140.738281 301.394531 L 139.375 301.535156 L 138.402344 301.664062 L 137.296875 301.84375 L 136.648438 301.980469 L 136.066406 302.132812 L 135.546875 302.3125 L 135.15625 302.503906 L 134.894531 302.707031 L 134.765625 302.90625 L 134.765625 303.753906 L 134.894531 303.949219 L 135.21875 304.179688 L 136.066406 304.511719 L 137.296875 304.804688 L 138.726562 305.03125 L 140.089844 305.195312 L 140.871094 305.273438 L 141.910156 305.359375 L 143.53125 305.46875 L 145.871094 305.578125 L 147.234375 305.625 L 149.3125 305.667969 L 151.453125 305.691406 L 154.3125 305.691406 L 156.84375 305.667969 L 158.53125 305.640625 L 160.285156 305.597656 L 162.6875 305.503906 L 164.179688 305.414062 L 165.480469 305.3125 L 166.453125 305.207031 L 167.101562 305.121094 L 168.074219 304.949219 L 168.855469 304.765625 L 169.441406 304.574219 L 169.828125 304.386719 L 178.917969 304.386719 L 178.53125 304.605469 L 177.945312 304.820312 L 177.363281 304.976562 L 176.453125 305.167969 L 175.414062 305.339844 L 173.921875 305.53125 L 172.6875 305.65625 L 171.0625 305.792969 L 169.570312 305.898438 L 167.945312 305.992188 L 165.542969 306.101562 L 163.984375 306.15625 L 162.296875 306.203125 L 160.285156 306.246094 L 157.753906 306.285156 L 155.023438 306.308594 L 152.492188 306.3125 L 149.765625 306.300781 L 147.753906 306.28125 L 145.089844 306.230469 L 141.777344 306.132812 L 139.375 306.027344 L 137.492188 305.925781 L 135.871094 305.816406 L 134.050781 305.667969 L 131.714844 305.425781 L 130.285156 305.242188 L 129.3125 305.085938 L 128.207031 304.875 L 127.429688 304.683594 L 126.519531 304.375 L 125.871094 303.988281 L 125.675781 303.6875 Z M 125.675781 302.933594 "/>
<path style=" stroke:none;fill-rule:nonzero;fill:rgb(96.862745%,70.196078%,16.862745%);fill-opacity:1;" d="M 125.675781 308.886719 L 125.742188 308.886719 L 125.742188 308.824219 L 126 308.691406 L 126.648438 308.507812 L 127.492188 308.355469 L 128.402344 308.238281 L 128.988281 308.175781 L 129.960938 308.085938 L 130.804688 308.019531 L 132.949219 307.886719 L 135.675781 307.761719 L 137.167969 307.707031 L 138.855469 307.65625 L 141.257812 307.601562 L 142.363281 307.578125 L 145.738281 307.53125 L 149.570312 307.5 L 153.792969 307.492188 L 155.738281 307.496094 L 158.402344 307.507812 L 162.039062 307.539062 L 164.117188 307.570312 L 165.738281 307.601562 L 167.425781 307.636719 L 169.503906 307.699219 L 171.453125 307.769531 L 173.011719 307.839844 L 174.570312 307.929688 L 175.867188 308.023438 L 176.972656 308.128906 L 177.945312 308.253906 L 178.53125 308.359375 L 178.917969 308.460938 L 169.894531 308.460938 L 169.375 308.359375 L 168.789062 308.277344 L 167.816406 308.179688 L 166.84375 308.109375 L 165.867188 308.050781 L 164.050781 307.976562 L 162.492188 307.925781 L 160.542969 307.886719 L 158.660156 307.859375 L 156.519531 307.839844 L 155.21875 307.835938 L 151.777344 307.835938 L 148.660156 307.855469 L 146.84375 307.878906 L 145.542969 307.902344 L 143.726562 307.949219 L 142.621094 307.984375 L 141.972656 308.007812 L 140.027344 308.101562 L 138.726562 308.183594 L 138.011719 308.238281 L 137.105469 308.328125 L 136.453125 308.410156 L 135.738281 308.527344 L 135.351562 308.617188 L 134.832031 308.820312 L 134.765625 309.355469 L 134.960938 309.46875 L 135.351562 309.589844 L 135.871094 309.699219 L 136.648438 309.8125 L 137.429688 309.898438 L 138.792969 310.011719 L 139.960938 310.089844 L 140.871094 310.140625 L 142.621094 310.222656 L 143.335938 310.25 L 145.023438 310.300781 L 146.777344 310.34375 L 148.921875 310.378906 L 150.542969 310.398438 L 153.140625 310.410156 L 156.453125 310.410156 L 160.347656 310.394531 L 162.816406 310.371094 L 164.503906 310.347656 L 165.609375 310.324219 L 166.972656 310.292969 L 167.945312 310.261719 L 168.855469 310.230469 L 169.960938 310.179688 L 169.960938 309.46875 L 153.921875 309.464844 L 153.921875 309.132812 L 178.855469 309.128906 L 178.917969 310.292969 L 177.554688 310.375 L 175.867188 310.449219 L 174.246094 310.511719 L 172.554688 310.5625 L 170.152344 310.617188 L 168.207031 310.652344 L 165.21875 310.695312 L 162.492188 310.722656 L 159.636719 310.738281 L 157.101562 310.746094 L 154.117188 310.75 L 151.453125 310.746094 L 148.597656 310.726562 L 146.324219 310.703125 L 144.246094 310.671875 L 142.167969 310.636719 L 139.570312 310.574219 L 137.882812 310.523438 L 136.128906 310.460938 L 134.375 310.386719 L 132.816406 310.304688 L 131.777344 310.242188 L 130.742188 310.171875 L 129.636719 310.082031 L 128.597656 309.980469 L 127.820312 309.886719 L 127.105469 309.785156 L 126.585938 309.6875 L 126.066406 309.550781 L 125.804688 309.445312 L 125.675781 309.351562 Z M 125.675781 308.886719 "/>
<path style=" stroke:none;fill-rule:nonzero;fill:rgb(83.921569%,15.686275%,22.352941%);fill-opacity:1;" d="M 125.675781 311.929688 L 178.917969 311.929688 L 178.917969 312.191406 L 156.730469 312.195312 L 156.730469 314.371094 L 147.800781 314.371094 L 147.800781 312.195312 L 147.671875 312.191406 L 125.675781 312.191406 Z M 125.675781 311.929688 "/>
<path style=" stroke:none;fill-rule:nonzero;fill:rgb(6.27451%,58.823529%,28.235294%);fill-opacity:1;" d="M 181.722656 309.664062 L 181.777344 309.660156 L 204.816406 305.621094 L 211.8125 305.621094 L 234.964844 309.667969 L 226.832031 309.667969 L 221.03125 308.609375 L 195.601562 308.609375 L 189.914062 309.664062 L 181.722656 309.664062 L 198.046875 308.171875 L 218.695312 308.167969 L 208.402344 306.28125 L 208.289062 306.277344 L 208.171875 306.289062 L 197.992188 308.167969 L 198.046875 308.171875 Z M 181.722656 309.664062 "/>
<path style=" stroke:none;fill-rule:nonzero;fill:rgb(14.509804%,36.078431%,60%);fill-opacity:1;" d="M 181.722656 311.582031 L 181.785156 311.582031 L 181.785156 311.546875 L 181.980469 311.484375 L 182.4375 311.410156 L 182.890625 311.359375 L 184.058594 311.269531 L 185.683594 311.179688 L 187.371094 311.113281 L 188.605469 311.074219 L 189.707031 311.042969 L 192.242188 310.984375 L 193.863281 310.953125 L 195.617188 310.929688 L 197.761719 310.902344 L 199.320312 310.886719 L 202.824219 310.863281 L 205.421875 310.851562 L 207.433594 310.847656 L 211.785156 310.847656 L 214.382812 310.851562 L 216.265625 310.859375 L 218.34375 310.871094 L 220.097656 310.886719 L 223.148438 310.921875 L 225.875 310.964844 L 227.109375 310.988281 L 229.058594 311.035156 L 230.550781 311.082031 L 231.589844 311.125 L 232.757812 311.179688 L 233.796875 311.25 L 234.578125 311.328125 L 234.964844 311.394531 L 225.875 311.394531 L 225.421875 311.335938 L 224.902344 311.285156 L 223.925781 311.222656 L 222.953125 311.179688 L 221.589844 311.132812 L 220.355469 311.105469 L 218.667969 311.074219 L 217.175781 311.054688 L 215.617188 311.042969 L 214.121094 311.03125 L 211.265625 311.023438 L 207.953125 311.023438 L 206.722656 311.027344 L 204.1875 311.039062 L 202.824219 311.050781 L 200.875 311.070312 L 199.511719 311.089844 L 197.890625 311.121094 L 196.785156 311.148438 L 195.421875 311.1875 L 194.449219 311.222656 L 193.34375 311.277344 L 192.695312 311.3125 L 192.109375 311.359375 L 191.589844 311.410156 L 191.203125 311.464844 L 190.941406 311.519531 L 190.8125 311.574219 L 190.8125 311.816406 L 190.941406 311.871094 L 191.265625 311.9375 L 192.109375 312.03125 L 193.34375 312.113281 L 194.773438 312.179688 L 196.136719 312.226562 L 196.917969 312.246094 L 197.953125 312.273438 L 199.578125 312.304688 L 201.914062 312.332031 L 203.28125 312.347656 L 205.355469 312.359375 L 207.5 312.363281 L 210.355469 312.363281 L 212.890625 312.359375 L 214.578125 312.351562 L 216.332031 312.339844 L 218.734375 312.3125 L 220.226562 312.289062 L 221.523438 312.257812 L 222.5 312.226562 L 223.148438 312.203125 L 224.121094 312.15625 L 224.902344 312.101562 L 225.484375 312.046875 L 225.875 311.996094 L 234.964844 311.996094 L 234.578125 312.058594 L 233.992188 312.117188 L 233.40625 312.164062 L 232.5 312.21875 L 231.460938 312.265625 L 229.964844 312.320312 L 228.734375 312.355469 L 227.109375 312.394531 L 225.617188 312.421875 L 223.992188 312.449219 L 221.589844 312.480469 L 220.03125 312.496094 L 218.34375 312.511719 L 216.332031 312.523438 L 213.796875 312.535156 L 211.070312 312.539062 L 208.539062 312.542969 L 205.8125 312.539062 L 203.800781 312.53125 L 201.136719 312.519531 L 197.824219 312.492188 L 195.421875 312.460938 L 193.539062 312.429688 L 191.917969 312.398438 L 190.097656 312.359375 L 187.761719 312.289062 L 186.332031 312.238281 L 185.359375 312.195312 L 184.253906 312.132812 L 183.476562 312.078125 L 182.566406 311.992188 L 181.917969 311.882812 L 181.722656 311.796875 Z M 181.722656 311.582031 "/>
<path style=" stroke:none;fill-rule:nonzero;fill:rgb(96.862745%,70.196078%,16.862745%);fill-opacity:1;" d="M 181.722656 314 L 181.785156 314 L 181.785156 313.988281 L 182.046875 313.960938 L 182.695312 313.921875 L 183.539062 313.894531 L 184.449219 313.871094 L 185.035156 313.855469 L 186.007812 313.839844 L 186.851562 313.824219 L 188.996094 313.800781 L 191.722656 313.773438 L 193.214844 313.761719 L 194.902344 313.753906 L 197.304688 313.742188 L 198.410156 313.738281 L 201.785156 313.730469 L 205.617188 313.722656 L 214.449219 313.722656 L 218.082031 313.730469 L 220.160156 313.738281 L 221.785156 313.742188 L 223.472656 313.75 L 225.550781 313.761719 L 227.5 313.777344 L 229.058594 313.789062 L 230.617188 313.808594 L 231.914062 313.828125 L 233.019531 313.847656 L 233.992188 313.871094 L 234.578125 313.894531 L 234.964844 313.914062 L 225.941406 313.914062 L 225.421875 313.894531 L 224.835938 313.878906 L 223.863281 313.859375 L 222.890625 313.84375 L 221.914062 313.832031 L 220.097656 313.816406 L 218.539062 313.808594 L 216.589844 313.800781 L 214.707031 313.792969 L 212.566406 313.789062 L 207.824219 313.789062 L 204.707031 313.792969 L 202.890625 313.796875 L 201.589844 313.804688 L 199.773438 313.8125 L 198.667969 313.820312 L 198.019531 313.824219 L 196.070312 313.84375 L 194.773438 313.859375 L 194.058594 313.871094 L 193.148438 313.886719 L 192.5 313.902344 L 191.785156 313.925781 L 191.398438 313.945312 L 190.878906 313.984375 L 190.8125 314.09375 L 191.007812 314.113281 L 191.398438 314.140625 L 191.917969 314.160156 L 192.695312 314.183594 L 193.476562 314.199219 L 194.839844 314.222656 L 196.007812 314.238281 L 196.917969 314.25 L 198.667969 314.265625 L 199.382812 314.269531 L 201.070312 314.28125 L 202.824219 314.289062 L 204.96875 314.296875 L 206.589844 314.300781 L 209.1875 314.304688 L 212.5 314.304688 L 216.394531 314.300781 L 218.863281 314.292969 L 220.550781 314.289062 L 221.65625 314.285156 L 223.019531 314.277344 L 223.992188 314.273438 L 224.902344 314.265625 L 226.003906 314.257812 L 226.003906 314.113281 L 209.96875 314.113281 L 209.96875 314.046875 L 234.902344 314.046875 L 234.964844 314.277344 L 233.601562 314.296875 L 231.914062 314.3125 L 230.292969 314.324219 L 228.601562 314.332031 L 226.199219 314.34375 L 224.253906 314.351562 L 221.265625 314.359375 L 218.539062 314.363281 L 215.679688 314.367188 L 213.148438 314.371094 L 207.5 314.371094 L 204.644531 314.367188 L 202.371094 314.359375 L 200.292969 314.355469 L 198.214844 314.347656 L 195.617188 314.335938 L 193.929688 314.324219 L 192.175781 314.3125 L 190.421875 314.296875 L 188.863281 314.28125 L 187.824219 314.269531 L 186.785156 314.253906 L 185.683594 314.238281 L 184.644531 314.21875 L 183.863281 314.199219 L 183.152344 314.179688 L 182.632812 314.160156 L 182.113281 314.132812 L 181.851562 314.109375 L 181.722656 314.089844 Z M 181.722656 314 "/>
<path style=" stroke:none;fill-rule:nonzero;fill:rgb(83.921569%,15.686275%,22.352941%);fill-opacity:1;" d="M 181.722656 26.003906 L 234.964844 26.003906 L 234.964844 55.808594 L 212.777344 56.066406 L 212.777344 304.441406 L 203.847656 304.441406 L 203.847656 56.328125 L 203.71875 55.808594 L 181.722656 55.808594 Z M 181.722656 26.003906 "/>
<path style=" stroke:none;fill-rule:nonzero;fill:rgb(6.27451%,58.823529%,28.235294%);fill-opacity:1;" d="M 237.769531 312.308594 L 237.824219 312.304688 L 260.863281 307.554688 L 267.859375 307.554688 L 291.011719 312.316406 L 282.878906 312.316406 L 277.074219 311.070312 L 251.648438 311.070312 L 245.960938 312.308594 L 237.769531 312.308594 L 254.09375 310.558594 L 274.742188 310.554688 L 264.449219 308.332031 L 264.332031 308.328125 L 264.21875 308.339844 L 254.039062 310.554688 L 254.09375 310.558594 Z M 237.769531 312.308594 "/>
<path style=" stroke:none;fill-rule:nonzero;fill:rgb(14.509804%,36.078431%,60%);fill-opacity:1;" d="M 237.769531 163.792969 L 237.832031 163.578125 L 237.832031 158.46875 L 238.027344 150.375 L 238.484375 140.152344 L 238.9375 133.125 L 240.105469 120.558594 L 241.730469 108.417969 L 243.417969 99.046875 L 244.652344 93.511719 L 245.753906 89.25 L 248.289062 81.371094 L 249.910156 77.324219 L 251.664062 73.703125 L 253.804688 70.085938 L 255.363281 67.953125 L 258.871094 64.546875 L 261.46875 63.054688 L 263.480469 62.417969 L 267.832031 62.417969 L 270.429688 63.269531 L 272.3125 64.332031 L 274.390625 66.039062 L 276.144531 67.953125 L 279.195312 72.640625 L 281.921875 78.601562 L 283.15625 82.011719 L 285.105469 88.613281 L 286.597656 95 L 287.636719 100.539062 L 288.804688 108.417969 L 289.84375 118.003906 L 290.621094 128.863281 L 291.011719 138.023438 L 281.921875 138.023438 L 281.46875 129.503906 L 280.949219 122.902344 L 279.972656 114.167969 L 279 107.992188 L 277.636719 101.816406 L 276.402344 97.769531 L 274.714844 93.722656 L 273.222656 91.167969 L 271.664062 89.25 L 270.167969 87.972656 L 267.3125 86.695312 L 264 86.695312 L 262.765625 87.121094 L 260.234375 88.824219 L 258.871094 90.316406 L 256.921875 93.296875 L 255.558594 96.066406 L 253.9375 100.324219 L 252.832031 103.945312 L 251.46875 109.484375 L 250.496094 114.382812 L 249.390625 121.410156 L 248.742188 126.734375 L 248.15625 132.699219 L 247.636719 139.726562 L 247.25 147.179688 L 246.988281 155.058594 L 246.859375 162.726562 L 246.859375 195.738281 L 246.988281 203.40625 L 247.3125 212.347656 L 248.15625 225.339844 L 249.390625 236.628906 L 250.820312 245.574219 L 252.183594 251.960938 L 252.960938 254.945312 L 254 258.351562 L 255.625 262.609375 L 257.960938 266.871094 L 259.324219 268.574219 L 261.402344 270.277344 L 263.546875 271.128906 L 266.402344 271.128906 L 268.9375 270.277344 L 270.625 269.214844 L 272.378906 267.507812 L 274.78125 263.886719 L 276.273438 260.480469 L 277.570312 256.433594 L 278.546875 252.386719 L 279.195312 248.980469 L 280.167969 242.378906 L 280.949219 235.136719 L 281.53125 227.683594 L 281.921875 220.441406 L 291.011719 220.441406 L 290.621094 228.960938 L 290.039062 237.265625 L 289.453125 243.441406 L 288.546875 250.898438 L 287.507812 257.5 L 286.011719 264.953125 L 284.777344 269.851562 L 283.15625 275.175781 L 281.664062 279.222656 L 280.039062 282.84375 L 277.636719 287.101562 L 276.078125 289.230469 L 274.390625 291.148438 L 272.378906 292.851562 L 269.84375 294.34375 L 267.117188 295.195312 L 264.585938 295.410156 L 261.859375 294.984375 L 259.84375 294.128906 L 257.183594 292.214844 L 253.871094 288.378906 L 251.46875 284.332031 L 249.585938 280.289062 L 247.960938 276.027344 L 246.144531 270.277344 L 243.808594 260.90625 L 242.378906 253.664062 L 241.40625 247.703125 L 240.300781 239.398438 L 239.523438 231.941406 L 238.613281 220.015625 L 237.964844 204.894531 L 237.769531 193.183594 Z M 237.769531 163.792969 "/>
<path style=" stroke:none;fill-rule:nonzero;fill:rgb(96.862745%,70.196078%,16.862745%);fill-opacity:1;" d="M 237.769531 313.871094 L 237.832031 313.867188 L 237.832031 313.851562 L 238.09375 313.816406 L 238.742188 313.765625 L 239.585938 313.726562 L 240.496094 313.695312 L 241.078125 313.675781 L 242.054688 313.652344 L 242.898438 313.636719 L 245.039062 313.601562 L 247.769531 313.566406 L 249.261719 313.550781 L 250.949219 313.539062 L 253.351562 313.523438 L 254.457031 313.515625 L 257.832031 313.503906 L 261.664062 313.496094 L 265.882812 313.492188 L 267.832031 313.496094 L 270.492188 313.5 L 274.128906 313.507812 L 276.207031 313.515625 L 277.832031 313.523438 L 279.519531 313.535156 L 281.597656 313.550781 L 283.546875 313.570312 L 285.105469 313.585938 L 286.660156 313.613281 L 287.960938 313.636719 L 289.066406 313.664062 L 290.039062 313.699219 L 290.621094 313.726562 L 291.011719 313.753906 L 281.988281 313.753906 L 281.46875 313.726562 L 280.882812 313.707031 L 279.910156 313.679688 L 278.933594 313.660156 L 277.960938 313.644531 L 276.144531 313.625 L 274.585938 313.609375 L 272.636719 313.601562 L 270.753906 313.59375 L 268.609375 313.585938 L 263.871094 313.585938 L 260.753906 313.589844 L 258.9375 313.597656 L 257.636719 313.605469 L 255.820312 313.617188 L 254.714844 313.625 L 254.066406 313.632812 L 252.117188 313.65625 L 250.820312 313.679688 L 250.105469 313.695312 L 249.195312 313.71875 L 248.546875 313.742188 L 247.832031 313.773438 L 247.441406 313.796875 L 246.921875 313.851562 L 246.859375 313.996094 L 247.054688 314.027344 L 247.441406 314.058594 L 247.960938 314.085938 L 248.742188 314.117188 L 249.519531 314.140625 L 250.882812 314.171875 L 252.054688 314.191406 L 252.960938 314.207031 L 254.714844 314.226562 L 255.429688 314.234375 L 257.117188 314.25 L 258.871094 314.261719 L 261.015625 314.269531 L 262.636719 314.277344 L 265.234375 314.28125 L 268.546875 314.28125 L 272.441406 314.273438 L 274.910156 314.269531 L 276.597656 314.261719 L 277.703125 314.257812 L 279.066406 314.246094 L 280.039062 314.238281 L 280.949219 314.230469 L 282.050781 314.21875 L 282.050781 314.027344 L 266.015625 314.023438 L 266.015625 313.933594 L 290.949219 313.933594 L 291.011719 314.246094 L 289.648438 314.269531 L 287.960938 314.289062 L 286.335938 314.304688 L 284.648438 314.320312 L 282.246094 314.335938 L 280.296875 314.34375 L 277.3125 314.355469 L 274.585938 314.363281 L 271.726562 314.367188 L 269.195312 314.371094 L 266.207031 314.371094 L 263.546875 314.367188 L 260.6875 314.363281 L 258.417969 314.359375 L 256.339844 314.351562 L 254.261719 314.339844 L 251.664062 314.324219 L 249.976562 314.308594 L 248.222656 314.292969 L 246.46875 314.273438 L 243.871094 314.234375 L 242.832031 314.214844 L 241.730469 314.191406 L 240.691406 314.164062 L 239.910156 314.136719 L 239.195312 314.109375 L 238.675781 314.085938 L 238.15625 314.046875 L 237.898438 314.019531 L 237.769531 313.996094 Z M 237.769531 313.871094 "/>
<path style=" stroke:none;fill-rule:nonzero;fill:rgb(83.921569%,15.686275%,22.352941%);fill-opacity:1;" d="M 237.769531 296.589844 L 291.011719 296.589844 L 291.011719 297.636719 L 268.820312 297.644531 L 268.820312 306.375 L 259.894531 306.375 L 259.894531 297.652344 L 259.765625 297.636719 L 237.769531 297.636719 Z M 237.769531 296.589844 "/>
<path style=" stroke:none;fill-rule:nonzero;fill:rgb(6.27451%,58.823529%,28.235294%);fill-opacity:1;" d="M 293.816406 289.152344 L 293.871094 288.972656 L 316.910156 97.125 L 323.90625 97.125 L 347.058594 289.335938 L 338.925781 289.335938 L 333.121094 239.160156 L 307.695312 239.160156 L 302.007812 289.152344 L 293.816406 289.152344 L 310.140625 218.40625 L 330.789062 218.226562 L 320.492188 128.53125 L 320.378906 128.347656 L 320.265625 128.890625 L 310.082031 218.226562 L 310.140625 218.40625 Z M 293.816406 289.152344 "/>
<path style=" stroke:none;fill-rule:nonzero;fill:rgb(14.509804%,36.078431%,60%);fill-opacity:1;" d="M 293.816406 311.695312 L 293.878906 311.691406 L 293.878906 311.589844 L 294.074219 311.421875 L 294.527344 311.214844 L 294.984375 311.074219 L 296.152344 310.816406 L 297.777344 310.570312 L 299.464844 310.378906 L 300.699219 310.269531 L 301.800781 310.179688 L 304.332031 310.019531 L 305.957031 309.9375 L 307.710938 309.867188 L 309.851562 309.792969 L 311.410156 309.75 L 314.917969 309.679688 L 317.515625 309.648438 L 319.527344 309.636719 L 323.878906 309.636719 L 326.476562 309.652344 L 328.359375 309.675781 L 330.4375 309.710938 L 332.191406 309.75 L 335.242188 309.84375 L 337.96875 309.964844 L 339.203125 310.035156 L 341.148438 310.167969 L 342.644531 310.296875 L 343.683594 310.410156 L 344.851562 310.570312 L 345.890625 310.765625 L 346.667969 310.988281 L 347.058594 311.171875 L 337.96875 311.171875 L 337.515625 311 L 336.996094 310.867188 L 336.019531 310.6875 L 335.046875 310.5625 L 333.683594 310.4375 L 332.449219 310.355469 L 330.761719 310.273438 L 329.265625 310.21875 L 327.710938 310.179688 L 326.214844 310.15625 L 323.359375 310.128906 L 320.046875 310.128906 L 318.8125 310.136719 L 316.28125 310.171875 L 314.917969 310.203125 L 312.96875 310.265625 L 311.605469 310.320312 L 309.984375 310.40625 L 308.878906 310.480469 L 307.515625 310.59375 L 306.542969 310.691406 L 305.4375 310.835938 L 304.789062 310.941406 L 304.203125 311.0625 L 303.683594 311.207031 L 303.292969 311.359375 L 303.035156 311.519531 L 302.90625 311.675781 L 302.90625 312.34375 L 303.035156 312.5 L 303.359375 312.683594 L 304.203125 312.945312 L 305.4375 313.175781 L 306.867188 313.359375 L 308.230469 313.488281 L 309.007812 313.546875 L 310.046875 313.617188 L 311.671875 313.703125 L 314.007812 313.789062 L 315.371094 313.824219 L 317.449219 313.859375 L 319.59375 313.878906 L 322.449219 313.878906 L 324.980469 313.859375 L 326.671875 313.839844 L 328.421875 313.804688 L 330.824219 313.730469 L 332.320312 313.660156 L 333.617188 313.578125 L 334.59375 313.496094 L 335.242188 313.425781 L 336.214844 313.292969 L 336.996094 313.144531 L 337.578125 312.996094 L 337.96875 312.847656 L 347.058594 312.847656 L 346.667969 313.019531 L 346.085938 313.1875 L 345.5 313.316406 L 344.589844 313.464844 L 343.550781 313.601562 L 342.058594 313.75 L 340.824219 313.851562 L 339.203125 313.960938 L 337.707031 314.042969 L 336.085938 314.117188 L 333.683594 314.203125 L 332.125 314.246094 L 330.4375 314.285156 L 328.421875 314.320312 L 325.890625 314.347656 L 323.164062 314.367188 L 320.632812 314.371094 L 317.90625 314.363281 L 315.890625 314.34375 L 313.230469 314.304688 L 309.917969 314.226562 L 307.515625 314.144531 L 305.632812 314.0625 L 304.007812 313.976562 L 302.191406 313.859375 L 299.851562 313.667969 L 298.425781 313.523438 L 297.449219 313.402344 L 296.347656 313.234375 L 295.566406 313.082031 L 294.660156 312.839844 L 294.007812 312.53125 L 293.816406 312.292969 Z M 293.816406 311.695312 "/>
<path style=" stroke:none;fill-rule:nonzero;fill:rgb(96.862745%,70.196078%,16.862745%);fill-opacity:1;" d="M 293.816406 303.945312 L 293.878906 303.941406 L 293.878906 303.796875 L 294.140625 303.472656 L 294.789062 303.023438 L 295.632812 302.65625 L 296.542969 302.367188 L 297.125 302.21875 L 298.101562 302 L 298.945312 301.84375 L 301.085938 301.519531 L 303.8125 301.214844 L 305.308594 301.085938 L 306.996094 300.964844 L 309.398438 300.828125 L 310.503906 300.777344 L 313.878906 300.660156 L 317.710938 300.589844 L 321.929688 300.566406 L 323.878906 300.574219 L 326.539062 300.605469 L 330.175781 300.683594 L 332.253906 300.753906 L 333.878906 300.828125 L 335.566406 300.921875 L 337.644531 301.066406 L 339.589844 301.238281 L 341.148438 301.410156 L 342.707031 301.628906 L 344.007812 301.859375 L 345.109375 302.109375 L 346.085938 302.414062 L 346.667969 302.664062 L 347.058594 302.917969 L 338.035156 302.917969 L 337.515625 302.664062 L 336.929688 302.46875 L 335.957031 302.230469 L 334.980469 302.058594 L 334.007812 301.921875 L 332.191406 301.734375 L 330.632812 301.621094 L 328.683594 301.519531 L 326.800781 301.453125 L 324.65625 301.410156 L 323.359375 301.398438 L 319.917969 301.398438 L 316.800781 301.445312 L 314.984375 301.503906 L 313.683594 301.5625 L 311.867188 301.671875 L 310.761719 301.757812 L 310.113281 301.8125 L 308.164062 302.039062 L 306.867188 302.238281 L 306.152344 302.375 L 305.242188 302.59375 L 304.59375 302.785156 L 303.878906 303.074219 L 303.488281 303.292969 L 302.96875 303.78125 L 302.90625 305.078125 L 303.101562 305.351562 L 303.488281 305.648438 L 304.007812 305.90625 L 304.789062 306.179688 L 305.566406 306.390625 L 306.929688 306.671875 L 308.101562 306.855469 L 309.007812 306.980469 L 310.761719 307.175781 L 311.476562 307.238281 L 313.164062 307.367188 L 314.917969 307.46875 L 317.058594 307.554688 L 318.683594 307.597656 L 321.28125 307.636719 L 324.59375 307.636719 L 328.488281 307.59375 L 330.957031 307.535156 L 332.644531 307.476562 L 333.746094 307.425781 L 335.113281 307.347656 L 336.085938 307.273438 L 336.996094 307.195312 L 338.097656 307.074219 L 338.097656 305.351562 L 322.058594 305.34375 L 322.058594 304.539062 L 346.992188 304.53125 L 347.058594 307.347656 L 345.695312 307.542969 L 344.007812 307.730469 L 342.382812 307.875 L 340.695312 307.996094 L 338.292969 308.132812 L 336.34375 308.21875 L 333.359375 308.320312 L 330.632812 308.382812 L 327.773438 308.429688 L 325.242188 308.449219 L 322.253906 308.457031 L 319.59375 308.441406 L 316.734375 308.398438 L 314.464844 308.339844 L 312.386719 308.269531 L 310.308594 308.175781 L 307.710938 308.023438 L 306.023438 307.902344 L 304.269531 307.75 L 302.515625 307.570312 L 300.957031 307.375 L 299.917969 307.226562 L 298.878906 307.050781 L 297.777344 306.835938 L 296.738281 306.589844 L 295.957031 306.367188 L 295.242188 306.117188 L 294.722656 305.878906 L 294.203125 305.554688 L 293.945312 305.292969 L 293.816406 305.070312 Z M 293.816406 303.945312 "/>
<path style=" stroke:none;fill-rule:nonzero;fill:rgb(83.921569%,15.686275%,22.352941%);fill-opacity:1;" d="M 293.816406 290.515625 L 347.058594 290.515625 L 347.058594 291.464844 L 324.867188 291.472656 L 324.867188 299.386719 L 315.941406 299.386719 L 315.941406 291.480469 L 315.8125 291.464844 L 293.816406 291.464844 Z M 293.816406 290.515625 "/>
<path style=" stroke:none;fill-rule:nonzero;fill:rgb(6.27451%,58.823529%,28.235294%);fill-opacity:1;" d="M 349.859375 309.9375 L 349.917969 309.925781 L 372.957031 297.726562 L 379.953125 297.726562 L 403.105469 309.949219 L 394.972656 309.949219 L 389.167969 306.757812 L 363.742188 306.757812 L 358.050781 309.9375 L 349.859375 309.9375 L 366.1875 305.4375 L 386.835938 305.425781 L 376.539062 299.722656 L 376.425781 299.710938 L 376.3125 299.746094 L 366.128906 305.425781 L 366.1875 305.4375 Z M 349.859375 309.9375 "/>
<path style=" stroke:none;fill-rule:nonzero;fill:rgb(14.509804%,36.078431%,60%);fill-opacity:1;" d="M 349.859375 312.539062 L 349.925781 312.535156 L 349.925781 312.464844 L 350.121094 312.351562 L 350.574219 312.210938 L 351.03125 312.113281 L 352.199219 311.9375 L 353.820312 311.769531 L 355.511719 311.640625 L 356.742188 311.5625 L 357.847656 311.503906 L 360.378906 311.394531 L 362.003906 311.335938 L 363.757812 311.285156 L 365.898438 311.234375 L 367.457031 311.207031 L 370.964844 311.160156 L 373.5625 311.136719 L 375.574219 311.128906 L 379.925781 311.128906 L 382.523438 311.140625 L 384.40625 311.15625 L 386.484375 311.179688 L 388.234375 311.207031 L 391.289062 311.273438 L 394.015625 311.355469 L 395.25 311.402344 L 397.195312 311.492188 L 398.691406 311.582031 L 399.730469 311.660156 L 400.898438 311.769531 L 401.9375 311.902344 L 402.714844 312.054688 L 403.105469 312.179688 L 394.015625 312.179688 L 393.558594 312.0625 L 393.039062 311.972656 L 392.066406 311.847656 L 391.09375 311.761719 L 389.730469 311.675781 L 388.496094 311.621094 L 386.808594 311.566406 L 385.3125 311.53125 L 383.753906 311.503906 L 382.261719 311.484375 L 379.40625 311.46875 L 376.09375 311.46875 L 374.859375 311.472656 L 372.328125 311.496094 L 370.964844 311.519531 L 369.015625 311.558594 L 367.652344 311.597656 L 366.027344 311.65625 L 364.925781 311.707031 L 363.5625 311.785156 L 362.585938 311.851562 L 361.484375 311.949219 L 360.835938 312.023438 L 360.25 312.105469 L 359.730469 312.203125 L 359.339844 312.308594 L 359.082031 312.417969 L 358.953125 312.523438 L 358.953125 312.984375 L 359.082031 313.089844 L 359.40625 313.214844 L 360.25 313.394531 L 361.484375 313.554688 L 362.914062 313.675781 L 364.277344 313.765625 L 365.054688 313.808594 L 366.09375 313.855469 L 367.71875 313.914062 L 370.054688 313.972656 L 371.417969 313.996094 L 373.496094 314.019531 L 375.640625 314.03125 L 378.496094 314.03125 L 381.027344 314.019531 L 382.714844 314.007812 L 384.46875 313.984375 L 386.871094 313.933594 L 388.367188 313.886719 L 389.664062 313.828125 L 390.636719 313.773438 L 391.289062 313.726562 L 392.261719 313.632812 L 393.039062 313.53125 L 393.625 313.429688 L 394.015625 313.328125 L 403.105469 313.328125 L 402.714844 313.445312 L 402.132812 313.5625 L 401.546875 313.648438 L 400.636719 313.75 L 399.597656 313.84375 L 398.105469 313.945312 L 396.871094 314.015625 L 395.25 314.089844 L 393.753906 314.144531 L 392.132812 314.195312 L 389.730469 314.253906 L 388.171875 314.285156 L 386.484375 314.3125 L 384.46875 314.335938 L 381.9375 314.355469 L 379.210938 314.367188 L 376.679688 314.371094 L 373.949219 314.363281 L 371.9375 314.351562 L 369.277344 314.328125 L 365.964844 314.273438 L 363.5625 314.214844 L 361.679688 314.160156 L 360.054688 314.101562 L 358.238281 314.019531 L 355.898438 313.890625 L 354.472656 313.789062 L 353.496094 313.707031 L 352.394531 313.589844 L 351.613281 313.488281 L 350.707031 313.320312 L 350.054688 313.113281 L 349.859375 312.949219 Z M 349.859375 312.539062 "/>
<path style=" stroke:none;fill-rule:nonzero;fill:rgb(96.862745%,70.196078%,16.862745%);fill-opacity:1;" d="M 349.859375 210.242188 L 349.925781 210.132812 L 349.925781 207.882812 L 350.1875 202.828125 L 350.835938 195.863281 L 351.679688 190.132812 L 352.589844 185.640625 L 353.171875 183.28125 L 354.148438 179.910156 L 354.992188 177.4375 L 357.132812 172.382812 L 359.859375 167.664062 L 361.355469 165.640625 L 363.042969 163.730469 L 365.445312 161.597656 L 366.546875 160.808594 L 369.925781 159.011719 L 373.757812 157.890625 L 377.976562 157.550781 L 379.925781 157.664062 L 382.585938 158.113281 L 386.222656 159.347656 L 388.300781 160.472656 L 389.925781 161.597656 L 391.613281 163.058594 L 393.691406 165.304688 L 395.636719 168 L 397.195312 170.695312 L 398.753906 174.066406 L 400.054688 177.664062 L 401.15625 181.59375 L 402.132812 186.3125 L 402.714844 190.246094 L 403.105469 194.179688 L 394.078125 194.179688 L 393.558594 190.246094 L 392.976562 187.210938 L 392 183.503906 L 391.027344 180.808594 L 390.054688 178.671875 L 388.234375 175.753906 L 386.675781 173.953125 L 384.730469 172.382812 L 382.847656 171.371094 L 380.703125 170.695312 L 379.40625 170.472656 L 375.964844 170.472656 L 372.847656 171.257812 L 371.027344 172.15625 L 369.730469 173.054688 L 367.914062 174.742188 L 366.808594 176.089844 L 366.160156 176.988281 L 364.210938 180.472656 L 362.914062 183.617188 L 362.199219 185.75 L 361.289062 189.121094 L 360.640625 192.15625 L 359.925781 196.648438 L 359.535156 200.019531 L 359.015625 207.660156 L 358.953125 227.882812 L 359.144531 232.152344 L 359.535156 236.757812 L 360.054688 240.804688 L 360.835938 245.074219 L 361.613281 248.332031 L 362.976562 252.710938 L 364.144531 255.632812 L 365.054688 257.542969 L 366.808594 260.578125 L 367.523438 261.585938 L 369.210938 263.609375 L 370.964844 265.183594 L 373.105469 266.53125 L 374.730469 267.207031 L 377.328125 267.765625 L 380.640625 267.765625 L 384.535156 267.09375 L 387.003906 266.195312 L 388.691406 265.296875 L 389.792969 264.507812 L 391.15625 263.273438 L 392.132812 262.148438 L 393.039062 260.914062 L 394.144531 259.003906 L 394.144531 232.152344 L 378.105469 232.039062 L 378.105469 219.457031 L 403.039062 219.34375 L 403.105469 263.273438 L 401.742188 266.304688 L 400.054688 269.226562 L 398.429688 271.472656 L 396.742188 273.382812 L 394.339844 275.519531 L 392.390625 276.867188 L 389.40625 278.441406 L 386.675781 279.453125 L 383.820312 280.125 L 381.289062 280.460938 L 378.300781 280.574219 L 375.640625 280.351562 L 372.78125 279.675781 L 370.507812 278.777344 L 368.433594 277.652344 L 366.355469 276.191406 L 363.757812 273.832031 L 362.066406 271.925781 L 360.316406 269.566406 L 358.5625 266.757812 L 357.003906 263.722656 L 355.964844 261.363281 L 354.925781 258.667969 L 353.820312 255.296875 L 352.78125 251.476562 L 352.003906 247.992188 L 351.289062 244.0625 L 350.769531 240.355469 L 350.25 235.296875 L 349.992188 231.253906 L 349.859375 227.769531 Z M 349.859375 210.242188 "/>
<path style=" stroke:none;fill-rule:nonzero;fill:rgb(83.921569%,15.686275%,22.352941%);fill-opacity:1;" d="M 349.859375 281.753906 L 403.105469 281.753906 L 403.105469 283.335938 L 380.914062 283.351562 L 380.914062 296.546875 L 371.988281 296.546875 L 371.988281 283.367188 L 371.859375 283.335938 L 349.859375 283.335938 Z M 349.859375 281.753906 "/>
<path style=" stroke:none;fill-rule:nonzero;fill:rgb(6.27451%,58.823529%,28.235294%);fill-opacity:1;" d="M 405.90625 303.871094 L 405.964844 303.855469 L 429.003906 287.152344 L 436 287.152344 L 459.152344 303.886719 L 451.015625 303.886719 L 445.214844 299.519531 L 419.789062 299.519531 L 414.097656 303.871094 L 405.90625 303.871094 L 422.234375 297.710938 L 442.882812 297.695312 L 432.585938 289.886719 L 432.472656 289.871094 L 432.359375 289.917969 L 422.175781 297.695312 L 422.234375 297.710938 Z M 405.90625 303.871094 "/>
<path style=" stroke:none;fill-rule:nonzero;fill:rgb(14.509804%,36.078431%,60%);fill-opacity:1;" d="M 405.90625 313.746094 L 405.972656 313.742188 L 405.972656 313.71875 L 406.167969 313.679688 L 406.621094 313.632812 L 407.078125 313.597656 L 408.246094 313.539062 L 409.867188 313.480469 L 411.554688 313.4375 L 412.789062 313.410156 L 413.894531 313.390625 L 416.425781 313.351562 L 418.050781 313.335938 L 419.804688 313.316406 L 421.945312 313.300781 L 423.503906 313.289062 L 427.011719 313.273438 L 429.609375 313.265625 L 431.621094 313.261719 L 435.972656 313.261719 L 438.566406 313.265625 L 440.453125 313.273438 L 442.527344 313.28125 L 444.28125 313.289062 L 447.335938 313.3125 L 450.0625 313.339844 L 451.292969 313.355469 L 453.242188 313.386719 L 454.734375 313.417969 L 455.773438 313.445312 L 456.945312 313.480469 L 457.984375 313.527344 L 458.761719 313.578125 L 459.152344 313.621094 L 450.0625 313.621094 L 449.605469 313.582031 L 449.085938 313.550781 L 448.113281 313.507812 L 447.140625 313.480469 L 445.777344 313.449219 L 444.542969 313.429688 L 442.855469 313.410156 L 441.359375 313.398438 L 439.800781 313.390625 L 438.308594 313.382812 L 435.453125 313.378906 L 430.90625 313.378906 L 428.375 313.386719 L 427.011719 313.394531 L 425.0625 313.410156 L 423.699219 313.421875 L 422.074219 313.441406 L 420.972656 313.460938 L 419.609375 313.488281 L 418.632812 313.511719 L 417.53125 313.542969 L 416.882812 313.570312 L 416.296875 313.597656 L 415.777344 313.628906 L 415.386719 313.667969 L 415.128906 313.703125 L 414.996094 313.738281 L 414.996094 313.898438 L 415.128906 313.933594 L 415.453125 313.976562 L 416.296875 314.039062 L 417.53125 314.089844 L 418.957031 314.132812 L 420.324219 314.164062 L 421.101562 314.179688 L 422.140625 314.195312 L 423.765625 314.214844 L 426.101562 314.234375 L 427.464844 314.242188 L 429.542969 314.25 L 431.683594 314.253906 L 434.542969 314.253906 L 437.074219 314.25 L 438.761719 314.246094 L 440.515625 314.238281 L 442.917969 314.222656 L 444.410156 314.203125 L 445.710938 314.183594 L 446.683594 314.167969 L 447.335938 314.148438 L 448.308594 314.117188 L 449.085938 314.085938 L 449.671875 314.046875 L 450.0625 314.015625 L 459.152344 314.015625 L 458.761719 314.054688 L 458.175781 314.09375 L 457.59375 314.125 L 456.683594 314.160156 L 455.644531 314.191406 L 454.152344 314.226562 L 452.917969 314.25 L 451.292969 314.273438 L 449.800781 314.292969 L 448.179688 314.3125 L 445.777344 314.332031 L 444.21875 314.339844 L 442.527344 314.351562 L 440.515625 314.359375 L 437.984375 314.367188 L 435.257812 314.371094 L 432.722656 314.371094 L 429.996094 314.367188 L 427.984375 314.363281 L 425.320312 314.355469 L 422.011719 314.335938 L 419.609375 314.316406 L 417.726562 314.296875 L 416.101562 314.277344 L 414.285156 314.25 L 411.945312 314.207031 L 410.519531 314.171875 L 409.542969 314.144531 L 408.441406 314.105469 L 407.660156 314.070312 L 406.75 314.011719 L 406.101562 313.941406 L 405.90625 313.882812 Z M 405.90625 313.746094 "/>
<path style=" stroke:none;fill-rule:nonzero;fill:rgb(96.862745%,70.196078%,16.862745%);fill-opacity:1;" d="M 405.90625 182.15625 L 405.972656 181.988281 L 405.972656 178.671875 L 406.230469 171.210938 L 406.882812 160.929688 L 407.726562 152.46875 L 408.632812 145.835938 L 409.21875 142.355469 L 410.191406 137.378906 L 411.039062 133.730469 L 413.179688 126.265625 L 415.90625 119.300781 L 417.402344 116.316406 L 419.089844 113.496094 L 421.492188 110.347656 L 422.59375 109.1875 L 425.972656 106.53125 L 429.800781 104.875 L 434.023438 104.375 L 435.972656 104.542969 L 438.632812 105.207031 L 442.269531 107.03125 L 444.347656 108.6875 L 445.96875 110.347656 L 447.660156 112.503906 L 449.738281 115.820312 L 451.683594 119.800781 L 453.242188 123.78125 L 454.800781 128.753906 L 456.101562 134.0625 L 457.203125 139.867188 L 458.175781 146.832031 L 458.761719 152.636719 L 459.152344 158.441406 L 450.125 158.441406 L 449.605469 152.636719 L 449.023438 148.160156 L 448.046875 142.6875 L 447.074219 138.707031 L 446.101562 135.554688 L 444.28125 131.242188 L 442.722656 128.589844 L 440.777344 126.265625 L 438.894531 124.773438 L 436.75 123.78125 L 435.453125 123.449219 L 432.011719 123.449219 L 428.894531 124.609375 L 427.074219 125.9375 L 425.777344 127.261719 L 423.957031 129.75 L 422.855469 131.738281 L 422.207031 133.066406 L 420.257812 138.207031 L 418.957031 142.851562 L 418.246094 146.003906 L 417.335938 150.976562 L 416.6875 155.457031 L 415.972656 162.089844 L 415.582031 167.0625 L 415.0625 178.339844 L 414.996094 208.191406 L 415.191406 214.496094 L 415.582031 221.292969 L 416.101562 227.265625 L 416.882812 233.566406 L 417.660156 238.375 L 419.023438 244.84375 L 420.191406 249.15625 L 421.101562 251.976562 L 422.855469 256.453125 L 423.570312 257.945312 L 425.257812 260.929688 L 427.011719 263.253906 L 429.152344 265.242188 L 430.777344 266.238281 L 433.375 267.066406 L 436.683594 267.066406 L 440.582031 266.070312 L 443.046875 264.746094 L 444.738281 263.417969 L 445.839844 262.257812 L 447.203125 260.433594 L 448.179688 258.773438 L 449.085938 256.949219 L 450.191406 254.132812 L 450.191406 214.496094 L 434.152344 214.328125 L 434.152344 195.753906 L 459.085938 195.589844 L 459.152344 260.433594 L 457.789062 264.910156 L 456.101562 269.222656 L 454.476562 272.539062 L 452.789062 275.359375 L 450.386719 278.511719 L 448.4375 280.5 L 445.449219 282.820312 L 442.722656 284.3125 L 439.867188 285.308594 L 437.335938 285.808594 L 434.347656 285.972656 L 431.683594 285.640625 L 428.828125 284.644531 L 426.554688 283.320312 L 424.476562 281.660156 L 422.398438 279.503906 L 419.804688 276.023438 L 418.113281 273.203125 L 416.363281 269.71875 L 414.609375 265.574219 L 413.050781 261.097656 L 412.011719 257.613281 L 410.972656 253.632812 L 409.867188 248.660156 L 408.828125 243.019531 L 408.050781 237.878906 L 407.335938 232.074219 L 406.816406 226.601562 L 406.296875 219.136719 L 406.039062 213.167969 L 405.90625 208.027344 Z M 405.90625 182.15625 "/>
<path style=" stroke:none;fill-rule:nonzero;fill:rgb(83.921569%,15.686275%,22.352941%);fill-opacity:1;" d="M 405.90625 305.066406 L 459.152344 305.066406 L 459.152344 305.820312 L 436.960938 305.824219 L 436.960938 312.082031 L 428.035156 312.082031 L 428.035156 305.832031 L 427.902344 305.820312 L 405.90625 305.820312 Z M 405.90625 305.066406 "/>
<path style=" stroke:none;fill-rule:nonzero;fill:rgb(6.27451%,58.823529%,28.235294%);fill-opacity:1;" d="M 461.953125 309.578125 L 462.011719 309.574219 L 485.050781 307.035156 L 492.046875 307.035156 L 515.199219 309.578125 L 507.0625 309.578125 L 501.261719 308.914062 L 475.832031 308.914062 L 470.144531 309.578125 L 461.953125 309.578125 L 478.28125 308.640625 L 498.929688 308.636719 L 488.632812 307.449219 L 488.519531 307.445312 L 488.40625 307.453125 L 478.222656 308.636719 L 478.28125 308.640625 Z M 461.953125 309.578125 "/>
<path style=" stroke:none;fill-rule:nonzero;fill:rgb(14.509804%,36.078431%,60%);fill-opacity:1;" d="M 461.953125 311.40625 L 462.019531 311.402344 L 462.019531 311.371094 L 462.214844 311.320312 L 462.667969 311.253906 L 463.121094 311.210938 L 464.292969 311.128906 L 465.914062 311.050781 L 467.601562 310.992188 L 468.835938 310.957031 L 469.941406 310.929688 L 472.472656 310.878906 L 474.097656 310.855469 L 475.847656 310.832031 L 477.992188 310.808594 L 479.550781 310.792969 L 483.058594 310.773438 L 485.652344 310.765625 L 487.667969 310.757812 L 492.015625 310.757812 L 494.613281 310.765625 L 496.496094 310.773438 L 498.574219 310.78125 L 500.328125 310.792969 L 503.378906 310.824219 L 506.109375 310.863281 L 507.339844 310.882812 L 509.289062 310.925781 L 510.78125 310.96875 L 511.820312 311.003906 L 512.992188 311.050781 L 514.027344 311.113281 L 514.808594 311.183594 L 515.199219 311.242188 L 506.109375 311.242188 L 505.652344 311.1875 L 505.132812 311.144531 L 504.160156 311.089844 L 503.1875 311.050781 L 501.820312 311.011719 L 500.589844 310.984375 L 498.898438 310.957031 L 497.40625 310.941406 L 495.847656 310.929688 L 494.355469 310.921875 L 491.496094 310.914062 L 488.1875 310.914062 L 486.953125 310.917969 L 484.421875 310.925781 L 483.058594 310.9375 L 481.109375 310.957031 L 479.746094 310.972656 L 478.121094 311 L 477.019531 311.023438 L 475.65625 311.058594 L 474.679688 311.089844 L 473.578125 311.136719 L 472.925781 311.167969 L 472.34375 311.207031 L 471.824219 311.25 L 471.433594 311.296875 L 471.175781 311.347656 L 471.042969 311.398438 L 471.042969 311.609375 L 471.175781 311.65625 L 471.5 311.714844 L 472.34375 311.796875 L 473.578125 311.867188 L 475.003906 311.925781 L 476.367188 311.964844 L 477.148438 311.984375 L 478.1875 312.003906 L 479.808594 312.03125 L 482.148438 312.058594 L 483.511719 312.070312 L 485.589844 312.082031 L 487.730469 312.085938 L 490.589844 312.085938 L 493.121094 312.082031 L 494.808594 312.074219 L 496.5625 312.0625 L 498.964844 312.042969 L 500.457031 312.019531 L 501.757812 311.992188 L 502.730469 311.96875 L 503.378906 311.945312 L 504.355469 311.902344 L 505.132812 311.859375 L 505.71875 311.8125 L 506.109375 311.765625 L 515.199219 311.765625 L 514.808594 311.820312 L 514.222656 311.871094 L 513.640625 311.910156 L 512.730469 311.957031 L 511.691406 312 L 510.199219 312.046875 L 508.964844 312.078125 L 507.339844 312.113281 L 505.847656 312.136719 L 504.222656 312.160156 L 501.820312 312.1875 L 500.261719 312.203125 L 498.574219 312.214844 L 496.5625 312.226562 L 494.03125 312.234375 L 491.304688 312.238281 L 488.769531 312.242188 L 486.042969 312.238281 L 484.03125 312.234375 L 481.367188 312.222656 L 478.058594 312.195312 L 475.65625 312.171875 L 473.769531 312.144531 L 472.148438 312.117188 L 470.332031 312.082031 L 467.992188 312.023438 L 466.5625 311.976562 L 465.589844 311.9375 L 464.484375 311.886719 L 463.707031 311.835938 L 462.796875 311.761719 L 462.148438 311.664062 L 461.953125 311.589844 Z M 461.953125 311.40625 "/>
<path style=" stroke:none;fill-rule:nonzero;fill:rgb(96.862745%,70.196078%,16.862745%);fill-opacity:1;" d="M 461.953125 313.828125 L 462.019531 313.828125 L 462.019531 313.808594 L 462.277344 313.769531 L 462.929688 313.714844 L 463.773438 313.671875 L 464.679688 313.636719 L 465.265625 313.621094 L 466.238281 313.59375 L 467.082031 313.574219 L 469.226562 313.535156 L 471.953125 313.5 L 473.445312 313.484375 L 475.136719 313.46875 L 477.539062 313.453125 L 478.640625 313.445312 L 482.019531 313.433594 L 485.847656 313.421875 L 492.015625 313.421875 L 494.679688 313.425781 L 498.316406 313.433594 L 500.394531 313.445312 L 502.015625 313.453125 L 503.703125 313.464844 L 505.78125 313.480469 L 507.730469 313.5 L 510.847656 313.546875 L 512.144531 313.578125 L 513.25 313.605469 L 514.222656 313.644531 L 514.808594 313.671875 L 515.199219 313.703125 L 506.171875 313.703125 L 505.652344 313.671875 L 505.070312 313.648438 L 504.09375 313.621094 L 503.121094 313.601562 L 502.148438 313.585938 L 500.328125 313.5625 L 498.769531 313.546875 L 496.820312 313.535156 L 494.9375 313.527344 L 492.796875 313.523438 L 491.496094 313.519531 L 488.054688 313.519531 L 484.941406 313.527344 L 483.121094 313.535156 L 481.824219 313.539062 L 480.003906 313.554688 L 478.902344 313.5625 L 478.25 313.570312 L 476.304688 313.597656 L 475.003906 313.621094 L 474.289062 313.640625 L 473.382812 313.664062 L 472.734375 313.6875 L 472.019531 313.722656 L 471.628906 313.75 L 471.109375 313.808594 L 471.042969 313.964844 L 471.238281 313.996094 L 471.628906 314.03125 L 472.148438 314.0625 L 472.925781 314.097656 L 473.707031 314.121094 L 475.070312 314.15625 L 476.238281 314.179688 L 477.148438 314.191406 L 478.902344 314.214844 L 479.617188 314.222656 L 481.304688 314.238281 L 483.058594 314.25 L 485.199219 314.261719 L 486.824219 314.265625 L 489.421875 314.273438 L 492.730469 314.273438 L 496.628906 314.265625 L 499.09375 314.257812 L 500.78125 314.253906 L 501.886719 314.246094 L 503.25 314.238281 L 504.222656 314.226562 L 505.132812 314.21875 L 506.238281 314.203125 L 506.238281 313.996094 L 490.199219 313.996094 L 490.199219 313.898438 L 515.132812 313.898438 L 515.199219 314.238281 L 513.835938 314.261719 L 512.144531 314.28125 L 510.523438 314.300781 L 508.835938 314.316406 L 506.433594 314.332031 L 504.484375 314.34375 L 501.496094 314.355469 L 498.769531 314.363281 L 495.914062 314.367188 L 493.382812 314.371094 L 490.394531 314.371094 L 487.730469 314.367188 L 484.875 314.363281 L 482.601562 314.355469 L 480.523438 314.347656 L 478.445312 314.335938 L 475.847656 314.320312 L 474.160156 314.304688 L 472.40625 314.285156 L 470.65625 314.265625 L 469.097656 314.242188 L 467.019531 314.203125 L 465.914062 314.175781 L 464.875 314.144531 L 464.097656 314.121094 L 463.382812 314.089844 L 462.863281 314.058594 L 462.34375 314.019531 L 462.082031 313.988281 L 461.953125 313.964844 Z M 461.953125 313.828125 "/>
<path style=" stroke:none;fill-rule:nonzero;fill:rgb(83.921569%,15.686275%,22.352941%);fill-opacity:1;" d="M 461.953125 20.664062 L 515.199219 20.664062 L 515.199219 51.191406 L 493.007812 51.457031 L 493.007812 305.855469 L 484.078125 305.855469 L 484.078125 51.726562 L 483.949219 51.191406 L 461.953125 51.191406 Z M 461.953125 20.664062 "/>
<path style=" stroke:none;fill-rule:nonzero;fill:rgb(6.27451%,58.823529%,28.235294%);fill-opacity:1;" d="M 518 308.46875 L 518.058594 308.460938 L 541.09375 301.058594 L 548.09375 301.058594 L 571.246094 308.476562 L 563.109375 308.476562 L 557.308594 306.539062 L 531.878906 306.539062 L 526.191406 308.46875 L 518 308.46875 L 534.324219 305.738281 L 554.976562 305.730469 L 544.679688 302.269531 L 544.566406 302.261719 L 544.453125 302.285156 L 534.269531 305.730469 L 534.324219 305.738281 Z M 518 308.46875 "/>
<path style=" stroke:none;fill-rule:nonzero;fill:rgb(14.509804%,36.078431%,60%);fill-opacity:1;" d="M 518 314.203125 L 518.066406 314.203125 L 518.066406 314.199219 L 518.261719 314.1875 L 519.167969 314.164062 L 520.335938 314.148438 L 521.960938 314.132812 L 523.648438 314.121094 L 524.882812 314.117188 L 525.988281 314.109375 L 528.519531 314.101562 L 530.140625 314.09375 L 531.894531 314.089844 L 534.039062 314.085938 L 535.597656 314.082031 L 539.101562 314.078125 L 552.542969 314.078125 L 554.621094 314.082031 L 556.375 314.082031 L 559.425781 314.089844 L 562.152344 314.097656 L 563.386719 314.101562 L 565.335938 314.109375 L 566.828125 314.117188 L 567.867188 314.125 L 569.035156 314.132812 L 570.074219 314.148438 L 570.855469 314.160156 L 571.246094 314.171875 L 562.152344 314.171875 L 561.699219 314.160156 L 561.179688 314.152344 L 560.207031 314.140625 L 559.230469 314.132812 L 557.867188 314.125 L 556.632812 314.121094 L 554.945312 314.117188 L 553.453125 314.113281 L 551.894531 314.109375 L 550.402344 314.109375 L 547.542969 314.105469 L 544.234375 314.105469 L 543 314.109375 L 540.464844 314.109375 L 539.101562 314.113281 L 537.15625 314.117188 L 535.792969 314.117188 L 534.167969 314.125 L 533.0625 314.128906 L 531.699219 314.136719 L 530.726562 314.140625 L 529.621094 314.152344 L 528.972656 314.15625 L 528.390625 314.164062 L 527.871094 314.175781 L 527.480469 314.183594 L 527.21875 314.195312 L 527.089844 314.203125 L 527.089844 314.246094 L 527.21875 314.253906 L 527.546875 314.265625 L 528.390625 314.28125 L 529.621094 314.296875 L 531.050781 314.308594 L 532.414062 314.316406 L 533.195312 314.320312 L 534.234375 314.324219 L 535.855469 314.328125 L 538.195312 314.335938 L 539.558594 314.335938 L 541.636719 314.339844 L 549.167969 314.339844 L 550.855469 314.335938 L 552.609375 314.335938 L 555.011719 314.332031 L 556.503906 314.328125 L 557.804688 314.320312 L 558.777344 314.316406 L 559.425781 314.3125 L 560.402344 314.304688 L 561.179688 314.292969 L 561.765625 314.285156 L 562.152344 314.277344 L 571.246094 314.277344 L 570.269531 314.296875 L 569.6875 314.304688 L 568.777344 314.3125 L 567.738281 314.324219 L 566.246094 314.332031 L 565.011719 314.339844 L 563.386719 314.34375 L 561.894531 314.351562 L 560.269531 314.355469 L 557.867188 314.359375 L 556.308594 314.363281 L 554.621094 314.367188 L 552.609375 314.367188 L 550.078125 314.371094 L 542.089844 314.371094 L 540.078125 314.367188 L 537.414062 314.367188 L 534.101562 314.363281 L 531.699219 314.355469 L 529.816406 314.351562 L 528.195312 314.347656 L 526.375 314.339844 L 524.039062 314.328125 L 522.609375 314.316406 L 521.636719 314.308594 L 520.53125 314.300781 L 519.753906 314.289062 L 518.84375 314.277344 L 518.195312 314.257812 L 518 314.242188 Z M 518 314.203125 "/>
<path style=" stroke:none;fill-rule:nonzero;fill:rgb(96.862745%,70.196078%,16.862745%);fill-opacity:1;" d="M 518 311.042969 L 518.066406 311.039062 L 518.066406 310.980469 L 518.324219 310.847656 L 518.972656 310.664062 L 519.816406 310.511719 L 520.726562 310.394531 L 521.3125 310.332031 L 522.285156 310.242188 L 523.128906 310.179688 L 525.273438 310.046875 L 528 309.921875 L 529.492188 309.867188 L 531.179688 309.816406 L 533.582031 309.761719 L 534.6875 309.742188 L 538.0625 309.695312 L 541.894531 309.664062 L 546.117188 309.65625 L 548.0625 309.65625 L 550.726562 309.667969 L 554.363281 309.703125 L 556.441406 309.730469 L 558.0625 309.761719 L 559.75 309.800781 L 561.828125 309.859375 L 563.777344 309.929688 L 565.335938 310 L 566.894531 310.089844 L 568.191406 310.183594 L 569.296875 310.289062 L 570.269531 310.414062 L 570.855469 310.515625 L 571.246094 310.621094 L 562.21875 310.621094 L 561.699219 310.515625 L 561.113281 310.4375 L 560.140625 310.339844 L 559.167969 310.269531 L 558.191406 310.210938 L 556.375 310.132812 L 554.816406 310.085938 L 552.867188 310.046875 L 550.984375 310.019531 L 548.84375 310 L 547.542969 309.996094 L 544.101562 309.996094 L 540.984375 310.015625 L 539.167969 310.039062 L 537.871094 310.0625 L 536.050781 310.109375 L 534.949219 310.144531 L 534.296875 310.167969 L 532.351562 310.257812 L 531.050781 310.339844 L 530.335938 310.398438 L 529.429688 310.488281 L 528.777344 310.566406 L 528.066406 310.683594 L 527.675781 310.773438 L 527.15625 310.976562 L 527.089844 311.507812 L 527.285156 311.621094 L 527.675781 311.742188 L 528.195312 311.847656 L 528.972656 311.960938 L 529.753906 312.046875 L 531.117188 312.164062 L 532.285156 312.238281 L 533.195312 312.289062 L 534.949219 312.371094 L 535.660156 312.394531 L 537.351562 312.449219 L 539.101562 312.492188 L 541.246094 312.527344 L 542.867188 312.542969 L 545.464844 312.558594 L 548.777344 312.558594 L 552.671875 312.542969 L 555.140625 312.519531 L 556.828125 312.496094 L 557.933594 312.472656 L 559.296875 312.441406 L 560.269531 312.410156 L 561.179688 312.378906 L 562.285156 312.328125 L 562.285156 311.621094 L 546.246094 311.617188 L 546.246094 311.285156 L 571.179688 311.285156 L 571.246094 312.441406 L 569.878906 312.519531 L 568.191406 312.597656 L 566.570312 312.65625 L 564.882812 312.707031 L 562.476562 312.761719 L 560.53125 312.800781 L 557.542969 312.839844 L 554.816406 312.867188 L 551.960938 312.886719 L 549.425781 312.894531 L 546.441406 312.898438 L 543.777344 312.890625 L 540.921875 312.875 L 538.648438 312.847656 L 536.570312 312.820312 L 534.492188 312.78125 L 531.894531 312.71875 L 530.207031 312.667969 L 528.453125 312.605469 L 526.699219 312.53125 L 525.144531 312.453125 L 524.105469 312.390625 L 523.066406 312.320312 L 521.960938 312.230469 L 520.921875 312.128906 L 520.144531 312.039062 L 519.429688 311.933594 L 518.910156 311.835938 L 518.390625 311.703125 L 518.128906 311.597656 L 518 311.503906 Z M 518 311.042969 "/>
<path style=" stroke:none;fill-rule:nonzero;fill:rgb(83.921569%,15.686275%,22.352941%);fill-opacity:1;" d="M 518 43.382812 L 571.246094 43.382812 L 571.246094 70.839844 L 549.054688 71.082031 L 549.054688 299.878906 L 540.125 299.878906 L 540.125 71.320312 L 539.996094 70.839844 L 518 70.839844 Z M 518 43.382812 "/>
<path style=" stroke:none;fill-rule:nonzero;fill:rgb(6.27451%,58.823529%,28.235294%);fill-opacity:1;" d="M 574.046875 279.933594 L 574.101562 279.902344 L 597.140625 248.308594 L 604.136719 248.308594 L 627.289062 279.960938 L 619.15625 279.960938 L 613.355469 271.699219 L 587.925781 271.699219 L 582.238281 279.933594 L 574.046875 279.933594 L 590.371094 268.28125 L 611.023438 268.25 L 600.726562 253.480469 L 600.613281 253.449219 L 600.496094 253.539062 L 590.316406 268.25 L 590.371094 268.28125 Z M 574.046875 279.933594 "/>
<path style=" stroke:none;fill-rule:nonzero;fill:rgb(14.509804%,36.078431%,60%);fill-opacity:1;" d="M 574.046875 307.277344 L 574.113281 307.273438 L 574.113281 307.179688 L 574.304688 307.03125 L 574.761719 306.84375 L 575.214844 306.714844 L 576.382812 306.484375 L 578.007812 306.261719 L 579.695312 306.089844 L 580.929688 305.988281 L 582.035156 305.910156 L 584.566406 305.765625 L 586.1875 305.691406 L 587.941406 305.621094 L 590.085938 305.554688 L 591.644531 305.515625 L 595.148438 305.453125 L 597.746094 305.425781 L 599.757812 305.414062 L 604.109375 305.414062 L 606.707031 305.429688 L 608.589844 305.449219 L 610.667969 305.480469 L 612.421875 305.515625 L 615.472656 305.601562 L 618.199219 305.714844 L 619.433594 305.777344 L 621.382812 305.898438 L 622.875 306.015625 L 623.914062 306.117188 L 625.082031 306.261719 L 626.121094 306.4375 L 626.902344 306.636719 L 627.289062 306.804688 L 618.199219 306.804688 L 617.746094 306.648438 L 617.226562 306.527344 L 616.253906 306.367188 L 615.277344 306.253906 L 613.914062 306.140625 L 612.679688 306.066406 L 610.992188 305.992188 L 609.5 305.945312 L 607.941406 305.910156 L 606.449219 305.886719 L 603.589844 305.863281 L 600.277344 305.863281 L 599.046875 305.871094 L 596.511719 305.902344 L 595.148438 305.929688 L 593.203125 305.984375 L 591.839844 306.035156 L 590.214844 306.113281 L 589.109375 306.179688 L 587.746094 306.28125 L 586.773438 306.371094 L 585.667969 306.5 L 585.019531 306.597656 L 584.4375 306.707031 L 583.917969 306.835938 L 583.527344 306.972656 L 583.265625 307.117188 L 583.136719 307.257812 L 583.136719 307.867188 L 583.265625 308.007812 L 583.589844 308.171875 L 584.4375 308.410156 L 585.667969 308.617188 L 587.097656 308.78125 L 588.460938 308.898438 L 589.242188 308.953125 L 590.28125 309.015625 L 591.902344 309.09375 L 594.242188 309.171875 L 595.605469 309.203125 L 597.683594 309.234375 L 599.824219 309.25 L 602.679688 309.25 L 605.214844 309.234375 L 606.902344 309.214844 L 608.65625 309.183594 L 611.058594 309.117188 L 612.550781 309.054688 L 613.851562 308.980469 L 614.824219 308.90625 L 615.472656 308.84375 L 616.445312 308.722656 L 617.226562 308.589844 L 617.8125 308.453125 L 618.199219 308.320312 L 627.289062 308.320312 L 626.902344 308.476562 L 626.316406 308.628906 L 625.730469 308.742188 L 624.824219 308.878906 L 623.785156 309 L 622.289062 309.136719 L 621.058594 309.226562 L 619.433594 309.324219 L 617.941406 309.398438 L 616.316406 309.46875 L 613.914062 309.546875 L 612.355469 309.585938 L 610.667969 309.621094 L 608.65625 309.652344 L 606.121094 309.679688 L 603.394531 309.695312 L 600.863281 309.699219 L 598.136719 309.691406 L 596.125 309.675781 L 593.460938 309.640625 L 590.148438 309.570312 L 587.746094 309.496094 L 585.863281 309.417969 L 584.242188 309.339844 L 582.421875 309.234375 L 580.085938 309.0625 L 578.65625 308.929688 L 577.683594 308.820312 L 576.578125 308.667969 L 575.800781 308.53125 L 574.890625 308.3125 L 574.242188 308.035156 L 574.046875 307.820312 Z M 574.046875 307.277344 "/>
<path style=" stroke:none;fill-rule:nonzero;fill:rgb(96.862745%,70.196078%,16.862745%);fill-opacity:1;" d="M 574.046875 312.375 L 574.113281 312.371094 L 574.113281 312.304688 L 574.371094 312.164062 L 575.019531 311.964844 L 575.863281 311.800781 L 576.773438 311.675781 L 577.359375 311.609375 L 578.332031 311.511719 L 579.175781 311.441406 L 581.320312 311.296875 L 584.046875 311.164062 L 585.539062 311.105469 L 587.226562 311.054688 L 589.628906 310.992188 L 590.734375 310.96875 L 594.109375 310.917969 L 597.941406 310.886719 L 602.160156 310.878906 L 604.109375 310.878906 L 606.773438 310.894531 L 610.410156 310.929688 L 612.484375 310.960938 L 614.109375 310.992188 L 615.796875 311.035156 L 617.875 311.097656 L 619.824219 311.175781 L 621.382812 311.25 L 622.941406 311.347656 L 624.238281 311.449219 L 625.34375 311.558594 L 626.316406 311.695312 L 626.902344 311.804688 L 627.289062 311.917969 L 618.265625 311.917969 L 617.746094 311.804688 L 617.160156 311.71875 L 616.1875 311.613281 L 615.214844 311.539062 L 614.238281 311.476562 L 612.421875 311.394531 L 610.863281 311.34375 L 608.914062 311.296875 L 607.03125 311.269531 L 604.890625 311.25 L 603.589844 311.246094 L 600.148438 311.246094 L 597.03125 311.265625 L 595.214844 311.292969 L 593.914062 311.316406 L 592.097656 311.367188 L 590.992188 311.402344 L 590.34375 311.429688 L 588.398438 311.527344 L 587.097656 311.617188 L 586.382812 311.679688 L 585.476562 311.773438 L 584.824219 311.859375 L 584.109375 311.988281 L 583.722656 312.082031 L 583.203125 312.300781 L 583.136719 312.875 L 583.332031 312.996094 L 583.722656 313.125 L 584.242188 313.242188 L 585.019531 313.363281 L 585.800781 313.453125 L 587.164062 313.578125 L 588.332031 313.664062 L 589.242188 313.714844 L 590.992188 313.804688 L 591.707031 313.832031 L 593.394531 313.890625 L 595.148438 313.933594 L 597.292969 313.972656 L 598.914062 313.992188 L 601.511719 314.007812 L 604.824219 314.007812 L 608.71875 313.988281 L 611.1875 313.960938 L 612.875 313.9375 L 613.980469 313.914062 L 615.34375 313.878906 L 616.316406 313.847656 L 617.226562 313.8125 L 618.332031 313.757812 L 618.332031 312.996094 L 602.292969 312.992188 L 602.292969 312.636719 L 627.226562 312.632812 L 627.289062 313.878906 L 625.925781 313.964844 L 624.238281 314.046875 L 622.617188 314.113281 L 620.925781 314.167969 L 618.523438 314.226562 L 616.578125 314.265625 L 613.589844 314.308594 L 610.863281 314.339844 L 608.007812 314.359375 L 605.472656 314.367188 L 602.488281 314.371094 L 599.824219 314.363281 L 596.96875 314.34375 L 594.695312 314.320312 L 592.617188 314.289062 L 590.539062 314.246094 L 587.941406 314.179688 L 586.253906 314.125 L 584.5 314.058594 L 582.746094 313.976562 L 581.1875 313.890625 L 580.148438 313.824219 L 579.109375 313.75 L 578.007812 313.652344 L 576.96875 313.542969 L 576.1875 313.445312 L 575.476562 313.332031 L 574.957031 313.230469 L 574.4375 313.085938 L 574.175781 312.96875 L 574.046875 312.871094 Z M 574.046875 312.375 "/>
<path style=" stroke:none;fill-rule:nonzero;fill:rgb(83.921569%,15.686275%,22.352941%);fill-opacity:1;" d="M 574.046875 281.140625 L 627.289062 281.140625 L 627.289062 283.613281 L 605.101562 283.636719 L 605.101562 304.234375 L 596.171875 304.234375 L 596.171875 283.65625 L 596.042969 283.613281 L 574.046875 283.613281 Z M 574.046875 281.140625 "/>
<path style=" stroke:none;fill-rule:nonzero;fill:rgb(6.27451%,58.823529%,28.235294%);fill-opacity:1;" d="M 630.09375 295.578125 L 630.148438 295.566406 L 653.1875 281.910156 L 660.183594 281.910156 L 683.335938 295.589844 L 675.203125 295.589844 L 669.398438 292.019531 L 643.972656 292.019531 L 638.285156 295.578125 L 630.09375 295.578125 L 646.417969 290.542969 L 667.066406 290.527344 L 656.773438 284.144531 L 656.65625 284.132812 L 656.542969 284.167969 L 646.363281 290.527344 L 646.417969 290.542969 Z M 630.09375 295.578125 "/>
<path style=" stroke:none;fill-rule:nonzero;fill:rgb(14.509804%,36.078431%,60%);fill-opacity:1;" d="M 630.09375 215.835938 L 630.15625 215.730469 L 630.15625 213.210938 L 630.351562 209.21875 L 630.808594 204.179688 L 631.261719 200.714844 L 632.429688 194.519531 L 634.054688 188.53125 L 635.742188 183.914062 L 636.976562 181.183594 L 638.078125 179.082031 L 640.613281 175.195312 L 642.234375 173.203125 L 643.988281 171.417969 L 646.132812 169.632812 L 647.691406 168.582031 L 651.195312 166.902344 L 653.792969 166.167969 L 655.804688 165.851562 L 660.15625 165.851562 L 662.753906 166.269531 L 664.636719 166.796875 L 666.714844 167.636719 L 668.46875 168.582031 L 671.519531 170.890625 L 674.246094 173.832031 L 675.480469 175.511719 L 677.429688 178.765625 L 678.921875 181.917969 L 679.960938 184.648438 L 681.128906 188.53125 L 682.167969 193.257812 L 682.949219 198.613281 L 683.335938 203.128906 L 674.246094 203.128906 L 673.792969 198.929688 L 673.273438 195.671875 L 672.296875 191.367188 L 671.324219 188.324219 L 669.960938 185.277344 L 668.726562 183.28125 L 667.039062 181.289062 L 665.546875 180.027344 L 663.988281 179.082031 L 662.492188 178.453125 L 659.636719 177.820312 L 656.324219 177.820312 L 655.089844 178.03125 L 652.558594 178.871094 L 651.195312 179.605469 L 649.246094 181.078125 L 647.882812 182.441406 L 646.261719 184.542969 L 645.15625 186.328125 L 643.792969 189.058594 L 642.820312 191.472656 L 641.714844 194.9375 L 641.066406 197.5625 L 640.480469 200.503906 L 639.960938 203.96875 L 639.574219 207.644531 L 639.3125 211.53125 L 639.183594 215.308594 L 639.183594 231.585938 L 639.3125 235.367188 L 639.636719 239.777344 L 640.480469 246.179688 L 641.714844 251.746094 L 643.144531 256.15625 L 644.507812 259.308594 L 645.285156 260.777344 L 646.324219 262.457031 L 647.949219 264.558594 L 650.285156 266.65625 L 651.648438 267.5 L 653.726562 268.339844 L 655.871094 268.757812 L 658.726562 268.757812 L 661.261719 268.339844 L 662.949219 267.8125 L 664.703125 266.972656 L 667.105469 265.1875 L 668.597656 263.507812 L 669.894531 261.511719 L 670.871094 259.515625 L 671.519531 257.835938 L 672.492188 254.582031 L 673.273438 251.011719 L 673.855469 247.335938 L 674.246094 243.765625 L 683.335938 243.765625 L 682.949219 247.964844 L 682.363281 252.0625 L 681.777344 255.105469 L 680.871094 258.78125 L 679.832031 262.039062 L 678.335938 265.714844 L 677.105469 268.128906 L 675.480469 270.753906 L 673.988281 272.75 L 672.363281 274.535156 L 669.960938 276.632812 L 668.402344 277.683594 L 666.714844 278.628906 L 664.703125 279.46875 L 662.167969 280.203125 L 659.441406 280.625 L 656.910156 280.730469 L 654.183594 280.519531 L 652.167969 280.097656 L 649.507812 279.152344 L 646.195312 277.265625 L 643.792969 275.269531 L 641.910156 273.273438 L 640.289062 271.171875 L 638.46875 268.339844 L 636.132812 263.71875 L 634.703125 260.148438 L 633.730469 257.207031 L 632.625 253.113281 L 631.847656 249.4375 L 630.9375 243.554688 L 630.289062 236.101562 L 630.09375 230.324219 Z M 630.09375 215.835938 "/>
<path style=" stroke:none;fill-rule:nonzero;fill:rgb(96.862745%,70.196078%,16.862745%);fill-opacity:1;" d="M 630.09375 311.722656 L 630.15625 311.71875 L 630.15625 311.636719 L 630.417969 311.445312 L 631.066406 311.183594 L 631.910156 310.96875 L 632.820312 310.796875 L 633.40625 310.707031 L 634.378906 310.582031 L 635.222656 310.488281 L 637.367188 310.296875 L 640.09375 310.121094 L 641.585938 310.046875 L 643.273438 309.972656 L 645.675781 309.894531 L 646.78125 309.863281 L 650.15625 309.796875 L 653.988281 309.753906 L 658.207031 309.742188 L 660.15625 309.746094 L 662.820312 309.761719 L 666.453125 309.808594 L 668.53125 309.851562 L 670.15625 309.894531 L 671.84375 309.949219 L 673.921875 310.03125 L 675.871094 310.132812 L 677.429688 310.234375 L 678.988281 310.363281 L 680.285156 310.496094 L 681.390625 310.644531 L 682.363281 310.824219 L 682.949219 310.972656 L 683.335938 311.117188 L 674.3125 311.117188 L 673.792969 310.972656 L 673.207031 310.855469 L 672.234375 310.71875 L 671.257812 310.617188 L 670.285156 310.535156 L 668.46875 310.425781 L 666.910156 310.359375 L 664.960938 310.296875 L 663.078125 310.261719 L 660.9375 310.234375 L 659.636719 310.226562 L 656.195312 310.226562 L 653.078125 310.257812 L 651.261719 310.289062 L 649.960938 310.324219 L 648.144531 310.386719 L 647.039062 310.4375 L 646.390625 310.472656 L 644.441406 310.601562 L 643.144531 310.722656 L 642.429688 310.800781 L 641.519531 310.929688 L 640.871094 311.042969 L 640.15625 311.210938 L 639.769531 311.339844 L 639.25 311.625 L 639.183594 312.386719 L 639.378906 312.546875 L 639.769531 312.722656 L 640.289062 312.875 L 641.066406 313.035156 L 641.84375 313.15625 L 643.210938 313.320312 L 644.378906 313.433594 L 645.285156 313.503906 L 647.039062 313.617188 L 647.753906 313.65625 L 649.441406 313.730469 L 651.195312 313.792969 L 653.339844 313.84375 L 654.960938 313.867188 L 657.558594 313.886719 L 660.871094 313.886719 L 664.765625 313.863281 L 667.234375 313.828125 L 668.921875 313.796875 L 670.027344 313.765625 L 671.390625 313.71875 L 672.363281 313.675781 L 673.273438 313.628906 L 674.375 313.558594 L 674.375 312.546875 L 658.339844 312.542969 L 658.339844 312.070312 L 683.273438 312.066406 L 683.335938 313.71875 L 681.972656 313.832031 L 680.285156 313.945312 L 678.660156 314.027344 L 676.972656 314.101562 L 674.570312 314.179688 L 672.625 314.230469 L 669.636719 314.289062 L 666.910156 314.328125 L 664.050781 314.355469 L 661.519531 314.367188 L 658.53125 314.371094 L 655.871094 314.363281 L 653.015625 314.335938 L 650.742188 314.304688 L 648.664062 314.261719 L 646.585938 314.207031 L 643.988281 314.117188 L 642.300781 314.046875 L 640.546875 313.957031 L 638.792969 313.851562 L 637.234375 313.738281 L 636.195312 313.648438 L 635.15625 313.546875 L 634.054688 313.417969 L 633.015625 313.277344 L 632.234375 313.144531 L 631.523438 312.996094 L 631.003906 312.855469 L 630.484375 312.667969 L 630.222656 312.515625 L 630.09375 312.382812 Z M 630.09375 311.722656 "/>
<path style=" stroke:none;fill-rule:nonzero;fill:rgb(83.921569%,15.686275%,22.352941%);fill-opacity:1;" d="M 630.09375 296.769531 L 683.335938 296.769531 L 683.335938 298.03125 L 661.148438 298.042969 L 661.148438 308.5625 L 652.21875 308.5625 L 652.21875 298.054688 L 652.089844 298.03125 L 630.09375 298.03125 Z M 630.09375 296.769531 "/>
<g style="fill:rgb(0%,0%,0%);fill-opacity:1;">
  <use xlink:href="#glyph0-1" x="21.957031" y="318.198242"/>
  <use xlink:href="#glyph0-2" x="27.291016" y="318.198242"/>
  <use xlink:href="#glyph0-1" x="29.958008" y="318.198242"/>
</g>
<g style="fill:rgb(0%,0%,0%);fill-opacity:1;">
  <use xlink:href="#glyph0-1" x="21.957031" y="234.737305"/>
  <use xlink:href="#glyph0-2" x="27.291016" y="234.737305"/>
  <use xlink:href="#glyph0-3" x="29.958008" y="234.737305"/>
</g>
<g style="fill:rgb(0%,0%,0%);fill-opacity:1;">
  <use xlink:href="#glyph0-4" x="21.957031" y="151.272461"/>
  <use xlink:href="#glyph0-2" x="27.291016" y="151.272461"/>
  <use xlink:href="#glyph0-1" x="29.958008" y="151.272461"/>
</g>
<g style="fill:rgb(0%,0%,0%);fill-opacity:1;">
  <use xlink:href="#glyph0-4" x="21.957031" y="67.811523"/>
  <use xlink:href="#glyph0-2" x="27.291016" y="67.811523"/>
  <use xlink:href="#glyph0-3" x="29.958008" y="67.811523"/>
</g>
<g style="fill:rgb(0%,0%,0%);fill-opacity:1;">
  <use xlink:href="#glyph0-4" x="93.25" y="338.19043"/>
</g>
<g style="fill:rgb(0%,0%,0%);fill-opacity:1;">
  <use xlink:href="#glyph0-5" x="149.296875" y="338.19043"/>
</g>
<g style="fill:rgb(0%,0%,0%);fill-opacity:1;">
  <use xlink:href="#glyph0-6" x="205.34375" y="338.19043"/>
</g>
<g style="fill:rgb(0%,0%,0%);fill-opacity:1;">
  <use xlink:href="#glyph0-7" x="261.390625" y="338.19043"/>
</g>
<g style="fill:rgb(0%,0%,0%);fill-opacity:1;">
  <use xlink:href="#glyph0-3" x="317.4375" y="338.19043"/>
</g>
<g style="fill:rgb(0%,0%,0%);fill-opacity:1;">
  <use xlink:href="#glyph0-8" x="373.484375" y="338.19043"/>
</g>
<g style="fill:rgb(0%,0%,0%);fill-opacity:1;">
  <use xlink:href="#glyph0-9" x="429.53125" y="338.19043"/>
</g>
<g style="fill:rgb(0%,0%,0%);fill-opacity:1;">
  <use xlink:href="#glyph0-10" x="485.574219" y="338.19043"/>
</g>
<g style="fill:rgb(0%,0%,0%);fill-opacity:1;">
  <use xlink:href="#glyph0-11" x="541.621094" y="338.19043"/>
</g>
<g style="fill:rgb(0%,0%,0%);fill-opacity:1;">
  <use xlink:href="#glyph0-4" x="595.167969" y="338.19043"/>
  <use xlink:href="#glyph0-1" x="600.501953" y="338.19043"/>
</g>
<g style="fill:rgb(0%,0%,0%);fill-opacity:1;">
  <use xlink:href="#glyph0-4" x="651.214844" y="338.19043"/>
  <use xlink:href="#glyph0-4" x="656.548828" y="338.19043"/>
</g>
<g style="fill:rgb(0%,0%,0%);fill-opacity:1;">
  <use xlink:href="#glyph1-1" x="14.412109" y="178.015625"/>
  <use xlink:href="#glyph1-2" x="14.412109" y="170.011719"/>
  <use xlink:href="#glyph1-3" x="14.412109" y="167.347656"/>
  <use xlink:href="#glyph1-4" x="14.412109" y="164.011719"/>
</g>
</g>
</svg>
