<?xml version="1.0" encoding="UTF-8"?>
<svg xmlns="http://www.w3.org/2000/svg" xmlns:xlink="http://www.w3.org/1999/xlink" width="720pt" height="360pt" viewBox="0 0 720 360" version="1.1">
<defs>
<g>
<symbol overflow="visible" id="glyph0-0">
<path style="stroke:none;" d=""/>
</symbol>
<symbol overflow="visible" id="glyph0-1">
<path style="stroke:none;" d="M 2.640625 -6.796875 C 2 -6.796875 1.421875 -6.53125 1.078125 -6.046875 C 0.640625 -5.453125 0.40625 -4.546875 0.40625 -3.296875 C 0.40625 -1 1.1875 0.21875 2.640625 0.21875 C 4.078125 0.21875 4.859375 -1 4.859375 -3.234375 C 4.859375 -4.5625 4.65625 -5.4375 4.203125 -6.046875 C 3.84375 -6.53125 3.28125 -6.796875 2.640625 -6.796875 Z M 2.640625 -6.046875 C 3.546875 -6.046875 4 -5.125 4 -3.3125 C 4 -1.375 3.5625 -0.484375 2.625 -0.484375 C 1.734375 -0.484375 1.28125 -1.421875 1.28125 -3.28125 C 1.28125 -5.140625 1.734375 -6.046875 2.640625 -6.046875 Z M 2.640625 -6.046875 "/>
</symbol>
<symbol overflow="visible" id="glyph0-2">
<path style="stroke:none;" d="M 1.828125 -1 L 0.828125 -1 L 0.828125 0 L 1.828125 0 Z M 1.828125 -1 "/>
</symbol>
<symbol overflow="visible" id="glyph0-3">
<path style="stroke:none;" d="M 4.5625 -6.796875 L 1.0625 -6.796875 L 0.546875 -3.09375 L 1.328125 -3.09375 C 1.71875 -3.5625 2.046875 -3.734375 2.578125 -3.734375 C 3.484375 -3.734375 4.0625 -3.109375 4.0625 -2.09375 C 4.0625 -1.125 3.484375 -0.53125 2.578125 -0.53125 C 1.828125 -0.53125 1.375 -0.90625 1.1875 -1.671875 L 0.328125 -1.671875 C 0.453125 -1.109375 0.546875 -0.84375 0.75 -0.59375 C 1.125 -0.078125 1.828125 0.21875 2.59375 0.21875 C 3.96875 0.21875 4.921875 -0.78125 4.921875 -2.21875 C 4.921875 -3.5625 4.03125 -4.484375 2.71875 -4.484375 C 2.25 -4.484375 1.859375 -4.359375 1.46875 -4.0625 L 1.734375 -5.96875 L 4.5625 -5.96875 Z M 4.5625 -6.796875 "/>
</symbol>
<symbol overflow="visible" id="glyph0-4">
<path style="stroke:none;" d="M 2.484375 -4.84375 L 2.484375 0 L 3.328125 0 L 3.328125 -6.796875 L 2.765625 -6.796875 C 2.46875 -5.75 2.28125 -5.609375 0.984375 -5.453125 L 0.984375 -4.84375 Z M 2.484375 -4.84375 "/>
</symbol>
<symbol overflow="visible" id="glyph0-5">
<path style="stroke:none;" d="M 4.859375 -0.828125 L 1.28125 -0.828125 C 1.359375 -1.390625 1.671875 -1.75 2.5 -2.234375 L 3.46875 -2.75 C 4.40625 -3.265625 4.90625 -3.96875 4.90625 -4.8125 C 4.90625 -5.375 4.671875 -5.90625 4.265625 -6.265625 C 3.859375 -6.625 3.375 -6.796875 2.71875 -6.796875 C 1.859375 -6.796875 1.21875 -6.5 0.84375 -5.921875 C 0.609375 -5.5625 0.5 -5.125 0.484375 -4.4375 L 1.328125 -4.4375 C 1.359375 -4.90625 1.40625 -5.1875 1.53125 -5.40625 C 1.75 -5.8125 2.1875 -6.0625 2.703125 -6.0625 C 3.46875 -6.0625 4.03125 -5.515625 4.03125 -4.78125 C 4.03125 -4.25 3.71875 -3.796875 3.125 -3.4375 L 2.234375 -2.9375 C 0.8125 -2.140625 0.40625 -1.5 0.328125 0 L 4.859375 0 Z M 4.859375 -0.828125 "/>
</symbol>
<symbol overflow="visible" id="glyph0-6">
<path style="stroke:none;" d="M 2.125 -3.125 L 2.578125 -3.125 C 3.515625 -3.125 3.984375 -2.703125 3.984375 -1.890625 C 3.984375 -1.03125 3.46875 -0.53125 2.578125 -0.53125 C 1.65625 -0.53125 1.203125 -0.984375 1.15625 -1.96875 L 0.3125 -1.96875 C 0.34375 -1.421875 0.4375 -1.078125 0.609375 -0.765625 C 0.953125 -0.109375 1.625 0.21875 2.546875 0.21875 C 3.953125 0.21875 4.859375 -0.609375 4.859375 -1.90625 C 4.859375 -2.765625 4.515625 -3.25 3.703125 -3.515625 C 4.34375 -3.765625 4.65625 -4.25 4.65625 -4.9375 C 4.65625 -6.109375 3.875 -6.796875 2.578125 -6.796875 C 1.203125 -6.796875 0.484375 -6.046875 0.453125 -4.609375 L 1.296875 -4.609375 C 1.3125 -5.015625 1.34375 -5.25 1.453125 -5.453125 C 1.640625 -5.828125 2.0625 -6.0625 2.59375 -6.0625 C 3.34375 -6.0625 3.796875 -5.625 3.796875 -4.90625 C 3.796875 -4.421875 3.609375 -4.140625 3.25 -3.984375 C 3.015625 -3.890625 2.71875 -3.84375 2.125 -3.84375 Z M 2.125 -3.125 "/>
</symbol>
<symbol overflow="visible" id="glyph0-7">
<path style="stroke:none;" d="M 3.140625 -1.625 L 3.140625 0 L 3.984375 0 L 3.984375 -1.625 L 4.984375 -1.625 L 4.984375 -2.390625 L 3.984375 -2.390625 L 3.984375 -6.796875 L 3.359375 -6.796875 L 0.265625 -2.515625 L 0.265625 -1.625 Z M 3.140625 -2.390625 L 1 -2.390625 L 3.140625 -5.359375 Z M 3.140625 -2.390625 "/>
</symbol>
<symbol overflow="visible" id="glyph0-8">
<path style="stroke:none;" d="M 4.78125 -5.03125 C 4.609375 -6.140625 3.890625 -6.796875 2.84375 -6.796875 C 2.09375 -6.796875 1.421875 -6.4375 1.03125 -5.828125 C 0.609375 -5.171875 0.40625 -4.34375 0.40625 -3.09375 C 0.40625 -1.953125 0.578125 -1.234375 0.984375 -0.625 C 1.359375 -0.078125 1.953125 0.21875 2.703125 0.21875 C 3.984375 0.21875 4.921875 -0.734375 4.921875 -2.078125 C 4.921875 -3.34375 4.0625 -4.234375 2.84375 -4.234375 C 2.171875 -4.234375 1.640625 -3.96875 1.28125 -3.46875 C 1.28125 -5.125 1.828125 -6.046875 2.796875 -6.046875 C 3.390625 -6.046875 3.796875 -5.671875 3.9375 -5.03125 Z M 2.734375 -3.484375 C 3.546875 -3.484375 4.0625 -2.921875 4.0625 -2 C 4.0625 -1.15625 3.484375 -0.53125 2.703125 -0.53125 C 1.921875 -0.53125 1.328125 -1.1875 1.328125 -2.046875 C 1.328125 -2.890625 1.90625 -3.484375 2.734375 -3.484375 Z M 2.734375 -3.484375 "/>
</symbol>
<symbol overflow="visible" id="glyph0-9">
<path style="stroke:none;" d="M 4.984375 -6.796875 L 0.4375 -6.796875 L 0.4375 -5.96875 L 4.109375 -5.96875 C 2.5 -3.65625 1.828125 -2.234375 1.328125 0 L 2.21875 0 C 2.59375 -2.171875 3.453125 -4.046875 4.984375 -6.09375 Z M 4.984375 -6.796875 "/>
</symbol>
<symbol overflow="visible" id="glyph0-10">
<path style="stroke:none;" d="M 3.75 -3.578125 C 4.453125 -4 4.6875 -4.34375 4.6875 -4.984375 C 4.6875 -6.046875 3.84375 -6.796875 2.640625 -6.796875 C 1.4375 -6.796875 0.59375 -6.046875 0.59375 -4.984375 C 0.59375 -4.359375 0.828125 -4.015625 1.515625 -3.578125 C 0.734375 -3.203125 0.359375 -2.640625 0.359375 -1.890625 C 0.359375 -0.640625 1.296875 0.21875 2.640625 0.21875 C 3.984375 0.21875 4.921875 -0.640625 4.921875 -1.875 C 4.921875 -2.640625 4.53125 -3.203125 3.75 -3.578125 Z M 2.640625 -6.046875 C 3.359375 -6.046875 3.8125 -5.625 3.8125 -4.96875 C 3.8125 -4.34375 3.34375 -3.921875 2.640625 -3.921875 C 1.921875 -3.921875 1.453125 -4.34375 1.453125 -4.984375 C 1.453125 -5.625 1.921875 -6.046875 2.640625 -6.046875 Z M 2.640625 -3.203125 C 3.484375 -3.203125 4.0625 -2.671875 4.0625 -1.875 C 4.0625 -1.0625 3.484375 -0.53125 2.625 -0.53125 C 1.796875 -0.53125 1.21875 -1.078125 1.21875 -1.875 C 1.21875 -2.671875 1.796875 -3.203125 2.640625 -3.203125 Z M 2.640625 -3.203125 "/>
</symbol>
<symbol overflow="visible" id="glyph0-11">
<path style="stroke:none;" d="M 0.515625 -1.546875 C 0.671875 -0.4375 1.40625 0.21875 2.4375 0.21875 C 3.1875 0.21875 3.859375 -0.140625 4.265625 -0.75 C 4.6875 -1.40625 4.890625 -2.25 4.890625 -3.484375 C 4.890625 -4.625 4.703125 -5.359375 4.3125 -5.953125 C 3.9375 -6.5 3.34375 -6.796875 2.59375 -6.796875 C 1.296875 -6.796875 0.359375 -5.84375 0.359375 -4.515625 C 0.359375 -3.25 1.234375 -2.34375 2.453125 -2.34375 C 3.09375 -2.34375 3.5625 -2.578125 4.015625 -3.109375 C 4 -1.453125 3.46875 -0.53125 2.5 -0.53125 C 1.90625 -0.53125 1.484375 -0.90625 1.359375 -1.546875 Z M 2.578125 -6.0625 C 3.375 -6.0625 3.96875 -5.40625 3.96875 -4.53125 C 3.96875 -3.6875 3.375 -3.09375 2.546875 -3.09375 C 1.734375 -3.09375 1.234375 -3.671875 1.234375 -4.578125 C 1.234375 -5.4375 1.796875 -6.0625 2.578125 -6.0625 Z M 2.578125 -6.0625 "/>
</symbol>
<symbol overflow="visible" id="glyph1-0">
<path style="stroke:none;" d=""/>
</symbol>
<symbol overflow="visible" id="glyph1-1">
<path style="stroke:none;" d="M 0 -0.953125 L 0 -4.890625 C 0 -5.71875 -0.234375 -6.34375 -0.734375 -6.796875 C -1.1875 -7.234375 -1.8125 -7.46875 -2.5 -7.46875 C -3.546875 -7.46875 -4.1875 -7 -4.625 -5.875 C -4.984375 -6.671875 -5.640625 -7.09375 -6.53125 -7.09375 C -7.15625 -7.09375 -7.734375 -6.859375 -8.140625 -6.390625 C -8.5625 -5.9375 -8.75 -5.34375 -8.75 -4.5 L -8.75 -0.953125 Z M -4.984375 -2.0625 L -7.765625 -2.0625 L -7.765625 -4.21875 C -7.765625 -4.84375 -7.6875 -5.203125 -7.453125 -5.5 C -7.21875 -5.8125 -6.859375 -5.96875 -6.375 -5.96875 C -5.90625 -5.96875 -5.53125 -5.8125 -5.296875 -5.5 C -5.0625 -5.203125 -4.984375 -4.84375 -4.984375 -4.21875 Z M -0.984375 -2.0625 L -4 -2.0625 L -4 -4.78125 C -4 -5.328125 -3.859375 -5.6875 -3.578125 -5.953125 C -3.296875 -6.21875 -2.921875 -6.359375 -2.484375 -6.359375 C -2.0625 -6.359375 -1.6875 -6.21875 -1.40625 -5.953125 C -1.109375 -5.6875 -0.984375 -5.328125 -0.984375 -4.78125 Z M -0.984375 -2.0625 "/>
</symbol>
<symbol overflow="visible" id="glyph1-2">
<path style="stroke:none;" d="M -6.28125 -1.796875 L -6.28125 -0.796875 L 0 -0.796875 L 0 -1.796875 Z M -8.75 -1.796875 L -8.75 -0.796875 L -7.484375 -0.796875 L -7.484375 -1.796875 Z M -8.75 -1.796875 "/>
</symbol>
<symbol overflow="visible" id="glyph1-3">
<path style="stroke:none;" d="M -6.28125 -3.046875 L -6.28125 -2.015625 L -8.015625 -2.015625 L -8.015625 -1.015625 L -6.28125 -1.015625 L -6.28125 -0.171875 L -5.46875 -0.171875 L -5.46875 -1.015625 L -0.71875 -1.015625 C -0.078125 -1.015625 0.28125 -1.453125 0.28125 -2.234375 C 0.28125 -2.46875 0.25 -2.71875 0.1875 -3.046875 L -0.640625 -3.046875 C -0.609375 -2.921875 -0.59375 -2.765625 -0.59375 -2.5625 C -0.59375 -2.140625 -0.71875 -2.015625 -1.15625 -2.015625 L -5.46875 -2.015625 L -5.46875 -3.046875 Z M -6.28125 -3.046875 "/>
</symbol>
<symbol overflow="visible" id="glyph1-4">
<path style="stroke:none;" d="M -4.53125 -5.25 C -5.765625 -5.25 -6.46875 -4.421875 -6.46875 -2.96875 C -6.46875 -1.515625 -5.71875 -0.5625 -4.546875 -0.5625 C -3.5625 -0.5625 -3.09375 -1.0625 -2.734375 -2.5625 L -2.515625 -3.484375 C -2.34375 -4.1875 -2.09375 -4.46875 -1.625 -4.46875 C -1.046875 -4.46875 -0.640625 -3.875 -0.640625 -3 C -0.640625 -2.453125 -0.796875 -2 -1.0625 -1.75 C -1.25 -1.59375 -1.421875 -1.53125 -1.875 -1.46875 L -1.875 -0.40625 C -0.421875 -0.453125 0.28125 -1.265625 0.28125 -2.921875 C 0.28125 -4.5 -0.5 -5.515625 -1.71875 -5.515625 C -2.65625 -5.515625 -3.171875 -4.984375 -3.46875 -3.734375 L -3.703125 -2.765625 C -3.890625 -1.953125 -4.15625 -1.609375 -4.59375 -1.609375 C -5.171875 -1.609375 -5.546875 -2.125 -5.546875 -2.9375 C -5.546875 -3.75 -5.203125 -4.171875 -4.53125 -4.203125 Z M -4.53125 -5.25 "/>
</symbol>
</g>
</defs>
<g id="surface112183">
<rect x="0" y="0" width="720" height="360" style="fill:rgb(100%,100%,100%);fill-opacity:1;stroke:none;"/>
<path style=" stroke:none;fill-rule:nonzero;fill:rgb(6.27451%,58.823529%,28.235294%);fill-opacity:1;" d="M 117.019531 312.257812 L 117.066406 312.257812 L 136.546875 312.21875 L 142.464844 312.21875 L 162.039062 312.257812 L 155.164062 312.257812 L 150.257812 312.246094 L 128.757812 312.246094 L 123.945312 312.257812 L 117.019531 312.257812 L 130.824219 312.242188 L 148.285156 312.242188 L 139.578125 312.226562 L 139.386719 312.226562 L 130.777344 312.242188 L 130.824219 312.242188 Z M 117.019531 312.257812 "/>
<path style=" stroke:none;fill-rule:nonzero;fill:rgb(96.862745%,70.196078%,16.862745%);fill-opacity:1;" d="M 117.019531 309.152344 L 117.074219 309.152344 L 117.074219 309.144531 L 117.292969 309.121094 L 117.84375 309.09375 L 118.558594 309.070312 L 119.324219 309.054688 L 119.820312 309.042969 L 120.644531 309.03125 L 121.355469 309.019531 L 123.167969 309 L 125.476562 308.980469 L 126.738281 308.972656 L 128.164062 308.964844 L 130.195312 308.957031 L 131.128906 308.953125 L 133.984375 308.945312 L 137.222656 308.941406 L 144.691406 308.941406 L 147.765625 308.945312 L 149.523438 308.953125 L 150.894531 308.957031 L 152.324219 308.960938 L 154.078125 308.972656 L 155.726562 308.980469 L 157.042969 308.992188 L 158.363281 309.007812 L 159.460938 309.019531 L 160.394531 309.035156 L 161.21875 309.054688 L 161.710938 309.070312 L 162.039062 309.089844 L 154.410156 309.089844 L 153.96875 309.070312 L 153.476562 309.058594 L 152.652344 309.042969 L 151.828125 309.035156 L 151.003906 309.023438 L 149.46875 309.011719 L 148.148438 309.007812 L 146.503906 309 L 144.910156 308.996094 L 143.097656 308.992188 L 139.089844 308.992188 L 136.457031 308.996094 L 134.917969 309 L 133.820312 309.003906 L 132.28125 309.007812 L 131.351562 309.015625 L 130.800781 309.019531 L 129.152344 309.03125 L 128.054688 309.046875 L 127.453125 309.054688 L 126.683594 309.066406 L 126.132812 309.078125 L 125.53125 309.097656 L 125.199219 309.113281 L 124.761719 309.140625 L 124.707031 309.222656 L 124.871094 309.242188 L 125.199219 309.261719 L 125.640625 309.277344 L 126.296875 309.292969 L 126.957031 309.308594 L 128.109375 309.324219 L 129.097656 309.335938 L 129.867188 309.34375 L 131.351562 309.355469 L 131.953125 309.359375 L 133.382812 309.367188 L 134.863281 309.375 L 136.675781 309.378906 L 138.046875 309.382812 L 140.246094 309.386719 L 143.042969 309.386719 L 146.339844 309.382812 L 148.425781 309.378906 L 149.851562 309.375 L 150.785156 309.371094 L 151.9375 309.367188 L 152.761719 309.363281 L 153.53125 309.359375 L 154.464844 309.351562 L 154.464844 309.242188 L 140.902344 309.242188 L 140.902344 309.191406 L 161.984375 309.191406 L 162.039062 309.367188 L 160.886719 309.378906 L 159.460938 309.390625 L 158.085938 309.402344 L 156.660156 309.410156 L 154.628906 309.417969 L 152.980469 309.421875 L 150.457031 309.429688 L 148.148438 309.433594 L 145.734375 309.4375 L 138.816406 309.4375 L 136.402344 309.433594 L 134.480469 309.429688 L 132.722656 309.425781 L 130.964844 309.417969 L 128.769531 309.410156 L 127.339844 309.402344 L 125.859375 309.394531 L 124.378906 309.382812 L 123.058594 309.371094 L 121.300781 309.347656 L 120.367188 309.335938 L 119.492188 309.320312 L 118.832031 309.304688 L 118.226562 309.289062 L 117.789062 309.273438 L 117.347656 309.253906 L 117.128906 309.238281 L 117.019531 309.222656 Z M 117.019531 309.152344 "/>
<path style=" stroke:none;fill-rule:nonzero;fill:rgb(83.921569%,15.686275%,22.352941%);fill-opacity:1;" d="M 117.019531 310.613281 L 162.039062 310.613281 L 162.039062 310.660156 L 143.277344 310.660156 L 143.277344 311.046875 L 135.730469 311.046875 L 135.730469 310.660156 L 117.019531 310.660156 Z M 117.019531 310.613281 "/>
<path style=" stroke:none;fill-rule:nonzero;fill:rgb(6.27451%,58.823529%,28.235294%);fill-opacity:1;" d="M 164.410156 285.011719 L 164.457031 284.976562 L 183.9375 247.507812 L 189.855469 247.507812 L 209.429688 285.046875 L 202.554688 285.046875 L 197.648438 275.246094 L 176.148438 275.246094 L 171.335938 285.011719 L 164.410156 285.011719 L 178.214844 271.195312 L 195.675781 271.160156 L 186.96875 253.640625 L 186.871094 253.605469 L 186.777344 253.710938 L 178.167969 271.160156 L 178.214844 271.195312 Z M 164.410156 285.011719 "/>
<path style=" stroke:none;fill-rule:nonzero;fill:rgb(14.509804%,36.078431%,60%);fill-opacity:1;" d="M 164.410156 305.554688 L 164.464844 305.546875 L 164.464844 305.398438 L 164.628906 305.164062 L 165.015625 304.867188 L 165.398438 304.660156 L 166.386719 304.296875 L 167.757812 303.941406 L 169.1875 303.667969 L 170.230469 303.507812 L 171.164062 303.382812 L 173.304688 303.15625 L 174.675781 303.035156 L 176.160156 302.929688 L 177.972656 302.824219 L 179.289062 302.765625 L 182.253906 302.664062 L 184.449219 302.621094 L 186.152344 302.601562 L 189.832031 302.601562 L 192.027344 302.628906 L 193.621094 302.660156 L 195.375 302.707031 L 196.859375 302.765625 L 199.4375 302.898438 L 201.746094 303.074219 L 202.789062 303.171875 L 204.433594 303.363281 L 205.699219 303.550781 L 206.578125 303.710938 L 207.566406 303.941406 L 208.441406 304.21875 L 209.101562 304.535156 L 209.429688 304.804688 L 201.746094 304.804688 L 201.359375 304.554688 L 200.921875 304.363281 L 200.097656 304.109375 L 199.273438 303.929688 L 198.121094 303.75 L 197.078125 303.632812 L 195.652344 303.515625 L 194.386719 303.441406 L 193.070312 303.382812 L 191.808594 303.347656 L 189.390625 303.308594 L 186.589844 303.308594 L 185.546875 303.320312 L 183.40625 303.371094 L 182.253906 303.414062 L 180.605469 303.5 L 179.453125 303.582031 L 178.082031 303.707031 L 177.148438 303.8125 L 175.996094 303.972656 L 175.171875 304.117188 L 174.238281 304.320312 L 173.6875 304.476562 L 173.195312 304.648438 L 172.753906 304.851562 L 172.425781 305.070312 L 172.207031 305.300781 L 172.097656 305.523438 L 172.097656 306.484375 L 172.207031 306.707031 L 172.480469 306.96875 L 173.195312 307.34375 L 174.238281 307.671875 L 175.445312 307.933594 L 176.597656 308.121094 L 177.257812 308.207031 L 178.136719 308.304688 L 179.507812 308.429688 L 181.484375 308.554688 L 182.636719 308.601562 L 184.394531 308.652344 L 186.207031 308.679688 L 188.621094 308.679688 L 190.765625 308.652344 L 192.191406 308.621094 L 193.675781 308.574219 L 195.707031 308.46875 L 196.96875 308.367188 L 198.066406 308.25 L 198.890625 308.132812 L 199.4375 308.03125 L 200.261719 307.839844 L 200.921875 307.628906 L 201.414062 307.414062 L 201.746094 307.203125 L 209.429688 307.203125 L 209.101562 307.449219 L 208.609375 307.691406 L 208.113281 307.871094 L 207.34375 308.089844 L 206.464844 308.28125 L 205.203125 308.5 L 204.160156 308.640625 L 202.789062 308.796875 L 201.523438 308.914062 L 200.152344 309.019531 L 198.121094 309.144531 L 196.804688 309.203125 L 195.375 309.261719 L 193.675781 309.308594 L 191.53125 309.355469 L 189.226562 309.378906 L 187.085938 309.382812 L 184.78125 309.371094 L 183.078125 309.347656 L 180.828125 309.292969 L 178.027344 309.179688 L 175.996094 309.0625 L 174.402344 308.945312 L 173.03125 308.820312 L 171.492188 308.652344 L 169.515625 308.378906 L 168.308594 308.167969 L 167.484375 307.996094 L 166.550781 307.753906 L 165.894531 307.539062 L 165.125 307.191406 L 164.574219 306.75 L 164.410156 306.410156 Z M 164.410156 305.554688 "/>
<path style=" stroke:none;fill-rule:nonzero;fill:rgb(96.862745%,70.196078%,16.862745%);fill-opacity:1;" d="M 164.410156 292.734375 L 164.464844 292.71875 L 164.464844 292.441406 L 164.683594 291.816406 L 165.234375 290.957031 L 165.949219 290.25 L 166.714844 289.691406 L 167.210938 289.402344 L 168.035156 288.984375 L 168.746094 288.679688 L 170.558594 288.054688 L 172.867188 287.472656 L 174.128906 287.222656 L 175.554688 286.984375 L 177.585938 286.722656 L 178.519531 286.625 L 181.375 286.402344 L 184.613281 286.261719 L 188.183594 286.222656 L 189.832031 286.234375 L 192.082031 286.289062 L 195.15625 286.441406 L 196.914062 286.582031 L 198.285156 286.722656 L 199.714844 286.902344 L 201.46875 287.179688 L 203.117188 287.511719 L 204.433594 287.847656 L 205.753906 288.261719 L 206.851562 288.707031 L 207.785156 289.191406 L 208.609375 289.777344 L 209.101562 290.261719 L 209.429688 290.75 L 201.800781 290.75 L 201.359375 290.261719 L 200.867188 289.886719 L 200.042969 289.429688 L 199.21875 289.097656 L 198.394531 288.832031 L 196.859375 288.472656 L 195.539062 288.25 L 193.894531 288.054688 L 192.300781 287.929688 L 190.488281 287.847656 L 189.390625 287.816406 L 186.480469 287.816406 L 183.847656 287.914062 L 182.308594 288.027344 L 181.210938 288.136719 L 179.671875 288.347656 L 178.742188 288.511719 L 178.191406 288.625 L 176.542969 289.054688 L 175.445312 289.441406 L 174.84375 289.707031 L 174.074219 290.125 L 173.523438 290.5 L 172.921875 291.054688 L 172.589844 291.46875 L 172.152344 292.414062 L 172.097656 294.914062 L 172.261719 295.441406 L 172.589844 296.011719 L 173.03125 296.511719 L 173.6875 297.039062 L 174.347656 297.441406 L 175.5 297.984375 L 176.488281 298.34375 L 177.257812 298.582031 L 178.742188 298.957031 L 179.34375 299.082031 L 180.773438 299.332031 L 182.253906 299.523438 L 184.066406 299.691406 L 185.4375 299.773438 L 187.632812 299.84375 L 190.433594 299.84375 L 193.730469 299.761719 L 195.816406 299.648438 L 197.242188 299.539062 L 198.175781 299.441406 L 199.328125 299.289062 L 200.152344 299.148438 L 200.921875 298.996094 L 201.855469 298.761719 L 201.855469 295.441406 L 188.292969 295.429688 L 188.292969 293.875 L 209.375 293.859375 L 209.429688 299.289062 L 208.277344 299.664062 L 206.851562 300.023438 L 205.476562 300.304688 L 204.050781 300.539062 L 202.019531 300.804688 L 200.371094 300.96875 L 197.847656 301.164062 L 195.539062 301.289062 L 193.125 301.371094 L 190.984375 301.414062 L 188.457031 301.429688 L 186.207031 301.398438 L 183.792969 301.316406 L 181.871094 301.207031 L 180.113281 301.066406 L 178.355469 300.886719 L 176.160156 300.59375 L 174.730469 300.359375 L 173.25 300.066406 L 171.765625 299.71875 L 170.449219 299.34375 L 169.570312 299.054688 L 168.691406 298.71875 L 167.757812 298.304688 L 166.882812 297.832031 L 166.222656 297.402344 L 165.617188 296.914062 L 165.179688 296.457031 L 164.738281 295.832031 L 164.519531 295.332031 L 164.410156 294.902344 Z M 164.410156 292.734375 "/>
<path style=" stroke:none;fill-rule:nonzero;fill:rgb(83.921569%,15.686275%,22.352941%);fill-opacity:1;" d="M 164.410156 310.558594 L 209.429688 310.558594 L 209.429688 310.839844 L 190.667969 310.84375 L 190.667969 313.195312 L 183.117188 313.195312 L 183.117188 310.847656 L 183.007812 310.839844 L 164.410156 310.839844 Z M 164.410156 310.558594 "/>
<path style=" stroke:none;fill-rule:nonzero;fill:rgb(14.509804%,36.078431%,60%);fill-opacity:1;" d="M 211.800781 310.226562 L 211.855469 310.226562 L 211.855469 310.195312 L 212.019531 310.152344 L 212.40625 310.09375 L 212.789062 310.054688 L 213.777344 309.980469 L 215.148438 309.914062 L 216.578125 309.859375 L 217.621094 309.828125 L 218.554688 309.804688 L 220.695312 309.757812 L 222.066406 309.734375 L 223.550781 309.714844 L 225.363281 309.695312 L 226.679688 309.683594 L 229.644531 309.664062 L 231.839844 309.65625 L 233.542969 309.652344 L 237.222656 309.652344 L 239.417969 309.65625 L 241.011719 309.664062 L 242.765625 309.671875 L 244.25 309.683594 L 246.828125 309.710938 L 249.136719 309.742188 L 250.179688 309.761719 L 251.824219 309.800781 L 253.089844 309.835938 L 253.96875 309.867188 L 254.957031 309.914062 L 255.832031 309.96875 L 256.492188 310.027344 L 256.820312 310.082031 L 249.136719 310.082031 L 248.75 310.03125 L 248.3125 309.996094 L 247.488281 309.945312 L 246.664062 309.910156 L 245.511719 309.875 L 244.46875 309.851562 L 243.042969 309.828125 L 241.777344 309.816406 L 240.460938 309.804688 L 239.199219 309.796875 L 236.78125 309.789062 L 233.980469 309.789062 L 232.9375 309.792969 L 230.796875 309.800781 L 229.644531 309.808594 L 227.996094 309.828125 L 226.84375 309.84375 L 225.472656 309.867188 L 224.539062 309.886719 L 223.386719 309.917969 L 222.5625 309.945312 L 221.628906 309.988281 L 221.078125 310.015625 L 220.585938 310.050781 L 220.144531 310.089844 L 219.816406 310.132812 L 219.597656 310.179688 L 219.488281 310.222656 L 219.488281 310.410156 L 219.597656 310.453125 L 219.871094 310.503906 L 220.585938 310.578125 L 221.628906 310.640625 L 222.835938 310.691406 L 223.988281 310.726562 L 224.648438 310.746094 L 225.527344 310.765625 L 226.898438 310.789062 L 228.875 310.8125 L 230.027344 310.824219 L 231.785156 310.832031 L 233.597656 310.835938 L 236.011719 310.835938 L 238.15625 310.832031 L 239.582031 310.828125 L 241.066406 310.816406 L 243.097656 310.796875 L 244.359375 310.777344 L 245.457031 310.753906 L 246.28125 310.730469 L 246.828125 310.710938 L 247.652344 310.671875 L 248.3125 310.632812 L 248.804688 310.589844 L 249.136719 310.550781 L 256.820312 310.550781 L 256.492188 310.597656 L 256 310.644531 L 255.503906 310.679688 L 254.734375 310.722656 L 253.855469 310.757812 L 252.59375 310.800781 L 251.550781 310.828125 L 250.179688 310.859375 L 248.914062 310.882812 L 247.542969 310.902344 L 245.511719 310.929688 L 244.195312 310.941406 L 242.765625 310.949219 L 241.066406 310.960938 L 238.921875 310.96875 L 236.617188 310.972656 L 234.476562 310.976562 L 232.171875 310.972656 L 230.46875 310.96875 L 228.21875 310.957031 L 225.417969 310.933594 L 223.386719 310.914062 L 221.792969 310.890625 L 220.421875 310.863281 L 218.882812 310.832031 L 216.90625 310.777344 L 215.699219 310.738281 L 214.875 310.703125 L 213.941406 310.65625 L 213.285156 310.613281 L 212.515625 310.546875 L 211.964844 310.460938 L 211.800781 310.394531 Z M 211.800781 310.226562 "/>
<path style=" stroke:none;fill-rule:nonzero;fill:rgb(83.921569%,15.686275%,22.352941%);fill-opacity:1;" d="M 211.800781 36.496094 L 256.820312 36.496094 L 256.820312 65.609375 L 238.058594 65.863281 L 238.058594 308.476562 L 230.507812 308.476562 L 230.507812 66.121094 L 230.398438 65.609375 L 211.800781 65.609375 Z M 211.800781 36.496094 "/>
<path style=" stroke:none;fill-rule:nonzero;fill:rgb(96.862745%,70.196078%,16.862745%);fill-opacity:1;" d="M 259.191406 187.421875 L 259.246094 187.273438 L 259.246094 184.292969 L 259.464844 177.585938 L 260.015625 168.347656 L 260.730469 160.746094 L 261.496094 154.785156 L 261.992188 151.65625 L 262.816406 147.183594 L 263.527344 143.90625 L 265.339844 137.199219 L 267.648438 130.941406 L 268.910156 128.257812 L 270.335938 125.722656 L 272.367188 122.890625 L 273.300781 121.847656 L 276.15625 119.464844 L 279.394531 117.972656 L 282.964844 117.527344 L 284.613281 117.675781 L 286.863281 118.273438 L 289.9375 119.910156 L 291.695312 121.402344 L 293.066406 122.890625 L 294.496094 124.828125 L 296.25 127.808594 L 297.898438 131.386719 L 299.214844 134.964844 L 300.535156 139.433594 L 301.632812 144.203125 L 302.566406 149.421875 L 303.390625 155.679688 L 303.882812 160.894531 L 304.210938 166.113281 L 296.582031 166.113281 L 296.140625 160.894531 L 295.648438 156.871094 L 294.824219 151.953125 L 294 148.375 L 293.175781 145.546875 L 291.640625 141.671875 L 290.320312 139.285156 L 288.675781 137.199219 L 287.082031 135.859375 L 285.269531 134.964844 L 284.171875 134.664062 L 281.261719 134.664062 L 278.628906 135.710938 L 277.089844 136.902344 L 275.992188 138.09375 L 274.453125 140.328125 L 273.519531 142.117188 L 272.972656 143.308594 L 271.324219 147.929688 L 270.226562 152.101562 L 269.625 154.933594 L 268.855469 159.40625 L 268.304688 163.429688 L 267.703125 169.390625 L 267.371094 173.859375 L 266.933594 183.996094 L 266.878906 210.820312 L 267.042969 216.484375 L 267.371094 222.59375 L 267.8125 227.960938 L 268.46875 233.621094 L 269.128906 237.945312 L 270.28125 243.757812 L 271.269531 247.632812 L 272.039062 250.164062 L 273.519531 254.1875 L 274.125 255.53125 L 275.554688 258.214844 L 277.035156 260.300781 L 278.847656 262.085938 L 280.21875 262.980469 L 282.414062 263.726562 L 285.214844 263.726562 L 288.511719 262.832031 L 290.597656 261.640625 L 292.023438 260.449219 L 292.957031 259.40625 L 294.109375 257.765625 L 294.933594 256.277344 L 295.703125 254.636719 L 296.636719 252.101562 L 296.636719 216.484375 L 283.074219 216.335938 L 283.074219 199.644531 L 304.15625 199.496094 L 304.210938 257.765625 L 303.058594 261.789062 L 301.632812 265.664062 L 300.257812 268.644531 L 298.832031 271.179688 L 296.800781 274.011719 L 295.152344 275.796875 L 292.628906 277.886719 L 290.320312 279.226562 L 287.90625 280.121094 L 285.765625 280.566406 L 283.238281 280.714844 L 280.988281 280.417969 L 278.574219 279.523438 L 276.652344 278.332031 L 274.894531 276.84375 L 273.136719 274.90625 L 270.941406 271.773438 L 269.511719 269.242188 L 268.03125 266.113281 L 266.546875 262.386719 L 265.230469 258.363281 L 264.351562 255.230469 L 263.472656 251.65625 L 262.539062 247.183594 L 261.664062 242.117188 L 261.003906 237.496094 L 260.398438 232.28125 L 259.960938 227.363281 L 259.519531 220.65625 L 259.300781 215.292969 L 259.191406 210.671875 Z M 259.191406 187.421875 "/>
<path style=" stroke:none;fill-rule:nonzero;fill:rgb(83.921569%,15.686275%,22.352941%);fill-opacity:1;" d="M 259.191406 281.890625 L 304.210938 281.890625 L 304.210938 285.117188 L 285.449219 285.144531 L 285.449219 312.015625 L 277.898438 312.015625 L 277.898438 285.171875 L 277.789062 285.117188 L 259.191406 285.117188 Z M 259.191406 281.890625 "/>
<path style=" stroke:none;fill-rule:nonzero;fill:rgb(6.27451%,58.823529%,28.235294%);fill-opacity:1;" d="M 306.582031 281.71875 L 306.628906 281.578125 L 326.109375 135.101562 L 332.027344 135.101562 L 351.601562 281.855469 L 344.726562 281.855469 L 339.820312 243.546875 L 318.320312 243.546875 L 313.507812 281.71875 L 306.582031 281.71875 L 320.386719 227.699219 L 337.847656 227.5625 L 329.140625 159.078125 L 329.042969 158.9375 L 328.949219 159.351562 L 320.339844 227.5625 L 320.386719 227.699219 Z M 306.582031 281.71875 "/>
<path style=" stroke:none;fill-rule:nonzero;fill:rgb(14.509804%,36.078431%,60%);fill-opacity:1;" d="M 306.582031 293.425781 L 306.636719 293.40625 L 306.636719 292.882812 L 306.800781 292.050781 L 307.1875 291.003906 L 307.570312 290.28125 L 308.558594 288.992188 L 309.929688 287.75 L 311.359375 286.785156 L 312.402344 286.21875 L 313.335938 285.78125 L 315.476562 284.972656 L 316.847656 284.558594 L 318.332031 284.1875 L 320.144531 283.816406 L 321.460938 283.597656 L 324.425781 283.25 L 326.621094 283.09375 L 328.324219 283.03125 L 332.003906 283.03125 L 334.199219 283.117188 L 335.789062 283.226562 L 337.546875 283.402344 L 339.03125 283.597656 L 341.609375 284.078125 L 343.917969 284.691406 L 344.960938 285.039062 L 346.605469 285.714844 L 347.871094 286.371094 L 348.75 286.941406 L 349.738281 287.75 L 350.613281 288.730469 L 351.273438 289.84375 L 351.601562 290.785156 L 343.917969 290.785156 L 343.53125 289.910156 L 343.09375 289.234375 L 342.269531 288.335938 L 341.445312 287.703125 L 340.292969 287.070312 L 339.25 286.65625 L 337.824219 286.242188 L 336.558594 285.980469 L 335.242188 285.78125 L 333.980469 285.652344 L 331.5625 285.519531 L 328.761719 285.519531 L 327.71875 285.5625 L 325.578125 285.738281 L 324.425781 285.890625 L 322.777344 286.195312 L 321.625 286.480469 L 320.253906 286.917969 L 319.320312 287.289062 L 318.167969 287.855469 L 317.34375 288.359375 L 316.410156 289.082031 L 315.859375 289.625 L 315.367188 290.238281 L 314.925781 290.960938 L 314.597656 291.722656 L 314.378906 292.53125 L 314.269531 293.320312 L 314.269531 296.703125 L 314.378906 297.492188 L 314.652344 298.410156 L 315.367188 299.742188 L 316.410156 300.898438 L 317.617188 301.816406 L 318.769531 302.472656 L 319.429688 302.777344 L 320.308594 303.125 L 321.679688 303.5625 L 323.65625 304 L 324.808594 304.175781 L 326.566406 304.351562 L 328.378906 304.4375 L 330.792969 304.4375 L 332.9375 304.351562 L 334.363281 304.242188 L 335.847656 304.066406 L 337.878906 303.695312 L 339.140625 303.34375 L 340.238281 302.929688 L 341.0625 302.515625 L 341.609375 302.164062 L 342.433594 301.488281 L 343.09375 300.746094 L 343.585938 299.980469 L 343.917969 299.238281 L 351.601562 299.238281 L 351.273438 300.113281 L 350.78125 300.964844 L 350.285156 301.597656 L 349.515625 302.363281 L 348.636719 303.039062 L 347.375 303.804688 L 346.332031 304.304688 L 344.960938 304.851562 L 343.695312 305.265625 L 342.324219 305.640625 L 340.292969 306.074219 L 338.976562 306.292969 L 337.546875 306.492188 L 335.847656 306.664062 L 333.703125 306.820312 L 331.398438 306.90625 L 329.257812 306.925781 L 326.953125 306.882812 L 325.25 306.796875 L 323 306.601562 L 320.199219 306.207031 L 318.167969 305.792969 L 316.574219 305.375 L 315.203125 304.941406 L 313.664062 304.351562 L 311.6875 303.390625 L 310.480469 302.644531 L 309.65625 302.035156 L 308.722656 301.183594 L 308.066406 300.417969 L 307.296875 299.195312 L 306.746094 297.644531 L 306.582031 296.441406 Z M 306.582031 293.425781 "/>
<path style=" stroke:none;fill-rule:nonzero;fill:rgb(83.921569%,15.686275%,22.352941%);fill-opacity:1;" d="M 306.582031 308.101562 L 351.601562 308.101562 L 351.601562 308.609375 L 332.839844 308.613281 L 332.839844 312.835938 L 325.289062 312.835938 L 325.289062 308.617188 L 325.179688 308.609375 L 306.582031 308.609375 Z M 306.582031 308.101562 "/>
<path style=" stroke:none;fill-rule:nonzero;fill:rgb(6.27451%,58.823529%,28.235294%);fill-opacity:1;" d="M 353.972656 300.582031 L 354.019531 300.570312 L 373.5 285.902344 L 379.417969 285.902344 L 398.992188 300.597656 L 392.117188 300.597656 L 387.210938 296.761719 L 365.707031 296.761719 L 360.898438 300.582031 L 353.972656 300.582031 L 367.777344 295.175781 L 385.238281 295.160156 L 376.53125 288.300781 L 376.433594 288.289062 L 376.339844 288.328125 L 367.730469 295.160156 L 367.777344 295.175781 Z M 353.972656 300.582031 "/>
<path style=" stroke:none;fill-rule:nonzero;fill:rgb(14.509804%,36.078431%,60%);fill-opacity:1;" d="M 353.972656 304.890625 L 354.027344 304.886719 L 354.027344 304.726562 L 354.191406 304.480469 L 354.578125 304.164062 L 354.960938 303.949219 L 355.949219 303.5625 L 357.320312 303.1875 L 358.75 302.898438 L 359.792969 302.730469 L 360.726562 302.597656 L 362.867188 302.355469 L 364.238281 302.230469 L 365.722656 302.121094 L 367.535156 302.007812 L 368.851562 301.941406 L 371.816406 301.835938 L 374.011719 301.792969 L 375.714844 301.773438 L 379.394531 301.773438 L 381.589844 301.796875 L 383.179688 301.832031 L 384.9375 301.882812 L 386.421875 301.941406 L 389 302.085938 L 391.308594 302.269531 L 392.351562 302.375 L 393.996094 302.578125 L 395.261719 302.773438 L 396.140625 302.945312 L 397.128906 303.1875 L 398.003906 303.484375 L 398.664062 303.816406 L 398.992188 304.097656 L 391.308594 304.097656 L 390.921875 303.835938 L 390.484375 303.632812 L 389.660156 303.363281 L 388.835938 303.175781 L 387.683594 302.984375 L 386.640625 302.859375 L 385.210938 302.734375 L 383.949219 302.65625 L 382.632812 302.597656 L 381.371094 302.558594 L 378.953125 302.519531 L 376.152344 302.519531 L 375.109375 302.53125 L 372.96875 302.585938 L 371.816406 302.628906 L 370.167969 302.722656 L 369.015625 302.808594 L 367.644531 302.9375 L 366.710938 303.050781 L 365.558594 303.21875 L 364.734375 303.371094 L 363.800781 303.585938 L 363.25 303.75 L 362.757812 303.933594 L 362.316406 304.152344 L 361.988281 304.378906 L 361.769531 304.621094 L 361.660156 304.859375 L 361.660156 305.875 L 361.769531 306.109375 L 362.042969 306.386719 L 362.757812 306.785156 L 363.800781 307.132812 L 365.007812 307.410156 L 366.160156 307.605469 L 366.820312 307.695312 L 367.699219 307.800781 L 369.070312 307.933594 L 371.046875 308.0625 L 372.199219 308.117188 L 373.957031 308.167969 L 375.769531 308.195312 L 378.183594 308.195312 L 380.328125 308.167969 L 381.753906 308.136719 L 383.238281 308.082031 L 385.269531 307.972656 L 386.53125 307.867188 L 387.628906 307.742188 L 388.453125 307.617188 L 389 307.511719 L 389.824219 307.308594 L 390.484375 307.085938 L 390.976562 306.859375 L 391.308594 306.636719 L 398.992188 306.636719 L 398.664062 306.898438 L 398.171875 307.152344 L 397.675781 307.34375 L 396.90625 307.570312 L 396.027344 307.773438 L 394.765625 308.003906 L 393.722656 308.15625 L 392.351562 308.320312 L 391.085938 308.445312 L 389.714844 308.554688 L 387.683594 308.6875 L 386.367188 308.75 L 384.9375 308.8125 L 383.238281 308.863281 L 381.09375 308.910156 L 378.789062 308.933594 L 376.648438 308.941406 L 374.34375 308.929688 L 372.640625 308.902344 L 370.390625 308.84375 L 367.589844 308.726562 L 365.558594 308.601562 L 363.964844 308.476562 L 362.59375 308.34375 L 361.054688 308.167969 L 359.078125 307.878906 L 357.871094 307.65625 L 357.046875 307.472656 L 356.113281 307.21875 L 355.453125 306.988281 L 354.6875 306.621094 L 354.136719 306.15625 L 353.972656 305.796875 Z M 353.972656 304.890625 "/>
<path style=" stroke:none;fill-rule:nonzero;fill:rgb(96.862745%,70.196078%,16.862745%);fill-opacity:1;" d="M 353.972656 208.136719 L 354.027344 208.011719 L 354.027344 205.566406 L 354.246094 200.058594 L 354.796875 192.472656 L 355.511719 186.234375 L 356.277344 181.339844 L 356.773438 178.769531 L 357.597656 175.101562 L 358.308594 172.410156 L 360.121094 166.902344 L 362.429688 161.765625 L 363.691406 159.5625 L 365.117188 157.484375 L 367.148438 155.15625 L 368.082031 154.300781 L 370.9375 152.34375 L 374.175781 151.121094 L 377.746094 150.753906 L 379.394531 150.875 L 381.644531 151.363281 L 384.71875 152.710938 L 386.476562 153.933594 L 387.847656 155.15625 L 389.277344 156.75 L 391.03125 159.195312 L 392.679688 162.132812 L 393.996094 165.066406 L 395.316406 168.738281 L 396.414062 172.652344 L 397.347656 176.9375 L 398.171875 182.074219 L 398.664062 186.355469 L 398.992188 190.640625 L 391.363281 190.640625 L 390.921875 186.355469 L 390.429688 183.054688 L 389.605469 179.015625 L 388.78125 176.078125 L 387.957031 173.753906 L 386.421875 170.574219 L 385.101562 168.617188 L 383.457031 166.902344 L 381.863281 165.800781 L 380.050781 165.066406 L 378.953125 164.824219 L 376.042969 164.824219 L 373.410156 165.679688 L 371.871094 166.660156 L 370.773438 167.636719 L 369.234375 169.472656 L 368.300781 170.941406 L 367.753906 171.917969 L 366.105469 175.710938 L 365.007812 179.136719 L 364.40625 181.464844 L 363.636719 185.132812 L 363.085938 188.4375 L 362.484375 193.332031 L 362.152344 197 L 361.714844 205.320312 L 361.660156 227.34375 L 361.824219 231.992188 L 362.152344 237.011719 L 362.59375 241.414062 L 363.25 246.0625 L 363.910156 249.613281 L 365.0625 254.382812 L 366.050781 257.566406 L 366.820312 259.644531 L 368.300781 262.949219 L 368.90625 264.050781 L 370.332031 266.25 L 371.816406 267.964844 L 373.628906 269.433594 L 375 270.167969 L 377.195312 270.777344 L 379.996094 270.777344 L 383.292969 270.042969 L 385.378906 269.066406 L 386.804688 268.085938 L 387.738281 267.230469 L 388.890625 265.882812 L 389.714844 264.660156 L 390.484375 263.316406 L 391.417969 261.234375 L 391.417969 231.992188 L 377.855469 231.871094 L 377.855469 218.167969 L 398.9375 218.046875 L 398.992188 265.882812 L 397.839844 269.1875 L 396.414062 272.367188 L 395.039062 274.816406 L 393.613281 276.894531 L 391.582031 279.21875 L 389.933594 280.6875 L 387.410156 282.402344 L 385.101562 283.503906 L 382.6875 284.238281 L 380.546875 284.605469 L 378.019531 284.726562 L 375.769531 284.480469 L 373.355469 283.746094 L 371.433594 282.769531 L 369.675781 281.546875 L 367.917969 279.953125 L 365.722656 277.386719 L 364.292969 275.304688 L 362.8125 272.734375 L 361.328125 269.675781 L 360.011719 266.375 L 359.132812 263.804688 L 358.253906 260.867188 L 357.320312 257.199219 L 356.441406 253.039062 L 355.785156 249.246094 L 355.179688 244.960938 L 354.742188 240.925781 L 354.300781 235.417969 L 354.082031 231.015625 L 353.972656 227.222656 Z M 353.972656 208.136719 "/>
<path style=" stroke:none;fill-rule:nonzero;fill:rgb(83.921569%,15.686275%,22.352941%);fill-opacity:1;" d="M 353.972656 310.117188 L 398.992188 310.117188 L 398.992188 310.445312 L 380.230469 310.449219 L 380.230469 313.195312 L 372.679688 313.195312 L 372.679688 310.453125 L 372.570312 310.445312 L 353.972656 310.445312 Z M 353.972656 310.117188 "/>
<path style=" stroke:none;fill-rule:nonzero;fill:rgb(83.921569%,15.686275%,22.352941%);fill-opacity:1;" d="M 401.363281 24.773438 L 446.382812 24.773438 L 446.382812 55.429688 L 427.621094 55.699219 L 427.621094 311.171875 L 420.070312 311.171875 L 420.070312 55.96875 L 419.960938 55.429688 L 401.363281 55.429688 Z M 401.363281 24.773438 "/>
<path style=" stroke:none;fill-rule:nonzero;fill:rgb(6.27451%,58.823529%,28.235294%);fill-opacity:1;" d="M 448.753906 311.898438 L 448.800781 311.890625 L 468.28125 303.285156 L 474.199219 303.285156 L 493.773438 311.90625 L 486.898438 311.90625 L 481.992188 309.65625 L 460.488281 309.65625 L 455.679688 311.898438 L 448.753906 311.898438 L 462.558594 308.726562 L 480.019531 308.71875 L 471.3125 304.695312 L 471.214844 304.6875 L 471.121094 304.710938 L 462.511719 308.71875 L 462.558594 308.726562 Z M 448.753906 311.898438 "/>
<path style=" stroke:none;fill-rule:nonzero;fill:rgb(14.509804%,36.078431%,60%);fill-opacity:1;" d="M 448.753906 163.425781 L 448.808594 163.199219 L 448.808594 157.816406 L 448.972656 149.289062 L 449.359375 138.515625 L 449.742188 131.109375 L 450.730469 117.871094 L 452.101562 105.078125 L 453.53125 95.203125 L 454.574219 89.371094 L 455.507812 84.882812 L 457.648438 76.578125 L 459.019531 72.3125 L 460.503906 68.5 L 462.316406 64.683594 L 463.632812 62.441406 L 466.597656 58.851562 L 468.792969 57.277344 L 470.496094 56.605469 L 474.175781 56.605469 L 476.371094 57.503906 L 477.960938 58.625 L 479.71875 60.421875 L 481.203125 62.441406 L 483.78125 67.378906 L 486.089844 73.660156 L 487.132812 77.25 L 488.777344 84.207031 L 490.042969 90.941406 L 490.917969 96.773438 L 491.90625 105.078125 L 492.785156 115.175781 L 493.445312 126.621094 L 493.773438 136.273438 L 486.089844 136.273438 L 485.703125 127.296875 L 485.265625 120.339844 L 484.441406 111.136719 L 483.617188 104.628906 L 482.464844 98.121094 L 481.421875 93.859375 L 479.992188 89.59375 L 478.730469 86.902344 L 477.414062 84.882812 L 476.152344 83.535156 L 473.734375 82.1875 L 470.933594 82.1875 L 469.890625 82.636719 L 467.75 84.433594 L 466.597656 86.003906 L 464.949219 89.144531 L 463.796875 92.0625 L 462.425781 96.550781 L 461.492188 100.367188 L 460.339844 106.199219 L 459.515625 111.363281 L 458.582031 118.769531 L 458.03125 124.378906 L 457.539062 130.660156 L 457.097656 138.066406 L 456.769531 145.921875 L 456.550781 154.226562 L 456.441406 162.304688 L 456.441406 197.085938 L 456.550781 205.167969 L 456.824219 214.589844 L 457.539062 228.28125 L 458.582031 240.175781 L 459.789062 249.597656 L 460.941406 256.332031 L 461.601562 259.472656 L 462.480469 263.0625 L 463.851562 267.550781 L 465.828125 272.039062 L 466.980469 273.835938 L 468.738281 275.632812 L 470.550781 276.527344 L 472.964844 276.527344 L 475.109375 275.632812 L 476.535156 274.507812 L 478.015625 272.714844 L 480.050781 268.898438 L 481.3125 265.308594 L 482.410156 261.042969 L 483.234375 256.78125 L 483.78125 253.191406 L 484.605469 246.234375 L 485.265625 238.601562 L 485.757812 230.75 L 486.089844 223.117188 L 493.773438 223.117188 L 493.445312 232.09375 L 492.953125 240.847656 L 492.457031 247.355469 L 491.6875 255.210938 L 490.808594 262.167969 L 489.546875 270.019531 L 488.503906 275.183594 L 487.132812 280.792969 L 485.867188 285.058594 L 484.496094 288.871094 L 482.464844 293.359375 L 481.148438 295.605469 L 479.71875 297.625 L 478.015625 299.417969 L 475.875 300.988281 L 473.570312 301.886719 L 471.429688 302.113281 L 469.125 301.664062 L 467.421875 300.765625 L 465.171875 298.746094 L 462.371094 294.707031 L 460.339844 290.441406 L 458.746094 286.179688 L 457.375 281.691406 L 455.835938 275.632812 L 453.859375 265.757812 L 452.652344 258.128906 L 451.828125 251.84375 L 450.894531 243.089844 L 450.234375 235.238281 L 449.46875 222.671875 L 448.917969 206.738281 L 448.753906 194.394531 Z M 448.753906 163.425781 "/>
<path style=" stroke:none;fill-rule:nonzero;fill:rgb(6.27451%,58.823529%,28.235294%);fill-opacity:1;" d="M 496.144531 311.746094 L 496.191406 311.472656 L 515.671875 20.664062 L 521.589844 20.664062 L 541.164062 312.019531 L 534.289062 312.019531 L 529.382812 235.96875 L 507.878906 235.96875 L 503.070312 311.746094 L 496.144531 311.746094 L 509.949219 204.503906 L 527.410156 204.230469 L 518.703125 68.265625 L 518.605469 67.992188 L 518.511719 68.8125 L 509.902344 204.230469 L 509.949219 204.503906 Z M 496.144531 311.746094 "/>
<path style=" stroke:none;fill-rule:nonzero;fill:rgb(6.27451%,58.823529%,28.235294%);fill-opacity:1;" d="M 543.535156 313.195312 L 543.582031 313.195312 L 563.0625 312.042969 L 568.980469 312.042969 L 588.554688 313.195312 L 581.675781 313.195312 L 576.773438 312.894531 L 555.269531 312.894531 L 550.460938 313.195312 L 543.535156 313.195312 L 557.339844 312.769531 L 574.800781 312.769531 L 566.09375 312.230469 L 565.996094 312.230469 L 565.902344 312.234375 L 557.292969 312.769531 L 557.339844 312.769531 Z M 543.535156 313.195312 "/>
<path style=" stroke:none;fill-rule:nonzero;fill:rgb(14.509804%,36.078431%,60%);fill-opacity:1;" d="M 543.535156 289.25 L 543.589844 289.230469 L 543.589844 288.699219 L 543.753906 287.859375 L 544.140625 286.800781 L 544.523438 286.070312 L 545.511719 284.769531 L 546.882812 283.507812 L 548.3125 282.539062 L 549.355469 281.964844 L 550.289062 281.519531 L 552.429688 280.703125 L 553.800781 280.285156 L 555.285156 279.910156 L 557.097656 279.535156 L 558.414062 279.3125 L 561.378906 278.960938 L 563.574219 278.804688 L 565.277344 278.738281 L 568.957031 278.738281 L 571.152344 278.828125 L 572.742188 278.9375 L 574.5 279.113281 L 575.984375 279.3125 L 578.5625 279.796875 L 580.871094 280.417969 L 581.914062 280.769531 L 583.558594 281.453125 L 584.824219 282.117188 L 585.699219 282.691406 L 586.6875 283.507812 L 587.566406 284.503906 L 588.226562 285.628906 L 588.554688 286.578125 L 580.871094 286.578125 L 580.484375 285.695312 L 580.046875 285.011719 L 579.222656 284.105469 L 578.398438 283.464844 L 577.246094 282.824219 L 576.203125 282.40625 L 574.773438 281.984375 L 573.511719 281.71875 L 572.195312 281.519531 L 570.933594 281.390625 L 568.515625 281.257812 L 565.714844 281.257812 L 564.671875 281.300781 L 562.53125 281.476562 L 561.378906 281.632812 L 559.730469 281.941406 L 558.578125 282.226562 L 557.207031 282.667969 L 556.273438 283.046875 L 555.121094 283.621094 L 554.296875 284.128906 L 553.363281 284.855469 L 552.8125 285.410156 L 552.320312 286.027344 L 551.878906 286.753906 L 551.550781 287.527344 L 551.332031 288.34375 L 551.222656 289.140625 L 551.222656 292.5625 L 551.332031 293.359375 L 551.605469 294.285156 L 552.320312 295.632812 L 553.363281 296.804688 L 554.570312 297.730469 L 555.722656 298.394531 L 556.382812 298.703125 L 557.261719 299.058594 L 558.632812 299.5 L 560.609375 299.941406 L 561.761719 300.117188 L 563.519531 300.292969 L 565.332031 300.382812 L 567.746094 300.382812 L 569.886719 300.292969 L 571.316406 300.183594 L 572.796875 300.007812 L 574.828125 299.632812 L 576.09375 299.277344 L 577.191406 298.859375 L 578.015625 298.4375 L 578.5625 298.085938 L 579.386719 297.402344 L 580.046875 296.648438 L 580.539062 295.875 L 580.871094 295.125 L 588.554688 295.125 L 588.226562 296.007812 L 587.730469 296.871094 L 587.238281 297.511719 L 586.46875 298.285156 L 585.589844 298.96875 L 584.328125 299.742188 L 583.285156 300.25 L 581.914062 300.800781 L 580.648438 301.222656 L 579.277344 301.597656 L 577.246094 302.039062 L 575.929688 302.257812 L 574.5 302.457031 L 572.796875 302.636719 L 570.65625 302.789062 L 568.351562 302.878906 L 566.210938 302.898438 L 563.902344 302.855469 L 562.203125 302.765625 L 559.949219 302.570312 L 557.152344 302.171875 L 555.121094 301.75 L 553.527344 301.332031 L 552.15625 300.890625 L 550.617188 300.292969 L 548.640625 299.320312 L 547.433594 298.570312 L 546.609375 297.953125 L 545.675781 297.089844 L 545.015625 296.320312 L 544.25 295.082031 L 543.699219 293.515625 L 543.535156 292.300781 Z M 543.535156 289.25 "/>
<path style=" stroke:none;fill-rule:nonzero;fill:rgb(96.862745%,70.196078%,16.862745%);fill-opacity:1;" d="M 543.535156 306.984375 L 543.589844 306.976562 L 543.589844 306.855469 L 543.808594 306.574219 L 544.359375 306.191406 L 545.070312 305.875 L 545.839844 305.625 L 546.335938 305.496094 L 547.160156 305.308594 L 547.871094 305.171875 L 549.683594 304.894531 L 551.988281 304.632812 L 553.253906 304.523438 L 554.679688 304.417969 L 556.710938 304.296875 L 557.644531 304.253906 L 560.5 304.15625 L 563.738281 304.09375 L 567.308594 304.074219 L 568.957031 304.082031 L 571.207031 304.105469 L 574.28125 304.175781 L 576.039062 304.234375 L 577.410156 304.296875 L 578.839844 304.378906 L 580.59375 304.503906 L 582.242188 304.652344 L 583.558594 304.800781 L 584.878906 304.988281 L 585.976562 305.183594 L 586.910156 305.402344 L 587.730469 305.664062 L 588.226562 305.878906 L 588.554688 306.097656 L 580.925781 306.097656 L 580.484375 305.878906 L 579.992188 305.710938 L 579.167969 305.507812 L 578.34375 305.359375 L 577.519531 305.242188 L 575.984375 305.078125 L 574.664062 304.980469 L 573.019531 304.894531 L 571.425781 304.839844 L 569.613281 304.800781 L 568.515625 304.789062 L 565.605469 304.789062 L 562.972656 304.832031 L 561.433594 304.882812 L 560.335938 304.929688 L 558.796875 305.023438 L 557.863281 305.097656 L 557.316406 305.148438 L 555.667969 305.339844 L 554.570312 305.515625 L 553.964844 305.632812 L 553.199219 305.816406 L 552.648438 305.984375 L 552.046875 306.234375 L 551.714844 306.421875 L 551.277344 306.84375 L 551.222656 307.957031 L 551.386719 308.195312 L 551.714844 308.449219 L 552.15625 308.671875 L 552.8125 308.90625 L 553.472656 309.085938 L 554.625 309.328125 L 555.613281 309.492188 L 556.382812 309.597656 L 557.863281 309.765625 L 558.46875 309.820312 L 559.894531 309.929688 L 561.378906 310.019531 L 563.191406 310.09375 L 564.5625 310.128906 L 566.757812 310.160156 L 569.558594 310.160156 L 572.851562 310.125 L 574.941406 310.074219 L 576.367188 310.023438 L 577.300781 309.980469 L 578.453125 309.914062 L 579.277344 309.851562 L 580.046875 309.78125 L 580.980469 309.675781 L 580.980469 308.195312 L 567.417969 308.1875 L 567.417969 307.492188 L 588.5 307.488281 L 588.554688 309.914062 L 587.402344 310.082031 L 585.976562 310.242188 L 584.601562 310.367188 L 583.175781 310.472656 L 581.144531 310.589844 L 579.496094 310.664062 L 576.972656 310.75 L 574.664062 310.804688 L 572.25 310.84375 L 570.109375 310.863281 L 567.582031 310.867188 L 565.332031 310.855469 L 562.914062 310.820312 L 560.996094 310.769531 L 559.238281 310.707031 L 557.480469 310.625 L 555.285156 310.496094 L 553.855469 310.390625 L 552.375 310.261719 L 550.890625 310.105469 L 549.574219 309.9375 L 548.695312 309.808594 L 547.816406 309.660156 L 546.882812 309.472656 L 546.003906 309.261719 L 545.347656 309.070312 L 544.742188 308.851562 L 544.304688 308.648438 L 543.863281 308.367188 L 543.644531 308.144531 L 543.535156 307.953125 Z M 543.535156 306.984375 "/>
<path style=" stroke:none;fill-rule:nonzero;fill:rgb(83.921569%,15.686275%,22.352941%);fill-opacity:1;" d="M 543.535156 224.84375 L 588.554688 224.84375 L 588.554688 230.484375 L 569.792969 230.535156 L 569.792969 277.5625 L 562.242188 277.5625 L 562.242188 230.585938 L 562.132812 230.484375 L 543.535156 230.484375 Z M 543.535156 224.84375 "/>
<path style=" stroke:none;fill-rule:nonzero;fill:rgb(6.27451%,58.823529%,28.235294%);fill-opacity:1;" d="M 590.925781 308.554688 L 590.972656 308.550781 L 610.453125 305.679688 L 616.371094 305.679688 L 635.945312 308.554688 L 629.066406 308.554688 L 624.164062 307.804688 L 602.660156 307.804688 L 597.851562 308.554688 L 590.925781 308.554688 L 604.730469 307.492188 L 622.191406 307.492188 L 613.484375 306.148438 L 613.386719 306.144531 L 613.292969 306.152344 L 604.683594 307.492188 L 604.730469 307.492188 Z M 590.925781 308.554688 "/>
<path style=" stroke:none;fill-rule:nonzero;fill:rgb(14.509804%,36.078431%,60%);fill-opacity:1;" d="M 590.925781 302.160156 L 590.980469 302.15625 L 590.980469 302.0625 L 591.144531 301.917969 L 591.53125 301.738281 L 591.914062 301.613281 L 592.902344 301.386719 L 594.273438 301.171875 L 595.703125 301.003906 L 596.746094 300.90625 L 597.679688 300.828125 L 599.820312 300.6875 L 601.191406 300.617188 L 602.675781 300.554688 L 604.488281 300.488281 L 605.804688 300.449219 L 608.769531 300.390625 L 610.964844 300.363281 L 612.667969 300.351562 L 616.347656 300.351562 L 618.542969 300.367188 L 620.132812 300.386719 L 621.890625 300.417969 L 623.375 300.449219 L 625.953125 300.535156 L 628.261719 300.640625 L 629.304688 300.699219 L 630.949219 300.820312 L 632.214844 300.933594 L 633.089844 301.03125 L 634.078125 301.171875 L 634.957031 301.34375 L 635.617188 301.535156 L 635.945312 301.699219 L 628.261719 301.699219 L 627.875 301.546875 L 627.4375 301.429688 L 626.613281 301.273438 L 625.789062 301.164062 L 624.636719 301.054688 L 623.59375 300.980469 L 622.164062 300.910156 L 620.902344 300.863281 L 619.585938 300.828125 L 618.324219 300.808594 L 615.90625 300.785156 L 613.105469 300.785156 L 612.0625 300.792969 L 609.921875 300.824219 L 608.769531 300.847656 L 607.121094 300.902344 L 605.96875 300.953125 L 604.597656 301.027344 L 603.664062 301.089844 L 602.511719 301.191406 L 601.6875 301.277344 L 600.753906 301.402344 L 600.203125 301.496094 L 599.710938 301.605469 L 599.269531 301.730469 L 598.941406 301.863281 L 598.722656 302.003906 L 598.613281 302.140625 L 598.613281 302.726562 L 598.722656 302.863281 L 598.996094 303.023438 L 599.710938 303.253906 L 600.753906 303.457031 L 601.960938 303.617188 L 603.113281 303.730469 L 603.773438 303.78125 L 604.652344 303.84375 L 606.023438 303.917969 L 608 303.996094 L 609.152344 304.027344 L 610.910156 304.054688 L 612.722656 304.070312 L 615.136719 304.070312 L 617.277344 304.054688 L 618.707031 304.039062 L 620.1875 304.007812 L 622.21875 303.941406 L 623.484375 303.882812 L 624.582031 303.808594 L 625.40625 303.738281 L 625.953125 303.675781 L 626.777344 303.558594 L 627.4375 303.429688 L 627.929688 303.296875 L 628.261719 303.167969 L 635.945312 303.167969 L 635.617188 303.320312 L 635.121094 303.46875 L 634.628906 303.578125 L 633.859375 303.710938 L 632.980469 303.828125 L 631.71875 303.960938 L 630.675781 304.046875 L 629.304688 304.144531 L 628.039062 304.214844 L 626.667969 304.28125 L 624.636719 304.355469 L 623.320312 304.394531 L 621.890625 304.429688 L 620.1875 304.457031 L 618.046875 304.484375 L 615.742188 304.5 L 613.601562 304.503906 L 611.292969 304.496094 L 609.59375 304.480469 L 607.339844 304.445312 L 604.542969 304.378906 L 602.511719 304.308594 L 600.917969 304.234375 L 599.546875 304.160156 L 598.007812 304.054688 L 596.03125 303.890625 L 594.824219 303.761719 L 594 303.652344 L 593.066406 303.503906 L 592.40625 303.371094 L 591.640625 303.160156 L 591.089844 302.890625 L 590.925781 302.683594 Z M 590.925781 302.160156 "/>
<path style=" stroke:none;fill-rule:nonzero;fill:rgb(96.862745%,70.196078%,16.862745%);fill-opacity:1;" d="M 590.925781 312.59375 L 590.980469 312.59375 L 590.980469 312.574219 L 591.199219 312.53125 L 591.75 312.46875 L 592.460938 312.421875 L 593.230469 312.382812 L 593.726562 312.363281 L 594.550781 312.332031 L 595.261719 312.3125 L 597.074219 312.269531 L 599.378906 312.226562 L 600.644531 312.210938 L 602.070312 312.195312 L 604.101562 312.175781 L 605.035156 312.167969 L 607.890625 312.152344 L 611.128906 312.144531 L 614.699219 312.140625 L 616.347656 312.144531 L 618.597656 312.144531 L 621.671875 312.15625 L 623.429688 312.167969 L 624.800781 312.175781 L 626.230469 312.1875 L 627.984375 312.207031 L 629.632812 312.230469 L 630.949219 312.253906 L 632.269531 312.28125 L 633.367188 312.3125 L 634.300781 312.347656 L 635.121094 312.386719 L 635.617188 312.421875 L 635.945312 312.457031 L 628.316406 312.457031 L 627.875 312.421875 L 627.382812 312.394531 L 626.558594 312.363281 L 625.734375 312.339844 L 624.910156 312.324219 L 623.375 312.296875 L 622.054688 312.28125 L 620.410156 312.269531 L 618.816406 312.261719 L 617.003906 312.253906 L 612.996094 312.253906 L 610.363281 312.257812 L 608.824219 312.265625 L 607.726562 312.273438 L 606.1875 312.289062 L 605.253906 312.300781 L 604.707031 312.308594 L 603.058594 312.339844 L 601.960938 312.363281 L 601.355469 312.382812 L 600.589844 312.414062 L 600.039062 312.4375 L 599.433594 312.476562 L 599.105469 312.503906 L 598.667969 312.570312 L 598.613281 312.746094 L 598.777344 312.78125 L 599.105469 312.820312 L 599.546875 312.855469 L 600.203125 312.890625 L 600.863281 312.917969 L 602.015625 312.957031 L 603.003906 312.980469 L 603.773438 313 L 605.253906 313.023438 L 605.859375 313.03125 L 607.285156 313.050781 L 608.769531 313.0625 L 610.582031 313.074219 L 611.953125 313.082031 L 614.148438 313.085938 L 616.949219 313.085938 L 620.242188 313.082031 L 622.332031 313.074219 L 623.757812 313.066406 L 624.691406 313.058594 L 625.84375 313.046875 L 626.667969 313.039062 L 627.4375 313.027344 L 628.371094 313.011719 L 628.371094 312.78125 L 614.808594 312.78125 L 614.808594 312.671875 L 635.890625 312.671875 L 635.945312 313.046875 L 634.792969 313.074219 L 633.367188 313.097656 L 631.992188 313.117188 L 630.566406 313.132812 L 628.535156 313.152344 L 626.886719 313.164062 L 624.363281 313.175781 L 622.054688 313.1875 L 619.640625 313.191406 L 617.5 313.195312 L 612.722656 313.195312 L 610.304688 313.1875 L 608.386719 313.179688 L 606.628906 313.171875 L 604.871094 313.160156 L 602.675781 313.136719 L 601.246094 313.121094 L 599.765625 313.101562 L 598.28125 313.078125 L 596.964844 313.050781 L 596.085938 313.03125 L 595.207031 313.007812 L 594.273438 312.980469 L 593.394531 312.945312 L 592.738281 312.917969 L 592.132812 312.882812 L 591.695312 312.851562 L 591.253906 312.808594 L 591.035156 312.773438 L 590.925781 312.742188 Z M 590.925781 312.59375 "/>
<path style=" stroke:none;fill-rule:nonzero;fill:rgb(83.921569%,15.686275%,22.352941%);fill-opacity:1;" d="M 590.925781 309.730469 L 635.945312 309.730469 L 635.945312 309.863281 L 617.183594 309.863281 L 617.183594 310.96875 L 609.632812 310.96875 L 609.632812 309.863281 L 590.925781 309.863281 Z M 590.925781 309.730469 "/>
<g style="fill:rgb(0%,0%,0%);fill-opacity:1;">
  <use xlink:href="#glyph0-1" x="21.957031" y="317.018555"/>
  <use xlink:href="#glyph0-2" x="27.291016" y="317.018555"/>
  <use xlink:href="#glyph0-1" x="29.958008" y="317.018555"/>
</g>
<g style="fill:rgb(0%,0%,0%);fill-opacity:1;">
  <use xlink:href="#glyph0-1" x="21.957031" y="241.952148"/>
  <use xlink:href="#glyph0-2" x="27.291016" y="241.952148"/>
  <use xlink:href="#glyph0-3" x="29.958008" y="241.952148"/>
</g>
<g style="fill:rgb(0%,0%,0%);fill-opacity:1;">
  <use xlink:href="#glyph0-4" x="21.957031" y="166.889648"/>
  <use xlink:href="#glyph0-2" x="27.291016" y="166.889648"/>
  <use xlink:href="#glyph0-1" x="29.958008" y="166.889648"/>
</g>
<g style="fill:rgb(0%,0%,0%);fill-opacity:1;">
  <use xlink:href="#glyph0-4" x="21.957031" y="91.827148"/>
  <use xlink:href="#glyph0-2" x="27.291016" y="91.827148"/>
  <use xlink:href="#glyph0-3" x="29.958008" y="91.827148"/>
</g>
<g style="fill:rgb(0%,0%,0%);fill-opacity:1;">
  <use xlink:href="#glyph0-5" x="21.957031" y="16.760742"/>
  <use xlink:href="#glyph0-2" x="27.291016" y="16.760742"/>
  <use xlink:href="#glyph0-1" x="29.958008" y="16.760742"/>
</g>
<g style="fill:rgb(0%,0%,0%);fill-opacity:1;">
  <use xlink:href="#glyph0-4" x="89.140625" y="338.19043"/>
</g>
<g style="fill:rgb(0%,0%,0%);fill-opacity:1;">
  <use xlink:href="#glyph0-5" x="136.53125" y="338.19043"/>
</g>
<g style="fill:rgb(0%,0%,0%);fill-opacity:1;">
  <use xlink:href="#glyph0-6" x="183.921875" y="338.19043"/>
</g>
<g style="fill:rgb(0%,0%,0%);fill-opacity:1;">
  <use xlink:href="#glyph0-7" x="231.3125" y="338.19043"/>
</g>
<g style="fill:rgb(0%,0%,0%);fill-opacity:1;">
  <use xlink:href="#glyph0-3" x="278.703125" y="338.19043"/>
</g>
<g style="fill:rgb(0%,0%,0%);fill-opacity:1;">
  <use xlink:href="#glyph0-8" x="326.09375" y="338.19043"/>
</g>
<g style="fill:rgb(0%,0%,0%);fill-opacity:1;">
  <use xlink:href="#glyph0-9" x="373.484375" y="338.19043"/>
</g>
<g style="fill:rgb(0%,0%,0%);fill-opacity:1;">
  <use xlink:href="#glyph0-10" x="420.875" y="338.19043"/>
</g>
<g style="fill:rgb(0%,0%,0%);fill-opacity:1;">
  <use xlink:href="#glyph0-11" x="468.265625" y="338.19043"/>
</g>
<g style="fill:rgb(0%,0%,0%);fill-opacity:1;">
  <use xlink:href="#glyph0-4" x="513.15625" y="338.19043"/>
  <use xlink:href="#glyph0-1" x="518.490234" y="338.19043"/>
</g>
<g style="fill:rgb(0%,0%,0%);fill-opacity:1;">
  <use xlink:href="#glyph0-4" x="560.546875" y="338.19043"/>
  <use xlink:href="#glyph0-4" x="565.880859" y="338.19043"/>
</g>
<g style="fill:rgb(0%,0%,0%);fill-opacity:1;">
  <use xlink:href="#glyph0-4" x="607.9375" y="338.19043"/>
  <use xlink:href="#glyph0-5" x="613.271484" y="338.19043"/>
</g>
<g style="fill:rgb(0%,0%,0%);fill-opacity:1;">
  <use xlink:href="#glyph0-4" x="655.328125" y="338.19043"/>
  <use xlink:href="#glyph0-6" x="660.662109" y="338.19043"/>
</g>
<g style="fill:rgb(0%,0%,0%);fill-opacity:1;">
  <use xlink:href="#glyph1-1" x="14.412109" y="178.015625"/>
  <use xlink:href="#glyph1-2" x="14.412109" y="170.011719"/>
  <use xlink:href="#glyph1-3" x="14.412109" y="167.347656"/>
  <use xlink:href="#glyph1-4" x="14.412109" y="164.011719"/>
</g>
</g>
</svg>
