<?xml version="1.0" encoding="UTF-8"?>
<svg xmlns="http://www.w3.org/2000/svg" xmlns:xlink="http://www.w3.org/1999/xlink" width="720pt" height="360pt" viewBox="0 0 720 360" version="1.1">
<defs>
<g>
<symbol overflow="visible" id="glyph0-0">
<path style="stroke:none;" d=""/>
</symbol>
<symbol overflow="visible" id="glyph0-1">
<path style="stroke:none;" d="M 2.640625 -6.796875 C 2 -6.796875 1.421875 -6.53125 1.078125 -6.046875 C 0.640625 -5.453125 0.40625 -4.546875 0.40625 -3.296875 C 0.40625 -1 1.1875 0.21875 2.640625 0.21875 C 4.078125 0.21875 4.859375 -1 4.859375 -3.234375 C 4.859375 -4.5625 4.65625 -5.4375 4.203125 -6.046875 C 3.84375 -6.53125 3.28125 -6.796875 2.640625 -6.796875 Z M 2.640625 -6.046875 C 3.546875 -6.046875 4 -5.125 4 -3.3125 C 4 -1.375 3.5625 -0.484375 2.625 -0.484375 C 1.734375 -0.484375 1.28125 -1.421875 1.28125 -3.28125 C 1.28125 -5.140625 1.734375 -6.046875 2.640625 -6.046875 Z M 2.640625 -6.046875 "/>
</symbol>
<symbol overflow="visible" id="glyph0-2">
<path style="stroke:none;" d="M 1.828125 -1 L 0.828125 -1 L 0.828125 0 L 1.828125 0 Z M 1.828125 -1 "/>
</symbol>
<symbol overflow="visible" id="glyph0-3">
<path style="stroke:none;" d="M 4.5625 -6.796875 L 1.0625 -6.796875 L 0.546875 -3.09375 L 1.328125 -3.09375 C 1.71875 -3.5625 2.046875 -3.734375 2.578125 -3.734375 C 3.484375 -3.734375 4.0625 -3.109375 4.0625 -2.09375 C 4.0625 -1.125 3.484375 -0.53125 2.578125 -0.53125 C 1.828125 -0.53125 1.375 -0.90625 1.1875 -1.671875 L 0.328125 -1.671875 C 0.453125 -1.109375 0.546875 -0.84375 0.75 -0.59375 C 1.125 -0.078125 1.828125 0.21875 2.59375 0.21875 C 3.96875 0.21875 4.921875 -0.78125 4.921875 -2.21875 C 4.921875 -3.5625 4.03125 -4.484375 2.71875 -4.484375 C 2.25 -4.484375 1.859375 -4.359375 1.46875 -4.0625 L 1.734375 -5.96875 L 4.5625 -5.96875 Z M 4.5625 -6.796875 "/>
</symbol>
<symbol overflow="visible" id="glyph0-4">
<path style="stroke:none;" d="M 2.484375 -4.84375 L 2.484375 0 L 3.328125 0 L 3.328125 -6.796875 L 2.765625 -6.796875 C 2.46875 -5.75 2.28125 -5.609375 0.984375 -5.453125 L 0.984375 -4.84375 Z M 2.484375 -4.84375 "/>
</symbol>
<symbol overflow="visible" id="glyph0-5">
<path style="stroke:none;" d="M 4.859375 -0.828125 L 1.28125 -0.828125 C 1.359375 -1.390625 1.671875 -1.75 2.5 -2.234375 L 3.46875 -2.75 C 4.40625 -3.265625 4.90625 -3.96875 4.90625 -4.8125 C 4.90625 -5.375 4.671875 -5.90625 4.265625 -6.265625 C 3.859375 -6.625 3.375 -6.796875 2.71875 -6.796875 C 1.859375 -6.796875 1.21875 -6.5 0.84375 -5.921875 C 0.609375 -5.5625 0.5 -5.125 0.484375 -4.4375 L 1.328125 -4.4375 C 1.359375 -4.90625 1.40625 -5.1875 1.53125 -5.40625 C 1.75 -5.8125 2.1875 -6.0625 2.703125 -6.0625 C 3.46875 -6.0625 4.03125 -5.515625 4.03125 -4.78125 C 4.03125 -4.25 3.71875 -3.796875 3.125 -3.4375 L 2.234375 -2.9375 C 0.8125 -2.140625 0.40625 -1.5 0.328125 0 L 4.859375 0 Z M 4.859375 -0.828125 "/>
</symbol>
<symbol overflow="visible" id="glyph0-6">
<path style="stroke:none;" d="M 2.125 -3.125 L 2.578125 -3.125 C 3.515625 -3.125 3.984375 -2.703125 3.984375 -1.890625 C 3.984375 -1.03125 3.46875 -0.53125 2.578125 -0.53125 C 1.65625 -0.53125 1.203125 -0.984375 1.15625 -1.96875 L 0.3125 -1.96875 C 0.34375 -1.421875 0.4375 -1.078125 0.609375 -0.765625 C 0.953125 -0.109375 1.625 0.21875 2.546875 0.21875 C 3.953125 0.21875 4.859375 -0.609375 4.859375 -1.90625 C 4.859375 -2.765625 4.515625 -3.25 3.703125 -3.515625 C 4.34375 -3.765625 4.65625 -4.25 4.65625 -4.9375 C 4.65625 -6.109375 3.875 -6.796875 2.578125 -6.796875 C 1.203125 -6.796875 0.484375 -6.046875 0.453125 -4.609375 L 1.296875 -4.609375 C 1.3125 -5.015625 1.34375 -5.25 1.453125 -5.453125 C 1.640625 -5.828125 2.0625 -6.0625 2.59375 -6.0625 C 3.34375 -6.0625 3.796875 -5.625 3.796875 -4.90625 C 3.796875 -4.421875 3.609375 -4.140625 3.25 -3.984375 C 3.015625 -3.890625 2.71875 -3.84375 2.125 -3.84375 Z M 2.125 -3.125 "/>
</symbol>
<symbol overflow="visible" id="glyph0-7">
<path style="stroke:none;" d="M 3.140625 -1.625 L 3.140625 0 L 3.984375 0 L 3.984375 -1.625 L 4.984375 -1.625 L 4.984375 -2.390625 L 3.984375 -2.390625 L 3.984375 -6.796875 L 3.359375 -6.796875 L 0.265625 -2.515625 L 0.265625 -1.625 Z M 3.140625 -2.390625 L 1 -2.390625 L 3.140625 -5.359375 Z M 3.140625 -2.390625 "/>
</symbol>
<symbol overflow="visible" id="glyph0-8">
<path style="stroke:none;" d="M 4.78125 -5.03125 C 4.609375 -6.140625 3.890625 -6.796875 2.84375 -6.796875 C 2.09375 -6.796875 1.421875 -6.4375 1.03125 -5.828125 C 0.609375 -5.171875 0.40625 -4.34375 0.40625 -3.09375 C 0.40625 -1.953125 0.578125 -1.234375 0.984375 -0.625 C 1.359375 -0.078125 1.953125 0.21875 2.703125 0.21875 C 3.984375 0.21875 4.921875 -0.734375 4.921875 -2.078125 C 4.921875 -3.34375 4.0625 -4.234375 2.84375 -4.234375 C 2.171875 -4.234375 1.640625 -3.96875 1.28125 -3.46875 C 1.28125 -5.125 1.828125 -6.046875 2.796875 -6.046875 C 3.390625 -6.046875 3.796875 -5.671875 3.9375 -5.03125 Z M 2.734375 -3.484375 C 3.546875 -3.484375 4.0625 -2.921875 4.0625 -2 C 4.0625 -1.15625 3.484375 -0.53125 2.703125 -0.53125 C 1.921875 -0.53125 1.328125 -1.1875 1.328125 -2.046875 C 1.328125 -2.890625 1.90625 -3.484375 2.734375 -3.484375 Z M 2.734375 -3.484375 "/>
</symbol>
<symbol overflow="visible" id="glyph0-9">
<path style="stroke:none;" d="M 4.984375 -6.796875 L 0.4375 -6.796875 L 0.4375 -5.96875 L 4.109375 -5.96875 C 2.5 -3.65625 1.828125 -2.234375 1.328125 0 L 2.21875 0 C 2.59375 -2.171875 3.453125 -4.046875 4.984375 -6.09375 Z M 4.984375 -6.796875 "/>
</symbol>
<symbol overflow="visible" id="glyph0-10">
<path style="stroke:none;" d="M 3.75 -3.578125 C 4.453125 -4 4.6875 -4.34375 4.6875 -4.984375 C 4.6875 -6.046875 3.84375 -6.796875 2.640625 -6.796875 C 1.4375 -6.796875 0.59375 -6.046875 0.59375 -4.984375 C 0.59375 -4.359375 0.828125 -4.015625 1.515625 -3.578125 C 0.734375 -3.203125 0.359375 -2.640625 0.359375 -1.890625 C 0.359375 -0.640625 1.296875 0.21875 2.640625 0.21875 C 3.984375 0.21875 4.921875 -0.640625 4.921875 -1.875 C 4.921875 -2.640625 4.53125 -3.203125 3.75 -3.578125 Z M 2.640625 -6.046875 C 3.359375 -6.046875 3.8125 -5.625 3.8125 -4.96875 C 3.8125 -4.34375 3.34375 -3.921875 2.640625 -3.921875 C 1.921875 -3.921875 1.453125 -4.34375 1.453125 -4.984375 C 1.453125 -5.625 1.921875 -6.046875 2.640625 -6.046875 Z M 2.640625 -3.203125 C 3.484375 -3.203125 4.0625 -2.671875 4.0625 -1.875 C 4.0625 -1.0625 3.484375 -0.53125 2.625 -0.53125 C 1.796875 -0.53125 1.21875 -1.078125 1.21875 -1.875 C 1.21875 -2.671875 1.796875 -3.203125 2.640625 -3.203125 Z M 2.640625 -3.203125 "/>
</symbol>
<symbol overflow="visible" id="glyph0-11">
<path style="stroke:none;" d="M 0.515625 -1.546875 C 0.671875 -0.4375 1.40625 0.21875 2.4375 0.21875 C 3.1875 0.21875 3.859375 -0.140625 4.265625 -0.75 C 4.6875 -1.40625 4.890625 -2.25 4.890625 -3.484375 C 4.890625 -4.625 4.703125 -5.359375 4.3125 -5.953125 C 3.9375 -6.5 3.34375 -6.796875 2.59375 -6.796875 C 1.296875 -6.796875 0.359375 -5.84375 0.359375 -4.515625 C 0.359375 -3.25 1.234375 -2.34375 2.453125 -2.34375 C 3.09375 -2.34375 3.5625 -2.578125 4.015625 -3.109375 C 4 -1.453125 3.46875 -0.53125 2.5 -0.53125 C 1.90625 -0.53125 1.484375 -0.90625 1.359375 -1.546875 Z M 2.578125 -6.0625 C 3.375 -6.0625 3.96875 -5.40625 3.96875 -4.53125 C 3.96875 -3.6875 3.375 -3.09375 2.546875 -3.09375 C 1.734375 -3.09375 1.234375 -3.671875 1.234375 -4.578125 C 1.234375 -5.4375 1.796875 -6.0625 2.578125 -6.0625 Z M 2.578125 -6.0625 "/>
</symbol>
<symbol overflow="visible" id="glyph1-0">
<path style="stroke:none;" d=""/>
</symbol>
<symbol overflow="visible" id="glyph1-1">
<path style="stroke:none;" d="M 0 -0.953125 L 0 -4.890625 C 0 -5.71875 -0.234375 -6.34375 -0.734375 -6.796875 C -1.1875 -7.234375 -1.8125 -7.46875 -2.5 -7.46875 C -3.546875 -7.46875 -4.1875 -7 -4.625 -5.875 C -4.984375 -6.671875 -5.640625 -7.09375 -6.53125 -7.09375 C -7.15625 -7.09375 -7.734375 -6.859375 -8.140625 -6.390625 C -8.5625 -5.9375 -8.75 -5.34375 -8.75 -4.5 L -8.75 -0.953125 Z M -4.984375 -2.0625 L -7.765625 -2.0625 L -7.765625 -4.21875 C -7.765625 -4.84375 -7.6875 -5.203125 -7.453125 -5.5 C -7.21875 -5.8125 -6.859375 -5.96875 -6.375 -5.96875 C -5.90625 -5.96875 -5.53125 -5.8125 -5.296875 -5.5 C -5.0625 -5.203125 -4.984375 -4.84375 -4.984375 -4.21875 Z M -0.984375 -2.0625 L -4 -2.0625 L -4 -4.78125 C -4 -5.328125 -3.859375 -5.6875 -3.578125 -5.953125 C -3.296875 -6.21875 -2.921875 -6.359375 -2.484375 -6.359375 C -2.0625 -6.359375 -1.6875 -6.21875 -1.40625 -5.953125 C -1.109375 -5.6875 -0.984375 -5.328125 -0.984375 -4.78125 Z M -0.984375 -2.0625 "/>
</symbol>
<symbol overflow="visible" id="glyph1-2">
<path style="stroke:none;" d="M -6.28125 -1.796875 L -6.28125 -0.796875 L 0 -0.796875 L 0 -1.796875 Z M -8.75 -1.796875 L -8.75 -0.796875 L -7.484375 -0.796875 L -7.484375 -1.796875 Z M -8.75 -1.796875 "/>
</symbol>
<symbol overflow="visible" id="glyph1-3">
<path style="stroke:none;" d="M -6.28125 -3.046875 L -6.28125 -2.015625 L -8.015625 -2.015625 L -8.015625 -1.015625 L -6.28125 -1.015625 L -6.28125 -0.171875 L -5.46875 -0.171875 L -5.46875 -1.015625 L -0.71875 -1.015625 C -0.078125 -1.015625 0.28125 -1.453125 0.28125 -2.234375 C 0.28125 -2.46875 0.25 -2.71875 0.1875 -3.046875 L -0.640625 -3.046875 C -0.609375 -2.921875 -0.59375 -2.765625 -0.59375 -2.5625 C -0.59375 -2.140625 -0.71875 -2.015625 -1.15625 -2.015625 L -5.46875 -2.015625 L -5.46875 -3.046875 Z M -6.28125 -3.046875 "/>
</symbol>
<symbol overflow="visible" id="glyph1-4">
<path style="stroke:none;" d="M -4.53125 -5.25 C -5.765625 -5.25 -6.46875 -4.421875 -6.46875 -2.96875 C -6.46875 -1.515625 -5.71875 -0.5625 -4.546875 -0.5625 C -3.5625 -0.5625 -3.09375 -1.0625 -2.734375 -2.5625 L -2.515625 -3.484375 C -2.34375 -4.1875 -2.09375 -4.46875 -1.625 -4.46875 C -1.046875 -4.46875 -0.640625 -3.875 -0.640625 -3 C -0.640625 -2.453125 -0.796875 -2 -1.0625 -1.75 C -1.25 -1.59375 -1.421875 -1.53125 -1.875 -1.46875 L -1.875 -0.40625 C -0.421875 -0.453125 0.28125 -1.265625 0.28125 -2.921875 C 0.28125 -4.5 -0.5 -5.515625 -1.71875 -5.515625 C -2.65625 -5.515625 -3.171875 -4.984375 -3.46875 -3.734375 L -3.703125 -2.765625 C -3.890625 -1.953125 -4.15625 -1.609375 -4.59375 -1.609375 C -5.171875 -1.609375 -5.546875 -2.125 -5.546875 -2.9375 C -5.546875 -3.75 -5.203125 -4.171875 -4.53125 -4.203125 Z M -4.53125 -5.25 "/>
</symbol>
</g>
</defs>
<g id="surface116640">
<rect x="0" y="0" width="720" height="360" style="fill:rgb(100%,100%,100%);fill-opacity:1;stroke:none;"/>
<path style=" stroke:none;fill-rule:nonzero;fill:rgb(6.27451%,58.823529%,28.235294%);fill-opacity:1;" d="M 69.628906 312.398438 L 69.6875 312.394531 L 92.722656 308.621094 L 99.722656 308.621094 L 122.875 312.402344 L 114.738281 312.402344 L 108.9375 311.417969 L 83.507812 311.417969 L 77.820312 312.398438 L 69.628906 312.398438 L 85.957031 311.007812 L 106.605469 311.003906 L 96.308594 309.242188 L 96.195312 309.238281 L 96.082031 309.246094 L 85.898438 311.003906 L 85.957031 311.007812 Z M 69.628906 312.398438 "/>
<path style=" stroke:none;fill-rule:nonzero;fill:rgb(14.509804%,36.078431%,60%);fill-opacity:1;" d="M 69.628906 305.257812 L 69.695312 305.253906 L 69.695312 305.171875 L 69.890625 305.035156 L 70.34375 304.867188 L 70.796875 304.75 L 71.96875 304.542969 L 73.589844 304.339844 L 75.277344 304.183594 L 76.511719 304.09375 L 77.617188 304.023438 L 80.148438 303.890625 L 81.773438 303.824219 L 83.523438 303.765625 L 85.667969 303.703125 L 87.226562 303.667969 L 90.730469 303.613281 L 93.328125 303.585938 L 95.34375 303.578125 L 99.691406 303.578125 L 102.289062 303.589844 L 104.171875 303.609375 L 106.25 303.636719 L 108.003906 303.667969 L 111.054688 303.746094 L 113.78125 303.84375 L 115.015625 303.902344 L 116.964844 304.011719 L 118.457031 304.117188 L 119.496094 304.210938 L 120.664062 304.339844 L 121.703125 304.5 L 122.484375 304.679688 L 122.875 304.832031 L 113.78125 304.832031 L 113.328125 304.691406 L 112.808594 304.582031 L 111.835938 304.433594 L 110.859375 304.332031 L 109.496094 304.230469 L 108.265625 304.164062 L 106.574219 304.097656 L 105.082031 304.054688 L 103.523438 304.023438 L 102.03125 304 L 99.171875 303.980469 L 95.863281 303.980469 L 94.628906 303.988281 L 92.097656 304.015625 L 90.730469 304.039062 L 88.785156 304.089844 L 87.421875 304.136719 L 85.796875 304.207031 L 84.695312 304.265625 L 83.328125 304.359375 L 82.355469 304.4375 L 81.253906 304.554688 L 80.601562 304.644531 L 80.019531 304.742188 L 79.5 304.859375 L 79.109375 304.984375 L 78.851562 305.113281 L 78.71875 305.242188 L 78.71875 305.789062 L 78.851562 305.917969 L 79.175781 306.066406 L 80.019531 306.28125 L 81.253906 306.46875 L 82.679688 306.617188 L 84.042969 306.722656 L 84.824219 306.773438 L 85.863281 306.828125 L 87.484375 306.898438 L 89.824219 306.96875 L 91.1875 306.996094 L 93.265625 307.027344 L 95.40625 307.039062 L 98.265625 307.039062 L 100.796875 307.027344 L 102.484375 307.007812 L 104.238281 306.980469 L 106.640625 306.921875 L 108.132812 306.863281 L 109.433594 306.796875 L 110.40625 306.730469 L 111.054688 306.671875 L 112.03125 306.5625 L 112.808594 306.441406 L 113.394531 306.320312 L 113.78125 306.199219 L 122.875 306.199219 L 122.484375 306.339844 L 121.898438 306.476562 L 121.316406 306.582031 L 120.40625 306.703125 L 119.367188 306.8125 L 117.875 306.9375 L 116.640625 307.019531 L 115.015625 307.105469 L 113.523438 307.175781 L 111.898438 307.234375 L 109.496094 307.304688 L 107.9375 307.339844 L 106.25 307.371094 L 104.238281 307.402344 L 101.707031 307.425781 L 98.976562 307.441406 L 96.445312 307.441406 L 93.71875 307.4375 L 91.707031 307.421875 L 89.042969 307.390625 L 85.730469 307.328125 L 83.328125 307.257812 L 81.445312 307.191406 L 79.824219 307.121094 L 78.003906 307.027344 L 75.667969 306.871094 L 74.238281 306.75 L 73.265625 306.652344 L 72.160156 306.511719 L 71.382812 306.390625 L 70.472656 306.191406 L 69.824219 305.941406 L 69.628906 305.746094 Z M 69.628906 305.257812 "/>
<path style=" stroke:none;fill-rule:nonzero;fill:rgb(96.862745%,70.196078%,16.862745%);fill-opacity:1;" d="M 69.628906 313.921875 L 69.695312 313.917969 L 69.695312 313.90625 L 69.953125 313.871094 L 70.601562 313.828125 L 71.449219 313.792969 L 72.355469 313.761719 L 72.941406 313.746094 L 73.914062 313.726562 L 74.757812 313.710938 L 76.902344 313.679688 L 79.628906 313.648438 L 81.121094 313.636719 L 82.808594 313.621094 L 85.214844 313.609375 L 86.316406 313.605469 L 89.691406 313.59375 L 93.523438 313.585938 L 97.746094 313.582031 L 99.691406 313.582031 L 102.355469 313.585938 L 105.992188 313.59375 L 108.070312 313.601562 L 109.691406 313.609375 L 111.378906 313.617188 L 113.457031 313.632812 L 115.40625 313.648438 L 118.523438 313.6875 L 119.820312 313.710938 L 120.925781 313.738281 L 121.898438 313.765625 L 122.484375 313.792969 L 122.875 313.816406 L 113.847656 313.816406 L 113.328125 313.792969 L 112.742188 313.773438 L 111.769531 313.75 L 110.796875 313.730469 L 109.820312 313.71875 L 108.003906 313.699219 L 106.445312 313.6875 L 104.496094 313.679688 L 102.613281 313.671875 L 100.472656 313.667969 L 99.171875 313.664062 L 95.730469 313.664062 L 92.613281 313.671875 L 90.796875 313.675781 L 89.5 313.683594 L 87.679688 313.691406 L 86.578125 313.703125 L 85.925781 313.707031 L 83.980469 313.730469 L 82.679688 313.75 L 81.964844 313.761719 L 81.058594 313.785156 L 80.40625 313.804688 L 79.695312 313.832031 L 79.304688 313.855469 L 78.785156 313.902344 L 78.71875 314.035156 L 78.914062 314.0625 L 79.304688 314.089844 L 79.824219 314.117188 L 80.601562 314.144531 L 81.382812 314.164062 L 82.746094 314.191406 L 83.914062 314.210938 L 84.824219 314.222656 L 86.578125 314.242188 L 87.289062 314.25 L 88.980469 314.261719 L 90.730469 314.273438 L 92.875 314.28125 L 94.5 314.285156 L 97.09375 314.289062 L 100.40625 314.289062 L 104.304688 314.285156 L 106.769531 314.277344 L 108.457031 314.273438 L 109.5625 314.269531 L 110.925781 314.261719 L 111.898438 314.253906 L 112.808594 314.246094 L 113.914062 314.234375 L 113.914062 314.0625 L 97.875 314.058594 L 97.875 313.980469 L 122.808594 313.980469 L 122.875 314.261719 L 121.511719 314.28125 L 119.820312 314.296875 L 118.199219 314.3125 L 116.511719 314.324219 L 114.109375 314.339844 L 112.160156 314.347656 L 109.171875 314.355469 L 106.445312 314.363281 L 103.589844 314.367188 L 101.054688 314.371094 L 95.40625 314.371094 L 92.550781 314.363281 L 90.277344 314.359375 L 86.121094 314.34375 L 83.523438 314.328125 L 81.835938 314.316406 L 80.082031 314.300781 L 78.332031 314.28125 L 76.773438 314.261719 L 74.695312 314.230469 L 73.589844 314.207031 L 72.550781 314.183594 L 71.773438 314.160156 L 71.058594 314.136719 L 70.539062 314.113281 L 70.019531 314.082031 L 69.757812 314.054688 L 69.628906 314.03125 Z M 69.628906 313.921875 "/>
<path style=" stroke:none;fill-rule:nonzero;fill:rgb(83.921569%,15.686275%,22.352941%);fill-opacity:1;" d="M 69.628906 295.878906 L 122.875 295.878906 L 122.875 296.578125 L 100.683594 296.582031 L 100.683594 302.398438 L 91.753906 302.398438 L 91.753906 296.589844 L 91.625 296.578125 L 69.628906 296.578125 Z M 69.628906 295.878906 "/>
<path style=" stroke:none;fill-rule:nonzero;fill:rgb(6.27451%,58.823529%,28.235294%);fill-opacity:1;" d="M 125.675781 313.6875 L 125.734375 313.679688 L 148.769531 304.75 L 155.769531 304.75 L 178.917969 313.695312 L 170.785156 313.695312 L 164.984375 311.359375 L 139.554688 311.359375 L 133.867188 313.6875 L 125.675781 313.6875 L 142 310.394531 L 162.652344 310.386719 L 152.355469 306.210938 L 152.242188 306.203125 L 152.128906 306.226562 L 141.945312 310.386719 L 142 310.394531 Z M 125.675781 313.6875 "/>
<path style=" stroke:none;fill-rule:nonzero;fill:rgb(14.509804%,36.078431%,60%);fill-opacity:1;" d="M 125.675781 254.292969 L 125.742188 254.257812 L 125.742188 253.433594 L 125.933594 252.125 L 126.390625 250.472656 L 126.84375 249.335938 L 128.011719 247.308594 L 129.636719 245.347656 L 131.324219 243.832031 L 132.558594 242.9375 L 133.664062 242.25 L 136.195312 240.976562 L 137.816406 240.324219 L 139.570312 239.738281 L 141.714844 239.152344 L 143.273438 238.808594 L 146.777344 238.257812 L 149.375 238.019531 L 151.390625 237.914062 L 155.738281 237.914062 L 158.335938 238.054688 L 160.21875 238.226562 L 162.296875 238.5 L 164.050781 238.808594 L 167.101562 239.566406 L 169.828125 240.53125 L 171.0625 241.082031 L 173.011719 242.148438 L 174.503906 243.179688 L 175.542969 244.074219 L 176.710938 245.347656 L 177.75 246.894531 L 178.53125 248.648438 L 178.917969 250.128906 L 169.828125 250.128906 L 169.375 248.753906 L 168.855469 247.6875 L 167.882812 246.277344 L 166.90625 245.277344 L 165.542969 244.28125 L 164.308594 243.625 L 162.621094 242.972656 L 161.128906 242.558594 L 159.570312 242.25 L 158.078125 242.042969 L 155.21875 241.835938 L 151.90625 241.835938 L 150.675781 241.90625 L 148.140625 242.183594 L 146.777344 242.421875 L 144.832031 242.902344 L 143.46875 243.351562 L 141.84375 244.039062 L 140.738281 244.625 L 139.375 245.519531 L 138.402344 246.308594 L 137.296875 247.445312 L 136.648438 248.304688 L 136.066406 249.269531 L 135.546875 250.402344 L 135.15625 251.609375 L 134.894531 252.882812 L 134.765625 254.121094 L 134.765625 259.453125 L 134.894531 260.691406 L 135.21875 262.136719 L 136.066406 264.234375 L 137.296875 266.058594 L 138.726562 267.503906 L 140.089844 268.535156 L 140.871094 269.015625 L 141.910156 269.566406 L 143.53125 270.253906 L 145.871094 270.941406 L 147.234375 271.21875 L 149.3125 271.492188 L 151.453125 271.632812 L 154.3125 271.632812 L 156.84375 271.492188 L 158.53125 271.320312 L 160.285156 271.046875 L 162.6875 270.460938 L 164.179688 269.910156 L 165.480469 269.257812 L 166.453125 268.605469 L 167.101562 268.054688 L 168.074219 266.988281 L 168.855469 265.816406 L 169.441406 264.613281 L 169.828125 263.441406 L 178.917969 263.441406 L 178.53125 264.820312 L 177.945312 266.160156 L 177.363281 267.160156 L 176.453125 268.363281 L 175.414062 269.429688 L 173.921875 270.632812 L 172.6875 271.425781 L 171.0625 272.285156 L 169.570312 272.9375 L 167.945312 273.523438 L 165.542969 274.210938 L 163.984375 274.554688 L 162.296875 274.867188 L 160.285156 275.140625 L 157.753906 275.382812 L 155.023438 275.519531 L 152.492188 275.554688 L 149.765625 275.484375 L 147.753906 275.347656 L 145.089844 275.039062 L 141.777344 274.417969 L 139.375 273.765625 L 137.492188 273.109375 L 135.871094 272.421875 L 134.050781 271.492188 L 131.714844 269.980469 L 130.285156 268.808594 L 129.3125 267.847656 L 128.207031 266.503906 L 127.429688 265.300781 L 126.519531 263.375 L 125.871094 260.933594 L 125.675781 259.039062 Z M 125.675781 254.292969 "/>
<path style=" stroke:none;fill-rule:nonzero;fill:rgb(83.921569%,15.686275%,22.352941%);fill-opacity:1;" d="M 125.675781 276.734375 L 178.917969 276.734375 L 178.917969 279.605469 L 156.730469 279.628906 L 156.730469 303.570312 L 147.800781 303.570312 L 147.800781 279.65625 L 147.671875 279.605469 L 125.675781 279.605469 Z M 125.675781 276.734375 "/>
<path style=" stroke:none;fill-rule:nonzero;fill:rgb(6.27451%,58.823529%,28.235294%);fill-opacity:1;" d="M 181.722656 314.09375 L 181.777344 313.820312 L 204.816406 20.664062 L 211.8125 20.664062 L 234.964844 314.371094 L 226.832031 314.371094 L 221.03125 237.703125 L 195.601562 237.703125 L 189.914062 314.09375 L 181.722656 314.09375 L 198.046875 205.988281 L 218.695312 205.710938 L 208.402344 68.648438 L 208.289062 68.375 L 208.171875 69.199219 L 197.992188 205.710938 L 198.046875 205.988281 Z M 181.722656 314.09375 "/>
<path style=" stroke:none;fill-rule:nonzero;fill:rgb(6.27451%,58.823529%,28.235294%);fill-opacity:1;" d="M 237.769531 314.09375 L 237.824219 313.820312 L 260.863281 20.664062 L 267.859375 20.664062 L 291.011719 314.371094 L 282.878906 314.371094 L 277.074219 237.703125 L 251.648438 237.703125 L 245.960938 314.09375 L 237.769531 314.09375 L 254.09375 205.988281 L 274.742188 205.710938 L 264.449219 68.648438 L 264.332031 68.375 L 264.21875 69.199219 L 254.039062 205.710938 L 254.09375 205.988281 Z M 237.769531 314.09375 "/>
<path style=" stroke:none;fill-rule:nonzero;fill:rgb(83.921569%,15.686275%,22.352941%);fill-opacity:1;" d="M 293.816406 20.664062 L 347.058594 20.664062 L 347.058594 52.101562 L 324.867188 52.378906 L 324.867188 314.371094 L 315.941406 314.371094 L 315.941406 52.652344 L 315.8125 52.101562 L 293.816406 52.101562 Z M 293.816406 20.664062 "/>
<path style=" stroke:none;fill-rule:nonzero;fill:rgb(6.27451%,58.823529%,28.235294%);fill-opacity:1;" d="M 349.859375 301.367188 L 349.917969 301.152344 L 372.957031 70.484375 L 379.953125 70.484375 L 403.105469 301.585938 L 394.972656 301.585938 L 389.167969 241.257812 L 363.742188 241.257812 L 358.050781 301.367188 L 349.859375 301.367188 L 366.1875 216.304688 L 386.835938 216.085938 L 376.539062 108.238281 L 376.425781 108.023438 L 376.3125 108.675781 L 366.128906 216.085938 L 366.1875 216.304688 Z M 349.859375 301.367188 "/>
<path style=" stroke:none;fill-rule:nonzero;fill:rgb(96.862745%,70.196078%,16.862745%);fill-opacity:1;" d="M 349.859375 306.367188 L 349.925781 306.359375 L 349.925781 306.203125 L 350.1875 305.859375 L 350.835938 305.382812 L 351.679688 304.992188 L 352.589844 304.683594 L 353.171875 304.523438 L 354.148438 304.292969 L 354.992188 304.125 L 357.132812 303.777344 L 359.859375 303.457031 L 361.355469 303.316406 L 363.042969 303.1875 L 365.445312 303.039062 L 366.546875 302.988281 L 369.925781 302.863281 L 373.757812 302.785156 L 377.976562 302.765625 L 379.925781 302.773438 L 382.585938 302.800781 L 386.222656 302.886719 L 388.300781 302.964844 L 389.925781 303.039062 L 391.613281 303.140625 L 393.691406 303.292969 L 395.636719 303.476562 L 397.195312 303.664062 L 398.753906 303.894531 L 400.054688 304.140625 L 401.15625 304.40625 L 402.132812 304.730469 L 402.714844 305 L 403.105469 305.269531 L 394.078125 305.269531 L 393.558594 305 L 392.976562 304.792969 L 392 304.539062 L 391.027344 304.355469 L 390.054688 304.207031 L 388.234375 304.007812 L 386.675781 303.886719 L 384.730469 303.777344 L 382.847656 303.707031 L 380.703125 303.664062 L 379.40625 303.648438 L 375.964844 303.648438 L 372.847656 303.699219 L 371.027344 303.761719 L 369.730469 303.824219 L 367.914062 303.9375 L 366.808594 304.03125 L 366.160156 304.09375 L 364.210938 304.332031 L 362.914062 304.546875 L 362.199219 304.691406 L 361.289062 304.921875 L 360.640625 305.128906 L 359.925781 305.4375 L 359.535156 305.667969 L 359.015625 306.191406 L 358.953125 307.570312 L 359.144531 307.863281 L 359.535156 308.179688 L 360.054688 308.457031 L 360.835938 308.746094 L 361.613281 308.96875 L 362.976562 309.269531 L 364.144531 309.46875 L 365.054688 309.601562 L 366.808594 309.808594 L 367.523438 309.875 L 369.210938 310.015625 L 370.964844 310.121094 L 373.105469 310.214844 L 374.730469 310.261719 L 377.328125 310.296875 L 380.640625 310.296875 L 384.535156 310.253906 L 387.003906 310.191406 L 388.691406 310.128906 L 389.792969 310.074219 L 391.15625 309.992188 L 392.132812 309.914062 L 393.039062 309.828125 L 394.144531 309.699219 L 394.144531 307.863281 L 378.105469 307.855469 L 378.105469 306.996094 L 403.039062 306.988281 L 403.105469 309.992188 L 401.742188 310.199219 L 400.054688 310.398438 L 398.429688 310.550781 L 396.742188 310.683594 L 394.339844 310.828125 L 392.390625 310.921875 L 389.40625 311.027344 L 386.675781 311.097656 L 383.820312 311.144531 L 381.289062 311.167969 L 378.300781 311.175781 L 375.640625 311.160156 L 372.78125 311.113281 L 370.507812 311.050781 L 368.433594 310.972656 L 366.355469 310.875 L 363.757812 310.714844 L 362.066406 310.582031 L 360.316406 310.421875 L 358.5625 310.230469 L 357.003906 310.023438 L 355.964844 309.859375 L 354.925781 309.675781 L 353.820312 309.445312 L 352.78125 309.183594 L 352.003906 308.945312 L 351.289062 308.679688 L 350.769531 308.425781 L 350.25 308.078125 L 349.992188 307.800781 L 349.859375 307.5625 Z M 349.859375 306.367188 "/>
<path style=" stroke:none;fill-rule:nonzero;fill:rgb(83.921569%,15.686275%,22.352941%);fill-opacity:1;" d="M 349.859375 312.355469 L 403.105469 312.355469 L 403.105469 312.570312 L 380.914062 312.570312 L 380.914062 314.371094 L 371.988281 314.371094 L 371.988281 312.574219 L 371.859375 312.570312 L 349.859375 312.570312 Z M 349.859375 312.355469 "/>
<path style=" stroke:none;fill-rule:nonzero;fill:rgb(6.27451%,58.823529%,28.235294%);fill-opacity:1;" d="M 405.90625 314.09375 L 405.964844 313.820312 L 429.003906 20.664062 L 436 20.664062 L 459.152344 314.371094 L 451.015625 314.371094 L 445.214844 237.703125 L 419.789062 237.703125 L 414.097656 314.09375 L 405.90625 314.09375 L 422.234375 205.988281 L 442.882812 205.710938 L 432.585938 68.648438 L 432.472656 68.375 L 432.359375 69.199219 L 422.175781 205.710938 L 422.234375 205.988281 Z M 405.90625 314.09375 "/>
<path style=" stroke:none;fill-rule:nonzero;fill:rgb(83.921569%,15.686275%,22.352941%);fill-opacity:1;" d="M 461.953125 20.664062 L 515.199219 20.664062 L 515.199219 52.101562 L 493.007812 52.378906 L 493.007812 314.371094 L 484.078125 314.371094 L 484.078125 52.652344 L 483.949219 52.101562 L 461.953125 52.101562 Z M 461.953125 20.664062 "/>
<path style=" stroke:none;fill-rule:nonzero;fill:rgb(14.509804%,36.078431%,60%);fill-opacity:1;" d="M 518 314.328125 L 518.066406 314.328125 L 518.066406 314.324219 L 518.261719 314.324219 L 519.167969 314.316406 L 520.335938 314.3125 L 521.960938 314.308594 L 523.648438 314.304688 L 525.988281 314.304688 L 528.519531 314.300781 L 530.140625 314.300781 L 531.894531 314.296875 L 535.597656 314.296875 L 539.101562 314.292969 L 552.542969 314.292969 L 554.621094 314.296875 L 559.425781 314.296875 L 562.152344 314.300781 L 565.335938 314.300781 L 566.828125 314.304688 L 567.867188 314.304688 L 569.035156 314.308594 L 570.074219 314.3125 L 570.855469 314.316406 L 571.246094 314.320312 L 562.152344 314.320312 L 561.699219 314.316406 L 561.179688 314.3125 L 560.207031 314.3125 L 559.230469 314.308594 L 557.867188 314.308594 L 556.632812 314.304688 L 551.894531 314.304688 L 550.402344 314.300781 L 540.464844 314.300781 L 539.101562 314.304688 L 534.167969 314.304688 L 533.0625 314.308594 L 531.699219 314.308594 L 530.726562 314.3125 L 529.621094 314.3125 L 528.972656 314.316406 L 528.390625 314.316406 L 527.871094 314.320312 L 527.480469 314.320312 L 527.21875 314.324219 L 527.089844 314.328125 L 527.089844 314.335938 L 527.21875 314.339844 L 527.546875 314.34375 L 528.390625 314.347656 L 529.621094 314.351562 L 531.050781 314.355469 L 533.195312 314.355469 L 534.234375 314.359375 L 538.195312 314.359375 L 539.558594 314.363281 L 552.609375 314.363281 L 555.011719 314.359375 L 557.804688 314.359375 L 558.777344 314.355469 L 559.425781 314.355469 L 560.402344 314.351562 L 561.179688 314.351562 L 561.765625 314.347656 L 571.246094 314.347656 L 570.855469 314.347656 L 570.269531 314.351562 L 569.6875 314.355469 L 568.777344 314.355469 L 567.738281 314.359375 L 566.246094 314.359375 L 565.011719 314.363281 L 563.386719 314.363281 L 561.894531 314.367188 L 556.308594 314.367188 L 554.621094 314.371094 L 537.414062 314.371094 L 534.101562 314.367188 L 529.816406 314.367188 L 528.195312 314.363281 L 526.375 314.363281 L 524.039062 314.359375 L 522.609375 314.355469 L 521.636719 314.355469 L 520.53125 314.351562 L 519.753906 314.351562 L 518.84375 314.347656 L 518.195312 314.339844 L 518 314.335938 Z M 518 314.328125 "/>
<path style=" stroke:none;fill-rule:nonzero;fill:rgb(83.921569%,15.686275%,22.352941%);fill-opacity:1;" d="M 518 26.613281 L 571.246094 26.613281 L 571.246094 57.28125 L 549.054688 57.550781 L 549.054688 313.113281 L 540.125 313.113281 L 540.125 57.820312 L 539.996094 57.28125 L 518 57.28125 Z M 518 26.613281 "/>
<path style=" stroke:none;fill-rule:nonzero;fill:rgb(6.27451%,58.823529%,28.235294%);fill-opacity:1;" d="M 574.046875 305.339844 L 574.101562 305.328125 L 597.140625 293.464844 L 604.136719 293.464844 L 627.289062 305.351562 L 619.15625 305.351562 L 613.355469 302.25 L 587.925781 302.25 L 582.238281 305.339844 L 574.046875 305.339844 L 590.371094 300.964844 L 611.023438 300.953125 L 600.726562 295.40625 L 600.613281 295.394531 L 600.496094 295.429688 L 590.316406 300.953125 L 590.371094 300.964844 Z M 574.046875 305.339844 "/>
<path style=" stroke:none;fill-rule:nonzero;fill:rgb(14.509804%,36.078431%,60%);fill-opacity:1;" d="M 574.046875 313.0625 L 574.113281 313.058594 L 574.113281 313.007812 L 574.304688 312.929688 L 574.761719 312.828125 L 575.214844 312.757812 L 576.382812 312.632812 L 578.007812 312.511719 L 579.695312 312.417969 L 580.929688 312.363281 L 582.035156 312.320312 L 584.566406 312.242188 L 586.1875 312.203125 L 587.941406 312.164062 L 590.085938 312.128906 L 591.644531 312.109375 L 595.148438 312.074219 L 597.746094 312.058594 L 599.757812 312.054688 L 604.109375 312.054688 L 606.707031 312.0625 L 608.589844 312.070312 L 610.667969 312.089844 L 612.421875 312.109375 L 615.472656 312.15625 L 618.199219 312.214844 L 619.433594 312.246094 L 621.382812 312.3125 L 622.875 312.378906 L 623.914062 312.433594 L 625.082031 312.511719 L 626.121094 312.605469 L 626.902344 312.714844 L 627.289062 312.804688 L 618.199219 312.804688 L 617.746094 312.71875 L 617.226562 312.65625 L 616.253906 312.566406 L 615.277344 312.507812 L 613.914062 312.445312 L 612.679688 312.40625 L 610.992188 312.363281 L 609.5 312.339844 L 607.941406 312.320312 L 606.449219 312.308594 L 603.589844 312.292969 L 600.277344 312.292969 L 599.046875 312.300781 L 596.511719 312.316406 L 595.148438 312.332031 L 593.203125 312.359375 L 591.839844 312.386719 L 590.214844 312.429688 L 589.109375 312.464844 L 587.746094 312.519531 L 586.773438 312.570312 L 585.667969 312.640625 L 585.019531 312.691406 L 584.4375 312.753906 L 583.917969 312.820312 L 583.527344 312.894531 L 583.265625 312.976562 L 583.136719 313.050781 L 583.136719 313.378906 L 583.265625 313.457031 L 583.589844 313.542969 L 584.4375 313.671875 L 585.667969 313.785156 L 587.097656 313.875 L 588.460938 313.9375 L 589.242188 313.96875 L 590.28125 314.003906 L 591.902344 314.042969 L 594.242188 314.085938 L 595.605469 314.105469 L 597.683594 314.121094 L 599.824219 314.128906 L 602.679688 314.128906 L 605.214844 314.121094 L 606.902344 314.109375 L 608.65625 314.09375 L 611.058594 314.058594 L 612.550781 314.023438 L 613.851562 313.984375 L 614.824219 313.941406 L 615.472656 313.910156 L 616.445312 313.84375 L 617.226562 313.769531 L 617.8125 313.695312 L 618.199219 313.625 L 627.289062 313.625 L 626.902344 313.710938 L 626.316406 313.792969 L 625.730469 313.855469 L 624.824219 313.929688 L 623.785156 313.992188 L 622.289062 314.066406 L 621.058594 314.117188 L 619.433594 314.167969 L 617.941406 314.210938 L 616.316406 314.246094 L 613.914062 314.289062 L 612.355469 314.308594 L 610.667969 314.328125 L 608.65625 314.34375 L 606.121094 314.359375 L 603.394531 314.367188 L 600.863281 314.371094 L 598.136719 314.367188 L 596.125 314.359375 L 593.460938 314.339844 L 590.148438 314.300781 L 587.746094 314.261719 L 585.863281 314.21875 L 584.242188 314.179688 L 582.421875 314.121094 L 580.085938 314.027344 L 578.65625 313.957031 L 577.683594 313.894531 L 576.578125 313.8125 L 575.800781 313.738281 L 574.890625 313.621094 L 574.242188 313.46875 L 574.046875 313.355469 Z M 574.046875 313.0625 "/>
<path style=" stroke:none;fill-rule:nonzero;fill:rgb(96.862745%,70.196078%,16.862745%);fill-opacity:1;" d="M 574.046875 281.382812 L 574.113281 281.367188 L 574.113281 281.019531 L 574.371094 280.234375 L 575.019531 279.15625 L 575.863281 278.265625 L 576.773438 277.570312 L 577.359375 277.203125 L 578.332031 276.683594 L 579.175781 276.300781 L 581.320312 275.515625 L 584.046875 274.785156 L 585.539062 274.472656 L 587.226562 274.175781 L 589.628906 273.84375 L 590.734375 273.722656 L 594.109375 273.445312 L 597.941406 273.269531 L 602.160156 273.21875 L 604.109375 273.234375 L 606.773438 273.304688 L 610.410156 273.496094 L 612.484375 273.667969 L 614.109375 273.84375 L 615.796875 274.070312 L 617.875 274.417969 L 619.824219 274.835938 L 621.382812 275.253906 L 622.941406 275.777344 L 624.238281 276.332031 L 625.34375 276.941406 L 626.316406 277.675781 L 626.902344 278.285156 L 627.289062 278.894531 L 618.265625 278.894531 L 617.746094 278.285156 L 617.160156 277.8125 L 616.1875 277.238281 L 615.214844 276.820312 L 614.238281 276.492188 L 612.421875 276.039062 L 610.863281 275.757812 L 608.914062 275.515625 L 607.03125 275.359375 L 604.890625 275.253906 L 603.589844 275.21875 L 600.148438 275.21875 L 597.03125 275.339844 L 595.214844 275.480469 L 593.914062 275.621094 L 592.097656 275.882812 L 590.992188 276.089844 L 590.34375 276.230469 L 588.398438 276.769531 L 587.097656 277.257812 L 586.382812 277.585938 L 585.476562 278.109375 L 584.824219 278.582031 L 584.109375 279.277344 L 583.722656 279.800781 L 583.203125 280.984375 L 583.136719 284.117188 L 583.332031 284.777344 L 583.722656 285.492188 L 584.242188 286.121094 L 585.019531 286.78125 L 585.800781 287.285156 L 587.164062 287.964844 L 588.332031 288.417969 L 589.242188 288.714844 L 590.992188 289.183594 L 591.707031 289.339844 L 593.394531 289.65625 L 595.148438 289.898438 L 597.292969 290.105469 L 598.914062 290.210938 L 601.511719 290.296875 L 604.824219 290.296875 L 608.71875 290.195312 L 611.1875 290.054688 L 612.875 289.914062 L 613.980469 289.792969 L 615.34375 289.601562 L 616.316406 289.429688 L 617.226562 289.238281 L 618.332031 288.941406 L 618.332031 284.777344 L 602.292969 284.761719 L 602.292969 282.8125 L 627.226562 282.792969 L 627.289062 289.601562 L 625.925781 290.074219 L 624.238281 290.523438 L 622.617188 290.875 L 620.925781 291.167969 L 618.523438 291.5 L 616.578125 291.710938 L 613.589844 291.953125 L 610.863281 292.109375 L 608.007812 292.214844 L 605.472656 292.265625 L 602.488281 292.285156 L 599.824219 292.25 L 596.96875 292.144531 L 594.695312 292.003906 L 592.617188 291.832031 L 590.539062 291.605469 L 587.941406 291.238281 L 586.253906 290.941406 L 584.5 290.578125 L 582.746094 290.140625 L 581.1875 289.671875 L 580.148438 289.304688 L 579.109375 288.886719 L 578.007812 288.367188 L 576.96875 287.773438 L 576.1875 287.234375 L 575.476562 286.625 L 574.957031 286.050781 L 574.4375 285.265625 L 574.175781 284.640625 L 574.046875 284.101562 Z M 574.046875 281.382812 "/>
<path style=" stroke:none;fill-rule:nonzero;fill:rgb(83.921569%,15.686275%,22.352941%);fill-opacity:1;" d="M 574.046875 306.53125 L 627.289062 306.53125 L 627.289062 306.996094 L 605.101562 307 L 605.101562 310.875 L 596.171875 310.875 L 596.171875 307.003906 L 596.042969 306.996094 L 574.046875 306.996094 Z M 574.046875 306.53125 "/>
<path style=" stroke:none;fill-rule:nonzero;fill:rgb(6.27451%,58.823529%,28.235294%);fill-opacity:1;" d="M 630.09375 292.671875 L 630.148438 292.648438 L 653.1875 265.203125 L 660.183594 265.203125 L 683.335938 292.699219 L 675.203125 292.699219 L 669.398438 285.523438 L 643.972656 285.523438 L 638.285156 292.671875 L 630.09375 292.671875 L 646.417969 282.554688 L 667.066406 282.527344 L 656.773438 269.695312 L 656.65625 269.667969 L 656.542969 269.746094 L 646.363281 282.527344 L 646.417969 282.554688 Z M 630.09375 292.671875 "/>
<path style=" stroke:none;fill-rule:nonzero;fill:rgb(14.509804%,36.078431%,60%);fill-opacity:1;" d="M 630.09375 311.699219 L 630.15625 311.695312 L 630.15625 311.589844 L 630.351562 311.425781 L 630.808594 311.21875 L 631.261719 311.074219 L 632.429688 310.820312 L 634.054688 310.574219 L 635.742188 310.382812 L 636.976562 310.269531 L 638.078125 310.183594 L 640.613281 310.023438 L 642.234375 309.941406 L 643.988281 309.867188 L 646.132812 309.796875 L 647.691406 309.753906 L 651.195312 309.683594 L 653.792969 309.652344 L 655.804688 309.640625 L 660.15625 309.640625 L 662.753906 309.65625 L 664.636719 309.679688 L 666.714844 309.714844 L 668.46875 309.753906 L 671.519531 309.847656 L 674.246094 309.96875 L 675.480469 310.039062 L 677.429688 310.171875 L 678.921875 310.300781 L 679.960938 310.414062 L 681.128906 310.574219 L 682.167969 310.769531 L 682.949219 310.988281 L 683.335938 311.175781 L 674.246094 311.175781 L 673.792969 311.003906 L 673.273438 310.867188 L 672.296875 310.691406 L 671.324219 310.566406 L 669.960938 310.441406 L 668.726562 310.359375 L 667.039062 310.277344 L 665.546875 310.222656 L 663.988281 310.183594 L 662.492188 310.160156 L 659.636719 310.132812 L 656.324219 310.132812 L 655.089844 310.140625 L 652.558594 310.175781 L 651.195312 310.207031 L 649.246094 310.265625 L 647.882812 310.324219 L 646.261719 310.410156 L 645.15625 310.484375 L 643.792969 310.59375 L 642.820312 310.695312 L 641.714844 310.835938 L 641.066406 310.945312 L 640.480469 311.066406 L 639.960938 311.210938 L 639.574219 311.359375 L 639.3125 311.519531 L 639.183594 311.675781 L 639.183594 312.347656 L 639.3125 312.503906 L 639.636719 312.683594 L 640.480469 312.949219 L 641.714844 313.175781 L 643.144531 313.359375 L 644.507812 313.488281 L 645.285156 313.550781 L 646.324219 313.617188 L 647.949219 313.703125 L 650.285156 313.792969 L 651.648438 313.824219 L 653.726562 313.859375 L 655.871094 313.878906 L 658.726562 313.878906 L 661.261719 313.859375 L 662.949219 313.839844 L 664.703125 313.804688 L 667.105469 313.730469 L 668.597656 313.660156 L 669.894531 313.578125 L 670.871094 313.496094 L 671.519531 313.429688 L 672.492188 313.292969 L 673.273438 313.148438 L 673.855469 312.996094 L 674.246094 312.847656 L 683.335938 312.847656 L 682.949219 313.019531 L 682.363281 313.191406 L 681.777344 313.316406 L 680.871094 313.46875 L 679.832031 313.601562 L 678.335938 313.753906 L 677.105469 313.851562 L 675.480469 313.960938 L 673.988281 314.042969 L 672.363281 314.117188 L 669.960938 314.203125 L 668.402344 314.246094 L 666.714844 314.285156 L 664.703125 314.320312 L 662.167969 314.347656 L 659.441406 314.367188 L 656.910156 314.371094 L 654.183594 314.363281 L 652.167969 314.34375 L 649.507812 314.304688 L 646.195312 314.226562 L 643.792969 314.144531 L 641.910156 314.0625 L 640.289062 313.976562 L 638.46875 313.859375 L 636.132812 313.671875 L 634.703125 313.523438 L 633.730469 313.402344 L 632.625 313.234375 L 631.847656 313.082031 L 630.9375 312.839844 L 630.289062 312.53125 L 630.09375 312.296875 Z M 630.09375 311.699219 "/>
<path style=" stroke:none;fill-rule:nonzero;fill:rgb(96.862745%,70.196078%,16.862745%);fill-opacity:1;" d="M 630.09375 305.253906 L 630.15625 305.25 L 630.15625 305.148438 L 630.417969 304.917969 L 631.066406 304.601562 L 631.910156 304.339844 L 632.820312 304.132812 L 633.40625 304.027344 L 634.378906 303.871094 L 635.222656 303.761719 L 637.367188 303.53125 L 640.09375 303.316406 L 641.585938 303.222656 L 643.273438 303.136719 L 645.675781 303.039062 L 646.78125 303.003906 L 650.15625 302.921875 L 653.988281 302.871094 L 658.207031 302.855469 L 660.15625 302.859375 L 662.820312 302.878906 L 666.453125 302.9375 L 668.53125 302.988281 L 670.15625 303.039062 L 671.84375 303.105469 L 673.921875 303.207031 L 675.871094 303.332031 L 677.429688 303.453125 L 678.988281 303.605469 L 680.285156 303.769531 L 681.390625 303.949219 L 682.363281 304.164062 L 682.949219 304.34375 L 683.335938 304.523438 L 674.3125 304.523438 L 673.792969 304.34375 L 673.207031 304.207031 L 672.234375 304.035156 L 671.257812 303.914062 L 670.285156 303.816406 L 668.46875 303.683594 L 666.910156 303.601562 L 664.960938 303.53125 L 663.078125 303.484375 L 660.9375 303.453125 L 659.636719 303.441406 L 656.195312 303.441406 L 653.078125 303.480469 L 651.261719 303.519531 L 649.960938 303.558594 L 648.144531 303.636719 L 647.039062 303.699219 L 646.390625 303.738281 L 644.441406 303.898438 L 643.144531 304.042969 L 642.429688 304.140625 L 641.519531 304.292969 L 640.871094 304.429688 L 640.15625 304.636719 L 639.769531 304.789062 L 639.25 305.136719 L 639.183594 306.058594 L 639.378906 306.253906 L 639.769531 306.464844 L 640.289062 306.648438 L 641.066406 306.84375 L 641.84375 306.992188 L 643.210938 307.191406 L 644.378906 307.324219 L 645.285156 307.410156 L 647.039062 307.550781 L 647.753906 307.59375 L 649.441406 307.6875 L 651.195312 307.757812 L 653.339844 307.820312 L 654.960938 307.851562 L 657.558594 307.875 L 660.871094 307.875 L 664.765625 307.847656 L 667.234375 307.804688 L 668.921875 307.765625 L 670.027344 307.726562 L 671.390625 307.671875 L 672.363281 307.621094 L 673.273438 307.5625 L 674.375 307.476562 L 674.375 306.253906 L 658.339844 306.25 L 658.339844 305.675781 L 683.273438 305.671875 L 683.335938 307.671875 L 681.972656 307.808594 L 680.285156 307.941406 L 678.660156 308.046875 L 676.972656 308.132812 L 674.570312 308.230469 L 672.625 308.292969 L 669.636719 308.363281 L 666.910156 308.410156 L 664.050781 308.441406 L 661.519531 308.457031 L 658.53125 308.460938 L 655.871094 308.449219 L 653.015625 308.417969 L 650.742188 308.378906 L 648.664062 308.328125 L 646.585938 308.261719 L 643.988281 308.152344 L 642.300781 308.066406 L 640.546875 307.957031 L 638.792969 307.832031 L 637.234375 307.691406 L 636.195312 307.585938 L 635.15625 307.460938 L 634.054688 307.308594 L 633.015625 307.132812 L 632.234375 306.976562 L 631.523438 306.796875 L 631.003906 306.628906 L 630.484375 306.398438 L 630.222656 306.210938 L 630.09375 306.054688 Z M 630.09375 305.253906 "/>
<path style=" stroke:none;fill-rule:nonzero;fill:rgb(83.921569%,15.686275%,22.352941%);fill-opacity:1;" d="M 630.09375 293.878906 L 683.335938 293.878906 L 683.335938 294.714844 L 661.148438 294.722656 L 661.148438 301.675781 L 652.21875 301.675781 L 652.21875 294.726562 L 652.089844 294.714844 L 630.09375 294.714844 Z M 630.09375 293.878906 "/>
<g style="fill:rgb(0%,0%,0%);fill-opacity:1;">
  <use xlink:href="#glyph0-1" x="21.957031" y="318.198242"/>
  <use xlink:href="#glyph0-2" x="27.291016" y="318.198242"/>
  <use xlink:href="#glyph0-1" x="29.958008" y="318.198242"/>
</g>
<g style="fill:rgb(0%,0%,0%);fill-opacity:1;">
  <use xlink:href="#glyph0-1" x="21.957031" y="244.475586"/>
  <use xlink:href="#glyph0-2" x="27.291016" y="244.475586"/>
  <use xlink:href="#glyph0-3" x="29.958008" y="244.475586"/>
</g>
<g style="fill:rgb(0%,0%,0%);fill-opacity:1;">
  <use xlink:href="#glyph0-4" x="21.957031" y="170.75293"/>
  <use xlink:href="#glyph0-2" x="27.291016" y="170.75293"/>
  <use xlink:href="#glyph0-1" x="29.958008" y="170.75293"/>
</g>
<g style="fill:rgb(0%,0%,0%);fill-opacity:1;">
  <use xlink:href="#glyph0-4" x="21.957031" y="97.03418"/>
  <use xlink:href="#glyph0-2" x="27.291016" y="97.03418"/>
  <use xlink:href="#glyph0-3" x="29.958008" y="97.03418"/>
</g>
<g style="fill:rgb(0%,0%,0%);fill-opacity:1;">
  <use xlink:href="#glyph0-5" x="21.957031" y="23.311523"/>
  <use xlink:href="#glyph0-2" x="27.291016" y="23.311523"/>
  <use xlink:href="#glyph0-1" x="29.958008" y="23.311523"/>
</g>
<g style="fill:rgb(0%,0%,0%);fill-opacity:1;">
  <use xlink:href="#glyph0-4" x="93.25" y="338.19043"/>
</g>
<g style="fill:rgb(0%,0%,0%);fill-opacity:1;">
  <use xlink:href="#glyph0-5" x="149.296875" y="338.19043"/>
</g>
<g style="fill:rgb(0%,0%,0%);fill-opacity:1;">
  <use xlink:href="#glyph0-6" x="205.34375" y="338.19043"/>
</g>
<g style="fill:rgb(0%,0%,0%);fill-opacity:1;">
  <use xlink:href="#glyph0-7" x="261.390625" y="338.19043"/>
</g>
<g style="fill:rgb(0%,0%,0%);fill-opacity:1;">
  <use xlink:href="#glyph0-3" x="317.4375" y="338.19043"/>
</g>
<g style="fill:rgb(0%,0%,0%);fill-opacity:1;">
  <use xlink:href="#glyph0-8" x="373.484375" y="338.19043"/>
</g>
<g style="fill:rgb(0%,0%,0%);fill-opacity:1;">
  <use xlink:href="#glyph0-9" x="429.53125" y="338.19043"/>
</g>
<g style="fill:rgb(0%,0%,0%);fill-opacity:1;">
  <use xlink:href="#glyph0-10" x="485.574219" y="338.19043"/>
</g>
<g style="fill:rgb(0%,0%,0%);fill-opacity:1;">
  <use xlink:href="#glyph0-11" x="541.621094" y="338.19043"/>
</g>
<g style="fill:rgb(0%,0%,0%);fill-opacity:1;">
  <use xlink:href="#glyph0-4" x="595.167969" y="338.19043"/>
  <use xlink:href="#glyph0-1" x="600.501953" y="338.19043"/>
</g>
<g style="fill:rgb(0%,0%,0%);fill-opacity:1;">
  <use xlink:href="#glyph0-4" x="651.214844" y="338.19043"/>
  <use xlink:href="#glyph0-4" x="656.548828" y="338.19043"/>
</g>
<g style="fill:rgb(0%,0%,0%);fill-opacity:1;">
  <use xlink:href="#glyph1-1" x="14.412109" y="178.015625"/>
  <use xlink:href="#glyph1-2" x="14.412109" y="170.011719"/>
  <use xlink:href="#glyph1-3" x="14.412109" y="167.347656"/>
  <use xlink:href="#glyph1-4" x="14.412109" y="164.011719"/>
</g>
</g>
</svg>
