<?xml version="1.0" encoding="UTF-8"?>
<svg xmlns="http://www.w3.org/2000/svg" xmlns:xlink="http://www.w3.org/1999/xlink" width="720pt" height="360pt" viewBox="0 0 720 360" version="1.1">
<defs>
<g>
<symbol overflow="visible" id="glyph0-0">
<path style="stroke:none;" d=""/>
</symbol>
<symbol overflow="visible" id="glyph0-1">
<path style="stroke:none;" d="M 2.640625 -6.796875 C 2 -6.796875 1.421875 -6.53125 1.078125 -6.046875 C 0.640625 -5.453125 0.40625 -4.546875 0.40625 -3.296875 C 0.40625 -1 1.1875 0.21875 2.640625 0.21875 C 4.078125 0.21875 4.859375 -1 4.859375 -3.234375 C 4.859375 -4.5625 4.65625 -5.4375 4.203125 -6.046875 C 3.84375 -6.53125 3.28125 -6.796875 2.640625 -6.796875 Z M 2.640625 -6.046875 C 3.546875 -6.046875 4 -5.125 4 -3.3125 C 4 -1.375 3.5625 -0.484375 2.625 -0.484375 C 1.734375 -0.484375 1.28125 -1.421875 1.28125 -3.28125 C 1.28125 -5.140625 1.734375 -6.046875 2.640625 -6.046875 Z M 2.640625 -6.046875 "/>
</symbol>
<symbol overflow="visible" id="glyph0-2">
<path style="stroke:none;" d="M 1.828125 -1 L 0.828125 -1 L 0.828125 0 L 1.828125 0 Z M 1.828125 -1 "/>
</symbol>
<symbol overflow="visible" id="glyph0-3">
<path style="stroke:none;" d="M 4.5625 -6.796875 L 1.0625 -6.796875 L 0.546875 -3.09375 L 1.328125 -3.09375 C 1.71875 -3.5625 2.046875 -3.734375 2.578125 -3.734375 C 3.484375 -3.734375 4.0625 -3.109375 4.0625 -2.09375 C 4.0625 -1.125 3.484375 -0.53125 2.578125 -0.53125 C 1.828125 -0.53125 1.375 -0.90625 1.1875 -1.671875 L 0.328125 -1.671875 C 0.453125 -1.109375 0.546875 -0.84375 0.75 -0.59375 C 1.125 -0.078125 1.828125 0.21875 2.59375 0.21875 C 3.96875 0.21875 4.921875 -0.78125 4.921875 -2.21875 C 4.921875 -3.5625 4.03125 -4.484375 2.71875 -4.484375 C 2.25 -4.484375 1.859375 -4.359375 1.46875 -4.0625 L 1.734375 -5.96875 L 4.5625 -5.96875 Z M 4.5625 -6.796875 "/>
</symbol>
<symbol overflow="visible" id="glyph0-4">
<path style="stroke:none;" d="M 2.484375 -4.84375 L 2.484375 0 L 3.328125 0 L 3.328125 -6.796875 L 2.765625 -6.796875 C 2.46875 -5.75 2.28125 -5.609375 0.984375 -5.453125 L 0.984375 -4.84375 Z M 2.484375 -4.84375 "/>
</symbol>
<symbol overflow="visible" id="glyph0-5">
<path style="stroke:none;" d="M 4.859375 -0.828125 L 1.28125 -0.828125 C 1.359375 -1.390625 1.671875 -1.75 2.5 -2.234375 L 3.46875 -2.75 C 4.40625 -3.265625 4.90625 -3.96875 4.90625 -4.8125 C 4.90625 -5.375 4.671875 -5.90625 4.265625 -6.265625 C 3.859375 -6.625 3.375 -6.796875 2.71875 -6.796875 C 1.859375 -6.796875 1.21875 -6.5 0.84375 -5.921875 C 0.609375 -5.5625 0.5 -5.125 0.484375 -4.4375 L 1.328125 -4.4375 C 1.359375 -4.90625 1.40625 -5.1875 1.53125 -5.40625 C 1.75 -5.8125 2.1875 -6.0625 2.703125 -6.0625 C 3.46875 -6.0625 4.03125 -5.515625 4.03125 -4.78125 C 4.03125 -4.25 3.71875 -3.796875 3.125 -3.4375 L 2.234375 -2.9375 C 0.8125 -2.140625 0.40625 -1.5 0.328125 0 L 4.859375 0 Z M 4.859375 -0.828125 "/>
</symbol>
<symbol overflow="visible" id="glyph0-6">
<path style="stroke:none;" d="M 2.125 -3.125 L 2.578125 -3.125 C 3.515625 -3.125 3.984375 -2.703125 3.984375 -1.890625 C 3.984375 -1.03125 3.46875 -0.53125 2.578125 -0.53125 C 1.65625 -0.53125 1.203125 -0.984375 1.15625 -1.96875 L 0.3125 -1.96875 C 0.34375 -1.421875 0.4375 -1.078125 0.609375 -0.765625 C 0.953125 -0.109375 1.625 0.21875 2.546875 0.21875 C 3.953125 0.21875 4.859375 -0.609375 4.859375 -1.90625 C 4.859375 -2.765625 4.515625 -3.25 3.703125 -3.515625 C 4.34375 -3.765625 4.65625 -4.25 4.65625 -4.9375 C 4.65625 -6.109375 3.875 -6.796875 2.578125 -6.796875 C 1.203125 -6.796875 0.484375 -6.046875 0.453125 -4.609375 L 1.296875 -4.609375 C 1.3125 -5.015625 1.34375 -5.25 1.453125 -5.453125 C 1.640625 -5.828125 2.0625 -6.0625 2.59375 -6.0625 C 3.34375 -6.0625 3.796875 -5.625 3.796875 -4.90625 C 3.796875 -4.421875 3.609375 -4.140625 3.25 -3.984375 C 3.015625 -3.890625 2.71875 -3.84375 2.125 -3.84375 Z M 2.125 -3.125 "/>
</symbol>
<symbol overflow="visible" id="glyph0-7">
<path style="stroke:none;" d="M 3.140625 -1.625 L 3.140625 0 L 3.984375 0 L 3.984375 -1.625 L 4.984375 -1.625 L 4.984375 -2.390625 L 3.984375 -2.390625 L 3.984375 -6.796875 L 3.359375 -6.796875 L 0.265625 -2.515625 L 0.265625 -1.625 Z M 3.140625 -2.390625 L 1 -2.390625 L 3.140625 -5.359375 Z M 3.140625 -2.390625 "/>
</symbol>
<symbol overflow="visible" id="glyph0-8">
<path style="stroke:none;" d="M 4.78125 -5.03125 C 4.609375 -6.140625 3.890625 -6.796875 2.84375 -6.796875 C 2.09375 -6.796875 1.421875 -6.4375 1.03125 -5.828125 C 0.609375 -5.171875 0.40625 -4.34375 0.40625 -3.09375 C 0.40625 -1.953125 0.578125 -1.234375 0.984375 -0.625 C 1.359375 -0.078125 1.953125 0.21875 2.703125 0.21875 C 3.984375 0.21875 4.921875 -0.734375 4.921875 -2.078125 C 4.921875 -3.34375 4.0625 -4.234375 2.84375 -4.234375 C 2.171875 -4.234375 1.640625 -3.96875 1.28125 -3.46875 C 1.28125 -5.125 1.828125 -6.046875 2.796875 -6.046875 C 3.390625 -6.046875 3.796875 -5.671875 3.9375 -5.03125 Z M 2.734375 -3.484375 C 3.546875 -3.484375 4.0625 -2.921875 4.0625 -2 C 4.0625 -1.15625 3.484375 -0.53125 2.703125 -0.53125 C 1.921875 -0.53125 1.328125 -1.1875 1.328125 -2.046875 C 1.328125 -2.890625 1.90625 -3.484375 2.734375 -3.484375 Z M 2.734375 -3.484375 "/>
</symbol>
<symbol overflow="visible" id="glyph0-9">
<path style="stroke:none;" d="M 4.984375 -6.796875 L 0.4375 -6.796875 L 0.4375 -5.96875 L 4.109375 -5.96875 C 2.5 -3.65625 1.828125 -2.234375 1.328125 0 L 2.21875 0 C 2.59375 -2.171875 3.453125 -4.046875 4.984375 -6.09375 Z M 4.984375 -6.796875 "/>
</symbol>
<symbol overflow="visible" id="glyph0-10">
<path style="stroke:none;" d="M 3.75 -3.578125 C 4.453125 -4 4.6875 -4.34375 4.6875 -4.984375 C 4.6875 -6.046875 3.84375 -6.796875 2.640625 -6.796875 C 1.4375 -6.796875 0.59375 -6.046875 0.59375 -4.984375 C 0.59375 -4.359375 0.828125 -4.015625 1.515625 -3.578125 C 0.734375 -3.203125 0.359375 -2.640625 0.359375 -1.890625 C 0.359375 -0.640625 1.296875 0.21875 2.640625 0.21875 C 3.984375 0.21875 4.921875 -0.640625 4.921875 -1.875 C 4.921875 -2.640625 4.53125 -3.203125 3.75 -3.578125 Z M 2.640625 -6.046875 C 3.359375 -6.046875 3.8125 -5.625 3.8125 -4.96875 C 3.8125 -4.34375 3.34375 -3.921875 2.640625 -3.921875 C 1.921875 -3.921875 1.453125 -4.34375 1.453125 -4.984375 C 1.453125 -5.625 1.921875 -6.046875 2.640625 -6.046875 Z M 2.640625 -3.203125 C 3.484375 -3.203125 4.0625 -2.671875 4.0625 -1.875 C 4.0625 -1.0625 3.484375 -0.53125 2.625 -0.53125 C 1.796875 -0.53125 1.21875 -1.078125 1.21875 -1.875 C 1.21875 -2.671875 1.796875 -3.203125 2.640625 -3.203125 Z M 2.640625 -3.203125 "/>
</symbol>
<symbol overflow="visible" id="glyph0-11">
<path style="stroke:none;" d="M 0.515625 -1.546875 C 0.671875 -0.4375 1.40625 0.21875 2.4375 0.21875 C 3.1875 0.21875 3.859375 -0.140625 4.265625 -0.75 C 4.6875 -1.40625 4.890625 -2.25 4.890625 -3.484375 C 4.890625 -4.625 4.703125 -5.359375 4.3125 -5.953125 C 3.9375 -6.5 3.34375 -6.796875 2.59375 -6.796875 C 1.296875 -6.796875 0.359375 -5.84375 0.359375 -4.515625 C 0.359375 -3.25 1.234375 -2.34375 2.453125 -2.34375 C 3.09375 -2.34375 3.5625 -2.578125 4.015625 -3.109375 C 4 -1.453125 3.46875 -0.53125 2.5 -0.53125 C 1.90625 -0.53125 1.484375 -0.90625 1.359375 -1.546875 Z M 2.578125 -6.0625 C 3.375 -6.0625 3.96875 -5.40625 3.96875 -4.53125 C 3.96875 -3.6875 3.375 -3.09375 2.546875 -3.09375 C 1.734375 -3.09375 1.234375 -3.671875 1.234375 -4.578125 C 1.234375 -5.4375 1.796875 -6.0625 2.578125 -6.0625 Z M 2.578125 -6.0625 "/>
</symbol>
<symbol overflow="visible" id="glyph1-0">
<path style="stroke:none;" d=""/>
</symbol>
<symbol overflow="visible" id="glyph1-1">
<path style="stroke:none;" d="M 0 -0.953125 L 0 -4.890625 C 0 -5.71875 -0.234375 -6.34375 -0.734375 -6.796875 C -1.1875 -7.234375 -1.8125 -7.46875 -2.5 -7.46875 C -3.546875 -7.46875 -4.1875 -7 -4.625 -5.875 C -4.984375 -6.671875 -5.640625 -7.09375 -6.53125 -7.09375 C -7.15625 -7.09375 -7.734375 -6.859375 -8.140625 -6.390625 C -8.5625 -5.9375 -8.75 -5.34375 -8.75 -4.5 L -8.75 -0.953125 Z M -4.984375 -2.0625 L -7.765625 -2.0625 L -7.765625 -4.21875 C -7.765625 -4.84375 -7.6875 -5.203125 -7.453125 -5.5 C -7.21875 -5.8125 -6.859375 -5.96875 -6.375 -5.96875 C -5.90625 -5.96875 -5.53125 -5.8125 -5.296875 -5.5 C -5.0625 -5.203125 -4.984375 -4.84375 -4.984375 -4.21875 Z M -0.984375 -2.0625 L -4 -2.0625 L -4 -4.78125 C -4 -5.328125 -3.859375 -5.6875 -3.578125 -5.953125 C -3.296875 -6.21875 -2.921875 -6.359375 -2.484375 -6.359375 C -2.0625 -6.359375 -1.6875 -6.21875 -1.40625 -5.953125 C -1.109375 -5.6875 -0.984375 -5.328125 -0.984375 -4.78125 Z M -0.984375 -2.0625 "/>
</symbol>
<symbol overflow="visible" id="glyph1-2">
<path style="stroke:none;" d="M -6.28125 -1.796875 L -6.28125 -0.796875 L 0 -0.796875 L 0 -1.796875 Z M -8.75 -1.796875 L -8.75 -0.796875 L -7.484375 -0.796875 L -7.484375 -1.796875 Z M -8.75 -1.796875 "/>
</symbol>
<symbol overflow="visible" id="glyph1-3">
<path style="stroke:none;" d="M -6.28125 -3.046875 L -6.28125 -2.015625 L -8.015625 -2.015625 L -8.015625 -1.015625 L -6.28125 -1.015625 L -6.28125 -0.171875 L -5.46875 -0.171875 L -5.46875 -1.015625 L -0.71875 -1.015625 C -0.078125 -1.015625 0.28125 -1.453125 0.28125 -2.234375 C 0.28125 -2.46875 0.25 -2.71875 0.1875 -3.046875 L -0.640625 -3.046875 C -0.609375 -2.921875 -0.59375 -2.765625 -0.59375 -2.5625 C -0.59375 -2.140625 -0.71875 -2.015625 -1.15625 -2.015625 L -5.46875 -2.015625 L -5.46875 -3.046875 Z M -6.28125 -3.046875 "/>
</symbol>
<symbol overflow="visible" id="glyph1-4">
<path style="stroke:none;" d="M -4.53125 -5.25 C -5.765625 -5.25 -6.46875 -4.421875 -6.46875 -2.96875 C -6.46875 -1.515625 -5.71875 -0.5625 -4.546875 -0.5625 C -3.5625 -0.5625 -3.09375 -1.0625 -2.734375 -2.5625 L -2.515625 -3.484375 C -2.34375 -4.1875 -2.09375 -4.46875 -1.625 -4.46875 C -1.046875 -4.46875 -0.640625 -3.875 -0.640625 -3 C -0.640625 -2.453125 -0.796875 -2 -1.0625 -1.75 C -1.25 -1.59375 -1.421875 -1.53125 -1.875 -1.46875 L -1.875 -0.40625 C -0.421875 -0.453125 0.28125 -1.265625 0.28125 -2.921875 C 0.28125 -4.5 -0.5 -5.515625 -1.71875 -5.515625 C -2.65625 -5.515625 -3.171875 -4.984375 -3.46875 -3.734375 L -3.703125 -2.765625 C -3.890625 -1.953125 -4.15625 -1.609375 -4.59375 -1.609375 C -5.171875 -1.609375 -5.546875 -2.125 -5.546875 -2.9375 C -5.546875 -3.75 -5.203125 -4.171875 -4.53125 -4.203125 Z M -4.53125 -5.25 "/>
</symbol>
</g>
</defs>
<g id="surface117595">
<rect x="0" y="0" width="720" height="360" style="fill:rgb(100%,100%,100%);fill-opacity:1;stroke:none;"/>
<path style=" stroke:none;fill-rule:nonzero;fill:rgb(6.27451%,58.823529%,28.235294%);fill-opacity:1;" d="M 69.628906 299.199219 L 69.671875 299.191406 L 86.546875 289.722656 L 91.671875 289.722656 L 108.628906 299.210938 L 102.667969 299.210938 L 98.417969 296.734375 L 79.796875 296.734375 L 75.628906 299.199219 L 69.628906 299.199219 L 81.585938 295.707031 L 96.710938 295.699219 L 89.171875 291.269531 L 89.085938 291.261719 L 89.003906 291.289062 L 81.546875 295.699219 L 81.585938 295.707031 Z M 69.628906 299.199219 "/>
<path style=" stroke:none;fill-rule:nonzero;fill:rgb(14.509804%,36.078431%,60%);fill-opacity:1;" d="M 69.628906 312.4375 L 69.675781 312.433594 L 69.675781 312.359375 L 69.820312 312.238281 L 70.152344 312.089844 L 70.484375 311.984375 L 71.339844 311.800781 L 72.53125 311.621094 L 73.765625 311.484375 L 74.671875 311.402344 L 75.480469 311.339844 L 77.332031 311.222656 L 78.523438 311.164062 L 79.808594 311.113281 L 81.375 311.058594 L 82.519531 311.027344 L 85.085938 310.976562 L 86.988281 310.957031 L 88.460938 310.945312 L 91.648438 310.945312 L 93.550781 310.957031 L 94.929688 310.972656 L 96.453125 311 L 97.738281 311.027344 L 99.972656 311.097656 L 101.96875 311.183594 L 102.871094 311.234375 L 104.300781 311.332031 L 105.394531 311.425781 L 106.15625 311.507812 L 107.011719 311.621094 L 107.769531 311.761719 L 108.34375 311.921875 L 108.628906 312.058594 L 101.96875 312.058594 L 101.636719 311.933594 L 101.257812 311.835938 L 100.542969 311.707031 L 99.828125 311.617188 L 98.832031 311.523438 L 97.925781 311.464844 L 96.691406 311.40625 L 95.597656 311.367188 L 94.453125 311.339844 L 93.359375 311.320312 L 91.269531 311.304688 L 88.84375 311.304688 L 87.9375 311.308594 L 86.085938 311.335938 L 85.085938 311.355469 L 83.660156 311.398438 L 82.660156 311.441406 L 81.472656 311.503906 L 80.664062 311.554688 L 79.664062 311.636719 L 78.949219 311.710938 L 78.140625 311.8125 L 77.667969 311.890625 L 77.238281 311.980469 L 76.859375 312.082031 L 76.574219 312.191406 L 76.382812 312.308594 L 76.289062 312.421875 L 76.289062 312.90625 L 76.382812 313.019531 L 76.621094 313.148438 L 77.238281 313.339844 L 78.140625 313.507812 L 79.1875 313.636719 L 80.1875 313.730469 L 80.757812 313.777344 L 81.519531 313.824219 L 82.707031 313.886719 L 84.421875 313.949219 L 85.417969 313.976562 L 86.941406 314 L 88.511719 314.015625 L 90.601562 314.015625 L 92.457031 314 L 93.695312 313.984375 L 94.976562 313.960938 L 96.738281 313.90625 L 97.832031 313.855469 L 98.78125 313.796875 L 99.496094 313.738281 L 99.972656 313.6875 L 100.683594 313.589844 L 101.257812 313.484375 L 101.683594 313.375 L 101.96875 313.269531 L 108.628906 313.269531 L 108.34375 313.394531 L 107.914062 313.515625 L 107.484375 313.605469 L 106.820312 313.714844 L 106.058594 313.8125 L 104.964844 313.921875 L 104.0625 313.996094 L 102.871094 314.074219 L 101.777344 314.132812 L 100.589844 314.1875 L 98.832031 314.25 L 97.6875 314.28125 L 96.453125 314.308594 L 94.976562 314.332031 L 93.125 314.355469 L 91.125 314.367188 L 89.269531 314.371094 L 87.273438 314.363281 L 85.800781 314.351562 L 83.847656 314.324219 L 81.425781 314.265625 L 79.664062 314.207031 L 78.285156 314.148438 L 77.097656 314.085938 L 75.765625 314 L 74.050781 313.863281 L 73.007812 313.757812 L 72.292969 313.667969 L 71.484375 313.546875 L 70.914062 313.4375 L 70.246094 313.261719 L 69.773438 313.039062 L 69.628906 312.867188 Z M 69.628906 312.4375 "/>
<path style=" stroke:none;fill-rule:nonzero;fill:rgb(96.862745%,70.196078%,16.862745%);fill-opacity:1;" d="M 69.628906 266.296875 L 69.675781 266.261719 L 69.675781 265.550781 L 69.867188 263.949219 L 70.34375 261.746094 L 70.960938 259.933594 L 71.625 258.511719 L 72.054688 257.765625 L 72.769531 256.699219 L 73.386719 255.917969 L 74.957031 254.320312 L 76.953125 252.828125 L 78.046875 252.1875 L 79.285156 251.582031 L 81.042969 250.910156 L 81.851562 250.660156 L 84.324219 250.089844 L 87.132812 249.734375 L 90.222656 249.628906 L 91.648438 249.664062 L 93.597656 249.808594 L 96.261719 250.199219 L 97.785156 250.554688 L 98.972656 250.910156 L 100.210938 251.371094 L 101.730469 252.082031 L 103.160156 252.933594 L 104.300781 253.789062 L 105.441406 254.851562 L 106.390625 255.992188 L 107.199219 257.234375 L 107.914062 258.726562 L 108.34375 259.96875 L 108.628906 261.214844 L 102.015625 261.214844 L 101.636719 259.96875 L 101.207031 259.011719 L 100.496094 257.839844 L 99.78125 256.984375 L 99.066406 256.308594 L 97.738281 255.386719 L 96.59375 254.816406 L 95.167969 254.320312 L 93.789062 254 L 92.21875 253.789062 L 91.269531 253.714844 L 88.746094 253.714844 L 86.464844 253.964844 L 85.132812 254.25 L 84.183594 254.535156 L 82.851562 255.066406 L 82.042969 255.492188 L 81.566406 255.777344 L 80.140625 256.878906 L 79.1875 257.875 L 78.664062 258.550781 L 78 259.613281 L 77.523438 260.574219 L 77 261.996094 L 76.714844 263.0625 L 76.335938 265.476562 L 76.289062 271.875 L 76.429688 273.226562 L 76.714844 274.683594 L 77.097656 275.960938 L 77.667969 277.3125 L 78.238281 278.34375 L 79.234375 279.726562 L 80.09375 280.652344 L 80.757812 281.257812 L 82.042969 282.214844 L 82.566406 282.535156 L 83.800781 283.175781 L 85.085938 283.671875 L 86.65625 284.097656 L 87.84375 284.3125 L 89.746094 284.492188 L 92.171875 284.492188 L 95.027344 284.277344 L 96.832031 283.992188 L 98.070312 283.707031 L 98.878906 283.460938 L 99.875 283.070312 L 100.589844 282.714844 L 101.257812 282.324219 L 102.0625 281.71875 L 102.0625 273.226562 L 90.316406 273.191406 L 90.316406 269.210938 L 108.578125 269.175781 L 108.628906 283.070312 L 107.628906 284.027344 L 106.390625 284.953125 L 105.203125 285.664062 L 103.964844 286.265625 L 102.207031 286.941406 L 100.78125 287.367188 L 98.59375 287.867188 L 96.59375 288.1875 L 94.503906 288.398438 L 92.648438 288.503906 L 90.460938 288.542969 L 88.511719 288.46875 L 86.417969 288.257812 L 84.753906 287.972656 L 83.230469 287.617188 L 81.710938 287.15625 L 79.808594 286.410156 L 78.570312 285.804688 L 77.285156 285.058594 L 76.003906 284.171875 L 74.859375 283.210938 L 74.101562 282.464844 L 73.339844 281.613281 L 72.53125 280.546875 L 71.769531 279.335938 L 71.199219 278.234375 L 70.675781 276.992188 L 70.296875 275.820312 L 69.914062 274.21875 L 69.722656 272.941406 L 69.628906 271.839844 Z M 69.628906 266.296875 "/>
<path style=" stroke:none;fill-rule:nonzero;fill:rgb(83.921569%,15.686275%,22.352941%);fill-opacity:1;" d="M 69.628906 300.390625 L 108.628906 300.390625 L 108.628906 301.394531 L 92.375 301.402344 L 92.375 309.765625 L 85.835938 309.765625 L 85.835938 301.410156 L 85.742188 301.394531 L 69.628906 301.394531 Z M 69.628906 300.390625 "/>
<path style=" stroke:none;fill-rule:nonzero;fill:rgb(6.27451%,58.823529%,28.235294%);fill-opacity:1;" d="M 110.679688 298.996094 L 110.722656 298.988281 L 127.597656 289.621094 L 132.71875 289.621094 L 149.679688 299.007812 L 143.71875 299.007812 L 139.46875 296.558594 L 120.847656 296.558594 L 116.679688 298.996094 L 110.679688 298.996094 L 122.636719 295.542969 L 137.761719 295.535156 L 130.222656 291.15625 L 130.136719 291.148438 L 130.054688 291.171875 L 122.597656 295.535156 L 122.636719 295.542969 Z M 110.679688 298.996094 "/>
<path style=" stroke:none;fill-rule:nonzero;fill:rgb(14.509804%,36.078431%,60%);fill-opacity:1;" d="M 110.679688 311.375 L 110.726562 311.371094 L 110.726562 311.253906 L 110.871094 311.070312 L 111.203125 310.835938 L 111.535156 310.675781 L 112.390625 310.390625 L 113.582031 310.117188 L 114.816406 309.902344 L 115.722656 309.777344 L 116.53125 309.679688 L 118.382812 309.5 L 119.574219 309.40625 L 120.859375 309.324219 L 122.425781 309.242188 L 123.570312 309.195312 L 126.136719 309.117188 L 128.039062 309.082031 L 129.511719 309.066406 L 132.699219 309.066406 L 134.601562 309.085938 L 135.980469 309.113281 L 137.503906 309.152344 L 138.789062 309.195312 L 141.023438 309.300781 L 143.019531 309.4375 L 143.921875 309.515625 L 145.351562 309.664062 L 146.445312 309.808594 L 147.207031 309.9375 L 148.0625 310.117188 L 148.820312 310.332031 L 149.394531 310.582031 L 149.679688 310.789062 L 143.019531 310.789062 L 142.6875 310.59375 L 142.304688 310.445312 L 141.59375 310.246094 L 140.878906 310.105469 L 139.882812 309.964844 L 138.976562 309.871094 L 137.742188 309.78125 L 136.648438 309.722656 L 135.503906 309.679688 L 134.410156 309.648438 L 132.320312 309.621094 L 129.894531 309.621094 L 128.988281 309.628906 L 127.136719 309.667969 L 126.136719 309.703125 L 124.710938 309.769531 L 123.710938 309.835938 L 122.523438 309.929688 L 121.714844 310.011719 L 120.714844 310.140625 L 120 310.25 L 119.191406 310.410156 L 118.71875 310.53125 L 118.289062 310.667969 L 117.910156 310.828125 L 117.625 310.996094 L 117.433594 311.175781 L 117.339844 311.351562 L 117.339844 312.101562 L 117.433594 312.277344 L 117.671875 312.480469 L 118.289062 312.777344 L 119.191406 313.03125 L 120.238281 313.238281 L 121.238281 313.382812 L 121.808594 313.449219 L 122.570312 313.527344 L 123.757812 313.625 L 125.472656 313.722656 L 126.46875 313.761719 L 127.992188 313.796875 L 129.5625 313.816406 L 131.652344 313.816406 L 133.507812 313.796875 L 134.746094 313.773438 L 136.027344 313.734375 L 137.789062 313.652344 L 138.882812 313.574219 L 139.832031 313.484375 L 140.546875 313.390625 L 141.023438 313.3125 L 141.734375 313.164062 L 142.304688 313 L 142.734375 312.828125 L 143.019531 312.664062 L 149.679688 312.664062 L 149.394531 312.859375 L 148.964844 313.046875 L 148.535156 313.1875 L 147.871094 313.359375 L 147.109375 313.507812 L 146.015625 313.675781 L 145.113281 313.789062 L 143.921875 313.910156 L 142.828125 314.003906 L 141.640625 314.085938 L 139.882812 314.179688 L 138.738281 314.230469 L 137.503906 314.273438 L 136.027344 314.3125 L 134.175781 314.347656 L 132.175781 314.367188 L 130.320312 314.371094 L 128.324219 314.359375 L 126.851562 314.339844 L 124.898438 314.296875 L 122.472656 314.210938 L 120.714844 314.117188 L 119.335938 314.027344 L 118.148438 313.929688 L 116.816406 313.796875 L 115.101562 313.585938 L 114.058594 313.421875 L 113.34375 313.285156 L 112.535156 313.097656 L 111.964844 312.925781 L 111.296875 312.65625 L 110.824219 312.3125 L 110.679688 312.042969 Z M 110.679688 311.375 "/>
<path style=" stroke:none;fill-rule:nonzero;fill:rgb(96.862745%,70.196078%,16.862745%);fill-opacity:1;" d="M 110.679688 263.660156 L 110.726562 263.621094 L 110.726562 262.828125 L 110.917969 261.046875 L 111.394531 258.589844 L 112.011719 256.570312 L 112.675781 254.988281 L 113.105469 254.15625 L 113.820312 252.96875 L 114.4375 252.097656 L 116.007812 250.316406 L 118.003906 248.652344 L 119.097656 247.941406 L 120.335938 247.269531 L 122.09375 246.515625 L 122.902344 246.238281 L 125.375 245.605469 L 128.179688 245.207031 L 131.273438 245.089844 L 132.699219 245.128906 L 134.648438 245.289062 L 137.3125 245.722656 L 138.835938 246.121094 L 140.023438 246.515625 L 141.261719 247.03125 L 142.78125 247.820312 L 144.207031 248.773438 L 145.351562 249.722656 L 146.492188 250.910156 L 147.441406 252.175781 L 148.25 253.5625 L 148.964844 255.226562 L 149.394531 256.613281 L 149.679688 257.996094 L 143.066406 257.996094 L 142.6875 256.613281 L 142.257812 255.542969 L 141.546875 254.234375 L 140.832031 253.285156 L 140.117188 252.535156 L 138.789062 251.503906 L 137.644531 250.871094 L 136.21875 250.316406 L 134.839844 249.960938 L 133.269531 249.722656 L 132.320312 249.644531 L 129.796875 249.644531 L 127.515625 249.921875 L 126.183594 250.238281 L 125.234375 250.554688 L 123.902344 251.148438 L 123.09375 251.621094 L 122.617188 251.941406 L 121.191406 253.167969 L 120.238281 254.277344 L 119.714844 255.027344 L 119.050781 256.214844 L 118.574219 257.285156 L 118.050781 258.867188 L 117.765625 260.054688 L 117.386719 262.75 L 117.339844 269.875 L 117.480469 271.378906 L 117.765625 273.003906 L 118.148438 274.429688 L 118.71875 275.933594 L 119.289062 277.082031 L 120.285156 278.625 L 121.144531 279.652344 L 121.808594 280.328125 L 123.09375 281.394531 L 123.617188 281.753906 L 124.851562 282.464844 L 126.136719 283.019531 L 127.707031 283.496094 L 128.894531 283.730469 L 130.796875 283.929688 L 133.222656 283.929688 L 136.078125 283.691406 L 137.882812 283.375 L 139.121094 283.058594 L 139.929688 282.78125 L 140.925781 282.347656 L 141.640625 281.949219 L 142.304688 281.515625 L 143.113281 280.839844 L 143.113281 271.378906 L 131.367188 271.339844 L 131.367188 266.90625 L 149.628906 266.867188 L 149.679688 282.347656 L 148.679688 283.414062 L 147.441406 284.445312 L 146.253906 285.234375 L 145.015625 285.910156 L 143.257812 286.660156 L 141.832031 287.136719 L 139.644531 287.691406 L 137.644531 288.046875 L 135.554688 288.285156 L 133.699219 288.402344 L 131.511719 288.441406 L 129.5625 288.363281 L 127.46875 288.125 L 125.804688 287.808594 L 124.28125 287.414062 L 122.761719 286.898438 L 120.859375 286.066406 L 119.621094 285.394531 L 118.335938 284.5625 L 117.054688 283.574219 L 115.910156 282.503906 L 115.152344 281.671875 L 114.390625 280.722656 L 113.582031 279.535156 L 112.820312 278.1875 L 112.25 276.960938 L 111.726562 275.574219 L 111.347656 274.269531 L 110.964844 272.488281 L 110.773438 271.0625 L 110.679688 269.835938 Z M 110.679688 263.660156 "/>
<path style=" stroke:none;fill-rule:nonzero;fill:rgb(83.921569%,15.686275%,22.352941%);fill-opacity:1;" d="M 110.679688 300.1875 L 149.679688 300.1875 L 149.679688 301.011719 L 133.425781 301.019531 L 133.425781 307.890625 L 126.886719 307.890625 L 126.886719 301.023438 L 126.792969 301.011719 L 110.679688 301.011719 Z M 110.679688 300.1875 "/>
<path style=" stroke:none;fill-rule:nonzero;fill:rgb(6.27451%,58.823529%,28.235294%);fill-opacity:1;" d="M 151.730469 312.519531 L 151.773438 312.515625 L 168.648438 309.332031 L 173.769531 309.332031 L 190.730469 312.519531 L 184.769531 312.519531 L 180.519531 311.6875 L 161.898438 311.6875 L 157.730469 312.519531 L 151.730469 312.519531 L 163.6875 311.34375 L 178.8125 311.339844 L 171.269531 309.851562 L 171.1875 309.851562 L 171.105469 309.859375 L 163.648438 311.339844 L 163.6875 311.34375 Z M 151.730469 312.519531 "/>
<path style=" stroke:none;fill-rule:nonzero;fill:rgb(14.509804%,36.078431%,60%);fill-opacity:1;" d="M 151.730469 305.59375 L 151.777344 305.589844 L 151.777344 305.492188 L 151.921875 305.332031 L 152.253906 305.132812 L 152.585938 304.996094 L 153.441406 304.753906 L 154.632812 304.519531 L 155.867188 304.335938 L 156.773438 304.226562 L 157.582031 304.144531 L 159.433594 303.992188 L 160.625 303.914062 L 161.910156 303.84375 L 163.476562 303.773438 L 164.617188 303.730469 L 167.1875 303.664062 L 169.089844 303.636719 L 170.5625 303.625 L 173.75 303.625 L 175.652344 303.640625 L 177.03125 303.660156 L 178.554688 303.695312 L 179.839844 303.730469 L 182.074219 303.824219 L 184.070312 303.9375 L 184.972656 304.003906 L 186.402344 304.132812 L 187.496094 304.257812 L 188.253906 304.363281 L 189.113281 304.519531 L 189.871094 304.703125 L 190.445312 304.914062 L 190.730469 305.09375 L 184.070312 305.09375 L 183.738281 304.925781 L 183.355469 304.800781 L 182.644531 304.628906 L 181.929688 304.507812 L 180.933594 304.390625 L 180.027344 304.3125 L 178.792969 304.230469 L 177.699219 304.183594 L 176.554688 304.144531 L 175.460938 304.121094 L 173.371094 304.09375 L 170.945312 304.09375 L 170.039062 304.105469 L 168.1875 304.136719 L 167.1875 304.164062 L 165.761719 304.222656 L 164.761719 304.277344 L 163.574219 304.359375 L 162.765625 304.429688 L 161.765625 304.539062 L 161.050781 304.632812 L 160.242188 304.769531 L 159.769531 304.875 L 159.339844 304.988281 L 158.960938 305.125 L 158.675781 305.269531 L 158.484375 305.425781 L 158.390625 305.574219 L 158.390625 306.214844 L 158.484375 306.363281 L 158.722656 306.539062 L 159.339844 306.789062 L 160.242188 307.011719 L 161.289062 307.183594 L 162.289062 307.308594 L 162.859375 307.367188 L 163.621094 307.433594 L 164.808594 307.515625 L 166.519531 307.597656 L 167.519531 307.628906 L 169.042969 307.664062 L 170.613281 307.679688 L 172.703125 307.679688 L 174.558594 307.664062 L 175.796875 307.644531 L 177.078125 307.609375 L 178.839844 307.539062 L 179.933594 307.472656 L 180.882812 307.394531 L 181.597656 307.316406 L 182.074219 307.25 L 182.785156 307.121094 L 183.355469 306.980469 L 183.785156 306.835938 L 184.070312 306.695312 L 190.730469 306.695312 L 190.445312 306.859375 L 190.015625 307.023438 L 189.585938 307.140625 L 188.921875 307.289062 L 188.160156 307.414062 L 187.066406 307.558594 L 186.164062 307.65625 L 184.972656 307.757812 L 183.878906 307.835938 L 182.691406 307.90625 L 180.933594 307.992188 L 179.789062 308.03125 L 178.554688 308.070312 L 177.078125 308.101562 L 175.226562 308.132812 L 173.226562 308.148438 L 171.371094 308.152344 L 169.375 308.144531 L 167.902344 308.128906 L 165.949219 308.089844 L 163.523438 308.015625 L 161.765625 307.9375 L 160.386719 307.859375 L 159.199219 307.777344 L 157.867188 307.664062 L 156.152344 307.480469 L 155.105469 307.339844 L 154.394531 307.226562 L 153.585938 307.0625 L 153.015625 306.917969 L 152.347656 306.6875 L 151.875 306.394531 L 151.730469 306.164062 Z M 151.730469 305.59375 "/>
<path style=" stroke:none;fill-rule:nonzero;fill:rgb(96.862745%,70.196078%,16.862745%);fill-opacity:1;" d="M 151.730469 313.988281 L 151.777344 313.988281 L 151.777344 313.976562 L 151.96875 313.945312 L 152.445312 313.910156 L 153.0625 313.878906 L 153.726562 313.855469 L 154.15625 313.839844 L 154.871094 313.824219 L 155.488281 313.808594 L 157.058594 313.78125 L 159.054688 313.753906 L 160.148438 313.746094 L 161.386719 313.734375 L 163.144531 313.722656 L 163.953125 313.71875 L 166.425781 313.707031 L 169.230469 313.703125 L 172.324219 313.699219 L 173.75 313.703125 L 175.699219 313.703125 L 178.363281 313.710938 L 179.886719 313.714844 L 181.074219 313.722656 L 182.3125 313.730469 L 183.832031 313.742188 L 185.257812 313.757812 L 186.402344 313.773438 L 187.542969 313.789062 L 188.492188 313.808594 L 189.300781 313.832031 L 190.015625 313.855469 L 190.445312 313.878906 L 190.730469 313.898438 L 184.117188 313.898438 L 183.738281 313.878906 L 183.308594 313.863281 L 182.597656 313.84375 L 181.882812 313.828125 L 181.167969 313.816406 L 179.839844 313.800781 L 178.695312 313.789062 L 177.269531 313.78125 L 175.890625 313.777344 L 174.320312 313.773438 L 173.371094 313.769531 L 170.847656 313.769531 L 168.566406 313.773438 L 167.234375 313.78125 L 166.285156 313.785156 L 164.953125 313.792969 L 164.144531 313.800781 L 163.667969 313.804688 L 162.242188 313.824219 L 161.289062 313.84375 L 160.765625 313.855469 L 160.101562 313.871094 L 159.625 313.890625 L 159.101562 313.914062 L 158.816406 313.933594 L 158.4375 313.972656 L 158.390625 314.082031 L 158.53125 314.105469 L 158.816406 314.132812 L 159.199219 314.152344 L 159.769531 314.175781 L 160.339844 314.195312 L 161.335938 314.21875 L 162.195312 314.234375 L 162.859375 314.246094 L 164.144531 314.261719 L 164.667969 314.265625 L 165.902344 314.277344 L 167.1875 314.285156 L 168.757812 314.292969 L 169.945312 314.296875 L 171.847656 314.300781 L 174.273438 314.300781 L 177.128906 314.296875 L 178.933594 314.292969 L 180.171875 314.289062 L 180.980469 314.28125 L 181.976562 314.277344 L 182.691406 314.269531 L 183.355469 314.261719 L 184.164062 314.253906 L 184.164062 314.105469 L 172.417969 314.105469 L 172.417969 314.039062 L 190.679688 314.039062 L 190.730469 314.277344 L 189.730469 314.292969 L 188.492188 314.308594 L 187.304688 314.320312 L 186.066406 314.332031 L 184.308594 314.34375 L 182.882812 314.351562 L 180.695312 314.359375 L 178.695312 314.363281 L 176.605469 314.367188 L 174.75 314.371094 L 170.613281 314.371094 L 168.519531 314.367188 L 166.855469 314.359375 L 165.332031 314.355469 L 163.8125 314.347656 L 161.910156 314.332031 L 160.671875 314.324219 L 159.386719 314.3125 L 158.105469 314.296875 L 156.960938 314.277344 L 156.203125 314.265625 L 155.441406 314.25 L 154.632812 314.234375 L 153.871094 314.210938 L 153.300781 314.191406 L 152.777344 314.171875 L 152.398438 314.152344 L 152.015625 314.125 L 151.824219 314.101562 L 151.730469 314.082031 Z M 151.730469 313.988281 "/>
<path style=" stroke:none;fill-rule:nonzero;fill:rgb(83.921569%,15.686275%,22.352941%);fill-opacity:1;" d="M 151.730469 296.832031 L 190.730469 296.832031 L 190.730469 297.433594 L 174.476562 297.4375 L 174.476562 302.445312 L 167.9375 302.445312 L 167.9375 297.441406 L 167.839844 297.433594 L 151.730469 297.433594 Z M 151.730469 296.832031 "/>
<path style=" stroke:none;fill-rule:nonzero;fill:rgb(6.27451%,58.823529%,28.235294%);fill-opacity:1;" d="M 192.78125 310.429688 L 192.824219 310.425781 L 209.695312 304.871094 L 214.820312 304.871094 L 231.78125 310.4375 L 225.820312 310.4375 L 221.570312 308.984375 L 202.949219 308.984375 L 198.78125 310.429688 L 192.78125 310.429688 L 204.738281 308.382812 L 219.863281 308.378906 L 212.320312 305.78125 L 212.238281 305.777344 L 212.15625 305.792969 L 204.699219 308.378906 L 204.738281 308.382812 Z M 192.78125 310.429688 "/>
<path style=" stroke:none;fill-rule:nonzero;fill:rgb(14.509804%,36.078431%,60%);fill-opacity:1;" d="M 192.78125 312.816406 L 192.828125 312.8125 L 192.828125 312.75 L 192.972656 312.65625 L 193.304688 312.535156 L 193.636719 312.453125 L 194.492188 312.304688 L 195.683594 312.160156 L 196.917969 312.050781 L 197.824219 311.984375 L 198.632812 311.933594 L 200.484375 311.839844 L 201.675781 311.792969 L 202.957031 311.75 L 204.527344 311.707031 L 205.667969 311.683594 L 208.238281 311.640625 L 210.140625 311.625 L 211.613281 311.617188 L 214.800781 311.617188 L 216.703125 311.625 L 218.082031 311.640625 L 219.605469 311.660156 L 220.886719 311.683594 L 223.125 311.738281 L 225.121094 311.808594 L 226.023438 311.847656 L 227.453125 311.925781 L 228.546875 312 L 229.304688 312.066406 L 230.164062 312.160156 L 230.921875 312.273438 L 231.496094 312.402344 L 231.78125 312.511719 L 225.121094 312.511719 L 224.789062 312.410156 L 224.40625 312.332031 L 223.695312 312.226562 L 222.980469 312.15625 L 221.984375 312.082031 L 221.078125 312.035156 L 219.84375 311.988281 L 218.75 311.957031 L 217.605469 311.933594 L 216.511719 311.917969 L 214.421875 311.902344 L 211.996094 311.902344 L 211.089844 311.910156 L 209.238281 311.929688 L 208.238281 311.945312 L 206.8125 311.980469 L 205.8125 312.015625 L 204.625 312.066406 L 203.816406 312.105469 L 202.816406 312.171875 L 202.101562 312.230469 L 201.292969 312.3125 L 200.820312 312.375 L 200.390625 312.445312 L 200.011719 312.53125 L 199.726562 312.617188 L 199.535156 312.710938 L 199.441406 312.800781 L 199.441406 313.191406 L 199.535156 313.28125 L 199.773438 313.390625 L 200.390625 313.542969 L 201.292969 313.675781 L 202.339844 313.78125 L 203.339844 313.855469 L 203.910156 313.890625 L 204.671875 313.933594 L 205.859375 313.984375 L 207.570312 314.035156 L 208.570312 314.054688 L 210.09375 314.074219 L 211.664062 314.082031 L 213.753906 314.082031 L 215.609375 314.074219 L 216.847656 314.0625 L 218.128906 314.039062 L 219.890625 313.996094 L 220.984375 313.957031 L 221.933594 313.910156 L 222.648438 313.863281 L 223.125 313.820312 L 223.835938 313.742188 L 224.40625 313.65625 L 224.835938 313.570312 L 225.121094 313.484375 L 231.78125 313.484375 L 231.496094 313.585938 L 231.066406 313.683594 L 230.636719 313.757812 L 229.972656 313.84375 L 229.210938 313.921875 L 228.117188 314.011719 L 227.214844 314.070312 L 226.023438 314.132812 L 224.929688 314.179688 L 223.742188 314.222656 L 221.984375 314.273438 L 220.839844 314.296875 L 219.605469 314.320312 L 218.128906 314.339844 L 216.277344 314.359375 L 214.277344 314.367188 L 212.421875 314.371094 L 210.425781 314.367188 L 208.953125 314.355469 L 207 314.332031 L 204.574219 314.289062 L 202.816406 314.238281 L 201.4375 314.191406 L 200.25 314.140625 L 198.917969 314.074219 L 197.203125 313.960938 L 196.15625 313.878906 L 195.445312 313.808594 L 194.636719 313.707031 L 194.066406 313.621094 L 193.398438 313.480469 L 192.925781 313.300781 L 192.78125 313.164062 Z M 192.78125 312.816406 "/>
<path style=" stroke:none;fill-rule:nonzero;fill:rgb(96.862745%,70.196078%,16.862745%);fill-opacity:1;" d="M 192.78125 278.648438 L 192.828125 278.625 L 192.828125 278.1875 L 193.019531 277.207031 L 193.496094 275.855469 L 194.113281 274.746094 L 194.777344 273.875 L 195.207031 273.414062 L 195.921875 272.761719 L 196.539062 272.28125 L 198.109375 271.300781 L 200.105469 270.386719 L 201.199219 269.992188 L 202.4375 269.621094 L 204.195312 269.207031 L 205.003906 269.054688 L 207.476562 268.707031 L 210.28125 268.488281 L 213.375 268.421875 L 214.800781 268.445312 L 216.75 268.53125 L 219.414062 268.773438 L 220.9375 268.992188 L 222.125 269.207031 L 223.363281 269.492188 L 224.882812 269.929688 L 226.308594 270.449219 L 227.453125 270.972656 L 228.59375 271.628906 L 229.542969 272.324219 L 230.351562 273.089844 L 231.066406 274.003906 L 231.496094 274.765625 L 231.78125 275.53125 L 225.167969 275.53125 L 224.789062 274.765625 L 224.359375 274.179688 L 223.648438 273.460938 L 222.933594 272.9375 L 222.21875 272.523438 L 220.886719 271.957031 L 219.746094 271.605469 L 218.320312 271.300781 L 216.941406 271.105469 L 215.371094 270.972656 L 214.421875 270.929688 L 211.898438 270.929688 L 209.617188 271.082031 L 208.285156 271.257812 L 207.335938 271.433594 L 206.003906 271.757812 L 205.195312 272.019531 L 204.71875 272.195312 L 203.292969 272.871094 L 202.339844 273.480469 L 201.816406 273.894531 L 201.152344 274.550781 L 200.675781 275.136719 L 200.152344 276.007812 L 199.867188 276.664062 L 199.488281 278.144531 L 199.441406 282.070312 L 199.582031 282.898438 L 199.867188 283.792969 L 200.25 284.578125 L 200.820312 285.40625 L 201.390625 286.035156 L 202.386719 286.886719 L 203.246094 287.453125 L 203.910156 287.824219 L 205.195312 288.414062 L 205.71875 288.609375 L 206.953125 289 L 208.238281 289.304688 L 209.808594 289.566406 L 210.996094 289.699219 L 212.898438 289.808594 L 215.324219 289.808594 L 218.179688 289.675781 L 219.984375 289.503906 L 221.222656 289.328125 L 222.03125 289.175781 L 223.027344 288.9375 L 223.742188 288.71875 L 224.40625 288.476562 L 225.214844 288.109375 L 225.214844 282.898438 L 213.46875 282.875 L 213.46875 280.433594 L 231.730469 280.414062 L 231.78125 288.9375 L 230.78125 289.523438 L 229.542969 290.089844 L 228.355469 290.527344 L 227.117188 290.898438 L 225.359375 291.3125 L 223.933594 291.574219 L 221.746094 291.878906 L 219.746094 292.074219 L 217.65625 292.207031 L 215.800781 292.269531 L 213.613281 292.292969 L 211.664062 292.25 L 209.570312 292.117188 L 207.90625 291.945312 L 206.382812 291.726562 L 204.859375 291.441406 L 202.957031 290.984375 L 201.722656 290.613281 L 200.4375 290.15625 L 199.152344 289.613281 L 198.011719 289.023438 L 197.25 288.566406 L 196.492188 288.042969 L 195.683594 287.386719 L 194.921875 286.648438 L 194.351562 285.972656 L 193.828125 285.207031 L 193.445312 284.488281 L 193.066406 283.507812 L 192.875 282.722656 L 192.78125 282.046875 Z M 192.78125 278.648438 "/>
<path style=" stroke:none;fill-rule:nonzero;fill:rgb(83.921569%,15.686275%,22.352941%);fill-opacity:1;" d="M 192.78125 293.472656 L 231.78125 293.472656 L 231.78125 294.566406 L 215.527344 294.574219 L 215.527344 303.691406 L 208.988281 303.691406 L 208.988281 294.585938 L 208.890625 294.566406 L 192.78125 294.566406 Z M 192.78125 293.472656 "/>
<path style=" stroke:none;fill-rule:nonzero;fill:rgb(6.27451%,58.823529%,28.235294%);fill-opacity:1;" d="M 233.832031 299.882812 L 233.875 299.871094 L 250.746094 287.304688 L 255.871094 287.304688 L 272.832031 299.894531 L 266.871094 299.894531 L 262.621094 296.609375 L 244 296.609375 L 239.832031 299.882812 L 233.832031 299.882812 L 245.789062 295.25 L 260.914062 295.238281 L 253.371094 289.359375 L 253.289062 289.347656 L 253.207031 289.382812 L 245.75 295.238281 L 245.789062 295.25 Z M 233.832031 299.882812 "/>
<path style=" stroke:none;fill-rule:nonzero;fill:rgb(14.509804%,36.078431%,60%);fill-opacity:1;" d="M 233.832031 311.703125 L 233.878906 311.699219 L 233.878906 311.59375 L 234.023438 311.429688 L 234.355469 311.222656 L 234.6875 311.082031 L 235.542969 310.828125 L 236.734375 310.582031 L 237.96875 310.390625 L 238.875 310.277344 L 239.683594 310.191406 L 241.535156 310.03125 L 242.726562 309.949219 L 244.007812 309.875 L 245.578125 309.804688 L 246.71875 309.761719 L 249.289062 309.691406 L 251.191406 309.660156 L 252.664062 309.648438 L 255.851562 309.648438 L 257.753906 309.664062 L 259.132812 309.6875 L 260.65625 309.722656 L 261.9375 309.761719 L 264.175781 309.855469 L 266.171875 309.976562 L 267.074219 310.046875 L 268.503906 310.179688 L 269.597656 310.308594 L 270.355469 310.421875 L 271.214844 310.582031 L 271.972656 310.773438 L 272.542969 310.996094 L 272.832031 311.179688 L 266.171875 311.179688 L 265.839844 311.007812 L 265.457031 310.875 L 264.746094 310.695312 L 264.03125 310.570312 L 263.03125 310.445312 L 262.128906 310.363281 L 260.894531 310.28125 L 259.800781 310.230469 L 258.65625 310.191406 L 257.5625 310.164062 L 255.472656 310.140625 L 253.046875 310.140625 L 252.140625 310.148438 L 250.289062 310.183594 L 249.289062 310.214844 L 247.863281 310.273438 L 246.863281 310.328125 L 245.675781 310.417969 L 244.867188 310.488281 L 243.867188 310.601562 L 243.152344 310.703125 L 242.34375 310.84375 L 241.871094 310.953125 L 241.441406 311.074219 L 241.0625 311.214844 L 240.777344 311.367188 L 240.585938 311.527344 L 240.492188 311.679688 L 240.492188 312.351562 L 240.585938 312.503906 L 240.824219 312.6875 L 241.441406 312.949219 L 242.34375 313.179688 L 243.390625 313.359375 L 244.390625 313.488281 L 244.960938 313.550781 L 245.722656 313.621094 L 246.910156 313.707031 L 248.621094 313.792969 L 249.621094 313.828125 L 251.144531 313.859375 L 252.710938 313.878906 L 254.804688 313.878906 L 256.660156 313.859375 L 257.898438 313.839844 L 259.179688 313.804688 L 260.941406 313.730469 L 262.035156 313.664062 L 262.984375 313.582031 L 263.699219 313.5 L 264.175781 313.429688 L 264.886719 313.296875 L 265.457031 313.148438 L 265.886719 312.996094 L 266.171875 312.851562 L 272.832031 312.851562 L 272.542969 313.023438 L 272.117188 313.191406 L 271.6875 313.316406 L 271.023438 313.46875 L 270.261719 313.601562 L 269.167969 313.753906 L 268.265625 313.851562 L 267.074219 313.960938 L 265.980469 314.042969 L 264.792969 314.117188 L 263.03125 314.203125 L 261.890625 314.246094 L 260.65625 314.285156 L 259.179688 314.320312 L 257.324219 314.347656 L 255.328125 314.367188 L 253.472656 314.371094 L 251.476562 314.363281 L 250.003906 314.34375 L 248.050781 314.304688 L 245.625 314.226562 L 243.867188 314.144531 L 242.488281 314.0625 L 241.296875 313.976562 L 239.96875 313.859375 L 238.253906 313.671875 L 237.207031 313.523438 L 236.496094 313.402344 L 235.6875 313.234375 L 235.117188 313.085938 L 234.449219 312.84375 L 233.976562 312.535156 L 233.832031 312.296875 Z M 233.832031 311.703125 "/>
<path style=" stroke:none;fill-rule:nonzero;fill:rgb(96.862745%,70.196078%,16.862745%);fill-opacity:1;" d="M 233.832031 255.785156 L 233.878906 255.738281 L 233.878906 254.769531 L 234.070312 252.589844 L 234.546875 249.582031 L 235.164062 247.113281 L 235.828125 245.171875 L 236.257812 244.15625 L 236.972656 242.703125 L 237.589844 241.636719 L 239.160156 239.453125 L 241.15625 237.417969 L 242.25 236.546875 L 243.488281 235.722656 L 245.246094 234.804688 L 246.054688 234.464844 L 248.527344 233.6875 L 251.332031 233.203125 L 254.425781 233.058594 L 255.851562 233.105469 L 257.800781 233.300781 L 260.464844 233.832031 L 261.988281 234.316406 L 263.175781 234.804688 L 264.414062 235.433594 L 265.933594 236.402344 L 267.359375 237.566406 L 268.503906 238.726562 L 269.644531 240.183594 L 270.59375 241.734375 L 271.402344 243.429688 L 272.117188 245.464844 L 272.542969 247.160156 L 272.832031 248.855469 L 266.21875 248.855469 L 265.839844 247.160156 L 265.410156 245.851562 L 264.699219 244.253906 L 263.984375 243.089844 L 263.269531 242.167969 L 261.9375 240.910156 L 260.796875 240.132812 L 259.371094 239.453125 L 257.992188 239.019531 L 256.421875 238.726562 L 255.472656 238.632812 L 252.949219 238.632812 L 250.667969 238.96875 L 249.335938 239.359375 L 248.386719 239.746094 L 247.054688 240.472656 L 246.246094 241.054688 L 245.769531 241.441406 L 244.34375 242.945312 L 243.390625 244.300781 L 242.867188 245.222656 L 242.203125 246.675781 L 241.726562 247.984375 L 241.203125 249.921875 L 240.917969 251.375 L 240.539062 254.671875 L 240.492188 263.394531 L 240.632812 265.238281 L 240.917969 267.222656 L 241.296875 268.96875 L 241.871094 270.808594 L 242.441406 272.214844 L 243.4375 274.105469 L 244.296875 275.367188 L 244.960938 276.1875 L 246.246094 277.496094 L 246.769531 277.933594 L 248.003906 278.804688 L 249.289062 279.484375 L 250.859375 280.066406 L 252.046875 280.355469 L 253.949219 280.597656 L 256.375 280.597656 L 259.226562 280.308594 L 261.035156 279.921875 L 262.273438 279.53125 L 263.082031 279.195312 L 264.078125 278.660156 L 264.792969 278.175781 L 265.457031 277.644531 L 266.265625 276.820312 L 266.265625 265.238281 L 254.519531 265.1875 L 254.519531 259.761719 L 272.78125 259.710938 L 272.832031 278.660156 L 271.832031 279.96875 L 270.59375 281.230469 L 269.40625 282.199219 L 268.167969 283.023438 L 266.410156 283.941406 L 264.984375 284.523438 L 262.796875 285.203125 L 260.796875 285.640625 L 258.707031 285.929688 L 256.851562 286.074219 L 254.664062 286.125 L 252.710938 286.027344 L 250.621094 285.734375 L 248.957031 285.347656 L 247.433594 284.863281 L 245.910156 284.234375 L 244.007812 283.214844 L 242.773438 282.390625 L 241.488281 281.375 L 240.203125 280.164062 L 239.0625 278.855469 L 238.300781 277.835938 L 237.542969 276.671875 L 236.734375 275.21875 L 235.972656 273.570312 L 235.402344 272.070312 L 234.878906 270.375 L 234.496094 268.773438 L 234.117188 266.59375 L 233.925781 264.847656 L 233.832031 263.347656 Z M 233.832031 255.785156 "/>
<path style=" stroke:none;fill-rule:nonzero;fill:rgb(83.921569%,15.686275%,22.352941%);fill-opacity:1;" d="M 233.832031 301.074219 L 272.832031 301.074219 L 272.832031 301.867188 L 256.578125 301.875 L 256.578125 308.46875 L 250.039062 308.46875 L 250.039062 301.878906 L 249.941406 301.867188 L 233.832031 301.867188 Z M 233.832031 301.074219 "/>
<path style=" stroke:none;fill-rule:nonzero;fill:rgb(6.27451%,58.823529%,28.235294%);fill-opacity:1;" d="M 274.882812 284.679688 L 274.925781 284.648438 L 291.796875 254.023438 L 296.921875 254.023438 L 313.882812 284.707031 L 307.921875 284.707031 L 303.671875 276.699219 L 285.050781 276.699219 L 280.882812 284.679688 L 274.882812 284.679688 L 286.839844 273.382812 L 301.964844 273.355469 L 294.421875 259.035156 L 294.339844 259.007812 L 294.257812 259.09375 L 286.800781 273.355469 L 286.839844 273.382812 Z M 274.882812 284.679688 "/>
<path style=" stroke:none;fill-rule:nonzero;fill:rgb(14.509804%,36.078431%,60%);fill-opacity:1;" d="M 274.882812 305.902344 L 274.929688 305.890625 L 274.929688 305.613281 L 275.074219 305.167969 L 275.40625 304.609375 L 275.738281 304.222656 L 276.59375 303.535156 L 277.785156 302.871094 L 279.019531 302.359375 L 279.925781 302.054688 L 280.734375 301.820312 L 282.585938 301.390625 L 283.777344 301.167969 L 285.058594 300.96875 L 286.628906 300.773438 L 287.769531 300.65625 L 290.339844 300.46875 L 292.242188 300.386719 L 293.714844 300.351562 L 296.902344 300.351562 L 298.804688 300.398438 L 300.183594 300.457031 L 301.707031 300.550781 L 302.988281 300.65625 L 305.226562 300.910156 L 307.222656 301.238281 L 308.125 301.425781 L 309.554688 301.785156 L 310.648438 302.136719 L 311.40625 302.441406 L 312.265625 302.871094 L 313.023438 303.394531 L 313.59375 303.992188 L 313.882812 304.492188 L 307.222656 304.492188 L 306.890625 304.027344 L 306.507812 303.664062 L 305.796875 303.1875 L 305.082031 302.847656 L 304.082031 302.507812 L 303.179688 302.289062 L 301.945312 302.066406 L 300.851562 301.925781 L 299.707031 301.820312 L 298.613281 301.75 L 296.523438 301.679688 L 294.097656 301.679688 L 293.191406 301.703125 L 291.339844 301.796875 L 290.339844 301.878906 L 288.914062 302.042969 L 287.914062 302.195312 L 286.726562 302.429688 L 285.917969 302.625 L 284.917969 302.929688 L 284.203125 303.199219 L 283.394531 303.582031 L 282.921875 303.875 L 282.492188 304.199219 L 282.113281 304.585938 L 281.828125 304.996094 L 281.636719 305.425781 L 281.539062 305.847656 L 281.539062 307.652344 L 281.636719 308.074219 L 281.875 308.5625 L 282.492188 309.273438 L 283.394531 309.894531 L 284.441406 310.382812 L 285.441406 310.734375 L 286.011719 310.898438 L 286.773438 311.082031 L 287.960938 311.316406 L 289.671875 311.550781 L 290.671875 311.644531 L 292.195312 311.738281 L 293.761719 311.78125 L 295.855469 311.78125 L 297.710938 311.738281 L 298.949219 311.679688 L 300.230469 311.585938 L 301.992188 311.386719 L 303.085938 311.199219 L 304.035156 310.976562 L 304.75 310.757812 L 305.226562 310.570312 L 305.9375 310.207031 L 306.507812 309.8125 L 306.9375 309.402344 L 307.222656 309.007812 L 313.882812 309.007812 L 313.59375 309.472656 L 313.167969 309.929688 L 312.738281 310.265625 L 312.074219 310.675781 L 311.3125 311.035156 L 310.21875 311.445312 L 309.316406 311.714844 L 308.125 312.003906 L 307.03125 312.226562 L 305.84375 312.425781 L 304.082031 312.65625 L 302.941406 312.773438 L 301.707031 312.878906 L 300.230469 312.972656 L 298.375 313.054688 L 296.378906 313.101562 L 294.523438 313.113281 L 292.527344 313.089844 L 291.050781 313.042969 L 289.101562 312.9375 L 286.675781 312.726562 L 284.917969 312.507812 L 283.539062 312.285156 L 282.347656 312.050781 L 281.019531 311.738281 L 279.304688 311.222656 L 278.257812 310.828125 L 277.546875 310.5 L 276.738281 310.046875 L 276.167969 309.636719 L 275.5 308.984375 L 275.027344 308.15625 L 274.882812 307.515625 Z M 274.882812 305.902344 "/>
<path style=" stroke:none;fill-rule:nonzero;fill:rgb(96.862745%,70.196078%,16.862745%);fill-opacity:1;" d="M 274.882812 314.324219 L 274.929688 314.324219 L 275.121094 314.320312 L 275.597656 314.316406 L 276.214844 314.3125 L 276.878906 314.308594 L 277.308594 314.308594 L 278.023438 314.304688 L 278.640625 314.304688 L 280.210938 314.300781 L 282.207031 314.300781 L 283.300781 314.296875 L 286.296875 314.296875 L 287.105469 314.292969 L 303.039062 314.292969 L 304.226562 314.296875 L 306.984375 314.296875 L 308.410156 314.300781 L 309.554688 314.300781 L 310.695312 314.304688 L 311.644531 314.304688 L 312.453125 314.308594 L 313.167969 314.3125 L 313.59375 314.3125 L 313.882812 314.316406 L 307.269531 314.316406 L 306.890625 314.3125 L 306.460938 314.3125 L 305.75 314.308594 L 305.035156 314.308594 L 304.320312 314.304688 L 301.847656 314.304688 L 300.421875 314.300781 L 289.4375 314.300781 L 288.105469 314.304688 L 286.820312 314.304688 L 285.394531 314.308594 L 283.917969 314.308594 L 283.253906 314.3125 L 282.777344 314.3125 L 282.253906 314.316406 L 281.96875 314.320312 L 281.589844 314.324219 L 281.539062 314.335938 L 281.683594 314.339844 L 281.96875 314.34375 L 282.347656 314.34375 L 282.921875 314.347656 L 283.492188 314.351562 L 284.488281 314.351562 L 285.34375 314.355469 L 286.011719 314.355469 L 287.296875 314.359375 L 290.339844 314.359375 L 291.910156 314.363281 L 302.085938 314.363281 L 303.324219 314.359375 L 306.507812 314.359375 L 307.316406 314.355469 L 307.316406 314.339844 L 295.570312 314.339844 L 295.570312 314.332031 L 313.832031 314.332031 L 313.882812 314.359375 L 312.882812 314.363281 L 310.457031 314.363281 L 309.21875 314.367188 L 306.035156 314.367188 L 303.847656 314.371094 L 290.007812 314.371094 L 288.484375 314.367188 L 285.058594 314.367188 L 283.824219 314.363281 L 281.253906 314.363281 L 280.113281 314.359375 L 279.351562 314.359375 L 278.59375 314.355469 L 277.785156 314.355469 L 277.023438 314.351562 L 276.453125 314.351562 L 275.929688 314.347656 L 275.546875 314.34375 L 275.167969 314.34375 L 274.976562 314.339844 L 274.882812 314.335938 Z M 274.882812 314.324219 "/>
<path style=" stroke:none;fill-rule:nonzero;fill:rgb(83.921569%,15.686275%,22.352941%);fill-opacity:1;" d="M 274.882812 285.886719 L 313.882812 285.886719 L 313.882812 287.308594 L 297.628906 287.320312 L 297.628906 299.171875 L 291.089844 299.171875 L 291.089844 287.335938 L 290.992188 287.308594 L 274.882812 287.308594 Z M 274.882812 285.886719 "/>
<path style=" stroke:none;fill-rule:nonzero;fill:rgb(6.27451%,58.823529%,28.235294%);fill-opacity:1;" d="M 315.933594 312.542969 L 315.976562 312.5 L 332.847656 266.636719 L 337.972656 266.636719 L 354.929688 312.585938 L 348.972656 312.585938 L 344.722656 300.59375 L 326.101562 300.59375 L 321.933594 312.542969 L 315.933594 312.542969 L 327.890625 295.632812 L 343.015625 295.589844 L 335.472656 274.144531 L 335.390625 274.101562 L 335.308594 274.230469 L 327.847656 295.589844 L 327.890625 295.632812 Z M 315.933594 312.542969 "/>
<path style=" stroke:none;fill-rule:nonzero;fill:rgb(96.862745%,70.196078%,16.862745%);fill-opacity:1;" d="M 315.933594 208.605469 L 315.980469 208.515625 L 315.980469 206.699219 L 316.171875 202.609375 L 316.648438 196.980469 L 317.265625 192.347656 L 317.929688 188.714844 L 318.359375 186.808594 L 319.074219 184.082031 L 319.691406 182.085938 L 321.261719 178 L 323.257812 174.183594 L 324.351562 172.550781 L 325.585938 171.003906 L 327.347656 169.28125 L 328.15625 168.644531 L 330.628906 167.191406 L 333.433594 166.28125 L 336.527344 166.011719 L 337.953125 166.101562 L 339.902344 166.464844 L 342.566406 167.464844 L 344.089844 168.371094 L 345.277344 169.28125 L 346.515625 170.460938 L 348.035156 172.277344 L 349.460938 174.457031 L 350.605469 176.636719 L 351.746094 179.359375 L 352.695312 182.265625 L 353.503906 185.445312 L 354.21875 189.261719 L 354.644531 192.4375 L 354.929688 195.617188 L 348.320312 195.617188 L 347.941406 192.4375 L 347.511719 189.988281 L 346.800781 186.988281 L 346.085938 184.808594 L 345.371094 183.085938 L 344.039062 180.722656 L 342.898438 179.269531 L 341.472656 178 L 340.09375 177.179688 L 338.523438 176.636719 L 337.574219 176.453125 L 335.050781 176.453125 L 332.769531 177.089844 L 331.4375 177.816406 L 330.488281 178.542969 L 329.15625 179.90625 L 328.347656 180.996094 L 327.871094 181.722656 L 326.445312 184.539062 L 325.492188 187.082031 L 324.96875 188.804688 L 324.304688 191.53125 L 323.828125 193.984375 L 323.304688 197.617188 L 323.019531 200.339844 L 322.640625 206.515625 L 322.589844 222.863281 L 322.734375 226.316406 L 323.019531 230.039062 L 323.398438 233.308594 L 323.972656 236.757812 L 324.542969 239.394531 L 325.539062 242.933594 L 326.394531 245.296875 L 327.0625 246.839844 L 328.347656 249.292969 L 328.871094 250.109375 L 330.105469 251.746094 L 331.390625 253.015625 L 332.960938 254.105469 L 334.148438 254.652344 L 336.050781 255.105469 L 338.476562 255.105469 L 341.328125 254.558594 L 343.136719 253.832031 L 344.375 253.105469 L 345.183594 252.472656 L 346.179688 251.472656 L 346.894531 250.5625 L 347.558594 249.566406 L 348.367188 248.019531 L 348.367188 226.316406 L 336.621094 226.222656 L 336.621094 216.050781 L 354.882812 215.960938 L 354.929688 251.472656 L 353.933594 253.925781 L 352.695312 256.285156 L 351.507812 258.101562 L 350.269531 259.644531 L 348.511719 261.371094 L 347.085938 262.460938 L 344.898438 263.734375 L 342.898438 264.550781 L 340.808594 265.09375 L 338.953125 265.367188 L 336.765625 265.457031 L 334.8125 265.277344 L 332.722656 264.730469 L 331.058594 264.003906 L 329.535156 263.097656 L 328.011719 261.917969 L 326.109375 260.007812 L 324.875 258.464844 L 323.589844 256.558594 L 322.304688 254.289062 L 321.164062 251.835938 L 320.402344 249.929688 L 319.644531 247.75 L 318.835938 245.023438 L 318.074219 241.9375 L 317.503906 239.121094 L 316.980469 235.941406 L 316.597656 232.945312 L 316.21875 228.859375 L 316.027344 225.589844 L 315.933594 222.773438 Z M 315.933594 208.605469 "/>
<path style=" stroke:none;fill-rule:nonzero;fill:rgb(83.921569%,15.686275%,22.352941%);fill-opacity:1;" d="M 315.933594 313.765625 L 354.929688 313.765625 L 354.929688 313.832031 L 338.679688 313.832031 L 338.679688 314.371094 L 332.140625 314.371094 L 332.140625 313.832031 L 315.933594 313.832031 Z M 315.933594 313.765625 "/>
<path style=" stroke:none;fill-rule:nonzero;fill:rgb(6.27451%,58.823529%,28.235294%);fill-opacity:1;" d="M 356.984375 306.328125 L 357.027344 306.316406 L 373.898438 295.105469 L 379.023438 295.105469 L 395.980469 306.339844 L 390.023438 306.339844 L 385.773438 303.40625 L 367.148438 303.40625 L 362.984375 306.328125 L 356.984375 306.328125 L 368.941406 302.191406 L 384.066406 302.183594 L 376.523438 296.941406 L 376.441406 296.929688 L 376.359375 296.960938 L 368.898438 302.183594 L 368.941406 302.191406 Z M 356.984375 306.328125 "/>
<path style=" stroke:none;fill-rule:nonzero;fill:rgb(96.862745%,70.196078%,16.862745%);fill-opacity:1;" d="M 356.984375 183.765625 L 357.03125 183.589844 L 357.03125 180.070312 L 357.222656 172.152344 L 357.699219 161.242188 L 358.316406 152.265625 L 358.980469 145.226562 L 359.410156 141.53125 L 360.121094 136.253906 L 360.742188 132.382812 L 362.3125 124.464844 L 364.308594 117.074219 L 365.402344 113.90625 L 366.636719 110.914062 L 368.398438 107.570312 L 369.207031 106.339844 L 371.679688 103.523438 L 374.484375 101.761719 L 377.578125 101.234375 L 379.003906 101.410156 L 380.953125 102.113281 L 383.617188 104.050781 L 385.140625 105.808594 L 386.328125 107.570312 L 387.5625 109.859375 L 389.085938 113.375 L 390.511719 117.601562 L 391.65625 121.824219 L 392.796875 127.101562 L 393.746094 132.734375 L 394.554688 138.894531 L 395.269531 146.285156 L 395.695312 152.441406 L 395.980469 158.601562 L 389.371094 158.601562 L 388.992188 152.441406 L 388.5625 147.691406 L 387.851562 141.882812 L 387.136719 137.660156 L 386.421875 134.316406 L 385.089844 129.742188 L 383.949219 126.925781 L 382.523438 124.464844 L 381.144531 122.878906 L 379.574219 121.824219 L 378.625 121.472656 L 376.101562 121.472656 L 373.820312 122.703125 L 372.488281 124.109375 L 371.535156 125.519531 L 370.207031 128.160156 L 369.398438 130.269531 L 368.921875 131.679688 L 367.496094 137.132812 L 366.542969 142.058594 L 366.019531 145.402344 L 365.355469 150.683594 L 364.878906 155.433594 L 364.355469 162.472656 L 364.070312 167.753906 L 363.691406 179.71875 L 363.640625 211.394531 L 363.785156 218.082031 L 364.070312 225.296875 L 364.449219 231.628906 L 365.023438 238.316406 L 365.59375 243.421875 L 366.589844 250.285156 L 367.445312 254.859375 L 368.113281 257.851562 L 369.398438 262.601562 L 369.921875 264.183594 L 371.15625 267.351562 L 372.441406 269.816406 L 374.011719 271.929688 L 375.199219 272.984375 L 377.101562 273.863281 L 379.527344 273.863281 L 382.378906 272.808594 L 384.1875 271.402344 L 385.425781 269.992188 L 386.234375 268.761719 L 387.230469 266.824219 L 387.945312 265.066406 L 388.609375 263.128906 L 389.417969 260.136719 L 389.417969 218.082031 L 377.671875 217.90625 L 377.671875 198.195312 L 395.933594 198.019531 L 395.980469 266.824219 L 394.984375 271.578125 L 393.746094 276.152344 L 392.558594 279.671875 L 391.320312 282.664062 L 389.5625 286.007812 L 388.136719 288.117188 L 385.949219 290.582031 L 383.949219 292.164062 L 381.855469 293.222656 L 380.003906 293.75 L 377.816406 293.925781 L 375.863281 293.574219 L 373.773438 292.515625 L 372.109375 291.109375 L 370.585938 289.347656 L 369.0625 287.0625 L 367.160156 283.367188 L 365.925781 280.375 L 364.640625 276.679688 L 363.355469 272.28125 L 362.214844 267.527344 L 361.453125 263.832031 L 360.695312 259.609375 L 359.886719 254.332031 L 359.125 248.347656 L 358.554688 242.894531 L 358.03125 236.734375 L 357.648438 230.925781 L 357.269531 223.007812 L 357.078125 216.671875 L 356.984375 211.21875 Z M 356.984375 183.765625 "/>
<path style=" stroke:none;fill-rule:nonzero;fill:rgb(83.921569%,15.686275%,22.352941%);fill-opacity:1;" d="M 356.984375 307.519531 L 395.980469 307.519531 L 395.980469 308.25 L 379.730469 308.257812 L 379.730469 314.371094 L 373.191406 314.371094 L 373.191406 308.265625 L 373.09375 308.25 L 356.984375 308.25 Z M 356.984375 307.519531 "/>
<path style=" stroke:none;fill-rule:nonzero;fill:rgb(6.27451%,58.823529%,28.235294%);fill-opacity:1;" d="M 398.035156 314.363281 L 398.078125 314.359375 L 414.949219 308.570312 L 420.074219 308.570312 L 437.03125 314.371094 L 431.074219 314.371094 L 426.824219 312.855469 L 408.199219 312.855469 L 404.035156 314.363281 L 398.035156 314.363281 L 409.992188 312.230469 L 425.117188 312.226562 L 417.574219 309.519531 L 417.492188 309.511719 L 417.410156 309.53125 L 409.949219 312.226562 L 409.992188 312.230469 Z M 398.035156 314.363281 "/>
<path style=" stroke:none;fill-rule:nonzero;fill:rgb(14.509804%,36.078431%,60%);fill-opacity:1;" d="M 398.035156 193.558594 L 398.082031 193.40625 L 398.082031 189.722656 L 398.226562 183.886719 L 398.558594 176.515625 L 398.890625 171.449219 L 399.746094 162.390625 L 400.9375 153.640625 L 402.171875 146.882812 L 403.074219 142.890625 L 403.882812 139.820312 L 405.738281 134.140625 L 406.929688 131.222656 L 408.210938 128.613281 L 409.78125 126.003906 L 410.921875 124.464844 L 413.492188 122.011719 L 415.394531 120.933594 L 416.867188 120.472656 L 420.054688 120.472656 L 421.957031 121.089844 L 423.335938 121.855469 L 424.859375 123.085938 L 426.140625 124.464844 L 428.378906 127.84375 L 430.375 132.144531 L 431.277344 134.601562 L 432.707031 139.359375 L 433.800781 143.964844 L 434.558594 147.957031 L 435.414062 153.640625 L 436.175781 160.550781 L 436.746094 168.378906 L 437.03125 174.980469 L 430.375 174.980469 L 430.042969 168.839844 L 429.660156 164.082031 L 428.949219 157.785156 L 428.234375 153.332031 L 427.234375 148.878906 L 426.332031 145.960938 L 425.097656 143.046875 L 424 141.203125 L 422.859375 139.820312 L 421.765625 138.898438 L 419.675781 137.976562 L 417.25 137.976562 L 416.34375 138.285156 L 414.488281 139.515625 L 413.492188 140.589844 L 412.066406 142.738281 L 411.066406 144.734375 L 409.875 147.804688 L 409.070312 150.414062 L 408.070312 154.40625 L 407.355469 157.9375 L 406.546875 163.003906 L 406.070312 166.84375 L 405.644531 171.144531 L 405.265625 176.210938 L 404.976562 181.585938 L 404.789062 187.265625 L 404.691406 192.792969 L 404.691406 216.589844 L 404.789062 222.121094 L 405.027344 228.566406 L 405.644531 237.933594 L 406.546875 246.070312 L 407.59375 252.519531 L 408.59375 257.125 L 409.164062 259.277344 L 409.925781 261.734375 L 411.113281 264.804688 L 412.824219 267.875 L 413.824219 269.101562 L 415.347656 270.332031 L 416.914062 270.945312 L 419.007812 270.945312 L 420.863281 270.332031 L 422.097656 269.5625 L 423.382812 268.335938 L 425.144531 265.726562 L 426.238281 263.269531 L 427.1875 260.351562 L 427.902344 257.433594 L 428.378906 254.976562 L 429.089844 250.21875 L 429.660156 244.996094 L 430.089844 239.621094 L 430.375 234.402344 L 437.03125 234.402344 L 436.746094 240.542969 L 436.320312 246.53125 L 435.890625 250.984375 L 435.226562 256.359375 L 434.464844 261.117188 L 433.371094 266.492188 L 432.46875 270.023438 L 431.277344 273.863281 L 430.183594 276.78125 L 428.996094 279.390625 L 427.234375 282.460938 L 426.09375 283.996094 L 424.859375 285.378906 L 423.382812 286.605469 L 421.527344 287.679688 L 419.53125 288.296875 L 417.675781 288.449219 L 415.679688 288.140625 L 414.203125 287.527344 L 412.253906 286.144531 L 409.828125 283.382812 L 408.070312 280.464844 L 406.691406 277.546875 L 405.5 274.476562 L 404.167969 270.332031 L 402.457031 263.574219 L 401.410156 258.355469 L 400.699219 254.054688 L 399.890625 248.066406 L 399.320312 242.695312 L 398.652344 234.09375 L 398.175781 223.195312 L 398.035156 214.75 Z M 398.035156 193.558594 "/>
<path style=" stroke:none;fill-rule:nonzero;fill:rgb(83.921569%,15.686275%,22.352941%);fill-opacity:1;" d="M 398.035156 289.628906 L 437.03125 289.628906 L 437.03125 291.53125 L 420.78125 291.546875 L 420.78125 307.390625 L 414.242188 307.390625 L 414.242188 291.5625 L 414.144531 291.53125 L 398.035156 291.53125 Z M 398.035156 289.628906 "/>
<path style=" stroke:none;fill-rule:nonzero;fill:rgb(96.862745%,70.196078%,16.862745%);fill-opacity:1;" d="M 439.085938 146.460938 L 439.132812 146.191406 L 439.132812 140.828125 L 439.324219 128.757812 L 439.800781 112.128906 L 440.417969 98.449219 L 441.082031 87.71875 L 441.511719 82.085938 L 442.222656 74.039062 L 442.84375 68.140625 L 444.410156 56.070312 L 446.410156 44.804688 L 447.503906 39.976562 L 448.738281 35.414062 L 450.5 30.320312 L 451.308594 28.441406 L 453.78125 24.148438 L 456.585938 21.46875 L 459.679688 20.664062 L 461.105469 20.929688 L 463.054688 22.003906 L 465.71875 24.953125 L 467.242188 27.636719 L 468.429688 30.320312 L 469.664062 33.804688 L 471.1875 39.171875 L 472.613281 45.609375 L 473.753906 52.046875 L 474.898438 60.09375 L 475.847656 68.675781 L 476.65625 78.0625 L 477.371094 89.328125 L 477.796875 98.714844 L 478.082031 108.105469 L 471.472656 108.105469 L 471.09375 98.714844 L 470.664062 91.476562 L 469.949219 82.625 L 469.238281 76.1875 L 468.523438 71.089844 L 467.191406 64.117188 L 466.050781 59.824219 L 464.625 56.070312 L 463.246094 53.65625 L 461.675781 52.046875 L 460.726562 51.507812 L 458.203125 51.507812 L 455.921875 53.386719 L 454.589844 55.53125 L 453.636719 57.679688 L 452.308594 61.703125 L 451.5 64.921875 L 451.023438 67.066406 L 449.597656 75.382812 L 448.644531 82.890625 L 448.121094 87.988281 L 447.457031 96.035156 L 446.980469 103.277344 L 446.457031 114.003906 L 446.171875 122.050781 L 445.792969 140.292969 L 445.742188 188.574219 L 445.886719 198.765625 L 446.171875 209.761719 L 446.550781 219.417969 L 447.121094 229.609375 L 447.695312 237.390625 L 448.691406 247.851562 L 449.546875 254.824219 L 450.214844 259.382812 L 451.5 266.625 L 452.019531 269.039062 L 453.257812 273.867188 L 454.542969 277.625 L 456.113281 280.84375 L 457.300781 282.453125 L 459.203125 283.792969 L 461.628906 283.792969 L 464.480469 282.183594 L 466.289062 280.039062 L 467.527344 277.890625 L 468.335938 276.015625 L 469.332031 273.0625 L 470.046875 270.382812 L 470.710938 267.429688 L 471.519531 262.871094 L 471.519531 198.765625 L 459.773438 198.496094 L 459.773438 168.457031 L 478.035156 168.1875 L 478.082031 273.0625 L 477.085938 280.304688 L 475.847656 287.28125 L 474.660156 292.644531 L 473.421875 297.203125 L 471.664062 302.300781 L 470.238281 305.519531 L 468.046875 309.273438 L 466.050781 311.6875 L 463.957031 313.296875 L 462.105469 314.101562 L 459.917969 314.371094 L 457.964844 313.835938 L 455.875 312.226562 L 454.210938 310.078125 L 452.6875 307.398438 L 451.164062 303.910156 L 449.261719 298.277344 L 448.027344 293.71875 L 446.742188 288.085938 L 445.457031 281.378906 L 444.316406 274.136719 L 443.554688 268.503906 L 442.796875 262.066406 L 441.988281 254.019531 L 441.226562 244.898438 L 440.65625 236.585938 L 440.132812 227.195312 L 439.75 218.34375 L 439.371094 206.277344 L 439.179688 196.621094 L 439.085938 188.304688 Z M 439.085938 146.460938 "/>
<path style=" stroke:none;fill-rule:nonzero;fill:rgb(96.862745%,70.196078%,16.862745%);fill-opacity:1;" d="M 480.136719 146.460938 L 480.183594 146.191406 L 480.183594 140.828125 L 480.375 128.757812 L 480.847656 112.128906 L 481.46875 98.449219 L 482.132812 87.71875 L 482.5625 82.085938 L 483.273438 74.039062 L 483.894531 68.140625 L 485.460938 56.070312 L 487.460938 44.804688 L 488.554688 39.976562 L 489.789062 35.414062 L 491.550781 30.320312 L 492.359375 28.441406 L 494.832031 24.148438 L 497.636719 21.46875 L 500.730469 20.664062 L 502.15625 20.929688 L 504.105469 22.003906 L 506.769531 24.953125 L 508.289062 27.636719 L 509.480469 30.320312 L 510.714844 33.804688 L 512.238281 39.171875 L 513.664062 45.609375 L 514.804688 52.046875 L 515.949219 60.09375 L 516.898438 68.675781 L 517.707031 78.0625 L 518.421875 89.328125 L 518.847656 98.714844 L 519.132812 108.105469 L 512.523438 108.105469 L 512.144531 98.714844 L 511.714844 91.476562 L 511 82.625 L 510.289062 76.1875 L 509.574219 71.089844 L 508.242188 64.117188 L 507.101562 59.824219 L 505.675781 56.070312 L 504.296875 53.65625 L 502.726562 52.046875 L 501.773438 51.507812 L 499.253906 51.507812 L 496.972656 53.386719 L 495.640625 55.53125 L 494.6875 57.679688 L 493.359375 61.703125 L 492.550781 64.921875 L 492.074219 67.066406 L 490.648438 75.382812 L 489.695312 82.890625 L 489.171875 87.988281 L 488.507812 96.035156 L 488.03125 103.277344 L 487.507812 114.003906 L 487.222656 122.050781 L 486.84375 140.292969 L 486.792969 188.574219 L 486.9375 198.765625 L 487.222656 209.761719 L 487.601562 219.417969 L 488.171875 229.609375 L 488.746094 237.390625 L 489.742188 247.851562 L 490.597656 254.824219 L 491.265625 259.382812 L 492.550781 266.625 L 493.070312 269.039062 L 494.308594 273.867188 L 495.59375 277.625 L 497.164062 280.84375 L 498.351562 282.453125 L 500.253906 283.792969 L 502.679688 283.792969 L 505.53125 282.183594 L 507.339844 280.039062 L 508.578125 277.890625 L 509.386719 276.015625 L 510.382812 273.0625 L 511.097656 270.382812 L 511.761719 267.429688 L 512.570312 262.871094 L 512.570312 198.765625 L 500.824219 198.496094 L 500.824219 168.457031 L 519.085938 168.1875 L 519.132812 273.0625 L 518.136719 280.304688 L 516.898438 287.28125 L 515.710938 292.644531 L 514.472656 297.203125 L 512.714844 302.300781 L 511.289062 305.519531 L 509.097656 309.273438 L 507.101562 311.6875 L 505.007812 313.296875 L 503.15625 314.101562 L 500.96875 314.371094 L 499.015625 313.835938 L 496.925781 312.226562 L 495.261719 310.078125 L 493.738281 307.398438 L 492.214844 303.910156 L 490.3125 298.277344 L 489.078125 293.71875 L 487.792969 288.085938 L 486.507812 281.378906 L 485.367188 274.136719 L 484.605469 268.503906 L 483.847656 262.066406 L 483.039062 254.019531 L 482.277344 244.898438 L 481.707031 236.585938 L 481.183594 227.195312 L 480.800781 218.34375 L 480.421875 206.277344 L 480.230469 196.621094 L 480.136719 188.304688 Z M 480.136719 146.460938 "/>
<path style=" stroke:none;fill-rule:nonzero;fill:rgb(6.27451%,58.823529%,28.235294%);fill-opacity:1;" d="M 521.1875 314.367188 L 521.226562 314.363281 L 538.101562 309.710938 L 543.226562 309.710938 L 560.183594 314.371094 L 554.226562 314.371094 L 549.976562 313.152344 L 531.351562 313.152344 L 527.1875 314.367188 L 521.1875 314.367188 L 533.144531 312.652344 L 548.269531 312.644531 L 540.726562 310.472656 L 540.644531 310.464844 L 540.5625 310.480469 L 533.101562 312.644531 L 533.144531 312.652344 Z M 521.1875 314.367188 "/>
<path style=" stroke:none;fill-rule:nonzero;fill:rgb(14.509804%,36.078431%,60%);fill-opacity:1;" d="M 521.1875 288.609375 L 521.234375 288.574219 L 521.234375 287.800781 L 521.378906 286.578125 L 521.710938 285.03125 L 522.042969 283.964844 L 522.898438 282.0625 L 524.089844 280.226562 L 525.324219 278.808594 L 526.226562 277.96875 L 527.035156 277.324219 L 528.890625 276.132812 L 530.082031 275.519531 L 531.363281 274.972656 L 532.933594 274.425781 L 534.074219 274.101562 L 536.644531 273.585938 L 538.546875 273.359375 L 540.019531 273.261719 L 543.207031 273.261719 L 545.109375 273.390625 L 546.488281 273.554688 L 548.011719 273.8125 L 549.292969 274.101562 L 551.53125 274.8125 L 553.527344 275.714844 L 554.429688 276.230469 L 555.855469 277.226562 L 556.949219 278.195312 L 557.710938 279.035156 L 558.566406 280.226562 L 559.328125 281.675781 L 559.898438 283.320312 L 560.183594 284.707031 L 553.527344 284.707031 L 553.195312 283.417969 L 552.8125 282.417969 L 552.101562 281.097656 L 551.386719 280.160156 L 550.386719 279.226562 L 549.484375 278.613281 L 548.246094 278.003906 L 547.152344 277.617188 L 546.011719 277.324219 L 544.917969 277.132812 L 542.824219 276.9375 L 540.402344 276.9375 L 539.496094 277.003906 L 537.640625 277.261719 L 536.644531 277.488281 L 535.214844 277.9375 L 534.21875 278.355469 L 533.027344 279 L 532.21875 279.550781 L 531.222656 280.386719 L 530.507812 281.128906 L 529.699219 282.191406 L 529.222656 283 L 528.796875 283.902344 L 528.414062 284.964844 L 528.128906 286.09375 L 527.941406 287.285156 L 527.84375 288.445312 L 527.84375 293.441406 L 527.941406 294.605469 L 528.179688 295.957031 L 528.796875 297.925781 L 529.699219 299.632812 L 530.746094 300.988281 L 531.746094 301.953125 L 532.316406 302.40625 L 533.078125 302.921875 L 534.265625 303.566406 L 535.976562 304.210938 L 536.976562 304.46875 L 538.5 304.726562 L 540.066406 304.855469 L 542.160156 304.855469 L 544.015625 304.726562 L 545.25 304.566406 L 546.535156 304.308594 L 548.296875 303.757812 L 549.390625 303.242188 L 550.339844 302.628906 L 551.054688 302.019531 L 551.53125 301.503906 L 552.242188 300.503906 L 552.8125 299.40625 L 553.242188 298.277344 L 553.527344 297.183594 L 560.183594 297.183594 L 559.898438 298.472656 L 559.472656 299.730469 L 559.042969 300.664062 L 558.378906 301.792969 L 557.617188 302.792969 L 556.523438 303.921875 L 555.621094 304.660156 L 554.429688 305.46875 L 553.335938 306.078125 L 552.148438 306.628906 L 550.386719 307.273438 L 549.246094 307.59375 L 548.011719 307.886719 L 546.535156 308.144531 L 544.679688 308.367188 L 542.683594 308.496094 L 540.828125 308.53125 L 538.832031 308.464844 L 537.355469 308.335938 L 535.40625 308.046875 L 532.980469 307.464844 L 531.222656 306.855469 L 529.84375 306.242188 L 528.652344 305.597656 L 527.320312 304.726562 L 525.609375 303.308594 L 524.5625 302.210938 L 523.851562 301.308594 L 523.042969 300.050781 L 522.472656 298.921875 L 521.804688 297.117188 L 521.328125 294.828125 L 521.1875 293.054688 Z M 521.1875 288.609375 "/>
<path style=" stroke:none;fill-rule:nonzero;fill:rgb(83.921569%,15.686275%,22.352941%);fill-opacity:1;" d="M 521.1875 178.410156 L 560.183594 178.410156 L 560.183594 188.4375 L 543.933594 188.523438 L 543.933594 272.082031 L 537.394531 272.082031 L 537.394531 188.613281 L 537.296875 188.4375 L 521.1875 188.4375 Z M 521.1875 178.410156 "/>
<path style=" stroke:none;fill-rule:nonzero;fill:rgb(96.862745%,70.196078%,16.862745%);fill-opacity:1;" d="M 562.238281 149.730469 L 562.285156 149.46875 L 562.285156 144.257812 L 562.476562 132.527344 L 562.949219 116.367188 L 563.570312 103.074219 L 564.234375 92.648438 L 564.664062 87.171875 L 565.375 79.351562 L 565.996094 73.617188 L 567.5625 61.890625 L 569.5625 50.941406 L 570.65625 46.25 L 571.890625 41.820312 L 573.652344 36.867188 L 574.460938 35.042969 L 576.933594 30.871094 L 579.738281 28.265625 L 582.832031 27.484375 L 584.257812 27.746094 L 586.207031 28.785156 L 588.871094 31.652344 L 590.390625 34.261719 L 591.582031 36.867188 L 592.816406 40.253906 L 594.339844 45.46875 L 595.765625 51.722656 L 596.90625 57.980469 L 598.050781 65.800781 L 599 74.140625 L 599.808594 83.261719 L 600.523438 94.210938 L 600.949219 103.332031 L 601.234375 112.457031 L 594.625 112.457031 L 594.246094 103.332031 L 593.816406 96.296875 L 593.101562 87.695312 L 592.390625 81.4375 L 591.675781 76.484375 L 590.34375 69.710938 L 589.203125 65.539062 L 587.777344 61.890625 L 586.398438 59.542969 L 584.828125 57.980469 L 583.875 57.457031 L 581.355469 57.457031 L 579.074219 59.28125 L 577.742188 61.367188 L 576.789062 63.453125 L 575.457031 67.363281 L 574.648438 70.492188 L 574.175781 72.578125 L 572.746094 80.65625 L 571.796875 87.953125 L 571.273438 92.90625 L 570.609375 100.726562 L 570.132812 107.765625 L 569.609375 118.191406 L 569.324219 126.011719 L 568.941406 143.734375 L 568.894531 190.652344 L 569.039062 200.558594 L 569.324219 211.242188 L 569.703125 220.628906 L 570.273438 230.53125 L 570.84375 238.089844 L 571.84375 248.257812 L 572.699219 255.035156 L 573.367188 259.464844 L 574.648438 266.503906 L 575.171875 268.847656 L 576.410156 273.539062 L 577.695312 277.1875 L 579.261719 280.316406 L 580.453125 281.878906 L 582.355469 283.183594 L 584.78125 283.183594 L 587.632812 281.621094 L 589.441406 279.535156 L 590.675781 277.449219 L 591.484375 275.625 L 592.484375 272.757812 L 593.199219 270.152344 L 593.863281 267.285156 L 594.671875 262.851562 L 594.671875 200.558594 L 582.925781 200.296875 L 582.925781 171.101562 L 601.1875 170.84375 L 601.234375 272.757812 L 600.238281 279.796875 L 599 286.574219 L 597.8125 291.785156 L 596.574219 296.214844 L 594.816406 301.167969 L 593.386719 304.296875 L 591.199219 307.945312 L 589.203125 310.292969 L 587.109375 311.855469 L 585.257812 312.636719 L 583.066406 312.898438 L 581.117188 312.378906 L 579.027344 310.8125 L 577.359375 308.726562 L 575.839844 306.121094 L 574.316406 302.734375 L 572.414062 297.257812 L 571.179688 292.828125 L 569.894531 287.355469 L 568.609375 280.839844 L 567.46875 273.800781 L 566.707031 268.328125 L 565.945312 262.070312 L 565.136719 254.25 L 564.378906 245.390625 L 563.808594 237.308594 L 563.285156 228.1875 L 562.902344 219.585938 L 562.523438 207.855469 L 562.332031 198.472656 L 562.238281 190.390625 Z M 562.238281 149.730469 "/>
<path style=" stroke:none;fill-rule:nonzero;fill:rgb(83.921569%,15.686275%,22.352941%);fill-opacity:1;" d="M 562.238281 314.078125 L 601.234375 314.078125 L 601.234375 314.109375 L 584.984375 314.109375 L 584.984375 314.371094 L 578.441406 314.371094 L 578.441406 314.109375 L 562.238281 314.109375 Z M 562.238281 314.078125 "/>
<path style=" stroke:none;fill-rule:nonzero;fill:rgb(6.27451%,58.823529%,28.235294%);fill-opacity:1;" d="M 603.289062 302.085938 L 603.328125 302.074219 L 620.203125 287.503906 L 625.328125 287.503906 L 642.285156 302.101562 L 636.328125 302.101562 L 632.078125 298.289062 L 613.453125 298.289062 L 609.289062 302.085938 L 603.289062 302.085938 L 615.246094 296.714844 L 630.371094 296.699219 L 622.828125 289.886719 L 622.746094 289.875 L 622.664062 289.914062 L 615.203125 296.699219 L 615.246094 296.714844 Z M 603.289062 302.085938 "/>
<path style=" stroke:none;fill-rule:nonzero;fill:rgb(14.509804%,36.078431%,60%);fill-opacity:1;" d="M 603.289062 307.597656 L 603.335938 307.585938 L 603.335938 307.371094 L 603.476562 307.027344 L 603.8125 306.589844 L 604.144531 306.289062 L 605 305.753906 L 606.1875 305.238281 L 607.425781 304.839844 L 608.328125 304.605469 L 609.136719 304.421875 L 610.992188 304.085938 L 612.183594 303.914062 L 613.464844 303.761719 L 615.035156 303.605469 L 616.175781 303.515625 L 618.746094 303.371094 L 620.648438 303.308594 L 622.121094 303.28125 L 625.308594 303.28125 L 627.210938 303.316406 L 628.589844 303.363281 L 630.109375 303.433594 L 631.394531 303.515625 L 633.628906 303.714844 L 635.628906 303.96875 L 636.53125 304.113281 L 637.957031 304.394531 L 639.050781 304.667969 L 639.8125 304.902344 L 640.667969 305.238281 L 641.429688 305.648438 L 642 306.109375 L 642.285156 306.5 L 635.628906 306.5 L 635.296875 306.136719 L 634.914062 305.855469 L 634.203125 305.484375 L 633.488281 305.21875 L 632.488281 304.957031 L 631.585938 304.785156 L 630.347656 304.613281 L 629.253906 304.503906 L 628.113281 304.421875 L 627.019531 304.367188 L 624.925781 304.3125 L 622.5 304.3125 L 621.597656 304.332031 L 619.742188 304.40625 L 618.746094 304.46875 L 617.316406 304.59375 L 616.320312 304.710938 L 615.128906 304.894531 L 614.320312 305.046875 L 613.324219 305.285156 L 612.609375 305.492188 L 611.800781 305.792969 L 611.324219 306.019531 L 610.898438 306.273438 L 610.515625 306.570312 L 610.230469 306.890625 L 610.042969 307.226562 L 609.945312 307.550781 L 609.945312 308.957031 L 610.042969 309.285156 L 610.28125 309.664062 L 610.898438 310.21875 L 611.800781 310.699219 L 612.847656 311.078125 L 613.847656 311.351562 L 614.417969 311.480469 L 615.179688 311.625 L 616.367188 311.804688 L 618.078125 311.988281 L 619.078125 312.058594 L 620.597656 312.132812 L 622.167969 312.167969 L 624.261719 312.167969 L 626.117188 312.132812 L 627.351562 312.085938 L 628.636719 312.015625 L 630.398438 311.859375 L 631.492188 311.714844 L 632.441406 311.542969 L 633.15625 311.371094 L 633.628906 311.226562 L 634.34375 310.945312 L 634.914062 310.636719 L 635.34375 310.316406 L 635.628906 310.007812 L 642.285156 310.007812 L 642 310.371094 L 641.574219 310.726562 L 641.144531 310.988281 L 640.480469 311.304688 L 639.71875 311.585938 L 638.625 311.90625 L 637.722656 312.113281 L 636.53125 312.339844 L 635.4375 312.511719 L 634.25 312.667969 L 632.488281 312.847656 L 631.347656 312.9375 L 630.109375 313.019531 L 628.636719 313.09375 L 626.78125 313.15625 L 624.785156 313.191406 L 622.929688 313.203125 L 620.933594 313.183594 L 619.457031 313.148438 L 617.507812 313.066406 L 615.082031 312.902344 L 613.324219 312.730469 L 611.945312 312.558594 L 610.753906 312.375 L 609.421875 312.132812 L 607.710938 311.734375 L 606.664062 311.425781 L 605.953125 311.171875 L 605.144531 310.816406 L 604.574219 310.5 L 603.90625 309.992188 L 603.429688 309.347656 L 603.289062 308.847656 Z M 603.289062 307.597656 "/>
<path style=" stroke:none;fill-rule:nonzero;fill:rgb(96.862745%,70.196078%,16.862745%);fill-opacity:1;" d="M 603.289062 204.992188 L 603.335938 204.859375 L 603.335938 202.261719 L 603.527344 196.414062 L 604 188.359375 L 604.621094 181.734375 L 605.285156 176.535156 L 605.714844 173.808594 L 606.425781 169.910156 L 607.046875 167.050781 L 608.613281 161.207031 L 610.613281 155.75 L 611.707031 153.410156 L 612.941406 151.203125 L 614.703125 148.734375 L 615.511719 147.824219 L 617.984375 145.746094 L 620.789062 144.445312 L 623.882812 144.054688 L 625.308594 144.183594 L 627.257812 144.703125 L 629.921875 146.132812 L 631.441406 147.433594 L 632.632812 148.734375 L 633.867188 150.421875 L 635.390625 153.019531 L 636.816406 156.136719 L 637.957031 159.257812 L 639.101562 163.15625 L 640.050781 167.3125 L 640.859375 171.859375 L 641.574219 177.316406 L 642 181.863281 L 642.285156 186.410156 L 635.675781 186.410156 L 635.296875 181.863281 L 634.867188 178.355469 L 634.152344 174.066406 L 633.441406 170.949219 L 632.726562 168.480469 L 631.394531 165.101562 L 630.253906 163.023438 L 628.828125 161.207031 L 627.449219 160.035156 L 625.878906 159.257812 L 624.925781 158.996094 L 622.40625 158.996094 L 620.125 159.90625 L 618.792969 160.945312 L 617.839844 161.984375 L 616.507812 163.933594 L 615.699219 165.492188 L 615.226562 166.53125 L 613.796875 170.558594 L 612.847656 174.199219 L 612.324219 176.667969 L 611.660156 180.5625 L 611.183594 184.074219 L 610.660156 189.269531 L 610.375 193.167969 L 609.992188 202.003906 L 609.945312 225.390625 L 610.089844 230.324219 L 610.375 235.652344 L 610.753906 240.332031 L 611.324219 245.265625 L 611.894531 249.035156 L 612.894531 254.101562 L 613.75 257.480469 L 614.417969 259.6875 L 615.699219 263.195312 L 616.222656 264.367188 L 617.460938 266.703125 L 618.746094 268.523438 L 620.3125 270.082031 L 621.503906 270.863281 L 623.40625 271.511719 L 625.832031 271.511719 L 628.683594 270.734375 L 630.492188 269.691406 L 631.726562 268.652344 L 632.535156 267.746094 L 633.535156 266.316406 L 634.25 265.015625 L 634.914062 263.585938 L 635.722656 261.378906 L 635.722656 230.324219 L 623.976562 230.195312 L 623.976562 215.644531 L 642.238281 215.515625 L 642.285156 266.316406 L 641.289062 269.824219 L 640.050781 273.203125 L 638.863281 275.800781 L 637.625 278.007812 L 635.867188 280.476562 L 634.4375 282.035156 L 632.25 283.855469 L 630.253906 285.023438 L 628.160156 285.804688 L 626.304688 286.195312 L 624.117188 286.324219 L 622.167969 286.0625 L 620.078125 285.285156 L 618.410156 284.246094 L 616.890625 282.945312 L 615.367188 281.257812 L 613.464844 278.527344 L 612.230469 276.320312 L 610.945312 273.589844 L 609.660156 270.34375 L 608.519531 266.835938 L 607.757812 264.105469 L 606.996094 260.988281 L 606.1875 257.089844 L 605.429688 252.671875 L 604.859375 248.644531 L 604.335938 244.097656 L 603.953125 239.808594 L 603.574219 233.964844 L 603.382812 229.285156 L 603.289062 225.257812 Z M 603.289062 204.992188 "/>
<path style=" stroke:none;fill-rule:nonzero;fill:rgb(6.27451%,58.823529%,28.235294%);fill-opacity:1;" d="M 644.339844 299.976562 L 644.378906 299.96875 L 661.253906 291.425781 L 666.378906 291.425781 L 683.335938 299.984375 L 677.378906 299.984375 L 673.128906 297.75 L 654.503906 297.75 L 650.339844 299.976562 L 644.339844 299.976562 L 656.296875 296.824219 L 671.421875 296.816406 L 663.878906 292.824219 L 663.796875 292.816406 L 663.714844 292.839844 L 656.253906 296.816406 L 656.296875 296.824219 Z M 644.339844 299.976562 "/>
<path style=" stroke:none;fill-rule:nonzero;fill:rgb(14.509804%,36.078431%,60%);fill-opacity:1;" d="M 644.339844 303.441406 L 644.386719 303.4375 L 644.386719 303.320312 L 644.527344 303.140625 L 644.863281 302.910156 L 645.195312 302.753906 L 646.050781 302.46875 L 647.238281 302.199219 L 648.476562 301.988281 L 649.378906 301.863281 L 650.1875 301.765625 L 652.042969 301.589844 L 653.230469 301.5 L 654.515625 301.417969 L 656.085938 301.335938 L 657.226562 301.289062 L 659.796875 301.210938 L 661.699219 301.179688 L 663.171875 301.164062 L 666.359375 301.164062 L 668.261719 301.183594 L 669.640625 301.207031 L 671.160156 301.246094 L 672.445312 301.289062 L 674.679688 301.394531 L 676.679688 301.527344 L 677.582031 301.605469 L 679.007812 301.753906 L 680.101562 301.898438 L 680.863281 302.019531 L 681.71875 302.199219 L 682.480469 302.414062 L 683.050781 302.65625 L 683.335938 302.863281 L 676.679688 302.863281 L 676.347656 302.671875 L 675.964844 302.523438 L 675.253906 302.328125 L 674.539062 302.1875 L 673.539062 302.050781 L 672.636719 301.957031 L 671.398438 301.867188 L 670.304688 301.8125 L 669.164062 301.765625 L 668.070312 301.738281 L 665.976562 301.710938 L 663.550781 301.710938 L 662.648438 301.71875 L 660.792969 301.757812 L 659.796875 301.792969 L 658.367188 301.859375 L 657.371094 301.921875 L 656.179688 302.015625 L 655.371094 302.097656 L 654.375 302.222656 L 653.660156 302.332031 L 652.851562 302.488281 L 652.375 302.609375 L 651.949219 302.742188 L 651.566406 302.902344 L 651.28125 303.070312 L 651.09375 303.246094 L 650.996094 303.417969 L 650.996094 304.160156 L 651.09375 304.332031 L 651.328125 304.53125 L 651.949219 304.824219 L 652.851562 305.078125 L 653.898438 305.277344 L 654.898438 305.421875 L 655.46875 305.488281 L 656.230469 305.566406 L 657.417969 305.660156 L 659.128906 305.757812 L 660.128906 305.792969 L 661.648438 305.832031 L 663.21875 305.851562 L 665.3125 305.851562 L 667.167969 305.832031 L 668.402344 305.808594 L 669.6875 305.769531 L 671.449219 305.6875 L 672.542969 305.613281 L 673.492188 305.523438 L 674.207031 305.429688 L 674.679688 305.355469 L 675.394531 305.207031 L 675.964844 305.042969 L 676.394531 304.875 L 676.679688 304.714844 L 683.335938 304.714844 L 683.050781 304.90625 L 682.625 305.089844 L 682.195312 305.230469 L 681.53125 305.398438 L 680.769531 305.546875 L 679.675781 305.714844 L 678.769531 305.824219 L 677.582031 305.941406 L 676.488281 306.035156 L 675.300781 306.113281 L 673.539062 306.210938 L 672.398438 306.257812 L 671.160156 306.300781 L 669.6875 306.339844 L 667.832031 306.375 L 665.835938 306.390625 L 663.980469 306.398438 L 661.984375 306.386719 L 660.507812 306.367188 L 658.558594 306.324219 L 656.132812 306.238281 L 654.375 306.148438 L 652.996094 306.058594 L 651.804688 305.960938 L 650.472656 305.832031 L 648.761719 305.621094 L 647.714844 305.460938 L 647.003906 305.324219 L 646.195312 305.140625 L 645.621094 304.972656 L 644.957031 304.703125 L 644.480469 304.363281 L 644.339844 304.101562 Z M 644.339844 303.441406 "/>
<path style=" stroke:none;fill-rule:nonzero;fill:rgb(96.862745%,70.196078%,16.862745%);fill-opacity:1;" d="M 644.339844 313.871094 L 644.386719 313.871094 L 644.386719 313.851562 L 644.578125 313.816406 L 645.050781 313.769531 L 645.671875 313.726562 L 646.335938 313.695312 L 646.765625 313.679688 L 647.476562 313.652344 L 648.097656 313.636719 L 649.664062 313.601562 L 651.664062 313.566406 L 652.757812 313.550781 L 653.992188 313.539062 L 655.753906 313.523438 L 656.5625 313.519531 L 659.035156 313.503906 L 661.839844 313.496094 L 666.359375 313.496094 L 668.308594 313.5 L 670.972656 313.507812 L 672.492188 313.515625 L 673.683594 313.523438 L 674.917969 313.535156 L 676.441406 313.550781 L 677.867188 313.570312 L 679.007812 313.589844 L 680.152344 313.613281 L 681.101562 313.636719 L 681.910156 313.667969 L 682.625 313.699219 L 683.050781 313.726562 L 683.335938 313.753906 L 676.726562 313.753906 L 676.347656 313.726562 L 675.917969 313.707031 L 675.203125 313.679688 L 674.492188 313.660156 L 673.777344 313.644531 L 672.445312 313.625 L 671.304688 313.613281 L 669.878906 313.601562 L 668.5 313.59375 L 666.929688 313.589844 L 665.976562 313.585938 L 663.457031 313.585938 L 661.175781 313.59375 L 659.84375 313.597656 L 658.890625 313.605469 L 657.558594 313.617188 L 656.75 313.628906 L 656.277344 313.632812 L 654.847656 313.660156 L 653.898438 313.679688 L 653.375 313.695312 L 652.710938 313.71875 L 652.234375 313.742188 L 651.710938 313.773438 L 651.425781 313.796875 L 651.042969 313.851562 L 650.996094 313.996094 L 651.140625 314.027344 L 651.425781 314.058594 L 651.804688 314.085938 L 652.375 314.117188 L 652.945312 314.140625 L 653.945312 314.171875 L 654.800781 314.191406 L 655.46875 314.207031 L 656.75 314.226562 L 657.273438 314.234375 L 658.511719 314.25 L 659.796875 314.261719 L 661.363281 314.269531 L 662.554688 314.277344 L 664.457031 314.28125 L 666.882812 314.28125 L 669.734375 314.273438 L 671.542969 314.269531 L 672.777344 314.261719 L 673.585938 314.257812 L 674.585938 314.246094 L 675.300781 314.238281 L 675.964844 314.230469 L 676.773438 314.21875 L 676.773438 314.027344 L 665.027344 314.023438 L 665.027344 313.9375 L 683.289062 313.933594 L 683.335938 314.246094 L 682.339844 314.269531 L 681.101562 314.289062 L 679.914062 314.304688 L 678.675781 314.320312 L 676.917969 314.335938 L 675.488281 314.34375 L 673.300781 314.355469 L 671.304688 314.363281 L 669.210938 314.367188 L 667.355469 314.371094 L 665.167969 314.371094 L 663.21875 314.367188 L 661.128906 314.363281 L 659.460938 314.359375 L 657.941406 314.351562 L 656.417969 314.339844 L 654.515625 314.324219 L 653.28125 314.308594 L 651.996094 314.292969 L 650.710938 314.273438 L 649.570312 314.25 L 648.808594 314.234375 L 648.046875 314.214844 L 647.238281 314.191406 L 646.480469 314.164062 L 645.910156 314.140625 L 645.386719 314.109375 L 645.003906 314.085938 L 644.625 314.046875 L 644.433594 314.019531 L 644.339844 313.996094 Z M 644.339844 313.871094 "/>
<path style=" stroke:none;fill-rule:nonzero;fill:rgb(83.921569%,15.686275%,22.352941%);fill-opacity:1;" d="M 644.339844 307.578125 L 683.335938 307.578125 L 683.335938 308.082031 L 667.082031 308.089844 L 667.082031 312.316406 L 660.542969 312.316406 L 660.542969 308.09375 L 660.449219 308.082031 L 644.339844 308.082031 Z M 644.339844 307.578125 "/>
<g style="fill:rgb(0%,0%,0%);fill-opacity:1;">
  <use xlink:href="#glyph0-1" x="21.957031" y="318.198242"/>
  <use xlink:href="#glyph0-2" x="27.291016" y="318.198242"/>
  <use xlink:href="#glyph0-1" x="29.958008" y="318.198242"/>
</g>
<g style="fill:rgb(0%,0%,0%);fill-opacity:1;">
  <use xlink:href="#glyph0-1" x="21.957031" y="244.475586"/>
  <use xlink:href="#glyph0-2" x="27.291016" y="244.475586"/>
  <use xlink:href="#glyph0-3" x="29.958008" y="244.475586"/>
</g>
<g style="fill:rgb(0%,0%,0%);fill-opacity:1;">
  <use xlink:href="#glyph0-4" x="21.957031" y="170.75293"/>
  <use xlink:href="#glyph0-2" x="27.291016" y="170.75293"/>
  <use xlink:href="#glyph0-1" x="29.958008" y="170.75293"/>
</g>
<g style="fill:rgb(0%,0%,0%);fill-opacity:1;">
  <use xlink:href="#glyph0-4" x="21.957031" y="97.03418"/>
  <use xlink:href="#glyph0-2" x="27.291016" y="97.03418"/>
  <use xlink:href="#glyph0-3" x="29.958008" y="97.03418"/>
</g>
<g style="fill:rgb(0%,0%,0%);fill-opacity:1;">
  <use xlink:href="#glyph0-5" x="21.957031" y="23.311523"/>
  <use xlink:href="#glyph0-2" x="27.291016" y="23.311523"/>
  <use xlink:href="#glyph0-1" x="29.958008" y="23.311523"/>
</g>
<g style="fill:rgb(0%,0%,0%);fill-opacity:1;">
  <use xlink:href="#glyph0-4" x="86.128906" y="338.19043"/>
</g>
<g style="fill:rgb(0%,0%,0%);fill-opacity:1;">
  <use xlink:href="#glyph0-5" x="127.179688" y="338.19043"/>
</g>
<g style="fill:rgb(0%,0%,0%);fill-opacity:1;">
  <use xlink:href="#glyph0-6" x="168.230469" y="338.19043"/>
</g>
<g style="fill:rgb(0%,0%,0%);fill-opacity:1;">
  <use xlink:href="#glyph0-7" x="209.28125" y="338.19043"/>
</g>
<g style="fill:rgb(0%,0%,0%);fill-opacity:1;">
  <use xlink:href="#glyph0-3" x="250.332031" y="338.19043"/>
</g>
<g style="fill:rgb(0%,0%,0%);fill-opacity:1;">
  <use xlink:href="#glyph0-8" x="291.382812" y="338.19043"/>
</g>
<g style="fill:rgb(0%,0%,0%);fill-opacity:1;">
  <use xlink:href="#glyph0-9" x="332.433594" y="338.19043"/>
</g>
<g style="fill:rgb(0%,0%,0%);fill-opacity:1;">
  <use xlink:href="#glyph0-10" x="373.484375" y="338.19043"/>
</g>
<g style="fill:rgb(0%,0%,0%);fill-opacity:1;">
  <use xlink:href="#glyph0-11" x="414.535156" y="338.19043"/>
</g>
<g style="fill:rgb(0%,0%,0%);fill-opacity:1;">
  <use xlink:href="#glyph0-4" x="453.085938" y="338.19043"/>
  <use xlink:href="#glyph0-1" x="458.419922" y="338.19043"/>
</g>
<g style="fill:rgb(0%,0%,0%);fill-opacity:1;">
  <use xlink:href="#glyph0-4" x="494.136719" y="338.19043"/>
  <use xlink:href="#glyph0-4" x="499.470703" y="338.19043"/>
</g>
<g style="fill:rgb(0%,0%,0%);fill-opacity:1;">
  <use xlink:href="#glyph0-4" x="535.1875" y="338.19043"/>
  <use xlink:href="#glyph0-5" x="540.521484" y="338.19043"/>
</g>
<g style="fill:rgb(0%,0%,0%);fill-opacity:1;">
  <use xlink:href="#glyph0-4" x="576.238281" y="338.19043"/>
  <use xlink:href="#glyph0-6" x="581.572266" y="338.19043"/>
</g>
<g style="fill:rgb(0%,0%,0%);fill-opacity:1;">
  <use xlink:href="#glyph0-4" x="617.289062" y="338.19043"/>
  <use xlink:href="#glyph0-7" x="622.623047" y="338.19043"/>
</g>
<g style="fill:rgb(0%,0%,0%);fill-opacity:1;">
  <use xlink:href="#glyph0-4" x="658.339844" y="338.19043"/>
  <use xlink:href="#glyph0-3" x="663.673828" y="338.19043"/>
</g>
<g style="fill:rgb(0%,0%,0%);fill-opacity:1;">
  <use xlink:href="#glyph1-1" x="14.412109" y="178.015625"/>
  <use xlink:href="#glyph1-2" x="14.412109" y="170.011719"/>
  <use xlink:href="#glyph1-3" x="14.412109" y="167.347656"/>
  <use xlink:href="#glyph1-4" x="14.412109" y="164.011719"/>
</g>
</g>
</svg>
