<?xml version="1.0" encoding="UTF-8"?>
<svg xmlns="http://www.w3.org/2000/svg" xmlns:xlink="http://www.w3.org/1999/xlink" width="720pt" height="360pt" viewBox="0 0 720 360" version="1.1">
<defs>
<g>
<symbol overflow="visible" id="glyph0-0">
<path style="stroke:none;" d=""/>
</symbol>
<symbol overflow="visible" id="glyph0-1">
<path style="stroke:none;" d="M 2.640625 -6.796875 C 2 -6.796875 1.421875 -6.53125 1.078125 -6.046875 C 0.640625 -5.453125 0.40625 -4.546875 0.40625 -3.296875 C 0.40625 -1 1.1875 0.21875 2.640625 0.21875 C 4.078125 0.21875 4.859375 -1 4.859375 -3.234375 C 4.859375 -4.5625 4.65625 -5.4375 4.203125 -6.046875 C 3.84375 -6.53125 3.28125 -6.796875 2.640625 -6.796875 Z M 2.640625 -6.046875 C 3.546875 -6.046875 4 -5.125 4 -3.3125 C 4 -1.375 3.5625 -0.484375 2.625 -0.484375 C 1.734375 -0.484375 1.28125 -1.421875 1.28125 -3.28125 C 1.28125 -5.140625 1.734375 -6.046875 2.640625 -6.046875 Z M 2.640625 -6.046875 "/>
</symbol>
<symbol overflow="visible" id="glyph0-2">
<path style="stroke:none;" d="M 1.828125 -1 L 0.828125 -1 L 0.828125 0 L 1.828125 0 Z M 1.828125 -1 "/>
</symbol>
<symbol overflow="visible" id="glyph0-3">
<path style="stroke:none;" d="M 4.5625 -6.796875 L 1.0625 -6.796875 L 0.546875 -3.09375 L 1.328125 -3.09375 C 1.71875 -3.5625 2.046875 -3.734375 2.578125 -3.734375 C 3.484375 -3.734375 4.0625 -3.109375 4.0625 -2.09375 C 4.0625 -1.125 3.484375 -0.53125 2.578125 -0.53125 C 1.828125 -0.53125 1.375 -0.90625 1.1875 -1.671875 L 0.328125 -1.671875 C 0.453125 -1.109375 0.546875 -0.84375 0.75 -0.59375 C 1.125 -0.078125 1.828125 0.21875 2.59375 0.21875 C 3.96875 0.21875 4.921875 -0.78125 4.921875 -2.21875 C 4.921875 -3.5625 4.03125 -4.484375 2.71875 -4.484375 C 2.25 -4.484375 1.859375 -4.359375 1.46875 -4.0625 L 1.734375 -5.96875 L 4.5625 -5.96875 Z M 4.5625 -6.796875 "/>
</symbol>
<symbol overflow="visible" id="glyph0-4">
<path style="stroke:none;" d="M 2.484375 -4.84375 L 2.484375 0 L 3.328125 0 L 3.328125 -6.796875 L 2.765625 -6.796875 C 2.46875 -5.75 2.28125 -5.609375 0.984375 -5.453125 L 0.984375 -4.84375 Z M 2.484375 -4.84375 "/>
</symbol>
<symbol overflow="visible" id="glyph0-5">
<path style="stroke:none;" d="M 4.859375 -0.828125 L 1.28125 -0.828125 C 1.359375 -1.390625 1.671875 -1.75 2.5 -2.234375 L 3.46875 -2.75 C 4.40625 -3.265625 4.90625 -3.96875 4.90625 -4.8125 C 4.90625 -5.375 4.671875 -5.90625 4.265625 -6.265625 C 3.859375 -6.625 3.375 -6.796875 2.71875 -6.796875 C 1.859375 -6.796875 1.21875 -6.5 0.84375 -5.921875 C 0.609375 -5.5625 0.5 -5.125 0.484375 -4.4375 L 1.328125 -4.4375 C 1.359375 -4.90625 1.40625 -5.1875 1.53125 -5.40625 C 1.75 -5.8125 2.1875 -6.0625 2.703125 -6.0625 C 3.46875 -6.0625 4.03125 -5.515625 4.03125 -4.78125 C 4.03125 -4.25 3.71875 -3.796875 3.125 -3.4375 L 2.234375 -2.9375 C 0.8125 -2.140625 0.40625 -1.5 0.328125 0 L 4.859375 0 Z M 4.859375 -0.828125 "/>
</symbol>
<symbol overflow="visible" id="glyph0-6">
<path style="stroke:none;" d="M 2.125 -3.125 L 2.578125 -3.125 C 3.515625 -3.125 3.984375 -2.703125 3.984375 -1.890625 C 3.984375 -1.03125 3.46875 -0.53125 2.578125 -0.53125 C 1.65625 -0.53125 1.203125 -0.984375 1.15625 -1.96875 L 0.3125 -1.96875 C 0.34375 -1.421875 0.4375 -1.078125 0.609375 -0.765625 C 0.953125 -0.109375 1.625 0.21875 2.546875 0.21875 C 3.953125 0.21875 4.859375 -0.609375 4.859375 -1.90625 C 4.859375 -2.765625 4.515625 -3.25 3.703125 -3.515625 C 4.34375 -3.765625 4.65625 -4.25 4.65625 -4.9375 C 4.65625 -6.109375 3.875 -6.796875 2.578125 -6.796875 C 1.203125 -6.796875 0.484375 -6.046875 0.453125 -4.609375 L 1.296875 -4.609375 C 1.3125 -5.015625 1.34375 -5.25 1.453125 -5.453125 C 1.640625 -5.828125 2.0625 -6.0625 2.59375 -6.0625 C 3.34375 -6.0625 3.796875 -5.625 3.796875 -4.90625 C 3.796875 -4.421875 3.609375 -4.140625 3.25 -3.984375 C 3.015625 -3.890625 2.71875 -3.84375 2.125 -3.84375 Z M 2.125 -3.125 "/>
</symbol>
<symbol overflow="visible" id="glyph0-7">
<path style="stroke:none;" d="M 3.140625 -1.625 L 3.140625 0 L 3.984375 0 L 3.984375 -1.625 L 4.984375 -1.625 L 4.984375 -2.390625 L 3.984375 -2.390625 L 3.984375 -6.796875 L 3.359375 -6.796875 L 0.265625 -2.515625 L 0.265625 -1.625 Z M 3.140625 -2.390625 L 1 -2.390625 L 3.140625 -5.359375 Z M 3.140625 -2.390625 "/>
</symbol>
<symbol overflow="visible" id="glyph0-8">
<path style="stroke:none;" d="M 4.78125 -5.03125 C 4.609375 -6.140625 3.890625 -6.796875 2.84375 -6.796875 C 2.09375 -6.796875 1.421875 -6.4375 1.03125 -5.828125 C 0.609375 -5.171875 0.40625 -4.34375 0.40625 -3.09375 C 0.40625 -1.953125 0.578125 -1.234375 0.984375 -0.625 C 1.359375 -0.078125 1.953125 0.21875 2.703125 0.21875 C 3.984375 0.21875 4.921875 -0.734375 4.921875 -2.078125 C 4.921875 -3.34375 4.0625 -4.234375 2.84375 -4.234375 C 2.171875 -4.234375 1.640625 -3.96875 1.28125 -3.46875 C 1.28125 -5.125 1.828125 -6.046875 2.796875 -6.046875 C 3.390625 -6.046875 3.796875 -5.671875 3.9375 -5.03125 Z M 2.734375 -3.484375 C 3.546875 -3.484375 4.0625 -2.921875 4.0625 -2 C 4.0625 -1.15625 3.484375 -0.53125 2.703125 -0.53125 C 1.921875 -0.53125 1.328125 -1.1875 1.328125 -2.046875 C 1.328125 -2.890625 1.90625 -3.484375 2.734375 -3.484375 Z M 2.734375 -3.484375 "/>
</symbol>
<symbol overflow="visible" id="glyph0-9">
<path style="stroke:none;" d="M 4.984375 -6.796875 L 0.4375 -6.796875 L 0.4375 -5.96875 L 4.109375 -5.96875 C 2.5 -3.65625 1.828125 -2.234375 1.328125 0 L 2.21875 0 C 2.59375 -2.171875 3.453125 -4.046875 4.984375 -6.09375 Z M 4.984375 -6.796875 "/>
</symbol>
<symbol overflow="visible" id="glyph0-10">
<path style="stroke:none;" d="M 3.75 -3.578125 C 4.453125 -4 4.6875 -4.34375 4.6875 -4.984375 C 4.6875 -6.046875 3.84375 -6.796875 2.640625 -6.796875 C 1.4375 -6.796875 0.59375 -6.046875 0.59375 -4.984375 C 0.59375 -4.359375 0.828125 -4.015625 1.515625 -3.578125 C 0.734375 -3.203125 0.359375 -2.640625 0.359375 -1.890625 C 0.359375 -0.640625 1.296875 0.21875 2.640625 0.21875 C 3.984375 0.21875 4.921875 -0.640625 4.921875 -1.875 C 4.921875 -2.640625 4.53125 -3.203125 3.75 -3.578125 Z M 2.640625 -6.046875 C 3.359375 -6.046875 3.8125 -5.625 3.8125 -4.96875 C 3.8125 -4.34375 3.34375 -3.921875 2.640625 -3.921875 C 1.921875 -3.921875 1.453125 -4.34375 1.453125 -4.984375 C 1.453125 -5.625 1.921875 -6.046875 2.640625 -6.046875 Z M 2.640625 -3.203125 C 3.484375 -3.203125 4.0625 -2.671875 4.0625 -1.875 C 4.0625 -1.0625 3.484375 -0.53125 2.625 -0.53125 C 1.796875 -0.53125 1.21875 -1.078125 1.21875 -1.875 C 1.21875 -2.671875 1.796875 -3.203125 2.640625 -3.203125 Z M 2.640625 -3.203125 "/>
</symbol>
<symbol overflow="visible" id="glyph0-11">
<path style="stroke:none;" d="M 0.515625 -1.546875 C 0.671875 -0.4375 1.40625 0.21875 2.4375 0.21875 C 3.1875 0.21875 3.859375 -0.140625 4.265625 -0.75 C 4.6875 -1.40625 4.890625 -2.25 4.890625 -3.484375 C 4.890625 -4.625 4.703125 -5.359375 4.3125 -5.953125 C 3.9375 -6.5 3.34375 -6.796875 2.59375 -6.796875 C 1.296875 -6.796875 0.359375 -5.84375 0.359375 -4.515625 C 0.359375 -3.25 1.234375 -2.34375 2.453125 -2.34375 C 3.09375 -2.34375 3.5625 -2.578125 4.015625 -3.109375 C 4 -1.453125 3.46875 -0.53125 2.5 -0.53125 C 1.90625 -0.53125 1.484375 -0.90625 1.359375 -1.546875 Z M 2.578125 -6.0625 C 3.375 -6.0625 3.96875 -5.40625 3.96875 -4.53125 C 3.96875 -3.6875 3.375 -3.09375 2.546875 -3.09375 C 1.734375 -3.09375 1.234375 -3.671875 1.234375 -4.578125 C 1.234375 -5.4375 1.796875 -6.0625 2.578125 -6.0625 Z M 2.578125 -6.0625 "/>
</symbol>
<symbol overflow="visible" id="glyph1-0">
<path style="stroke:none;" d=""/>
</symbol>
<symbol overflow="visible" id="glyph1-1">
<path style="stroke:none;" d="M 0 -0.953125 L 0 -4.890625 C 0 -5.71875 -0.234375 -6.34375 -0.734375 -6.796875 C -1.1875 -7.234375 -1.8125 -7.46875 -2.5 -7.46875 C -3.546875 -7.46875 -4.1875 -7 -4.625 -5.875 C -4.984375 -6.671875 -5.640625 -7.09375 -6.53125 -7.09375 C -7.15625 -7.09375 -7.734375 -6.859375 -8.140625 -6.390625 C -8.5625 -5.9375 -8.75 -5.34375 -8.75 -4.5 L -8.75 -0.953125 Z M -4.984375 -2.0625 L -7.765625 -2.0625 L -7.765625 -4.21875 C -7.765625 -4.84375 -7.6875 -5.203125 -7.453125 -5.5 C -7.21875 -5.8125 -6.859375 -5.96875 -6.375 -5.96875 C -5.90625 -5.96875 -5.53125 -5.8125 -5.296875 -5.5 C -5.0625 -5.203125 -4.984375 -4.84375 -4.984375 -4.21875 Z M -0.984375 -2.0625 L -4 -2.0625 L -4 -4.78125 C -4 -5.328125 -3.859375 -5.6875 -3.578125 -5.953125 C -3.296875 -6.21875 -2.921875 -6.359375 -2.484375 -6.359375 C -2.0625 -6.359375 -1.6875 -6.21875 -1.40625 -5.953125 C -1.109375 -5.6875 -0.984375 -5.328125 -0.984375 -4.78125 Z M -0.984375 -2.0625 "/>
</symbol>
<symbol overflow="visible" id="glyph1-2">
<path style="stroke:none;" d="M -6.28125 -1.796875 L -6.28125 -0.796875 L 0 -0.796875 L 0 -1.796875 Z M -8.75 -1.796875 L -8.75 -0.796875 L -7.484375 -0.796875 L -7.484375 -1.796875 Z M -8.75 -1.796875 "/>
</symbol>
<symbol overflow="visible" id="glyph1-3">
<path style="stroke:none;" d="M -6.28125 -3.046875 L -6.28125 -2.015625 L -8.015625 -2.015625 L -8.015625 -1.015625 L -6.28125 -1.015625 L -6.28125 -0.171875 L -5.46875 -0.171875 L -5.46875 -1.015625 L -0.71875 -1.015625 C -0.078125 -1.015625 0.28125 -1.453125 0.28125 -2.234375 C 0.28125 -2.46875 0.25 -2.71875 0.1875 -3.046875 L -0.640625 -3.046875 C -0.609375 -2.921875 -0.59375 -2.765625 -0.59375 -2.5625 C -0.59375 -2.140625 -0.71875 -2.015625 -1.15625 -2.015625 L -5.46875 -2.015625 L -5.46875 -3.046875 Z M -6.28125 -3.046875 "/>
</symbol>
<symbol overflow="visible" id="glyph1-4">
<path style="stroke:none;" d="M -4.53125 -5.25 C -5.765625 -5.25 -6.46875 -4.421875 -6.46875 -2.96875 C -6.46875 -1.515625 -5.71875 -0.5625 -4.546875 -0.5625 C -3.5625 -0.5625 -3.09375 -1.0625 -2.734375 -2.5625 L -2.515625 -3.484375 C -2.34375 -4.1875 -2.09375 -4.46875 -1.625 -4.46875 C -1.046875 -4.46875 -0.640625 -3.875 -0.640625 -3 C -0.640625 -2.453125 -0.796875 -2 -1.0625 -1.75 C -1.25 -1.59375 -1.421875 -1.53125 -1.875 -1.46875 L -1.875 -0.40625 C -0.421875 -0.453125 0.28125 -1.265625 0.28125 -2.921875 C 0.28125 -4.5 -0.5 -5.515625 -1.71875 -5.515625 C -2.65625 -5.515625 -3.171875 -4.984375 -3.46875 -3.734375 L -3.703125 -2.765625 C -3.890625 -1.953125 -4.15625 -1.609375 -4.59375 -1.609375 C -5.171875 -1.609375 -5.546875 -2.125 -5.546875 -2.9375 C -5.546875 -3.75 -5.203125 -4.171875 -4.53125 -4.203125 Z M -4.53125 -5.25 "/>
</symbol>
</g>
</defs>
<g id="surface126808">
<rect x="0" y="0" width="720" height="360" style="fill:rgb(100%,100%,100%);fill-opacity:1;stroke:none;"/>
<path style=" stroke:none;fill-rule:nonzero;fill:rgb(6.27451%,58.823529%,28.235294%);fill-opacity:1;" d="M 69.628906 306.886719 L 69.671875 306.855469 L 86.546875 275.558594 L 91.671875 275.558594 L 108.628906 306.914062 L 102.667969 306.914062 L 98.417969 298.730469 L 79.796875 298.730469 L 75.628906 306.886719 L 69.628906 306.886719 L 81.585938 295.34375 L 96.710938 295.316406 L 89.171875 280.683594 L 89.085938 280.652344 L 89.003906 280.742188 L 81.546875 295.316406 L 81.585938 295.34375 Z M 69.628906 306.886719 "/>
<path style=" stroke:none;fill-rule:nonzero;fill:rgb(14.509804%,36.078431%,60%);fill-opacity:1;" d="M 69.628906 313.410156 L 69.675781 313.40625 L 69.675781 313.371094 L 69.820312 313.3125 L 70.152344 313.238281 L 70.484375 313.1875 L 71.339844 313.09375 L 72.53125 313.003906 L 73.765625 312.9375 L 74.671875 312.898438 L 75.480469 312.867188 L 77.332031 312.808594 L 78.523438 312.777344 L 79.808594 312.753906 L 81.375 312.726562 L 82.519531 312.710938 L 85.085938 312.683594 L 86.988281 312.675781 L 88.460938 312.667969 L 91.648438 312.667969 L 93.550781 312.675781 L 94.929688 312.683594 L 96.453125 312.695312 L 97.738281 312.710938 L 99.972656 312.746094 L 101.96875 312.789062 L 102.871094 312.8125 L 104.300781 312.859375 L 105.394531 312.90625 L 106.15625 312.949219 L 107.011719 313.003906 L 107.769531 313.074219 L 108.34375 313.15625 L 108.628906 313.222656 L 101.96875 313.222656 L 101.636719 313.160156 L 101.257812 313.109375 L 100.542969 313.046875 L 99.828125 313.003906 L 98.832031 312.957031 L 97.925781 312.925781 L 96.691406 312.898438 L 95.597656 312.878906 L 94.453125 312.867188 L 93.359375 312.855469 L 91.269531 312.847656 L 88.84375 312.847656 L 87.9375 312.851562 L 86.085938 312.863281 L 85.085938 312.875 L 83.660156 312.894531 L 82.660156 312.914062 L 81.472656 312.945312 L 80.664062 312.972656 L 79.664062 313.011719 L 78.949219 313.050781 L 78.140625 313.101562 L 77.667969 313.140625 L 77.238281 313.183594 L 76.859375 313.234375 L 76.574219 313.289062 L 76.382812 313.347656 L 76.289062 313.402344 L 76.289062 313.644531 L 76.382812 313.699219 L 76.621094 313.765625 L 77.238281 313.859375 L 78.140625 313.941406 L 79.1875 314.007812 L 80.1875 314.054688 L 80.757812 314.074219 L 81.519531 314.101562 L 82.707031 314.132812 L 84.421875 314.164062 L 85.417969 314.175781 L 86.941406 314.1875 L 88.511719 314.195312 L 90.601562 314.195312 L 92.457031 314.1875 L 93.695312 314.179688 L 94.976562 314.167969 L 96.738281 314.140625 L 97.832031 314.117188 L 98.78125 314.085938 L 99.496094 314.054688 L 99.972656 314.03125 L 100.683594 313.984375 L 101.257812 313.929688 L 101.683594 313.875 L 101.96875 313.824219 L 108.628906 313.824219 L 108.34375 313.886719 L 107.914062 313.945312 L 107.484375 313.992188 L 106.820312 314.046875 L 106.058594 314.09375 L 104.964844 314.148438 L 104.0625 314.183594 L 102.871094 314.222656 L 101.777344 314.253906 L 100.589844 314.277344 L 98.832031 314.308594 L 97.6875 314.324219 L 96.453125 314.339844 L 94.976562 314.351562 L 93.125 314.363281 L 91.125 314.367188 L 89.269531 314.371094 L 87.273438 314.367188 L 85.800781 314.359375 L 83.847656 314.347656 L 81.425781 314.320312 L 79.664062 314.289062 L 78.285156 314.261719 L 77.097656 314.230469 L 75.765625 314.1875 L 74.050781 314.117188 L 73.007812 314.066406 L 72.292969 314.023438 L 71.484375 313.960938 L 70.914062 313.90625 L 70.246094 313.820312 L 69.773438 313.710938 L 69.628906 313.625 Z M 69.628906 313.410156 "/>
<path style=" stroke:none;fill-rule:nonzero;fill:rgb(96.862745%,70.196078%,16.862745%);fill-opacity:1;" d="M 69.628906 309.546875 L 69.675781 309.546875 L 69.675781 309.484375 L 69.867188 309.34375 L 70.34375 309.152344 L 70.960938 308.992188 L 71.625 308.871094 L 72.054688 308.804688 L 72.769531 308.710938 L 73.386719 308.644531 L 74.957031 308.503906 L 76.953125 308.375 L 78.046875 308.316406 L 79.285156 308.265625 L 81.042969 308.207031 L 81.851562 308.183594 L 84.324219 308.136719 L 87.132812 308.105469 L 90.222656 308.09375 L 91.648438 308.097656 L 93.597656 308.109375 L 96.261719 308.144531 L 97.785156 308.175781 L 98.972656 308.207031 L 100.210938 308.246094 L 101.730469 308.308594 L 103.160156 308.382812 L 104.300781 308.457031 L 105.441406 308.550781 L 106.390625 308.648438 L 107.199219 308.757812 L 107.914062 308.886719 L 108.34375 308.996094 L 108.628906 309.105469 L 102.015625 309.105469 L 101.636719 308.996094 L 101.207031 308.914062 L 100.496094 308.8125 L 99.78125 308.738281 L 99.066406 308.675781 L 97.738281 308.597656 L 96.59375 308.546875 L 95.167969 308.503906 L 93.789062 308.476562 L 92.21875 308.457031 L 91.269531 308.449219 L 88.746094 308.449219 L 86.464844 308.472656 L 85.132812 308.496094 L 84.183594 308.523438 L 82.851562 308.570312 L 82.042969 308.605469 L 81.566406 308.632812 L 80.140625 308.726562 L 79.1875 308.8125 L 78.664062 308.871094 L 78 308.964844 L 77.523438 309.050781 L 77 309.171875 L 76.714844 309.265625 L 76.335938 309.476562 L 76.289062 310.035156 L 76.429688 310.152344 L 76.714844 310.28125 L 77.097656 310.390625 L 77.667969 310.511719 L 78.238281 310.601562 L 79.234375 310.722656 L 80.09375 310.800781 L 80.757812 310.855469 L 82.042969 310.9375 L 82.566406 310.964844 L 83.800781 311.023438 L 85.085938 311.066406 L 86.65625 311.101562 L 87.84375 311.121094 L 89.746094 311.136719 L 92.171875 311.136719 L 95.027344 311.117188 L 96.832031 311.09375 L 98.070312 311.066406 L 98.878906 311.046875 L 99.875 311.011719 L 100.589844 310.980469 L 101.257812 310.949219 L 102.0625 310.894531 L 102.0625 310.152344 L 90.316406 310.152344 L 90.316406 309.804688 L 108.578125 309.800781 L 108.628906 311.011719 L 107.628906 311.097656 L 106.390625 311.175781 L 105.203125 311.238281 L 103.964844 311.292969 L 102.207031 311.351562 L 100.78125 311.386719 L 98.59375 311.429688 L 96.59375 311.460938 L 94.503906 311.476562 L 92.648438 311.488281 L 90.460938 311.488281 L 88.511719 311.484375 L 86.417969 311.464844 L 84.753906 311.441406 L 83.230469 311.410156 L 81.710938 311.367188 L 79.808594 311.304688 L 78.570312 311.25 L 77.285156 311.1875 L 76.003906 311.109375 L 74.859375 311.023438 L 74.101562 310.960938 L 73.339844 310.886719 L 72.53125 310.792969 L 71.769531 310.6875 L 71.199219 310.589844 L 70.675781 310.480469 L 70.296875 310.378906 L 69.914062 310.242188 L 69.722656 310.128906 L 69.628906 310.03125 Z M 69.628906 309.546875 "/>
<path style=" stroke:none;fill-rule:nonzero;fill:rgb(83.921569%,15.686275%,22.352941%);fill-opacity:1;" d="M 69.628906 213.882812 L 108.628906 213.882812 L 108.628906 220.355469 L 92.375 220.414062 L 92.375 274.378906 L 85.835938 274.378906 L 85.835938 220.46875 L 85.742188 220.355469 L 69.628906 220.355469 Z M 69.628906 213.882812 "/>
<path style=" stroke:none;fill-rule:nonzero;fill:rgb(6.27451%,58.823529%,28.235294%);fill-opacity:1;" d="M 110.679688 308.285156 L 110.722656 308.261719 L 127.597656 283.3125 L 132.71875 283.3125 L 149.679688 308.308594 L 143.71875 308.308594 L 139.46875 301.785156 L 120.847656 301.785156 L 116.679688 308.285156 L 110.679688 308.285156 L 122.636719 299.085938 L 137.761719 299.0625 L 130.222656 287.398438 L 130.136719 287.375 L 130.054688 287.445312 L 122.597656 299.0625 L 122.636719 299.085938 Z M 110.679688 308.285156 "/>
<path style=" stroke:none;fill-rule:nonzero;fill:rgb(14.509804%,36.078431%,60%);fill-opacity:1;" d="M 110.679688 310.894531 L 110.726562 310.890625 L 110.726562 310.820312 L 110.871094 310.707031 L 111.203125 310.566406 L 111.535156 310.46875 L 112.390625 310.292969 L 113.582031 310.125 L 114.816406 309.996094 L 115.722656 309.917969 L 116.53125 309.859375 L 118.382812 309.75 L 119.574219 309.695312 L 120.859375 309.644531 L 122.425781 309.59375 L 123.570312 309.566406 L 126.136719 309.519531 L 128.039062 309.496094 L 129.511719 309.488281 L 132.699219 309.488281 L 134.601562 309.5 L 135.980469 309.515625 L 137.503906 309.539062 L 138.789062 309.566406 L 141.023438 309.628906 L 143.019531 309.714844 L 143.921875 309.761719 L 145.351562 309.851562 L 146.445312 309.941406 L 147.207031 310.015625 L 148.0625 310.125 L 148.820312 310.257812 L 149.394531 310.410156 L 149.679688 310.535156 L 143.019531 310.535156 L 142.6875 310.417969 L 142.304688 310.328125 L 141.59375 310.207031 L 140.878906 310.121094 L 139.882812 310.035156 L 138.976562 309.980469 L 137.742188 309.921875 L 136.648438 309.886719 L 135.503906 309.859375 L 134.410156 309.84375 L 132.320312 309.824219 L 129.894531 309.824219 L 128.988281 309.832031 L 127.136719 309.855469 L 126.136719 309.875 L 124.710938 309.917969 L 123.710938 309.953125 L 122.523438 310.015625 L 121.714844 310.0625 L 120.714844 310.140625 L 120 310.207031 L 119.191406 310.304688 L 118.71875 310.378906 L 118.289062 310.460938 L 117.910156 310.558594 L 117.625 310.664062 L 117.433594 310.773438 L 117.339844 310.878906 L 117.339844 311.335938 L 117.433594 311.441406 L 117.671875 311.566406 L 118.289062 311.746094 L 119.191406 311.902344 L 120.238281 312.027344 L 121.238281 312.117188 L 121.808594 312.15625 L 122.570312 312.203125 L 123.757812 312.261719 L 125.472656 312.320312 L 126.46875 312.34375 L 127.992188 312.371094 L 129.5625 312.382812 L 131.652344 312.382812 L 133.507812 312.371094 L 134.746094 312.355469 L 136.027344 312.332031 L 137.789062 312.28125 L 138.882812 312.234375 L 139.832031 312.175781 L 140.546875 312.121094 L 141.023438 312.074219 L 141.734375 311.984375 L 142.304688 311.882812 L 142.734375 311.777344 L 143.019531 311.679688 L 149.679688 311.679688 L 149.394531 311.796875 L 148.964844 311.910156 L 148.535156 311.996094 L 147.871094 312.101562 L 147.109375 312.191406 L 146.015625 312.296875 L 145.113281 312.363281 L 143.921875 312.4375 L 142.828125 312.492188 L 141.640625 312.542969 L 139.882812 312.601562 L 138.738281 312.632812 L 137.503906 312.660156 L 136.027344 312.683594 L 134.175781 312.703125 L 132.175781 312.714844 L 130.320312 312.71875 L 128.324219 312.710938 L 126.851562 312.699219 L 124.898438 312.671875 L 122.472656 312.621094 L 120.714844 312.5625 L 119.335938 312.507812 L 118.148438 312.449219 L 116.816406 312.371094 L 115.101562 312.238281 L 114.058594 312.140625 L 113.34375 312.054688 L 112.535156 311.941406 L 111.964844 311.839844 L 111.296875 311.671875 L 110.824219 311.464844 L 110.679688 311.300781 Z M 110.679688 310.894531 "/>
<path style=" stroke:none;fill-rule:nonzero;fill:rgb(96.862745%,70.196078%,16.862745%);fill-opacity:1;" d="M 110.679688 314.101562 L 110.726562 314.097656 L 110.726562 314.089844 L 110.917969 314.070312 L 111.394531 314.042969 L 112.011719 314.023438 L 112.675781 314.003906 L 113.105469 313.996094 L 113.820312 313.984375 L 114.4375 313.972656 L 116.007812 313.953125 L 118.003906 313.9375 L 119.097656 313.929688 L 120.335938 313.921875 L 122.09375 313.914062 L 122.902344 313.910156 L 125.375 313.902344 L 128.179688 313.898438 L 134.648438 313.898438 L 137.3125 313.902344 L 138.835938 313.910156 L 140.023438 313.914062 L 141.261719 313.917969 L 142.78125 313.925781 L 144.207031 313.9375 L 145.351562 313.949219 L 146.492188 313.960938 L 147.441406 313.972656 L 148.25 313.988281 L 148.964844 314.007812 L 149.394531 314.023438 L 149.679688 314.039062 L 143.066406 314.039062 L 142.6875 314.023438 L 142.257812 314.011719 L 141.546875 313.996094 L 140.832031 313.988281 L 140.117188 313.976562 L 138.789062 313.96875 L 137.644531 313.960938 L 136.21875 313.953125 L 134.839844 313.949219 L 133.269531 313.949219 L 132.320312 313.945312 L 129.796875 313.945312 L 127.515625 313.949219 L 126.183594 313.953125 L 125.234375 313.957031 L 123.902344 313.964844 L 123.09375 313.96875 L 122.617188 313.972656 L 121.191406 313.984375 L 120.238281 313.996094 L 119.714844 314.003906 L 119.050781 314.019531 L 118.574219 314.03125 L 118.050781 314.046875 L 117.765625 314.058594 L 117.386719 314.089844 L 117.339844 314.167969 L 117.480469 314.183594 L 117.765625 314.203125 L 118.148438 314.21875 L 118.71875 314.234375 L 119.289062 314.246094 L 120.285156 314.261719 L 121.144531 314.273438 L 121.808594 314.28125 L 123.09375 314.292969 L 123.617188 314.296875 L 124.851562 314.304688 L 126.136719 314.3125 L 127.707031 314.316406 L 128.894531 314.320312 L 136.078125 314.320312 L 137.882812 314.316406 L 139.121094 314.3125 L 139.929688 314.308594 L 140.925781 314.304688 L 141.640625 314.300781 L 142.304688 314.296875 L 143.113281 314.289062 L 143.113281 314.183594 L 131.367188 314.183594 L 131.367188 314.136719 L 149.628906 314.136719 L 149.679688 314.304688 L 148.679688 314.316406 L 147.441406 314.328125 L 146.253906 314.335938 L 145.015625 314.34375 L 143.257812 314.351562 L 141.832031 314.355469 L 139.644531 314.363281 L 137.644531 314.367188 L 135.554688 314.367188 L 133.699219 314.371094 L 129.5625 314.371094 L 127.46875 314.367188 L 125.804688 314.363281 L 124.28125 314.359375 L 122.761719 314.355469 L 120.859375 314.34375 L 119.621094 314.335938 L 118.335938 314.328125 L 117.054688 314.316406 L 115.910156 314.304688 L 115.152344 314.296875 L 114.390625 314.285156 L 113.582031 314.273438 L 112.820312 314.257812 L 112.25 314.246094 L 111.726562 314.230469 L 111.347656 314.214844 L 110.964844 314.195312 L 110.773438 314.179688 L 110.679688 314.167969 Z M 110.679688 314.101562 "/>
<path style=" stroke:none;fill-rule:nonzero;fill:rgb(83.921569%,15.686275%,22.352941%);fill-opacity:1;" d="M 110.679688 150.234375 L 149.679688 150.234375 L 149.679688 164.355469 L 133.425781 164.476562 L 133.425781 282.132812 L 126.886719 282.132812 L 126.886719 164.601562 L 126.792969 164.355469 L 110.679688 164.355469 Z M 110.679688 150.234375 "/>
<path style=" stroke:none;fill-rule:nonzero;fill:rgb(6.27451%,58.823529%,28.235294%);fill-opacity:1;" d="M 151.730469 306.144531 L 151.773438 306.113281 L 168.648438 276.230469 L 173.769531 276.230469 L 190.730469 306.171875 L 184.769531 306.171875 L 180.519531 298.355469 L 161.898438 298.355469 L 157.730469 306.144531 L 151.730469 306.144531 L 163.6875 295.121094 L 178.8125 295.09375 L 171.269531 281.121094 L 171.1875 281.09375 L 171.105469 281.179688 L 163.648438 295.09375 L 163.6875 295.121094 Z M 151.730469 306.144531 "/>
<path style=" stroke:none;fill-rule:nonzero;fill:rgb(14.509804%,36.078431%,60%);fill-opacity:1;" d="M 151.730469 309.835938 L 151.777344 309.832031 L 151.777344 309.707031 L 151.921875 309.507812 L 152.253906 309.257812 L 152.585938 309.085938 L 153.441406 308.777344 L 154.632812 308.480469 L 155.867188 308.25 L 156.773438 308.113281 L 157.582031 308.007812 L 159.433594 307.816406 L 160.625 307.714844 L 161.910156 307.628906 L 163.476562 307.539062 L 164.617188 307.488281 L 167.1875 307.402344 L 169.089844 307.367188 L 170.5625 307.351562 L 173.75 307.351562 L 175.652344 307.371094 L 177.03125 307.398438 L 178.554688 307.441406 L 179.839844 307.488281 L 182.074219 307.601562 L 184.070312 307.746094 L 184.972656 307.832031 L 186.402344 307.992188 L 187.496094 308.148438 L 188.253906 308.285156 L 189.113281 308.480469 L 189.871094 308.714844 L 190.445312 308.980469 L 190.730469 309.207031 L 184.070312 309.207031 L 183.738281 308.996094 L 183.355469 308.835938 L 182.644531 308.621094 L 181.929688 308.46875 L 180.933594 308.316406 L 180.027344 308.21875 L 178.792969 308.117188 L 177.699219 308.054688 L 176.554688 308.007812 L 175.460938 307.976562 L 173.371094 307.945312 L 170.945312 307.945312 L 170.039062 307.957031 L 168.1875 308 L 167.1875 308.035156 L 165.761719 308.109375 L 164.761719 308.175781 L 163.574219 308.28125 L 162.765625 308.371094 L 161.765625 308.503906 L 161.050781 308.625 L 160.242188 308.796875 L 159.769531 308.929688 L 159.339844 309.074219 L 158.960938 309.246094 L 158.675781 309.429688 L 158.484375 309.625 L 158.390625 309.8125 L 158.390625 310.621094 L 158.484375 310.808594 L 158.722656 311.027344 L 159.339844 311.347656 L 160.242188 311.625 L 161.289062 311.84375 L 162.289062 312 L 162.859375 312.074219 L 163.621094 312.15625 L 164.808594 312.261719 L 166.519531 312.367188 L 167.519531 312.40625 L 169.042969 312.449219 L 170.613281 312.46875 L 172.703125 312.46875 L 174.558594 312.449219 L 175.796875 312.421875 L 177.078125 312.382812 L 178.839844 312.292969 L 179.933594 312.210938 L 180.882812 312.109375 L 181.597656 312.011719 L 182.074219 311.925781 L 182.785156 311.765625 L 183.355469 311.585938 L 183.785156 311.40625 L 184.070312 311.226562 L 190.730469 311.226562 L 190.445312 311.4375 L 190.015625 311.640625 L 189.585938 311.792969 L 188.921875 311.972656 L 188.160156 312.136719 L 187.066406 312.320312 L 186.164062 312.4375 L 184.972656 312.570312 L 183.878906 312.667969 L 182.691406 312.757812 L 180.933594 312.863281 L 179.789062 312.914062 L 178.554688 312.960938 L 177.078125 313.003906 L 175.226562 313.039062 L 173.226562 313.0625 L 171.371094 313.066406 L 169.375 313.054688 L 167.902344 313.035156 L 165.949219 312.988281 L 163.523438 312.894531 L 161.765625 312.792969 L 160.386719 312.695312 L 159.199219 312.589844 L 157.867188 312.449219 L 156.152344 312.21875 L 155.105469 312.042969 L 154.394531 311.894531 L 153.585938 311.691406 L 153.015625 311.507812 L 152.347656 311.214844 L 151.875 310.847656 L 151.730469 310.558594 Z M 151.730469 309.835938 "/>
<path style=" stroke:none;fill-rule:nonzero;fill:rgb(96.862745%,70.196078%,16.862745%);fill-opacity:1;" d="M 151.730469 314.300781 L 151.777344 314.300781 L 151.777344 314.296875 L 151.96875 314.292969 L 152.445312 314.285156 L 153.0625 314.277344 L 153.726562 314.273438 L 154.15625 314.273438 L 154.871094 314.269531 L 155.488281 314.265625 L 157.058594 314.261719 L 159.054688 314.257812 L 160.148438 314.253906 L 161.386719 314.253906 L 163.144531 314.25 L 163.953125 314.25 L 166.425781 314.246094 L 178.363281 314.246094 L 179.886719 314.25 L 182.3125 314.25 L 183.832031 314.253906 L 185.257812 314.257812 L 186.402344 314.257812 L 187.542969 314.261719 L 188.492188 314.265625 L 189.300781 314.269531 L 190.015625 314.273438 L 190.445312 314.277344 L 190.730469 314.28125 L 184.117188 314.28125 L 183.738281 314.277344 L 183.308594 314.277344 L 182.597656 314.273438 L 181.167969 314.265625 L 179.839844 314.265625 L 178.695312 314.261719 L 175.890625 314.261719 L 174.320312 314.257812 L 168.566406 314.257812 L 167.234375 314.261719 L 164.953125 314.261719 L 164.144531 314.265625 L 163.667969 314.265625 L 162.242188 314.269531 L 161.289062 314.273438 L 160.765625 314.273438 L 160.101562 314.277344 L 159.625 314.28125 L 159.101562 314.285156 L 158.816406 314.289062 L 158.4375 314.296875 L 158.390625 314.316406 L 158.53125 314.320312 L 158.816406 314.324219 L 159.199219 314.332031 L 160.339844 314.339844 L 161.335938 314.34375 L 162.195312 314.34375 L 162.859375 314.347656 L 164.144531 314.351562 L 165.902344 314.351562 L 167.1875 314.355469 L 169.945312 314.355469 L 171.847656 314.359375 L 174.273438 314.359375 L 177.128906 314.355469 L 180.980469 314.355469 L 181.976562 314.351562 L 183.355469 314.351562 L 184.164062 314.347656 L 184.164062 314.320312 L 172.417969 314.320312 L 172.417969 314.308594 L 190.679688 314.308594 L 190.730469 314.351562 L 189.730469 314.355469 L 188.492188 314.359375 L 187.304688 314.363281 L 186.066406 314.363281 L 184.308594 314.367188 L 180.695312 314.367188 L 178.695312 314.371094 L 168.519531 314.371094 L 166.855469 314.367188 L 163.8125 314.367188 L 161.910156 314.363281 L 160.671875 314.363281 L 159.386719 314.359375 L 158.105469 314.355469 L 156.960938 314.355469 L 156.203125 314.351562 L 155.441406 314.347656 L 154.632812 314.34375 L 153.871094 314.339844 L 153.300781 314.335938 L 152.777344 314.332031 L 152.398438 314.328125 L 152.015625 314.324219 L 151.824219 314.320312 L 151.730469 314.316406 Z M 151.730469 314.300781 "/>
<path style=" stroke:none;fill-rule:nonzero;fill:rgb(83.921569%,15.686275%,22.352941%);fill-opacity:1;" d="M 151.730469 203.738281 L 190.730469 203.738281 L 190.730469 211.371094 L 174.476562 211.4375 L 174.476562 275.050781 L 167.9375 275.050781 L 167.9375 211.507812 L 167.839844 211.371094 L 151.730469 211.371094 Z M 151.730469 203.738281 "/>
<path style=" stroke:none;fill-rule:nonzero;fill:rgb(6.27451%,58.823529%,28.235294%);fill-opacity:1;" d="M 192.78125 305.707031 L 192.824219 305.691406 L 209.695312 290.425781 L 214.820312 290.425781 L 231.78125 305.71875 L 225.820312 305.71875 L 221.570312 301.726562 L 202.949219 301.726562 L 198.78125 305.707031 L 192.78125 305.707031 L 204.738281 300.078125 L 219.863281 300.0625 L 212.320312 292.925781 L 212.238281 292.910156 L 212.15625 292.953125 L 204.699219 300.0625 L 204.738281 300.078125 Z M 192.78125 305.707031 "/>
<path style=" stroke:none;fill-rule:nonzero;fill:rgb(14.509804%,36.078431%,60%);fill-opacity:1;" d="M 192.78125 308.644531 L 192.828125 308.640625 L 192.828125 308.554688 L 192.972656 308.414062 L 193.304688 308.238281 L 193.636719 308.117188 L 194.492188 307.902344 L 195.683594 307.691406 L 196.917969 307.53125 L 197.824219 307.433594 L 198.632812 307.363281 L 200.484375 307.226562 L 201.675781 307.15625 L 202.957031 307.09375 L 204.527344 307.03125 L 205.667969 306.996094 L 208.238281 306.9375 L 210.140625 306.910156 L 211.613281 306.898438 L 214.800781 306.898438 L 216.703125 306.914062 L 218.082031 306.933594 L 219.605469 306.960938 L 220.886719 306.996094 L 223.125 307.074219 L 225.121094 307.179688 L 226.023438 307.238281 L 227.453125 307.351562 L 228.546875 307.460938 L 229.304688 307.554688 L 230.164062 307.691406 L 230.921875 307.855469 L 231.496094 308.042969 L 231.78125 308.199219 L 225.121094 308.199219 L 224.789062 308.054688 L 224.40625 307.941406 L 223.695312 307.789062 L 222.980469 307.683594 L 221.984375 307.578125 L 221.078125 307.507812 L 219.84375 307.4375 L 218.75 307.394531 L 217.605469 307.363281 L 216.511719 307.339844 L 214.421875 307.316406 L 211.996094 307.316406 L 211.089844 307.324219 L 209.238281 307.355469 L 208.238281 307.378906 L 206.8125 307.429688 L 205.8125 307.480469 L 204.625 307.550781 L 203.816406 307.613281 L 202.816406 307.710938 L 202.101562 307.792969 L 201.292969 307.914062 L 200.820312 308.007812 L 200.390625 308.109375 L 200.011719 308.230469 L 199.726562 308.359375 L 199.535156 308.496094 L 199.441406 308.625 L 199.441406 309.195312 L 199.535156 309.328125 L 199.773438 309.480469 L 200.390625 309.703125 L 201.292969 309.898438 L 202.339844 310.050781 L 203.339844 310.164062 L 203.910156 310.214844 L 204.671875 310.273438 L 205.859375 310.347656 L 207.570312 310.417969 L 208.570312 310.449219 L 210.09375 310.476562 L 211.664062 310.492188 L 213.753906 310.492188 L 215.609375 310.476562 L 216.847656 310.460938 L 218.128906 310.429688 L 219.890625 310.367188 L 220.984375 310.308594 L 221.933594 310.238281 L 222.648438 310.167969 L 223.125 310.109375 L 223.835938 309.996094 L 224.40625 309.871094 L 224.835938 309.746094 L 225.121094 309.621094 L 231.78125 309.621094 L 231.496094 309.765625 L 231.066406 309.910156 L 230.636719 310.015625 L 229.972656 310.144531 L 229.210938 310.257812 L 228.117188 310.386719 L 227.214844 310.46875 L 226.023438 310.5625 L 224.929688 310.632812 L 223.742188 310.695312 L 221.984375 310.765625 L 220.839844 310.804688 L 219.605469 310.835938 L 218.128906 310.867188 L 216.277344 310.890625 L 214.277344 310.90625 L 212.421875 310.910156 L 210.425781 310.902344 L 208.953125 310.886719 L 207 310.855469 L 204.574219 310.789062 L 202.816406 310.71875 L 201.4375 310.648438 L 200.25 310.578125 L 198.917969 310.476562 L 197.203125 310.316406 L 196.15625 310.191406 L 195.445312 310.089844 L 194.636719 309.945312 L 194.066406 309.816406 L 193.398438 309.613281 L 192.925781 309.351562 L 192.78125 309.152344 Z M 192.78125 308.644531 "/>
<path style=" stroke:none;fill-rule:nonzero;fill:rgb(96.862745%,70.196078%,16.862745%);fill-opacity:1;" d="M 192.78125 313.066406 L 192.828125 313.066406 L 192.828125 313.023438 L 193.019531 312.929688 L 193.496094 312.800781 L 194.113281 312.695312 L 194.777344 312.609375 L 195.207031 312.566406 L 195.921875 312.503906 L 196.539062 312.457031 L 198.109375 312.363281 L 200.105469 312.277344 L 201.199219 312.238281 L 202.4375 312.203125 L 204.195312 312.164062 L 205.003906 312.148438 L 207.476562 312.117188 L 210.28125 312.097656 L 213.375 312.089844 L 214.800781 312.09375 L 216.75 312.101562 L 219.414062 312.125 L 220.9375 312.144531 L 222.125 312.164062 L 223.363281 312.191406 L 224.882812 312.234375 L 226.308594 312.285156 L 227.453125 312.332031 L 228.59375 312.394531 L 229.542969 312.460938 L 230.351562 312.535156 L 231.066406 312.625 L 231.496094 312.695312 L 231.78125 312.769531 L 225.167969 312.769531 L 224.789062 312.695312 L 224.359375 312.640625 L 223.648438 312.570312 L 222.933594 312.519531 L 222.21875 312.480469 L 220.886719 312.425781 L 219.746094 312.394531 L 218.320312 312.363281 L 216.941406 312.347656 L 215.371094 312.332031 L 214.421875 312.328125 L 211.898438 312.328125 L 209.617188 312.34375 L 208.285156 312.359375 L 207.335938 312.378906 L 206.003906 312.410156 L 205.195312 312.433594 L 204.71875 312.449219 L 203.292969 312.515625 L 202.339844 312.574219 L 201.816406 312.613281 L 201.152344 312.675781 L 200.675781 312.730469 L 200.152344 312.816406 L 199.867188 312.878906 L 199.488281 313.019531 L 199.441406 313.394531 L 199.582031 313.472656 L 199.867188 313.558594 L 200.25 313.632812 L 200.820312 313.710938 L 201.390625 313.773438 L 202.386719 313.855469 L 203.246094 313.910156 L 203.910156 313.945312 L 205.195312 314 L 205.71875 314.019531 L 206.953125 314.054688 L 208.238281 314.085938 L 209.808594 314.109375 L 210.996094 314.121094 L 212.898438 314.132812 L 215.324219 314.132812 L 218.179688 314.121094 L 219.984375 314.105469 L 221.222656 314.085938 L 222.03125 314.074219 L 223.027344 314.050781 L 223.742188 314.027344 L 224.40625 314.007812 L 225.214844 313.972656 L 225.214844 313.472656 L 213.46875 313.472656 L 213.46875 313.238281 L 231.730469 313.234375 L 231.78125 314.050781 L 230.78125 314.105469 L 229.542969 314.160156 L 228.355469 314.203125 L 227.117188 314.238281 L 225.359375 314.277344 L 223.933594 314.300781 L 221.746094 314.332031 L 219.746094 314.351562 L 217.65625 314.363281 L 215.800781 314.367188 L 213.613281 314.371094 L 211.664062 314.367188 L 209.570312 314.355469 L 207.90625 314.335938 L 206.382812 314.316406 L 204.859375 314.289062 L 202.957031 314.246094 L 201.722656 314.210938 L 200.4375 314.167969 L 199.152344 314.113281 L 198.011719 314.058594 L 197.25 314.015625 L 196.492188 313.964844 L 195.683594 313.902344 L 194.921875 313.832031 L 194.351562 313.765625 L 193.828125 313.695312 L 193.445312 313.625 L 193.066406 313.53125 L 192.875 313.457031 L 192.78125 313.390625 Z M 192.78125 313.066406 "/>
<path style=" stroke:none;fill-rule:nonzero;fill:rgb(83.921569%,15.686275%,22.352941%);fill-opacity:1;" d="M 192.78125 270.417969 L 231.78125 270.417969 L 231.78125 272.433594 L 215.527344 272.449219 L 215.527344 289.246094 L 208.988281 289.246094 L 208.988281 272.46875 L 208.890625 272.433594 L 192.78125 272.433594 Z M 192.78125 270.417969 "/>
<path style=" stroke:none;fill-rule:nonzero;fill:rgb(6.27451%,58.823529%,28.235294%);fill-opacity:1;" d="M 233.832031 284.59375 L 233.875 284.519531 L 250.746094 203.476562 L 255.871094 203.476562 L 272.832031 284.671875 L 266.871094 284.671875 L 262.621094 263.476562 L 244 263.476562 L 239.832031 284.59375 L 233.832031 284.59375 L 245.789062 254.707031 L 260.914062 254.632812 L 253.371094 216.742188 L 253.289062 216.664062 L 253.207031 216.894531 L 245.75 254.632812 L 245.789062 254.707031 Z M 233.832031 284.59375 "/>
<path style=" stroke:none;fill-rule:nonzero;fill:rgb(14.509804%,36.078431%,60%);fill-opacity:1;" d="M 233.832031 302.800781 L 233.878906 302.792969 L 233.878906 302.597656 L 234.023438 302.289062 L 234.355469 301.898438 L 234.6875 301.628906 L 235.542969 301.148438 L 236.734375 300.683594 L 237.96875 300.328125 L 238.875 300.113281 L 239.683594 299.953125 L 241.535156 299.652344 L 242.726562 299.496094 L 244.007812 299.355469 L 245.578125 299.21875 L 246.71875 299.136719 L 249.289062 299.007812 L 251.191406 298.949219 L 252.664062 298.925781 L 255.851562 298.925781 L 257.753906 298.957031 L 259.132812 299 L 260.65625 299.0625 L 261.9375 299.136719 L 264.175781 299.316406 L 266.171875 299.542969 L 267.074219 299.675781 L 268.503906 299.925781 L 269.597656 300.171875 L 270.355469 300.382812 L 271.214844 300.683594 L 271.972656 301.050781 L 272.542969 301.464844 L 272.832031 301.816406 L 266.171875 301.816406 L 265.839844 301.492188 L 265.457031 301.238281 L 264.746094 300.902344 L 264.03125 300.667969 L 263.03125 300.433594 L 262.128906 300.277344 L 260.894531 300.121094 L 259.800781 300.023438 L 258.65625 299.953125 L 257.5625 299.902344 L 255.472656 299.855469 L 253.046875 299.855469 L 252.140625 299.871094 L 250.289062 299.933594 L 249.289062 299.992188 L 247.863281 300.105469 L 246.863281 300.210938 L 245.675781 300.375 L 244.867188 300.511719 L 243.867188 300.726562 L 243.152344 300.914062 L 242.34375 301.179688 L 241.871094 301.382812 L 241.441406 301.613281 L 241.0625 301.882812 L 240.777344 302.167969 L 240.585938 302.46875 L 240.492188 302.761719 L 240.492188 304.023438 L 240.585938 304.316406 L 240.824219 304.65625 L 241.441406 305.15625 L 242.34375 305.585938 L 243.390625 305.929688 L 244.390625 306.171875 L 244.960938 306.285156 L 245.722656 306.417969 L 246.910156 306.578125 L 248.621094 306.742188 L 249.621094 306.808594 L 251.144531 306.871094 L 252.710938 306.90625 L 254.804688 306.90625 L 256.660156 306.871094 L 257.898438 306.832031 L 259.179688 306.765625 L 260.941406 306.628906 L 262.035156 306.496094 L 262.984375 306.34375 L 263.699219 306.1875 L 264.175781 306.058594 L 264.886719 305.804688 L 265.457031 305.527344 L 265.886719 305.242188 L 266.171875 304.96875 L 272.832031 304.96875 L 272.542969 305.292969 L 272.117188 305.609375 L 271.6875 305.847656 L 271.023438 306.132812 L 270.261719 306.382812 L 269.167969 306.667969 L 268.265625 306.855469 L 267.074219 307.058594 L 265.980469 307.214844 L 264.792969 307.351562 L 263.03125 307.515625 L 261.890625 307.597656 L 260.65625 307.671875 L 259.179688 307.734375 L 257.324219 307.792969 L 255.328125 307.824219 L 253.472656 307.832031 L 251.476562 307.816406 L 250.003906 307.785156 L 248.050781 307.710938 L 245.625 307.5625 L 243.867188 307.410156 L 242.488281 307.253906 L 241.296875 307.09375 L 239.96875 306.871094 L 238.253906 306.515625 L 237.207031 306.238281 L 236.496094 306.007812 L 235.6875 305.691406 L 235.117188 305.40625 L 234.449219 304.949219 L 233.976562 304.371094 L 233.832031 303.925781 Z M 233.832031 302.800781 "/>
<path style=" stroke:none;fill-rule:nonzero;fill:rgb(96.862745%,70.196078%,16.862745%);fill-opacity:1;" d="M 233.832031 290.945312 L 233.878906 290.933594 L 233.878906 290.71875 L 234.070312 290.226562 L 234.546875 289.554688 L 235.164062 289 L 235.828125 288.566406 L 236.257812 288.339844 L 236.972656 288.011719 L 237.589844 287.773438 L 239.160156 287.285156 L 241.15625 286.828125 L 242.25 286.632812 L 243.488281 286.449219 L 245.246094 286.242188 L 246.054688 286.164062 L 248.527344 285.992188 L 251.332031 285.882812 L 254.425781 285.851562 L 255.851562 285.859375 L 257.800781 285.90625 L 260.464844 286.023438 L 261.988281 286.132812 L 263.175781 286.242188 L 264.414062 286.382812 L 265.933594 286.601562 L 267.359375 286.859375 L 268.503906 287.121094 L 269.644531 287.449219 L 270.59375 287.796875 L 271.402344 288.175781 L 272.117188 288.632812 L 272.542969 289.011719 L 272.832031 289.390625 L 266.21875 289.390625 L 265.839844 289.011719 L 265.410156 288.71875 L 264.699219 288.359375 L 263.984375 288.097656 L 263.269531 287.894531 L 261.9375 287.609375 L 260.796875 287.4375 L 259.371094 287.285156 L 257.992188 287.1875 L 256.421875 287.121094 L 255.472656 287.101562 L 252.949219 287.101562 L 250.667969 287.175781 L 249.335938 287.261719 L 248.386719 287.351562 L 247.054688 287.511719 L 246.246094 287.644531 L 245.769531 287.730469 L 244.34375 288.066406 L 243.390625 288.371094 L 242.867188 288.578125 L 242.203125 288.902344 L 241.726562 289.195312 L 241.203125 289.632812 L 240.917969 289.957031 L 240.539062 290.695312 L 240.492188 292.652344 L 240.632812 293.0625 L 240.917969 293.507812 L 241.296875 293.902344 L 241.871094 294.3125 L 242.441406 294.628906 L 243.4375 295.050781 L 244.296875 295.335938 L 244.960938 295.519531 L 246.246094 295.8125 L 246.769531 295.910156 L 248.003906 296.105469 L 249.289062 296.257812 L 250.859375 296.386719 L 252.046875 296.453125 L 253.949219 296.507812 L 256.375 296.507812 L 259.226562 296.441406 L 261.035156 296.355469 L 262.273438 296.269531 L 263.082031 296.191406 L 264.078125 296.074219 L 264.792969 295.964844 L 265.457031 295.84375 L 266.265625 295.660156 L 266.265625 293.0625 L 254.519531 293.054688 L 254.519531 291.835938 L 272.78125 291.824219 L 272.832031 296.074219 L 271.832031 296.367188 L 270.59375 296.648438 L 269.40625 296.867188 L 268.167969 297.050781 L 266.410156 297.257812 L 264.984375 297.386719 L 262.796875 297.539062 L 260.796875 297.636719 L 258.707031 297.703125 L 256.851562 297.734375 L 254.664062 297.746094 L 252.710938 297.722656 L 250.621094 297.660156 L 248.957031 297.574219 L 247.433594 297.464844 L 245.910156 297.324219 L 244.007812 297.09375 L 242.773438 296.910156 L 241.488281 296.679688 L 240.203125 296.410156 L 239.0625 296.117188 L 238.300781 295.886719 L 237.542969 295.628906 L 236.734375 295.300781 L 235.972656 294.933594 L 235.402344 294.597656 L 234.878906 294.214844 L 234.496094 293.855469 L 234.117188 293.367188 L 233.925781 292.976562 L 233.832031 292.640625 Z M 233.832031 290.945312 "/>
<path style=" stroke:none;fill-rule:nonzero;fill:rgb(83.921569%,15.686275%,22.352941%);fill-opacity:1;" d="M 233.832031 309.011719 L 272.832031 309.011719 L 272.832031 309.585938 L 256.578125 309.589844 L 256.578125 314.371094 L 250.039062 314.371094 L 250.039062 309.597656 L 249.941406 309.585938 L 233.832031 309.585938 Z M 233.832031 309.011719 "/>
<path style=" stroke:none;fill-rule:nonzero;fill:rgb(6.27451%,58.823529%,28.235294%);fill-opacity:1;" d="M 274.882812 293.585938 L 274.925781 293.40625 L 291.796875 98.710938 L 296.921875 98.710938 L 313.882812 293.769531 L 307.921875 293.769531 L 303.671875 242.855469 L 285.050781 242.855469 L 280.882812 293.585938 L 274.882812 293.585938 L 286.839844 221.792969 L 301.964844 221.609375 L 294.421875 130.582031 L 294.339844 130.398438 L 294.257812 130.945312 L 286.800781 221.609375 L 286.839844 221.792969 Z M 274.882812 293.585938 "/>
<path style=" stroke:none;fill-rule:nonzero;fill:rgb(96.862745%,70.196078%,16.862745%);fill-opacity:1;" d="M 274.882812 301.101562 L 274.929688 301.089844 L 274.929688 300.824219 L 275.121094 300.234375 L 275.597656 299.421875 L 276.214844 298.753906 L 276.878906 298.230469 L 277.308594 297.953125 L 278.023438 297.558594 L 278.640625 297.273438 L 280.210938 296.683594 L 282.207031 296.132812 L 283.300781 295.894531 L 284.539062 295.671875 L 286.296875 295.421875 L 287.105469 295.332031 L 289.578125 295.121094 L 292.382812 294.988281 L 295.476562 294.949219 L 296.902344 294.964844 L 298.851562 295.015625 L 301.515625 295.160156 L 303.039062 295.292969 L 304.226562 295.421875 L 305.464844 295.59375 L 306.984375 295.855469 L 308.410156 296.171875 L 309.554688 296.484375 L 310.695312 296.878906 L 311.644531 297.296875 L 312.453125 297.757812 L 313.167969 298.308594 L 313.59375 298.765625 L 313.882812 299.226562 L 307.269531 299.226562 L 306.890625 298.765625 L 306.460938 298.414062 L 305.75 297.980469 L 305.035156 297.664062 L 304.320312 297.417969 L 302.988281 297.074219 L 301.847656 296.867188 L 300.421875 296.683594 L 299.042969 296.5625 L 297.472656 296.484375 L 296.523438 296.457031 L 294 296.457031 L 291.71875 296.550781 L 290.386719 296.65625 L 289.4375 296.761719 L 288.105469 296.957031 L 287.296875 297.113281 L 286.820312 297.21875 L 285.394531 297.625 L 284.441406 297.992188 L 283.917969 298.242188 L 283.253906 298.636719 L 282.777344 298.988281 L 282.253906 299.515625 L 281.96875 299.90625 L 281.589844 300.800781 L 281.539062 303.160156 L 281.683594 303.660156 L 281.96875 304.195312 L 282.347656 304.667969 L 282.921875 305.167969 L 283.492188 305.546875 L 284.488281 306.058594 L 285.34375 306.398438 L 286.011719 306.621094 L 287.296875 306.976562 L 287.820312 307.09375 L 289.054688 307.332031 L 290.339844 307.515625 L 291.910156 307.671875 L 293.097656 307.75 L 295 307.816406 L 297.425781 307.816406 L 300.277344 307.738281 L 302.085938 307.632812 L 303.324219 307.527344 L 304.132812 307.4375 L 305.128906 307.292969 L 305.84375 307.160156 L 306.507812 307.015625 L 307.316406 306.792969 L 307.316406 303.660156 L 295.570312 303.644531 L 295.570312 302.175781 L 313.832031 302.164062 L 313.882812 307.292969 L 312.882812 307.644531 L 311.644531 307.988281 L 310.457031 308.25 L 309.21875 308.472656 L 307.460938 308.722656 L 306.035156 308.878906 L 303.847656 309.0625 L 301.847656 309.179688 L 299.757812 309.257812 L 297.902344 309.296875 L 295.714844 309.3125 L 293.761719 309.285156 L 291.671875 309.207031 L 290.007812 309.101562 L 288.484375 308.96875 L 286.960938 308.800781 L 285.058594 308.523438 L 283.824219 308.300781 L 282.539062 308.027344 L 281.253906 307.699219 L 280.113281 307.34375 L 279.351562 307.070312 L 278.59375 306.753906 L 277.785156 306.359375 L 277.023438 305.914062 L 276.453125 305.507812 L 275.929688 305.050781 L 275.546875 304.617188 L 275.167969 304.027344 L 274.976562 303.554688 L 274.882812 303.148438 Z M 274.882812 301.101562 "/>
<path style=" stroke:none;fill-rule:nonzero;fill:rgb(83.921569%,15.686275%,22.352941%);fill-opacity:1;" d="M 274.882812 310.492188 L 313.882812 310.492188 L 313.882812 310.90625 L 297.628906 310.910156 L 297.628906 314.371094 L 291.089844 314.371094 L 291.089844 310.914062 L 290.992188 310.90625 L 274.882812 310.90625 Z M 274.882812 310.492188 "/>
<path style=" stroke:none;fill-rule:nonzero;fill:rgb(6.27451%,58.823529%,28.235294%);fill-opacity:1;" d="M 315.933594 281.964844 L 315.976562 281.859375 L 332.847656 170.917969 L 337.972656 170.917969 L 354.929688 282.070312 L 348.972656 282.070312 L 344.722656 253.054688 L 326.101562 253.054688 L 321.933594 281.964844 L 315.933594 281.964844 L 327.890625 241.054688 L 343.015625 240.949219 L 335.472656 189.078125 L 335.390625 188.972656 L 335.308594 189.285156 L 327.847656 240.949219 L 327.890625 241.054688 Z M 315.933594 281.964844 "/>
<path style=" stroke:none;fill-rule:nonzero;fill:rgb(96.862745%,70.196078%,16.862745%);fill-opacity:1;" d="M 315.933594 289.558594 L 315.980469 289.542969 L 315.980469 289.277344 L 316.171875 288.671875 L 316.648438 287.835938 L 317.265625 287.148438 L 317.929688 286.613281 L 318.359375 286.328125 L 319.074219 285.925781 L 319.691406 285.628906 L 321.261719 285.023438 L 323.257812 284.460938 L 324.351562 284.21875 L 325.585938 283.988281 L 327.347656 283.734375 L 328.15625 283.640625 L 330.628906 283.425781 L 333.433594 283.289062 L 336.527344 283.25 L 337.953125 283.261719 L 339.902344 283.316406 L 342.566406 283.464844 L 344.089844 283.597656 L 345.277344 283.734375 L 346.515625 283.910156 L 348.035156 284.175781 L 349.460938 284.5 L 350.605469 284.824219 L 351.746094 285.226562 L 352.695312 285.65625 L 353.503906 286.128906 L 354.21875 286.691406 L 354.644531 287.164062 L 354.929688 287.632812 L 348.320312 287.632812 L 347.941406 287.164062 L 347.511719 286.800781 L 346.800781 286.355469 L 346.085938 286.035156 L 345.371094 285.777344 L 344.039062 285.429688 L 342.898438 285.214844 L 341.472656 285.023438 L 340.09375 284.902344 L 338.523438 284.824219 L 337.574219 284.796875 L 335.050781 284.796875 L 332.769531 284.890625 L 331.4375 284.996094 L 330.488281 285.105469 L 329.15625 285.308594 L 328.347656 285.46875 L 327.871094 285.578125 L 326.445312 285.992188 L 325.492188 286.371094 L 324.96875 286.625 L 324.304688 287.027344 L 323.828125 287.390625 L 323.304688 287.929688 L 323.019531 288.332031 L 322.640625 289.25 L 322.589844 291.671875 L 322.734375 292.179688 L 323.019531 292.734375 L 323.398438 293.21875 L 323.972656 293.726562 L 324.542969 294.117188 L 325.539062 294.644531 L 326.394531 294.992188 L 327.0625 295.222656 L 328.347656 295.585938 L 328.871094 295.707031 L 330.105469 295.949219 L 331.390625 296.136719 L 332.960938 296.296875 L 334.148438 296.378906 L 336.050781 296.445312 L 338.476562 296.445312 L 341.328125 296.363281 L 343.136719 296.257812 L 344.375 296.148438 L 345.183594 296.054688 L 346.179688 295.90625 L 346.894531 295.773438 L 347.558594 295.625 L 348.367188 295.394531 L 348.367188 292.179688 L 336.621094 292.167969 L 336.621094 290.660156 L 354.882812 290.648438 L 354.929688 295.90625 L 353.933594 296.269531 L 352.695312 296.621094 L 351.507812 296.890625 L 350.269531 297.117188 L 348.511719 297.375 L 347.085938 297.535156 L 344.898438 297.722656 L 342.898438 297.84375 L 340.808594 297.925781 L 338.953125 297.964844 L 336.765625 297.980469 L 334.8125 297.953125 L 332.722656 297.871094 L 331.058594 297.765625 L 329.535156 297.628906 L 328.011719 297.453125 L 326.109375 297.171875 L 324.875 296.941406 L 323.589844 296.660156 L 322.304688 296.324219 L 321.164062 295.960938 L 320.402344 295.679688 L 319.644531 295.355469 L 318.835938 294.953125 L 318.074219 294.496094 L 317.503906 294.078125 L 316.980469 293.605469 L 316.597656 293.164062 L 316.21875 292.558594 L 316.027344 292.074219 L 315.933594 291.65625 Z M 315.933594 289.558594 "/>
<path style=" stroke:none;fill-rule:nonzero;fill:rgb(83.921569%,15.686275%,22.352941%);fill-opacity:1;" d="M 315.933594 299.160156 L 354.929688 299.160156 L 354.929688 300.710938 L 338.679688 300.722656 L 338.679688 313.648438 L 332.140625 313.648438 L 332.140625 300.738281 L 332.042969 300.710938 L 315.933594 300.710938 Z M 315.933594 299.160156 "/>
<path style=" stroke:none;fill-rule:nonzero;fill:rgb(6.27451%,58.823529%,28.235294%);fill-opacity:1;" d="M 356.984375 281.382812 L 357.027344 281.257812 L 373.898438 145.589844 L 379.023438 145.589844 L 395.980469 281.511719 L 390.023438 281.511719 L 385.773438 246.03125 L 367.148438 246.03125 L 362.984375 281.382812 L 356.984375 281.382812 L 368.941406 231.355469 L 384.066406 231.226562 L 376.523438 167.796875 L 376.441406 167.671875 L 376.359375 168.054688 L 368.898438 231.226562 L 368.941406 231.355469 Z M 356.984375 281.382812 "/>
<path style=" stroke:none;fill-rule:nonzero;fill:rgb(96.862745%,70.196078%,16.862745%);fill-opacity:1;" d="M 356.984375 311.320312 L 357.03125 311.316406 L 357.03125 311.21875 L 357.222656 311 L 357.699219 310.695312 L 358.316406 310.449219 L 358.980469 310.253906 L 359.410156 310.152344 L 360.121094 310.003906 L 360.742188 309.898438 L 362.3125 309.679688 L 364.308594 309.472656 L 365.402344 309.386719 L 366.636719 309.304688 L 368.398438 309.210938 L 369.207031 309.175781 L 371.679688 309.097656 L 374.484375 309.050781 L 377.578125 309.035156 L 379.003906 309.039062 L 380.953125 309.058594 L 383.617188 309.113281 L 385.140625 309.160156 L 386.328125 309.210938 L 387.5625 309.273438 L 389.085938 309.371094 L 390.511719 309.488281 L 391.65625 309.605469 L 392.796875 309.75 L 393.746094 309.90625 L 394.554688 310.078125 L 395.269531 310.28125 L 395.695312 310.453125 L 395.980469 310.625 L 389.371094 310.625 L 388.992188 310.453125 L 388.5625 310.320312 L 387.851562 310.160156 L 387.136719 310.042969 L 386.421875 309.953125 L 385.089844 309.824219 L 383.949219 309.746094 L 382.523438 309.679688 L 381.144531 309.632812 L 379.574219 309.605469 L 378.625 309.59375 L 376.101562 309.59375 L 373.820312 309.628906 L 372.488281 309.667969 L 371.535156 309.707031 L 370.207031 309.78125 L 369.398438 309.839844 L 368.921875 309.878906 L 367.496094 310.027344 L 366.542969 310.164062 L 366.019531 310.257812 L 365.355469 310.40625 L 364.878906 310.535156 L 364.355469 310.730469 L 364.070312 310.878906 L 363.691406 311.207031 L 363.640625 312.085938 L 363.785156 312.269531 L 364.070312 312.46875 L 364.449219 312.644531 L 365.023438 312.832031 L 365.59375 312.972656 L 366.589844 313.164062 L 367.445312 313.289062 L 368.113281 313.371094 L 369.398438 313.503906 L 369.921875 313.546875 L 371.15625 313.636719 L 372.441406 313.703125 L 374.011719 313.761719 L 375.199219 313.789062 L 377.101562 313.816406 L 379.527344 313.816406 L 382.378906 313.785156 L 384.1875 313.746094 L 385.425781 313.707031 L 386.234375 313.675781 L 387.230469 313.621094 L 387.945312 313.570312 L 388.609375 313.519531 L 389.417969 313.433594 L 389.417969 312.269531 L 377.671875 312.265625 L 377.671875 311.71875 L 395.933594 311.714844 L 395.980469 313.621094 L 394.984375 313.75 L 393.746094 313.878906 L 392.558594 313.976562 L 391.320312 314.058594 L 389.5625 314.152344 L 388.136719 314.210938 L 385.949219 314.277344 L 383.949219 314.320312 L 381.855469 314.351562 L 380.003906 314.367188 L 377.816406 314.371094 L 375.863281 314.359375 L 373.773438 314.332031 L 372.109375 314.292969 L 370.585938 314.242188 L 369.0625 314.179688 L 367.160156 314.078125 L 365.925781 313.996094 L 364.640625 313.894531 L 363.355469 313.769531 L 362.214844 313.640625 L 361.453125 313.539062 L 360.695312 313.421875 L 359.886719 313.273438 L 359.125 313.109375 L 358.554688 312.957031 L 358.03125 312.785156 L 357.648438 312.625 L 357.269531 312.40625 L 357.078125 312.230469 L 356.984375 312.082031 Z M 356.984375 311.320312 "/>
<path style=" stroke:none;fill-rule:nonzero;fill:rgb(83.921569%,15.686275%,22.352941%);fill-opacity:1;" d="M 356.984375 282.691406 L 395.980469 282.691406 L 395.980469 285.386719 L 379.730469 285.410156 L 379.730469 307.855469 L 373.191406 307.855469 L 373.191406 285.433594 L 373.09375 285.386719 L 356.984375 285.386719 Z M 356.984375 282.691406 "/>
<path style=" stroke:none;fill-rule:nonzero;fill:rgb(83.921569%,15.686275%,22.352941%);fill-opacity:1;" d="M 398.035156 20.664062 L 437.03125 20.664062 L 437.03125 52.101562 L 420.78125 52.378906 L 420.78125 314.371094 L 414.242188 314.371094 L 414.242188 52.652344 L 414.144531 52.101562 L 398.035156 52.101562 Z M 398.035156 20.664062 "/>
<path style=" stroke:none;fill-rule:nonzero;fill:rgb(83.921569%,15.686275%,22.352941%);fill-opacity:1;" d="M 439.085938 20.664062 L 478.082031 20.664062 L 478.082031 52.101562 L 461.832031 52.378906 L 461.832031 314.371094 L 455.292969 314.371094 L 455.292969 52.652344 L 455.195312 52.101562 L 439.085938 52.101562 Z M 439.085938 20.664062 "/>
<path style=" stroke:none;fill-rule:nonzero;fill:rgb(14.509804%,36.078431%,60%);fill-opacity:1;" d="M 480.136719 288.238281 L 480.183594 288.195312 L 480.183594 287.179688 L 480.328125 285.574219 L 480.660156 283.546875 L 480.992188 282.148438 L 481.847656 279.65625 L 483.039062 277.246094 L 484.273438 275.382812 L 485.175781 274.285156 L 485.984375 273.4375 L 487.839844 271.875 L 489.03125 271.070312 L 490.3125 270.351562 L 491.882812 269.632812 L 493.023438 269.210938 L 495.59375 268.535156 L 497.496094 268.238281 L 498.96875 268.109375 L 502.15625 268.109375 L 504.058594 268.28125 L 505.4375 268.492188 L 506.960938 268.828125 L 508.242188 269.210938 L 510.480469 270.140625 L 512.476562 271.324219 L 513.378906 272 L 514.804688 273.3125 L 515.898438 274.582031 L 516.660156 275.679688 L 517.515625 277.246094 L 518.277344 279.148438 L 518.847656 281.304688 L 519.132812 283.121094 L 512.476562 283.121094 L 512.144531 281.429688 L 511.761719 280.121094 L 511.050781 278.386719 L 510.335938 277.160156 L 509.335938 275.933594 L 508.433594 275.128906 L 507.195312 274.328125 L 506.101562 273.820312 L 504.960938 273.4375 L 503.867188 273.183594 L 501.773438 272.929688 L 499.351562 272.929688 L 498.445312 273.015625 L 496.589844 273.355469 L 495.59375 273.648438 L 494.164062 274.242188 L 493.167969 274.792969 L 491.976562 275.636719 L 491.167969 276.355469 L 490.171875 277.457031 L 489.457031 278.429688 L 488.648438 279.824219 L 488.171875 280.882812 L 487.746094 282.066406 L 487.363281 283.460938 L 487.078125 284.941406 L 486.890625 286.503906 L 486.792969 288.027344 L 486.792969 294.582031 L 486.890625 296.105469 L 487.128906 297.878906 L 487.746094 300.457031 L 488.648438 302.699219 L 489.695312 304.476562 L 490.695312 305.746094 L 491.265625 306.335938 L 492.027344 307.011719 L 493.214844 307.859375 L 494.925781 308.703125 L 495.925781 309.042969 L 497.449219 309.382812 L 499.015625 309.550781 L 501.109375 309.550781 L 502.964844 309.382812 L 504.199219 309.167969 L 505.484375 308.832031 L 507.246094 308.113281 L 508.339844 307.4375 L 509.289062 306.632812 L 510.003906 305.828125 L 510.480469 305.152344 L 511.191406 303.839844 L 511.761719 302.402344 L 512.191406 300.925781 L 512.476562 299.488281 L 519.132812 299.488281 L 518.847656 301.179688 L 518.421875 302.828125 L 517.992188 304.054688 L 517.328125 305.53125 L 516.566406 306.84375 L 515.472656 308.324219 L 514.570312 309.296875 L 513.378906 310.355469 L 512.285156 311.15625 L 511.097656 311.875 L 509.335938 312.722656 L 508.195312 313.144531 L 506.960938 313.523438 L 505.484375 313.863281 L 503.628906 314.160156 L 501.632812 314.328125 L 499.777344 314.371094 L 497.78125 314.285156 L 496.304688 314.117188 L 494.355469 313.738281 L 491.929688 312.976562 L 490.171875 312.171875 L 488.792969 311.367188 L 487.601562 310.523438 L 486.269531 309.382812 L 484.558594 307.519531 L 483.511719 306.082031 L 482.800781 304.898438 L 481.992188 303.25 L 481.421875 301.769531 L 480.753906 299.402344 L 480.277344 296.398438 L 480.136719 294.074219 Z M 480.136719 288.238281 "/>
<path style=" stroke:none;fill-rule:nonzero;fill:rgb(83.921569%,15.686275%,22.352941%);fill-opacity:1;" d="M 480.136719 147.128906 L 519.132812 147.128906 L 519.132812 159.953125 L 502.882812 160.0625 L 502.882812 266.929688 L 496.34375 266.929688 L 496.34375 160.175781 L 496.246094 159.953125 L 480.136719 159.953125 Z M 480.136719 147.128906 "/>
<path style=" stroke:none;fill-rule:nonzero;fill:rgb(6.27451%,58.823529%,28.235294%);fill-opacity:1;" d="M 521.1875 276.972656 L 521.226562 276.832031 L 538.101562 126.117188 L 543.226562 126.117188 L 560.183594 277.117188 L 554.226562 277.117188 L 549.976562 237.699219 L 531.351562 237.699219 L 527.1875 276.972656 L 521.1875 276.972656 L 533.144531 221.394531 L 548.269531 221.253906 L 540.726562 150.785156 L 540.644531 150.644531 L 540.5625 151.070312 L 533.101562 221.253906 L 533.144531 221.394531 Z M 521.1875 276.972656 "/>
<path style=" stroke:none;fill-rule:nonzero;fill:rgb(96.862745%,70.196078%,16.862745%);fill-opacity:1;" d="M 521.1875 293.746094 L 521.234375 293.714844 L 521.234375 293.054688 L 521.425781 291.570312 L 521.898438 289.53125 L 522.519531 287.847656 L 523.183594 286.53125 L 523.613281 285.839844 L 524.324219 284.851562 L 524.945312 284.125 L 526.511719 282.644531 L 528.511719 281.261719 L 529.605469 280.667969 L 530.839844 280.105469 L 532.601562 279.480469 L 533.410156 279.25 L 535.882812 278.722656 L 538.6875 278.394531 L 541.78125 278.292969 L 543.207031 278.328125 L 545.15625 278.460938 L 547.820312 278.820312 L 549.339844 279.152344 L 550.53125 279.480469 L 551.765625 279.910156 L 553.289062 280.566406 L 554.714844 281.359375 L 555.855469 282.148438 L 557 283.136719 L 557.949219 284.191406 L 558.757812 285.34375 L 559.472656 286.730469 L 559.898438 287.882812 L 560.183594 289.035156 L 553.574219 289.035156 L 553.195312 287.882812 L 552.765625 286.992188 L 552.050781 285.90625 L 551.339844 285.113281 L 550.625 284.488281 L 549.292969 283.632812 L 548.152344 283.105469 L 546.726562 282.644531 L 545.347656 282.347656 L 543.777344 282.148438 L 542.824219 282.082031 L 540.304688 282.082031 L 538.023438 282.3125 L 536.691406 282.578125 L 535.738281 282.839844 L 534.40625 283.335938 L 533.601562 283.730469 L 533.125 283.996094 L 531.699219 285.015625 L 530.746094 285.9375 L 530.222656 286.5625 L 529.558594 287.550781 L 529.082031 288.441406 L 528.558594 289.761719 L 528.273438 290.75 L 527.894531 292.988281 L 527.84375 298.917969 L 527.988281 300.171875 L 528.273438 301.523438 L 528.652344 302.707031 L 529.222656 303.960938 L 529.796875 304.914062 L 530.792969 306.199219 L 531.648438 307.058594 L 532.316406 307.617188 L 533.601562 308.507812 L 534.121094 308.804688 L 535.359375 309.394531 L 536.644531 309.855469 L 538.210938 310.253906 L 539.402344 310.449219 L 541.304688 310.613281 L 543.730469 310.613281 L 546.582031 310.417969 L 548.390625 310.152344 L 549.625 309.890625 L 550.433594 309.660156 L 551.433594 309.296875 L 552.148438 308.96875 L 552.8125 308.605469 L 553.621094 308.046875 L 553.621094 300.171875 L 541.875 300.136719 L 541.875 296.449219 L 560.136719 296.414062 L 560.183594 309.296875 L 559.1875 310.1875 L 557.949219 311.042969 L 556.761719 311.703125 L 555.523438 312.261719 L 553.765625 312.886719 L 552.335938 313.285156 L 550.148438 313.746094 L 548.152344 314.042969 L 546.058594 314.238281 L 544.207031 314.335938 L 542.015625 314.371094 L 540.066406 314.304688 L 537.976562 314.105469 L 536.308594 313.84375 L 534.789062 313.515625 L 533.265625 313.085938 L 531.363281 312.394531 L 530.128906 311.832031 L 528.84375 311.140625 L 527.558594 310.316406 L 526.417969 309.429688 L 525.65625 308.738281 L 524.894531 307.945312 L 524.089844 306.957031 L 523.328125 305.835938 L 522.757812 304.816406 L 522.234375 303.664062 L 521.851562 302.574219 L 521.472656 301.09375 L 521.28125 299.90625 L 521.1875 298.886719 Z M 521.1875 293.746094 "/>
<path style=" stroke:none;fill-rule:nonzero;fill:rgb(6.27451%,58.823529%,28.235294%);fill-opacity:1;" d="M 562.238281 296.296875 L 562.277344 296.09375 L 579.152344 77.328125 L 584.277344 77.328125 L 601.234375 296.503906 L 595.277344 296.503906 L 591.027344 239.292969 L 572.402344 239.292969 L 568.238281 296.296875 L 562.238281 296.296875 L 574.195312 215.625 L 589.320312 215.417969 L 581.777344 113.136719 L 581.695312 112.929688 L 581.613281 113.546875 L 574.152344 215.417969 L 574.195312 215.625 Z M 562.238281 296.296875 "/>
<path style=" stroke:none;fill-rule:nonzero;fill:rgb(14.509804%,36.078431%,60%);fill-opacity:1;" d="M 562.238281 304.945312 L 562.285156 304.929688 L 562.285156 304.5625 L 562.429688 303.984375 L 562.761719 303.25 L 563.09375 302.746094 L 563.949219 301.847656 L 565.136719 300.976562 L 566.375 300.308594 L 567.277344 299.910156 L 568.085938 299.605469 L 569.941406 299.042969 L 571.132812 298.75 L 572.414062 298.492188 L 573.984375 298.234375 L 575.125 298.078125 L 577.695312 297.835938 L 579.597656 297.730469 L 581.070312 297.683594 L 584.257812 297.683594 L 586.160156 297.746094 L 587.539062 297.820312 L 589.0625 297.941406 L 590.34375 298.078125 L 592.578125 298.414062 L 594.578125 298.84375 L 595.480469 299.085938 L 596.90625 299.558594 L 598 300.015625 L 598.761719 300.414062 L 599.617188 300.976562 L 600.378906 301.664062 L 600.949219 302.441406 L 601.234375 303.097656 L 594.578125 303.097656 L 594.246094 302.488281 L 593.863281 302.015625 L 593.152344 301.390625 L 592.4375 300.949219 L 591.4375 300.503906 L 590.535156 300.214844 L 589.296875 299.925781 L 588.203125 299.742188 L 587.0625 299.605469 L 585.96875 299.515625 L 583.875 299.421875 L 581.453125 299.421875 L 580.546875 299.453125 L 578.691406 299.574219 L 577.695312 299.683594 L 576.265625 299.894531 L 575.269531 300.09375 L 574.078125 300.398438 L 573.269531 300.65625 L 572.273438 301.054688 L 571.558594 301.40625 L 570.75 301.910156 L 570.273438 302.289062 L 569.847656 302.71875 L 569.464844 303.21875 L 569.179688 303.753906 L 568.992188 304.320312 L 568.894531 304.867188 L 568.894531 307.230469 L 568.992188 307.78125 L 569.230469 308.421875 L 569.847656 309.351562 L 570.75 310.160156 L 571.796875 310.800781 L 572.796875 311.257812 L 573.367188 311.472656 L 574.128906 311.714844 L 575.316406 312.023438 L 577.027344 312.328125 L 578.027344 312.449219 L 579.550781 312.570312 L 581.117188 312.632812 L 583.210938 312.632812 L 585.066406 312.570312 L 586.300781 312.496094 L 587.585938 312.371094 L 589.347656 312.113281 L 590.441406 311.867188 L 591.390625 311.578125 L 592.105469 311.289062 L 592.578125 311.046875 L 593.292969 310.574219 L 593.863281 310.054688 L 594.292969 309.519531 L 594.578125 309 L 601.234375 309 L 600.949219 309.613281 L 600.523438 310.207031 L 600.09375 310.648438 L 599.429688 311.183594 L 598.667969 311.65625 L 597.574219 312.1875 L 596.671875 312.539062 L 595.480469 312.921875 L 594.386719 313.210938 L 593.199219 313.472656 L 591.4375 313.777344 L 590.296875 313.929688 L 589.0625 314.066406 L 587.585938 314.1875 L 585.730469 314.292969 L 583.734375 314.355469 L 581.878906 314.371094 L 579.882812 314.339844 L 578.40625 314.277344 L 576.457031 314.140625 L 574.03125 313.867188 L 572.273438 313.578125 L 570.894531 313.289062 L 569.703125 312.984375 L 568.371094 312.570312 L 566.660156 311.898438 L 565.613281 311.382812 L 564.902344 310.953125 L 564.09375 310.359375 L 563.523438 309.824219 L 562.855469 308.972656 L 562.378906 307.886719 L 562.238281 307.050781 Z M 562.238281 304.945312 "/>
<path style=" stroke:none;fill-rule:nonzero;fill:rgb(6.27451%,58.823529%,28.235294%);fill-opacity:1;" d="M 603.289062 313.609375 L 603.328125 313.335938 L 620.203125 23.285156 L 625.328125 23.285156 L 642.285156 313.882812 L 636.328125 313.882812 L 632.078125 238.027344 L 613.453125 238.027344 L 609.289062 313.609375 L 603.289062 313.609375 L 615.246094 206.648438 L 630.371094 206.375 L 622.828125 70.761719 L 622.746094 70.492188 L 622.664062 71.308594 L 615.203125 206.375 L 615.246094 206.648438 Z M 603.289062 313.609375 "/>
<path style=" stroke:none;fill-rule:nonzero;fill:rgb(6.27451%,58.823529%,28.235294%);fill-opacity:1;" d="M 644.339844 310.960938 L 644.378906 310.910156 L 661.253906 255.949219 L 666.378906 255.949219 L 683.335938 311.011719 L 677.378906 311.011719 L 673.128906 296.640625 L 654.503906 296.640625 L 650.339844 310.960938 L 644.339844 310.960938 L 656.296875 290.691406 L 671.421875 290.640625 L 663.878906 264.945312 L 663.796875 264.894531 L 663.714844 265.046875 L 656.253906 290.640625 L 656.296875 290.691406 Z M 644.339844 310.960938 "/>
<path style=" stroke:none;fill-rule:nonzero;fill:rgb(14.509804%,36.078431%,60%);fill-opacity:1;" d="M 644.339844 313.140625 L 644.386719 313.136719 L 644.386719 313.089844 L 644.527344 313.015625 L 644.863281 312.917969 L 645.195312 312.851562 L 646.050781 312.734375 L 647.238281 312.621094 L 648.476562 312.535156 L 649.378906 312.484375 L 650.1875 312.441406 L 652.042969 312.371094 L 653.230469 312.332031 L 654.515625 312.296875 L 656.085938 312.265625 L 657.226562 312.242188 L 659.796875 312.210938 L 661.699219 312.199219 L 663.171875 312.191406 L 666.359375 312.191406 L 668.261719 312.199219 L 669.640625 312.210938 L 671.160156 312.226562 L 672.445312 312.242188 L 674.679688 312.289062 L 676.679688 312.34375 L 677.582031 312.375 L 679.007812 312.4375 L 680.101562 312.496094 L 680.863281 312.546875 L 681.71875 312.621094 L 682.480469 312.710938 L 683.050781 312.8125 L 683.335938 312.898438 L 676.679688 312.898438 L 676.347656 312.820312 L 675.964844 312.757812 L 675.253906 312.675781 L 674.539062 312.617188 L 673.539062 312.5625 L 672.636719 312.523438 L 671.398438 312.484375 L 670.304688 312.460938 L 669.164062 312.441406 L 668.070312 312.429688 L 665.976562 312.417969 L 663.550781 312.417969 L 662.648438 312.421875 L 660.792969 312.4375 L 659.796875 312.453125 L 658.367188 312.480469 L 657.371094 312.507812 L 656.179688 312.546875 L 655.371094 312.582031 L 654.375 312.632812 L 653.660156 312.679688 L 652.851562 312.742188 L 652.375 312.792969 L 651.949219 312.847656 L 651.566406 312.914062 L 651.28125 312.984375 L 651.09375 313.058594 L 650.996094 313.128906 L 650.996094 313.4375 L 651.09375 313.511719 L 651.328125 313.59375 L 651.949219 313.714844 L 652.851562 313.820312 L 653.898438 313.90625 L 654.898438 313.964844 L 655.46875 313.992188 L 656.230469 314.023438 L 657.417969 314.0625 L 659.128906 314.105469 L 660.128906 314.121094 L 661.648438 314.136719 L 663.21875 314.144531 L 665.3125 314.144531 L 667.167969 314.136719 L 668.402344 314.125 L 669.6875 314.109375 L 671.449219 314.074219 L 672.542969 314.042969 L 673.492188 314.007812 L 674.207031 313.96875 L 674.679688 313.9375 L 675.394531 313.875 L 675.964844 313.808594 L 676.394531 313.738281 L 676.679688 313.667969 L 683.335938 313.667969 L 683.050781 313.75 L 682.625 313.828125 L 682.195312 313.886719 L 681.53125 313.953125 L 680.769531 314.015625 L 679.675781 314.085938 L 678.769531 314.132812 L 677.582031 314.179688 L 676.488281 314.21875 L 675.300781 314.253906 L 673.539062 314.292969 L 672.398438 314.3125 L 671.160156 314.332031 L 669.6875 314.347656 L 667.832031 314.359375 L 665.835938 314.367188 L 663.980469 314.371094 L 661.984375 314.367188 L 660.507812 314.359375 L 658.558594 314.339844 L 656.132812 314.304688 L 654.375 314.265625 L 652.996094 314.230469 L 651.804688 314.191406 L 650.472656 314.136719 L 648.761719 314.046875 L 647.714844 313.980469 L 647.003906 313.925781 L 646.195312 313.847656 L 645.621094 313.777344 L 644.957031 313.664062 L 644.480469 313.523438 L 644.339844 313.414062 Z M 644.339844 313.140625 "/>
<path style=" stroke:none;fill-rule:nonzero;fill:rgb(83.921569%,15.686275%,22.352941%);fill-opacity:1;" d="M 644.339844 189.628906 L 683.335938 189.628906 L 683.335938 196.601562 L 667.082031 196.664062 L 667.082031 254.769531 L 660.542969 254.769531 L 660.542969 196.722656 L 660.449219 196.601562 L 644.339844 196.601562 Z M 644.339844 189.628906 "/>
<g style="fill:rgb(0%,0%,0%);fill-opacity:1;">
  <use xlink:href="#glyph0-1" x="21.957031" y="318.198242"/>
  <use xlink:href="#glyph0-2" x="27.291016" y="318.198242"/>
  <use xlink:href="#glyph0-1" x="29.958008" y="318.198242"/>
</g>
<g style="fill:rgb(0%,0%,0%);fill-opacity:1;">
  <use xlink:href="#glyph0-1" x="21.957031" y="244.475586"/>
  <use xlink:href="#glyph0-2" x="27.291016" y="244.475586"/>
  <use xlink:href="#glyph0-3" x="29.958008" y="244.475586"/>
</g>
<g style="fill:rgb(0%,0%,0%);fill-opacity:1;">
  <use xlink:href="#glyph0-4" x="21.957031" y="170.75293"/>
  <use xlink:href="#glyph0-2" x="27.291016" y="170.75293"/>
  <use xlink:href="#glyph0-1" x="29.958008" y="170.75293"/>
</g>
<g style="fill:rgb(0%,0%,0%);fill-opacity:1;">
  <use xlink:href="#glyph0-4" x="21.957031" y="97.03418"/>
  <use xlink:href="#glyph0-2" x="27.291016" y="97.03418"/>
  <use xlink:href="#glyph0-3" x="29.958008" y="97.03418"/>
</g>
<g style="fill:rgb(0%,0%,0%);fill-opacity:1;">
  <use xlink:href="#glyph0-5" x="21.957031" y="23.311523"/>
  <use xlink:href="#glyph0-2" x="27.291016" y="23.311523"/>
  <use xlink:href="#glyph0-1" x="29.958008" y="23.311523"/>
</g>
<g style="fill:rgb(0%,0%,0%);fill-opacity:1;">
  <use xlink:href="#glyph0-4" x="86.128906" y="338.19043"/>
</g>
<g style="fill:rgb(0%,0%,0%);fill-opacity:1;">
  <use xlink:href="#glyph0-5" x="127.179688" y="338.19043"/>
</g>
<g style="fill:rgb(0%,0%,0%);fill-opacity:1;">
  <use xlink:href="#glyph0-6" x="168.230469" y="338.19043"/>
</g>
<g style="fill:rgb(0%,0%,0%);fill-opacity:1;">
  <use xlink:href="#glyph0-7" x="209.28125" y="338.19043"/>
</g>
<g style="fill:rgb(0%,0%,0%);fill-opacity:1;">
  <use xlink:href="#glyph0-3" x="250.332031" y="338.19043"/>
</g>
<g style="fill:rgb(0%,0%,0%);fill-opacity:1;">
  <use xlink:href="#glyph0-8" x="291.382812" y="338.19043"/>
</g>
<g style="fill:rgb(0%,0%,0%);fill-opacity:1;">
  <use xlink:href="#glyph0-9" x="332.433594" y="338.19043"/>
</g>
<g style="fill:rgb(0%,0%,0%);fill-opacity:1;">
  <use xlink:href="#glyph0-10" x="373.484375" y="338.19043"/>
</g>
<g style="fill:rgb(0%,0%,0%);fill-opacity:1;">
  <use xlink:href="#glyph0-11" x="414.535156" y="338.19043"/>
</g>
<g style="fill:rgb(0%,0%,0%);fill-opacity:1;">
  <use xlink:href="#glyph0-4" x="453.085938" y="338.19043"/>
  <use xlink:href="#glyph0-1" x="458.419922" y="338.19043"/>
</g>
<g style="fill:rgb(0%,0%,0%);fill-opacity:1;">
  <use xlink:href="#glyph0-4" x="494.136719" y="338.19043"/>
  <use xlink:href="#glyph0-4" x="499.470703" y="338.19043"/>
</g>
<g style="fill:rgb(0%,0%,0%);fill-opacity:1;">
  <use xlink:href="#glyph0-4" x="535.1875" y="338.19043"/>
  <use xlink:href="#glyph0-5" x="540.521484" y="338.19043"/>
</g>
<g style="fill:rgb(0%,0%,0%);fill-opacity:1;">
  <use xlink:href="#glyph0-4" x="576.238281" y="338.19043"/>
  <use xlink:href="#glyph0-6" x="581.572266" y="338.19043"/>
</g>
<g style="fill:rgb(0%,0%,0%);fill-opacity:1;">
  <use xlink:href="#glyph0-4" x="617.289062" y="338.19043"/>
  <use xlink:href="#glyph0-7" x="622.623047" y="338.19043"/>
</g>
<g style="fill:rgb(0%,0%,0%);fill-opacity:1;">
  <use xlink:href="#glyph0-4" x="658.339844" y="338.19043"/>
  <use xlink:href="#glyph0-3" x="663.673828" y="338.19043"/>
</g>
<g style="fill:rgb(0%,0%,0%);fill-opacity:1;">
  <use xlink:href="#glyph1-1" x="14.412109" y="178.015625"/>
  <use xlink:href="#glyph1-2" x="14.412109" y="170.011719"/>
  <use xlink:href="#glyph1-3" x="14.412109" y="167.347656"/>
  <use xlink:href="#glyph1-4" x="14.412109" y="164.011719"/>
</g>
</g>
</svg>
