<?xml version="1.0" encoding="UTF-8"?>
<svg xmlns="http://www.w3.org/2000/svg" xmlns:xlink="http://www.w3.org/1999/xlink" width="720pt" height="360pt" viewBox="0 0 720 360" version="1.1">
<defs>
<g>
<symbol overflow="visible" id="glyph0-0">
<path style="stroke:none;" d=""/>
</symbol>
<symbol overflow="visible" id="glyph0-1">
<path style="stroke:none;" d="M 2.640625 -6.796875 C 2 -6.796875 1.421875 -6.53125 1.078125 -6.046875 C 0.640625 -5.453125 0.40625 -4.546875 0.40625 -3.296875 C 0.40625 -1 1.1875 0.21875 2.640625 0.21875 C 4.078125 0.21875 4.859375 -1 4.859375 -3.234375 C 4.859375 -4.5625 4.65625 -5.4375 4.203125 -6.046875 C 3.84375 -6.53125 3.28125 -6.796875 2.640625 -6.796875 Z M 2.640625 -6.046875 C 3.546875 -6.046875 4 -5.125 4 -3.3125 C 4 -1.375 3.5625 -0.484375 2.625 -0.484375 C 1.734375 -0.484375 1.28125 -1.421875 1.28125 -3.28125 C 1.28125 -5.140625 1.734375 -6.046875 2.640625 -6.046875 Z M 2.640625 -6.046875 "/>
</symbol>
<symbol overflow="visible" id="glyph0-2">
<path style="stroke:none;" d="M 1.828125 -1 L 0.828125 -1 L 0.828125 0 L 1.828125 0 Z M 1.828125 -1 "/>
</symbol>
<symbol overflow="visible" id="glyph0-3">
<path style="stroke:none;" d="M 4.5625 -6.796875 L 1.0625 -6.796875 L 0.546875 -3.09375 L 1.328125 -3.09375 C 1.71875 -3.5625 2.046875 -3.734375 2.578125 -3.734375 C 3.484375 -3.734375 4.0625 -3.109375 4.0625 -2.09375 C 4.0625 -1.125 3.484375 -0.53125 2.578125 -0.53125 C 1.828125 -0.53125 1.375 -0.90625 1.1875 -1.671875 L 0.328125 -1.671875 C 0.453125 -1.109375 0.546875 -0.84375 0.75 -0.59375 C 1.125 -0.078125 1.828125 0.21875 2.59375 0.21875 C 3.96875 0.21875 4.921875 -0.78125 4.921875 -2.21875 C 4.921875 -3.5625 4.03125 -4.484375 2.71875 -4.484375 C 2.25 -4.484375 1.859375 -4.359375 1.46875 -4.0625 L 1.734375 -5.96875 L 4.5625 -5.96875 Z M 4.5625 -6.796875 "/>
</symbol>
<symbol overflow="visible" id="glyph0-4">
<path style="stroke:none;" d="M 2.484375 -4.84375 L 2.484375 0 L 3.328125 0 L 3.328125 -6.796875 L 2.765625 -6.796875 C 2.46875 -5.75 2.28125 -5.609375 0.984375 -5.453125 L 0.984375 -4.84375 Z M 2.484375 -4.84375 "/>
</symbol>
<symbol overflow="visible" id="glyph0-5">
<path style="stroke:none;" d="M 4.859375 -0.828125 L 1.28125 -0.828125 C 1.359375 -1.390625 1.671875 -1.75 2.5 -2.234375 L 3.46875 -2.75 C 4.40625 -3.265625 4.90625 -3.96875 4.90625 -4.8125 C 4.90625 -5.375 4.671875 -5.90625 4.265625 -6.265625 C 3.859375 -6.625 3.375 -6.796875 2.71875 -6.796875 C 1.859375 -6.796875 1.21875 -6.5 0.84375 -5.921875 C 0.609375 -5.5625 0.5 -5.125 0.484375 -4.4375 L 1.328125 -4.4375 C 1.359375 -4.90625 1.40625 -5.1875 1.53125 -5.40625 C 1.75 -5.8125 2.1875 -6.0625 2.703125 -6.0625 C 3.46875 -6.0625 4.03125 -5.515625 4.03125 -4.78125 C 4.03125 -4.25 3.71875 -3.796875 3.125 -3.4375 L 2.234375 -2.9375 C 0.8125 -2.140625 0.40625 -1.5 0.328125 0 L 4.859375 0 Z M 4.859375 -0.828125 "/>
</symbol>
<symbol overflow="visible" id="glyph0-6">
<path style="stroke:none;" d="M 2.125 -3.125 L 2.578125 -3.125 C 3.515625 -3.125 3.984375 -2.703125 3.984375 -1.890625 C 3.984375 -1.03125 3.46875 -0.53125 2.578125 -0.53125 C 1.65625 -0.53125 1.203125 -0.984375 1.15625 -1.96875 L 0.3125 -1.96875 C 0.34375 -1.421875 0.4375 -1.078125 0.609375 -0.765625 C 0.953125 -0.109375 1.625 0.21875 2.546875 0.21875 C 3.953125 0.21875 4.859375 -0.609375 4.859375 -1.90625 C 4.859375 -2.765625 4.515625 -3.25 3.703125 -3.515625 C 4.34375 -3.765625 4.65625 -4.25 4.65625 -4.9375 C 4.65625 -6.109375 3.875 -6.796875 2.578125 -6.796875 C 1.203125 -6.796875 0.484375 -6.046875 0.453125 -4.609375 L 1.296875 -4.609375 C 1.3125 -5.015625 1.34375 -5.25 1.453125 -5.453125 C 1.640625 -5.828125 2.0625 -6.0625 2.59375 -6.0625 C 3.34375 -6.0625 3.796875 -5.625 3.796875 -4.90625 C 3.796875 -4.421875 3.609375 -4.140625 3.25 -3.984375 C 3.015625 -3.890625 2.71875 -3.84375 2.125 -3.84375 Z M 2.125 -3.125 "/>
</symbol>
<symbol overflow="visible" id="glyph0-7">
<path style="stroke:none;" d="M 3.140625 -1.625 L 3.140625 0 L 3.984375 0 L 3.984375 -1.625 L 4.984375 -1.625 L 4.984375 -2.390625 L 3.984375 -2.390625 L 3.984375 -6.796875 L 3.359375 -6.796875 L 0.265625 -2.515625 L 0.265625 -1.625 Z M 3.140625 -2.390625 L 1 -2.390625 L 3.140625 -5.359375 Z M 3.140625 -2.390625 "/>
</symbol>
<symbol overflow="visible" id="glyph0-8">
<path style="stroke:none;" d="M 4.78125 -5.03125 C 4.609375 -6.140625 3.890625 -6.796875 2.84375 -6.796875 C 2.09375 -6.796875 1.421875 -6.4375 1.03125 -5.828125 C 0.609375 -5.171875 0.40625 -4.34375 0.40625 -3.09375 C 0.40625 -1.953125 0.578125 -1.234375 0.984375 -0.625 C 1.359375 -0.078125 1.953125 0.21875 2.703125 0.21875 C 3.984375 0.21875 4.921875 -0.734375 4.921875 -2.078125 C 4.921875 -3.34375 4.0625 -4.234375 2.84375 -4.234375 C 2.171875 -4.234375 1.640625 -3.96875 1.28125 -3.46875 C 1.28125 -5.125 1.828125 -6.046875 2.796875 -6.046875 C 3.390625 -6.046875 3.796875 -5.671875 3.9375 -5.03125 Z M 2.734375 -3.484375 C 3.546875 -3.484375 4.0625 -2.921875 4.0625 -2 C 4.0625 -1.15625 3.484375 -0.53125 2.703125 -0.53125 C 1.921875 -0.53125 1.328125 -1.1875 1.328125 -2.046875 C 1.328125 -2.890625 1.90625 -3.484375 2.734375 -3.484375 Z M 2.734375 -3.484375 "/>
</symbol>
<symbol overflow="visible" id="glyph0-9">
<path style="stroke:none;" d="M 4.984375 -6.796875 L 0.4375 -6.796875 L 0.4375 -5.96875 L 4.109375 -5.96875 C 2.5 -3.65625 1.828125 -2.234375 1.328125 0 L 2.21875 0 C 2.59375 -2.171875 3.453125 -4.046875 4.984375 -6.09375 Z M 4.984375 -6.796875 "/>
</symbol>
<symbol overflow="visible" id="glyph0-10">
<path style="stroke:none;" d="M 3.75 -3.578125 C 4.453125 -4 4.6875 -4.34375 4.6875 -4.984375 C 4.6875 -6.046875 3.84375 -6.796875 2.640625 -6.796875 C 1.4375 -6.796875 0.59375 -6.046875 0.59375 -4.984375 C 0.59375 -4.359375 0.828125 -4.015625 1.515625 -3.578125 C 0.734375 -3.203125 0.359375 -2.640625 0.359375 -1.890625 C 0.359375 -0.640625 1.296875 0.21875 2.640625 0.21875 C 3.984375 0.21875 4.921875 -0.640625 4.921875 -1.875 C 4.921875 -2.640625 4.53125 -3.203125 3.75 -3.578125 Z M 2.640625 -6.046875 C 3.359375 -6.046875 3.8125 -5.625 3.8125 -4.96875 C 3.8125 -4.34375 3.34375 -3.921875 2.640625 -3.921875 C 1.921875 -3.921875 1.453125 -4.34375 1.453125 -4.984375 C 1.453125 -5.625 1.921875 -6.046875 2.640625 -6.046875 Z M 2.640625 -3.203125 C 3.484375 -3.203125 4.0625 -2.671875 4.0625 -1.875 C 4.0625 -1.0625 3.484375 -0.53125 2.625 -0.53125 C 1.796875 -0.53125 1.21875 -1.078125 1.21875 -1.875 C 1.21875 -2.671875 1.796875 -3.203125 2.640625 -3.203125 Z M 2.640625 -3.203125 "/>
</symbol>
<symbol overflow="visible" id="glyph0-11">
<path style="stroke:none;" d="M 0.515625 -1.546875 C 0.671875 -0.4375 1.40625 0.21875 2.4375 0.21875 C 3.1875 0.21875 3.859375 -0.140625 4.265625 -0.75 C 4.6875 -1.40625 4.890625 -2.25 4.890625 -3.484375 C 4.890625 -4.625 4.703125 -5.359375 4.3125 -5.953125 C 3.9375 -6.5 3.34375 -6.796875 2.59375 -6.796875 C 1.296875 -6.796875 0.359375 -5.84375 0.359375 -4.515625 C 0.359375 -3.25 1.234375 -2.34375 2.453125 -2.34375 C 3.09375 -2.34375 3.5625 -2.578125 4.015625 -3.109375 C 4 -1.453125 3.46875 -0.53125 2.5 -0.53125 C 1.90625 -0.53125 1.484375 -0.90625 1.359375 -1.546875 Z M 2.578125 -6.0625 C 3.375 -6.0625 3.96875 -5.40625 3.96875 -4.53125 C 3.96875 -3.6875 3.375 -3.09375 2.546875 -3.09375 C 1.734375 -3.09375 1.234375 -3.671875 1.234375 -4.578125 C 1.234375 -5.4375 1.796875 -6.0625 2.578125 -6.0625 Z M 2.578125 -6.0625 "/>
</symbol>
<symbol overflow="visible" id="glyph1-0">
<path style="stroke:none;" d=""/>
</symbol>
<symbol overflow="visible" id="glyph1-1">
<path style="stroke:none;" d="M 0 -0.953125 L 0 -4.890625 C 0 -5.71875 -0.234375 -6.34375 -0.734375 -6.796875 C -1.1875 -7.234375 -1.8125 -7.46875 -2.5 -7.46875 C -3.546875 -7.46875 -4.1875 -7 -4.625 -5.875 C -4.984375 -6.671875 -5.640625 -7.09375 -6.53125 -7.09375 C -7.15625 -7.09375 -7.734375 -6.859375 -8.140625 -6.390625 C -8.5625 -5.9375 -8.75 -5.34375 -8.75 -4.5 L -8.75 -0.953125 Z M -4.984375 -2.0625 L -7.765625 -2.0625 L -7.765625 -4.21875 C -7.765625 -4.84375 -7.6875 -5.203125 -7.453125 -5.5 C -7.21875 -5.8125 -6.859375 -5.96875 -6.375 -5.96875 C -5.90625 -5.96875 -5.53125 -5.8125 -5.296875 -5.5 C -5.0625 -5.203125 -4.984375 -4.84375 -4.984375 -4.21875 Z M -0.984375 -2.0625 L -4 -2.0625 L -4 -4.78125 C -4 -5.328125 -3.859375 -5.6875 -3.578125 -5.953125 C -3.296875 -6.21875 -2.921875 -6.359375 -2.484375 -6.359375 C -2.0625 -6.359375 -1.6875 -6.21875 -1.40625 -5.953125 C -1.109375 -5.6875 -0.984375 -5.328125 -0.984375 -4.78125 Z M -0.984375 -2.0625 "/>
</symbol>
<symbol overflow="visible" id="glyph1-2">
<path style="stroke:none;" d="M -6.28125 -1.796875 L -6.28125 -0.796875 L 0 -0.796875 L 0 -1.796875 Z M -8.75 -1.796875 L -8.75 -0.796875 L -7.484375 -0.796875 L -7.484375 -1.796875 Z M -8.75 -1.796875 "/>
</symbol>
<symbol overflow="visible" id="glyph1-3">
<path style="stroke:none;" d="M -6.28125 -3.046875 L -6.28125 -2.015625 L -8.015625 -2.015625 L -8.015625 -1.015625 L -6.28125 -1.015625 L -6.28125 -0.171875 L -5.46875 -0.171875 L -5.46875 -1.015625 L -0.71875 -1.015625 C -0.078125 -1.015625 0.28125 -1.453125 0.28125 -2.234375 C 0.28125 -2.46875 0.25 -2.71875 0.1875 -3.046875 L -0.640625 -3.046875 C -0.609375 -2.921875 -0.59375 -2.765625 -0.59375 -2.5625 C -0.59375 -2.140625 -0.71875 -2.015625 -1.15625 -2.015625 L -5.46875 -2.015625 L -5.46875 -3.046875 Z M -6.28125 -3.046875 "/>
</symbol>
<symbol overflow="visible" id="glyph1-4">
<path style="stroke:none;" d="M -4.53125 -5.25 C -5.765625 -5.25 -6.46875 -4.421875 -6.46875 -2.96875 C -6.46875 -1.515625 -5.71875 -0.5625 -4.546875 -0.5625 C -3.5625 -0.5625 -3.09375 -1.0625 -2.734375 -2.5625 L -2.515625 -3.484375 C -2.34375 -4.1875 -2.09375 -4.46875 -1.625 -4.46875 C -1.046875 -4.46875 -0.640625 -3.875 -0.640625 -3 C -0.640625 -2.453125 -0.796875 -2 -1.0625 -1.75 C -1.25 -1.59375 -1.421875 -1.53125 -1.875 -1.46875 L -1.875 -0.40625 C -0.421875 -0.453125 0.28125 -1.265625 0.28125 -2.921875 C 0.28125 -4.5 -0.5 -5.515625 -1.71875 -5.515625 C -2.65625 -5.515625 -3.171875 -4.984375 -3.46875 -3.734375 L -3.703125 -2.765625 C -3.890625 -1.953125 -4.15625 -1.609375 -4.59375 -1.609375 C -5.171875 -1.609375 -5.546875 -2.125 -5.546875 -2.9375 C -5.546875 -3.75 -5.203125 -4.171875 -4.53125 -4.203125 Z M -4.53125 -5.25 "/>
</symbol>
</g>
</defs>
<g id="surface124437">
<rect x="0" y="0" width="720" height="360" style="fill:rgb(100%,100%,100%);fill-opacity:1;stroke:none;"/>
<path style=" stroke:none;fill-rule:nonzero;fill:rgb(6.27451%,58.823529%,28.235294%);fill-opacity:1;" d="M 69.628906 309.878906 L 69.671875 309.875 L 86.546875 307.398438 L 91.671875 307.398438 L 108.628906 309.878906 L 102.667969 309.878906 L 98.417969 309.230469 L 79.796875 309.230469 L 75.628906 309.878906 L 69.628906 309.878906 L 81.585938 308.964844 L 96.710938 308.960938 L 89.171875 307.804688 L 89.085938 307.800781 L 89.003906 307.808594 L 81.546875 308.960938 L 81.585938 308.964844 Z M 69.628906 309.878906 "/>
<path style=" stroke:none;fill-rule:nonzero;fill:rgb(14.509804%,36.078431%,60%);fill-opacity:1;" d="M 69.628906 314.226562 L 69.675781 314.226562 L 69.675781 314.222656 L 69.820312 314.210938 L 70.152344 314.199219 L 70.484375 314.191406 L 71.339844 314.179688 L 72.53125 314.164062 L 73.765625 314.15625 L 74.671875 314.148438 L 75.480469 314.144531 L 77.332031 314.136719 L 78.523438 314.132812 L 79.808594 314.128906 L 81.375 314.125 L 82.519531 314.121094 L 85.085938 314.117188 L 94.929688 314.117188 L 96.453125 314.121094 L 97.738281 314.121094 L 99.972656 314.125 L 101.96875 314.132812 L 102.871094 314.136719 L 104.300781 314.144531 L 105.394531 314.152344 L 106.15625 314.15625 L 107.011719 314.164062 L 107.769531 314.175781 L 108.34375 314.1875 L 108.628906 314.199219 L 101.96875 314.199219 L 101.636719 314.1875 L 101.257812 314.183594 L 100.542969 314.171875 L 99.828125 314.164062 L 98.832031 314.160156 L 97.925781 314.152344 L 96.691406 314.148438 L 95.597656 314.148438 L 94.453125 314.144531 L 93.359375 314.144531 L 91.269531 314.140625 L 88.84375 314.140625 L 87.9375 314.144531 L 85.085938 314.144531 L 83.660156 314.148438 L 82.660156 314.152344 L 81.472656 314.15625 L 80.664062 314.160156 L 79.664062 314.167969 L 78.949219 314.171875 L 78.140625 314.179688 L 77.667969 314.1875 L 77.238281 314.191406 L 76.859375 314.199219 L 76.574219 314.207031 L 76.382812 314.21875 L 76.289062 314.226562 L 76.289062 314.261719 L 76.382812 314.269531 L 76.621094 314.28125 L 77.238281 314.292969 L 78.140625 314.304688 L 79.1875 314.316406 L 80.1875 314.324219 L 80.757812 314.328125 L 81.519531 314.332031 L 82.707031 314.335938 L 84.421875 314.339844 L 85.417969 314.339844 L 86.941406 314.34375 L 93.695312 314.34375 L 94.976562 314.339844 L 96.738281 314.335938 L 97.832031 314.332031 L 98.78125 314.328125 L 99.496094 314.324219 L 99.972656 314.320312 L 100.683594 314.3125 L 101.257812 314.304688 L 101.683594 314.296875 L 101.96875 314.289062 L 108.628906 314.289062 L 108.34375 314.296875 L 107.914062 314.308594 L 107.484375 314.3125 L 106.820312 314.320312 L 106.058594 314.328125 L 104.964844 314.335938 L 104.0625 314.34375 L 102.871094 314.347656 L 101.777344 314.351562 L 100.589844 314.355469 L 98.832031 314.363281 L 97.6875 314.363281 L 96.453125 314.367188 L 94.976562 314.367188 L 93.125 314.371094 L 85.800781 314.371094 L 83.847656 314.367188 L 81.425781 314.363281 L 79.664062 314.359375 L 78.285156 314.355469 L 77.097656 314.347656 L 75.765625 314.34375 L 74.050781 314.332031 L 73.007812 314.324219 L 72.292969 314.320312 L 71.484375 314.308594 L 70.914062 314.300781 L 70.246094 314.289062 L 69.773438 314.273438 L 69.628906 314.257812 Z M 69.628906 314.226562 "/>
<path style=" stroke:none;fill-rule:nonzero;fill:rgb(96.862745%,70.196078%,16.862745%);fill-opacity:1;" d="M 69.628906 304.730469 L 69.675781 304.730469 L 69.675781 304.679688 L 69.867188 304.574219 L 70.34375 304.425781 L 70.960938 304.304688 L 71.625 304.210938 L 72.054688 304.160156 L 72.769531 304.089844 L 73.386719 304.035156 L 74.957031 303.929688 L 76.953125 303.828125 L 78.046875 303.785156 L 79.285156 303.746094 L 81.042969 303.699219 L 81.851562 303.683594 L 84.324219 303.644531 L 87.132812 303.621094 L 90.222656 303.617188 L 91.648438 303.617188 L 93.597656 303.628906 L 96.261719 303.652344 L 97.785156 303.675781 L 98.972656 303.699219 L 100.210938 303.730469 L 101.730469 303.78125 L 103.160156 303.835938 L 104.300781 303.894531 L 105.441406 303.964844 L 106.390625 304.042969 L 107.199219 304.125 L 107.914062 304.222656 L 108.34375 304.308594 L 108.628906 304.390625 L 102.015625 304.390625 L 101.636719 304.308594 L 101.207031 304.242188 L 100.496094 304.164062 L 99.78125 304.109375 L 99.066406 304.0625 L 97.738281 304 L 96.59375 303.960938 L 95.167969 303.929688 L 93.789062 303.90625 L 92.21875 303.894531 L 91.269531 303.890625 L 88.746094 303.890625 L 86.464844 303.90625 L 85.132812 303.925781 L 84.183594 303.945312 L 82.851562 303.980469 L 82.042969 304.007812 L 81.566406 304.027344 L 80.140625 304.101562 L 79.1875 304.167969 L 78.664062 304.210938 L 78 304.285156 L 77.523438 304.347656 L 77 304.441406 L 76.714844 304.515625 L 76.335938 304.675781 L 76.289062 305.105469 L 76.429688 305.195312 L 76.714844 305.292969 L 77.097656 305.378906 L 77.667969 305.46875 L 78.238281 305.539062 L 79.234375 305.628906 L 80.09375 305.691406 L 80.757812 305.734375 L 82.042969 305.796875 L 82.566406 305.816406 L 83.800781 305.859375 L 85.085938 305.894531 L 86.65625 305.921875 L 87.84375 305.9375 L 89.746094 305.949219 L 92.171875 305.949219 L 95.027344 305.933594 L 96.832031 305.914062 L 98.070312 305.898438 L 98.878906 305.878906 L 99.875 305.855469 L 100.589844 305.828125 L 101.257812 305.804688 L 102.0625 305.761719 L 102.0625 305.195312 L 90.316406 305.191406 L 90.316406 304.925781 L 108.578125 304.921875 L 108.628906 305.855469 L 107.628906 305.917969 L 106.390625 305.980469 L 105.203125 306.027344 L 103.964844 306.066406 L 102.207031 306.113281 L 100.78125 306.140625 L 98.59375 306.175781 L 96.59375 306.195312 L 94.503906 306.210938 L 92.648438 306.21875 L 90.460938 306.21875 L 88.511719 306.214844 L 86.417969 306.199219 L 84.753906 306.183594 L 83.230469 306.160156 L 81.710938 306.128906 L 79.808594 306.078125 L 78.570312 306.035156 L 77.285156 305.988281 L 76.003906 305.925781 L 74.859375 305.863281 L 74.101562 305.8125 L 73.339844 305.757812 L 72.53125 305.683594 L 71.769531 305.605469 L 71.199219 305.53125 L 70.675781 305.445312 L 70.296875 305.367188 L 69.914062 305.261719 L 69.722656 305.175781 L 69.628906 305.101562 Z M 69.628906 304.730469 "/>
<path style=" stroke:none;fill-rule:nonzero;fill:rgb(83.921569%,15.686275%,22.352941%);fill-opacity:1;" d="M 69.628906 311.058594 L 108.628906 311.058594 L 108.628906 311.261719 L 92.375 311.261719 L 92.375 312.9375 L 85.835938 312.9375 L 85.835938 311.261719 L 69.628906 311.261719 Z M 69.628906 311.058594 "/>
<path style=" stroke:none;fill-rule:nonzero;fill:rgb(6.27451%,58.823529%,28.235294%);fill-opacity:1;" d="M 110.679688 308.101562 L 110.722656 308.097656 L 127.597656 305.957031 L 132.71875 305.957031 L 149.679688 308.101562 L 143.71875 308.101562 L 139.46875 307.542969 L 120.847656 307.542969 L 116.679688 308.101562 L 110.679688 308.101562 L 122.636719 307.308594 L 137.761719 307.308594 L 130.222656 306.304688 L 130.136719 306.304688 L 130.054688 306.308594 L 122.597656 307.308594 L 122.636719 307.308594 Z M 110.679688 308.101562 "/>
<path style=" stroke:none;fill-rule:nonzero;fill:rgb(14.509804%,36.078431%,60%);fill-opacity:1;" d="M 110.679688 314.140625 L 110.726562 314.140625 L 110.726562 314.128906 L 110.871094 314.117188 L 111.203125 314.097656 L 111.535156 314.085938 L 112.390625 314.0625 L 113.582031 314.042969 L 114.816406 314.027344 L 115.722656 314.015625 L 116.53125 314.007812 L 118.382812 313.996094 L 119.574219 313.988281 L 120.859375 313.980469 L 122.425781 313.976562 L 123.570312 313.972656 L 126.136719 313.964844 L 128.039062 313.964844 L 129.511719 313.960938 L 132.699219 313.960938 L 134.601562 313.964844 L 135.980469 313.964844 L 137.503906 313.96875 L 138.789062 313.972656 L 141.023438 313.980469 L 143.019531 313.992188 L 143.921875 313.996094 L 145.351562 314.007812 L 146.445312 314.019531 L 147.207031 314.027344 L 148.0625 314.042969 L 148.820312 314.058594 L 149.394531 314.078125 L 149.679688 314.09375 L 143.019531 314.09375 L 142.6875 314.078125 L 142.304688 314.066406 L 141.59375 314.054688 L 140.878906 314.042969 L 139.882812 314.03125 L 138.976562 314.023438 L 137.742188 314.015625 L 136.648438 314.011719 L 135.503906 314.007812 L 134.410156 314.007812 L 132.320312 314.003906 L 128.988281 314.003906 L 127.136719 314.007812 L 126.136719 314.011719 L 124.710938 314.015625 L 123.710938 314.019531 L 122.523438 314.027344 L 121.714844 314.035156 L 120.714844 314.042969 L 120 314.054688 L 119.191406 314.066406 L 118.71875 314.074219 L 118.289062 314.085938 L 117.910156 314.097656 L 117.625 314.109375 L 117.433594 314.125 L 117.339844 314.136719 L 117.339844 314.195312 L 117.433594 314.210938 L 117.671875 314.226562 L 118.289062 314.246094 L 119.191406 314.269531 L 120.238281 314.285156 L 121.238281 314.292969 L 121.808594 314.300781 L 122.570312 314.304688 L 123.757812 314.3125 L 125.472656 314.320312 L 126.46875 314.324219 L 127.992188 314.328125 L 133.507812 314.328125 L 134.746094 314.324219 L 136.027344 314.320312 L 137.789062 314.316406 L 138.882812 314.308594 L 139.832031 314.300781 L 140.546875 314.296875 L 141.023438 314.289062 L 141.734375 314.277344 L 142.304688 314.265625 L 142.734375 314.25 L 143.019531 314.238281 L 149.679688 314.238281 L 149.394531 314.253906 L 148.964844 314.269531 L 148.535156 314.28125 L 147.871094 314.292969 L 147.109375 314.304688 L 146.015625 314.316406 L 145.113281 314.324219 L 143.921875 314.335938 L 142.828125 314.34375 L 141.640625 314.347656 L 139.882812 314.355469 L 138.738281 314.359375 L 137.503906 314.363281 L 136.027344 314.367188 L 134.175781 314.367188 L 132.175781 314.371094 L 128.324219 314.371094 L 126.851562 314.367188 L 124.898438 314.363281 L 122.472656 314.359375 L 120.714844 314.351562 L 119.335938 314.34375 L 118.148438 314.335938 L 116.816406 314.328125 L 115.101562 314.308594 L 114.058594 314.296875 L 113.34375 314.285156 L 112.535156 314.273438 L 111.964844 314.257812 L 111.296875 314.238281 L 110.824219 314.210938 L 110.679688 314.191406 Z M 110.679688 314.140625 "/>
<path style=" stroke:none;fill-rule:nonzero;fill:rgb(96.862745%,70.196078%,16.862745%);fill-opacity:1;" d="M 110.679688 312.414062 L 110.726562 312.414062 L 110.726562 312.402344 L 110.917969 312.375 L 111.394531 312.339844 L 112.011719 312.308594 L 112.675781 312.285156 L 113.105469 312.273438 L 113.820312 312.257812 L 114.4375 312.242188 L 116.007812 312.21875 L 118.003906 312.191406 L 119.097656 312.183594 L 120.335938 312.171875 L 122.09375 312.160156 L 122.902344 312.15625 L 125.375 312.148438 L 128.179688 312.140625 L 132.699219 312.140625 L 134.648438 312.144531 L 137.3125 312.148438 L 138.835938 312.15625 L 140.023438 312.160156 L 141.261719 312.167969 L 142.78125 312.179688 L 144.207031 312.195312 L 145.351562 312.207031 L 146.492188 312.226562 L 147.441406 312.246094 L 148.25 312.265625 L 148.964844 312.289062 L 149.394531 312.3125 L 149.679688 312.332031 L 143.066406 312.332031 L 142.6875 312.3125 L 142.257812 312.296875 L 141.546875 312.277344 L 140.832031 312.261719 L 140.117188 312.25 L 138.789062 312.234375 L 137.644531 312.226562 L 136.21875 312.21875 L 134.839844 312.210938 L 133.269531 312.207031 L 129.796875 312.207031 L 127.515625 312.210938 L 126.183594 312.214844 L 125.234375 312.222656 L 123.902344 312.230469 L 123.09375 312.238281 L 122.617188 312.242188 L 121.191406 312.261719 L 120.238281 312.277344 L 119.714844 312.289062 L 119.050781 312.304688 L 118.574219 312.320312 L 118.050781 312.34375 L 117.765625 312.363281 L 117.386719 312.402344 L 117.339844 312.507812 L 117.480469 312.53125 L 117.765625 312.554688 L 118.148438 312.574219 L 118.71875 312.597656 L 119.289062 312.613281 L 120.285156 312.636719 L 121.144531 312.652344 L 121.808594 312.664062 L 123.09375 312.679688 L 123.617188 312.683594 L 124.851562 312.695312 L 126.136719 312.703125 L 127.707031 312.710938 L 128.894531 312.710938 L 130.796875 312.714844 L 133.222656 312.714844 L 136.078125 312.710938 L 137.882812 312.707031 L 139.121094 312.703125 L 139.929688 312.699219 L 140.925781 312.691406 L 141.640625 312.6875 L 142.304688 312.679688 L 143.113281 312.671875 L 143.113281 312.53125 L 131.367188 312.527344 L 131.367188 312.464844 L 149.628906 312.460938 L 149.679688 312.691406 L 148.679688 312.707031 L 147.441406 312.722656 L 146.253906 312.734375 L 145.015625 312.746094 L 143.257812 312.757812 L 141.832031 312.761719 L 139.644531 312.773438 L 137.644531 312.777344 L 135.554688 312.78125 L 129.5625 312.78125 L 127.46875 312.777344 L 125.804688 312.773438 L 124.28125 312.765625 L 122.761719 312.761719 L 120.859375 312.746094 L 119.621094 312.738281 L 118.335938 312.726562 L 117.054688 312.710938 L 115.910156 312.695312 L 115.152344 312.683594 L 114.390625 312.667969 L 113.582031 312.652344 L 112.820312 312.628906 L 112.25 312.613281 L 111.726562 312.59375 L 111.347656 312.574219 L 110.964844 312.546875 L 110.773438 312.523438 L 110.679688 312.507812 Z M 110.679688 312.414062 "/>
<path style=" stroke:none;fill-rule:nonzero;fill:rgb(83.921569%,15.686275%,22.352941%);fill-opacity:1;" d="M 110.679688 309.28125 L 149.679688 309.28125 L 149.679688 309.460938 L 133.425781 309.464844 L 133.425781 310.960938 L 126.886719 310.960938 L 126.886719 309.464844 L 126.792969 309.460938 L 110.679688 309.460938 Z M 110.679688 309.28125 "/>
<path style=" stroke:none;fill-rule:nonzero;fill:rgb(6.27451%,58.823529%,28.235294%);fill-opacity:1;" d="M 151.730469 303.976562 L 151.773438 303.964844 L 168.648438 291.261719 L 173.769531 291.261719 L 190.730469 303.988281 L 184.769531 303.988281 L 180.519531 300.664062 L 161.898438 300.664062 L 157.730469 303.976562 L 151.730469 303.976562 L 163.6875 299.292969 L 178.8125 299.28125 L 171.269531 293.339844 L 171.1875 293.328125 L 171.105469 293.363281 L 163.648438 299.28125 L 163.6875 299.292969 Z M 151.730469 303.976562 "/>
<path style=" stroke:none;fill-rule:nonzero;fill:rgb(14.509804%,36.078431%,60%);fill-opacity:1;" d="M 151.730469 312.15625 L 151.777344 312.152344 L 151.777344 312.066406 L 151.921875 311.929688 L 152.253906 311.757812 L 152.585938 311.640625 L 153.441406 311.429688 L 154.632812 311.226562 L 155.867188 311.066406 L 156.773438 310.972656 L 157.582031 310.902344 L 159.433594 310.769531 L 160.625 310.703125 L 161.910156 310.640625 L 163.476562 310.582031 L 164.617188 310.542969 L 167.1875 310.488281 L 169.089844 310.460938 L 170.5625 310.453125 L 173.75 310.453125 L 175.652344 310.464844 L 177.03125 310.484375 L 178.554688 310.511719 L 179.839844 310.542969 L 182.074219 310.625 L 184.070312 310.722656 L 184.972656 310.78125 L 186.402344 310.890625 L 187.496094 311 L 188.253906 311.09375 L 189.113281 311.226562 L 189.871094 311.386719 L 190.445312 311.570312 L 190.730469 311.722656 L 184.070312 311.722656 L 183.738281 311.578125 L 183.355469 311.46875 L 182.644531 311.320312 L 181.929688 311.21875 L 180.933594 311.113281 L 180.027344 311.046875 L 178.792969 310.976562 L 177.699219 310.933594 L 176.554688 310.902344 L 175.460938 310.882812 L 173.371094 310.859375 L 170.945312 310.859375 L 170.039062 310.867188 L 168.1875 310.894531 L 167.1875 310.921875 L 165.761719 310.972656 L 164.761719 311.015625 L 163.574219 311.089844 L 162.765625 311.148438 L 161.765625 311.242188 L 161.050781 311.324219 L 160.242188 311.445312 L 159.769531 311.535156 L 159.339844 311.632812 L 158.960938 311.75 L 158.675781 311.878906 L 158.484375 312.007812 L 158.390625 312.140625 L 158.390625 312.695312 L 158.484375 312.824219 L 158.722656 312.972656 L 159.339844 313.191406 L 160.242188 313.382812 L 161.289062 313.53125 L 162.289062 313.640625 L 162.859375 313.691406 L 163.621094 313.746094 L 164.808594 313.820312 L 166.519531 313.890625 L 167.519531 313.917969 L 169.042969 313.949219 L 170.613281 313.960938 L 172.703125 313.960938 L 174.558594 313.949219 L 175.796875 313.929688 L 177.078125 313.902344 L 178.839844 313.839844 L 179.933594 313.78125 L 180.882812 313.714844 L 181.597656 313.648438 L 182.074219 313.589844 L 182.785156 313.480469 L 183.355469 313.355469 L 183.785156 313.230469 L 184.070312 313.109375 L 190.730469 313.109375 L 190.445312 313.253906 L 190.015625 313.394531 L 189.585938 313.496094 L 188.921875 313.621094 L 188.160156 313.734375 L 187.066406 313.859375 L 186.164062 313.941406 L 184.972656 314.03125 L 183.878906 314.097656 L 182.691406 314.160156 L 180.933594 314.230469 L 179.789062 314.265625 L 178.554688 314.300781 L 177.078125 314.328125 L 175.226562 314.351562 L 173.226562 314.367188 L 171.371094 314.371094 L 169.375 314.363281 L 167.902344 314.347656 L 165.949219 314.316406 L 163.523438 314.253906 L 161.765625 314.183594 L 160.386719 314.117188 L 159.199219 314.042969 L 157.867188 313.949219 L 156.152344 313.789062 L 155.105469 313.667969 L 154.394531 313.566406 L 153.585938 313.429688 L 153.015625 313.304688 L 152.347656 313.101562 L 151.875 312.847656 L 151.730469 312.652344 Z M 151.730469 312.15625 "/>
<path style=" stroke:none;fill-rule:nonzero;fill:rgb(96.862745%,70.196078%,16.862745%);fill-opacity:1;" d="M 151.730469 306.925781 L 151.777344 306.921875 L 151.777344 306.847656 L 151.96875 306.679688 L 152.445312 306.445312 L 153.0625 306.253906 L 153.726562 306.105469 L 154.15625 306.027344 L 154.871094 305.914062 L 155.488281 305.832031 L 157.058594 305.660156 L 159.054688 305.503906 L 160.148438 305.4375 L 161.386719 305.375 L 163.144531 305.300781 L 163.953125 305.277344 L 166.425781 305.214844 L 169.230469 305.179688 L 172.324219 305.167969 L 173.75 305.171875 L 175.699219 305.1875 L 178.363281 305.226562 L 179.886719 305.265625 L 181.074219 305.300781 L 182.3125 305.351562 L 183.832031 305.425781 L 185.257812 305.515625 L 186.402344 305.605469 L 187.542969 305.71875 L 188.492188 305.839844 L 189.300781 305.96875 L 190.015625 306.125 L 190.445312 306.257812 L 190.730469 306.390625 L 184.117188 306.390625 L 183.738281 306.257812 L 183.308594 306.15625 L 182.597656 306.03125 L 181.882812 305.941406 L 181.167969 305.871094 L 179.839844 305.773438 L 178.695312 305.714844 L 177.269531 305.660156 L 175.890625 305.628906 L 174.320312 305.605469 L 173.371094 305.597656 L 170.847656 305.597656 L 168.566406 305.625 L 167.234375 305.65625 L 166.285156 305.683594 L 164.953125 305.742188 L 164.144531 305.785156 L 163.667969 305.816406 L 162.242188 305.933594 L 161.289062 306.035156 L 160.765625 306.109375 L 160.101562 306.21875 L 159.625 306.320312 L 159.101562 306.472656 L 158.816406 306.585938 L 158.4375 306.839844 L 158.390625 307.515625 L 158.53125 307.65625 L 158.816406 307.808594 L 159.199219 307.945312 L 159.769531 308.085938 L 160.339844 308.195312 L 161.335938 308.34375 L 162.195312 308.441406 L 162.859375 308.503906 L 164.144531 308.605469 L 164.667969 308.636719 L 165.902344 308.707031 L 167.1875 308.757812 L 168.757812 308.804688 L 169.945312 308.824219 L 171.847656 308.84375 L 174.273438 308.84375 L 177.128906 308.820312 L 178.933594 308.792969 L 180.171875 308.761719 L 180.980469 308.734375 L 181.976562 308.695312 L 182.691406 308.65625 L 183.355469 308.617188 L 184.164062 308.550781 L 184.164062 307.65625 L 172.417969 307.652344 L 172.417969 307.234375 L 190.679688 307.230469 L 190.730469 308.695312 L 189.730469 308.796875 L 188.492188 308.894531 L 187.304688 308.96875 L 186.066406 309.03125 L 184.308594 309.101562 L 182.882812 309.148438 L 180.695312 309.199219 L 178.695312 309.234375 L 176.605469 309.257812 L 174.75 309.269531 L 172.5625 309.273438 L 170.613281 309.265625 L 168.519531 309.242188 L 166.855469 309.210938 L 165.332031 309.175781 L 163.8125 309.125 L 161.910156 309.046875 L 160.671875 308.984375 L 159.386719 308.90625 L 158.105469 308.8125 L 156.960938 308.710938 L 156.203125 308.628906 L 155.441406 308.539062 L 154.632812 308.429688 L 153.871094 308.300781 L 153.300781 308.183594 L 152.777344 308.054688 L 152.398438 307.929688 L 152.015625 307.761719 L 151.824219 307.625 L 151.730469 307.511719 Z M 151.730469 306.925781 "/>
<path style=" stroke:none;fill-rule:nonzero;fill:rgb(83.921569%,15.686275%,22.352941%);fill-opacity:1;" d="M 151.730469 262.335938 L 190.730469 262.335938 L 190.730469 265.304688 L 174.476562 265.332031 L 174.476562 290.082031 L 167.9375 290.082031 L 167.9375 265.359375 L 167.839844 265.304688 L 151.730469 265.304688 Z M 151.730469 262.335938 "/>
<path style=" stroke:none;fill-rule:nonzero;fill:rgb(6.27451%,58.823529%,28.235294%);fill-opacity:1;" d="M 192.78125 311.902344 L 192.824219 311.894531 L 209.695312 306.429688 L 214.820312 306.429688 L 231.78125 311.90625 L 225.820312 311.90625 L 221.570312 310.476562 L 202.949219 310.476562 L 198.78125 311.902344 L 192.78125 311.902344 L 204.738281 309.886719 L 219.863281 309.878906 L 212.320312 307.324219 L 212.238281 307.320312 L 212.15625 307.335938 L 204.699219 309.878906 L 204.738281 309.886719 Z M 192.78125 311.902344 "/>
<path style=" stroke:none;fill-rule:nonzero;fill:rgb(14.509804%,36.078431%,60%);fill-opacity:1;" d="M 192.78125 313.644531 L 192.828125 313.644531 L 192.828125 313.617188 L 192.972656 313.570312 L 193.304688 313.515625 L 193.636719 313.476562 L 194.492188 313.40625 L 195.683594 313.339844 L 196.917969 313.289062 L 197.824219 313.257812 L 198.632812 313.234375 L 200.484375 313.191406 L 201.675781 313.167969 L 202.957031 313.148438 L 204.527344 313.128906 L 205.667969 313.117188 L 208.238281 313.097656 L 210.140625 313.089844 L 211.613281 313.085938 L 214.800781 313.085938 L 216.703125 313.089844 L 218.082031 313.097656 L 219.605469 313.105469 L 220.886719 313.117188 L 223.125 313.140625 L 225.121094 313.175781 L 226.023438 313.195312 L 227.453125 313.230469 L 228.546875 313.265625 L 229.304688 313.296875 L 230.164062 313.339844 L 230.921875 313.390625 L 231.496094 313.453125 L 231.78125 313.503906 L 225.121094 313.503906 L 224.789062 313.457031 L 224.40625 313.417969 L 223.695312 313.371094 L 222.980469 313.335938 L 221.984375 313.304688 L 221.078125 313.28125 L 219.84375 313.257812 L 218.75 313.242188 L 217.605469 313.234375 L 216.511719 313.226562 L 214.421875 313.21875 L 211.996094 313.21875 L 211.089844 313.222656 L 209.238281 313.230469 L 208.238281 313.238281 L 206.8125 313.253906 L 205.8125 313.269531 L 204.625 313.292969 L 203.816406 313.316406 L 202.816406 313.34375 L 202.101562 313.371094 L 201.292969 313.410156 L 200.820312 313.441406 L 200.390625 313.472656 L 200.011719 313.511719 L 199.726562 313.554688 L 199.535156 313.597656 L 199.441406 313.640625 L 199.441406 313.820312 L 199.535156 313.863281 L 199.773438 313.914062 L 200.390625 313.984375 L 201.292969 314.046875 L 202.339844 314.097656 L 203.339844 314.132812 L 203.910156 314.148438 L 204.671875 314.167969 L 205.859375 314.191406 L 207.570312 314.214844 L 208.570312 314.222656 L 210.09375 314.230469 L 211.664062 314.238281 L 213.753906 314.238281 L 215.609375 314.230469 L 216.847656 314.226562 L 218.128906 314.214844 L 219.890625 314.195312 L 220.984375 314.179688 L 221.933594 314.15625 L 222.648438 314.132812 L 223.125 314.113281 L 223.835938 314.078125 L 224.40625 314.039062 L 224.835938 313.996094 L 225.121094 313.957031 L 231.78125 313.957031 L 231.496094 314.003906 L 231.066406 314.050781 L 230.636719 314.085938 L 229.972656 314.125 L 229.210938 314.160156 L 228.117188 314.203125 L 227.214844 314.230469 L 226.023438 314.257812 L 224.929688 314.28125 L 223.742188 314.300781 L 221.984375 314.324219 L 220.839844 314.335938 L 219.605469 314.347656 L 218.128906 314.355469 L 216.277344 314.363281 L 214.277344 314.371094 L 212.421875 314.371094 L 210.425781 314.367188 L 208.953125 314.363281 L 207 314.351562 L 204.574219 314.332031 L 202.816406 314.308594 L 201.4375 314.289062 L 200.25 314.265625 L 198.917969 314.230469 L 197.203125 314.179688 L 196.15625 314.140625 L 195.445312 314.109375 L 194.636719 314.0625 L 194.066406 314.019531 L 193.398438 313.953125 L 192.925781 313.871094 L 192.78125 313.808594 Z M 192.78125 313.644531 "/>
<path style=" stroke:none;fill-rule:nonzero;fill:rgb(96.862745%,70.196078%,16.862745%);fill-opacity:1;" d="M 192.78125 219.914062 L 192.828125 219.816406 L 192.828125 217.863281 L 193.019531 213.464844 L 193.496094 207.402344 L 194.113281 202.417969 L 194.777344 198.511719 L 195.207031 196.457031 L 195.921875 193.523438 L 196.539062 191.375 L 198.109375 186.976562 L 200.105469 182.871094 L 201.199219 181.113281 L 202.4375 179.453125 L 204.195312 177.59375 L 205.003906 176.910156 L 207.476562 175.347656 L 210.28125 174.367188 L 213.375 174.074219 L 214.800781 174.171875 L 216.75 174.5625 L 219.414062 175.640625 L 220.9375 176.617188 L 222.125 177.59375 L 223.363281 178.863281 L 224.882812 180.820312 L 226.308594 183.164062 L 227.453125 185.511719 L 228.59375 188.441406 L 229.542969 191.570312 L 230.351562 194.992188 L 231.066406 199.097656 L 231.496094 202.515625 L 231.78125 205.9375 L 225.167969 205.9375 L 224.789062 202.515625 L 224.359375 199.878906 L 223.648438 196.652344 L 222.933594 194.308594 L 222.21875 192.449219 L 220.886719 189.910156 L 219.746094 188.34375 L 218.320312 186.976562 L 216.941406 186.097656 L 215.371094 185.511719 L 214.421875 185.316406 L 211.898438 185.316406 L 209.617188 186 L 208.285156 186.78125 L 207.335938 187.5625 L 206.003906 189.03125 L 205.195312 190.203125 L 204.71875 190.984375 L 203.292969 194.015625 L 202.339844 196.75 L 201.816406 198.609375 L 201.152344 201.539062 L 200.675781 204.179688 L 200.152344 208.089844 L 199.867188 211.019531 L 199.488281 217.667969 L 199.441406 235.257812 L 199.582031 238.972656 L 199.867188 242.980469 L 200.25 246.5 L 200.820312 250.210938 L 201.390625 253.046875 L 202.386719 256.859375 L 203.246094 259.398438 L 203.910156 261.0625 L 205.195312 263.699219 L 205.71875 264.578125 L 206.953125 266.339844 L 208.238281 267.707031 L 209.808594 268.878906 L 210.996094 269.464844 L 212.898438 269.957031 L 215.324219 269.957031 L 218.179688 269.367188 L 219.984375 268.585938 L 221.222656 267.804688 L 222.03125 267.121094 L 223.027344 266.046875 L 223.742188 265.066406 L 224.40625 263.992188 L 225.214844 262.332031 L 225.214844 238.972656 L 213.46875 238.875 L 213.46875 227.929688 L 231.730469 227.832031 L 231.78125 266.046875 L 230.78125 268.683594 L 229.542969 271.226562 L 228.355469 273.179688 L 227.117188 274.84375 L 225.359375 276.699219 L 223.933594 277.871094 L 221.746094 279.238281 L 219.746094 280.121094 L 217.65625 280.707031 L 215.800781 281 L 213.613281 281.097656 L 211.664062 280.902344 L 209.570312 280.316406 L 207.90625 279.535156 L 206.382812 278.554688 L 204.859375 277.285156 L 202.957031 275.234375 L 201.722656 273.570312 L 200.4375 271.519531 L 199.152344 269.074219 L 198.011719 266.4375 L 197.25 264.382812 L 196.492188 262.039062 L 195.683594 259.105469 L 194.921875 255.785156 L 194.351562 252.753906 L 193.828125 249.332031 L 193.445312 246.105469 L 193.066406 241.710938 L 192.875 238.191406 L 192.78125 235.160156 Z M 192.78125 219.914062 "/>
<path style=" stroke:none;fill-rule:nonzero;fill:rgb(83.921569%,15.686275%,22.352941%);fill-opacity:1;" d="M 192.78125 282.277344 L 231.78125 282.277344 L 231.78125 284.734375 L 215.527344 284.757812 L 215.527344 305.25 L 208.988281 305.25 L 208.988281 284.777344 L 208.890625 284.734375 L 192.78125 284.734375 Z M 192.78125 282.277344 "/>
<path style=" stroke:none;fill-rule:nonzero;fill:rgb(6.27451%,58.823529%,28.235294%);fill-opacity:1;" d="M 233.832031 303.578125 L 233.875 303.558594 L 250.746094 286.1875 L 255.871094 286.1875 L 272.832031 303.59375 L 266.871094 303.59375 L 262.621094 299.050781 L 244 299.050781 L 239.832031 303.578125 L 233.832031 303.578125 L 245.789062 297.167969 L 260.914062 297.152344 L 253.371094 289.03125 L 253.289062 289.011719 L 253.207031 289.0625 L 245.75 297.152344 L 245.789062 297.167969 Z M 233.832031 303.578125 "/>
<path style=" stroke:none;fill-rule:nonzero;fill:rgb(14.509804%,36.078431%,60%);fill-opacity:1;" d="M 233.832031 266.597656 L 233.878906 266.570312 L 233.878906 265.855469 L 234.023438 264.722656 L 234.355469 263.292969 L 234.6875 262.308594 L 235.542969 260.554688 L 236.734375 258.855469 L 237.96875 257.546875 L 238.875 256.769531 L 239.683594 256.175781 L 241.535156 255.074219 L 242.726562 254.507812 L 244.007812 254 L 245.578125 253.496094 L 246.71875 253.195312 L 249.289062 252.71875 L 251.191406 252.511719 L 252.664062 252.421875 L 255.851562 252.421875 L 257.753906 252.542969 L 259.132812 252.691406 L 260.65625 252.929688 L 261.9375 253.195312 L 264.175781 253.851562 L 266.171875 254.6875 L 267.074219 255.164062 L 268.503906 256.085938 L 269.597656 256.980469 L 270.355469 257.753906 L 271.214844 258.855469 L 271.972656 260.195312 L 272.542969 261.714844 L 272.832031 262.996094 L 266.171875 262.996094 L 265.839844 261.804688 L 265.457031 260.882812 L 264.746094 259.660156 L 264.03125 258.796875 L 263.03125 257.933594 L 262.128906 257.367188 L 260.894531 256.800781 L 259.800781 256.441406 L 258.65625 256.175781 L 257.5625 255.996094 L 255.472656 255.816406 L 253.046875 255.816406 L 252.140625 255.878906 L 250.289062 256.117188 L 249.289062 256.324219 L 247.863281 256.742188 L 246.863281 257.128906 L 245.675781 257.722656 L 244.867188 258.230469 L 243.867188 259.003906 L 243.152344 259.691406 L 242.34375 260.671875 L 241.871094 261.417969 L 241.441406 262.25 L 241.0625 263.234375 L 240.777344 264.277344 L 240.585938 265.378906 L 240.492188 266.449219 L 240.492188 271.066406 L 240.585938 272.140625 L 240.824219 273.390625 L 241.441406 275.207031 L 242.34375 276.785156 L 243.390625 278.035156 L 244.390625 278.929688 L 244.960938 279.347656 L 245.722656 279.824219 L 246.910156 280.417969 L 248.621094 281.015625 L 249.621094 281.253906 L 251.144531 281.492188 L 252.710938 281.609375 L 254.804688 281.609375 L 256.660156 281.492188 L 257.898438 281.34375 L 259.179688 281.105469 L 260.941406 280.597656 L 262.035156 280.121094 L 262.984375 279.554688 L 263.699219 278.988281 L 264.175781 278.511719 L 264.886719 277.589844 L 265.457031 276.578125 L 265.886719 275.535156 L 266.171875 274.523438 L 272.832031 274.523438 L 272.542969 275.714844 L 272.117188 276.875 L 271.6875 277.738281 L 271.023438 278.78125 L 270.261719 279.703125 L 269.167969 280.746094 L 268.265625 281.433594 L 267.074219 282.175781 L 265.980469 282.742188 L 264.792969 283.25 L 263.03125 283.84375 L 261.890625 284.140625 L 260.65625 284.410156 L 259.179688 284.648438 L 257.324219 284.855469 L 255.328125 284.976562 L 253.472656 285.007812 L 251.476562 284.945312 L 250.003906 284.828125 L 248.050781 284.558594 L 245.625 284.023438 L 243.867188 283.457031 L 242.488281 282.890625 L 241.296875 282.296875 L 239.96875 281.492188 L 238.253906 280.179688 L 237.207031 279.167969 L 236.496094 278.335938 L 235.6875 277.171875 L 235.117188 276.128906 L 234.449219 274.460938 L 233.976562 272.347656 L 233.832031 270.710938 Z M 233.832031 266.597656 "/>
<path style=" stroke:none;fill-rule:nonzero;fill:rgb(96.862745%,70.196078%,16.862745%);fill-opacity:1;" d="M 233.832031 307.800781 L 233.878906 307.792969 L 233.878906 307.664062 L 234.070312 307.375 L 234.546875 306.972656 L 235.164062 306.644531 L 235.828125 306.386719 L 236.257812 306.25 L 236.972656 306.058594 L 237.589844 305.914062 L 239.160156 305.625 L 241.15625 305.351562 L 242.25 305.238281 L 243.488281 305.128906 L 245.246094 305.003906 L 246.054688 304.960938 L 248.527344 304.855469 L 251.332031 304.792969 L 254.425781 304.773438 L 255.851562 304.777344 L 257.800781 304.804688 L 260.464844 304.875 L 261.988281 304.941406 L 263.175781 305.003906 L 264.414062 305.089844 L 265.933594 305.21875 L 267.359375 305.371094 L 268.503906 305.527344 L 269.644531 305.722656 L 270.59375 305.929688 L 271.402344 306.152344 L 272.117188 306.425781 L 272.542969 306.652344 L 272.832031 306.875 L 266.21875 306.875 L 265.839844 306.652344 L 265.410156 306.476562 L 264.699219 306.261719 L 263.984375 306.109375 L 263.269531 305.984375 L 261.9375 305.816406 L 260.796875 305.714844 L 259.371094 305.625 L 257.992188 305.566406 L 256.421875 305.527344 L 255.472656 305.515625 L 252.949219 305.515625 L 250.667969 305.558594 L 249.335938 305.613281 L 248.386719 305.664062 L 247.054688 305.761719 L 246.246094 305.835938 L 245.769531 305.890625 L 244.34375 306.089844 L 243.390625 306.269531 L 242.867188 306.394531 L 242.203125 306.585938 L 241.726562 306.761719 L 241.203125 307.019531 L 240.917969 307.210938 L 240.539062 307.652344 L 240.492188 308.8125 L 240.632812 309.058594 L 240.917969 309.324219 L 241.296875 309.554688 L 241.871094 309.800781 L 242.441406 309.988281 L 243.4375 310.238281 L 244.296875 310.40625 L 244.960938 310.519531 L 246.246094 310.691406 L 246.769531 310.75 L 248.003906 310.867188 L 249.289062 310.957031 L 250.859375 311.035156 L 252.046875 311.074219 L 253.949219 311.105469 L 256.375 311.105469 L 259.226562 311.066406 L 261.035156 311.015625 L 262.273438 310.964844 L 263.082031 310.917969 L 264.078125 310.847656 L 264.792969 310.78125 L 265.457031 310.710938 L 266.265625 310.601562 L 266.265625 309.058594 L 254.519531 309.050781 L 254.519531 308.328125 L 272.78125 308.324219 L 272.832031 310.847656 L 271.832031 311.019531 L 270.59375 311.1875 L 269.40625 311.316406 L 268.167969 311.429688 L 266.410156 311.550781 L 264.984375 311.628906 L 262.796875 311.71875 L 260.796875 311.777344 L 258.707031 311.816406 L 256.851562 311.835938 L 254.664062 311.839844 L 252.710938 311.828125 L 250.621094 311.789062 L 248.957031 311.738281 L 247.433594 311.671875 L 245.910156 311.589844 L 244.007812 311.453125 L 242.773438 311.34375 L 241.488281 311.207031 L 240.203125 311.046875 L 239.0625 310.871094 L 238.300781 310.738281 L 237.542969 310.582031 L 236.734375 310.386719 L 235.972656 310.167969 L 235.402344 309.96875 L 234.878906 309.742188 L 234.496094 309.53125 L 234.117188 309.238281 L 233.925781 309.007812 L 233.832031 308.808594 Z M 233.832031 307.800781 "/>
<path style=" stroke:none;fill-rule:nonzero;fill:rgb(83.921569%,15.686275%,22.352941%);fill-opacity:1;" d="M 233.832031 313.019531 L 272.832031 313.019531 L 272.832031 313.164062 L 256.578125 313.167969 L 256.578125 314.371094 L 250.039062 314.371094 L 250.039062 313.167969 L 249.941406 313.164062 L 233.832031 313.164062 Z M 233.832031 313.019531 "/>
<path style=" stroke:none;fill-rule:nonzero;fill:rgb(6.27451%,58.823529%,28.235294%);fill-opacity:1;" d="M 274.882812 314.058594 L 274.925781 314.046875 L 291.796875 303.734375 L 296.921875 303.734375 L 313.882812 314.066406 L 307.921875 314.066406 L 303.671875 311.371094 L 285.050781 311.371094 L 280.882812 314.058594 L 274.882812 314.058594 L 286.839844 310.253906 L 301.964844 310.246094 L 294.421875 305.421875 L 294.339844 305.414062 L 294.257812 305.441406 L 286.800781 310.246094 L 286.839844 310.253906 Z M 274.882812 314.058594 "/>
<path style=" stroke:none;fill-rule:nonzero;fill:rgb(14.509804%,36.078431%,60%);fill-opacity:1;" d="M 274.882812 293.640625 L 274.929688 293.625 L 274.929688 293.277344 L 275.074219 292.730469 L 275.40625 292.039062 L 275.738281 291.5625 L 276.59375 290.710938 L 277.785156 289.886719 L 279.019531 289.253906 L 279.925781 288.878906 L 280.734375 288.589844 L 282.585938 288.054688 L 283.777344 287.78125 L 285.058594 287.535156 L 286.628906 287.289062 L 287.769531 287.148438 L 290.339844 286.914062 L 292.242188 286.816406 L 293.714844 286.769531 L 296.902344 286.769531 L 298.804688 286.828125 L 300.183594 286.902344 L 301.707031 287.015625 L 302.988281 287.148438 L 305.226562 287.464844 L 307.222656 287.867188 L 308.125 288.097656 L 309.554688 288.546875 L 310.648438 288.980469 L 311.40625 289.355469 L 312.265625 289.886719 L 313.023438 290.539062 L 313.59375 291.273438 L 313.882812 291.894531 L 307.222656 291.894531 L 306.890625 291.316406 L 306.507812 290.867188 L 305.796875 290.277344 L 305.082031 289.859375 L 304.082031 289.441406 L 303.179688 289.167969 L 301.945312 288.890625 L 300.851562 288.71875 L 299.707031 288.589844 L 298.613281 288.503906 L 296.523438 288.417969 L 294.097656 288.417969 L 293.191406 288.445312 L 291.339844 288.558594 L 290.339844 288.660156 L 288.914062 288.863281 L 287.914062 289.050781 L 286.726562 289.339844 L 285.917969 289.585938 L 284.917969 289.960938 L 284.203125 290.292969 L 283.394531 290.769531 L 282.921875 291.128906 L 282.492188 291.53125 L 282.113281 292.007812 L 281.828125 292.515625 L 281.636719 293.046875 L 281.539062 293.566406 L 281.539062 295.804688 L 281.636719 296.324219 L 281.875 296.929688 L 282.492188 297.808594 L 283.394531 298.574219 L 284.441406 299.179688 L 285.441406 299.613281 L 286.011719 299.816406 L 286.773438 300.046875 L 287.960938 300.335938 L 289.671875 300.621094 L 290.671875 300.738281 L 292.195312 300.855469 L 293.761719 300.910156 L 295.855469 300.910156 L 297.710938 300.855469 L 298.949219 300.78125 L 300.230469 300.667969 L 301.992188 300.421875 L 303.085938 300.191406 L 304.035156 299.914062 L 304.75 299.640625 L 305.226562 299.410156 L 305.9375 298.964844 L 306.507812 298.472656 L 306.9375 297.96875 L 307.222656 297.476562 L 313.882812 297.476562 L 313.59375 298.054688 L 313.167969 298.617188 L 312.738281 299.035156 L 312.074219 299.539062 L 311.3125 299.988281 L 310.21875 300.492188 L 309.316406 300.824219 L 308.125 301.183594 L 307.03125 301.460938 L 305.84375 301.703125 L 304.082031 301.992188 L 302.941406 302.136719 L 301.707031 302.269531 L 300.230469 302.382812 L 298.375 302.484375 L 296.378906 302.542969 L 294.523438 302.554688 L 292.527344 302.527344 L 291.050781 302.46875 L 289.101562 302.339844 L 286.675781 302.078125 L 284.917969 301.804688 L 283.539062 301.53125 L 282.347656 301.242188 L 281.019531 300.855469 L 279.304688 300.21875 L 278.257812 299.726562 L 277.546875 299.324219 L 276.738281 298.761719 L 276.167969 298.257812 L 275.5 297.449219 L 275.027344 296.425781 L 274.882812 295.628906 Z M 274.882812 293.640625 "/>
<path style=" stroke:none;fill-rule:nonzero;fill:rgb(83.921569%,15.686275%,22.352941%);fill-opacity:1;" d="M 274.882812 141.664062 L 313.882812 141.664062 L 313.882812 157.070312 L 297.628906 157.207031 L 297.628906 285.59375 L 291.089844 285.59375 L 291.089844 157.34375 L 290.992188 157.070312 L 274.882812 157.070312 Z M 274.882812 141.664062 "/>
<path style=" stroke:none;fill-rule:nonzero;fill:rgb(14.509804%,36.078431%,60%);fill-opacity:1;" d="M 315.933594 290.476562 L 315.980469 290.460938 L 315.980469 290.074219 L 316.125 289.460938 L 316.457031 288.691406 L 316.789062 288.160156 L 317.644531 287.210938 L 318.835938 286.292969 L 320.070312 285.585938 L 320.976562 285.167969 L 321.78125 284.84375 L 323.636719 284.25 L 324.828125 283.945312 L 326.109375 283.671875 L 327.679688 283.398438 L 328.820312 283.234375 L 331.390625 282.980469 L 333.292969 282.867188 L 334.765625 282.816406 L 337.953125 282.816406 L 339.855469 282.882812 L 341.234375 282.960938 L 342.757812 283.089844 L 344.039062 283.234375 L 346.277344 283.589844 L 348.273438 284.039062 L 349.175781 284.296875 L 350.605469 284.796875 L 351.699219 285.28125 L 352.457031 285.699219 L 353.316406 286.292969 L 354.074219 287.015625 L 354.644531 287.835938 L 354.929688 288.53125 L 348.273438 288.53125 L 347.941406 287.886719 L 347.558594 287.386719 L 346.847656 286.726562 L 346.132812 286.261719 L 345.132812 285.792969 L 344.230469 285.488281 L 342.996094 285.183594 L 341.902344 284.988281 L 340.757812 284.84375 L 339.664062 284.75 L 337.574219 284.652344 L 335.148438 284.652344 L 334.242188 284.683594 L 332.390625 284.8125 L 331.390625 284.925781 L 329.964844 285.152344 L 328.964844 285.359375 L 327.777344 285.679688 L 326.96875 285.957031 L 325.96875 286.375 L 325.253906 286.742188 L 324.445312 287.273438 L 323.972656 287.675781 L 323.542969 288.128906 L 323.164062 288.65625 L 322.878906 289.222656 L 322.6875 289.816406 L 322.589844 290.394531 L 322.589844 292.890625 L 322.6875 293.46875 L 322.925781 294.144531 L 323.542969 295.125 L 324.445312 295.980469 L 325.492188 296.65625 L 326.492188 297.136719 L 327.0625 297.363281 L 327.824219 297.621094 L 329.011719 297.941406 L 330.722656 298.261719 L 331.722656 298.390625 L 333.246094 298.519531 L 334.8125 298.585938 L 336.90625 298.585938 L 338.761719 298.519531 L 340 298.441406 L 341.28125 298.3125 L 343.042969 298.039062 L 344.136719 297.78125 L 345.085938 297.476562 L 345.800781 297.167969 L 346.277344 296.910156 L 346.988281 296.414062 L 347.558594 295.867188 L 347.988281 295.304688 L 348.273438 294.753906 L 354.929688 294.753906 L 354.644531 295.398438 L 354.21875 296.027344 L 353.789062 296.492188 L 353.125 297.054688 L 352.363281 297.554688 L 351.269531 298.117188 L 350.367188 298.488281 L 349.175781 298.890625 L 348.082031 299.195312 L 346.894531 299.46875 L 345.132812 299.792969 L 343.992188 299.953125 L 342.757812 300.097656 L 341.28125 300.226562 L 339.425781 300.339844 L 337.429688 300.402344 L 335.574219 300.417969 L 333.578125 300.386719 L 332.101562 300.324219 L 330.152344 300.179688 L 327.726562 299.886719 L 325.96875 299.582031 L 324.589844 299.277344 L 323.398438 298.953125 L 322.070312 298.519531 L 320.355469 297.8125 L 319.308594 297.265625 L 318.597656 296.816406 L 317.789062 296.1875 L 317.21875 295.625 L 316.550781 294.722656 L 316.074219 293.582031 L 315.933594 292.695312 Z M 315.933594 290.476562 "/>
<path style=" stroke:none;fill-rule:nonzero;fill:rgb(96.862745%,70.196078%,16.862745%);fill-opacity:1;" d="M 315.933594 212.984375 L 315.980469 212.875 L 315.980469 210.679688 L 316.171875 205.746094 L 316.648438 198.945312 L 317.265625 193.351562 L 317.929688 188.964844 L 318.359375 186.660156 L 319.074219 183.371094 L 319.691406 180.957031 L 321.261719 176.023438 L 323.257812 171.417969 L 324.351562 169.441406 L 325.585938 167.578125 L 327.347656 165.496094 L 328.15625 164.726562 L 330.628906 162.972656 L 333.433594 161.875 L 336.527344 161.546875 L 337.953125 161.65625 L 339.902344 162.09375 L 342.566406 163.300781 L 344.089844 164.398438 L 345.277344 165.496094 L 346.515625 166.921875 L 348.035156 169.113281 L 349.460938 171.746094 L 350.605469 174.378906 L 351.746094 177.667969 L 352.695312 181.179688 L 353.503906 185.015625 L 354.21875 189.621094 L 354.644531 193.460938 L 354.929688 197.300781 L 348.320312 197.300781 L 347.941406 193.460938 L 347.511719 190.5 L 346.800781 186.882812 L 346.085938 184.25 L 345.371094 182.164062 L 344.039062 179.3125 L 342.898438 177.558594 L 341.472656 176.023438 L 340.09375 175.035156 L 338.523438 174.378906 L 337.574219 174.160156 L 335.050781 174.160156 L 332.769531 174.925781 L 331.4375 175.804688 L 330.488281 176.683594 L 329.15625 178.328125 L 328.347656 179.644531 L 327.871094 180.519531 L 326.445312 183.921875 L 325.492188 186.992188 L 324.96875 189.074219 L 324.304688 192.363281 L 323.828125 195.324219 L 323.304688 199.714844 L 323.019531 203.003906 L 322.640625 210.460938 L 322.589844 230.203125 L 322.734375 234.371094 L 323.019531 238.867188 L 323.398438 242.8125 L 323.972656 246.980469 L 324.542969 250.164062 L 325.539062 254.441406 L 326.394531 257.289062 L 327.0625 259.15625 L 328.347656 262.117188 L 328.871094 263.105469 L 330.105469 265.078125 L 331.390625 266.613281 L 332.960938 267.929688 L 334.148438 268.585938 L 336.050781 269.136719 L 338.476562 269.136719 L 341.328125 268.476562 L 343.136719 267.601562 L 344.375 266.722656 L 345.183594 265.957031 L 346.179688 264.75 L 346.894531 263.652344 L 347.558594 262.445312 L 348.367188 260.582031 L 348.367188 234.371094 L 336.621094 234.257812 L 336.621094 221.976562 L 354.882812 221.867188 L 354.929688 264.75 L 353.933594 267.710938 L 352.695312 270.5625 L 351.507812 272.753906 L 350.269531 274.621094 L 348.511719 276.703125 L 347.085938 278.019531 L 344.898438 279.554688 L 342.898438 280.542969 L 340.808594 281.199219 L 338.953125 281.527344 L 336.765625 281.636719 L 334.8125 281.417969 L 332.722656 280.761719 L 331.058594 279.882812 L 329.535156 278.785156 L 328.011719 277.359375 L 326.109375 275.058594 L 324.875 273.195312 L 323.589844 270.890625 L 322.304688 268.148438 L 321.164062 265.1875 L 320.402344 262.882812 L 319.644531 260.253906 L 318.835938 256.960938 L 318.074219 253.234375 L 317.503906 249.832031 L 316.980469 245.996094 L 316.597656 242.375 L 316.21875 237.441406 L 316.027344 233.492188 L 315.933594 230.09375 Z M 315.933594 212.984375 "/>
<path style=" stroke:none;fill-rule:nonzero;fill:rgb(83.921569%,15.686275%,22.352941%);fill-opacity:1;" d="M 315.933594 301.597656 L 354.929688 301.597656 L 354.929688 302.964844 L 338.679688 302.976562 L 338.679688 314.371094 L 332.140625 314.371094 L 332.140625 302.988281 L 332.042969 302.964844 L 315.933594 302.964844 Z M 315.933594 301.597656 "/>
<path style=" stroke:none;fill-rule:nonzero;fill:rgb(6.27451%,58.823529%,28.235294%);fill-opacity:1;" d="M 356.984375 314.09375 L 357.027344 313.820312 L 373.898438 20.664062 L 379.023438 20.664062 L 395.980469 314.371094 L 390.023438 314.371094 L 385.773438 237.703125 L 367.148438 237.703125 L 362.984375 314.09375 L 356.984375 314.09375 L 368.941406 205.988281 L 384.066406 205.710938 L 376.523438 68.648438 L 376.441406 68.375 L 376.359375 69.199219 L 368.898438 205.710938 L 368.941406 205.988281 Z M 356.984375 314.09375 "/>
<path style=" stroke:none;fill-rule:nonzero;fill:rgb(14.509804%,36.078431%,60%);fill-opacity:1;" d="M 398.035156 156.703125 L 398.082031 156.453125 L 398.082031 150.480469 L 398.226562 141.023438 L 398.558594 129.074219 L 398.890625 120.863281 L 399.746094 106.179688 L 400.9375 91.992188 L 402.171875 81.042969 L 403.074219 74.574219 L 403.882812 69.59375 L 405.738281 60.386719 L 406.929688 55.65625 L 408.210938 51.425781 L 409.78125 47.195312 L 410.921875 44.707031 L 413.492188 40.726562 L 415.394531 38.984375 L 416.867188 38.238281 L 420.054688 38.238281 L 421.957031 39.230469 L 423.335938 40.476562 L 424.859375 42.46875 L 426.140625 44.707031 L 428.378906 50.183594 L 430.375 57.152344 L 431.277344 61.132812 L 432.707031 68.847656 L 433.800781 76.316406 L 434.558594 82.785156 L 435.414062 91.992188 L 436.175781 103.191406 L 436.746094 115.886719 L 437.03125 126.585938 L 430.375 126.585938 L 430.042969 116.632812 L 429.660156 108.917969 L 428.949219 98.714844 L 428.234375 91.496094 L 427.234375 84.277344 L 426.332031 79.550781 L 425.097656 74.820312 L 424 71.835938 L 422.859375 69.59375 L 421.765625 68.101562 L 419.675781 66.609375 L 417.25 66.609375 L 416.34375 67.105469 L 414.488281 69.097656 L 413.492188 70.839844 L 412.066406 74.324219 L 411.066406 77.558594 L 409.875 82.535156 L 409.070312 86.765625 L 408.070312 93.238281 L 407.355469 98.960938 L 406.546875 107.175781 L 406.070312 113.398438 L 405.644531 120.367188 L 405.265625 128.578125 L 404.976562 137.289062 L 404.789062 146.496094 L 404.691406 155.457031 L 404.691406 194.03125 L 404.789062 202.992188 L 405.027344 213.445312 L 405.644531 228.625 L 406.546875 241.816406 L 407.59375 252.269531 L 408.59375 259.734375 L 409.164062 263.21875 L 409.925781 267.203125 L 411.113281 272.179688 L 412.824219 277.15625 L 413.824219 279.148438 L 415.347656 281.136719 L 416.914062 282.132812 L 419.007812 282.132812 L 420.863281 281.136719 L 422.097656 279.894531 L 423.382812 277.902344 L 425.144531 273.671875 L 426.238281 269.691406 L 427.1875 264.960938 L 427.902344 260.234375 L 428.378906 256.25 L 429.089844 248.535156 L 429.660156 240.074219 L 430.089844 231.363281 L 430.375 222.902344 L 437.03125 222.902344 L 436.746094 232.855469 L 436.320312 242.5625 L 435.890625 249.78125 L 435.226562 258.492188 L 434.464844 266.207031 L 433.371094 274.917969 L 432.46875 280.640625 L 431.277344 286.863281 L 430.183594 291.589844 L 428.996094 295.820312 L 427.234375 300.800781 L 426.09375 303.289062 L 424.859375 305.527344 L 423.382812 307.519531 L 421.527344 309.261719 L 419.53125 310.257812 L 417.675781 310.503906 L 415.679688 310.007812 L 414.203125 309.011719 L 412.253906 306.773438 L 409.828125 302.292969 L 408.070312 297.5625 L 406.691406 292.835938 L 405.5 287.859375 L 404.167969 281.136719 L 402.457031 270.1875 L 401.410156 261.726562 L 400.699219 254.757812 L 399.890625 245.050781 L 399.320312 236.339844 L 398.652344 222.402344 L 398.175781 204.734375 L 398.035156 191.046875 Z M 398.035156 156.703125 "/>
<path style=" stroke:none;fill-rule:nonzero;fill:rgb(96.862745%,70.196078%,16.862745%);fill-opacity:1;" d="M 398.035156 314.214844 L 398.082031 314.214844 L 398.082031 314.210938 L 398.273438 314.199219 L 398.75 314.183594 L 399.367188 314.171875 L 400.03125 314.164062 L 400.460938 314.15625 L 401.171875 314.148438 L 401.792969 314.144531 L 403.363281 314.132812 L 405.359375 314.121094 L 406.453125 314.117188 L 407.6875 314.113281 L 409.449219 314.109375 L 410.257812 314.109375 L 412.730469 314.105469 L 415.535156 314.101562 L 422.003906 314.101562 L 424.667969 314.105469 L 426.191406 314.105469 L 427.378906 314.109375 L 428.613281 314.113281 L 430.136719 314.117188 L 431.5625 314.125 L 432.707031 314.128906 L 433.847656 314.136719 L 434.796875 314.144531 L 435.605469 314.152344 L 436.320312 314.164062 L 436.746094 314.171875 L 437.03125 314.179688 L 430.421875 314.179688 L 430.042969 314.171875 L 429.613281 314.164062 L 428.902344 314.15625 L 427.472656 314.148438 L 426.140625 314.140625 L 425 314.136719 L 423.574219 314.132812 L 422.195312 314.132812 L 420.625 314.128906 L 417.152344 314.128906 L 414.871094 314.132812 L 413.539062 314.132812 L 412.585938 314.136719 L 411.257812 314.136719 L 410.449219 314.140625 L 409.972656 314.144531 L 408.546875 314.152344 L 407.59375 314.15625 L 407.070312 314.164062 L 406.40625 314.171875 L 405.929688 314.175781 L 405.40625 314.1875 L 405.121094 314.195312 L 404.742188 314.210938 L 404.691406 314.253906 L 404.835938 314.265625 L 405.121094 314.273438 L 405.5 314.285156 L 406.070312 314.292969 L 406.644531 314.300781 L 407.640625 314.308594 L 408.496094 314.316406 L 409.164062 314.320312 L 410.449219 314.328125 L 410.972656 314.328125 L 412.207031 314.332031 L 413.492188 314.335938 L 415.0625 314.339844 L 416.25 314.339844 L 418.152344 314.34375 L 420.578125 314.34375 L 423.429688 314.339844 L 425.238281 314.339844 L 426.476562 314.335938 L 427.285156 314.335938 L 428.28125 314.332031 L 428.996094 314.332031 L 429.660156 314.328125 L 430.46875 314.324219 L 430.46875 314.265625 L 418.722656 314.265625 L 418.722656 314.238281 L 436.984375 314.238281 L 437.03125 314.332031 L 436.035156 314.339844 L 434.796875 314.347656 L 433.609375 314.351562 L 432.371094 314.355469 L 430.613281 314.359375 L 429.1875 314.363281 L 427 314.367188 L 425 314.367188 L 422.90625 314.371094 L 416.914062 314.371094 L 414.824219 314.367188 L 413.160156 314.367188 L 410.113281 314.359375 L 408.210938 314.355469 L 406.976562 314.351562 L 405.691406 314.347656 L 404.40625 314.339844 L 403.265625 314.332031 L 402.503906 314.328125 L 401.746094 314.324219 L 400.9375 314.316406 L 400.175781 314.308594 L 399.605469 314.300781 L 399.082031 314.289062 L 398.699219 314.28125 L 398.320312 314.269531 L 398.128906 314.261719 L 398.035156 314.253906 Z M 398.035156 314.214844 "/>
<path style=" stroke:none;fill-rule:nonzero;fill:rgb(83.921569%,15.686275%,22.352941%);fill-opacity:1;" d="M 398.035156 311.683594 L 437.03125 311.683594 L 437.03125 311.816406 L 420.78125 311.820312 L 420.78125 312.921875 L 414.242188 312.921875 L 414.242188 311.820312 L 414.144531 311.816406 L 398.035156 311.816406 Z M 398.035156 311.683594 "/>
<path style=" stroke:none;fill-rule:nonzero;fill:rgb(6.27451%,58.823529%,28.235294%);fill-opacity:1;" d="M 439.085938 313.4375 L 439.128906 313.4375 L 456 313.222656 L 461.125 313.222656 L 478.082031 313.4375 L 472.125 313.4375 L 467.875 313.382812 L 449.25 313.382812 L 445.085938 313.4375 L 439.085938 313.4375 L 451.042969 313.359375 L 466.167969 313.359375 L 458.625 313.257812 L 458.460938 313.257812 L 451 313.359375 L 451.042969 313.359375 Z M 439.085938 313.4375 "/>
<path style=" stroke:none;fill-rule:nonzero;fill:rgb(14.509804%,36.078431%,60%);fill-opacity:1;" d="M 439.085938 310.601562 L 439.132812 310.601562 L 439.132812 310.542969 L 439.277344 310.457031 L 439.609375 310.34375 L 439.941406 310.265625 L 440.796875 310.128906 L 441.988281 309.996094 L 443.222656 309.894531 L 444.125 309.832031 L 444.933594 309.785156 L 446.789062 309.699219 L 447.980469 309.65625 L 449.261719 309.617188 L 450.832031 309.578125 L 451.972656 309.554688 L 454.542969 309.515625 L 456.445312 309.5 L 457.917969 309.492188 L 461.105469 309.492188 L 463.007812 309.503906 L 464.386719 309.515625 L 465.910156 309.535156 L 467.191406 309.554688 L 469.429688 309.605469 L 471.425781 309.671875 L 472.328125 309.707031 L 473.753906 309.78125 L 474.851562 309.851562 L 475.609375 309.910156 L 476.464844 309.996094 L 477.226562 310.101562 L 477.796875 310.21875 L 478.082031 310.320312 L 471.425781 310.320312 L 471.09375 310.226562 L 470.710938 310.15625 L 470 310.058594 L 469.285156 309.992188 L 468.285156 309.925781 L 467.382812 309.878906 L 466.144531 309.835938 L 465.050781 309.808594 L 463.910156 309.785156 L 462.816406 309.773438 L 460.726562 309.757812 L 458.300781 309.757812 L 457.394531 309.765625 L 455.539062 309.78125 L 454.542969 309.796875 L 453.117188 309.832031 L 452.117188 309.863281 L 450.925781 309.90625 L 450.117188 309.949219 L 449.121094 310.007812 L 448.40625 310.0625 L 447.597656 310.140625 L 447.121094 310.195312 L 446.695312 310.261719 L 446.3125 310.339844 L 446.027344 310.421875 L 445.839844 310.507812 L 445.742188 310.589844 L 445.742188 310.953125 L 445.839844 311.035156 L 446.078125 311.132812 L 446.695312 311.273438 L 447.597656 311.398438 L 448.644531 311.496094 L 449.644531 311.566406 L 450.214844 311.597656 L 450.976562 311.636719 L 452.164062 311.683594 L 453.875 311.730469 L 454.875 311.746094 L 456.398438 311.765625 L 457.964844 311.777344 L 460.058594 311.777344 L 461.914062 311.765625 L 463.148438 311.753906 L 464.433594 311.734375 L 466.195312 311.695312 L 467.289062 311.660156 L 468.238281 311.613281 L 468.953125 311.570312 L 469.429688 311.535156 L 470.140625 311.460938 L 470.710938 311.382812 L 471.140625 311.300781 L 471.425781 311.222656 L 478.082031 311.222656 L 477.796875 311.316406 L 477.371094 311.40625 L 476.941406 311.472656 L 476.277344 311.554688 L 475.515625 311.625 L 474.421875 311.707031 L 473.519531 311.761719 L 472.328125 311.820312 L 471.234375 311.863281 L 470.046875 311.902344 L 468.285156 311.949219 L 467.144531 311.972656 L 465.910156 311.996094 L 464.433594 312.011719 L 462.578125 312.03125 L 460.582031 312.039062 L 458.726562 312.042969 L 456.730469 312.035156 L 455.253906 312.027344 L 453.304688 312.007812 L 450.878906 311.964844 L 449.121094 311.921875 L 447.742188 311.875 L 446.550781 311.828125 L 445.21875 311.765625 L 443.507812 311.664062 L 442.460938 311.585938 L 441.75 311.519531 L 440.941406 311.429688 L 440.371094 311.347656 L 439.703125 311.21875 L 439.226562 311.050781 L 439.085938 310.921875 Z M 439.085938 310.601562 "/>
<path style=" stroke:none;fill-rule:nonzero;fill:rgb(96.862745%,70.196078%,16.862745%);fill-opacity:1;" d="M 439.085938 159.570312 L 439.132812 159.332031 L 439.132812 154.578125 L 439.324219 143.886719 L 439.800781 129.15625 L 440.417969 117.039062 L 441.082031 107.53125 L 441.511719 102.542969 L 442.222656 95.414062 L 442.84375 90.1875 L 444.410156 79.496094 L 446.410156 69.515625 L 447.503906 65.238281 L 448.738281 61.199219 L 450.5 56.683594 L 451.308594 55.019531 L 453.78125 51.21875 L 456.585938 48.84375 L 459.679688 48.128906 L 461.105469 48.367188 L 463.054688 49.316406 L 465.71875 51.933594 L 467.242188 54.308594 L 468.429688 56.683594 L 469.664062 59.773438 L 471.1875 64.523438 L 472.613281 70.226562 L 473.753906 75.929688 L 474.898438 83.058594 L 475.847656 90.664062 L 476.65625 98.980469 L 477.371094 108.957031 L 477.796875 117.273438 L 478.082031 125.589844 L 471.472656 125.589844 L 471.09375 117.273438 L 470.664062 110.859375 L 469.949219 103.019531 L 469.238281 97.316406 L 468.523438 92.800781 L 467.191406 86.625 L 466.050781 82.820312 L 464.625 79.496094 L 463.246094 77.355469 L 461.675781 75.929688 L 460.726562 75.457031 L 458.203125 75.457031 L 455.921875 77.117188 L 454.589844 79.019531 L 453.636719 80.921875 L 452.308594 84.484375 L 451.5 87.335938 L 451.023438 89.238281 L 449.597656 96.601562 L 448.644531 103.253906 L 448.121094 107.769531 L 447.457031 114.898438 L 446.980469 121.3125 L 446.457031 130.820312 L 446.171875 137.945312 L 445.792969 154.105469 L 445.742188 196.875 L 445.886719 205.902344 L 446.171875 215.644531 L 446.550781 224.199219 L 447.121094 233.230469 L 447.695312 240.121094 L 448.691406 249.386719 L 449.546875 255.566406 L 450.214844 259.605469 L 451.5 266.019531 L 452.019531 268.15625 L 453.257812 272.433594 L 454.542969 275.761719 L 456.113281 278.613281 L 457.300781 280.039062 L 459.203125 281.226562 L 461.628906 281.226562 L 464.480469 279.800781 L 466.289062 277.898438 L 467.527344 276 L 468.335938 274.335938 L 469.332031 271.722656 L 470.046875 269.347656 L 470.710938 266.730469 L 471.519531 262.691406 L 471.519531 205.902344 L 459.773438 205.667969 L 459.773438 179.054688 L 478.035156 178.816406 L 478.082031 271.722656 L 477.085938 278.136719 L 475.847656 284.316406 L 474.660156 289.066406 L 473.421875 293.105469 L 471.664062 297.621094 L 470.238281 300.472656 L 468.046875 303.800781 L 466.050781 305.9375 L 463.957031 307.363281 L 462.105469 308.078125 L 459.917969 308.3125 L 457.964844 307.839844 L 455.875 306.414062 L 454.210938 304.511719 L 452.6875 302.136719 L 451.164062 299.046875 L 449.261719 294.058594 L 448.027344 290.019531 L 446.742188 285.027344 L 445.457031 279.089844 L 444.316406 272.671875 L 443.554688 267.683594 L 442.796875 261.980469 L 441.988281 254.851562 L 441.226562 246.773438 L 440.65625 239.40625 L 440.132812 231.089844 L 439.75 223.25 L 439.371094 212.558594 L 439.179688 204.003906 L 439.085938 196.636719 Z M 439.085938 159.570312 "/>
<path style=" stroke:none;fill-rule:nonzero;fill:rgb(83.921569%,15.686275%,22.352941%);fill-opacity:1;" d="M 480.136719 20.664062 L 519.132812 20.664062 L 519.132812 52.101562 L 502.882812 52.378906 L 502.882812 314.371094 L 496.34375 314.371094 L 496.34375 52.652344 L 496.246094 52.101562 L 480.136719 52.101562 Z M 480.136719 20.664062 "/>
<path style=" stroke:none;fill-rule:nonzero;fill:rgb(96.862745%,70.196078%,16.862745%);fill-opacity:1;" d="M 521.1875 146.460938 L 521.234375 146.191406 L 521.234375 140.828125 L 521.425781 128.757812 L 521.898438 112.128906 L 522.519531 98.449219 L 523.183594 87.71875 L 523.613281 82.085938 L 524.324219 74.039062 L 524.945312 68.140625 L 526.511719 56.070312 L 528.511719 44.804688 L 529.605469 39.976562 L 530.839844 35.414062 L 532.601562 30.320312 L 533.410156 28.441406 L 535.882812 24.148438 L 538.6875 21.46875 L 541.78125 20.664062 L 543.207031 20.929688 L 545.15625 22.003906 L 547.820312 24.953125 L 549.339844 27.636719 L 550.53125 30.320312 L 551.765625 33.804688 L 553.289062 39.171875 L 554.714844 45.609375 L 555.855469 52.046875 L 557 60.09375 L 557.949219 68.675781 L 558.757812 78.0625 L 559.472656 89.328125 L 559.898438 98.714844 L 560.183594 108.105469 L 553.574219 108.105469 L 553.195312 98.714844 L 552.765625 91.476562 L 552.050781 82.625 L 551.339844 76.1875 L 550.625 71.089844 L 549.292969 64.117188 L 548.152344 59.824219 L 546.726562 56.070312 L 545.347656 53.65625 L 543.777344 52.046875 L 542.824219 51.507812 L 540.304688 51.507812 L 538.023438 53.386719 L 536.691406 55.53125 L 535.738281 57.679688 L 534.40625 61.703125 L 533.601562 64.921875 L 533.125 67.066406 L 531.699219 75.382812 L 530.746094 82.890625 L 530.222656 87.988281 L 529.558594 96.035156 L 529.082031 103.277344 L 528.558594 114.003906 L 528.273438 122.050781 L 527.894531 140.292969 L 527.84375 188.574219 L 527.988281 198.765625 L 528.273438 209.761719 L 528.652344 219.417969 L 529.222656 229.609375 L 529.796875 237.390625 L 530.792969 247.851562 L 531.648438 254.824219 L 532.316406 259.382812 L 533.601562 266.625 L 534.121094 269.039062 L 535.359375 273.867188 L 536.644531 277.625 L 538.210938 280.84375 L 539.402344 282.453125 L 541.304688 283.792969 L 543.730469 283.792969 L 546.582031 282.183594 L 548.390625 280.039062 L 549.625 277.890625 L 550.433594 276.015625 L 551.433594 273.0625 L 552.148438 270.382812 L 552.8125 267.429688 L 553.621094 262.871094 L 553.621094 198.765625 L 541.875 198.496094 L 541.875 168.457031 L 560.136719 168.1875 L 560.183594 273.0625 L 559.1875 280.304688 L 557.949219 287.28125 L 556.761719 292.644531 L 555.523438 297.203125 L 553.765625 302.300781 L 552.335938 305.519531 L 550.148438 309.273438 L 548.152344 311.6875 L 546.058594 313.296875 L 544.207031 314.101562 L 542.015625 314.371094 L 540.066406 313.835938 L 537.976562 312.226562 L 536.308594 310.078125 L 534.789062 307.398438 L 533.265625 303.910156 L 531.363281 298.277344 L 530.128906 293.71875 L 528.84375 288.085938 L 527.558594 281.378906 L 526.417969 274.136719 L 525.65625 268.503906 L 524.894531 262.066406 L 524.089844 254.019531 L 523.328125 244.898438 L 522.757812 236.585938 L 522.234375 227.195312 L 521.851562 218.34375 L 521.472656 206.277344 L 521.28125 196.621094 L 521.1875 188.304688 Z M 521.1875 146.460938 "/>
<path style=" stroke:none;fill-rule:nonzero;fill:rgb(96.862745%,70.196078%,16.862745%);fill-opacity:1;" d="M 562.238281 194.597656 L 562.285156 194.464844 L 562.285156 191.8125 L 562.476562 185.839844 L 562.949219 177.613281 L 563.570312 170.84375 L 564.234375 165.535156 L 564.664062 162.75 L 565.375 158.769531 L 565.996094 155.847656 L 567.5625 149.875 L 569.5625 144.304688 L 570.65625 141.914062 L 571.890625 139.660156 L 573.652344 137.136719 L 574.460938 136.207031 L 576.933594 134.085938 L 579.738281 132.757812 L 582.832031 132.359375 L 584.257812 132.492188 L 586.207031 133.023438 L 588.871094 134.484375 L 590.390625 135.808594 L 591.582031 137.136719 L 592.816406 138.863281 L 594.339844 141.515625 L 595.765625 144.703125 L 596.90625 147.886719 L 598.050781 151.867188 L 599 156.113281 L 599.808594 160.757812 L 600.523438 166.332031 L 600.949219 170.976562 L 601.234375 175.621094 L 594.625 175.621094 L 594.246094 170.976562 L 593.816406 167.394531 L 593.101562 163.015625 L 592.390625 159.828125 L 591.675781 157.308594 L 590.34375 153.859375 L 589.203125 151.734375 L 587.777344 149.875 L 586.398438 148.683594 L 584.828125 147.886719 L 583.875 147.621094 L 581.355469 147.621094 L 579.074219 148.550781 L 577.742188 149.613281 L 576.789062 150.671875 L 575.457031 152.664062 L 574.648438 154.257812 L 574.175781 155.316406 L 572.746094 159.429688 L 571.796875 163.148438 L 571.273438 165.667969 L 570.609375 169.648438 L 570.132812 173.234375 L 569.609375 178.539062 L 569.324219 182.523438 L 568.941406 191.546875 L 568.894531 215.433594 L 569.039062 220.472656 L 569.324219 225.914062 L 569.703125 230.691406 L 570.273438 235.734375 L 570.84375 239.582031 L 571.84375 244.757812 L 572.699219 248.210938 L 573.367188 250.464844 L 574.648438 254.046875 L 575.171875 255.242188 L 576.410156 257.628906 L 577.695312 259.488281 L 579.261719 261.082031 L 580.453125 261.878906 L 582.355469 262.539062 L 584.78125 262.539062 L 587.632812 261.746094 L 589.441406 260.683594 L 590.675781 259.621094 L 591.484375 258.691406 L 592.484375 257.234375 L 593.199219 255.90625 L 593.863281 254.445312 L 594.671875 252.191406 L 594.671875 220.472656 L 582.925781 220.339844 L 582.925781 205.480469 L 601.1875 205.347656 L 601.234375 257.234375 L 600.238281 260.816406 L 599 264.265625 L 597.8125 266.921875 L 596.574219 269.175781 L 594.816406 271.695312 L 593.386719 273.289062 L 591.199219 275.148438 L 589.203125 276.34375 L 587.109375 277.136719 L 585.257812 277.535156 L 583.066406 277.667969 L 581.117188 277.402344 L 579.027344 276.605469 L 577.359375 275.546875 L 575.839844 274.21875 L 574.316406 272.492188 L 572.414062 269.707031 L 571.179688 267.449219 L 569.894531 264.664062 L 568.609375 261.347656 L 567.46875 257.761719 L 566.707031 254.976562 L 565.945312 251.792969 L 565.136719 247.8125 L 564.378906 243.300781 L 563.808594 239.183594 L 563.285156 234.539062 L 562.902344 230.160156 L 562.523438 224.191406 L 562.332031 219.414062 L 562.238281 215.300781 Z M 562.238281 194.597656 "/>
<path style=" stroke:none;fill-rule:nonzero;fill:rgb(83.921569%,15.686275%,22.352941%);fill-opacity:1;" d="M 562.238281 278.847656 L 601.234375 278.847656 L 601.234375 282.546875 L 584.984375 282.582031 L 584.984375 313.414062 L 578.441406 313.414062 L 578.441406 282.613281 L 578.347656 282.546875 L 562.238281 282.546875 Z M 562.238281 278.847656 "/>
<path style=" stroke:none;fill-rule:nonzero;fill:rgb(6.27451%,58.823529%,28.235294%);fill-opacity:1;" d="M 603.289062 310.523438 L 603.328125 310.492188 L 620.203125 276.59375 L 625.328125 276.59375 L 642.285156 310.558594 L 636.328125 310.558594 L 632.078125 301.691406 L 613.453125 301.691406 L 609.289062 310.523438 L 603.289062 310.523438 L 615.246094 298.023438 L 630.371094 297.992188 L 622.828125 282.144531 L 622.746094 282.113281 L 622.664062 282.207031 L 615.203125 297.992188 L 615.246094 298.023438 Z M 603.289062 310.523438 "/>
<path style=" stroke:none;fill-rule:nonzero;fill:rgb(14.509804%,36.078431%,60%);fill-opacity:1;" d="M 603.289062 209.757812 L 603.335938 209.652344 L 603.335938 207.101562 L 603.476562 203.066406 L 603.8125 197.964844 L 604.144531 194.457031 L 605 188.191406 L 606.1875 182.132812 L 607.425781 177.460938 L 608.328125 174.699219 L 609.136719 172.574219 L 610.992188 168.640625 L 612.183594 166.625 L 613.464844 164.816406 L 615.035156 163.011719 L 616.175781 161.949219 L 618.746094 160.25 L 620.648438 159.503906 L 622.121094 159.1875 L 625.308594 159.1875 L 627.210938 159.609375 L 628.589844 160.140625 L 630.109375 160.992188 L 631.394531 161.949219 L 633.628906 164.285156 L 635.628906 167.261719 L 636.53125 168.960938 L 637.957031 172.253906 L 639.050781 175.441406 L 639.8125 178.203125 L 640.667969 182.132812 L 641.429688 186.914062 L 642 192.335938 L 642.285156 196.902344 L 635.628906 196.902344 L 635.296875 192.652344 L 634.914062 189.359375 L 634.203125 185.003906 L 633.488281 181.921875 L 632.488281 178.839844 L 631.585938 176.824219 L 630.347656 174.804688 L 629.253906 173.527344 L 628.113281 172.574219 L 627.019531 171.933594 L 624.925781 171.296875 L 622.5 171.296875 L 621.597656 171.511719 L 619.742188 172.359375 L 618.746094 173.105469 L 617.316406 174.589844 L 616.320312 175.972656 L 615.128906 178.097656 L 614.320312 179.902344 L 613.324219 182.664062 L 612.609375 185.109375 L 611.800781 188.617188 L 611.324219 191.273438 L 610.898438 194.246094 L 610.515625 197.753906 L 610.230469 201.472656 L 610.042969 205.402344 L 609.945312 209.226562 L 609.945312 225.695312 L 610.042969 229.519531 L 610.28125 233.980469 L 610.898438 240.460938 L 611.800781 246.09375 L 612.847656 250.554688 L 613.847656 253.742188 L 614.417969 255.230469 L 615.179688 256.929688 L 616.367188 259.054688 L 618.078125 261.179688 L 619.078125 262.03125 L 620.597656 262.878906 L 622.167969 263.304688 L 624.261719 263.304688 L 626.117188 262.878906 L 627.351562 262.347656 L 628.636719 261.5 L 630.398438 259.691406 L 631.492188 257.992188 L 632.441406 255.972656 L 633.15625 253.953125 L 633.628906 252.253906 L 634.34375 248.960938 L 634.914062 245.347656 L 635.34375 241.628906 L 635.628906 238.019531 L 642.285156 238.019531 L 642 242.269531 L 641.574219 246.410156 L 641.144531 249.492188 L 640.480469 253.210938 L 639.71875 256.503906 L 638.625 260.222656 L 637.722656 262.667969 L 636.53125 265.324219 L 635.4375 267.339844 L 634.25 269.148438 L 632.488281 271.273438 L 631.347656 272.335938 L 630.109375 273.292969 L 628.636719 274.140625 L 626.78125 274.882812 L 624.785156 275.308594 L 622.929688 275.414062 L 620.933594 275.203125 L 619.457031 274.777344 L 617.507812 273.820312 L 615.082031 271.910156 L 613.324219 269.890625 L 611.945312 267.871094 L 610.753906 265.746094 L 609.421875 262.878906 L 607.710938 258.203125 L 606.664062 254.59375 L 605.953125 251.617188 L 605.144531 247.472656 L 604.574219 243.753906 L 603.90625 237.804688 L 603.429688 230.261719 L 603.289062 224.417969 Z M 603.289062 209.757812 "/>
<path style=" stroke:none;fill-rule:nonzero;fill:rgb(83.921569%,15.686275%,22.352941%);fill-opacity:1;" d="M 603.289062 311.738281 L 642.285156 311.738281 L 642.285156 311.960938 L 626.03125 311.960938 L 626.03125 313.824219 L 619.492188 313.824219 L 619.492188 311.964844 L 619.398438 311.960938 L 603.289062 311.960938 Z M 603.289062 311.738281 "/>
<path style=" stroke:none;fill-rule:nonzero;fill:rgb(6.27451%,58.823529%,28.235294%);fill-opacity:1;" d="M 644.339844 294.070312 L 644.378906 294.046875 L 661.253906 270.78125 L 666.378906 270.78125 L 683.335938 294.09375 L 677.378906 294.09375 L 673.128906 288.007812 L 654.503906 288.007812 L 650.339844 294.070312 L 644.339844 294.070312 L 656.296875 285.492188 L 671.421875 285.46875 L 663.878906 274.589844 L 663.796875 274.566406 L 663.714844 274.632812 L 656.253906 285.46875 L 656.296875 285.492188 Z M 644.339844 294.070312 "/>
<path style=" stroke:none;fill-rule:nonzero;fill:rgb(14.509804%,36.078431%,60%);fill-opacity:1;" d="M 644.339844 306.21875 L 644.386719 306.214844 L 644.386719 306.105469 L 644.527344 305.9375 L 644.863281 305.722656 L 645.195312 305.574219 L 646.050781 305.308594 L 647.238281 305.054688 L 648.476562 304.855469 L 649.378906 304.738281 L 650.1875 304.648438 L 652.042969 304.484375 L 653.230469 304.398438 L 654.515625 304.324219 L 656.085938 304.246094 L 657.226562 304.203125 L 659.796875 304.128906 L 661.699219 304.097656 L 663.171875 304.085938 L 666.359375 304.085938 L 668.261719 304.101562 L 669.640625 304.125 L 671.160156 304.160156 L 672.445312 304.203125 L 674.679688 304.300781 L 676.679688 304.425781 L 677.582031 304.496094 L 679.007812 304.636719 L 680.101562 304.769531 L 680.863281 304.886719 L 681.71875 305.054688 L 682.480469 305.253906 L 683.050781 305.484375 L 683.335938 305.675781 L 676.679688 305.675781 L 676.347656 305.496094 L 675.964844 305.359375 L 675.253906 305.175781 L 674.539062 305.042969 L 673.539062 304.914062 L 672.636719 304.828125 L 671.398438 304.742188 L 670.304688 304.691406 L 669.164062 304.648438 L 668.070312 304.621094 L 665.976562 304.597656 L 663.550781 304.597656 L 662.648438 304.605469 L 660.792969 304.640625 L 659.796875 304.671875 L 658.367188 304.734375 L 657.371094 304.792969 L 656.179688 304.882812 L 655.371094 304.960938 L 654.375 305.074219 L 653.660156 305.179688 L 652.851562 305.328125 L 652.375 305.4375 L 651.949219 305.5625 L 651.566406 305.710938 L 651.28125 305.871094 L 651.09375 306.035156 L 650.996094 306.195312 L 650.996094 306.890625 L 651.09375 307.050781 L 651.328125 307.242188 L 651.949219 307.515625 L 652.851562 307.75 L 653.898438 307.941406 L 654.898438 308.074219 L 655.46875 308.136719 L 656.230469 308.210938 L 657.417969 308.296875 L 659.128906 308.386719 L 660.128906 308.425781 L 661.648438 308.460938 L 663.21875 308.476562 L 665.3125 308.476562 L 667.167969 308.460938 L 668.402344 308.4375 L 669.6875 308.402344 L 671.449219 308.324219 L 672.542969 308.253906 L 673.492188 308.167969 L 674.207031 308.082031 L 674.679688 308.011719 L 675.394531 307.871094 L 675.964844 307.71875 L 676.394531 307.5625 L 676.679688 307.410156 L 683.335938 307.410156 L 683.050781 307.589844 L 682.625 307.765625 L 682.195312 307.894531 L 681.53125 308.050781 L 680.769531 308.191406 L 679.675781 308.347656 L 678.769531 308.449219 L 677.582031 308.5625 L 676.488281 308.648438 L 675.300781 308.726562 L 673.539062 308.8125 L 672.398438 308.859375 L 671.160156 308.898438 L 669.6875 308.933594 L 667.832031 308.964844 L 665.835938 308.984375 L 663.980469 308.988281 L 661.984375 308.980469 L 660.507812 308.960938 L 658.558594 308.921875 L 656.132812 308.839844 L 654.375 308.757812 L 652.996094 308.671875 L 651.804688 308.582031 L 650.472656 308.460938 L 648.761719 308.261719 L 647.714844 308.109375 L 647.003906 307.984375 L 646.195312 307.808594 L 645.621094 307.652344 L 644.957031 307.402344 L 644.480469 307.082031 L 644.339844 306.835938 Z M 644.339844 306.21875 "/>
<path style=" stroke:none;fill-rule:nonzero;fill:rgb(96.862745%,70.196078%,16.862745%);fill-opacity:1;" d="M 644.339844 298.542969 L 644.386719 298.535156 L 644.386719 298.394531 L 644.578125 298.082031 L 645.050781 297.648438 L 645.671875 297.292969 L 646.335938 297.015625 L 646.765625 296.867188 L 647.476562 296.660156 L 648.097656 296.503906 L 649.664062 296.191406 L 651.664062 295.898438 L 652.757812 295.773438 L 653.992188 295.65625 L 655.753906 295.523438 L 656.5625 295.472656 L 659.035156 295.363281 L 661.839844 295.292969 L 664.933594 295.273438 L 666.359375 295.277344 L 668.308594 295.308594 L 670.972656 295.382812 L 672.492188 295.453125 L 673.683594 295.523438 L 674.917969 295.613281 L 676.441406 295.753906 L 677.867188 295.921875 L 679.007812 296.085938 L 680.152344 296.296875 L 681.101562 296.519531 L 681.910156 296.765625 L 682.625 297.054688 L 683.050781 297.300781 L 683.335938 297.542969 L 676.726562 297.542969 L 676.347656 297.300781 L 675.917969 297.113281 L 675.203125 296.882812 L 674.492188 296.714844 L 673.777344 296.582031 L 672.445312 296.402344 L 671.304688 296.289062 L 669.878906 296.191406 L 668.5 296.128906 L 666.929688 296.085938 L 665.976562 296.074219 L 663.457031 296.074219 L 661.175781 296.121094 L 659.84375 296.179688 L 658.890625 296.234375 L 657.558594 296.339844 L 656.75 296.421875 L 656.277344 296.476562 L 654.847656 296.695312 L 653.898438 296.890625 L 653.375 297.023438 L 652.710938 297.230469 L 652.234375 297.417969 L 651.710938 297.699219 L 651.425781 297.90625 L 651.042969 298.382812 L 650.996094 299.636719 L 651.140625 299.902344 L 651.425781 300.1875 L 651.804688 300.4375 L 652.375 300.703125 L 652.945312 300.90625 L 653.945312 301.175781 L 654.800781 301.359375 L 655.46875 301.476562 L 656.75 301.664062 L 657.273438 301.726562 L 658.511719 301.851562 L 659.796875 301.949219 L 661.363281 302.035156 L 662.554688 302.074219 L 664.457031 302.109375 L 666.882812 302.109375 L 669.734375 302.070312 L 671.542969 302.011719 L 672.777344 301.957031 L 673.585938 301.910156 L 674.585938 301.832031 L 675.300781 301.761719 L 675.964844 301.6875 L 676.773438 301.566406 L 676.773438 299.902344 L 665.027344 299.894531 L 665.027344 299.113281 L 683.289062 299.105469 L 683.335938 301.832031 L 682.339844 302.019531 L 681.101562 302.203125 L 679.914062 302.339844 L 678.675781 302.460938 L 676.917969 302.59375 L 675.488281 302.675781 L 673.300781 302.773438 L 671.304688 302.835938 L 669.210938 302.878906 L 667.355469 302.898438 L 665.167969 302.90625 L 663.21875 302.890625 L 661.128906 302.851562 L 659.460938 302.792969 L 657.941406 302.722656 L 656.417969 302.632812 L 654.515625 302.488281 L 653.28125 302.367188 L 651.996094 302.222656 L 650.710938 302.046875 L 649.570312 301.859375 L 648.808594 301.714844 L 648.046875 301.546875 L 647.238281 301.335938 L 646.480469 301.101562 L 645.910156 300.882812 L 645.386719 300.640625 L 645.003906 300.410156 L 644.625 300.097656 L 644.433594 299.84375 L 644.339844 299.628906 Z M 644.339844 298.542969 "/>
<path style=" stroke:none;fill-rule:nonzero;fill:rgb(83.921569%,15.686275%,22.352941%);fill-opacity:1;" d="M 644.339844 310.167969 L 683.335938 310.167969 L 683.335938 310.617188 L 667.082031 310.621094 L 667.082031 314.371094 L 660.542969 314.371094 L 660.542969 310.625 L 660.449219 310.617188 L 644.339844 310.617188 Z M 644.339844 310.167969 "/>
<g style="fill:rgb(0%,0%,0%);fill-opacity:1;">
  <use xlink:href="#glyph0-1" x="21.957031" y="318.198242"/>
  <use xlink:href="#glyph0-2" x="27.291016" y="318.198242"/>
  <use xlink:href="#glyph0-1" x="29.958008" y="318.198242"/>
</g>
<g style="fill:rgb(0%,0%,0%);fill-opacity:1;">
  <use xlink:href="#glyph0-1" x="21.957031" y="244.475586"/>
  <use xlink:href="#glyph0-2" x="27.291016" y="244.475586"/>
  <use xlink:href="#glyph0-3" x="29.958008" y="244.475586"/>
</g>
<g style="fill:rgb(0%,0%,0%);fill-opacity:1;">
  <use xlink:href="#glyph0-4" x="21.957031" y="170.75293"/>
  <use xlink:href="#glyph0-2" x="27.291016" y="170.75293"/>
  <use xlink:href="#glyph0-1" x="29.958008" y="170.75293"/>
</g>
<g style="fill:rgb(0%,0%,0%);fill-opacity:1;">
  <use xlink:href="#glyph0-4" x="21.957031" y="97.03418"/>
  <use xlink:href="#glyph0-2" x="27.291016" y="97.03418"/>
  <use xlink:href="#glyph0-3" x="29.958008" y="97.03418"/>
</g>
<g style="fill:rgb(0%,0%,0%);fill-opacity:1;">
  <use xlink:href="#glyph0-5" x="21.957031" y="23.311523"/>
  <use xlink:href="#glyph0-2" x="27.291016" y="23.311523"/>
  <use xlink:href="#glyph0-1" x="29.958008" y="23.311523"/>
</g>
<g style="fill:rgb(0%,0%,0%);fill-opacity:1;">
  <use xlink:href="#glyph0-4" x="86.128906" y="338.19043"/>
</g>
<g style="fill:rgb(0%,0%,0%);fill-opacity:1;">
  <use xlink:href="#glyph0-5" x="127.179688" y="338.19043"/>
</g>
<g style="fill:rgb(0%,0%,0%);fill-opacity:1;">
  <use xlink:href="#glyph0-6" x="168.230469" y="338.19043"/>
</g>
<g style="fill:rgb(0%,0%,0%);fill-opacity:1;">
  <use xlink:href="#glyph0-7" x="209.28125" y="338.19043"/>
</g>
<g style="fill:rgb(0%,0%,0%);fill-opacity:1;">
  <use xlink:href="#glyph0-3" x="250.332031" y="338.19043"/>
</g>
<g style="fill:rgb(0%,0%,0%);fill-opacity:1;">
  <use xlink:href="#glyph0-8" x="291.382812" y="338.19043"/>
</g>
<g style="fill:rgb(0%,0%,0%);fill-opacity:1;">
  <use xlink:href="#glyph0-9" x="332.433594" y="338.19043"/>
</g>
<g style="fill:rgb(0%,0%,0%);fill-opacity:1;">
  <use xlink:href="#glyph0-10" x="373.484375" y="338.19043"/>
</g>
<g style="fill:rgb(0%,0%,0%);fill-opacity:1;">
  <use xlink:href="#glyph0-11" x="414.535156" y="338.19043"/>
</g>
<g style="fill:rgb(0%,0%,0%);fill-opacity:1;">
  <use xlink:href="#glyph0-4" x="453.085938" y="338.19043"/>
  <use xlink:href="#glyph0-1" x="458.419922" y="338.19043"/>
</g>
<g style="fill:rgb(0%,0%,0%);fill-opacity:1;">
  <use xlink:href="#glyph0-4" x="494.136719" y="338.19043"/>
  <use xlink:href="#glyph0-4" x="499.470703" y="338.19043"/>
</g>
<g style="fill:rgb(0%,0%,0%);fill-opacity:1;">
  <use xlink:href="#glyph0-4" x="535.1875" y="338.19043"/>
  <use xlink:href="#glyph0-5" x="540.521484" y="338.19043"/>
</g>
<g style="fill:rgb(0%,0%,0%);fill-opacity:1;">
  <use xlink:href="#glyph0-4" x="576.238281" y="338.19043"/>
  <use xlink:href="#glyph0-6" x="581.572266" y="338.19043"/>
</g>
<g style="fill:rgb(0%,0%,0%);fill-opacity:1;">
  <use xlink:href="#glyph0-4" x="617.289062" y="338.19043"/>
  <use xlink:href="#glyph0-7" x="622.623047" y="338.19043"/>
</g>
<g style="fill:rgb(0%,0%,0%);fill-opacity:1;">
  <use xlink:href="#glyph0-4" x="658.339844" y="338.19043"/>
  <use xlink:href="#glyph0-3" x="663.673828" y="338.19043"/>
</g>
<g style="fill:rgb(0%,0%,0%);fill-opacity:1;">
  <use xlink:href="#glyph1-1" x="14.412109" y="178.015625"/>
  <use xlink:href="#glyph1-2" x="14.412109" y="170.011719"/>
  <use xlink:href="#glyph1-3" x="14.412109" y="167.347656"/>
  <use xlink:href="#glyph1-4" x="14.412109" y="164.011719"/>
</g>
</g>
</svg>
