<?xml version="1.0" encoding="UTF-8"?>
<svg xmlns="http://www.w3.org/2000/svg" xmlns:xlink="http://www.w3.org/1999/xlink" width="720pt" height="360pt" viewBox="0 0 720 360" version="1.1">
<defs>
<g>
<symbol overflow="visible" id="glyph0-0">
<path style="stroke:none;" d=""/>
</symbol>
<symbol overflow="visible" id="glyph0-1">
<path style="stroke:none;" d="M 2.640625 -6.796875 C 2 -6.796875 1.421875 -6.53125 1.078125 -6.046875 C 0.640625 -5.453125 0.40625 -4.546875 0.40625 -3.296875 C 0.40625 -1 1.1875 0.21875 2.640625 0.21875 C 4.078125 0.21875 4.859375 -1 4.859375 -3.234375 C 4.859375 -4.5625 4.65625 -5.4375 4.203125 -6.046875 C 3.84375 -6.53125 3.28125 -6.796875 2.640625 -6.796875 Z M 2.640625 -6.046875 C 3.546875 -6.046875 4 -5.125 4 -3.3125 C 4 -1.375 3.5625 -0.484375 2.625 -0.484375 C 1.734375 -0.484375 1.28125 -1.421875 1.28125 -3.28125 C 1.28125 -5.140625 1.734375 -6.046875 2.640625 -6.046875 Z M 2.640625 -6.046875 "/>
</symbol>
<symbol overflow="visible" id="glyph0-2">
<path style="stroke:none;" d="M 1.828125 -1 L 0.828125 -1 L 0.828125 0 L 1.828125 0 Z M 1.828125 -1 "/>
</symbol>
<symbol overflow="visible" id="glyph0-3">
<path style="stroke:none;" d="M 4.5625 -6.796875 L 1.0625 -6.796875 L 0.546875 -3.09375 L 1.328125 -3.09375 C 1.71875 -3.5625 2.046875 -3.734375 2.578125 -3.734375 C 3.484375 -3.734375 4.0625 -3.109375 4.0625 -2.09375 C 4.0625 -1.125 3.484375 -0.53125 2.578125 -0.53125 C 1.828125 -0.53125 1.375 -0.90625 1.1875 -1.671875 L 0.328125 -1.671875 C 0.453125 -1.109375 0.546875 -0.84375 0.75 -0.59375 C 1.125 -0.078125 1.828125 0.21875 2.59375 0.21875 C 3.96875 0.21875 4.921875 -0.78125 4.921875 -2.21875 C 4.921875 -3.5625 4.03125 -4.484375 2.71875 -4.484375 C 2.25 -4.484375 1.859375 -4.359375 1.46875 -4.0625 L 1.734375 -5.96875 L 4.5625 -5.96875 Z M 4.5625 -6.796875 "/>
</symbol>
<symbol overflow="visible" id="glyph0-4">
<path style="stroke:none;" d="M 2.484375 -4.84375 L 2.484375 0 L 3.328125 0 L 3.328125 -6.796875 L 2.765625 -6.796875 C 2.46875 -5.75 2.28125 -5.609375 0.984375 -5.453125 L 0.984375 -4.84375 Z M 2.484375 -4.84375 "/>
</symbol>
<symbol overflow="visible" id="glyph0-5">
<path style="stroke:none;" d="M 4.859375 -0.828125 L 1.28125 -0.828125 C 1.359375 -1.390625 1.671875 -1.75 2.5 -2.234375 L 3.46875 -2.75 C 4.40625 -3.265625 4.90625 -3.96875 4.90625 -4.8125 C 4.90625 -5.375 4.671875 -5.90625 4.265625 -6.265625 C 3.859375 -6.625 3.375 -6.796875 2.71875 -6.796875 C 1.859375 -6.796875 1.21875 -6.5 0.84375 -5.921875 C 0.609375 -5.5625 0.5 -5.125 0.484375 -4.4375 L 1.328125 -4.4375 C 1.359375 -4.90625 1.40625 -5.1875 1.53125 -5.40625 C 1.75 -5.8125 2.1875 -6.0625 2.703125 -6.0625 C 3.46875 -6.0625 4.03125 -5.515625 4.03125 -4.78125 C 4.03125 -4.25 3.71875 -3.796875 3.125 -3.4375 L 2.234375 -2.9375 C 0.8125 -2.140625 0.40625 -1.5 0.328125 0 L 4.859375 0 Z M 4.859375 -0.828125 "/>
</symbol>
<symbol overflow="visible" id="glyph0-6">
<path style="stroke:none;" d="M 2.125 -3.125 L 2.578125 -3.125 C 3.515625 -3.125 3.984375 -2.703125 3.984375 -1.890625 C 3.984375 -1.03125 3.46875 -0.53125 2.578125 -0.53125 C 1.65625 -0.53125 1.203125 -0.984375 1.15625 -1.96875 L 0.3125 -1.96875 C 0.34375 -1.421875 0.4375 -1.078125 0.609375 -0.765625 C 0.953125 -0.109375 1.625 0.21875 2.546875 0.21875 C 3.953125 0.21875 4.859375 -0.609375 4.859375 -1.90625 C 4.859375 -2.765625 4.515625 -3.25 3.703125 -3.515625 C 4.34375 -3.765625 4.65625 -4.25 4.65625 -4.9375 C 4.65625 -6.109375 3.875 -6.796875 2.578125 -6.796875 C 1.203125 -6.796875 0.484375 -6.046875 0.453125 -4.609375 L 1.296875 -4.609375 C 1.3125 -5.015625 1.34375 -5.25 1.453125 -5.453125 C 1.640625 -5.828125 2.0625 -6.0625 2.59375 -6.0625 C 3.34375 -6.0625 3.796875 -5.625 3.796875 -4.90625 C 3.796875 -4.421875 3.609375 -4.140625 3.25 -3.984375 C 3.015625 -3.890625 2.71875 -3.84375 2.125 -3.84375 Z M 2.125 -3.125 "/>
</symbol>
<symbol overflow="visible" id="glyph0-7">
<path style="stroke:none;" d="M 3.140625 -1.625 L 3.140625 0 L 3.984375 0 L 3.984375 -1.625 L 4.984375 -1.625 L 4.984375 -2.390625 L 3.984375 -2.390625 L 3.984375 -6.796875 L 3.359375 -6.796875 L 0.265625 -2.515625 L 0.265625 -1.625 Z M 3.140625 -2.390625 L 1 -2.390625 L 3.140625 -5.359375 Z M 3.140625 -2.390625 "/>
</symbol>
<symbol overflow="visible" id="glyph0-8">
<path style="stroke:none;" d="M 4.78125 -5.03125 C 4.609375 -6.140625 3.890625 -6.796875 2.84375 -6.796875 C 2.09375 -6.796875 1.421875 -6.4375 1.03125 -5.828125 C 0.609375 -5.171875 0.40625 -4.34375 0.40625 -3.09375 C 0.40625 -1.953125 0.578125 -1.234375 0.984375 -0.625 C 1.359375 -0.078125 1.953125 0.21875 2.703125 0.21875 C 3.984375 0.21875 4.921875 -0.734375 4.921875 -2.078125 C 4.921875 -3.34375 4.0625 -4.234375 2.84375 -4.234375 C 2.171875 -4.234375 1.640625 -3.96875 1.28125 -3.46875 C 1.28125 -5.125 1.828125 -6.046875 2.796875 -6.046875 C 3.390625 -6.046875 3.796875 -5.671875 3.9375 -5.03125 Z M 2.734375 -3.484375 C 3.546875 -3.484375 4.0625 -2.921875 4.0625 -2 C 4.0625 -1.15625 3.484375 -0.53125 2.703125 -0.53125 C 1.921875 -0.53125 1.328125 -1.1875 1.328125 -2.046875 C 1.328125 -2.890625 1.90625 -3.484375 2.734375 -3.484375 Z M 2.734375 -3.484375 "/>
</symbol>
<symbol overflow="visible" id="glyph0-9">
<path style="stroke:none;" d="M 4.984375 -6.796875 L 0.4375 -6.796875 L 0.4375 -5.96875 L 4.109375 -5.96875 C 2.5 -3.65625 1.828125 -2.234375 1.328125 0 L 2.21875 0 C 2.59375 -2.171875 3.453125 -4.046875 4.984375 -6.09375 Z M 4.984375 -6.796875 "/>
</symbol>
<symbol overflow="visible" id="glyph0-10">
<path style="stroke:none;" d="M 3.75 -3.578125 C 4.453125 -4 4.6875 -4.34375 4.6875 -4.984375 C 4.6875 -6.046875 3.84375 -6.796875 2.640625 -6.796875 C 1.4375 -6.796875 0.59375 -6.046875 0.59375 -4.984375 C 0.59375 -4.359375 0.828125 -4.015625 1.515625 -3.578125 C 0.734375 -3.203125 0.359375 -2.640625 0.359375 -1.890625 C 0.359375 -0.640625 1.296875 0.21875 2.640625 0.21875 C 3.984375 0.21875 4.921875 -0.640625 4.921875 -1.875 C 4.921875 -2.640625 4.53125 -3.203125 3.75 -3.578125 Z M 2.640625 -6.046875 C 3.359375 -6.046875 3.8125 -5.625 3.8125 -4.96875 C 3.8125 -4.34375 3.34375 -3.921875 2.640625 -3.921875 C 1.921875 -3.921875 1.453125 -4.34375 1.453125 -4.984375 C 1.453125 -5.625 1.921875 -6.046875 2.640625 -6.046875 Z M 2.640625 -3.203125 C 3.484375 -3.203125 4.0625 -2.671875 4.0625 -1.875 C 4.0625 -1.0625 3.484375 -0.53125 2.625 -0.53125 C 1.796875 -0.53125 1.21875 -1.078125 1.21875 -1.875 C 1.21875 -2.671875 1.796875 -3.203125 2.640625 -3.203125 Z M 2.640625 -3.203125 "/>
</symbol>
<symbol overflow="visible" id="glyph0-11">
<path style="stroke:none;" d="M 0.515625 -1.546875 C 0.671875 -0.4375 1.40625 0.21875 2.4375 0.21875 C 3.1875 0.21875 3.859375 -0.140625 4.265625 -0.75 C 4.6875 -1.40625 4.890625 -2.25 4.890625 -3.484375 C 4.890625 -4.625 4.703125 -5.359375 4.3125 -5.953125 C 3.9375 -6.5 3.34375 -6.796875 2.59375 -6.796875 C 1.296875 -6.796875 0.359375 -5.84375 0.359375 -4.515625 C 0.359375 -3.25 1.234375 -2.34375 2.453125 -2.34375 C 3.09375 -2.34375 3.5625 -2.578125 4.015625 -3.109375 C 4 -1.453125 3.46875 -0.53125 2.5 -0.53125 C 1.90625 -0.53125 1.484375 -0.90625 1.359375 -1.546875 Z M 2.578125 -6.0625 C 3.375 -6.0625 3.96875 -5.40625 3.96875 -4.53125 C 3.96875 -3.6875 3.375 -3.09375 2.546875 -3.09375 C 1.734375 -3.09375 1.234375 -3.671875 1.234375 -4.578125 C 1.234375 -5.4375 1.796875 -6.0625 2.578125 -6.0625 Z M 2.578125 -6.0625 "/>
</symbol>
<symbol overflow="visible" id="glyph1-0">
<path style="stroke:none;" d=""/>
</symbol>
<symbol overflow="visible" id="glyph1-1">
<path style="stroke:none;" d="M 0 -0.953125 L 0 -4.890625 C 0 -5.71875 -0.234375 -6.34375 -0.734375 -6.796875 C -1.1875 -7.234375 -1.8125 -7.46875 -2.5 -7.46875 C -3.546875 -7.46875 -4.1875 -7 -4.625 -5.875 C -4.984375 -6.671875 -5.640625 -7.09375 -6.53125 -7.09375 C -7.15625 -7.09375 -7.734375 -6.859375 -8.140625 -6.390625 C -8.5625 -5.9375 -8.75 -5.34375 -8.75 -4.5 L -8.75 -0.953125 Z M -4.984375 -2.0625 L -7.765625 -2.0625 L -7.765625 -4.21875 C -7.765625 -4.84375 -7.6875 -5.203125 -7.453125 -5.5 C -7.21875 -5.8125 -6.859375 -5.96875 -6.375 -5.96875 C -5.90625 -5.96875 -5.53125 -5.8125 -5.296875 -5.5 C -5.0625 -5.203125 -4.984375 -4.84375 -4.984375 -4.21875 Z M -0.984375 -2.0625 L -4 -2.0625 L -4 -4.78125 C -4 -5.328125 -3.859375 -5.6875 -3.578125 -5.953125 C -3.296875 -6.21875 -2.921875 -6.359375 -2.484375 -6.359375 C -2.0625 -6.359375 -1.6875 -6.21875 -1.40625 -5.953125 C -1.109375 -5.6875 -0.984375 -5.328125 -0.984375 -4.78125 Z M -0.984375 -2.0625 "/>
</symbol>
<symbol overflow="visible" id="glyph1-2">
<path style="stroke:none;" d="M -6.28125 -1.796875 L -6.28125 -0.796875 L 0 -0.796875 L 0 -1.796875 Z M -8.75 -1.796875 L -8.75 -0.796875 L -7.484375 -0.796875 L -7.484375 -1.796875 Z M -8.75 -1.796875 "/>
</symbol>
<symbol overflow="visible" id="glyph1-3">
<path style="stroke:none;" d="M -6.28125 -3.046875 L -6.28125 -2.015625 L -8.015625 -2.015625 L -8.015625 -1.015625 L -6.28125 -1.015625 L -6.28125 -0.171875 L -5.46875 -0.171875 L -5.46875 -1.015625 L -0.71875 -1.015625 C -0.078125 -1.015625 0.28125 -1.453125 0.28125 -2.234375 C 0.28125 -2.46875 0.25 -2.71875 0.1875 -3.046875 L -0.640625 -3.046875 C -0.609375 -2.921875 -0.59375 -2.765625 -0.59375 -2.5625 C -0.59375 -2.140625 -0.71875 -2.015625 -1.15625 -2.015625 L -5.46875 -2.015625 L -5.46875 -3.046875 Z M -6.28125 -3.046875 "/>
</symbol>
<symbol overflow="visible" id="glyph1-4">
<path style="stroke:none;" d="M -4.53125 -5.25 C -5.765625 -5.25 -6.46875 -4.421875 -6.46875 -2.96875 C -6.46875 -1.515625 -5.71875 -0.5625 -4.546875 -0.5625 C -3.5625 -0.5625 -3.09375 -1.0625 -2.734375 -2.5625 L -2.515625 -3.484375 C -2.34375 -4.1875 -2.09375 -4.46875 -1.625 -4.46875 C -1.046875 -4.46875 -0.640625 -3.875 -0.640625 -3 C -0.640625 -2.453125 -0.796875 -2 -1.0625 -1.75 C -1.25 -1.59375 -1.421875 -1.53125 -1.875 -1.46875 L -1.875 -0.40625 C -0.421875 -0.453125 0.28125 -1.265625 0.28125 -2.921875 C 0.28125 -4.5 -0.5 -5.515625 -1.71875 -5.515625 C -2.65625 -5.515625 -3.171875 -4.984375 -3.46875 -3.734375 L -3.703125 -2.765625 C -3.890625 -1.953125 -4.15625 -1.609375 -4.59375 -1.609375 C -5.171875 -1.609375 -5.546875 -2.125 -5.546875 -2.9375 C -5.546875 -3.75 -5.203125 -4.171875 -4.53125 -4.203125 Z M -4.53125 -5.25 "/>
</symbol>
</g>
</defs>
<g id="surface124496">
<rect x="0" y="0" width="720" height="360" style="fill:rgb(100%,100%,100%);fill-opacity:1;stroke:none;"/>
<path style=" stroke:none;fill-rule:nonzero;fill:rgb(6.27451%,58.823529%,28.235294%);fill-opacity:1;" d="M 69.628906 309.292969 L 69.671875 309.292969 L 86.546875 306.632812 L 91.671875 306.632812 L 108.628906 309.296875 L 102.667969 309.296875 L 98.417969 308.601562 L 79.796875 308.601562 L 75.628906 309.292969 L 69.628906 309.292969 L 81.585938 308.3125 L 96.710938 308.3125 L 89.171875 307.066406 L 89.085938 307.066406 L 89.003906 307.074219 L 81.546875 308.3125 L 81.585938 308.3125 Z M 69.628906 309.292969 "/>
<path style=" stroke:none;fill-rule:nonzero;fill:rgb(14.509804%,36.078431%,60%);fill-opacity:1;" d="M 69.628906 314.21875 L 69.675781 314.21875 L 69.675781 314.214844 L 69.820312 314.203125 L 70.152344 314.191406 L 70.484375 314.183594 L 71.339844 314.171875 L 72.53125 314.15625 L 73.765625 314.144531 L 74.671875 314.140625 L 75.480469 314.132812 L 77.332031 314.125 L 78.523438 314.121094 L 79.808594 314.117188 L 81.375 314.113281 L 82.519531 314.109375 L 85.085938 314.105469 L 86.988281 314.105469 L 88.460938 314.101562 L 91.648438 314.101562 L 93.550781 314.105469 L 94.929688 314.105469 L 96.453125 314.109375 L 97.738281 314.109375 L 99.972656 314.113281 L 101.96875 314.121094 L 102.871094 314.125 L 104.300781 314.132812 L 105.394531 314.140625 L 106.15625 314.148438 L 107.011719 314.15625 L 107.769531 314.167969 L 108.34375 314.179688 L 108.628906 314.191406 L 101.96875 314.191406 L 101.636719 314.179688 L 101.257812 314.171875 L 99.828125 314.15625 L 98.832031 314.148438 L 97.925781 314.144531 L 96.691406 314.140625 L 95.597656 314.136719 L 94.453125 314.132812 L 86.085938 314.132812 L 85.085938 314.136719 L 83.660156 314.140625 L 82.660156 314.140625 L 81.472656 314.148438 L 80.664062 314.152344 L 79.664062 314.15625 L 78.949219 314.164062 L 78.140625 314.171875 L 77.667969 314.175781 L 77.238281 314.183594 L 76.859375 314.191406 L 76.574219 314.199219 L 76.382812 314.210938 L 76.289062 314.21875 L 76.289062 314.257812 L 76.382812 314.265625 L 76.621094 314.277344 L 77.238281 314.289062 L 78.140625 314.304688 L 79.1875 314.3125 L 80.1875 314.320312 L 80.757812 314.324219 L 81.519531 314.328125 L 82.707031 314.332031 L 84.421875 314.339844 L 85.417969 314.339844 L 86.941406 314.34375 L 92.457031 314.34375 L 93.695312 314.339844 L 94.976562 314.339844 L 96.738281 314.335938 L 97.832031 314.332031 L 98.78125 314.324219 L 99.496094 314.320312 L 99.972656 314.316406 L 100.683594 314.308594 L 101.257812 314.300781 L 101.683594 314.292969 L 101.96875 314.285156 L 108.628906 314.285156 L 108.34375 314.292969 L 107.914062 314.304688 L 107.484375 314.3125 L 106.820312 314.320312 L 106.058594 314.328125 L 104.964844 314.335938 L 104.0625 314.339844 L 102.871094 314.347656 L 101.777344 314.351562 L 100.589844 314.355469 L 98.832031 314.359375 L 97.6875 314.363281 L 96.453125 314.367188 L 94.976562 314.367188 L 93.125 314.371094 L 85.800781 314.371094 L 83.847656 314.367188 L 81.425781 314.363281 L 79.664062 314.359375 L 78.285156 314.351562 L 77.097656 314.347656 L 75.765625 314.34375 L 74.050781 314.332031 L 73.007812 314.324219 L 72.292969 314.316406 L 71.484375 314.304688 L 70.914062 314.296875 L 70.246094 314.285156 L 69.773438 314.265625 L 69.628906 314.253906 Z M 69.628906 314.21875 "/>
<path style=" stroke:none;fill-rule:nonzero;fill:rgb(96.862745%,70.196078%,16.862745%);fill-opacity:1;" d="M 69.628906 303.84375 L 69.675781 303.839844 L 69.675781 303.789062 L 69.867188 303.671875 L 70.34375 303.515625 L 70.960938 303.382812 L 71.625 303.28125 L 72.054688 303.226562 L 72.769531 303.148438 L 73.386719 303.09375 L 74.957031 302.976562 L 76.953125 302.867188 L 78.046875 302.824219 L 79.285156 302.777344 L 81.042969 302.730469 L 81.851562 302.710938 L 84.324219 302.671875 L 87.132812 302.644531 L 90.222656 302.636719 L 91.648438 302.640625 L 93.597656 302.652344 L 96.261719 302.679688 L 97.785156 302.703125 L 98.972656 302.730469 L 100.210938 302.761719 L 101.730469 302.816406 L 103.160156 302.875 L 104.300781 302.9375 L 105.441406 303.015625 L 106.390625 303.097656 L 107.199219 303.1875 L 107.914062 303.296875 L 108.34375 303.386719 L 108.628906 303.476562 L 102.015625 303.476562 L 101.636719 303.386719 L 101.207031 303.316406 L 100.496094 303.230469 L 99.78125 303.167969 L 99.066406 303.121094 L 97.738281 303.054688 L 96.59375 303.011719 L 95.167969 302.976562 L 93.789062 302.953125 L 92.21875 302.9375 L 91.269531 302.933594 L 88.746094 302.933594 L 86.464844 302.953125 L 85.132812 302.972656 L 84.183594 302.992188 L 82.851562 303.03125 L 82.042969 303.0625 L 81.566406 303.082031 L 80.140625 303.164062 L 79.1875 303.234375 L 78.664062 303.28125 L 78 303.359375 L 77.523438 303.429688 L 77 303.53125 L 76.714844 303.609375 L 76.335938 303.785156 L 76.289062 304.246094 L 76.429688 304.34375 L 76.714844 304.449219 L 77.097656 304.542969 L 77.667969 304.640625 L 78.238281 304.714844 L 79.234375 304.816406 L 80.09375 304.882812 L 80.757812 304.925781 L 82.042969 304.996094 L 82.566406 305.019531 L 83.800781 305.066406 L 85.085938 305.101562 L 86.65625 305.132812 L 87.84375 305.148438 L 89.746094 305.160156 L 92.171875 305.160156 L 95.027344 305.144531 L 96.832031 305.125 L 98.070312 305.101562 L 98.878906 305.085938 L 99.875 305.058594 L 100.589844 305.03125 L 101.257812 305.003906 L 102.0625 304.960938 L 102.0625 304.34375 L 90.316406 304.34375 L 90.316406 304.054688 L 108.578125 304.050781 L 108.628906 305.058594 L 107.628906 305.125 L 106.390625 305.191406 L 105.203125 305.246094 L 103.964844 305.289062 L 102.207031 305.335938 L 100.78125 305.367188 L 98.59375 305.402344 L 96.59375 305.425781 L 94.503906 305.441406 L 92.648438 305.449219 L 90.460938 305.453125 L 88.511719 305.449219 L 86.417969 305.433594 L 84.753906 305.410156 L 83.230469 305.386719 L 81.710938 305.351562 L 79.808594 305.296875 L 78.570312 305.253906 L 77.285156 305.199219 L 76.003906 305.136719 L 74.859375 305.066406 L 74.101562 305.011719 L 73.339844 304.953125 L 72.53125 304.875 L 71.769531 304.785156 L 71.199219 304.707031 L 70.675781 304.617188 L 70.296875 304.53125 L 69.914062 304.417969 L 69.722656 304.324219 L 69.628906 304.246094 Z M 69.628906 303.84375 "/>
<path style=" stroke:none;fill-rule:nonzero;fill:rgb(83.921569%,15.686275%,22.352941%);fill-opacity:1;" d="M 69.628906 310.476562 L 108.628906 310.476562 L 108.628906 310.738281 L 92.375 310.738281 L 92.375 312.925781 L 85.835938 312.925781 L 85.835938 310.742188 L 85.742188 310.738281 L 69.628906 310.738281 Z M 69.628906 310.476562 "/>
<path style=" stroke:none;fill-rule:nonzero;fill:rgb(6.27451%,58.823529%,28.235294%);fill-opacity:1;" d="M 110.679688 302.070312 L 110.722656 302.066406 L 127.597656 294.960938 L 132.71875 294.960938 L 149.679688 302.078125 L 143.71875 302.078125 L 139.46875 300.21875 L 120.847656 300.21875 L 116.679688 302.070312 L 110.679688 302.070312 L 122.636719 299.453125 L 137.761719 299.445312 L 130.222656 296.125 L 130.136719 296.117188 L 130.054688 296.136719 L 122.597656 299.445312 L 122.636719 299.453125 Z M 110.679688 302.070312 "/>
<path style=" stroke:none;fill-rule:nonzero;fill:rgb(14.509804%,36.078431%,60%);fill-opacity:1;" d="M 110.679688 313.617188 L 110.726562 313.617188 L 110.726562 313.585938 L 110.871094 313.539062 L 111.203125 313.480469 L 111.535156 313.441406 L 112.390625 313.371094 L 113.582031 313.300781 L 114.816406 313.246094 L 115.722656 313.214844 L 116.53125 313.191406 L 118.382812 313.144531 L 119.574219 313.121094 L 120.859375 313.101562 L 122.425781 313.082031 L 123.570312 313.070312 L 126.136719 313.050781 L 128.039062 313.039062 L 129.511719 313.035156 L 132.699219 313.035156 L 134.601562 313.042969 L 135.980469 313.046875 L 137.503906 313.058594 L 138.789062 313.070312 L 141.023438 313.09375 L 143.019531 313.128906 L 143.921875 313.148438 L 145.351562 313.1875 L 146.445312 313.222656 L 147.207031 313.253906 L 148.0625 313.300781 L 148.820312 313.355469 L 149.394531 313.417969 L 149.679688 313.46875 L 143.019531 313.46875 L 142.6875 313.421875 L 142.304688 313.382812 L 141.59375 313.332031 L 140.878906 313.296875 L 139.882812 313.261719 L 138.976562 313.238281 L 137.742188 313.214844 L 136.648438 313.203125 L 135.503906 313.191406 L 134.410156 313.183594 L 132.320312 313.175781 L 129.894531 313.175781 L 128.988281 313.179688 L 127.136719 313.1875 L 126.136719 313.195312 L 124.710938 313.214844 L 123.710938 313.230469 L 122.523438 313.253906 L 121.714844 313.273438 L 120.714844 313.304688 L 120 313.335938 L 119.191406 313.375 L 118.71875 313.40625 L 118.289062 313.4375 L 117.910156 313.480469 L 117.625 313.523438 L 117.433594 313.566406 L 117.339844 313.609375 L 117.339844 313.800781 L 117.433594 313.84375 L 117.671875 313.894531 L 118.289062 313.96875 L 119.191406 314.035156 L 120.238281 314.085938 L 121.238281 314.121094 L 121.808594 314.140625 L 122.570312 314.160156 L 123.757812 314.183594 L 125.472656 314.207031 L 126.46875 314.21875 L 127.992188 314.226562 L 129.5625 314.230469 L 131.652344 314.230469 L 133.507812 314.226562 L 134.746094 314.21875 L 136.027344 314.210938 L 137.789062 314.191406 L 138.882812 314.171875 L 139.832031 314.148438 L 140.546875 314.125 L 141.023438 314.105469 L 141.734375 314.066406 L 142.304688 314.027344 L 142.734375 313.984375 L 143.019531 313.941406 L 149.679688 313.941406 L 149.394531 313.988281 L 148.964844 314.039062 L 148.535156 314.074219 L 147.871094 314.117188 L 147.109375 314.152344 L 146.015625 314.195312 L 145.113281 314.222656 L 143.921875 314.253906 L 142.828125 314.277344 L 141.640625 314.296875 L 139.882812 314.324219 L 138.738281 314.335938 L 137.503906 314.347656 L 136.027344 314.355469 L 134.175781 314.363281 L 132.175781 314.371094 L 130.320312 314.371094 L 128.324219 314.367188 L 126.851562 314.363281 L 124.898438 314.351562 L 122.472656 314.332031 L 120.714844 314.308594 L 119.335938 314.285156 L 118.148438 314.257812 L 116.816406 314.226562 L 115.101562 314.171875 L 114.058594 314.132812 L 113.34375 314.097656 L 112.535156 314.050781 L 111.964844 314.007812 L 111.296875 313.9375 L 110.824219 313.851562 L 110.679688 313.785156 Z M 110.679688 313.617188 "/>
<path style=" stroke:none;fill-rule:nonzero;fill:rgb(96.862745%,70.196078%,16.862745%);fill-opacity:1;" d="M 110.679688 310.464844 L 110.726562 310.460938 L 110.726562 310.417969 L 110.917969 310.316406 L 111.394531 310.179688 L 112.011719 310.066406 L 112.675781 309.976562 L 113.105469 309.929688 L 113.820312 309.863281 L 114.4375 309.816406 L 116.007812 309.714844 L 118.003906 309.621094 L 119.097656 309.582031 L 120.335938 309.542969 L 122.09375 309.5 L 122.902344 309.484375 L 125.375 309.449219 L 128.179688 309.429688 L 131.273438 309.421875 L 132.699219 309.421875 L 134.648438 309.433594 L 137.3125 309.457031 L 138.835938 309.480469 L 140.023438 309.5 L 141.261719 309.53125 L 142.78125 309.574219 L 144.207031 309.628906 L 145.351562 309.679688 L 146.492188 309.75 L 147.441406 309.820312 L 148.25 309.898438 L 148.964844 309.992188 L 149.394531 310.070312 L 149.679688 310.148438 L 143.066406 310.148438 L 142.6875 310.070312 L 142.257812 310.007812 L 141.546875 309.933594 L 140.832031 309.882812 L 140.117188 309.839844 L 138.789062 309.78125 L 137.644531 309.746094 L 136.21875 309.714844 L 134.839844 309.695312 L 133.269531 309.679688 L 132.320312 309.675781 L 129.796875 309.675781 L 127.515625 309.691406 L 126.183594 309.710938 L 125.234375 309.726562 L 123.902344 309.761719 L 123.09375 309.789062 L 122.617188 309.804688 L 121.191406 309.875 L 120.238281 309.9375 L 119.714844 309.980469 L 119.050781 310.046875 L 118.574219 310.105469 L 118.050781 310.195312 L 117.765625 310.261719 L 117.386719 310.414062 L 117.339844 310.8125 L 117.480469 310.898438 L 117.765625 310.988281 L 118.148438 311.070312 L 118.71875 311.152344 L 119.289062 311.21875 L 120.285156 311.304688 L 121.144531 311.363281 L 121.808594 311.402344 L 123.09375 311.460938 L 123.617188 311.480469 L 124.851562 311.519531 L 126.136719 311.550781 L 127.707031 311.578125 L 128.894531 311.59375 L 130.796875 311.605469 L 133.222656 311.605469 L 136.078125 311.589844 L 137.882812 311.574219 L 139.121094 311.554688 L 139.929688 311.539062 L 140.925781 311.515625 L 141.640625 311.492188 L 142.304688 311.46875 L 143.113281 311.429688 L 143.113281 310.898438 L 131.367188 310.894531 L 131.367188 310.648438 L 149.628906 310.644531 L 149.679688 311.515625 L 148.679688 311.574219 L 147.441406 311.632812 L 146.253906 311.675781 L 145.015625 311.714844 L 143.257812 311.757812 L 141.832031 311.785156 L 139.644531 311.816406 L 137.644531 311.835938 L 135.554688 311.847656 L 133.699219 311.855469 L 131.511719 311.855469 L 129.5625 311.851562 L 127.46875 311.839844 L 125.804688 311.820312 L 124.28125 311.800781 L 122.761719 311.769531 L 120.859375 311.722656 L 119.621094 311.6875 L 118.335938 311.640625 L 117.054688 311.582031 L 115.910156 311.523438 L 115.152344 311.476562 L 114.390625 311.421875 L 113.582031 311.355469 L 112.820312 311.28125 L 112.25 311.210938 L 111.726562 311.132812 L 111.347656 311.0625 L 110.964844 310.960938 L 110.773438 310.878906 L 110.679688 310.8125 Z M 110.679688 310.464844 "/>
<path style=" stroke:none;fill-rule:nonzero;fill:rgb(83.921569%,15.686275%,22.352941%);fill-opacity:1;" d="M 110.679688 303.257812 L 149.679688 303.257812 L 149.679688 303.792969 L 133.425781 303.796875 L 133.425781 308.242188 L 126.886719 308.242188 L 126.886719 303.800781 L 126.792969 303.792969 L 110.679688 303.792969 Z M 110.679688 303.257812 "/>
<path style=" stroke:none;fill-rule:nonzero;fill:rgb(6.27451%,58.823529%,28.235294%);fill-opacity:1;" d="M 151.730469 303.246094 L 151.773438 303.230469 L 168.648438 287.554688 L 173.769531 287.554688 L 190.730469 303.261719 L 184.769531 303.261719 L 180.519531 299.160156 L 161.898438 299.160156 L 157.730469 303.246094 L 151.730469 303.246094 L 163.6875 297.464844 L 178.8125 297.453125 L 171.269531 290.121094 L 171.1875 290.105469 L 171.105469 290.152344 L 163.648438 297.453125 L 163.6875 297.464844 Z M 151.730469 303.246094 "/>
<path style=" stroke:none;fill-rule:nonzero;fill:rgb(14.509804%,36.078431%,60%);fill-opacity:1;" d="M 151.730469 312.714844 L 151.777344 312.710938 L 151.777344 312.648438 L 151.921875 312.546875 L 152.253906 312.417969 L 152.585938 312.328125 L 153.441406 312.171875 L 154.632812 312.019531 L 155.867188 311.902344 L 156.773438 311.832031 L 157.582031 311.777344 L 159.433594 311.679688 L 160.625 311.628906 L 161.910156 311.582031 L 163.476562 311.535156 L 164.617188 311.507812 L 167.1875 311.464844 L 169.089844 311.449219 L 170.5625 311.441406 L 173.75 311.441406 L 175.652344 311.449219 L 177.03125 311.464844 L 178.554688 311.484375 L 179.839844 311.507812 L 182.074219 311.570312 L 184.070312 311.644531 L 184.972656 311.6875 L 186.402344 311.769531 L 187.496094 311.851562 L 188.253906 311.917969 L 189.113281 312.019531 L 189.871094 312.140625 L 190.445312 312.277344 L 190.730469 312.390625 L 184.070312 312.390625 L 183.738281 312.285156 L 183.355469 312.199219 L 182.644531 312.089844 L 181.929688 312.011719 L 180.933594 311.933594 L 180.027344 311.882812 L 178.792969 311.832031 L 177.699219 311.800781 L 176.554688 311.777344 L 175.460938 311.761719 L 173.371094 311.746094 L 170.945312 311.746094 L 170.039062 311.75 L 168.1875 311.773438 L 167.1875 311.789062 L 165.761719 311.828125 L 164.761719 311.863281 L 163.574219 311.917969 L 162.765625 311.960938 L 161.765625 312.03125 L 161.050781 312.09375 L 160.242188 312.183594 L 159.769531 312.25 L 159.339844 312.324219 L 158.960938 312.414062 L 158.675781 312.507812 L 158.484375 312.605469 L 158.390625 312.703125 L 158.390625 313.117188 L 158.484375 313.214844 L 158.722656 313.324219 L 159.339844 313.488281 L 160.242188 313.632812 L 161.289062 313.742188 L 162.289062 313.824219 L 162.859375 313.863281 L 163.621094 313.90625 L 164.808594 313.957031 L 166.519531 314.011719 L 167.519531 314.03125 L 169.042969 314.054688 L 170.613281 314.066406 L 172.703125 314.066406 L 174.558594 314.054688 L 175.796875 314.042969 L 177.078125 314.019531 L 178.839844 313.972656 L 179.933594 313.929688 L 180.882812 313.878906 L 181.597656 313.828125 L 182.074219 313.785156 L 182.785156 313.703125 L 183.355469 313.613281 L 183.785156 313.519531 L 184.070312 313.425781 L 190.730469 313.425781 L 190.445312 313.535156 L 190.015625 313.640625 L 189.585938 313.71875 L 188.921875 313.8125 L 188.160156 313.894531 L 187.066406 313.988281 L 186.164062 314.050781 L 184.972656 314.117188 L 183.878906 314.167969 L 182.691406 314.210938 L 180.933594 314.265625 L 179.789062 314.292969 L 178.554688 314.316406 L 177.078125 314.339844 L 175.226562 314.355469 L 173.226562 314.367188 L 171.371094 314.371094 L 169.375 314.367188 L 167.902344 314.355469 L 165.949219 314.332031 L 163.523438 314.28125 L 161.765625 314.230469 L 160.386719 314.179688 L 159.199219 314.125 L 157.867188 314.054688 L 156.152344 313.9375 L 155.105469 313.84375 L 154.394531 313.769531 L 153.585938 313.667969 L 153.015625 313.574219 L 152.347656 313.421875 L 151.875 313.230469 L 151.730469 313.085938 Z M 151.730469 312.714844 "/>
<path style=" stroke:none;fill-rule:nonzero;fill:rgb(96.862745%,70.196078%,16.862745%);fill-opacity:1;" d="M 151.730469 306.933594 L 151.777344 306.929688 L 151.777344 306.820312 L 151.96875 306.582031 L 152.445312 306.253906 L 153.0625 305.980469 L 153.726562 305.769531 L 154.15625 305.660156 L 154.871094 305.5 L 155.488281 305.382812 L 157.058594 305.144531 L 159.054688 304.917969 L 160.148438 304.824219 L 161.386719 304.734375 L 163.144531 304.632812 L 163.953125 304.59375 L 166.425781 304.511719 L 169.230469 304.457031 L 172.324219 304.441406 L 173.75 304.445312 L 175.699219 304.46875 L 178.363281 304.527344 L 179.886719 304.578125 L 181.074219 304.632812 L 182.3125 304.703125 L 183.832031 304.808594 L 185.257812 304.933594 L 186.402344 305.0625 L 187.542969 305.222656 L 188.492188 305.390625 L 189.300781 305.578125 L 190.015625 305.800781 L 190.445312 305.988281 L 190.730469 306.171875 L 184.117188 306.171875 L 183.738281 305.988281 L 183.308594 305.84375 L 182.597656 305.667969 L 181.882812 305.542969 L 181.167969 305.441406 L 179.839844 305.300781 L 178.695312 305.21875 L 177.269531 305.144531 L 175.890625 305.09375 L 174.320312 305.0625 L 173.371094 305.050781 L 170.847656 305.050781 L 168.566406 305.089844 L 167.234375 305.132812 L 166.285156 305.175781 L 164.953125 305.253906 L 164.144531 305.316406 L 163.667969 305.359375 L 162.242188 305.523438 L 161.289062 305.675781 L 160.765625 305.773438 L 160.101562 305.933594 L 159.625 306.078125 L 159.101562 306.289062 L 158.816406 306.449219 L 158.4375 306.8125 L 158.390625 307.769531 L 158.53125 307.96875 L 158.816406 308.1875 L 159.199219 308.378906 L 159.769531 308.582031 L 160.339844 308.734375 L 161.335938 308.941406 L 162.195312 309.082031 L 162.859375 309.171875 L 164.144531 309.3125 L 164.667969 309.363281 L 165.902344 309.457031 L 167.1875 309.53125 L 168.757812 309.597656 L 169.945312 309.628906 L 171.847656 309.65625 L 174.273438 309.65625 L 177.128906 309.621094 L 178.933594 309.582031 L 180.171875 309.539062 L 180.980469 309.5 L 181.976562 309.441406 L 182.691406 309.390625 L 183.355469 309.332031 L 184.164062 309.238281 L 184.164062 307.96875 L 172.417969 307.964844 L 172.417969 307.371094 L 190.679688 307.363281 L 190.730469 309.441406 L 189.730469 309.585938 L 188.492188 309.722656 L 187.304688 309.828125 L 186.066406 309.921875 L 184.308594 310.019531 L 182.882812 310.085938 L 180.695312 310.160156 L 178.695312 310.207031 L 176.605469 310.238281 L 174.75 310.253906 L 172.5625 310.261719 L 170.613281 310.25 L 168.519531 310.21875 L 166.855469 310.175781 L 165.332031 310.121094 L 163.8125 310.054688 L 161.910156 309.941406 L 160.671875 309.851562 L 159.386719 309.738281 L 158.105469 309.605469 L 156.960938 309.464844 L 156.203125 309.351562 L 155.441406 309.222656 L 154.632812 309.066406 L 153.871094 308.882812 L 153.300781 308.71875 L 152.777344 308.535156 L 152.398438 308.359375 L 152.015625 308.117188 L 151.824219 307.925781 L 151.730469 307.761719 Z M 151.730469 306.933594 "/>
<path style=" stroke:none;fill-rule:nonzero;fill:rgb(83.921569%,15.686275%,22.352941%);fill-opacity:1;" d="M 151.730469 249.117188 L 190.730469 249.117188 L 190.730469 253.105469 L 174.476562 253.140625 L 174.476562 286.375 L 167.9375 286.375 L 167.9375 253.175781 L 167.839844 253.105469 L 151.730469 253.105469 Z M 151.730469 249.117188 "/>
<path style=" stroke:none;fill-rule:nonzero;fill:rgb(6.27451%,58.823529%,28.235294%);fill-opacity:1;" d="M 192.78125 314.0625 L 192.824219 314.054688 L 209.695312 309.140625 L 214.820312 309.140625 L 231.78125 314.066406 L 225.820312 314.066406 L 221.570312 312.78125 L 202.949219 312.78125 L 198.78125 314.0625 L 192.78125 314.0625 L 204.738281 312.25 L 219.863281 312.242188 L 212.320312 309.945312 L 212.238281 309.941406 L 212.15625 309.957031 L 204.699219 312.242188 L 204.738281 312.25 Z M 192.78125 314.0625 "/>
<path style=" stroke:none;fill-rule:nonzero;fill:rgb(96.862745%,70.196078%,16.862745%);fill-opacity:1;" d="M 192.78125 198.304688 L 192.828125 198.164062 L 192.828125 195.382812 L 193.019531 189.125 L 193.496094 180.5 L 194.113281 173.40625 L 194.777344 167.839844 L 195.207031 164.921875 L 195.921875 160.746094 L 196.539062 157.6875 L 198.109375 151.425781 L 200.105469 145.585938 L 201.199219 143.082031 L 202.4375 140.71875 L 204.195312 138.074219 L 205.003906 137.101562 L 207.476562 134.875 L 210.28125 133.484375 L 213.375 133.066406 L 214.800781 133.207031 L 216.75 133.761719 L 219.414062 135.292969 L 220.9375 136.683594 L 222.125 138.074219 L 223.363281 139.882812 L 224.882812 142.664062 L 226.308594 146.003906 L 227.453125 149.339844 L 228.59375 153.515625 L 229.542969 157.964844 L 230.351562 162.832031 L 231.066406 168.675781 L 231.496094 173.542969 L 231.78125 178.414062 L 225.167969 178.414062 L 224.789062 173.542969 L 224.359375 169.789062 L 223.648438 165.199219 L 222.933594 161.859375 L 222.21875 159.21875 L 220.886719 155.601562 L 219.746094 153.375 L 218.320312 151.425781 L 216.941406 150.175781 L 215.371094 149.339844 L 214.421875 149.0625 L 211.898438 149.0625 L 209.617188 150.035156 L 208.285156 151.148438 L 207.335938 152.261719 L 206.003906 154.347656 L 205.195312 156.019531 L 204.71875 157.128906 L 203.292969 161.441406 L 202.339844 165.335938 L 201.816406 167.980469 L 201.152344 172.152344 L 200.675781 175.910156 L 200.152344 181.472656 L 199.867188 185.644531 L 199.488281 195.105469 L 199.441406 220.144531 L 199.582031 225.429688 L 199.867188 231.132812 L 200.25 236.140625 L 200.820312 241.425781 L 201.390625 245.460938 L 202.386719 250.882812 L 203.246094 254.5 L 203.910156 256.867188 L 205.195312 260.621094 L 205.71875 261.871094 L 206.953125 264.375 L 208.238281 266.324219 L 209.808594 267.992188 L 210.996094 268.828125 L 212.898438 269.523438 L 215.324219 269.523438 L 218.179688 268.6875 L 219.984375 267.574219 L 221.222656 266.464844 L 222.03125 265.488281 L 223.027344 263.960938 L 223.742188 262.570312 L 224.40625 261.039062 L 225.214844 258.671875 L 225.214844 225.429688 L 213.46875 225.289062 L 213.46875 209.710938 L 231.730469 209.570312 L 231.78125 263.960938 L 230.78125 267.714844 L 229.542969 271.332031 L 228.355469 274.113281 L 227.117188 276.476562 L 225.359375 279.121094 L 223.933594 280.789062 L 221.746094 282.738281 L 219.746094 283.988281 L 217.65625 284.824219 L 215.800781 285.242188 L 213.613281 285.378906 L 211.664062 285.101562 L 209.570312 284.269531 L 207.90625 283.15625 L 206.382812 281.765625 L 204.859375 279.957031 L 202.957031 277.035156 L 201.722656 274.671875 L 200.4375 271.75 L 199.152344 268.269531 L 198.011719 264.515625 L 197.25 261.59375 L 196.492188 258.257812 L 195.683594 254.082031 L 194.921875 249.355469 L 194.351562 245.042969 L 193.828125 240.171875 L 193.445312 235.582031 L 193.066406 229.324219 L 192.875 224.316406 L 192.78125 220.003906 Z M 192.78125 198.304688 "/>
<path style=" stroke:none;fill-rule:nonzero;fill:rgb(83.921569%,15.686275%,22.352941%);fill-opacity:1;" d="M 192.78125 286.558594 L 231.78125 286.558594 L 231.78125 288.851562 L 215.527344 288.871094 L 215.527344 307.960938 L 208.988281 307.960938 L 208.988281 288.890625 L 208.890625 288.851562 L 192.78125 288.851562 Z M 192.78125 286.558594 "/>
<path style=" stroke:none;fill-rule:nonzero;fill:rgb(6.27451%,58.823529%,28.235294%);fill-opacity:1;" d="M 233.832031 304.617188 L 233.875 304.589844 L 250.746094 276.078125 L 255.871094 276.078125 L 272.832031 304.644531 L 266.871094 304.644531 L 262.621094 297.1875 L 244 297.1875 L 239.832031 304.617188 L 233.832031 304.617188 L 245.789062 294.101562 L 260.914062 294.074219 L 253.371094 280.746094 L 253.289062 280.71875 L 253.207031 280.800781 L 245.75 294.074219 L 245.789062 294.101562 Z M 233.832031 304.617188 "/>
<path style=" stroke:none;fill-rule:nonzero;fill:rgb(14.509804%,36.078431%,60%);fill-opacity:1;" d="M 233.832031 234.667969 L 233.878906 234.601562 L 233.878906 233.042969 L 234.023438 230.566406 L 234.355469 227.441406 L 234.6875 225.292969 L 235.542969 221.453125 L 236.734375 217.742188 L 237.96875 214.878906 L 238.875 213.1875 L 239.683594 211.882812 L 241.535156 209.476562 L 242.726562 208.238281 L 244.007812 207.132812 L 245.578125 206.027344 L 246.71875 205.375 L 249.289062 204.332031 L 251.191406 203.878906 L 252.664062 203.683594 L 255.851562 203.683594 L 257.753906 203.941406 L 259.132812 204.269531 L 260.65625 204.789062 L 261.9375 205.375 L 264.175781 206.808594 L 266.171875 208.628906 L 267.074219 209.671875 L 268.503906 211.6875 L 269.597656 213.640625 L 270.355469 215.335938 L 271.214844 217.742188 L 271.972656 220.671875 L 272.542969 223.992188 L 272.832031 226.792969 L 266.171875 226.792969 L 265.839844 224.1875 L 265.457031 222.167969 L 264.746094 219.5 L 264.03125 217.613281 L 263.03125 215.726562 L 262.128906 214.488281 L 260.894531 213.25 L 259.800781 212.46875 L 258.65625 211.882812 L 257.5625 211.492188 L 255.472656 211.101562 L 253.046875 211.101562 L 252.140625 211.234375 L 250.289062 211.753906 L 249.289062 212.210938 L 247.863281 213.121094 L 246.863281 213.96875 L 245.675781 215.269531 L 244.867188 216.375 L 243.867188 218.070312 L 243.152344 219.566406 L 242.34375 221.714844 L 241.871094 223.339844 L 241.441406 225.164062 L 241.0625 227.3125 L 240.777344 229.589844 L 240.585938 232 L 240.492188 234.34375 L 240.492188 244.433594 L 240.585938 246.777344 L 240.824219 249.511719 L 241.441406 253.480469 L 242.34375 256.933594 L 243.390625 259.664062 L 244.390625 261.617188 L 244.960938 262.53125 L 245.722656 263.570312 L 246.910156 264.875 L 248.621094 266.175781 L 249.621094 266.695312 L 251.144531 267.21875 L 252.710938 267.476562 L 254.804688 267.476562 L 256.660156 267.21875 L 257.898438 266.890625 L 259.179688 266.371094 L 260.941406 265.265625 L 262.035156 264.222656 L 262.984375 262.984375 L 263.699219 261.75 L 264.175781 260.707031 L 264.886719 258.691406 L 265.457031 256.476562 L 265.886719 254.199219 L 266.171875 251.984375 L 272.832031 251.984375 L 272.542969 254.589844 L 272.117188 257.128906 L 271.6875 259.015625 L 271.023438 261.292969 L 270.261719 263.3125 L 269.167969 265.589844 L 268.265625 267.085938 L 267.074219 268.714844 L 265.980469 269.953125 L 264.792969 271.058594 L 263.03125 272.359375 L 261.890625 273.011719 L 260.65625 273.597656 L 259.179688 274.117188 L 257.324219 274.574219 L 255.328125 274.832031 L 253.472656 274.898438 L 251.476562 274.769531 L 250.003906 274.507812 L 248.050781 273.921875 L 245.625 272.75 L 243.867188 271.515625 L 242.488281 270.277344 L 241.296875 268.976562 L 239.96875 267.21875 L 238.253906 264.351562 L 237.207031 262.140625 L 236.496094 260.316406 L 235.6875 257.777344 L 235.117188 255.5 L 234.449219 251.855469 L 233.976562 247.230469 L 233.832031 243.652344 Z M 233.832031 234.667969 "/>
<path style=" stroke:none;fill-rule:nonzero;fill:rgb(96.862745%,70.196078%,16.862745%);fill-opacity:1;" d="M 233.832031 309.324219 L 233.878906 309.316406 L 233.878906 309.167969 L 234.070312 308.832031 L 234.546875 308.367188 L 235.164062 307.988281 L 235.828125 307.6875 L 236.257812 307.53125 L 236.972656 307.308594 L 237.589844 307.144531 L 239.160156 306.808594 L 241.15625 306.496094 L 242.25 306.359375 L 243.488281 306.234375 L 245.246094 306.089844 L 246.054688 306.039062 L 248.527344 305.917969 L 251.332031 305.84375 L 254.425781 305.824219 L 255.851562 305.828125 L 257.800781 305.859375 L 260.464844 305.941406 L 261.988281 306.015625 L 263.175781 306.089844 L 264.414062 306.1875 L 265.933594 306.335938 L 267.359375 306.515625 L 268.503906 306.695312 L 269.644531 306.917969 L 270.59375 307.160156 L 271.402344 307.421875 L 272.117188 307.734375 L 272.542969 307.996094 L 272.832031 308.257812 L 266.21875 308.257812 L 265.839844 307.996094 L 265.410156 307.792969 L 264.699219 307.546875 L 263.984375 307.367188 L 263.269531 307.226562 L 261.9375 307.03125 L 260.796875 306.914062 L 259.371094 306.808594 L 257.992188 306.742188 L 256.421875 306.695312 L 255.472656 306.679688 L 252.949219 306.679688 L 250.667969 306.734375 L 249.335938 306.792969 L 248.386719 306.851562 L 247.054688 306.964844 L 246.246094 307.054688 L 245.769531 307.113281 L 244.34375 307.34375 L 243.390625 307.554688 L 242.867188 307.695312 L 242.203125 307.921875 L 241.726562 308.121094 L 241.203125 308.421875 L 240.917969 308.644531 L 240.539062 309.152344 L 240.492188 310.496094 L 240.632812 310.777344 L 240.917969 311.085938 L 241.296875 311.355469 L 241.871094 311.636719 L 242.441406 311.855469 L 243.4375 312.144531 L 244.296875 312.339844 L 244.960938 312.464844 L 246.246094 312.667969 L 246.769531 312.734375 L 248.003906 312.871094 L 249.289062 312.972656 L 250.859375 313.0625 L 252.046875 313.109375 L 253.949219 313.144531 L 256.375 313.144531 L 259.226562 313.101562 L 261.035156 313.042969 L 262.273438 312.980469 L 263.082031 312.929688 L 264.078125 312.847656 L 264.792969 312.773438 L 265.457031 312.691406 L 266.265625 312.5625 L 266.265625 310.777344 L 254.519531 310.773438 L 254.519531 309.9375 L 272.78125 309.929688 L 272.832031 312.847656 L 271.832031 313.046875 L 270.59375 313.242188 L 269.40625 313.390625 L 268.167969 313.519531 L 266.410156 313.660156 L 264.984375 313.75 L 262.796875 313.855469 L 260.796875 313.921875 L 258.707031 313.964844 L 256.851562 313.988281 L 254.664062 313.996094 L 252.710938 313.980469 L 250.621094 313.9375 L 248.957031 313.878906 L 247.433594 313.800781 L 245.910156 313.707031 L 244.007812 313.546875 L 242.773438 313.421875 L 241.488281 313.265625 L 240.203125 313.078125 L 239.0625 312.875 L 238.300781 312.71875 L 237.542969 312.539062 L 236.734375 312.316406 L 235.972656 312.0625 L 235.402344 311.832031 L 234.878906 311.570312 L 234.496094 311.324219 L 234.117188 310.988281 L 233.925781 310.71875 L 233.832031 310.488281 Z M 233.832031 309.324219 "/>
<path style=" stroke:none;fill-rule:nonzero;fill:rgb(14.509804%,36.078431%,60%);fill-opacity:1;" d="M 274.882812 308.730469 L 274.929688 308.71875 L 274.929688 308.5 L 275.074219 308.152344 L 275.40625 307.714844 L 275.738281 307.414062 L 276.59375 306.875 L 277.785156 306.355469 L 279.019531 305.953125 L 279.925781 305.714844 L 280.734375 305.535156 L 282.585938 305.195312 L 283.777344 305.023438 L 285.058594 304.867188 L 286.628906 304.710938 L 287.769531 304.621094 L 290.339844 304.472656 L 292.242188 304.410156 L 293.714844 304.382812 L 296.902344 304.382812 L 298.804688 304.417969 L 300.183594 304.464844 L 301.707031 304.539062 L 302.988281 304.621094 L 305.226562 304.820312 L 307.222656 305.078125 L 308.125 305.222656 L 309.554688 305.507812 L 310.648438 305.78125 L 311.40625 306.015625 L 312.265625 306.355469 L 313.023438 306.765625 L 313.59375 307.230469 L 313.882812 307.625 L 307.222656 307.625 L 306.890625 307.257812 L 306.507812 306.976562 L 305.796875 306.601562 L 305.082031 306.335938 L 304.082031 306.070312 L 303.179688 305.898438 L 301.945312 305.726562 L 300.851562 305.617188 L 299.707031 305.535156 L 298.613281 305.480469 L 296.523438 305.421875 L 294.097656 305.421875 L 293.191406 305.441406 L 291.339844 305.515625 L 290.339844 305.578125 L 288.914062 305.707031 L 287.914062 305.824219 L 286.726562 306.007812 L 285.917969 306.164062 L 284.917969 306.402344 L 284.203125 306.609375 L 283.394531 306.910156 L 282.921875 307.140625 L 282.492188 307.394531 L 282.113281 307.695312 L 281.828125 308.015625 L 281.636719 308.355469 L 281.539062 308.683594 L 281.539062 310.097656 L 281.636719 310.425781 L 281.875 310.808594 L 282.492188 311.367188 L 283.394531 311.851562 L 284.441406 312.234375 L 285.441406 312.507812 L 286.011719 312.636719 L 286.773438 312.78125 L 287.960938 312.964844 L 289.671875 313.148438 L 290.671875 313.21875 L 292.195312 313.292969 L 293.761719 313.328125 L 295.855469 313.328125 L 297.710938 313.292969 L 298.949219 313.246094 L 300.230469 313.175781 L 301.992188 313.019531 L 303.085938 312.875 L 304.035156 312.699219 L 304.75 312.527344 L 305.226562 312.378906 L 305.9375 312.097656 L 306.507812 311.785156 L 306.9375 311.46875 L 307.222656 311.15625 L 313.882812 311.15625 L 313.59375 311.523438 L 313.167969 311.878906 L 312.738281 312.144531 L 312.074219 312.460938 L 311.3125 312.746094 L 310.21875 313.066406 L 309.316406 313.273438 L 308.125 313.503906 L 307.03125 313.675781 L 305.84375 313.832031 L 304.082031 314.015625 L 302.941406 314.105469 L 301.707031 314.1875 L 300.230469 314.261719 L 298.375 314.324219 L 296.378906 314.363281 L 294.523438 314.371094 L 292.527344 314.351562 L 291.050781 314.316406 L 289.101562 314.234375 L 286.675781 314.070312 L 284.917969 313.894531 L 283.539062 313.722656 L 282.347656 313.539062 L 281.019531 313.292969 L 279.304688 312.890625 L 278.257812 312.582031 L 277.546875 312.324219 L 276.738281 311.96875 L 276.167969 311.648438 L 275.5 311.140625 L 275.027344 310.492188 L 274.882812 309.988281 Z M 274.882812 308.730469 "/>
<path style=" stroke:none;fill-rule:nonzero;fill:rgb(83.921569%,15.686275%,22.352941%);fill-opacity:1;" d="M 274.882812 58.707031 L 313.882812 58.707031 L 313.882812 84.878906 L 297.628906 85.105469 L 297.628906 303.203125 L 291.089844 303.203125 L 291.089844 85.335938 L 290.992188 84.878906 L 274.882812 84.878906 Z M 274.882812 58.707031 "/>
<path style=" stroke:none;fill-rule:nonzero;fill:rgb(14.509804%,36.078431%,60%);fill-opacity:1;" d="M 315.933594 312.308594 L 315.980469 312.304688 L 315.980469 312.222656 L 316.125 312.097656 L 316.457031 311.9375 L 316.789062 311.824219 L 317.644531 311.628906 L 318.835938 311.4375 L 320.070312 311.292969 L 320.976562 311.203125 L 321.78125 311.136719 L 323.636719 311.015625 L 324.828125 310.949219 L 326.109375 310.894531 L 327.679688 310.835938 L 328.820312 310.804688 L 331.390625 310.75 L 333.292969 310.726562 L 334.765625 310.71875 L 337.953125 310.71875 L 339.855469 310.730469 L 341.234375 310.746094 L 342.757812 310.773438 L 344.039062 310.804688 L 346.277344 310.878906 L 348.273438 310.972656 L 349.175781 311.023438 L 350.605469 311.128906 L 351.699219 311.226562 L 352.457031 311.316406 L 353.316406 311.4375 L 354.074219 311.589844 L 354.644531 311.757812 L 354.929688 311.902344 L 348.273438 311.902344 L 347.941406 311.769531 L 347.558594 311.664062 L 346.847656 311.527344 L 346.132812 311.433594 L 345.132812 311.335938 L 344.230469 311.273438 L 342.996094 311.207031 L 341.902344 311.167969 L 340.757812 311.136719 L 339.664062 311.117188 L 337.574219 311.097656 L 335.148438 311.097656 L 334.242188 311.105469 L 332.390625 311.132812 L 331.390625 311.15625 L 329.964844 311.203125 L 328.964844 311.246094 L 327.777344 311.3125 L 326.96875 311.367188 L 325.96875 311.457031 L 325.253906 311.53125 L 324.445312 311.640625 L 323.972656 311.726562 L 323.542969 311.820312 L 323.164062 311.929688 L 322.878906 312.046875 L 322.6875 312.171875 L 322.589844 312.289062 L 322.589844 312.808594 L 322.6875 312.929688 L 322.925781 313.066406 L 323.542969 313.273438 L 324.445312 313.449219 L 325.492188 313.589844 L 326.492188 313.6875 L 327.0625 313.734375 L 327.824219 313.789062 L 329.011719 313.855469 L 330.722656 313.921875 L 331.722656 313.949219 L 333.246094 313.976562 L 334.8125 313.988281 L 336.90625 313.988281 L 338.761719 313.976562 L 340 313.960938 L 341.28125 313.933594 L 343.042969 313.875 L 344.136719 313.824219 L 345.085938 313.757812 L 345.800781 313.695312 L 346.277344 313.644531 L 346.988281 313.539062 L 347.558594 313.425781 L 347.988281 313.308594 L 348.273438 313.195312 L 354.929688 313.195312 L 354.644531 313.328125 L 354.21875 313.460938 L 353.789062 313.554688 L 353.125 313.671875 L 352.363281 313.777344 L 351.269531 313.894531 L 350.367188 313.96875 L 349.175781 314.054688 L 348.082031 314.117188 L 346.894531 314.171875 L 345.132812 314.242188 L 343.992188 314.273438 L 342.757812 314.304688 L 341.28125 314.332031 L 339.425781 314.355469 L 337.429688 314.367188 L 335.574219 314.371094 L 333.578125 314.363281 L 332.101562 314.351562 L 330.152344 314.320312 L 327.726562 314.261719 L 325.96875 314.195312 L 324.589844 314.132812 L 323.398438 314.066406 L 322.070312 313.976562 L 320.355469 313.828125 L 319.308594 313.714844 L 318.597656 313.621094 L 317.789062 313.492188 L 317.21875 313.375 L 316.550781 313.1875 L 316.074219 312.953125 L 315.933594 312.769531 Z M 315.933594 312.308594 "/>
<path style=" stroke:none;fill-rule:nonzero;fill:rgb(96.862745%,70.196078%,16.862745%);fill-opacity:1;" d="M 315.933594 186.828125 L 315.980469 186.660156 L 315.980469 183.347656 L 316.171875 175.890625 L 316.648438 165.617188 L 317.265625 157.167969 L 317.929688 150.539062 L 318.359375 147.058594 L 319.074219 142.089844 L 319.691406 138.445312 L 321.261719 130.988281 L 323.257812 124.027344 L 324.351562 121.046875 L 325.585938 118.230469 L 327.347656 115.082031 L 328.15625 113.921875 L 330.628906 111.269531 L 333.433594 109.613281 L 336.527344 109.117188 L 337.953125 109.28125 L 339.902344 109.945312 L 342.566406 111.765625 L 344.089844 113.425781 L 345.277344 115.082031 L 346.515625 117.234375 L 348.035156 120.550781 L 349.460938 124.527344 L 350.605469 128.503906 L 351.746094 133.472656 L 352.695312 138.773438 L 353.503906 144.574219 L 354.21875 151.535156 L 354.644531 157.332031 L 354.929688 163.132812 L 348.320312 163.132812 L 347.941406 157.332031 L 347.511719 152.859375 L 346.800781 147.390625 L 346.085938 143.414062 L 345.371094 140.265625 L 344.039062 135.957031 L 342.898438 133.308594 L 341.472656 130.988281 L 340.09375 129.496094 L 338.523438 128.503906 L 337.574219 128.171875 L 335.050781 128.171875 L 332.769531 129.332031 L 331.4375 130.65625 L 330.488281 131.980469 L 329.15625 134.46875 L 328.347656 136.457031 L 327.871094 137.78125 L 326.445312 142.917969 L 325.492188 147.558594 L 324.96875 150.707031 L 324.304688 155.675781 L 323.828125 160.148438 L 323.304688 166.777344 L 323.019531 171.75 L 322.640625 183.015625 L 322.589844 212.839844 L 322.734375 219.136719 L 323.019531 225.929688 L 323.398438 231.894531 L 323.972656 238.191406 L 324.542969 242.996094 L 325.539062 249.460938 L 326.394531 253.765625 L 327.0625 256.582031 L 328.347656 261.058594 L 328.871094 262.550781 L 330.105469 265.53125 L 331.390625 267.851562 L 332.960938 269.839844 L 334.148438 270.832031 L 336.050781 271.664062 L 338.476562 271.664062 L 341.328125 270.667969 L 343.136719 269.34375 L 344.375 268.015625 L 345.183594 266.855469 L 346.179688 265.035156 L 346.894531 263.378906 L 347.558594 261.554688 L 348.367188 258.738281 L 348.367188 219.136719 L 336.621094 218.972656 L 336.621094 200.414062 L 354.882812 200.246094 L 354.929688 265.035156 L 353.933594 269.507812 L 352.695312 273.816406 L 351.507812 277.128906 L 350.269531 279.945312 L 348.511719 283.09375 L 347.085938 285.082031 L 344.898438 287.402344 L 342.898438 288.894531 L 340.808594 289.886719 L 338.953125 290.386719 L 336.765625 290.550781 L 334.8125 290.21875 L 332.722656 289.226562 L 331.058594 287.898438 L 329.535156 286.242188 L 328.011719 284.089844 L 326.109375 280.609375 L 324.875 277.792969 L 323.589844 274.3125 L 322.304688 270.171875 L 321.164062 265.695312 L 320.402344 262.21875 L 319.644531 258.242188 L 318.835938 253.269531 L 318.074219 247.636719 L 317.503906 242.5 L 316.980469 236.699219 L 316.597656 231.234375 L 316.21875 223.777344 L 316.027344 217.8125 L 315.933594 212.675781 Z M 315.933594 186.828125 "/>
<path style=" stroke:none;fill-rule:nonzero;fill:rgb(83.921569%,15.686275%,22.352941%);fill-opacity:1;" d="M 315.933594 291.730469 L 354.929688 291.730469 L 354.929688 293.636719 L 338.679688 293.652344 L 338.679688 309.539062 L 332.140625 309.539062 L 332.140625 293.671875 L 332.042969 293.636719 L 315.933594 293.636719 Z M 315.933594 291.730469 "/>
<path style=" stroke:none;fill-rule:nonzero;fill:rgb(6.27451%,58.823529%,28.235294%);fill-opacity:1;" d="M 356.984375 314.09375 L 357.027344 313.820312 L 373.898438 20.664062 L 379.023438 20.664062 L 395.980469 314.371094 L 390.023438 314.371094 L 385.773438 237.703125 L 367.148438 237.703125 L 362.984375 314.09375 L 356.984375 314.09375 L 368.941406 205.988281 L 384.066406 205.710938 L 376.523438 68.648438 L 376.441406 68.375 L 376.359375 69.199219 L 368.898438 205.710938 L 368.941406 205.988281 Z M 356.984375 314.09375 "/>
<path style=" stroke:none;fill-rule:nonzero;fill:rgb(14.509804%,36.078431%,60%);fill-opacity:1;" d="M 398.035156 152.003906 L 398.082031 151.746094 L 398.082031 145.496094 L 398.226562 135.601562 L 398.558594 123.101562 L 398.890625 114.507812 L 399.746094 99.144531 L 400.9375 84.300781 L 402.171875 72.84375 L 403.074219 66.074219 L 403.882812 60.867188 L 405.738281 51.230469 L 406.929688 46.285156 L 408.210938 41.859375 L 409.78125 37.429688 L 410.921875 34.828125 L 413.492188 30.660156 L 415.394531 28.839844 L 416.867188 28.058594 L 420.054688 28.058594 L 421.957031 29.097656 L 423.335938 30.402344 L 424.859375 32.484375 L 426.140625 34.828125 L 428.378906 40.554688 L 430.375 47.847656 L 431.277344 52.011719 L 432.707031 60.085938 L 433.800781 67.898438 L 434.558594 74.667969 L 435.414062 84.300781 L 436.175781 96.019531 L 436.746094 109.300781 L 437.03125 120.496094 L 430.375 120.496094 L 430.042969 110.082031 L 429.660156 102.007812 L 428.949219 91.332031 L 428.234375 83.78125 L 427.234375 76.230469 L 426.332031 71.28125 L 425.097656 66.335938 L 424 63.210938 L 422.859375 60.867188 L 421.765625 59.304688 L 419.675781 57.742188 L 417.25 57.742188 L 416.34375 58.261719 L 414.488281 60.347656 L 413.492188 62.167969 L 412.066406 65.8125 L 411.066406 69.199219 L 409.875 74.40625 L 409.070312 78.835938 L 408.070312 85.605469 L 407.355469 91.59375 L 406.546875 100.1875 L 406.070312 106.695312 L 405.644531 113.988281 L 405.265625 122.582031 L 404.976562 131.695312 L 404.789062 141.328125 L 404.691406 150.703125 L 404.691406 191.0625 L 404.789062 200.4375 L 405.027344 211.375 L 405.644531 227.257812 L 406.546875 241.058594 L 407.59375 251.996094 L 408.59375 259.808594 L 409.164062 263.453125 L 409.925781 267.621094 L 411.113281 272.828125 L 412.824219 278.035156 L 413.824219 280.117188 L 415.347656 282.203125 L 416.914062 283.242188 L 419.007812 283.242188 L 420.863281 282.203125 L 422.097656 280.898438 L 423.382812 278.816406 L 425.144531 274.390625 L 426.238281 270.222656 L 427.1875 265.277344 L 427.902344 260.328125 L 428.378906 256.164062 L 429.089844 248.089844 L 429.660156 239.238281 L 430.089844 230.121094 L 430.375 221.269531 L 437.03125 221.269531 L 436.746094 231.683594 L 436.320312 241.839844 L 435.890625 249.390625 L 435.226562 258.507812 L 434.464844 266.578125 L 433.371094 275.691406 L 432.46875 281.679688 L 431.277344 288.191406 L 430.183594 293.136719 L 428.996094 297.566406 L 427.234375 302.773438 L 426.09375 305.375 L 424.859375 307.71875 L 423.382812 309.804688 L 421.527344 311.625 L 419.53125 312.667969 L 417.675781 312.929688 L 415.679688 312.40625 L 414.203125 311.367188 L 412.253906 309.023438 L 409.828125 304.335938 L 408.070312 299.386719 L 406.691406 294.441406 L 405.5 289.234375 L 404.167969 282.203125 L 402.457031 270.746094 L 401.410156 261.890625 L 400.699219 254.601562 L 399.890625 244.445312 L 399.320312 235.332031 L 398.652344 220.75 L 398.175781 202.261719 L 398.035156 187.9375 Z M 398.035156 152.003906 "/>
<path style=" stroke:none;fill-rule:nonzero;fill:rgb(96.862745%,70.196078%,16.862745%);fill-opacity:1;" d="M 439.085938 150.070312 L 439.132812 149.808594 L 439.132812 144.605469 L 439.324219 132.898438 L 439.800781 116.769531 L 440.417969 103.503906 L 441.082031 93.097656 L 441.511719 87.632812 L 442.222656 79.828125 L 442.84375 74.105469 L 444.410156 62.398438 L 446.410156 51.472656 L 447.503906 46.789062 L 448.738281 42.367188 L 450.5 37.421875 L 451.308594 35.601562 L 453.78125 31.4375 L 456.585938 28.835938 L 459.679688 28.058594 L 461.105469 28.316406 L 463.054688 29.359375 L 465.71875 32.21875 L 467.242188 34.820312 L 468.429688 37.421875 L 469.664062 40.804688 L 471.1875 46.007812 L 472.613281 52.25 L 473.753906 58.496094 L 474.898438 66.300781 L 475.847656 74.625 L 476.65625 83.730469 L 477.371094 94.65625 L 477.796875 103.761719 L 478.082031 112.867188 L 471.472656 112.867188 L 471.09375 103.761719 L 470.664062 96.738281 L 469.949219 88.152344 L 469.238281 81.910156 L 468.523438 76.964844 L 467.191406 70.203125 L 466.050781 66.039062 L 464.625 62.398438 L 463.246094 60.054688 L 461.675781 58.496094 L 460.726562 57.976562 L 458.203125 57.976562 L 455.921875 59.796875 L 454.589844 61.878906 L 453.636719 63.957031 L 452.308594 67.859375 L 451.5 70.984375 L 451.023438 73.0625 L 449.597656 81.128906 L 448.644531 88.414062 L 448.121094 93.355469 L 447.457031 101.160156 L 446.980469 108.183594 L 446.457031 118.589844 L 446.171875 126.394531 L 445.792969 144.085938 L 445.742188 190.914062 L 445.886719 200.800781 L 446.171875 211.46875 L 446.550781 220.832031 L 447.121094 230.71875 L 447.695312 238.261719 L 448.691406 248.410156 L 449.546875 255.171875 L 450.214844 259.597656 L 451.5 266.621094 L 452.019531 268.960938 L 453.257812 273.644531 L 454.542969 277.285156 L 456.113281 280.410156 L 457.300781 281.96875 L 459.203125 283.269531 L 461.628906 283.269531 L 464.480469 281.710938 L 466.289062 279.628906 L 467.527344 277.546875 L 468.335938 275.726562 L 469.332031 272.863281 L 470.046875 270.261719 L 470.710938 267.402344 L 471.519531 262.976562 L 471.519531 200.800781 L 459.773438 200.539062 L 459.773438 171.402344 L 478.035156 171.144531 L 478.082031 272.863281 L 477.085938 279.886719 L 475.847656 286.652344 L 474.660156 291.855469 L 473.421875 296.277344 L 471.664062 301.222656 L 470.238281 304.34375 L 468.046875 307.984375 L 466.050781 310.328125 L 463.957031 311.886719 L 462.105469 312.667969 L 459.917969 312.929688 L 457.964844 312.40625 L 455.875 310.847656 L 454.210938 308.765625 L 452.6875 306.164062 L 451.164062 302.78125 L 449.261719 297.320312 L 448.027344 292.894531 L 446.742188 287.433594 L 445.457031 280.929688 L 444.316406 273.90625 L 443.554688 268.441406 L 442.796875 262.199219 L 441.988281 254.394531 L 441.226562 245.546875 L 440.65625 237.484375 L 440.132812 228.378906 L 439.75 219.792969 L 439.371094 208.085938 L 439.179688 198.71875 L 439.085938 190.65625 Z M 439.085938 150.070312 "/>
<path style=" stroke:none;fill-rule:nonzero;fill:rgb(83.921569%,15.686275%,22.352941%);fill-opacity:1;" d="M 480.136719 20.664062 L 519.132812 20.664062 L 519.132812 52.101562 L 502.882812 52.378906 L 502.882812 314.371094 L 496.34375 314.371094 L 496.34375 52.652344 L 496.246094 52.101562 L 480.136719 52.101562 Z M 480.136719 20.664062 "/>
<path style=" stroke:none;fill-rule:nonzero;fill:rgb(14.509804%,36.078431%,60%);fill-opacity:1;" d="M 521.1875 309.605469 L 521.234375 309.597656 L 521.234375 309.414062 L 521.378906 309.121094 L 521.710938 308.75 L 522.042969 308.496094 L 522.898438 308.039062 L 524.089844 307.601562 L 525.324219 307.261719 L 526.226562 307.0625 L 527.035156 306.90625 L 528.890625 306.621094 L 530.082031 306.476562 L 531.363281 306.34375 L 532.933594 306.210938 L 534.074219 306.136719 L 536.644531 306.011719 L 538.546875 305.957031 L 540.019531 305.933594 L 543.207031 305.933594 L 545.109375 305.964844 L 546.488281 306.003906 L 548.011719 306.066406 L 549.292969 306.136719 L 551.53125 306.304688 L 553.527344 306.519531 L 554.429688 306.644531 L 555.855469 306.882812 L 556.949219 307.113281 L 557.710938 307.316406 L 558.566406 307.601562 L 559.328125 307.949219 L 559.898438 308.339844 L 560.183594 308.671875 L 553.527344 308.671875 L 553.195312 308.363281 L 552.8125 308.125 L 552.101562 307.808594 L 551.386719 307.585938 L 550.386719 307.363281 L 549.484375 307.214844 L 548.246094 307.070312 L 547.152344 306.976562 L 546.011719 306.90625 L 544.917969 306.859375 L 542.824219 306.8125 L 540.402344 306.8125 L 539.496094 306.828125 L 537.640625 306.890625 L 536.644531 306.945312 L 535.214844 307.054688 L 534.21875 307.152344 L 533.027344 307.308594 L 532.21875 307.4375 L 531.222656 307.640625 L 530.507812 307.816406 L 529.699219 308.070312 L 529.222656 308.261719 L 528.796875 308.480469 L 528.414062 308.734375 L 528.128906 309.003906 L 527.941406 309.289062 L 527.84375 309.566406 L 527.84375 310.761719 L 527.941406 311.039062 L 528.179688 311.363281 L 528.796875 311.832031 L 529.699219 312.242188 L 530.746094 312.566406 L 531.746094 312.796875 L 532.316406 312.90625 L 533.078125 313.027344 L 534.265625 313.183594 L 535.976562 313.335938 L 536.976562 313.398438 L 538.5 313.460938 L 540.066406 313.492188 L 542.160156 313.492188 L 544.015625 313.460938 L 545.25 313.421875 L 546.535156 313.359375 L 548.296875 313.230469 L 549.390625 313.105469 L 550.339844 312.960938 L 551.054688 312.8125 L 551.53125 312.691406 L 552.242188 312.449219 L 552.8125 312.1875 L 553.242188 311.917969 L 553.527344 311.65625 L 560.183594 311.65625 L 559.898438 311.964844 L 559.472656 312.265625 L 559.042969 312.488281 L 558.378906 312.757812 L 557.617188 313 L 556.523438 313.269531 L 555.621094 313.445312 L 554.429688 313.636719 L 553.335938 313.785156 L 552.148438 313.914062 L 550.386719 314.070312 L 549.246094 314.148438 L 548.011719 314.214844 L 546.535156 314.277344 L 544.679688 314.332031 L 542.683594 314.363281 L 540.828125 314.371094 L 538.832031 314.355469 L 537.355469 314.324219 L 535.40625 314.253906 L 532.980469 314.117188 L 531.222656 313.96875 L 529.84375 313.824219 L 528.652344 313.667969 L 527.320312 313.460938 L 525.609375 313.121094 L 524.5625 312.859375 L 523.851562 312.644531 L 523.042969 312.34375 L 522.472656 312.074219 L 521.804688 311.640625 L 521.328125 311.09375 L 521.1875 310.667969 Z M 521.1875 309.605469 "/>
<path style=" stroke:none;fill-rule:nonzero;fill:rgb(96.862745%,70.196078%,16.862745%);fill-opacity:1;" d="M 521.1875 161.507812 L 521.234375 161.28125 L 521.234375 156.703125 L 521.425781 146.40625 L 521.898438 132.21875 L 522.519531 120.546875 L 523.183594 111.394531 L 523.613281 106.589844 L 524.324219 99.722656 L 524.945312 94.691406 L 526.511719 84.394531 L 528.511719 74.78125 L 529.605469 70.664062 L 530.839844 66.773438 L 532.601562 62.425781 L 533.410156 60.824219 L 535.882812 57.164062 L 538.6875 54.875 L 541.78125 54.1875 L 543.207031 54.417969 L 545.15625 55.332031 L 547.820312 57.847656 L 549.339844 60.136719 L 550.53125 62.425781 L 551.765625 65.398438 L 553.289062 69.976562 L 554.714844 75.46875 L 555.855469 80.960938 L 557 87.824219 L 557.949219 95.148438 L 558.757812 103.15625 L 559.472656 112.769531 L 559.898438 120.777344 L 560.183594 128.785156 L 553.574219 128.785156 L 553.195312 120.777344 L 552.765625 114.597656 L 552.050781 107.046875 L 551.339844 101.554688 L 550.625 97.207031 L 549.292969 91.257812 L 548.152344 87.597656 L 546.726562 84.394531 L 545.347656 82.332031 L 543.777344 80.960938 L 542.824219 80.503906 L 540.304688 80.503906 L 538.023438 82.105469 L 536.691406 83.933594 L 535.738281 85.765625 L 534.40625 89.199219 L 533.601562 91.945312 L 533.125 93.773438 L 531.699219 100.867188 L 530.746094 107.277344 L 530.222656 111.625 L 529.558594 118.488281 L 529.082031 124.667969 L 528.558594 133.820312 L 528.273438 140.683594 L 527.894531 156.246094 L 527.84375 197.433594 L 527.988281 206.128906 L 528.273438 215.511719 L 528.652344 223.75 L 529.222656 232.445312 L 529.796875 239.082031 L 530.792969 248.003906 L 531.648438 253.957031 L 532.316406 257.84375 L 533.601562 264.023438 L 534.121094 266.082031 L 535.359375 270.203125 L 536.644531 273.40625 L 538.210938 276.152344 L 539.402344 277.523438 L 541.304688 278.667969 L 543.730469 278.667969 L 546.582031 277.296875 L 548.390625 275.464844 L 549.625 273.632812 L 550.433594 272.03125 L 551.433594 269.515625 L 552.148438 267.226562 L 552.8125 264.710938 L 553.621094 260.820312 L 553.621094 206.128906 L 541.875 205.902344 L 541.875 180.273438 L 560.136719 180.042969 L 560.183594 269.515625 L 559.1875 275.695312 L 557.949219 281.644531 L 556.761719 286.21875 L 555.523438 290.109375 L 553.765625 294.457031 L 552.335938 297.203125 L 550.148438 300.40625 L 548.152344 302.46875 L 546.058594 303.839844 L 544.207031 304.527344 L 542.015625 304.753906 L 540.066406 304.296875 L 537.976562 302.925781 L 536.308594 301.09375 L 534.789062 298.804688 L 533.265625 295.832031 L 531.363281 291.027344 L 530.128906 287.136719 L 528.84375 282.328125 L 527.558594 276.609375 L 526.417969 270.429688 L 525.65625 265.625 L 524.894531 260.132812 L 524.089844 253.269531 L 523.328125 245.488281 L 522.757812 238.394531 L 522.234375 230.386719 L 521.851562 222.835938 L 521.472656 212.539062 L 521.28125 204.300781 L 521.1875 197.207031 Z M 521.1875 161.507812 "/>
<path style=" stroke:none;fill-rule:nonzero;fill:rgb(6.27451%,58.823529%,28.235294%);fill-opacity:1;" d="M 562.238281 314.367188 L 562.277344 314.363281 L 579.152344 309.429688 L 584.277344 309.429688 L 601.234375 314.371094 L 595.277344 314.371094 L 591.027344 313.082031 L 572.402344 313.082031 L 568.238281 314.367188 L 562.238281 314.367188 L 574.195312 312.546875 L 589.320312 312.542969 L 581.777344 310.234375 L 581.695312 310.230469 L 581.613281 310.246094 L 574.152344 312.542969 L 574.195312 312.546875 Z M 562.238281 314.367188 "/>
<path style=" stroke:none;fill-rule:nonzero;fill:rgb(96.862745%,70.196078%,16.862745%);fill-opacity:1;" d="M 562.238281 211.679688 L 562.285156 211.578125 L 562.285156 209.5 L 562.476562 204.832031 L 562.949219 198.402344 L 563.570312 193.109375 L 564.234375 188.960938 L 564.664062 186.78125 L 565.375 183.671875 L 565.996094 181.386719 L 567.5625 176.71875 L 569.5625 172.363281 L 570.65625 170.496094 L 571.890625 168.730469 L 573.652344 166.761719 L 574.460938 166.035156 L 576.933594 164.375 L 579.738281 163.335938 L 582.832031 163.027344 L 584.257812 163.128906 L 586.207031 163.542969 L 588.871094 164.683594 L 590.390625 165.722656 L 591.582031 166.761719 L 592.816406 168.109375 L 594.339844 170.183594 L 595.765625 172.671875 L 596.90625 175.164062 L 598.050781 178.277344 L 599 181.59375 L 599.808594 185.226562 L 600.523438 189.582031 L 600.949219 193.214844 L 601.234375 196.84375 L 594.625 196.84375 L 594.246094 193.214844 L 593.816406 190.414062 L 593.101562 186.988281 L 592.390625 184.5 L 591.675781 182.527344 L 590.34375 179.832031 L 589.203125 178.171875 L 587.777344 176.71875 L 586.398438 175.785156 L 584.828125 175.164062 L 583.875 174.957031 L 581.355469 174.957031 L 579.074219 175.683594 L 577.742188 176.511719 L 576.789062 177.339844 L 575.457031 178.898438 L 574.648438 180.144531 L 574.175781 180.972656 L 572.746094 184.1875 L 571.796875 187.09375 L 571.273438 189.066406 L 570.609375 192.175781 L 570.132812 194.976562 L 569.609375 199.128906 L 569.324219 202.238281 L 568.941406 209.292969 L 568.894531 227.96875 L 569.039062 231.910156 L 569.324219 236.164062 L 569.703125 239.898438 L 570.273438 243.839844 L 570.84375 246.847656 L 571.84375 250.894531 L 572.699219 253.589844 L 573.367188 255.355469 L 574.648438 258.15625 L 575.171875 259.089844 L 576.410156 260.957031 L 577.695312 262.410156 L 579.261719 263.65625 L 580.453125 264.277344 L 582.355469 264.796875 L 584.78125 264.796875 L 587.632812 264.171875 L 589.441406 263.34375 L 590.675781 262.511719 L 591.484375 261.785156 L 592.484375 260.644531 L 593.199219 259.609375 L 593.863281 258.46875 L 594.671875 256.703125 L 594.671875 231.910156 L 582.925781 231.804688 L 582.925781 220.1875 L 601.1875 220.082031 L 601.234375 260.644531 L 600.238281 263.445312 L 599 266.144531 L 597.8125 268.21875 L 596.574219 269.984375 L 594.816406 271.953125 L 593.386719 273.199219 L 591.199219 274.652344 L 589.203125 275.585938 L 587.109375 276.207031 L 585.257812 276.519531 L 583.066406 276.621094 L 581.117188 276.414062 L 579.027344 275.792969 L 577.359375 274.960938 L 575.839844 273.925781 L 574.316406 272.574219 L 572.414062 270.398438 L 571.179688 268.632812 L 569.894531 266.457031 L 568.609375 263.863281 L 567.46875 261.0625 L 566.707031 258.882812 L 565.945312 256.390625 L 565.136719 253.28125 L 564.378906 249.753906 L 563.808594 246.539062 L 563.285156 242.90625 L 562.902344 239.484375 L 562.523438 234.8125 L 562.332031 231.078125 L 562.238281 227.863281 Z M 562.238281 211.679688 "/>
<path style=" stroke:none;fill-rule:nonzero;fill:rgb(83.921569%,15.686275%,22.352941%);fill-opacity:1;" d="M 562.238281 277.800781 L 601.234375 277.800781 L 601.234375 281.0625 L 584.984375 281.089844 L 584.984375 308.25 L 578.441406 308.25 L 578.441406 281.117188 L 578.347656 281.0625 L 562.238281 281.0625 Z M 562.238281 277.800781 "/>
<path style=" stroke:none;fill-rule:nonzero;fill:rgb(6.27451%,58.823529%,28.235294%);fill-opacity:1;" d="M 603.289062 307.664062 L 603.328125 307.636719 L 620.203125 278.140625 L 625.328125 278.140625 L 642.285156 307.691406 L 636.328125 307.691406 L 632.078125 299.976562 L 613.453125 299.976562 L 609.289062 307.664062 L 603.289062 307.664062 L 615.246094 296.785156 L 630.371094 296.757812 L 622.828125 282.96875 L 622.746094 282.941406 L 622.664062 283.023438 L 615.203125 296.757812 L 615.246094 296.785156 Z M 603.289062 307.664062 "/>
<path style=" stroke:none;fill-rule:nonzero;fill:rgb(14.509804%,36.078431%,60%);fill-opacity:1;" d="M 603.289062 223.542969 L 603.335938 223.453125 L 603.335938 221.378906 L 603.476562 218.09375 L 603.8125 213.945312 L 604.144531 211.09375 L 605 205.992188 L 606.1875 201.066406 L 607.425781 197.261719 L 608.328125 195.015625 L 609.136719 193.285156 L 610.992188 190.089844 L 612.183594 188.445312 L 613.464844 186.976562 L 615.035156 185.507812 L 616.175781 184.640625 L 618.746094 183.257812 L 620.648438 182.65625 L 622.121094 182.394531 L 625.308594 182.394531 L 627.210938 182.742188 L 628.589844 183.171875 L 630.109375 183.863281 L 631.394531 184.640625 L 633.628906 186.542969 L 635.628906 188.964844 L 636.53125 190.347656 L 637.957031 193.027344 L 639.050781 195.621094 L 639.8125 197.867188 L 640.667969 201.066406 L 641.429688 204.957031 L 642 209.363281 L 642.285156 213.082031 L 635.628906 213.082031 L 635.296875 209.625 L 634.914062 206.945312 L 634.203125 203.398438 L 633.488281 200.894531 L 632.488281 198.386719 L 631.585938 196.746094 L 630.347656 195.101562 L 629.253906 194.066406 L 628.113281 193.285156 L 627.019531 192.769531 L 624.925781 192.25 L 622.5 192.25 L 621.597656 192.421875 L 619.742188 193.113281 L 618.746094 193.71875 L 617.316406 194.929688 L 616.320312 196.054688 L 615.128906 197.78125 L 614.320312 199.25 L 613.324219 201.5 L 612.609375 203.488281 L 611.800781 206.339844 L 611.324219 208.5 L 610.898438 210.921875 L 610.515625 213.773438 L 610.230469 216.800781 L 610.042969 219.996094 L 609.945312 223.109375 L 609.945312 236.507812 L 610.042969 239.621094 L 610.28125 243.25 L 610.898438 248.523438 L 611.800781 253.105469 L 612.847656 256.734375 L 613.847656 259.328125 L 614.417969 260.539062 L 615.179688 261.921875 L 616.367188 263.652344 L 618.078125 265.378906 L 619.078125 266.070312 L 620.597656 266.761719 L 622.167969 267.109375 L 624.261719 267.109375 L 626.117188 266.761719 L 627.351562 266.332031 L 628.636719 265.636719 L 630.398438 264.167969 L 631.492188 262.785156 L 632.441406 261.144531 L 633.15625 259.5 L 633.628906 258.117188 L 634.34375 255.4375 L 634.914062 252.5 L 635.34375 249.472656 L 635.628906 246.535156 L 642.285156 246.535156 L 642 249.992188 L 641.574219 253.363281 L 641.144531 255.871094 L 640.480469 258.894531 L 639.71875 261.574219 L 638.625 264.601562 L 637.722656 266.589844 L 636.53125 268.75 L 635.4375 270.394531 L 634.25 271.863281 L 632.488281 273.589844 L 631.347656 274.457031 L 630.109375 275.234375 L 628.636719 275.925781 L 626.78125 276.53125 L 624.785156 276.875 L 622.929688 276.960938 L 620.933594 276.789062 L 619.457031 276.445312 L 617.507812 275.664062 L 615.082031 274.109375 L 613.324219 272.46875 L 611.945312 270.824219 L 610.753906 269.097656 L 609.421875 266.761719 L 607.710938 262.957031 L 606.664062 260.019531 L 605.953125 257.597656 L 605.144531 254.226562 L 604.574219 251.203125 L 603.90625 246.363281 L 603.429688 240.226562 L 603.289062 235.46875 Z M 603.289062 223.542969 "/>
<path style=" stroke:none;fill-rule:nonzero;fill:rgb(96.862745%,70.196078%,16.862745%);fill-opacity:1;" d="M 603.289062 313.261719 L 603.335938 313.261719 L 603.335938 313.226562 L 603.527344 313.144531 L 604 313.035156 L 604.621094 312.945312 L 605.285156 312.875 L 605.714844 312.839844 L 606.425781 312.785156 L 607.046875 312.746094 L 608.613281 312.667969 L 610.613281 312.59375 L 611.707031 312.558594 L 612.941406 312.53125 L 614.703125 312.496094 L 615.511719 312.484375 L 617.984375 312.457031 L 620.789062 312.4375 L 623.882812 312.433594 L 625.308594 312.433594 L 627.257812 312.441406 L 629.921875 312.460938 L 631.441406 312.480469 L 632.632812 312.496094 L 633.867188 312.519531 L 635.390625 312.554688 L 636.816406 312.597656 L 637.957031 312.640625 L 639.101562 312.691406 L 640.050781 312.75 L 640.859375 312.8125 L 641.574219 312.886719 L 642 312.949219 L 642.285156 313.011719 L 635.675781 313.011719 L 635.296875 312.949219 L 634.867188 312.898438 L 634.152344 312.839844 L 633.441406 312.800781 L 632.726562 312.765625 L 631.394531 312.71875 L 630.253906 312.691406 L 628.828125 312.667969 L 627.449219 312.652344 L 625.878906 312.640625 L 624.925781 312.636719 L 622.40625 312.636719 L 620.125 312.648438 L 618.792969 312.664062 L 617.839844 312.675781 L 616.507812 312.703125 L 615.699219 312.726562 L 615.226562 312.738281 L 613.796875 312.792969 L 612.847656 312.84375 L 612.324219 312.878906 L 611.660156 312.929688 L 611.183594 312.976562 L 610.660156 313.046875 L 610.375 313.101562 L 609.992188 313.222656 L 609.945312 313.539062 L 610.089844 313.609375 L 610.375 313.679688 L 610.753906 313.746094 L 611.324219 313.8125 L 611.894531 313.863281 L 612.894531 313.933594 L 613.75 313.976562 L 614.417969 314.007812 L 615.699219 314.054688 L 616.222656 314.070312 L 617.460938 314.101562 L 618.746094 314.128906 L 620.3125 314.148438 L 621.503906 314.160156 L 623.40625 314.167969 L 625.832031 314.167969 L 628.683594 314.160156 L 630.492188 314.144531 L 631.726562 314.128906 L 632.535156 314.117188 L 633.535156 314.097656 L 634.25 314.082031 L 634.914062 314.0625 L 635.722656 314.03125 L 635.722656 313.609375 L 623.976562 313.605469 L 623.976562 313.40625 L 642.238281 313.40625 L 642.285156 314.097656 L 641.289062 314.144531 L 640.050781 314.191406 L 638.863281 314.226562 L 637.625 314.257812 L 635.867188 314.292969 L 634.4375 314.3125 L 632.25 314.335938 L 630.253906 314.351562 L 628.160156 314.363281 L 626.304688 314.367188 L 624.117188 314.371094 L 622.167969 314.367188 L 620.078125 314.355469 L 618.410156 314.34375 L 616.890625 314.324219 L 615.367188 314.300781 L 613.464844 314.265625 L 612.230469 314.234375 L 610.945312 314.195312 L 609.660156 314.152344 L 608.519531 314.105469 L 606.996094 314.027344 L 606.1875 313.972656 L 605.429688 313.914062 L 604.859375 313.859375 L 604.335938 313.796875 L 603.953125 313.738281 L 603.574219 313.65625 L 603.382812 313.59375 L 603.289062 313.539062 Z M 603.289062 313.261719 "/>
<path style=" stroke:none;fill-rule:nonzero;fill:rgb(83.921569%,15.686275%,22.352941%);fill-opacity:1;" d="M 603.289062 308.871094 L 642.285156 308.871094 L 642.285156 309.125 L 626.03125 309.128906 L 626.03125 311.253906 L 619.492188 311.253906 L 619.492188 309.128906 L 619.398438 309.125 L 603.289062 309.125 Z M 603.289062 308.871094 "/>
<path style=" stroke:none;fill-rule:nonzero;fill:rgb(6.27451%,58.823529%,28.235294%);fill-opacity:1;" d="M 644.339844 291.914062 L 644.378906 291.886719 L 661.253906 261.898438 L 666.378906 261.898438 L 683.335938 291.941406 L 677.378906 291.941406 L 673.128906 284.101562 L 654.503906 284.101562 L 650.339844 291.914062 L 644.339844 291.914062 L 656.296875 280.855469 L 671.421875 280.828125 L 663.878906 266.808594 L 663.796875 266.78125 L 663.714844 266.863281 L 656.253906 280.828125 L 656.296875 280.855469 Z M 644.339844 291.914062 "/>
<path style=" stroke:none;fill-rule:nonzero;fill:rgb(14.509804%,36.078431%,60%);fill-opacity:1;" d="M 644.339844 296.511719 L 644.386719 296.503906 L 644.386719 296.332031 L 644.527344 296.0625 L 644.863281 295.722656 L 645.195312 295.484375 L 646.050781 295.066406 L 647.238281 294.660156 L 648.476562 294.347656 L 649.378906 294.160156 L 650.1875 294.019531 L 652.042969 293.753906 L 653.230469 293.621094 L 654.515625 293.5 L 656.085938 293.378906 L 657.226562 293.304688 L 659.796875 293.191406 L 661.699219 293.144531 L 663.171875 293.121094 L 666.359375 293.121094 L 668.261719 293.148438 L 669.640625 293.183594 L 671.160156 293.242188 L 672.445312 293.304688 L 674.679688 293.464844 L 676.679688 293.664062 L 677.582031 293.777344 L 679.007812 293.996094 L 680.101562 294.210938 L 680.863281 294.394531 L 681.71875 294.660156 L 682.480469 294.980469 L 683.050781 295.34375 L 683.335938 295.648438 L 676.679688 295.648438 L 676.347656 295.363281 L 675.964844 295.144531 L 675.253906 294.851562 L 674.539062 294.644531 L 673.539062 294.4375 L 672.636719 294.304688 L 671.398438 294.167969 L 670.304688 294.082031 L 669.164062 294.019531 L 668.070312 293.976562 L 665.976562 293.933594 L 663.550781 293.933594 L 662.648438 293.949219 L 660.792969 294.003906 L 659.796875 294.054688 L 658.367188 294.152344 L 657.371094 294.246094 L 656.179688 294.390625 L 655.371094 294.511719 L 654.375 294.695312 L 653.660156 294.859375 L 652.851562 295.09375 L 652.375 295.273438 L 651.949219 295.472656 L 651.566406 295.707031 L 651.28125 295.957031 L 651.09375 296.21875 L 650.996094 296.476562 L 650.996094 297.578125 L 651.09375 297.835938 L 651.328125 298.136719 L 651.949219 298.570312 L 652.851562 298.949219 L 653.898438 299.246094 L 654.898438 299.460938 L 655.46875 299.558594 L 656.230469 299.675781 L 657.417969 299.816406 L 659.128906 299.957031 L 660.128906 300.015625 L 661.648438 300.074219 L 663.21875 300.101562 L 665.3125 300.101562 L 667.167969 300.074219 L 668.402344 300.039062 L 669.6875 299.980469 L 671.449219 299.859375 L 672.542969 299.746094 L 673.492188 299.609375 L 674.207031 299.472656 L 674.679688 299.359375 L 675.394531 299.140625 L 675.964844 298.898438 L 676.394531 298.648438 L 676.679688 298.40625 L 683.335938 298.40625 L 683.050781 298.691406 L 682.625 298.96875 L 682.195312 299.175781 L 681.53125 299.425781 L 680.769531 299.644531 L 679.675781 299.894531 L 678.769531 300.058594 L 677.582031 300.238281 L 676.488281 300.371094 L 675.300781 300.492188 L 673.539062 300.636719 L 672.398438 300.707031 L 671.160156 300.769531 L 669.6875 300.828125 L 667.832031 300.878906 L 665.835938 300.90625 L 663.980469 300.914062 L 661.984375 300.898438 L 660.507812 300.871094 L 658.558594 300.804688 L 656.132812 300.679688 L 654.375 300.542969 L 652.996094 300.40625 L 651.804688 300.265625 L 650.472656 300.074219 L 648.761719 299.757812 L 647.714844 299.515625 L 647.003906 299.316406 L 646.195312 299.039062 L 645.621094 298.789062 L 644.957031 298.390625 L 644.480469 297.886719 L 644.339844 297.496094 Z M 644.339844 296.511719 "/>
<path style=" stroke:none;fill-rule:nonzero;fill:rgb(96.862745%,70.196078%,16.862745%);fill-opacity:1;" d="M 644.339844 304.699219 L 644.386719 304.695312 L 644.386719 304.582031 L 644.578125 304.332031 L 645.050781 303.988281 L 645.671875 303.703125 L 646.335938 303.484375 L 646.765625 303.367188 L 647.476562 303.199219 L 648.097656 303.078125 L 649.664062 302.828125 L 651.664062 302.59375 L 652.757812 302.492188 L 653.992188 302.398438 L 655.753906 302.292969 L 656.5625 302.253906 L 659.035156 302.164062 L 661.839844 302.109375 L 664.933594 302.09375 L 666.359375 302.097656 L 668.308594 302.121094 L 670.972656 302.183594 L 672.492188 302.238281 L 673.683594 302.292969 L 674.917969 302.367188 L 676.441406 302.476562 L 677.867188 302.609375 L 679.007812 302.742188 L 680.152344 302.910156 L 681.101562 303.089844 L 681.910156 303.28125 L 682.625 303.515625 L 683.050781 303.710938 L 683.335938 303.90625 L 676.726562 303.90625 L 676.347656 303.710938 L 675.917969 303.558594 L 675.203125 303.378906 L 674.492188 303.242188 L 673.777344 303.136719 L 672.445312 302.992188 L 671.304688 302.90625 L 669.878906 302.828125 L 668.5 302.777344 L 666.929688 302.742188 L 665.976562 302.730469 L 663.457031 302.730469 L 661.175781 302.769531 L 659.84375 302.816406 L 658.890625 302.859375 L 657.558594 302.945312 L 656.75 303.011719 L 656.277344 303.054688 L 654.847656 303.226562 L 653.898438 303.382812 L 653.375 303.488281 L 652.710938 303.65625 L 652.234375 303.804688 L 651.710938 304.027344 L 651.425781 304.195312 L 651.042969 304.574219 L 650.996094 305.574219 L 651.140625 305.785156 L 651.425781 306.011719 L 651.804688 306.210938 L 652.375 306.421875 L 652.945312 306.585938 L 653.945312 306.800781 L 654.800781 306.945312 L 655.46875 307.039062 L 656.75 307.191406 L 657.273438 307.242188 L 658.511719 307.339844 L 659.796875 307.417969 L 661.363281 307.484375 L 662.554688 307.519531 L 664.457031 307.546875 L 666.882812 307.546875 L 669.734375 307.511719 L 671.542969 307.46875 L 672.777344 307.425781 L 673.585938 307.386719 L 674.585938 307.324219 L 675.300781 307.269531 L 675.964844 307.207031 L 676.773438 307.113281 L 676.773438 305.785156 L 665.027344 305.777344 L 665.027344 305.15625 L 683.289062 305.152344 L 683.335938 307.324219 L 682.339844 307.472656 L 681.101562 307.617188 L 679.914062 307.730469 L 678.675781 307.824219 L 676.917969 307.929688 L 675.488281 307.996094 L 673.300781 308.074219 L 671.304688 308.125 L 669.210938 308.15625 L 667.355469 308.175781 L 665.167969 308.179688 L 663.21875 308.167969 L 661.128906 308.136719 L 659.460938 308.089844 L 657.941406 308.035156 L 656.417969 307.964844 L 654.515625 307.847656 L 653.28125 307.753906 L 651.996094 307.636719 L 650.710938 307.496094 L 649.570312 307.347656 L 648.808594 307.230469 L 648.046875 307.097656 L 647.238281 306.929688 L 646.480469 306.742188 L 645.910156 306.566406 L 645.386719 306.375 L 645.003906 306.191406 L 644.625 305.941406 L 644.433594 305.738281 L 644.339844 305.566406 Z M 644.339844 304.699219 "/>
<path style=" stroke:none;fill-rule:nonzero;fill:rgb(83.921569%,15.686275%,22.352941%);fill-opacity:1;" d="M 644.339844 309.359375 L 683.335938 309.359375 L 683.335938 309.894531 L 667.082031 309.902344 L 667.082031 314.371094 L 660.542969 314.371094 L 660.542969 309.90625 L 660.449219 309.894531 L 644.339844 309.894531 Z M 644.339844 309.359375 "/>
<g style="fill:rgb(0%,0%,0%);fill-opacity:1;">
  <use xlink:href="#glyph0-1" x="21.957031" y="318.198242"/>
  <use xlink:href="#glyph0-2" x="27.291016" y="318.198242"/>
  <use xlink:href="#glyph0-1" x="29.958008" y="318.198242"/>
</g>
<g style="fill:rgb(0%,0%,0%);fill-opacity:1;">
  <use xlink:href="#glyph0-1" x="21.957031" y="244.475586"/>
  <use xlink:href="#glyph0-2" x="27.291016" y="244.475586"/>
  <use xlink:href="#glyph0-3" x="29.958008" y="244.475586"/>
</g>
<g style="fill:rgb(0%,0%,0%);fill-opacity:1;">
  <use xlink:href="#glyph0-4" x="21.957031" y="170.75293"/>
  <use xlink:href="#glyph0-2" x="27.291016" y="170.75293"/>
  <use xlink:href="#glyph0-1" x="29.958008" y="170.75293"/>
</g>
<g style="fill:rgb(0%,0%,0%);fill-opacity:1;">
  <use xlink:href="#glyph0-4" x="21.957031" y="97.03418"/>
  <use xlink:href="#glyph0-2" x="27.291016" y="97.03418"/>
  <use xlink:href="#glyph0-3" x="29.958008" y="97.03418"/>
</g>
<g style="fill:rgb(0%,0%,0%);fill-opacity:1;">
  <use xlink:href="#glyph0-5" x="21.957031" y="23.311523"/>
  <use xlink:href="#glyph0-2" x="27.291016" y="23.311523"/>
  <use xlink:href="#glyph0-1" x="29.958008" y="23.311523"/>
</g>
<g style="fill:rgb(0%,0%,0%);fill-opacity:1;">
  <use xlink:href="#glyph0-4" x="86.128906" y="338.19043"/>
</g>
<g style="fill:rgb(0%,0%,0%);fill-opacity:1;">
  <use xlink:href="#glyph0-5" x="127.179688" y="338.19043"/>
</g>
<g style="fill:rgb(0%,0%,0%);fill-opacity:1;">
  <use xlink:href="#glyph0-6" x="168.230469" y="338.19043"/>
</g>
<g style="fill:rgb(0%,0%,0%);fill-opacity:1;">
  <use xlink:href="#glyph0-7" x="209.28125" y="338.19043"/>
</g>
<g style="fill:rgb(0%,0%,0%);fill-opacity:1;">
  <use xlink:href="#glyph0-3" x="250.332031" y="338.19043"/>
</g>
<g style="fill:rgb(0%,0%,0%);fill-opacity:1;">
  <use xlink:href="#glyph0-8" x="291.382812" y="338.19043"/>
</g>
<g style="fill:rgb(0%,0%,0%);fill-opacity:1;">
  <use xlink:href="#glyph0-9" x="332.433594" y="338.19043"/>
</g>
<g style="fill:rgb(0%,0%,0%);fill-opacity:1;">
  <use xlink:href="#glyph0-10" x="373.484375" y="338.19043"/>
</g>
<g style="fill:rgb(0%,0%,0%);fill-opacity:1;">
  <use xlink:href="#glyph0-11" x="414.535156" y="338.19043"/>
</g>
<g style="fill:rgb(0%,0%,0%);fill-opacity:1;">
  <use xlink:href="#glyph0-4" x="453.085938" y="338.19043"/>
  <use xlink:href="#glyph0-1" x="458.419922" y="338.19043"/>
</g>
<g style="fill:rgb(0%,0%,0%);fill-opacity:1;">
  <use xlink:href="#glyph0-4" x="494.136719" y="338.19043"/>
  <use xlink:href="#glyph0-4" x="499.470703" y="338.19043"/>
</g>
<g style="fill:rgb(0%,0%,0%);fill-opacity:1;">
  <use xlink:href="#glyph0-4" x="535.1875" y="338.19043"/>
  <use xlink:href="#glyph0-5" x="540.521484" y="338.19043"/>
</g>
<g style="fill:rgb(0%,0%,0%);fill-opacity:1;">
  <use xlink:href="#glyph0-4" x="576.238281" y="338.19043"/>
  <use xlink:href="#glyph0-6" x="581.572266" y="338.19043"/>
</g>
<g style="fill:rgb(0%,0%,0%);fill-opacity:1;">
  <use xlink:href="#glyph0-4" x="617.289062" y="338.19043"/>
  <use xlink:href="#glyph0-7" x="622.623047" y="338.19043"/>
</g>
<g style="fill:rgb(0%,0%,0%);fill-opacity:1;">
  <use xlink:href="#glyph0-4" x="658.339844" y="338.19043"/>
  <use xlink:href="#glyph0-3" x="663.673828" y="338.19043"/>
</g>
<g style="fill:rgb(0%,0%,0%);fill-opacity:1;">
  <use xlink:href="#glyph1-1" x="14.412109" y="178.015625"/>
  <use xlink:href="#glyph1-2" x="14.412109" y="170.011719"/>
  <use xlink:href="#glyph1-3" x="14.412109" y="167.347656"/>
  <use xlink:href="#glyph1-4" x="14.412109" y="164.011719"/>
</g>
</g>
</svg>
