<?xml version="1.0" encoding="UTF-8"?>
<svg xmlns="http://www.w3.org/2000/svg" xmlns:xlink="http://www.w3.org/1999/xlink" width="720pt" height="360pt" viewBox="0 0 720 360" version="1.1">
<defs>
<g>
<symbol overflow="visible" id="glyph0-0">
<path style="stroke:none;" d=""/>
</symbol>
<symbol overflow="visible" id="glyph0-1">
<path style="stroke:none;" d="M 2.640625 -6.796875 C 2 -6.796875 1.421875 -6.53125 1.078125 -6.046875 C 0.640625 -5.453125 0.40625 -4.546875 0.40625 -3.296875 C 0.40625 -1 1.1875 0.21875 2.640625 0.21875 C 4.078125 0.21875 4.859375 -1 4.859375 -3.234375 C 4.859375 -4.5625 4.65625 -5.4375 4.203125 -6.046875 C 3.84375 -6.53125 3.28125 -6.796875 2.640625 -6.796875 Z M 2.640625 -6.046875 C 3.546875 -6.046875 4 -5.125 4 -3.3125 C 4 -1.375 3.5625 -0.484375 2.625 -0.484375 C 1.734375 -0.484375 1.28125 -1.421875 1.28125 -3.28125 C 1.28125 -5.140625 1.734375 -6.046875 2.640625 -6.046875 Z M 2.640625 -6.046875 "/>
</symbol>
<symbol overflow="visible" id="glyph0-2">
<path style="stroke:none;" d="M 1.828125 -1 L 0.828125 -1 L 0.828125 0 L 1.828125 0 Z M 1.828125 -1 "/>
</symbol>
<symbol overflow="visible" id="glyph0-3">
<path style="stroke:none;" d="M 4.5625 -6.796875 L 1.0625 -6.796875 L 0.546875 -3.09375 L 1.328125 -3.09375 C 1.71875 -3.5625 2.046875 -3.734375 2.578125 -3.734375 C 3.484375 -3.734375 4.0625 -3.109375 4.0625 -2.09375 C 4.0625 -1.125 3.484375 -0.53125 2.578125 -0.53125 C 1.828125 -0.53125 1.375 -0.90625 1.1875 -1.671875 L 0.328125 -1.671875 C 0.453125 -1.109375 0.546875 -0.84375 0.75 -0.59375 C 1.125 -0.078125 1.828125 0.21875 2.59375 0.21875 C 3.96875 0.21875 4.921875 -0.78125 4.921875 -2.21875 C 4.921875 -3.5625 4.03125 -4.484375 2.71875 -4.484375 C 2.25 -4.484375 1.859375 -4.359375 1.46875 -4.0625 L 1.734375 -5.96875 L 4.5625 -5.96875 Z M 4.5625 -6.796875 "/>
</symbol>
<symbol overflow="visible" id="glyph0-4">
<path style="stroke:none;" d="M 2.484375 -4.84375 L 2.484375 0 L 3.328125 0 L 3.328125 -6.796875 L 2.765625 -6.796875 C 2.46875 -5.75 2.28125 -5.609375 0.984375 -5.453125 L 0.984375 -4.84375 Z M 2.484375 -4.84375 "/>
</symbol>
<symbol overflow="visible" id="glyph0-5">
<path style="stroke:none;" d="M 4.859375 -0.828125 L 1.28125 -0.828125 C 1.359375 -1.390625 1.671875 -1.75 2.5 -2.234375 L 3.46875 -2.75 C 4.40625 -3.265625 4.90625 -3.96875 4.90625 -4.8125 C 4.90625 -5.375 4.671875 -5.90625 4.265625 -6.265625 C 3.859375 -6.625 3.375 -6.796875 2.71875 -6.796875 C 1.859375 -6.796875 1.21875 -6.5 0.84375 -5.921875 C 0.609375 -5.5625 0.5 -5.125 0.484375 -4.4375 L 1.328125 -4.4375 C 1.359375 -4.90625 1.40625 -5.1875 1.53125 -5.40625 C 1.75 -5.8125 2.1875 -6.0625 2.703125 -6.0625 C 3.46875 -6.0625 4.03125 -5.515625 4.03125 -4.78125 C 4.03125 -4.25 3.71875 -3.796875 3.125 -3.4375 L 2.234375 -2.9375 C 0.8125 -2.140625 0.40625 -1.5 0.328125 0 L 4.859375 0 Z M 4.859375 -0.828125 "/>
</symbol>
<symbol overflow="visible" id="glyph0-6">
<path style="stroke:none;" d="M 2.125 -3.125 L 2.578125 -3.125 C 3.515625 -3.125 3.984375 -2.703125 3.984375 -1.890625 C 3.984375 -1.03125 3.46875 -0.53125 2.578125 -0.53125 C 1.65625 -0.53125 1.203125 -0.984375 1.15625 -1.96875 L 0.3125 -1.96875 C 0.34375 -1.421875 0.4375 -1.078125 0.609375 -0.765625 C 0.953125 -0.109375 1.625 0.21875 2.546875 0.21875 C 3.953125 0.21875 4.859375 -0.609375 4.859375 -1.90625 C 4.859375 -2.765625 4.515625 -3.25 3.703125 -3.515625 C 4.34375 -3.765625 4.65625 -4.25 4.65625 -4.9375 C 4.65625 -6.109375 3.875 -6.796875 2.578125 -6.796875 C 1.203125 -6.796875 0.484375 -6.046875 0.453125 -4.609375 L 1.296875 -4.609375 C 1.3125 -5.015625 1.34375 -5.25 1.453125 -5.453125 C 1.640625 -5.828125 2.0625 -6.0625 2.59375 -6.0625 C 3.34375 -6.0625 3.796875 -5.625 3.796875 -4.90625 C 3.796875 -4.421875 3.609375 -4.140625 3.25 -3.984375 C 3.015625 -3.890625 2.71875 -3.84375 2.125 -3.84375 Z M 2.125 -3.125 "/>
</symbol>
<symbol overflow="visible" id="glyph0-7">
<path style="stroke:none;" d="M 3.140625 -1.625 L 3.140625 0 L 3.984375 0 L 3.984375 -1.625 L 4.984375 -1.625 L 4.984375 -2.390625 L 3.984375 -2.390625 L 3.984375 -6.796875 L 3.359375 -6.796875 L 0.265625 -2.515625 L 0.265625 -1.625 Z M 3.140625 -2.390625 L 1 -2.390625 L 3.140625 -5.359375 Z M 3.140625 -2.390625 "/>
</symbol>
<symbol overflow="visible" id="glyph0-8">
<path style="stroke:none;" d="M 4.78125 -5.03125 C 4.609375 -6.140625 3.890625 -6.796875 2.84375 -6.796875 C 2.09375 -6.796875 1.421875 -6.4375 1.03125 -5.828125 C 0.609375 -5.171875 0.40625 -4.34375 0.40625 -3.09375 C 0.40625 -1.953125 0.578125 -1.234375 0.984375 -0.625 C 1.359375 -0.078125 1.953125 0.21875 2.703125 0.21875 C 3.984375 0.21875 4.921875 -0.734375 4.921875 -2.078125 C 4.921875 -3.34375 4.0625 -4.234375 2.84375 -4.234375 C 2.171875 -4.234375 1.640625 -3.96875 1.28125 -3.46875 C 1.28125 -5.125 1.828125 -6.046875 2.796875 -6.046875 C 3.390625 -6.046875 3.796875 -5.671875 3.9375 -5.03125 Z M 2.734375 -3.484375 C 3.546875 -3.484375 4.0625 -2.921875 4.0625 -2 C 4.0625 -1.15625 3.484375 -0.53125 2.703125 -0.53125 C 1.921875 -0.53125 1.328125 -1.1875 1.328125 -2.046875 C 1.328125 -2.890625 1.90625 -3.484375 2.734375 -3.484375 Z M 2.734375 -3.484375 "/>
</symbol>
<symbol overflow="visible" id="glyph0-9">
<path style="stroke:none;" d="M 4.984375 -6.796875 L 0.4375 -6.796875 L 0.4375 -5.96875 L 4.109375 -5.96875 C 2.5 -3.65625 1.828125 -2.234375 1.328125 0 L 2.21875 0 C 2.59375 -2.171875 3.453125 -4.046875 4.984375 -6.09375 Z M 4.984375 -6.796875 "/>
</symbol>
<symbol overflow="visible" id="glyph0-10">
<path style="stroke:none;" d="M 3.75 -3.578125 C 4.453125 -4 4.6875 -4.34375 4.6875 -4.984375 C 4.6875 -6.046875 3.84375 -6.796875 2.640625 -6.796875 C 1.4375 -6.796875 0.59375 -6.046875 0.59375 -4.984375 C 0.59375 -4.359375 0.828125 -4.015625 1.515625 -3.578125 C 0.734375 -3.203125 0.359375 -2.640625 0.359375 -1.890625 C 0.359375 -0.640625 1.296875 0.21875 2.640625 0.21875 C 3.984375 0.21875 4.921875 -0.640625 4.921875 -1.875 C 4.921875 -2.640625 4.53125 -3.203125 3.75 -3.578125 Z M 2.640625 -6.046875 C 3.359375 -6.046875 3.8125 -5.625 3.8125 -4.96875 C 3.8125 -4.34375 3.34375 -3.921875 2.640625 -3.921875 C 1.921875 -3.921875 1.453125 -4.34375 1.453125 -4.984375 C 1.453125 -5.625 1.921875 -6.046875 2.640625 -6.046875 Z M 2.640625 -3.203125 C 3.484375 -3.203125 4.0625 -2.671875 4.0625 -1.875 C 4.0625 -1.0625 3.484375 -0.53125 2.625 -0.53125 C 1.796875 -0.53125 1.21875 -1.078125 1.21875 -1.875 C 1.21875 -2.671875 1.796875 -3.203125 2.640625 -3.203125 Z M 2.640625 -3.203125 "/>
</symbol>
<symbol overflow="visible" id="glyph0-11">
<path style="stroke:none;" d="M 0.515625 -1.546875 C 0.671875 -0.4375 1.40625 0.21875 2.4375 0.21875 C 3.1875 0.21875 3.859375 -0.140625 4.265625 -0.75 C 4.6875 -1.40625 4.890625 -2.25 4.890625 -3.484375 C 4.890625 -4.625 4.703125 -5.359375 4.3125 -5.953125 C 3.9375 -6.5 3.34375 -6.796875 2.59375 -6.796875 C 1.296875 -6.796875 0.359375 -5.84375 0.359375 -4.515625 C 0.359375 -3.25 1.234375 -2.34375 2.453125 -2.34375 C 3.09375 -2.34375 3.5625 -2.578125 4.015625 -3.109375 C 4 -1.453125 3.46875 -0.53125 2.5 -0.53125 C 1.90625 -0.53125 1.484375 -0.90625 1.359375 -1.546875 Z M 2.578125 -6.0625 C 3.375 -6.0625 3.96875 -5.40625 3.96875 -4.53125 C 3.96875 -3.6875 3.375 -3.09375 2.546875 -3.09375 C 1.734375 -3.09375 1.234375 -3.671875 1.234375 -4.578125 C 1.234375 -5.4375 1.796875 -6.0625 2.578125 -6.0625 Z M 2.578125 -6.0625 "/>
</symbol>
<symbol overflow="visible" id="glyph1-0">
<path style="stroke:none;" d=""/>
</symbol>
<symbol overflow="visible" id="glyph1-1">
<path style="stroke:none;" d="M 0 -0.953125 L 0 -4.890625 C 0 -5.71875 -0.234375 -6.34375 -0.734375 -6.796875 C -1.1875 -7.234375 -1.8125 -7.46875 -2.5 -7.46875 C -3.546875 -7.46875 -4.1875 -7 -4.625 -5.875 C -4.984375 -6.671875 -5.640625 -7.09375 -6.53125 -7.09375 C -7.15625 -7.09375 -7.734375 -6.859375 -8.140625 -6.390625 C -8.5625 -5.9375 -8.75 -5.34375 -8.75 -4.5 L -8.75 -0.953125 Z M -4.984375 -2.0625 L -7.765625 -2.0625 L -7.765625 -4.21875 C -7.765625 -4.84375 -7.6875 -5.203125 -7.453125 -5.5 C -7.21875 -5.8125 -6.859375 -5.96875 -6.375 -5.96875 C -5.90625 -5.96875 -5.53125 -5.8125 -5.296875 -5.5 C -5.0625 -5.203125 -4.984375 -4.84375 -4.984375 -4.21875 Z M -0.984375 -2.0625 L -4 -2.0625 L -4 -4.78125 C -4 -5.328125 -3.859375 -5.6875 -3.578125 -5.953125 C -3.296875 -6.21875 -2.921875 -6.359375 -2.484375 -6.359375 C -2.0625 -6.359375 -1.6875 -6.21875 -1.40625 -5.953125 C -1.109375 -5.6875 -0.984375 -5.328125 -0.984375 -4.78125 Z M -0.984375 -2.0625 "/>
</symbol>
<symbol overflow="visible" id="glyph1-2">
<path style="stroke:none;" d="M -6.28125 -1.796875 L -6.28125 -0.796875 L 0 -0.796875 L 0 -1.796875 Z M -8.75 -1.796875 L -8.75 -0.796875 L -7.484375 -0.796875 L -7.484375 -1.796875 Z M -8.75 -1.796875 "/>
</symbol>
<symbol overflow="visible" id="glyph1-3">
<path style="stroke:none;" d="M -6.28125 -3.046875 L -6.28125 -2.015625 L -8.015625 -2.015625 L -8.015625 -1.015625 L -6.28125 -1.015625 L -6.28125 -0.171875 L -5.46875 -0.171875 L -5.46875 -1.015625 L -0.71875 -1.015625 C -0.078125 -1.015625 0.28125 -1.453125 0.28125 -2.234375 C 0.28125 -2.46875 0.25 -2.71875 0.1875 -3.046875 L -0.640625 -3.046875 C -0.609375 -2.921875 -0.59375 -2.765625 -0.59375 -2.5625 C -0.59375 -2.140625 -0.71875 -2.015625 -1.15625 -2.015625 L -5.46875 -2.015625 L -5.46875 -3.046875 Z M -6.28125 -3.046875 "/>
</symbol>
<symbol overflow="visible" id="glyph1-4">
<path style="stroke:none;" d="M -4.53125 -5.25 C -5.765625 -5.25 -6.46875 -4.421875 -6.46875 -2.96875 C -6.46875 -1.515625 -5.71875 -0.5625 -4.546875 -0.5625 C -3.5625 -0.5625 -3.09375 -1.0625 -2.734375 -2.5625 L -2.515625 -3.484375 C -2.34375 -4.1875 -2.09375 -4.46875 -1.625 -4.46875 C -1.046875 -4.46875 -0.640625 -3.875 -0.640625 -3 C -0.640625 -2.453125 -0.796875 -2 -1.0625 -1.75 C -1.25 -1.59375 -1.421875 -1.53125 -1.875 -1.46875 L -1.875 -0.40625 C -0.421875 -0.453125 0.28125 -1.265625 0.28125 -2.921875 C 0.28125 -4.5 -0.5 -5.515625 -1.71875 -5.515625 C -2.65625 -5.515625 -3.171875 -4.984375 -3.46875 -3.734375 L -3.703125 -2.765625 C -3.890625 -1.953125 -4.15625 -1.609375 -4.59375 -1.609375 C -5.171875 -1.609375 -5.546875 -2.125 -5.546875 -2.9375 C -5.546875 -3.75 -5.203125 -4.171875 -4.53125 -4.203125 Z M -4.53125 -5.25 "/>
</symbol>
</g>
</defs>
<g id="surface128788">
<rect x="0" y="0" width="720" height="360" style="fill:rgb(100%,100%,100%);fill-opacity:1;stroke:none;"/>
<path style=" stroke:none;fill-rule:nonzero;fill:rgb(6.27451%,58.823529%,28.235294%);fill-opacity:1;" d="M 69.628906 312.140625 L 69.691406 312.140625 L 95.046875 310.539062 L 102.746094 310.539062 L 128.222656 312.144531 L 119.273438 312.144531 L 112.886719 311.726562 L 84.902344 311.726562 L 78.644531 312.140625 L 69.628906 312.140625 L 87.597656 311.550781 L 110.320312 311.550781 L 98.988281 310.804688 L 98.863281 310.800781 L 98.738281 310.804688 L 87.535156 311.550781 L 87.597656 311.550781 Z M 69.628906 312.140625 "/>
<path style=" stroke:none;fill-rule:nonzero;fill:rgb(14.509804%,36.078431%,60%);fill-opacity:1;" d="M 69.628906 283.496094 L 69.699219 283.457031 L 69.699219 282.449219 L 69.914062 280.859375 L 70.414062 278.851562 L 70.914062 277.46875 L 72.203125 275 L 73.988281 272.617188 L 75.847656 270.773438 L 77.203125 269.6875 L 78.417969 268.847656 L 81.207031 267.300781 L 82.992188 266.503906 L 84.921875 265.792969 L 87.28125 265.082031 L 88.996094 264.664062 L 92.851562 263.992188 L 95.710938 263.699219 L 97.925781 263.574219 L 102.714844 263.574219 L 105.574219 263.742188 L 107.644531 263.953125 L 109.929688 264.285156 L 111.859375 264.664062 L 115.21875 265.585938 L 118.21875 266.757812 L 119.578125 267.425781 L 121.722656 268.722656 L 123.367188 269.980469 L 124.507812 271.066406 L 125.796875 272.617188 L 126.9375 274.5 L 127.796875 276.632812 L 128.222656 278.433594 L 118.21875 278.433594 L 117.71875 276.757812 L 117.148438 275.460938 L 116.078125 273.746094 L 115.003906 272.53125 L 113.503906 271.316406 L 112.148438 270.523438 L 110.289062 269.726562 L 108.644531 269.226562 L 106.929688 268.847656 L 105.285156 268.597656 L 102.140625 268.347656 L 98.5 268.347656 L 97.140625 268.429688 L 94.355469 268.765625 L 92.851562 269.058594 L 90.710938 269.644531 L 89.207031 270.1875 L 87.421875 271.023438 L 86.207031 271.738281 L 84.707031 272.824219 L 83.636719 273.789062 L 82.421875 275.167969 L 81.707031 276.214844 L 81.0625 277.386719 L 80.492188 278.769531 L 80.0625 280.234375 L 79.777344 281.78125 L 79.632812 283.289062 L 79.632812 289.773438 L 79.777344 291.28125 L 80.132812 293.039062 L 81.0625 295.59375 L 82.421875 297.808594 L 83.992188 299.566406 L 85.492188 300.824219 L 86.351562 301.410156 L 87.492188 302.078125 L 89.28125 302.917969 L 91.851562 303.753906 L 93.351562 304.089844 L 95.640625 304.421875 L 97.996094 304.589844 L 101.140625 304.589844 L 103.929688 304.421875 L 105.785156 304.214844 L 107.714844 303.878906 L 110.359375 303.167969 L 112.003906 302.496094 L 113.433594 301.703125 L 114.503906 300.90625 L 115.21875 300.238281 L 116.292969 298.941406 L 117.148438 297.515625 L 117.792969 296.050781 L 118.21875 294.628906 L 128.222656 294.628906 L 127.796875 296.304688 L 127.152344 297.9375 L 126.507812 299.148438 L 125.507812 300.613281 L 124.367188 301.910156 L 122.722656 303.375 L 121.363281 304.339844 L 119.578125 305.386719 L 117.933594 306.179688 L 116.148438 306.890625 L 113.503906 307.730469 L 111.789062 308.148438 L 109.929688 308.523438 L 107.714844 308.859375 L 104.929688 309.152344 L 101.929688 309.320312 L 99.140625 309.363281 L 96.140625 309.277344 L 93.925781 309.109375 L 90.996094 308.734375 L 87.351562 307.980469 L 84.707031 307.183594 L 82.632812 306.390625 L 80.847656 305.554688 L 78.847656 304.421875 L 76.273438 302.582031 L 74.703125 301.160156 L 73.632812 299.988281 L 72.417969 298.355469 L 71.558594 296.890625 L 70.558594 294.546875 L 69.84375 291.574219 L 69.628906 289.273438 Z M 69.628906 283.496094 "/>
<path style=" stroke:none;fill-rule:nonzero;fill:rgb(96.862745%,70.196078%,16.862745%);fill-opacity:1;" d="M 69.628906 313.773438 L 69.699219 313.769531 L 69.699219 313.75 L 69.988281 313.707031 L 70.703125 313.648438 L 71.628906 313.601562 L 72.628906 313.5625 L 73.273438 313.542969 L 74.34375 313.511719 L 75.273438 313.492188 L 77.632812 313.449219 L 80.632812 313.410156 L 82.277344 313.390625 L 84.136719 313.375 L 86.777344 313.355469 L 87.992188 313.351562 L 91.710938 313.335938 L 95.925781 313.324219 L 102.714844 313.324219 L 105.644531 313.328125 L 109.644531 313.339844 L 111.933594 313.347656 L 113.71875 313.355469 L 115.578125 313.371094 L 117.863281 313.390625 L 120.007812 313.410156 L 121.722656 313.433594 L 123.4375 313.464844 L 124.867188 313.496094 L 126.082031 313.527344 L 127.152344 313.566406 L 127.796875 313.601562 L 128.222656 313.636719 L 118.292969 313.636719 L 117.71875 313.601562 L 117.078125 313.574219 L 116.003906 313.542969 L 114.933594 313.519531 L 113.863281 313.503906 L 111.859375 313.476562 L 110.144531 313.460938 L 108.003906 313.449219 L 105.929688 313.441406 L 103.570312 313.433594 L 98.355469 313.433594 L 94.925781 313.441406 L 92.925781 313.449219 L 91.496094 313.453125 L 89.496094 313.46875 L 88.28125 313.480469 L 87.566406 313.488281 L 85.421875 313.519531 L 83.992188 313.546875 L 83.207031 313.5625 L 82.207031 313.59375 L 81.492188 313.617188 L 80.707031 313.65625 L 80.277344 313.683594 L 79.703125 313.75 L 79.632812 313.921875 L 79.847656 313.957031 L 80.277344 313.996094 L 80.847656 314.03125 L 81.707031 314.066406 L 82.5625 314.097656 L 84.0625 314.132812 L 85.351562 314.160156 L 86.351562 314.175781 L 88.28125 314.199219 L 89.066406 314.207031 L 90.921875 314.226562 L 92.851562 314.238281 L 95.210938 314.25 L 96.996094 314.257812 L 99.855469 314.261719 L 103.5 314.261719 L 107.789062 314.253906 L 110.503906 314.25 L 112.359375 314.242188 L 113.574219 314.234375 L 115.078125 314.222656 L 116.148438 314.214844 L 117.148438 314.203125 L 118.363281 314.1875 L 118.363281 313.957031 L 100.714844 313.957031 L 100.714844 313.851562 L 128.152344 313.847656 L 128.222656 314.222656 L 126.722656 314.25 L 124.867188 314.273438 L 123.078125 314.292969 L 121.222656 314.308594 L 118.578125 314.328125 L 116.433594 314.339844 L 113.148438 314.351562 L 110.144531 314.359375 L 107 314.367188 L 104.214844 314.371094 L 100.929688 314.371094 L 97.996094 314.367188 L 94.855469 314.363281 L 92.351562 314.355469 L 90.066406 314.347656 L 87.78125 314.332031 L 84.921875 314.3125 L 83.0625 314.296875 L 81.132812 314.277344 L 79.203125 314.253906 L 77.488281 314.226562 L 76.347656 314.207031 L 75.203125 314.183594 L 73.988281 314.15625 L 72.84375 314.121094 L 71.988281 314.09375 L 71.203125 314.058594 L 70.628906 314.027344 L 70.058594 313.984375 L 69.773438 313.949219 L 69.628906 313.921875 Z M 69.628906 313.773438 "/>
<path style=" stroke:none;fill-rule:nonzero;fill:rgb(83.921569%,15.686275%,22.352941%);fill-opacity:1;" d="M 69.628906 199.246094 L 128.222656 199.246094 L 128.222656 206.003906 L 103.804688 206.0625 L 103.804688 262.394531 L 93.980469 262.394531 L 93.980469 206.125 L 93.835938 206.003906 L 69.628906 206.003906 Z M 69.628906 199.246094 "/>
<path style=" stroke:none;fill-rule:nonzero;fill:rgb(6.27451%,58.823529%,28.235294%);fill-opacity:1;" d="M 131.308594 282.621094 L 131.371094 282.484375 L 156.726562 137.394531 L 164.425781 137.394531 L 189.902344 282.757812 L 180.953125 282.757812 L 174.566406 244.8125 L 146.582031 244.8125 L 140.324219 282.621094 L 131.308594 282.621094 L 149.273438 229.117188 L 172 228.980469 L 160.667969 161.144531 L 160.542969 161.007812 L 160.417969 161.417969 L 149.210938 228.980469 L 149.273438 229.117188 Z M 131.308594 282.621094 "/>
<path style=" stroke:none;fill-rule:nonzero;fill:rgb(14.509804%,36.078431%,60%);fill-opacity:1;" d="M 131.308594 310.617188 L 131.378906 310.613281 L 131.378906 310.507812 L 131.59375 310.347656 L 132.09375 310.140625 L 132.59375 310 L 133.882812 309.746094 L 135.667969 309.5 L 137.523438 309.3125 L 138.882812 309.199219 L 140.097656 309.113281 L 142.882812 308.957031 L 144.671875 308.875 L 146.601562 308.800781 L 148.957031 308.726562 L 150.671875 308.683594 L 154.53125 308.617188 L 157.390625 308.585938 L 159.605469 308.574219 L 164.394531 308.574219 L 167.25 308.589844 L 169.324219 308.613281 L 171.609375 308.648438 L 173.539062 308.683594 L 176.898438 308.78125 L 179.898438 308.898438 L 181.257812 308.96875 L 183.402344 309.101562 L 185.042969 309.230469 L 186.1875 309.34375 L 187.472656 309.5 L 188.617188 309.695312 L 189.476562 309.914062 L 189.902344 310.097656 L 179.898438 310.097656 L 179.398438 309.925781 L 178.828125 309.792969 L 177.757812 309.617188 L 176.683594 309.492188 L 175.183594 309.367188 L 173.824219 309.285156 L 171.96875 309.203125 L 170.324219 309.152344 L 168.609375 309.113281 L 166.964844 309.089844 L 163.820312 309.0625 L 160.175781 309.0625 L 158.820312 309.070312 L 156.03125 309.105469 L 154.53125 309.136719 L 152.386719 309.195312 L 150.886719 309.25 L 149.101562 309.335938 L 147.886719 309.410156 L 146.386719 309.523438 L 145.3125 309.621094 L 144.097656 309.761719 L 143.386719 309.871094 L 142.742188 309.988281 L 142.171875 310.132812 L 141.742188 310.28125 L 141.457031 310.441406 L 141.3125 310.59375 L 141.3125 311.261719 L 141.457031 311.414062 L 141.8125 311.59375 L 142.742188 311.855469 L 144.097656 312.085938 L 145.671875 312.265625 L 147.171875 312.394531 L 148.03125 312.453125 L 149.171875 312.523438 L 150.960938 312.609375 L 153.53125 312.695312 L 155.03125 312.730469 L 157.320312 312.761719 L 159.675781 312.78125 L 162.820312 312.78125 L 165.609375 312.761719 L 167.464844 312.742188 L 169.394531 312.707031 L 172.039062 312.632812 L 173.683594 312.566406 L 175.113281 312.484375 L 176.183594 312.402344 L 176.898438 312.332031 L 177.96875 312.199219 L 178.828125 312.054688 L 179.472656 311.90625 L 179.898438 311.757812 L 189.902344 311.757812 L 189.476562 311.929688 L 188.832031 312.097656 L 188.1875 312.222656 L 187.1875 312.371094 L 186.046875 312.503906 L 184.402344 312.65625 L 183.042969 312.753906 L 181.257812 312.863281 L 179.613281 312.945312 L 177.828125 313.015625 L 175.183594 313.101562 L 173.46875 313.144531 L 171.609375 313.183594 L 169.394531 313.21875 L 166.609375 313.25 L 163.605469 313.265625 L 160.820312 313.269531 L 157.820312 313.261719 L 155.605469 313.242188 L 152.675781 313.207031 L 149.03125 313.128906 L 146.386719 313.046875 L 144.3125 312.964844 L 142.527344 312.878906 L 140.527344 312.761719 L 137.953125 312.574219 L 136.382812 312.429688 L 135.308594 312.308594 L 134.09375 312.140625 L 133.238281 311.992188 L 132.238281 311.75 L 131.523438 311.445312 L 131.308594 311.210938 Z M 131.308594 310.617188 "/>
<path style=" stroke:none;fill-rule:nonzero;fill:rgb(83.921569%,15.686275%,22.352941%);fill-opacity:1;" d="M 131.308594 283.9375 L 189.902344 283.9375 L 189.902344 286.449219 L 165.484375 286.46875 L 165.484375 307.394531 L 155.65625 307.394531 L 155.65625 286.492188 L 155.515625 286.449219 L 131.308594 286.449219 Z M 131.308594 283.9375 "/>
<path style=" stroke:none;fill-rule:nonzero;fill:rgb(6.27451%,58.823529%,28.235294%);fill-opacity:1;" d="M 192.988281 309.40625 L 193.050781 309.144531 L 218.402344 30.832031 L 226.105469 30.832031 L 251.582031 309.667969 L 242.628906 309.667969 L 236.246094 236.882812 L 208.261719 236.882812 L 202.003906 309.40625 L 192.988281 309.40625 L 210.953125 206.773438 L 233.679688 206.511719 L 222.347656 76.390625 L 222.222656 76.128906 L 222.097656 76.914062 L 210.890625 206.511719 L 210.953125 206.773438 Z M 192.988281 309.40625 "/>
<path style=" stroke:none;fill-rule:nonzero;fill:rgb(14.509804%,36.078431%,60%);fill-opacity:1;" d="M 192.988281 311.933594 L 193.058594 311.929688 L 193.058594 311.875 L 193.273438 311.789062 L 193.773438 311.679688 L 194.273438 311.605469 L 195.558594 311.46875 L 197.347656 311.339844 L 199.203125 311.238281 L 200.5625 311.179688 L 201.777344 311.132812 L 204.5625 311.050781 L 206.351562 311.007812 L 208.28125 310.96875 L 210.636719 310.929688 L 212.351562 310.90625 L 216.210938 310.871094 L 219.070312 310.855469 L 221.285156 310.847656 L 226.074219 310.847656 L 228.929688 310.855469 L 231.003906 310.867188 L 233.289062 310.886719 L 235.21875 310.90625 L 238.578125 310.957031 L 241.578125 311.019531 L 242.9375 311.054688 L 245.082031 311.128906 L 246.722656 311.195312 L 247.867188 311.253906 L 249.152344 311.339844 L 250.296875 311.441406 L 251.152344 311.558594 L 251.582031 311.65625 L 241.578125 311.65625 L 241.078125 311.566406 L 240.507812 311.496094 L 239.433594 311.402344 L 238.363281 311.335938 L 236.863281 311.269531 L 235.503906 311.226562 L 233.648438 311.183594 L 232.003906 311.15625 L 230.289062 311.132812 L 228.644531 311.121094 L 225.5 311.105469 L 221.855469 311.105469 L 220.5 311.113281 L 217.710938 311.128906 L 216.210938 311.144531 L 214.066406 311.175781 L 212.566406 311.207031 L 210.78125 311.253906 L 209.566406 311.292969 L 208.066406 311.351562 L 206.992188 311.402344 L 205.777344 311.480469 L 205.0625 311.535156 L 204.421875 311.601562 L 203.847656 311.675781 L 203.421875 311.753906 L 203.132812 311.839844 L 202.992188 311.921875 L 202.992188 312.273438 L 203.132812 312.355469 L 203.492188 312.453125 L 204.421875 312.59375 L 205.777344 312.714844 L 207.351562 312.808594 L 208.851562 312.878906 L 209.707031 312.910156 L 210.851562 312.945312 L 212.636719 312.992188 L 215.210938 313.035156 L 216.710938 313.054688 L 219 313.074219 L 221.355469 313.082031 L 224.5 313.082031 L 227.289062 313.074219 L 229.144531 313.0625 L 231.074219 313.042969 L 233.71875 313.003906 L 235.363281 312.96875 L 236.792969 312.925781 L 237.863281 312.882812 L 238.578125 312.84375 L 239.648438 312.773438 L 240.507812 312.695312 L 241.148438 312.617188 L 241.578125 312.539062 L 251.582031 312.539062 L 251.152344 312.632812 L 250.511719 312.71875 L 249.867188 312.785156 L 248.867188 312.867188 L 247.722656 312.9375 L 246.082031 313.015625 L 244.722656 313.070312 L 242.9375 313.125 L 241.292969 313.167969 L 239.507812 313.207031 L 236.863281 313.253906 L 235.148438 313.277344 L 233.289062 313.296875 L 231.074219 313.316406 L 228.289062 313.332031 L 225.285156 313.339844 L 222.5 313.34375 L 219.5 313.339844 L 217.285156 313.328125 L 214.351562 313.308594 L 210.710938 313.265625 L 208.066406 313.222656 L 205.992188 313.179688 L 204.207031 313.136719 L 202.207031 313.074219 L 199.632812 312.972656 L 198.0625 312.894531 L 196.988281 312.832031 L 195.773438 312.742188 L 194.917969 312.664062 L 193.917969 312.535156 L 193.203125 312.375 L 192.988281 312.246094 Z M 192.988281 311.933594 "/>
<path style=" stroke:none;fill-rule:nonzero;fill:rgb(83.921569%,15.686275%,22.352941%);fill-opacity:1;" d="M 254.667969 20.664062 L 313.261719 20.664062 L 313.261719 51.878906 L 288.839844 52.152344 L 288.839844 312.289062 L 279.015625 312.289062 L 279.015625 52.425781 L 278.875 51.878906 L 254.667969 51.878906 Z M 254.667969 20.664062 "/>
<path style=" stroke:none;fill-rule:nonzero;fill:rgb(6.27451%,58.823529%,28.235294%);fill-opacity:1;" d="M 316.347656 314.371094 L 316.410156 314.367188 L 341.761719 313.464844 L 349.460938 313.464844 L 374.941406 314.371094 L 365.988281 314.371094 L 359.605469 314.132812 L 331.621094 314.132812 L 325.359375 314.371094 L 316.347656 314.371094 L 334.3125 314.035156 L 357.039062 314.035156 L 345.707031 313.613281 L 345.582031 313.613281 L 345.457031 313.617188 L 334.25 314.035156 L 334.3125 314.035156 Z M 316.347656 314.371094 "/>
<path style=" stroke:none;fill-rule:nonzero;fill:rgb(14.509804%,36.078431%,60%);fill-opacity:1;" d="M 316.347656 266.113281 L 316.417969 266.089844 L 316.417969 265.550781 L 316.632812 264.699219 L 317.132812 263.621094 L 317.632812 262.878906 L 318.917969 261.554688 L 320.703125 260.273438 L 322.5625 259.285156 L 323.921875 258.703125 L 325.136719 258.253906 L 327.921875 257.421875 L 329.707031 256.996094 L 331.636719 256.613281 L 333.996094 256.230469 L 335.710938 256.007812 L 339.570312 255.648438 L 342.429688 255.488281 L 344.644531 255.421875 L 349.429688 255.421875 L 352.289062 255.511719 L 354.363281 255.625 L 356.648438 255.804688 L 358.578125 256.007812 L 361.9375 256.5 L 364.9375 257.128906 L 366.292969 257.488281 L 368.4375 258.183594 L 370.082031 258.859375 L 371.226562 259.441406 L 372.511719 260.273438 L 373.65625 261.285156 L 374.511719 262.429688 L 374.941406 263.394531 L 364.9375 263.394531 L 364.4375 262.496094 L 363.867188 261.800781 L 362.792969 260.878906 L 361.722656 260.230469 L 360.222656 259.578125 L 358.863281 259.152344 L 357.003906 258.722656 L 355.363281 258.453125 L 353.648438 258.253906 L 352.003906 258.117188 L 348.859375 257.984375 L 345.214844 257.984375 L 343.855469 258.027344 L 341.070312 258.207031 L 339.570312 258.363281 L 337.425781 258.679688 L 335.925781 258.972656 L 334.140625 259.421875 L 332.925781 259.800781 L 331.421875 260.386719 L 330.351562 260.902344 L 329.136719 261.644531 L 328.421875 262.207031 L 327.777344 262.835938 L 327.207031 263.574219 L 326.777344 264.363281 L 326.492188 265.191406 L 326.351562 266 L 326.351562 269.484375 L 326.492188 270.292969 L 326.851562 271.234375 L 327.777344 272.605469 L 329.136719 273.796875 L 330.707031 274.738281 L 332.210938 275.414062 L 333.066406 275.726562 L 334.210938 276.085938 L 335.996094 276.535156 L 338.570312 276.984375 L 340.070312 277.164062 L 342.355469 277.34375 L 344.714844 277.433594 L 347.859375 277.433594 L 350.644531 277.34375 L 352.503906 277.230469 L 354.433594 277.050781 L 357.078125 276.671875 L 358.71875 276.3125 L 360.148438 275.882812 L 361.222656 275.457031 L 361.9375 275.097656 L 363.007812 274.402344 L 363.867188 273.636719 L 364.507812 272.851562 L 364.9375 272.089844 L 374.941406 272.089844 L 374.511719 272.988281 L 373.871094 273.863281 L 373.226562 274.515625 L 372.226562 275.300781 L 371.082031 275.996094 L 369.4375 276.78125 L 368.082031 277.300781 L 366.292969 277.859375 L 364.652344 278.289062 L 362.863281 278.667969 L 360.222656 279.117188 L 358.507812 279.34375 L 356.648438 279.546875 L 354.433594 279.726562 L 351.644531 279.882812 L 348.644531 279.972656 L 345.859375 279.996094 L 342.855469 279.949219 L 340.640625 279.859375 L 337.710938 279.65625 L 334.066406 279.253906 L 331.421875 278.828125 L 329.351562 278.398438 L 327.566406 277.949219 L 325.5625 277.34375 L 322.992188 276.355469 L 321.417969 275.59375 L 320.347656 274.964844 L 319.132812 274.085938 L 318.273438 273.300781 L 317.273438 272.042969 L 316.558594 270.449219 L 316.347656 269.214844 Z M 316.347656 266.113281 "/>
<path style=" stroke:none;fill-rule:nonzero;fill:rgb(96.862745%,70.196078%,16.862745%);fill-opacity:1;" d="M 316.347656 291.089844 L 316.417969 291.066406 L 316.417969 290.644531 L 316.703125 289.695312 L 317.417969 288.382812 L 318.347656 287.304688 L 319.347656 286.460938 L 319.992188 286.015625 L 321.0625 285.382812 L 321.992188 284.914062 L 324.347656 283.964844 L 327.351562 283.078125 L 328.992188 282.695312 L 330.851562 282.335938 L 333.496094 281.933594 L 334.710938 281.789062 L 338.425781 281.449219 L 342.640625 281.238281 L 347.289062 281.175781 L 349.429688 281.195312 L 352.359375 281.28125 L 356.363281 281.511719 L 358.648438 281.722656 L 360.433594 281.933594 L 362.292969 282.210938 L 364.578125 282.632812 L 366.722656 283.140625 L 368.4375 283.648438 L 370.152344 284.28125 L 371.582031 284.957031 L 372.796875 285.699219 L 373.871094 286.585938 L 374.511719 287.324219 L 374.941406 288.066406 L 365.007812 288.066406 L 364.4375 287.324219 L 363.792969 286.753906 L 362.722656 286.058594 L 361.648438 285.550781 L 360.578125 285.148438 L 358.578125 284.597656 L 356.863281 284.261719 L 354.71875 283.964844 L 352.644531 283.773438 L 350.289062 283.648438 L 348.859375 283.605469 L 345.070312 283.605469 L 341.640625 283.753906 L 339.640625 283.921875 L 338.210938 284.089844 L 336.210938 284.410156 L 334.996094 284.664062 L 334.28125 284.832031 L 332.136719 285.488281 L 330.707031 286.078125 L 329.921875 286.480469 L 328.921875 287.113281 L 328.207031 287.683594 L 327.421875 288.53125 L 326.992188 289.164062 L 326.421875 290.601562 L 326.351562 294.40625 L 326.5625 295.210938 L 326.992188 296.078125 L 327.566406 296.839844 L 328.421875 297.640625 L 329.28125 298.253906 L 330.78125 299.078125 L 332.066406 299.628906 L 333.066406 299.988281 L 334.996094 300.558594 L 335.78125 300.75 L 337.640625 301.128906 L 339.570312 301.425781 L 341.929688 301.679688 L 343.714844 301.804688 L 346.574219 301.914062 L 350.21875 301.914062 L 354.503906 301.785156 L 357.21875 301.617188 L 359.078125 301.445312 L 360.292969 301.300781 L 361.792969 301.066406 L 362.863281 300.855469 L 363.867188 300.621094 L 365.078125 300.261719 L 365.078125 295.210938 L 347.429688 295.191406 L 347.429688 292.820312 L 374.871094 292.800781 L 374.941406 301.066406 L 373.441406 301.636719 L 371.582031 302.1875 L 369.796875 302.609375 L 367.9375 302.96875 L 365.292969 303.371094 L 363.152344 303.625 L 359.863281 303.921875 L 356.863281 304.109375 L 353.71875 304.238281 L 350.929688 304.300781 L 347.644531 304.320312 L 344.714844 304.28125 L 341.570312 304.152344 L 339.070312 303.984375 L 336.78125 303.773438 L 334.496094 303.496094 L 331.636719 303.054688 L 329.78125 302.695312 L 327.851562 302.25 L 325.921875 301.722656 L 324.207031 301.152344 L 323.0625 300.707031 L 321.917969 300.199219 L 320.703125 299.566406 L 319.5625 298.847656 L 318.703125 298.191406 L 317.917969 297.453125 L 317.347656 296.753906 L 316.773438 295.804688 L 316.488281 295.042969 L 316.347656 294.386719 Z M 316.347656 291.089844 "/>
<path style=" stroke:none;fill-rule:nonzero;fill:rgb(83.921569%,15.686275%,22.352941%);fill-opacity:1;" d="M 316.347656 305.5 L 374.941406 305.5 L 374.941406 306.226562 L 350.519531 306.234375 L 350.519531 312.285156 L 340.695312 312.285156 L 340.695312 306.242188 L 340.554688 306.226562 L 316.347656 306.226562 Z M 316.347656 305.5 "/>
<path style=" stroke:none;fill-rule:nonzero;fill:rgb(6.27451%,58.823529%,28.235294%);fill-opacity:1;" d="M 378.023438 311.546875 L 378.085938 311.273438 L 403.441406 22.660156 L 411.140625 22.660156 L 436.621094 311.816406 L 427.667969 311.816406 L 421.28125 236.335938 L 393.300781 236.335938 L 387.039062 311.546875 L 378.023438 311.546875 L 395.992188 205.113281 L 418.714844 204.84375 L 407.386719 69.902344 L 407.261719 69.632812 L 407.136719 70.445312 L 395.929688 204.84375 L 395.992188 205.113281 Z M 378.023438 311.546875 "/>
<path style=" stroke:none;fill-rule:nonzero;fill:rgb(83.921569%,15.686275%,22.352941%);fill-opacity:1;" d="M 378.023438 312.996094 L 436.621094 312.996094 L 436.621094 313.019531 L 412.199219 313.019531 L 412.199219 313.203125 L 402.375 313.203125 L 402.375 313.019531 L 378.023438 313.019531 Z M 378.023438 312.996094 "/>
<path style=" stroke:none;fill-rule:nonzero;fill:rgb(6.27451%,58.823529%,28.235294%);fill-opacity:1;" d="M 439.703125 312.523438 L 439.765625 312.523438 L 465.121094 310.875 L 472.820312 310.875 L 498.300781 312.527344 L 489.347656 312.527344 L 482.960938 312.09375 L 454.980469 312.09375 L 448.71875 312.523438 L 439.703125 312.523438 L 457.671875 311.917969 L 480.394531 311.914062 L 469.066406 311.144531 L 468.9375 311.140625 L 468.8125 311.148438 L 457.609375 311.914062 L 457.671875 311.917969 Z M 439.703125 312.523438 "/>
<path style=" stroke:none;fill-rule:nonzero;fill:rgb(96.862745%,70.196078%,16.862745%);fill-opacity:1;" d="M 439.703125 313.714844 L 439.777344 313.714844 L 440.0625 313.710938 L 444.421875 313.710938 L 445.347656 313.707031 L 494.941406 313.707031 L 496.15625 313.710938 L 498.300781 313.710938 L 485.007812 313.710938 L 483.9375 313.707031 L 457.640625 313.707031 L 455.496094 313.710938 L 450.351562 313.710938 L 449.78125 313.714844 L 449.707031 313.714844 L 449.921875 313.714844 L 450.351562 313.71875 L 456.425781 313.71875 L 458.355469 313.722656 L 487.222656 313.722656 L 488.4375 313.71875 L 488.4375 313.714844 L 470.789062 313.714844 L 498.226562 313.714844 L 498.300781 313.722656 L 446.421875 313.722656 L 445.277344 313.71875 L 440.132812 313.71875 L 439.847656 313.714844 Z M 439.703125 313.714844 "/>
<path style=" stroke:none;fill-rule:nonzero;fill:rgb(83.921569%,15.686275%,22.352941%);fill-opacity:1;" d="M 439.703125 31.796875 L 498.300781 31.796875 L 498.300781 61.542969 L 473.878906 61.804688 L 473.878906 309.695312 L 464.054688 309.695312 L 464.054688 62.066406 L 463.910156 61.542969 L 439.703125 61.542969 Z M 439.703125 31.796875 "/>
<path style=" stroke:none;fill-rule:nonzero;fill:rgb(6.27451%,58.823529%,28.235294%);fill-opacity:1;" d="M 501.382812 306.480469 L 501.445312 306.472656 L 526.800781 295.390625 L 534.5 295.390625 L 559.980469 306.492188 L 551.027344 306.492188 L 544.640625 303.59375 L 516.660156 303.59375 L 510.398438 306.480469 L 501.382812 306.480469 L 519.351562 302.394531 L 542.074219 302.386719 L 530.742188 297.203125 L 530.617188 297.195312 L 530.492188 297.226562 L 519.289062 302.386719 L 519.351562 302.394531 Z M 501.382812 306.480469 "/>
<path style=" stroke:none;fill-rule:nonzero;fill:rgb(14.509804%,36.078431%,60%);fill-opacity:1;" d="M 501.382812 314.085938 L 501.453125 314.085938 L 501.453125 314.074219 L 501.667969 314.054688 L 502.167969 314.03125 L 502.667969 314.019531 L 503.957031 313.992188 L 505.742188 313.964844 L 507.601562 313.945312 L 508.957031 313.933594 L 510.171875 313.921875 L 512.960938 313.90625 L 514.746094 313.898438 L 516.675781 313.890625 L 519.035156 313.878906 L 520.75 313.875 L 524.605469 313.867188 L 527.464844 313.867188 L 529.679688 313.863281 L 534.46875 313.863281 L 537.328125 313.867188 L 539.398438 313.867188 L 541.6875 313.871094 L 543.613281 313.875 L 546.972656 313.886719 L 549.976562 313.898438 L 551.332031 313.90625 L 553.476562 313.921875 L 555.121094 313.933594 L 556.261719 313.945312 L 557.550781 313.964844 L 558.691406 313.984375 L 559.550781 314.007812 L 559.980469 314.027344 L 549.976562 314.027344 L 549.472656 314.011719 L 548.902344 313.996094 L 547.832031 313.976562 L 546.757812 313.964844 L 545.257812 313.949219 L 543.902344 313.941406 L 542.042969 313.933594 L 540.398438 313.925781 L 538.683594 313.921875 L 537.039062 313.917969 L 528.894531 313.917969 L 526.109375 313.921875 L 524.605469 313.925781 L 522.464844 313.929688 L 520.960938 313.9375 L 519.175781 313.945312 L 517.960938 313.953125 L 516.460938 313.964844 L 515.390625 313.976562 L 514.175781 313.992188 L 513.460938 314.003906 L 512.816406 314.015625 L 512.246094 314.03125 L 511.816406 314.046875 L 511.53125 314.066406 L 511.386719 314.082031 L 511.386719 314.152344 L 511.53125 314.171875 L 511.886719 314.191406 L 512.816406 314.21875 L 514.175781 314.242188 L 515.746094 314.261719 L 517.246094 314.277344 L 518.105469 314.28125 L 519.246094 314.289062 L 521.035156 314.300781 L 523.605469 314.308594 L 525.105469 314.3125 L 527.394531 314.316406 L 535.683594 314.316406 L 537.542969 314.3125 L 539.46875 314.308594 L 542.113281 314.300781 L 543.757812 314.292969 L 545.1875 314.285156 L 546.257812 314.277344 L 546.972656 314.269531 L 548.046875 314.253906 L 548.902344 314.238281 L 549.546875 314.222656 L 549.976562 314.207031 L 559.980469 314.207031 L 559.550781 314.226562 L 558.90625 314.246094 L 558.265625 314.257812 L 557.261719 314.273438 L 556.121094 314.289062 L 554.476562 314.304688 L 553.117188 314.316406 L 551.332031 314.328125 L 549.6875 314.335938 L 547.902344 314.34375 L 545.257812 314.351562 L 543.542969 314.355469 L 541.6875 314.363281 L 539.46875 314.363281 L 536.683594 314.367188 L 533.683594 314.371094 L 527.894531 314.371094 L 525.679688 314.367188 L 522.75 314.363281 L 519.105469 314.355469 L 516.460938 314.347656 L 514.390625 314.335938 L 512.601562 314.328125 L 510.601562 314.316406 L 508.027344 314.296875 L 506.457031 314.28125 L 505.386719 314.265625 L 504.171875 314.25 L 503.3125 314.234375 L 502.3125 314.207031 L 501.597656 314.175781 L 501.382812 314.148438 Z M 501.382812 314.085938 "/>
<path style=" stroke:none;fill-rule:nonzero;fill:rgb(96.862745%,70.196078%,16.862745%);fill-opacity:1;" d="M 501.382812 309.820312 L 501.453125 309.8125 L 501.453125 309.722656 L 501.742188 309.515625 L 502.457031 309.234375 L 503.382812 309 L 504.382812 308.816406 L 505.027344 308.71875 L 506.101562 308.582031 L 507.027344 308.480469 L 509.386719 308.277344 L 512.386719 308.082031 L 514.03125 308 L 515.890625 307.921875 L 518.535156 307.835938 L 519.75 307.804688 L 523.464844 307.730469 L 527.679688 307.683594 L 532.324219 307.671875 L 534.46875 307.675781 L 537.398438 307.695312 L 541.398438 307.746094 L 543.6875 307.789062 L 545.472656 307.835938 L 547.332031 307.894531 L 549.617188 307.988281 L 551.761719 308.097656 L 553.476562 308.207031 L 555.191406 308.34375 L 556.621094 308.492188 L 557.835938 308.652344 L 558.90625 308.84375 L 559.550781 309.003906 L 559.980469 309.164062 L 550.046875 309.164062 L 549.472656 309.003906 L 548.832031 308.878906 L 547.757812 308.730469 L 546.6875 308.621094 L 545.617188 308.53125 L 543.613281 308.414062 L 541.898438 308.339844 L 539.757812 308.277344 L 537.683594 308.234375 L 535.324219 308.207031 L 533.898438 308.199219 L 530.109375 308.199219 L 526.679688 308.230469 L 524.679688 308.265625 L 523.25 308.304688 L 521.25 308.371094 L 520.035156 308.425781 L 519.320312 308.464844 L 517.175781 308.605469 L 515.746094 308.734375 L 514.960938 308.820312 L 513.960938 308.957031 L 513.246094 309.082031 L 512.460938 309.265625 L 512.03125 309.402344 L 511.460938 309.714844 L 511.386719 310.539062 L 511.601562 310.710938 L 512.03125 310.898438 L 512.601562 311.0625 L 513.460938 311.238281 L 514.316406 311.371094 L 515.816406 311.550781 L 517.105469 311.667969 L 518.105469 311.746094 L 520.035156 311.871094 L 520.820312 311.910156 L 522.679688 311.992188 L 524.605469 312.058594 L 526.964844 312.113281 L 528.75 312.140625 L 531.609375 312.164062 L 535.253906 312.164062 L 539.542969 312.136719 L 542.257812 312.097656 L 544.113281 312.0625 L 545.328125 312.03125 L 546.832031 311.980469 L 547.902344 311.933594 L 548.902344 311.882812 L 550.117188 311.804688 L 550.117188 310.710938 L 532.46875 310.707031 L 532.46875 310.195312 L 559.90625 310.191406 L 559.980469 311.980469 L 558.476562 312.101562 L 556.621094 312.222656 L 554.832031 312.3125 L 552.976562 312.390625 L 550.332031 312.480469 L 548.1875 312.535156 L 544.902344 312.597656 L 541.898438 312.640625 L 538.753906 312.667969 L 535.96875 312.679688 L 532.683594 312.683594 L 529.753906 312.675781 L 526.609375 312.648438 L 524.105469 312.613281 L 521.820312 312.566406 L 519.535156 312.507812 L 516.675781 312.410156 L 514.816406 312.332031 L 512.886719 312.234375 L 510.957031 312.121094 L 509.242188 311.996094 L 508.101562 311.902344 L 506.957031 311.792969 L 505.742188 311.65625 L 504.597656 311.5 L 503.742188 311.355469 L 502.957031 311.195312 L 502.382812 311.046875 L 501.8125 310.839844 L 501.527344 310.675781 L 501.382812 310.53125 Z M 501.382812 309.820312 "/>
<path style=" stroke:none;fill-rule:nonzero;fill:rgb(83.921569%,15.686275%,22.352941%);fill-opacity:1;" d="M 501.382812 94.859375 L 559.980469 94.859375 L 559.980469 116.199219 L 535.558594 116.386719 L 535.558594 294.210938 L 525.734375 294.210938 L 525.734375 116.574219 L 525.589844 116.199219 L 501.382812 116.199219 Z M 501.382812 94.859375 "/>
<path style=" stroke:none;fill-rule:nonzero;fill:rgb(6.27451%,58.823529%,28.235294%);fill-opacity:1;" d="M 563.0625 300.367188 L 563.125 300.351562 L 588.480469 282.929688 L 596.179688 282.929688 L 621.65625 300.382812 L 612.707031 300.382812 L 606.320312 295.828125 L 578.335938 295.828125 L 572.078125 300.367188 L 563.0625 300.367188 L 581.03125 293.941406 L 603.753906 293.925781 L 592.421875 285.78125 L 592.296875 285.765625 L 592.171875 285.8125 L 580.964844 293.925781 L 581.03125 293.941406 Z M 563.0625 300.367188 "/>
<path style=" stroke:none;fill-rule:nonzero;fill:rgb(14.509804%,36.078431%,60%);fill-opacity:1;" d="M 563.0625 312.9375 L 563.132812 312.933594 L 563.132812 312.878906 L 563.347656 312.792969 L 563.847656 312.679688 L 564.347656 312.605469 L 565.636719 312.46875 L 567.421875 312.335938 L 569.28125 312.234375 L 570.636719 312.171875 L 571.851562 312.125 L 574.640625 312.039062 L 576.425781 311.996094 L 578.355469 311.957031 L 580.710938 311.917969 L 582.425781 311.894531 L 586.285156 311.855469 L 589.144531 311.839844 L 591.359375 311.832031 L 596.148438 311.832031 L 599.003906 311.84375 L 601.078125 311.855469 L 603.363281 311.875 L 605.292969 311.894531 L 608.652344 311.945312 L 611.652344 312.011719 L 613.011719 312.046875 L 615.15625 312.117188 L 616.796875 312.1875 L 617.941406 312.25 L 619.226562 312.335938 L 620.371094 312.4375 L 621.230469 312.558594 L 621.65625 312.65625 L 611.652344 312.65625 L 611.152344 312.5625 L 610.582031 312.492188 L 609.511719 312.398438 L 608.4375 312.328125 L 606.9375 312.261719 L 605.578125 312.21875 L 603.722656 312.175781 L 602.078125 312.148438 L 600.363281 312.125 L 598.71875 312.113281 L 595.574219 312.097656 L 591.929688 312.097656 L 590.574219 312.101562 L 587.785156 312.121094 L 586.285156 312.136719 L 584.144531 312.171875 L 582.640625 312.199219 L 580.855469 312.246094 L 579.640625 312.285156 L 578.140625 312.347656 L 577.066406 312.398438 L 575.855469 312.476562 L 575.140625 312.535156 L 574.496094 312.597656 L 573.925781 312.675781 L 573.496094 312.757812 L 573.210938 312.84375 L 573.066406 312.925781 L 573.066406 313.285156 L 573.210938 313.367188 L 573.566406 313.464844 L 574.496094 313.609375 L 575.855469 313.730469 L 577.425781 313.828125 L 578.925781 313.898438 L 579.785156 313.929688 L 580.925781 313.96875 L 582.714844 314.011719 L 585.285156 314.058594 L 586.785156 314.078125 L 589.074219 314.097656 L 591.429688 314.105469 L 594.574219 314.105469 L 597.363281 314.097656 L 599.21875 314.085938 L 601.148438 314.066406 L 603.792969 314.027344 L 605.4375 313.992188 L 606.867188 313.945312 L 607.9375 313.902344 L 608.652344 313.863281 L 609.722656 313.792969 L 610.582031 313.714844 L 611.226562 313.632812 L 611.652344 313.554688 L 621.65625 313.554688 L 621.230469 313.648438 L 620.585938 313.738281 L 619.941406 313.804688 L 618.941406 313.886719 L 617.800781 313.957031 L 616.15625 314.039062 L 614.796875 314.09375 L 613.011719 314.148438 L 611.367188 314.195312 L 609.582031 314.234375 L 606.9375 314.28125 L 605.222656 314.304688 L 603.363281 314.324219 L 601.148438 314.34375 L 598.363281 314.359375 L 595.363281 314.367188 L 592.574219 314.371094 L 589.574219 314.367188 L 587.359375 314.355469 L 584.429688 314.335938 L 580.785156 314.292969 L 578.140625 314.25 L 576.066406 314.207031 L 574.28125 314.160156 L 572.28125 314.097656 L 569.707031 313.996094 L 568.136719 313.917969 L 567.0625 313.851562 L 565.847656 313.761719 L 564.992188 313.679688 L 563.992188 313.550781 L 563.277344 313.386719 L 563.0625 313.257812 Z M 563.0625 312.9375 "/>
<path style=" stroke:none;fill-rule:nonzero;fill:rgb(96.862745%,70.196078%,16.862745%);fill-opacity:1;" d="M 563.0625 242.039062 L 563.132812 241.976562 L 563.132812 240.707031 L 563.421875 237.851562 L 564.132812 233.917969 L 565.0625 230.683594 L 566.0625 228.144531 L 566.707031 226.8125 L 567.777344 224.910156 L 568.707031 223.515625 L 571.066406 220.660156 L 574.066406 217.996094 L 575.710938 216.855469 L 577.570312 215.777344 L 580.210938 214.570312 L 581.425781 214.128906 L 585.144531 213.113281 L 589.359375 212.476562 L 594.003906 212.289062 L 596.148438 212.351562 L 599.078125 212.605469 L 603.078125 213.300781 L 605.367188 213.9375 L 607.152344 214.570312 L 609.011719 215.394531 L 611.296875 216.664062 L 613.441406 218.1875 L 615.15625 219.710938 L 616.871094 221.613281 L 618.300781 223.640625 L 619.515625 225.863281 L 620.585938 228.527344 L 621.230469 230.746094 L 621.65625 232.96875 L 611.726562 232.96875 L 611.152344 230.746094 L 610.511719 229.035156 L 609.4375 226.941406 L 608.367188 225.417969 L 607.292969 224.214844 L 605.292969 222.5625 L 603.578125 221.550781 L 601.433594 220.660156 L 599.363281 220.089844 L 597.003906 219.710938 L 595.574219 219.582031 L 591.789062 219.582031 L 588.359375 220.027344 L 586.359375 220.535156 L 584.929688 221.042969 L 582.929688 221.992188 L 581.714844 222.753906 L 581 223.261719 L 578.855469 225.226562 L 577.425781 227.003906 L 576.640625 228.210938 L 575.640625 230.113281 L 574.925781 231.824219 L 574.136719 234.363281 L 573.710938 236.265625 L 573.136719 240.578125 L 573.066406 251.996094 L 573.28125 254.410156 L 573.710938 257.007812 L 574.28125 259.292969 L 575.140625 261.703125 L 575.996094 263.542969 L 577.496094 266.015625 L 578.785156 267.667969 L 579.785156 268.746094 L 581.714844 270.457031 L 582.5 271.027344 L 584.355469 272.171875 L 586.285156 273.058594 L 588.644531 273.820312 L 590.429688 274.199219 L 593.289062 274.515625 L 596.933594 274.515625 L 601.222656 274.136719 L 603.9375 273.628906 L 605.792969 273.121094 L 607.007812 272.679688 L 608.507812 271.980469 L 609.582031 271.34375 L 610.582031 270.648438 L 611.796875 269.570312 L 611.796875 254.410156 L 594.148438 254.34375 L 594.148438 247.242188 L 621.585938 247.175781 L 621.65625 271.980469 L 620.15625 273.691406 L 618.300781 275.34375 L 616.511719 276.609375 L 614.65625 277.6875 L 612.011719 278.894531 L 609.867188 279.65625 L 606.582031 280.542969 L 603.578125 281.113281 L 600.433594 281.496094 L 597.648438 281.6875 L 594.359375 281.75 L 591.429688 281.621094 L 588.289062 281.242188 L 585.785156 280.734375 L 583.5 280.101562 L 581.210938 279.273438 L 578.355469 277.941406 L 576.496094 276.863281 L 574.566406 275.53125 L 572.636719 273.945312 L 570.921875 272.234375 L 569.78125 270.902344 L 568.636719 269.378906 L 567.421875 267.476562 L 566.277344 265.320312 L 565.421875 263.351562 L 564.632812 261.132812 L 564.0625 259.039062 L 563.492188 256.183594 L 563.207031 253.902344 L 563.0625 251.933594 Z M 563.0625 242.039062 "/>
<path style=" stroke:none;fill-rule:nonzero;fill:rgb(83.921569%,15.686275%,22.352941%);fill-opacity:1;" d="M 563.0625 301.5625 L 621.65625 301.5625 L 621.65625 302.535156 L 597.238281 302.542969 L 597.238281 310.652344 L 587.410156 310.652344 L 587.410156 302.550781 L 587.269531 302.535156 L 563.0625 302.535156 Z M 563.0625 301.5625 "/>
<path style=" stroke:none;fill-rule:nonzero;fill:rgb(6.27451%,58.823529%,28.235294%);fill-opacity:1;" d="M 624.742188 314.371094 L 624.804688 314.367188 L 650.15625 313.371094 L 657.859375 313.371094 L 683.335938 314.371094 L 674.386719 314.371094 L 668 314.109375 L 640.015625 314.109375 L 633.757812 314.371094 L 624.742188 314.371094 L 642.707031 314 L 665.433594 314 L 654.101562 313.535156 L 653.976562 313.53125 L 653.851562 313.535156 L 642.644531 314 L 642.707031 314 Z M 624.742188 314.371094 "/>
<path style=" stroke:none;fill-rule:nonzero;fill:rgb(14.509804%,36.078431%,60%);fill-opacity:1;" d="M 624.742188 306.296875 L 624.8125 306.292969 L 624.8125 306.191406 L 625.027344 306.027344 L 625.527344 305.820312 L 626.027344 305.679688 L 627.3125 305.425781 L 629.101562 305.179688 L 630.957031 304.992188 L 632.316406 304.878906 L 633.53125 304.792969 L 636.316406 304.636719 L 638.105469 304.554688 L 640.035156 304.480469 L 642.390625 304.40625 L 644.105469 304.363281 L 647.964844 304.296875 L 650.824219 304.265625 L 653.039062 304.253906 L 657.828125 304.253906 L 660.683594 304.269531 L 662.757812 304.292969 L 665.042969 304.328125 L 666.972656 304.363281 L 670.332031 304.460938 L 673.332031 304.578125 L 674.691406 304.648438 L 676.835938 304.78125 L 678.476562 304.910156 L 679.621094 305.023438 L 680.90625 305.179688 L 682.050781 305.375 L 682.910156 305.59375 L 683.335938 305.777344 L 673.332031 305.777344 L 672.832031 305.605469 L 672.261719 305.472656 L 671.1875 305.296875 L 670.117188 305.171875 L 668.617188 305.046875 L 667.257812 304.964844 L 665.402344 304.886719 L 663.757812 304.832031 L 662.042969 304.792969 L 660.398438 304.769531 L 657.253906 304.742188 L 653.609375 304.742188 L 652.253906 304.75 L 649.464844 304.785156 L 647.964844 304.816406 L 645.820312 304.875 L 644.320312 304.933594 L 642.535156 305.019531 L 641.320312 305.089844 L 639.820312 305.203125 L 638.746094 305.300781 L 637.53125 305.445312 L 636.816406 305.550781 L 636.175781 305.671875 L 635.601562 305.8125 L 635.175781 305.964844 L 634.890625 306.121094 L 634.746094 306.277344 L 634.746094 306.941406 L 634.890625 307.097656 L 635.246094 307.277344 L 636.175781 307.539062 L 637.53125 307.769531 L 639.105469 307.949219 L 640.605469 308.078125 L 641.464844 308.136719 L 642.605469 308.207031 L 644.394531 308.292969 L 646.964844 308.378906 L 648.464844 308.414062 L 650.753906 308.445312 L 653.109375 308.464844 L 656.253906 308.464844 L 659.042969 308.445312 L 660.898438 308.425781 L 662.828125 308.390625 L 665.472656 308.316406 L 667.117188 308.25 L 668.546875 308.167969 L 669.617188 308.085938 L 670.332031 308.015625 L 671.402344 307.882812 L 672.261719 307.738281 L 672.902344 307.585938 L 673.332031 307.441406 L 683.335938 307.441406 L 682.910156 307.613281 L 682.265625 307.78125 L 681.621094 307.90625 L 680.621094 308.054688 L 679.476562 308.1875 L 677.835938 308.339844 L 676.476562 308.4375 L 674.691406 308.546875 L 673.046875 308.628906 L 671.261719 308.699219 L 668.617188 308.785156 L 666.902344 308.828125 L 665.042969 308.867188 L 662.828125 308.902344 L 660.042969 308.933594 L 657.039062 308.949219 L 654.253906 308.953125 L 651.253906 308.945312 L 649.039062 308.929688 L 646.109375 308.890625 L 642.464844 308.8125 L 639.820312 308.730469 L 637.746094 308.648438 L 635.960938 308.5625 L 633.960938 308.445312 L 631.386719 308.257812 L 629.816406 308.113281 L 628.742188 307.992188 L 627.527344 307.824219 L 626.671875 307.671875 L 625.671875 307.433594 L 624.957031 307.128906 L 624.742188 306.890625 Z M 624.742188 306.296875 "/>
<path style=" stroke:none;fill-rule:nonzero;fill:rgb(96.862745%,70.196078%,16.862745%);fill-opacity:1;" d="M 624.742188 300.269531 L 624.8125 300.261719 L 624.8125 300.175781 L 625.097656 299.972656 L 625.8125 299.695312 L 626.742188 299.464844 L 627.742188 299.285156 L 628.386719 299.191406 L 629.457031 299.058594 L 630.386719 298.960938 L 632.746094 298.757812 L 635.746094 298.570312 L 637.390625 298.488281 L 639.246094 298.414062 L 641.890625 298.328125 L 643.105469 298.296875 L 646.820312 298.222656 L 651.039062 298.179688 L 655.683594 298.164062 L 657.828125 298.171875 L 660.757812 298.1875 L 664.757812 298.238281 L 667.042969 298.28125 L 668.832031 298.328125 L 670.6875 298.386719 L 672.976562 298.476562 L 675.121094 298.582031 L 676.835938 298.691406 L 678.550781 298.824219 L 679.980469 298.96875 L 681.191406 299.125 L 682.265625 299.3125 L 682.910156 299.46875 L 683.335938 299.628906 L 673.40625 299.628906 L 672.832031 299.46875 L 672.191406 299.347656 L 671.117188 299.203125 L 670.046875 299.09375 L 668.972656 299.007812 L 666.972656 298.890625 L 665.257812 298.820312 L 663.113281 298.757812 L 661.042969 298.71875 L 658.683594 298.691406 L 657.253906 298.679688 L 653.46875 298.679688 L 650.039062 298.710938 L 648.035156 298.75 L 646.609375 298.785156 L 644.605469 298.851562 L 643.390625 298.90625 L 642.675781 298.941406 L 640.535156 299.082031 L 639.105469 299.207031 L 638.320312 299.289062 L 637.316406 299.425781 L 636.605469 299.546875 L 635.816406 299.726562 L 635.390625 299.859375 L 634.816406 300.164062 L 634.746094 300.972656 L 634.960938 301.140625 L 635.390625 301.324219 L 635.960938 301.488281 L 636.816406 301.65625 L 637.675781 301.789062 L 639.175781 301.960938 L 640.460938 302.078125 L 641.464844 302.15625 L 643.390625 302.277344 L 644.179688 302.316406 L 646.035156 302.398438 L 647.964844 302.460938 L 650.324219 302.511719 L 652.109375 302.539062 L 654.96875 302.5625 L 658.613281 302.5625 L 662.898438 302.535156 L 665.617188 302.5 L 667.472656 302.464844 L 668.6875 302.433594 L 670.1875 302.382812 L 671.261719 302.339844 L 672.261719 302.289062 L 673.476562 302.214844 L 673.476562 301.140625 L 655.824219 301.136719 L 655.824219 300.636719 L 683.265625 300.632812 L 683.335938 302.382812 L 681.835938 302.503906 L 679.980469 302.621094 L 678.191406 302.710938 L 676.335938 302.785156 L 673.691406 302.871094 L 671.546875 302.925781 L 668.257812 302.988281 L 665.257812 303.027344 L 662.113281 303.054688 L 659.328125 303.070312 L 656.039062 303.074219 L 653.109375 303.066406 L 649.964844 303.039062 L 647.464844 303.003906 L 645.179688 302.957031 L 642.890625 302.898438 L 640.035156 302.804688 L 638.175781 302.730469 L 636.246094 302.632812 L 634.316406 302.523438 L 632.601562 302.402344 L 631.457031 302.308594 L 630.316406 302.199219 L 629.101562 302.066406 L 627.957031 301.914062 L 627.101562 301.773438 L 626.3125 301.617188 L 625.742188 301.46875 L 625.171875 301.265625 L 624.882812 301.105469 L 624.742188 300.96875 Z M 624.742188 300.269531 "/>
<path style=" stroke:none;fill-rule:nonzero;fill:rgb(83.921569%,15.686275%,22.352941%);fill-opacity:1;" d="M 624.742188 310.132812 L 683.335938 310.132812 L 683.335938 310.355469 L 658.917969 310.355469 L 658.917969 312.191406 L 649.089844 312.191406 L 649.089844 310.359375 L 648.949219 310.355469 L 624.742188 310.355469 Z M 624.742188 310.132812 "/>
<g style="fill:rgb(0%,0%,0%);fill-opacity:1;">
  <use xlink:href="#glyph0-1" x="21.957031" y="318.198242"/>
  <use xlink:href="#glyph0-2" x="27.291016" y="318.198242"/>
  <use xlink:href="#glyph0-1" x="29.958008" y="318.198242"/>
</g>
<g style="fill:rgb(0%,0%,0%);fill-opacity:1;">
  <use xlink:href="#glyph0-1" x="21.957031" y="241.788086"/>
  <use xlink:href="#glyph0-2" x="27.291016" y="241.788086"/>
  <use xlink:href="#glyph0-3" x="29.958008" y="241.788086"/>
</g>
<g style="fill:rgb(0%,0%,0%);fill-opacity:1;">
  <use xlink:href="#glyph0-4" x="21.957031" y="165.37793"/>
  <use xlink:href="#glyph0-2" x="27.291016" y="165.37793"/>
  <use xlink:href="#glyph0-1" x="29.958008" y="165.37793"/>
</g>
<g style="fill:rgb(0%,0%,0%);fill-opacity:1;">
  <use xlink:href="#glyph0-4" x="21.957031" y="88.967773"/>
  <use xlink:href="#glyph0-2" x="27.291016" y="88.967773"/>
  <use xlink:href="#glyph0-3" x="29.958008" y="88.967773"/>
</g>
<g style="fill:rgb(0%,0%,0%);fill-opacity:1;">
  <use xlink:href="#glyph0-5" x="21.957031" y="12.557617"/>
  <use xlink:href="#glyph0-2" x="27.291016" y="12.557617"/>
  <use xlink:href="#glyph0-1" x="29.958008" y="12.557617"/>
</g>
<g style="fill:rgb(0%,0%,0%);fill-opacity:1;">
  <use xlink:href="#glyph0-4" x="95.925781" y="338.19043"/>
</g>
<g style="fill:rgb(0%,0%,0%);fill-opacity:1;">
  <use xlink:href="#glyph0-5" x="157.605469" y="338.19043"/>
</g>
<g style="fill:rgb(0%,0%,0%);fill-opacity:1;">
  <use xlink:href="#glyph0-6" x="219.285156" y="338.19043"/>
</g>
<g style="fill:rgb(0%,0%,0%);fill-opacity:1;">
  <use xlink:href="#glyph0-7" x="280.964844" y="338.19043"/>
</g>
<g style="fill:rgb(0%,0%,0%);fill-opacity:1;">
  <use xlink:href="#glyph0-3" x="342.644531" y="338.19043"/>
</g>
<g style="fill:rgb(0%,0%,0%);fill-opacity:1;">
  <use xlink:href="#glyph0-8" x="404.324219" y="338.19043"/>
</g>
<g style="fill:rgb(0%,0%,0%);fill-opacity:1;">
  <use xlink:href="#glyph0-9" x="466" y="338.19043"/>
</g>
<g style="fill:rgb(0%,0%,0%);fill-opacity:1;">
  <use xlink:href="#glyph0-10" x="527.679688" y="338.19043"/>
</g>
<g style="fill:rgb(0%,0%,0%);fill-opacity:1;">
  <use xlink:href="#glyph0-11" x="589.359375" y="338.19043"/>
</g>
<g style="fill:rgb(0%,0%,0%);fill-opacity:1;">
  <use xlink:href="#glyph0-4" x="648.539062" y="338.19043"/>
  <use xlink:href="#glyph0-1" x="653.873047" y="338.19043"/>
</g>
<g style="fill:rgb(0%,0%,0%);fill-opacity:1;">
  <use xlink:href="#glyph1-1" x="14.412109" y="178.015625"/>
  <use xlink:href="#glyph1-2" x="14.412109" y="170.011719"/>
  <use xlink:href="#glyph1-3" x="14.412109" y="167.347656"/>
  <use xlink:href="#glyph1-4" x="14.412109" y="164.011719"/>
</g>
</g>
</svg>
