<?xml version="1.0" encoding="UTF-8"?>
<svg xmlns="http://www.w3.org/2000/svg" xmlns:xlink="http://www.w3.org/1999/xlink" width="720pt" height="360pt" viewBox="0 0 720 360" version="1.1">
<defs>
<g>
<symbol overflow="visible" id="glyph0-0">
<path style="stroke:none;" d=""/>
</symbol>
<symbol overflow="visible" id="glyph0-1">
<path style="stroke:none;" d="M 2.640625 -6.796875 C 2 -6.796875 1.421875 -6.53125 1.078125 -6.046875 C 0.640625 -5.453125 0.40625 -4.546875 0.40625 -3.296875 C 0.40625 -1 1.1875 0.21875 2.640625 0.21875 C 4.078125 0.21875 4.859375 -1 4.859375 -3.234375 C 4.859375 -4.5625 4.65625 -5.4375 4.203125 -6.046875 C 3.84375 -6.53125 3.28125 -6.796875 2.640625 -6.796875 Z M 2.640625 -6.046875 C 3.546875 -6.046875 4 -5.125 4 -3.3125 C 4 -1.375 3.5625 -0.484375 2.625 -0.484375 C 1.734375 -0.484375 1.28125 -1.421875 1.28125 -3.28125 C 1.28125 -5.140625 1.734375 -6.046875 2.640625 -6.046875 Z M 2.640625 -6.046875 "/>
</symbol>
<symbol overflow="visible" id="glyph0-2">
<path style="stroke:none;" d="M 1.828125 -1 L 0.828125 -1 L 0.828125 0 L 1.828125 0 Z M 1.828125 -1 "/>
</symbol>
<symbol overflow="visible" id="glyph0-3">
<path style="stroke:none;" d="M 4.5625 -6.796875 L 1.0625 -6.796875 L 0.546875 -3.09375 L 1.328125 -3.09375 C 1.71875 -3.5625 2.046875 -3.734375 2.578125 -3.734375 C 3.484375 -3.734375 4.0625 -3.109375 4.0625 -2.09375 C 4.0625 -1.125 3.484375 -0.53125 2.578125 -0.53125 C 1.828125 -0.53125 1.375 -0.90625 1.1875 -1.671875 L 0.328125 -1.671875 C 0.453125 -1.109375 0.546875 -0.84375 0.75 -0.59375 C 1.125 -0.078125 1.828125 0.21875 2.59375 0.21875 C 3.96875 0.21875 4.921875 -0.78125 4.921875 -2.21875 C 4.921875 -3.5625 4.03125 -4.484375 2.71875 -4.484375 C 2.25 -4.484375 1.859375 -4.359375 1.46875 -4.0625 L 1.734375 -5.96875 L 4.5625 -5.96875 Z M 4.5625 -6.796875 "/>
</symbol>
<symbol overflow="visible" id="glyph0-4">
<path style="stroke:none;" d="M 2.484375 -4.84375 L 2.484375 0 L 3.328125 0 L 3.328125 -6.796875 L 2.765625 -6.796875 C 2.46875 -5.75 2.28125 -5.609375 0.984375 -5.453125 L 0.984375 -4.84375 Z M 2.484375 -4.84375 "/>
</symbol>
<symbol overflow="visible" id="glyph0-5">
<path style="stroke:none;" d="M 4.859375 -0.828125 L 1.28125 -0.828125 C 1.359375 -1.390625 1.671875 -1.75 2.5 -2.234375 L 3.46875 -2.75 C 4.40625 -3.265625 4.90625 -3.96875 4.90625 -4.8125 C 4.90625 -5.375 4.671875 -5.90625 4.265625 -6.265625 C 3.859375 -6.625 3.375 -6.796875 2.71875 -6.796875 C 1.859375 -6.796875 1.21875 -6.5 0.84375 -5.921875 C 0.609375 -5.5625 0.5 -5.125 0.484375 -4.4375 L 1.328125 -4.4375 C 1.359375 -4.90625 1.40625 -5.1875 1.53125 -5.40625 C 1.75 -5.8125 2.1875 -6.0625 2.703125 -6.0625 C 3.46875 -6.0625 4.03125 -5.515625 4.03125 -4.78125 C 4.03125 -4.25 3.71875 -3.796875 3.125 -3.4375 L 2.234375 -2.9375 C 0.8125 -2.140625 0.40625 -1.5 0.328125 0 L 4.859375 0 Z M 4.859375 -0.828125 "/>
</symbol>
<symbol overflow="visible" id="glyph0-6">
<path style="stroke:none;" d="M 2.125 -3.125 L 2.578125 -3.125 C 3.515625 -3.125 3.984375 -2.703125 3.984375 -1.890625 C 3.984375 -1.03125 3.46875 -0.53125 2.578125 -0.53125 C 1.65625 -0.53125 1.203125 -0.984375 1.15625 -1.96875 L 0.3125 -1.96875 C 0.34375 -1.421875 0.4375 -1.078125 0.609375 -0.765625 C 0.953125 -0.109375 1.625 0.21875 2.546875 0.21875 C 3.953125 0.21875 4.859375 -0.609375 4.859375 -1.90625 C 4.859375 -2.765625 4.515625 -3.25 3.703125 -3.515625 C 4.34375 -3.765625 4.65625 -4.25 4.65625 -4.9375 C 4.65625 -6.109375 3.875 -6.796875 2.578125 -6.796875 C 1.203125 -6.796875 0.484375 -6.046875 0.453125 -4.609375 L 1.296875 -4.609375 C 1.3125 -5.015625 1.34375 -5.25 1.453125 -5.453125 C 1.640625 -5.828125 2.0625 -6.0625 2.59375 -6.0625 C 3.34375 -6.0625 3.796875 -5.625 3.796875 -4.90625 C 3.796875 -4.421875 3.609375 -4.140625 3.25 -3.984375 C 3.015625 -3.890625 2.71875 -3.84375 2.125 -3.84375 Z M 2.125 -3.125 "/>
</symbol>
<symbol overflow="visible" id="glyph0-7">
<path style="stroke:none;" d="M 3.140625 -1.625 L 3.140625 0 L 3.984375 0 L 3.984375 -1.625 L 4.984375 -1.625 L 4.984375 -2.390625 L 3.984375 -2.390625 L 3.984375 -6.796875 L 3.359375 -6.796875 L 0.265625 -2.515625 L 0.265625 -1.625 Z M 3.140625 -2.390625 L 1 -2.390625 L 3.140625 -5.359375 Z M 3.140625 -2.390625 "/>
</symbol>
<symbol overflow="visible" id="glyph0-8">
<path style="stroke:none;" d="M 4.78125 -5.03125 C 4.609375 -6.140625 3.890625 -6.796875 2.84375 -6.796875 C 2.09375 -6.796875 1.421875 -6.4375 1.03125 -5.828125 C 0.609375 -5.171875 0.40625 -4.34375 0.40625 -3.09375 C 0.40625 -1.953125 0.578125 -1.234375 0.984375 -0.625 C 1.359375 -0.078125 1.953125 0.21875 2.703125 0.21875 C 3.984375 0.21875 4.921875 -0.734375 4.921875 -2.078125 C 4.921875 -3.34375 4.0625 -4.234375 2.84375 -4.234375 C 2.171875 -4.234375 1.640625 -3.96875 1.28125 -3.46875 C 1.28125 -5.125 1.828125 -6.046875 2.796875 -6.046875 C 3.390625 -6.046875 3.796875 -5.671875 3.9375 -5.03125 Z M 2.734375 -3.484375 C 3.546875 -3.484375 4.0625 -2.921875 4.0625 -2 C 4.0625 -1.15625 3.484375 -0.53125 2.703125 -0.53125 C 1.921875 -0.53125 1.328125 -1.1875 1.328125 -2.046875 C 1.328125 -2.890625 1.90625 -3.484375 2.734375 -3.484375 Z M 2.734375 -3.484375 "/>
</symbol>
<symbol overflow="visible" id="glyph0-9">
<path style="stroke:none;" d="M 4.984375 -6.796875 L 0.4375 -6.796875 L 0.4375 -5.96875 L 4.109375 -5.96875 C 2.5 -3.65625 1.828125 -2.234375 1.328125 0 L 2.21875 0 C 2.59375 -2.171875 3.453125 -4.046875 4.984375 -6.09375 Z M 4.984375 -6.796875 "/>
</symbol>
<symbol overflow="visible" id="glyph0-10">
<path style="stroke:none;" d="M 3.75 -3.578125 C 4.453125 -4 4.6875 -4.34375 4.6875 -4.984375 C 4.6875 -6.046875 3.84375 -6.796875 2.640625 -6.796875 C 1.4375 -6.796875 0.59375 -6.046875 0.59375 -4.984375 C 0.59375 -4.359375 0.828125 -4.015625 1.515625 -3.578125 C 0.734375 -3.203125 0.359375 -2.640625 0.359375 -1.890625 C 0.359375 -0.640625 1.296875 0.21875 2.640625 0.21875 C 3.984375 0.21875 4.921875 -0.640625 4.921875 -1.875 C 4.921875 -2.640625 4.53125 -3.203125 3.75 -3.578125 Z M 2.640625 -6.046875 C 3.359375 -6.046875 3.8125 -5.625 3.8125 -4.96875 C 3.8125 -4.34375 3.34375 -3.921875 2.640625 -3.921875 C 1.921875 -3.921875 1.453125 -4.34375 1.453125 -4.984375 C 1.453125 -5.625 1.921875 -6.046875 2.640625 -6.046875 Z M 2.640625 -3.203125 C 3.484375 -3.203125 4.0625 -2.671875 4.0625 -1.875 C 4.0625 -1.0625 3.484375 -0.53125 2.625 -0.53125 C 1.796875 -0.53125 1.21875 -1.078125 1.21875 -1.875 C 1.21875 -2.671875 1.796875 -3.203125 2.640625 -3.203125 Z M 2.640625 -3.203125 "/>
</symbol>
<symbol overflow="visible" id="glyph0-11">
<path style="stroke:none;" d="M 0.515625 -1.546875 C 0.671875 -0.4375 1.40625 0.21875 2.4375 0.21875 C 3.1875 0.21875 3.859375 -0.140625 4.265625 -0.75 C 4.6875 -1.40625 4.890625 -2.25 4.890625 -3.484375 C 4.890625 -4.625 4.703125 -5.359375 4.3125 -5.953125 C 3.9375 -6.5 3.34375 -6.796875 2.59375 -6.796875 C 1.296875 -6.796875 0.359375 -5.84375 0.359375 -4.515625 C 0.359375 -3.25 1.234375 -2.34375 2.453125 -2.34375 C 3.09375 -2.34375 3.5625 -2.578125 4.015625 -3.109375 C 4 -1.453125 3.46875 -0.53125 2.5 -0.53125 C 1.90625 -0.53125 1.484375 -0.90625 1.359375 -1.546875 Z M 2.578125 -6.0625 C 3.375 -6.0625 3.96875 -5.40625 3.96875 -4.53125 C 3.96875 -3.6875 3.375 -3.09375 2.546875 -3.09375 C 1.734375 -3.09375 1.234375 -3.671875 1.234375 -4.578125 C 1.234375 -5.4375 1.796875 -6.0625 2.578125 -6.0625 Z M 2.578125 -6.0625 "/>
</symbol>
<symbol overflow="visible" id="glyph1-0">
<path style="stroke:none;" d=""/>
</symbol>
<symbol overflow="visible" id="glyph1-1">
<path style="stroke:none;" d="M 0 -0.953125 L 0 -4.890625 C 0 -5.71875 -0.234375 -6.34375 -0.734375 -6.796875 C -1.1875 -7.234375 -1.8125 -7.46875 -2.5 -7.46875 C -3.546875 -7.46875 -4.1875 -7 -4.625 -5.875 C -4.984375 -6.671875 -5.640625 -7.09375 -6.53125 -7.09375 C -7.15625 -7.09375 -7.734375 -6.859375 -8.140625 -6.390625 C -8.5625 -5.9375 -8.75 -5.34375 -8.75 -4.5 L -8.75 -0.953125 Z M -4.984375 -2.0625 L -7.765625 -2.0625 L -7.765625 -4.21875 C -7.765625 -4.84375 -7.6875 -5.203125 -7.453125 -5.5 C -7.21875 -5.8125 -6.859375 -5.96875 -6.375 -5.96875 C -5.90625 -5.96875 -5.53125 -5.8125 -5.296875 -5.5 C -5.0625 -5.203125 -4.984375 -4.84375 -4.984375 -4.21875 Z M -0.984375 -2.0625 L -4 -2.0625 L -4 -4.78125 C -4 -5.328125 -3.859375 -5.6875 -3.578125 -5.953125 C -3.296875 -6.21875 -2.921875 -6.359375 -2.484375 -6.359375 C -2.0625 -6.359375 -1.6875 -6.21875 -1.40625 -5.953125 C -1.109375 -5.6875 -0.984375 -5.328125 -0.984375 -4.78125 Z M -0.984375 -2.0625 "/>
</symbol>
<symbol overflow="visible" id="glyph1-2">
<path style="stroke:none;" d="M -6.28125 -1.796875 L -6.28125 -0.796875 L 0 -0.796875 L 0 -1.796875 Z M -8.75 -1.796875 L -8.75 -0.796875 L -7.484375 -0.796875 L -7.484375 -1.796875 Z M -8.75 -1.796875 "/>
</symbol>
<symbol overflow="visible" id="glyph1-3">
<path style="stroke:none;" d="M -6.28125 -3.046875 L -6.28125 -2.015625 L -8.015625 -2.015625 L -8.015625 -1.015625 L -6.28125 -1.015625 L -6.28125 -0.171875 L -5.46875 -0.171875 L -5.46875 -1.015625 L -0.71875 -1.015625 C -0.078125 -1.015625 0.28125 -1.453125 0.28125 -2.234375 C 0.28125 -2.46875 0.25 -2.71875 0.1875 -3.046875 L -0.640625 -3.046875 C -0.609375 -2.921875 -0.59375 -2.765625 -0.59375 -2.5625 C -0.59375 -2.140625 -0.71875 -2.015625 -1.15625 -2.015625 L -5.46875 -2.015625 L -5.46875 -3.046875 Z M -6.28125 -3.046875 "/>
</symbol>
<symbol overflow="visible" id="glyph1-4">
<path style="stroke:none;" d="M -4.53125 -5.25 C -5.765625 -5.25 -6.46875 -4.421875 -6.46875 -2.96875 C -6.46875 -1.515625 -5.71875 -0.5625 -4.546875 -0.5625 C -3.5625 -0.5625 -3.09375 -1.0625 -2.734375 -2.5625 L -2.515625 -3.484375 C -2.34375 -4.1875 -2.09375 -4.46875 -1.625 -4.46875 C -1.046875 -4.46875 -0.640625 -3.875 -0.640625 -3 C -0.640625 -2.453125 -0.796875 -2 -1.0625 -1.75 C -1.25 -1.59375 -1.421875 -1.53125 -1.875 -1.46875 L -1.875 -0.40625 C -0.421875 -0.453125 0.28125 -1.265625 0.28125 -2.921875 C 0.28125 -4.5 -0.5 -5.515625 -1.71875 -5.515625 C -2.65625 -5.515625 -3.171875 -4.984375 -3.46875 -3.734375 L -3.703125 -2.765625 C -3.890625 -1.953125 -4.15625 -1.609375 -4.59375 -1.609375 C -5.171875 -1.609375 -5.546875 -2.125 -5.546875 -2.9375 C -5.546875 -3.75 -5.203125 -4.171875 -4.53125 -4.203125 Z M -4.53125 -5.25 "/>
</symbol>
</g>
</defs>
<g id="surface129072">
<rect x="0" y="0" width="720" height="360" style="fill:rgb(100%,100%,100%);fill-opacity:1;stroke:none;"/>
<path style=" stroke:none;fill-rule:nonzero;fill:rgb(14.509804%,36.078431%,60%);fill-opacity:1;" d="M 69.628906 312.148438 L 69.699219 312.144531 L 69.699219 312.140625 L 69.914062 312.128906 L 70.414062 312.117188 L 70.914062 312.109375 L 72.203125 312.09375 L 73.988281 312.078125 L 75.847656 312.066406 L 77.203125 312.058594 L 78.417969 312.054688 L 81.207031 312.046875 L 82.992188 312.039062 L 84.921875 312.035156 L 87.28125 312.03125 L 88.996094 312.027344 L 92.851562 312.023438 L 107.644531 312.023438 L 109.929688 312.027344 L 111.859375 312.027344 L 115.21875 312.035156 L 118.21875 312.042969 L 119.578125 312.046875 L 121.722656 312.054688 L 123.367188 312.0625 L 124.507812 312.070312 L 125.796875 312.078125 L 126.9375 312.089844 L 127.796875 312.105469 L 128.222656 312.113281 L 118.21875 312.113281 L 117.71875 312.105469 L 117.148438 312.097656 L 116.078125 312.085938 L 115.003906 312.078125 L 113.503906 312.070312 L 112.148438 312.066406 L 110.289062 312.058594 L 108.644531 312.058594 L 106.929688 312.054688 L 105.285156 312.054688 L 102.140625 312.050781 L 97.140625 312.050781 L 94.355469 312.054688 L 92.851562 312.054688 L 90.710938 312.058594 L 89.207031 312.0625 L 87.421875 312.070312 L 86.207031 312.074219 L 84.707031 312.078125 L 83.636719 312.085938 L 82.421875 312.09375 L 81.707031 312.101562 L 81.0625 312.109375 L 80.492188 312.117188 L 80.0625 312.125 L 79.777344 312.136719 L 79.632812 312.144531 L 79.632812 312.1875 L 79.777344 312.195312 L 80.132812 312.207031 L 81.0625 312.222656 L 82.421875 312.234375 L 83.992188 312.246094 L 85.492188 312.253906 L 86.351562 312.257812 L 87.492188 312.261719 L 89.28125 312.269531 L 91.851562 312.273438 L 93.351562 312.273438 L 95.640625 312.277344 L 105.785156 312.277344 L 107.714844 312.273438 L 110.359375 312.269531 L 112.003906 312.265625 L 113.433594 312.261719 L 114.503906 312.253906 L 115.21875 312.25 L 116.292969 312.242188 L 117.148438 312.234375 L 117.792969 312.226562 L 118.21875 312.214844 L 128.222656 312.214844 L 127.796875 312.226562 L 127.152344 312.238281 L 126.507812 312.246094 L 125.507812 312.253906 L 124.367188 312.261719 L 122.722656 312.269531 L 121.363281 312.277344 L 119.578125 312.285156 L 117.933594 312.289062 L 116.148438 312.292969 L 113.503906 312.296875 L 111.789062 312.300781 L 109.929688 312.304688 L 107.714844 312.304688 L 104.929688 312.308594 L 93.925781 312.308594 L 90.996094 312.304688 L 87.351562 312.300781 L 84.707031 312.292969 L 82.632812 312.289062 L 80.847656 312.285156 L 78.847656 312.277344 L 76.273438 312.265625 L 74.703125 312.257812 L 73.632812 312.25 L 72.417969 312.238281 L 71.558594 312.230469 L 70.558594 312.214844 L 69.84375 312.195312 L 69.628906 312.183594 Z M 69.628906 312.148438 "/>
<path style=" stroke:none;fill-rule:nonzero;fill:rgb(83.921569%,15.686275%,22.352941%);fill-opacity:1;" d="M 69.628906 310.460938 L 128.222656 310.460938 L 128.222656 310.503906 L 103.804688 310.503906 L 103.804688 310.84375 L 93.980469 310.84375 L 93.980469 310.503906 L 69.628906 310.503906 Z M 69.628906 310.460938 "/>
<path style=" stroke:none;fill-rule:nonzero;fill:rgb(6.27451%,58.823529%,28.235294%);fill-opacity:1;" d="M 131.308594 306.917969 L 131.371094 306.914062 L 156.726562 301.023438 L 164.425781 301.023438 L 189.902344 306.921875 L 180.953125 306.921875 L 174.566406 305.382812 L 146.582031 305.382812 L 140.324219 306.917969 L 131.308594 306.917969 L 149.273438 304.746094 L 172 304.738281 L 160.667969 301.984375 L 160.542969 301.980469 L 160.417969 301.996094 L 149.210938 304.738281 L 149.273438 304.746094 Z M 131.308594 306.917969 "/>
<path style=" stroke:none;fill-rule:nonzero;fill:rgb(14.509804%,36.078431%,60%);fill-opacity:1;" d="M 131.308594 310.195312 L 131.378906 310.191406 L 131.378906 310.085938 L 131.59375 309.921875 L 132.09375 309.707031 L 132.59375 309.5625 L 133.882812 309.304688 L 135.667969 309.054688 L 137.523438 308.859375 L 138.882812 308.746094 L 140.097656 308.65625 L 142.882812 308.496094 L 144.671875 308.410156 L 146.601562 308.335938 L 148.957031 308.261719 L 150.671875 308.21875 L 154.53125 308.148438 L 157.390625 308.117188 L 159.605469 308.101562 L 164.394531 308.101562 L 167.25 308.121094 L 169.324219 308.140625 L 171.609375 308.179688 L 173.539062 308.21875 L 176.898438 308.3125 L 179.898438 308.4375 L 181.257812 308.507812 L 183.402344 308.644531 L 185.042969 308.777344 L 186.1875 308.890625 L 187.472656 309.054688 L 188.617188 309.25 L 189.476562 309.476562 L 189.902344 309.664062 L 179.898438 309.664062 L 179.398438 309.488281 L 178.828125 309.351562 L 177.757812 309.171875 L 176.683594 309.042969 L 175.183594 308.917969 L 173.824219 308.832031 L 171.96875 308.75 L 170.324219 308.695312 L 168.609375 308.65625 L 166.964844 308.632812 L 163.820312 308.605469 L 160.175781 308.605469 L 158.820312 308.613281 L 156.03125 308.648438 L 154.53125 308.679688 L 152.386719 308.742188 L 150.886719 308.796875 L 149.101562 308.886719 L 147.886719 308.960938 L 146.386719 309.074219 L 145.3125 309.175781 L 144.097656 309.320312 L 143.386719 309.429688 L 142.742188 309.554688 L 142.171875 309.699219 L 141.742188 309.855469 L 141.457031 310.015625 L 141.3125 310.175781 L 141.3125 310.855469 L 141.457031 311.015625 L 141.8125 311.199219 L 142.742188 311.46875 L 144.097656 311.703125 L 145.671875 311.886719 L 147.171875 312.019531 L 148.03125 312.082031 L 149.171875 312.152344 L 150.960938 312.238281 L 153.53125 312.328125 L 155.03125 312.363281 L 157.320312 312.398438 L 159.675781 312.414062 L 162.820312 312.414062 L 165.609375 312.398438 L 167.464844 312.375 L 169.394531 312.339844 L 172.039062 312.265625 L 173.683594 312.195312 L 175.113281 312.109375 L 176.183594 312.027344 L 176.898438 311.957031 L 177.96875 311.820312 L 178.828125 311.671875 L 179.472656 311.515625 L 179.898438 311.367188 L 189.902344 311.367188 L 189.476562 311.542969 L 188.832031 311.714844 L 188.1875 311.84375 L 187.1875 311.996094 L 186.046875 312.132812 L 184.402344 312.285156 L 183.042969 312.386719 L 181.257812 312.496094 L 179.613281 312.582031 L 177.828125 312.65625 L 175.183594 312.746094 L 173.46875 312.789062 L 171.609375 312.828125 L 169.394531 312.863281 L 166.609375 312.894531 L 163.605469 312.910156 L 160.820312 312.914062 L 157.820312 312.90625 L 155.605469 312.890625 L 152.675781 312.851562 L 149.03125 312.769531 L 146.386719 312.6875 L 144.3125 312.605469 L 142.527344 312.515625 L 140.527344 312.398438 L 137.953125 312.203125 L 136.382812 312.054688 L 135.308594 311.929688 L 134.09375 311.757812 L 133.238281 311.605469 L 132.238281 311.359375 L 131.523438 311.046875 L 131.308594 310.804688 Z M 131.308594 310.195312 "/>
<path style=" stroke:none;fill-rule:nonzero;fill:rgb(96.862745%,70.196078%,16.862745%);fill-opacity:1;" d="M 131.308594 158.167969 L 131.378906 157.941406 L 131.378906 153.414062 L 131.664062 143.230469 L 132.378906 129.199219 L 133.308594 117.65625 L 134.308594 108.601562 L 134.953125 103.851562 L 136.023438 97.0625 L 136.953125 92.082031 L 139.3125 81.898438 L 142.3125 72.390625 L 143.957031 68.320312 L 145.8125 64.472656 L 148.457031 60.171875 L 149.671875 58.585938 L 153.390625 54.964844 L 157.605469 52.703125 L 162.25 52.023438 L 164.394531 52.25 L 167.324219 53.15625 L 171.324219 55.644531 L 173.613281 57.90625 L 175.398438 60.171875 L 177.253906 63.113281 L 179.542969 67.640625 L 181.6875 73.070312 L 183.402344 78.503906 L 185.117188 85.292969 L 186.546875 92.535156 L 187.761719 100.457031 L 188.832031 109.960938 L 189.476562 117.882812 L 189.902344 125.804688 L 179.972656 125.804688 L 179.398438 117.882812 L 178.757812 111.773438 L 177.683594 104.304688 L 176.613281 98.871094 L 175.539062 94.570312 L 173.539062 88.6875 L 171.824219 85.066406 L 169.679688 81.898438 L 167.609375 79.859375 L 165.25 78.503906 L 163.820312 78.050781 L 160.035156 78.050781 L 156.605469 79.632812 L 154.605469 81.445312 L 153.175781 83.253906 L 151.171875 86.652344 L 149.957031 89.367188 L 149.246094 91.175781 L 147.101562 98.191406 L 145.671875 104.53125 L 144.886719 108.828125 L 143.886719 115.621094 L 143.171875 121.730469 L 142.382812 130.78125 L 141.957031 137.570312 L 141.382812 152.960938 L 141.3125 193.699219 L 141.527344 202.300781 L 141.957031 211.578125 L 142.527344 219.726562 L 143.386719 228.324219 L 144.242188 234.890625 L 145.742188 243.714844 L 147.027344 249.601562 L 148.03125 253.445312 L 149.957031 259.558594 L 150.746094 261.59375 L 152.601562 265.667969 L 154.53125 268.835938 L 156.890625 271.550781 L 158.675781 272.910156 L 161.535156 274.042969 L 165.179688 274.042969 L 169.46875 272.683594 L 172.183594 270.875 L 174.039062 269.0625 L 175.253906 267.480469 L 176.753906 264.988281 L 177.828125 262.726562 L 178.828125 260.238281 L 180.042969 256.390625 L 180.042969 202.300781 L 162.390625 202.074219 L 162.390625 176.726562 L 189.832031 176.5 L 189.902344 264.988281 L 188.402344 271.101562 L 186.546875 276.984375 L 184.757812 281.511719 L 182.902344 285.359375 L 180.257812 289.65625 L 178.113281 292.375 L 174.824219 295.542969 L 171.824219 297.578125 L 168.679688 298.9375 L 165.894531 299.617188 L 162.605469 299.84375 L 159.675781 299.390625 L 156.53125 298.03125 L 154.03125 296.222656 L 151.746094 293.957031 L 149.457031 291.015625 L 146.601562 286.261719 L 144.742188 282.414062 L 142.8125 277.664062 L 140.882812 272.003906 L 139.167969 265.894531 L 138.027344 261.140625 L 136.882812 255.710938 L 135.667969 248.921875 L 134.523438 241.226562 L 133.667969 234.210938 L 132.878906 226.289062 L 132.308594 218.820312 L 131.738281 208.636719 L 131.453125 200.488281 L 131.308594 193.472656 Z M 131.308594 158.167969 "/>
<path style=" stroke:none;fill-rule:nonzero;fill:rgb(83.921569%,15.686275%,22.352941%);fill-opacity:1;" d="M 131.308594 314.09375 L 189.902344 314.09375 L 189.902344 314.125 L 165.484375 314.125 L 165.484375 314.371094 L 155.65625 314.371094 L 155.65625 314.125 L 131.308594 314.125 Z M 131.308594 314.09375 "/>
<path style=" stroke:none;fill-rule:nonzero;fill:rgb(6.27451%,58.823529%,28.235294%);fill-opacity:1;" d="M 192.988281 312.902344 L 193.050781 312.894531 L 218.402344 308.191406 L 226.105469 308.191406 L 251.582031 312.90625 L 242.628906 312.90625 L 236.246094 311.675781 L 208.261719 311.675781 L 202.003906 312.902344 L 192.988281 312.902344 L 210.953125 311.167969 L 233.679688 311.160156 L 222.347656 308.960938 L 222.222656 308.957031 L 222.097656 308.972656 L 210.890625 311.160156 L 210.953125 311.167969 Z M 192.988281 312.902344 "/>
<path style=" stroke:none;fill-rule:nonzero;fill:rgb(14.509804%,36.078431%,60%);fill-opacity:1;" d="M 192.988281 145.253906 L 193.058594 144.992188 L 193.058594 138.710938 L 193.273438 128.765625 L 193.773438 116.199219 L 194.273438 107.5625 L 195.558594 92.121094 L 197.347656 77.199219 L 199.203125 65.683594 L 200.5625 58.878906 L 201.777344 53.644531 L 204.5625 43.957031 L 206.351562 38.984375 L 208.28125 34.535156 L 210.636719 30.085938 L 212.351562 27.46875 L 216.210938 23.28125 L 219.070312 21.449219 L 221.285156 20.664062 L 226.074219 20.664062 L 228.929688 21.710938 L 231.003906 23.019531 L 233.289062 25.113281 L 235.21875 27.46875 L 238.578125 33.226562 L 241.578125 40.554688 L 242.9375 44.742188 L 245.082031 52.859375 L 246.722656 60.710938 L 247.867188 67.515625 L 249.152344 77.199219 L 250.296875 88.980469 L 251.152344 102.328125 L 251.582031 113.582031 L 241.578125 113.582031 L 241.078125 103.113281 L 240.507812 95 L 239.433594 84.265625 L 238.363281 76.675781 L 236.863281 69.085938 L 235.503906 64.113281 L 233.648438 59.140625 L 232.003906 56 L 230.289062 53.644531 L 228.644531 52.074219 L 225.5 50.503906 L 221.855469 50.503906 L 220.5 51.027344 L 217.710938 53.121094 L 216.210938 54.953125 L 214.066406 58.617188 L 212.566406 62.019531 L 210.78125 67.253906 L 209.566406 71.703125 L 208.066406 78.507812 L 206.992188 84.527344 L 205.777344 93.167969 L 205.0625 99.710938 L 204.421875 107.039062 L 203.847656 115.675781 L 203.421875 124.839844 L 203.132812 134.523438 L 202.992188 143.945312 L 202.992188 184.515625 L 203.132812 193.9375 L 203.492188 204.933594 L 204.421875 220.898438 L 205.777344 234.769531 L 207.351562 245.765625 L 208.851562 253.617188 L 209.707031 257.28125 L 210.851562 261.46875 L 212.636719 266.703125 L 215.210938 271.9375 L 216.710938 274.035156 L 219 276.128906 L 221.355469 277.175781 L 224.5 277.175781 L 227.289062 276.128906 L 229.144531 274.820312 L 231.074219 272.722656 L 233.71875 268.273438 L 235.363281 264.085938 L 236.792969 259.113281 L 237.863281 254.140625 L 238.578125 249.953125 L 239.648438 241.839844 L 240.507812 232.9375 L 241.148438 223.777344 L 241.578125 214.878906 L 251.582031 214.878906 L 251.152344 225.347656 L 250.511719 235.554688 L 249.867188 243.148438 L 248.867188 252.308594 L 247.722656 260.421875 L 246.082031 269.582031 L 244.722656 275.605469 L 242.9375 282.148438 L 241.292969 287.121094 L 239.507812 291.570312 L 236.863281 296.804688 L 235.148438 299.421875 L 233.289062 301.777344 L 231.074219 303.871094 L 228.289062 305.703125 L 225.285156 306.75 L 222.5 307.011719 L 219.5 306.488281 L 217.285156 305.441406 L 214.351562 303.085938 L 210.710938 298.375 L 208.066406 293.402344 L 205.992188 288.429688 L 204.207031 283.195312 L 202.207031 276.128906 L 199.632812 264.609375 L 198.0625 255.710938 L 196.988281 248.382812 L 195.773438 238.175781 L 194.917969 229.011719 L 193.917969 214.355469 L 193.203125 195.769531 L 192.988281 181.375 Z M 192.988281 145.253906 "/>
<path style=" stroke:none;fill-rule:nonzero;fill:rgb(6.27451%,58.823529%,28.235294%);fill-opacity:1;" d="M 254.667969 264.992188 L 254.730469 264.871094 L 280.082031 136.46875 L 287.78125 136.46875 L 313.261719 265.113281 L 304.308594 265.113281 L 297.925781 231.535156 L 269.941406 231.535156 L 263.679688 264.992188 L 254.667969 264.992188 L 272.632812 217.640625 L 295.359375 217.523438 L 284.027344 157.488281 L 283.902344 157.367188 L 283.777344 157.726562 L 272.570312 217.523438 L 272.632812 217.640625 Z M 254.667969 264.992188 "/>
<path style=" stroke:none;fill-rule:nonzero;fill:rgb(96.862745%,70.196078%,16.862745%);fill-opacity:1;" d="M 254.667969 286.339844 L 254.738281 286.296875 L 254.738281 285.441406 L 255.023438 283.519531 L 255.738281 280.867188 L 256.667969 278.6875 L 257.667969 276.980469 L 258.3125 276.082031 L 259.382812 274.800781 L 260.3125 273.859375 L 262.671875 271.9375 L 265.671875 270.140625 L 267.316406 269.371094 L 269.171875 268.644531 L 271.816406 267.832031 L 273.03125 267.535156 L 276.746094 266.851562 L 280.964844 266.421875 L 285.609375 266.292969 L 287.75 266.335938 L 290.679688 266.507812 L 294.683594 266.976562 L 296.96875 267.40625 L 298.757812 267.832031 L 300.613281 268.386719 L 302.902344 269.242188 L 305.042969 270.269531 L 306.757812 271.292969 L 308.472656 272.578125 L 309.902344 273.945312 L 311.117188 275.441406 L 312.191406 277.234375 L 312.832031 278.730469 L 313.261719 280.226562 L 303.328125 280.226562 L 302.757812 278.730469 L 302.113281 277.578125 L 301.042969 276.167969 L 299.972656 275.140625 L 298.898438 274.328125 L 296.898438 273.21875 L 295.183594 272.535156 L 293.039062 271.9375 L 290.96875 271.550781 L 288.609375 271.292969 L 287.179688 271.210938 L 283.394531 271.210938 L 279.960938 271.507812 L 277.960938 271.851562 L 276.53125 272.191406 L 274.53125 272.832031 L 273.316406 273.347656 L 272.601562 273.6875 L 270.457031 275.011719 L 269.03125 276.210938 L 268.242188 277.023438 L 267.242188 278.304688 L 266.527344 279.457031 L 265.742188 281.167969 L 265.3125 282.449219 L 264.742188 285.355469 L 264.671875 293.050781 L 264.886719 294.671875 L 265.3125 296.425781 L 265.886719 297.964844 L 266.742188 299.589844 L 267.601562 300.828125 L 269.101562 302.496094 L 270.386719 303.605469 L 271.386719 304.332031 L 273.316406 305.484375 L 274.101562 305.871094 L 275.960938 306.640625 L 277.890625 307.238281 L 280.25 307.75 L 282.035156 308.007812 L 284.894531 308.222656 L 288.539062 308.222656 L 292.824219 307.964844 L 295.539062 307.625 L 297.398438 307.28125 L 298.613281 306.980469 L 300.113281 306.511719 L 301.1875 306.085938 L 302.1875 305.613281 L 303.402344 304.886719 L 303.402344 294.671875 L 285.75 294.628906 L 285.75 289.84375 L 313.191406 289.800781 L 313.261719 306.511719 L 311.761719 307.664062 L 309.902344 308.777344 L 308.117188 309.632812 L 306.257812 310.359375 L 303.617188 311.171875 L 301.472656 311.683594 L 298.183594 312.28125 L 295.183594 312.667969 L 292.039062 312.921875 L 289.253906 313.050781 L 285.964844 313.09375 L 283.035156 313.007812 L 279.890625 312.75 L 277.390625 312.410156 L 275.105469 311.984375 L 272.816406 311.425781 L 269.957031 310.53125 L 268.101562 309.804688 L 266.171875 308.90625 L 264.242188 307.835938 L 262.527344 306.683594 L 261.382812 305.785156 L 260.242188 304.757812 L 259.027344 303.476562 L 257.882812 302.023438 L 257.023438 300.699219 L 256.238281 299.203125 L 255.667969 297.792969 L 255.09375 295.871094 L 254.808594 294.332031 L 254.667969 293.007812 Z M 254.667969 286.339844 "/>
<path style=" stroke:none;fill-rule:nonzero;fill:rgb(14.509804%,36.078431%,60%);fill-opacity:1;" d="M 316.347656 152.261719 L 316.417969 152.023438 L 316.417969 146.222656 L 316.632812 137.039062 L 317.132812 125.4375 L 317.632812 117.460938 L 318.917969 103.203125 L 320.703125 89.429688 L 322.5625 78.796875 L 323.921875 72.511719 L 325.136719 67.679688 L 327.921875 58.738281 L 329.707031 54.144531 L 331.636719 50.035156 L 333.996094 45.929688 L 335.710938 43.511719 L 339.570312 39.644531 L 342.429688 37.953125 L 344.644531 37.226562 L 349.429688 37.226562 L 352.289062 38.195312 L 354.363281 39.402344 L 356.648438 41.335938 L 358.578125 43.511719 L 361.9375 48.828125 L 364.9375 55.59375 L 366.292969 59.460938 L 368.4375 66.953125 L 370.082031 74.203125 L 371.226562 80.488281 L 372.511719 89.429688 L 373.65625 100.304688 L 374.511719 112.628906 L 374.941406 123.019531 L 364.9375 123.019531 L 364.4375 113.355469 L 363.867188 105.863281 L 362.792969 95.953125 L 361.722656 88.945312 L 360.222656 81.9375 L 358.863281 77.34375 L 357.003906 72.753906 L 355.363281 69.855469 L 353.648438 67.679688 L 352.003906 66.230469 L 348.859375 64.777344 L 345.214844 64.777344 L 343.855469 65.261719 L 341.070312 67.195312 L 339.570312 68.886719 L 337.425781 72.269531 L 335.925781 75.414062 L 334.140625 80.246094 L 332.925781 84.355469 L 331.421875 90.636719 L 330.351562 96.195312 L 329.136719 104.171875 L 328.421875 110.210938 L 327.777344 116.980469 L 327.207031 124.953125 L 326.777344 133.414062 L 326.492188 142.355469 L 326.351562 151.054688 L 326.351562 188.511719 L 326.492188 197.214844 L 326.851562 207.363281 L 327.777344 222.105469 L 329.136719 234.914062 L 330.707031 245.0625 L 332.210938 252.316406 L 333.066406 255.699219 L 334.210938 259.566406 L 335.996094 264.398438 L 338.570312 269.230469 L 340.070312 271.164062 L 342.355469 273.097656 L 344.714844 274.066406 L 347.859375 274.066406 L 350.644531 273.097656 L 352.503906 271.890625 L 354.433594 269.957031 L 357.078125 265.847656 L 358.71875 261.980469 L 360.148438 257.390625 L 361.222656 252.796875 L 361.9375 248.929688 L 363.007812 241.4375 L 363.867188 233.222656 L 364.507812 224.765625 L 364.9375 216.546875 L 374.941406 216.546875 L 374.511719 226.214844 L 373.871094 235.640625 L 373.226562 242.648438 L 372.226562 251.105469 L 371.082031 258.597656 L 369.4375 267.054688 L 368.082031 272.613281 L 366.292969 278.65625 L 364.652344 283.25 L 362.863281 287.355469 L 360.222656 292.191406 L 358.507812 294.605469 L 356.648438 296.78125 L 354.433594 298.714844 L 351.644531 300.40625 L 348.644531 301.375 L 345.859375 301.613281 L 342.855469 301.132812 L 340.640625 300.164062 L 337.710938 297.988281 L 334.066406 293.640625 L 331.421875 289.046875 L 329.351562 284.457031 L 327.566406 279.625 L 325.5625 273.097656 L 322.992188 262.464844 L 321.417969 254.246094 L 320.347656 247.480469 L 319.132812 238.054688 L 318.273438 229.597656 L 317.273438 216.0625 L 316.558594 198.90625 L 316.347656 185.613281 Z M 316.347656 152.261719 "/>
<path style=" stroke:none;fill-rule:nonzero;fill:rgb(83.921569%,15.686275%,22.352941%);fill-opacity:1;" d="M 316.347656 302.792969 L 374.941406 302.792969 L 374.941406 303.898438 L 350.519531 303.910156 L 350.519531 313.113281 L 340.695312 313.113281 L 340.695312 303.917969 L 340.554688 303.898438 L 316.347656 303.898438 Z M 316.347656 302.792969 "/>
<path style=" stroke:none;fill-rule:nonzero;fill:rgb(6.27451%,58.823529%,28.235294%);fill-opacity:1;" d="M 378.023438 313.101562 L 378.085938 313.09375 L 403.441406 302.792969 L 411.140625 302.792969 L 436.621094 313.113281 L 427.667969 313.113281 L 421.28125 310.417969 L 393.300781 310.417969 L 387.039062 313.101562 L 378.023438 313.101562 L 395.992188 309.304688 L 418.714844 309.296875 L 407.386719 304.480469 L 407.261719 304.472656 L 407.136719 304.5 L 395.929688 309.296875 L 395.992188 309.304688 Z M 378.023438 313.101562 "/>
<path style=" stroke:none;fill-rule:nonzero;fill:rgb(96.862745%,70.196078%,16.862745%);fill-opacity:1;" d="M 378.023438 150.46875 L 378.097656 150.226562 L 378.097656 145.398438 L 378.382812 134.53125 L 379.097656 119.5625 L 380.027344 107.25 L 381.027344 97.589844 L 381.667969 92.519531 L 382.742188 85.277344 L 383.671875 79.964844 L 386.027344 69.097656 L 389.03125 58.957031 L 390.671875 54.613281 L 392.53125 50.507812 L 395.175781 45.921875 L 396.390625 44.230469 L 400.105469 40.367188 L 404.320312 37.953125 L 408.964844 37.226562 L 411.109375 37.46875 L 414.039062 38.433594 L 418.042969 41.089844 L 420.328125 43.507812 L 422.113281 45.921875 L 423.972656 49.058594 L 426.257812 53.886719 L 428.402344 59.683594 L 430.117188 65.476562 L 431.832031 72.722656 L 433.261719 80.449219 L 434.476562 88.898438 L 435.546875 99.039062 L 436.191406 107.488281 L 436.621094 115.941406 L 426.6875 115.941406 L 426.117188 107.488281 L 425.472656 100.972656 L 424.402344 93.003906 L 423.328125 87.207031 L 422.257812 82.621094 L 420.257812 76.34375 L 418.542969 72.480469 L 416.398438 69.097656 L 414.324219 66.925781 L 411.96875 65.476562 L 410.539062 64.996094 L 406.75 64.996094 L 403.320312 66.683594 L 401.320312 68.617188 L 399.890625 70.546875 L 397.890625 74.171875 L 396.675781 77.066406 L 395.960938 79 L 393.816406 86.484375 L 392.386719 93.246094 L 391.601562 97.832031 L 390.601562 105.074219 L 389.886719 111.59375 L 389.101562 121.253906 L 388.671875 128.496094 L 388.101562 144.914062 L 388.027344 188.375 L 388.242188 197.550781 L 388.671875 207.449219 L 389.242188 216.140625 L 390.101562 225.316406 L 390.960938 232.320312 L 392.460938 241.734375 L 393.746094 248.011719 L 394.746094 252.117188 L 396.675781 258.636719 L 397.460938 260.808594 L 399.320312 265.15625 L 401.25 268.535156 L 403.605469 271.433594 L 405.394531 272.882812 L 408.25 274.089844 L 411.894531 274.089844 L 416.183594 272.640625 L 418.898438 270.710938 L 420.757812 268.777344 L 421.972656 267.089844 L 423.472656 264.433594 L 424.542969 262.015625 L 425.542969 259.363281 L 426.757812 255.257812 L 426.757812 197.550781 L 409.109375 197.308594 L 409.109375 170.265625 L 436.550781 170.023438 L 436.621094 264.433594 L 435.121094 270.949219 L 433.261719 277.230469 L 431.476562 282.058594 L 429.617188 286.164062 L 426.972656 290.75 L 424.828125 293.648438 L 421.542969 297.027344 L 418.542969 299.199219 L 415.398438 300.648438 L 412.609375 301.375 L 409.324219 301.613281 L 406.394531 301.132812 L 403.25 299.683594 L 400.75 297.753906 L 398.460938 295.335938 L 396.175781 292.199219 L 393.316406 287.128906 L 391.460938 283.023438 L 389.53125 277.953125 L 387.601562 271.917969 L 385.886719 265.398438 L 384.742188 260.328125 L 383.597656 254.53125 L 382.382812 247.289062 L 381.242188 239.078125 L 380.382812 231.59375 L 379.597656 223.144531 L 379.027344 215.175781 L 378.453125 204.3125 L 378.167969 195.617188 L 378.023438 188.132812 Z M 378.023438 150.46875 "/>
<path style=" stroke:none;fill-rule:nonzero;fill:rgb(14.509804%,36.078431%,60%);fill-opacity:1;" d="M 439.703125 286.65625 L 439.777344 286.613281 L 439.777344 285.585938 L 439.988281 283.960938 L 440.492188 281.910156 L 440.992188 280.496094 L 442.277344 277.972656 L 444.0625 275.535156 L 445.921875 273.652344 L 447.277344 272.539062 L 448.492188 271.683594 L 451.28125 270.101562 L 453.066406 269.289062 L 454.996094 268.5625 L 457.355469 267.835938 L 459.070312 267.40625 L 462.929688 266.722656 L 465.785156 266.421875 L 468 266.292969 L 472.789062 266.292969 L 475.648438 266.464844 L 477.71875 266.679688 L 480.007812 267.019531 L 481.9375 267.40625 L 485.292969 268.347656 L 488.296875 269.546875 L 489.652344 270.230469 L 491.796875 271.554688 L 493.441406 272.839844 L 494.582031 273.953125 L 495.871094 275.535156 L 497.011719 277.460938 L 497.871094 279.640625 L 498.300781 281.480469 L 488.296875 281.480469 L 487.796875 279.769531 L 487.222656 278.441406 L 486.152344 276.6875 L 485.078125 275.449219 L 483.578125 274.207031 L 482.222656 273.394531 L 480.363281 272.582031 L 478.71875 272.070312 L 477.003906 271.683594 L 475.363281 271.425781 L 472.21875 271.171875 L 468.574219 271.171875 L 467.214844 271.257812 L 464.429688 271.597656 L 462.929688 271.898438 L 460.785156 272.496094 L 459.285156 273.054688 L 457.496094 273.910156 L 456.28125 274.636719 L 454.78125 275.75 L 453.710938 276.730469 L 452.496094 278.144531 L 451.78125 279.214844 L 451.136719 280.410156 L 450.566406 281.824219 L 450.136719 283.320312 L 449.851562 284.902344 L 449.707031 286.441406 L 449.707031 293.074219 L 449.851562 294.613281 L 450.207031 296.410156 L 451.136719 299.019531 L 452.496094 301.285156 L 454.066406 303.082031 L 455.566406 304.367188 L 456.425781 304.964844 L 457.570312 305.648438 L 459.355469 306.507812 L 461.925781 307.363281 L 463.429688 307.703125 L 465.714844 308.046875 L 468.074219 308.21875 L 471.21875 308.21875 L 474.003906 308.046875 L 475.863281 307.832031 L 477.792969 307.488281 L 480.433594 306.761719 L 482.078125 306.078125 L 483.507812 305.265625 L 484.578125 304.453125 L 485.292969 303.769531 L 486.367188 302.441406 L 487.222656 300.988281 L 487.867188 299.492188 L 488.296875 298.035156 L 498.300781 298.035156 L 497.871094 299.746094 L 497.226562 301.414062 L 496.585938 302.65625 L 495.585938 304.152344 L 494.441406 305.480469 L 492.796875 306.976562 L 491.441406 307.960938 L 489.652344 309.03125 L 488.007812 309.84375 L 486.222656 310.570312 L 483.578125 311.425781 L 481.863281 311.851562 L 480.007812 312.238281 L 477.792969 312.582031 L 475.003906 312.878906 L 472.003906 313.050781 L 469.214844 313.09375 L 466.214844 313.007812 L 464 312.835938 L 461.070312 312.453125 L 457.425781 311.683594 L 454.78125 310.871094 L 452.710938 310.054688 L 450.921875 309.199219 L 448.921875 308.046875 L 446.351562 306.164062 L 444.777344 304.710938 L 443.707031 303.511719 L 442.492188 301.84375 L 441.632812 300.347656 L 440.632812 297.949219 L 439.917969 294.914062 L 439.703125 292.558594 Z M 439.703125 286.65625 "/>
<path style=" stroke:none;fill-rule:nonzero;fill:rgb(83.921569%,15.686275%,22.352941%);fill-opacity:1;" d="M 439.703125 136.46875 L 498.300781 136.46875 L 498.300781 150.238281 L 473.878906 150.359375 L 473.878906 265.113281 L 464.054688 265.113281 L 464.054688 150.480469 L 463.910156 150.238281 L 439.703125 150.238281 Z M 439.703125 136.46875 "/>
<path style=" stroke:none;fill-rule:nonzero;fill:rgb(96.862745%,70.196078%,16.862745%);fill-opacity:1;" d="M 501.382812 143.308594 L 501.453125 143.046875 L 501.453125 137.816406 L 501.742188 126.050781 L 502.457031 109.835938 L 503.382812 96.5 L 504.382812 86.039062 L 505.027344 80.546875 L 506.101562 72.703125 L 507.027344 66.949219 L 509.386719 55.183594 L 512.386719 44.199219 L 514.03125 39.492188 L 515.890625 35.046875 L 518.535156 30.078125 L 519.75 28.246094 L 523.464844 24.0625 L 527.679688 21.449219 L 532.324219 20.664062 L 534.46875 20.925781 L 537.398438 21.96875 L 541.398438 24.847656 L 543.6875 27.460938 L 545.472656 30.078125 L 547.332031 33.476562 L 549.617188 38.707031 L 551.761719 44.984375 L 553.476562 51.257812 L 555.191406 59.105469 L 556.621094 67.472656 L 557.835938 76.625 L 558.90625 87.609375 L 559.550781 96.761719 L 559.980469 105.914062 L 550.046875 105.914062 L 549.472656 96.761719 L 548.832031 89.699219 L 547.757812 81.070312 L 546.6875 74.796875 L 545.617188 69.828125 L 543.613281 63.027344 L 541.898438 58.84375 L 539.757812 55.183594 L 537.683594 52.828125 L 535.324219 51.257812 L 533.898438 50.734375 L 530.109375 50.734375 L 526.679688 52.566406 L 524.679688 54.660156 L 523.25 56.75 L 521.25 60.671875 L 520.035156 63.8125 L 519.320312 65.902344 L 517.175781 74.011719 L 515.746094 81.332031 L 514.960938 86.300781 L 513.960938 94.144531 L 513.246094 101.207031 L 512.460938 111.667969 L 512.03125 119.511719 L 511.460938 137.296875 L 511.386719 184.367188 L 511.601562 194.304688 L 512.03125 205.027344 L 512.601562 214.441406 L 513.460938 224.378906 L 514.316406 231.960938 L 515.816406 242.160156 L 517.105469 248.957031 L 518.105469 253.40625 L 520.035156 260.464844 L 520.820312 262.820312 L 522.679688 267.527344 L 524.605469 271.1875 L 526.964844 274.324219 L 528.75 275.894531 L 531.609375 277.203125 L 535.253906 277.203125 L 539.542969 275.632812 L 542.257812 273.539062 L 544.113281 271.449219 L 545.328125 269.617188 L 546.832031 266.742188 L 547.902344 264.125 L 548.902344 261.25 L 550.117188 256.804688 L 550.117188 194.304688 L 532.46875 194.042969 L 532.46875 164.753906 L 559.90625 164.492188 L 559.980469 266.742188 L 558.476562 273.800781 L 556.621094 280.601562 L 554.832031 285.832031 L 552.976562 290.277344 L 550.332031 295.246094 L 548.1875 298.382812 L 544.902344 302.042969 L 541.898438 304.398438 L 538.753906 305.96875 L 535.96875 306.75 L 532.683594 307.011719 L 529.753906 306.492188 L 526.609375 304.921875 L 524.105469 302.828125 L 521.820312 300.214844 L 519.535156 296.816406 L 516.675781 291.324219 L 514.816406 286.878906 L 512.886719 281.386719 L 510.957031 274.847656 L 509.242188 267.789062 L 508.101562 262.296875 L 506.957031 256.019531 L 505.742188 248.175781 L 504.597656 239.28125 L 503.742188 231.175781 L 502.957031 222.023438 L 502.382812 213.394531 L 501.8125 201.625 L 501.527344 192.210938 L 501.382812 184.105469 Z M 501.382812 143.308594 "/>
<path style=" stroke:none;fill-rule:nonzero;fill:rgb(83.921569%,15.686275%,22.352941%);fill-opacity:1;" d="M 501.382812 308.191406 L 559.980469 308.191406 L 559.980469 308.695312 L 535.558594 308.703125 L 535.558594 312.90625 L 525.734375 312.90625 L 525.734375 308.707031 L 525.589844 308.695312 L 501.382812 308.695312 Z M 501.382812 308.191406 "/>
<path style=" stroke:none;fill-rule:nonzero;fill:rgb(6.27451%,58.823529%,28.235294%);fill-opacity:1;" d="M 563.0625 314.371094 L 563.125 314.371094 L 588.480469 314.09375 L 596.179688 314.09375 L 621.65625 314.371094 L 612.707031 314.371094 L 606.320312 314.300781 L 578.335938 314.300781 L 572.078125 314.371094 L 563.0625 314.371094 L 581.03125 314.269531 L 603.753906 314.269531 L 592.421875 314.140625 L 592.171875 314.140625 L 580.964844 314.269531 L 581.03125 314.269531 Z M 563.0625 314.371094 "/>
<path style=" stroke:none;fill-rule:nonzero;fill:rgb(14.509804%,36.078431%,60%);fill-opacity:1;" d="M 563.0625 159.851562 L 563.132812 159.625 L 563.132812 154.1875 L 563.347656 145.578125 L 563.847656 134.707031 L 564.347656 127.230469 L 565.636719 113.863281 L 567.421875 100.953125 L 569.28125 90.984375 L 570.636719 85.097656 L 571.851562 80.566406 L 574.640625 72.183594 L 576.425781 67.878906 L 578.355469 64.03125 L 580.710938 60.179688 L 582.425781 57.914062 L 586.285156 54.289062 L 589.144531 52.703125 L 591.359375 52.023438 L 596.148438 52.023438 L 599.003906 52.929688 L 601.078125 54.0625 L 603.363281 55.875 L 605.292969 57.914062 L 608.652344 62.898438 L 611.652344 69.238281 L 613.011719 72.863281 L 615.15625 79.886719 L 616.796875 86.683594 L 617.941406 92.570312 L 619.226562 100.953125 L 620.371094 111.148438 L 621.230469 122.699219 L 621.65625 132.441406 L 611.652344 132.441406 L 611.152344 123.378906 L 610.582031 116.355469 L 609.511719 107.070312 L 608.4375 100.5 L 606.9375 93.929688 L 605.578125 89.625 L 603.722656 85.324219 L 602.078125 82.605469 L 600.363281 80.566406 L 598.71875 79.207031 L 595.574219 77.847656 L 591.929688 77.847656 L 590.574219 78.300781 L 587.785156 80.113281 L 586.285156 81.699219 L 584.144531 84.871094 L 582.640625 87.816406 L 580.855469 92.34375 L 579.640625 96.195312 L 578.140625 102.085938 L 577.066406 107.296875 L 575.855469 114.769531 L 575.140625 120.433594 L 574.496094 126.777344 L 573.925781 134.253906 L 573.496094 142.179688 L 573.210938 150.5625 L 573.066406 158.71875 L 573.066406 193.828125 L 573.210938 201.984375 L 573.566406 211.496094 L 574.496094 225.316406 L 575.855469 237.320312 L 577.425781 246.835938 L 578.925781 253.632812 L 579.785156 256.800781 L 580.925781 260.425781 L 582.714844 264.957031 L 585.285156 269.488281 L 586.785156 271.300781 L 589.074219 273.113281 L 591.429688 274.019531 L 594.574219 274.019531 L 597.363281 273.113281 L 599.21875 271.980469 L 601.148438 270.167969 L 603.792969 266.316406 L 605.4375 262.691406 L 606.867188 258.386719 L 607.9375 254.085938 L 608.652344 250.460938 L 609.722656 243.4375 L 610.582031 235.734375 L 611.226562 227.808594 L 611.652344 220.105469 L 621.65625 220.105469 L 621.230469 229.167969 L 620.585938 238 L 619.941406 244.570312 L 618.941406 252.5 L 617.800781 259.519531 L 616.15625 267.449219 L 614.796875 272.660156 L 613.011719 278.324219 L 611.367188 282.625 L 609.582031 286.476562 L 606.9375 291.007812 L 605.222656 293.273438 L 603.363281 295.3125 L 601.148438 297.125 L 598.363281 298.710938 L 595.363281 299.617188 L 592.574219 299.84375 L 589.574219 299.390625 L 587.359375 298.484375 L 584.429688 296.445312 L 580.785156 292.367188 L 578.140625 288.0625 L 576.066406 283.757812 L 574.28125 279.230469 L 572.28125 273.113281 L 569.707031 263.144531 L 568.136719 255.445312 L 567.0625 249.101562 L 565.847656 240.265625 L 564.992188 232.335938 L 563.992188 219.652344 L 563.277344 203.570312 L 563.0625 191.109375 Z M 563.0625 159.851562 "/>
<path style=" stroke:none;fill-rule:nonzero;fill:rgb(96.862745%,70.196078%,16.862745%);fill-opacity:1;" d="M 563.0625 310.164062 L 563.132812 310.160156 L 563.132812 310.070312 L 563.421875 309.875 L 564.132812 309.601562 L 565.0625 309.378906 L 566.0625 309.203125 L 566.707031 309.109375 L 567.777344 308.976562 L 568.707031 308.882812 L 571.066406 308.683594 L 574.066406 308.5 L 575.710938 308.417969 L 577.570312 308.34375 L 580.210938 308.261719 L 581.425781 308.230469 L 585.144531 308.160156 L 589.359375 308.117188 L 594.003906 308.101562 L 596.148438 308.105469 L 599.078125 308.125 L 603.078125 308.171875 L 605.367188 308.21875 L 607.152344 308.261719 L 609.011719 308.316406 L 611.296875 308.40625 L 613.441406 308.511719 L 615.15625 308.617188 L 616.871094 308.75 L 618.300781 308.890625 L 619.515625 309.042969 L 620.585938 309.226562 L 621.230469 309.382812 L 621.65625 309.535156 L 611.726562 309.535156 L 611.152344 309.382812 L 610.511719 309.261719 L 609.4375 309.117188 L 608.367188 309.011719 L 607.292969 308.929688 L 605.292969 308.816406 L 603.578125 308.746094 L 601.433594 308.683594 L 599.363281 308.644531 L 597.003906 308.617188 L 595.574219 308.609375 L 591.789062 308.609375 L 588.359375 308.640625 L 586.359375 308.675781 L 584.929688 308.710938 L 582.929688 308.777344 L 581.714844 308.828125 L 581 308.863281 L 578.855469 309 L 577.425781 309.121094 L 576.640625 309.207031 L 575.640625 309.339844 L 574.925781 309.457031 L 574.136719 309.632812 L 573.710938 309.765625 L 573.136719 310.0625 L 573.066406 310.855469 L 573.28125 311.023438 L 573.710938 311.203125 L 574.28125 311.359375 L 575.140625 311.527344 L 575.996094 311.65625 L 577.496094 311.824219 L 578.785156 311.941406 L 579.785156 312.015625 L 581.714844 312.132812 L 582.5 312.171875 L 584.355469 312.253906 L 586.285156 312.3125 L 588.644531 312.367188 L 590.429688 312.394531 L 593.289062 312.414062 L 596.933594 312.414062 L 601.222656 312.386719 L 603.9375 312.351562 L 605.792969 312.316406 L 607.007812 312.289062 L 608.507812 312.238281 L 609.582031 312.195312 L 610.582031 312.148438 L 611.796875 312.070312 L 611.796875 311.023438 L 594.148438 311.015625 L 594.148438 310.523438 L 621.585938 310.519531 L 621.65625 312.238281 L 620.15625 312.359375 L 618.300781 312.472656 L 616.511719 312.558594 L 614.65625 312.632812 L 612.011719 312.71875 L 609.867188 312.769531 L 606.582031 312.832031 L 603.578125 312.871094 L 600.433594 312.898438 L 597.648438 312.910156 L 594.359375 312.914062 L 591.429688 312.90625 L 588.289062 312.878906 L 585.785156 312.84375 L 583.5 312.800781 L 581.210938 312.746094 L 578.355469 312.652344 L 576.496094 312.578125 L 574.566406 312.484375 L 572.636719 312.375 L 570.921875 312.257812 L 569.78125 312.164062 L 568.636719 312.058594 L 567.421875 311.925781 L 566.277344 311.777344 L 565.421875 311.640625 L 564.632812 311.488281 L 564.0625 311.34375 L 563.492188 311.144531 L 563.207031 310.988281 L 563.0625 310.851562 Z M 563.0625 310.164062 "/>
<path style=" stroke:none;fill-rule:nonzero;fill:rgb(83.921569%,15.686275%,22.352941%);fill-opacity:1;" d="M 563.0625 301.023438 L 621.65625 301.023438 L 621.65625 301.652344 L 597.238281 301.660156 L 597.238281 306.921875 L 587.410156 306.921875 L 587.410156 301.664062 L 587.269531 301.652344 L 563.0625 301.652344 Z M 563.0625 301.023438 "/>
<path style=" stroke:none;fill-rule:nonzero;fill:rgb(6.27451%,58.823529%,28.235294%);fill-opacity:1;" d="M 624.742188 312.316406 L 624.804688 312.316406 L 650.15625 312.148438 L 657.859375 312.148438 L 683.335938 312.316406 L 674.386719 312.316406 L 668 312.273438 L 640.015625 312.273438 L 633.757812 312.316406 L 624.742188 312.316406 L 642.707031 312.253906 L 665.433594 312.253906 L 654.101562 312.175781 L 653.851562 312.175781 L 642.644531 312.253906 L 642.707031 312.253906 Z M 624.742188 312.316406 "/>
<path style=" stroke:none;fill-rule:nonzero;fill:rgb(96.862745%,70.196078%,16.862745%);fill-opacity:1;" d="M 624.742188 310.691406 L 624.8125 310.691406 L 624.8125 310.683594 L 625.097656 310.664062 L 625.8125 310.636719 L 626.742188 310.613281 L 627.742188 310.59375 L 628.386719 310.585938 L 629.457031 310.574219 L 630.386719 310.5625 L 632.746094 310.542969 L 635.746094 310.523438 L 637.390625 310.515625 L 639.246094 310.507812 L 641.890625 310.5 L 643.105469 310.496094 L 646.820312 310.492188 L 651.039062 310.484375 L 657.828125 310.484375 L 660.757812 310.488281 L 664.757812 310.492188 L 667.042969 310.496094 L 668.832031 310.5 L 670.6875 310.507812 L 672.976562 310.515625 L 675.121094 310.527344 L 676.835938 310.535156 L 678.550781 310.550781 L 679.980469 310.5625 L 681.191406 310.578125 L 682.265625 310.597656 L 682.910156 310.613281 L 683.335938 310.628906 L 673.40625 310.628906 L 672.832031 310.613281 L 672.191406 310.601562 L 671.117188 310.585938 L 670.046875 310.574219 L 668.972656 310.566406 L 666.972656 310.554688 L 665.257812 310.550781 L 663.113281 310.542969 L 661.042969 310.539062 L 658.683594 310.535156 L 653.46875 310.535156 L 650.039062 310.539062 L 648.035156 310.542969 L 646.609375 310.546875 L 644.605469 310.550781 L 643.390625 310.558594 L 642.675781 310.5625 L 640.535156 310.574219 L 639.105469 310.585938 L 638.320312 310.59375 L 637.316406 310.609375 L 636.605469 310.621094 L 635.816406 310.636719 L 635.390625 310.652344 L 634.816406 310.683594 L 634.746094 310.761719 L 634.960938 310.777344 L 635.390625 310.796875 L 635.960938 310.8125 L 636.816406 310.828125 L 637.675781 310.839844 L 639.175781 310.859375 L 640.460938 310.871094 L 641.464844 310.878906 L 643.390625 310.890625 L 644.179688 310.894531 L 646.035156 310.902344 L 647.964844 310.90625 L 650.324219 310.914062 L 652.109375 310.914062 L 654.96875 310.917969 L 658.613281 310.917969 L 662.898438 310.914062 L 665.617188 310.910156 L 667.472656 310.910156 L 668.6875 310.90625 L 670.1875 310.902344 L 671.261719 310.894531 L 672.261719 310.890625 L 673.476562 310.882812 L 673.476562 310.777344 L 655.824219 310.777344 L 655.824219 310.726562 L 683.265625 310.726562 L 683.335938 310.902344 L 681.835938 310.914062 L 679.980469 310.925781 L 678.191406 310.933594 L 676.335938 310.941406 L 673.691406 310.949219 L 671.546875 310.953125 L 668.257812 310.960938 L 665.257812 310.964844 L 662.113281 310.964844 L 659.328125 310.96875 L 653.109375 310.96875 L 649.964844 310.964844 L 647.464844 310.960938 L 645.179688 310.957031 L 642.890625 310.953125 L 640.035156 310.941406 L 638.175781 310.933594 L 636.246094 310.925781 L 634.316406 310.914062 L 632.601562 310.902344 L 631.457031 310.894531 L 630.316406 310.882812 L 629.101562 310.867188 L 627.957031 310.855469 L 627.101562 310.839844 L 626.3125 310.824219 L 625.742188 310.808594 L 625.171875 310.789062 L 624.882812 310.773438 L 624.742188 310.761719 Z M 624.742188 310.691406 "/>
<g style="fill:rgb(0%,0%,0%);fill-opacity:1;">
  <use xlink:href="#glyph0-1" x="21.957031" y="318.198242"/>
  <use xlink:href="#glyph0-2" x="27.291016" y="318.198242"/>
  <use xlink:href="#glyph0-1" x="29.958008" y="318.198242"/>
</g>
<g style="fill:rgb(0%,0%,0%);fill-opacity:1;">
  <use xlink:href="#glyph0-1" x="21.957031" y="236.709961"/>
  <use xlink:href="#glyph0-2" x="27.291016" y="236.709961"/>
  <use xlink:href="#glyph0-3" x="29.958008" y="236.709961"/>
</g>
<g style="fill:rgb(0%,0%,0%);fill-opacity:1;">
  <use xlink:href="#glyph0-4" x="21.957031" y="155.22168"/>
  <use xlink:href="#glyph0-2" x="27.291016" y="155.22168"/>
  <use xlink:href="#glyph0-1" x="29.958008" y="155.22168"/>
</g>
<g style="fill:rgb(0%,0%,0%);fill-opacity:1;">
  <use xlink:href="#glyph0-4" x="21.957031" y="73.733398"/>
  <use xlink:href="#glyph0-2" x="27.291016" y="73.733398"/>
  <use xlink:href="#glyph0-3" x="29.958008" y="73.733398"/>
</g>
<g style="fill:rgb(0%,0%,0%);fill-opacity:1;">
  <use xlink:href="#glyph0-4" x="95.925781" y="338.19043"/>
</g>
<g style="fill:rgb(0%,0%,0%);fill-opacity:1;">
  <use xlink:href="#glyph0-5" x="157.605469" y="338.19043"/>
</g>
<g style="fill:rgb(0%,0%,0%);fill-opacity:1;">
  <use xlink:href="#glyph0-6" x="219.285156" y="338.19043"/>
</g>
<g style="fill:rgb(0%,0%,0%);fill-opacity:1;">
  <use xlink:href="#glyph0-7" x="280.964844" y="338.19043"/>
</g>
<g style="fill:rgb(0%,0%,0%);fill-opacity:1;">
  <use xlink:href="#glyph0-3" x="342.644531" y="338.19043"/>
</g>
<g style="fill:rgb(0%,0%,0%);fill-opacity:1;">
  <use xlink:href="#glyph0-8" x="404.324219" y="338.19043"/>
</g>
<g style="fill:rgb(0%,0%,0%);fill-opacity:1;">
  <use xlink:href="#glyph0-9" x="466" y="338.19043"/>
</g>
<g style="fill:rgb(0%,0%,0%);fill-opacity:1;">
  <use xlink:href="#glyph0-10" x="527.679688" y="338.19043"/>
</g>
<g style="fill:rgb(0%,0%,0%);fill-opacity:1;">
  <use xlink:href="#glyph0-11" x="589.359375" y="338.19043"/>
</g>
<g style="fill:rgb(0%,0%,0%);fill-opacity:1;">
  <use xlink:href="#glyph0-4" x="648.539062" y="338.19043"/>
  <use xlink:href="#glyph0-1" x="653.873047" y="338.19043"/>
</g>
<g style="fill:rgb(0%,0%,0%);fill-opacity:1;">
  <use xlink:href="#glyph1-1" x="14.412109" y="178.015625"/>
  <use xlink:href="#glyph1-2" x="14.412109" y="170.011719"/>
  <use xlink:href="#glyph1-3" x="14.412109" y="167.347656"/>
  <use xlink:href="#glyph1-4" x="14.412109" y="164.011719"/>
</g>
</g>
</svg>
