<?xml version="1.0" encoding="UTF-8"?>
<svg xmlns="http://www.w3.org/2000/svg" xmlns:xlink="http://www.w3.org/1999/xlink" width="720pt" height="360pt" viewBox="0 0 720 360" version="1.1">
<defs>
<g>
<symbol overflow="visible" id="glyph0-0">
<path style="stroke:none;" d=""/>
</symbol>
<symbol overflow="visible" id="glyph0-1">
<path style="stroke:none;" d="M 2.640625 -6.796875 C 2 -6.796875 1.421875 -6.53125 1.078125 -6.046875 C 0.640625 -5.453125 0.40625 -4.546875 0.40625 -3.296875 C 0.40625 -1 1.1875 0.21875 2.640625 0.21875 C 4.078125 0.21875 4.859375 -1 4.859375 -3.234375 C 4.859375 -4.5625 4.65625 -5.4375 4.203125 -6.046875 C 3.84375 -6.53125 3.28125 -6.796875 2.640625 -6.796875 Z M 2.640625 -6.046875 C 3.546875 -6.046875 4 -5.125 4 -3.3125 C 4 -1.375 3.5625 -0.484375 2.625 -0.484375 C 1.734375 -0.484375 1.28125 -1.421875 1.28125 -3.28125 C 1.28125 -5.140625 1.734375 -6.046875 2.640625 -6.046875 Z M 2.640625 -6.046875 "/>
</symbol>
<symbol overflow="visible" id="glyph0-2">
<path style="stroke:none;" d="M 1.828125 -1 L 0.828125 -1 L 0.828125 0 L 1.828125 0 Z M 1.828125 -1 "/>
</symbol>
<symbol overflow="visible" id="glyph0-3">
<path style="stroke:none;" d="M 4.5625 -6.796875 L 1.0625 -6.796875 L 0.546875 -3.09375 L 1.328125 -3.09375 C 1.71875 -3.5625 2.046875 -3.734375 2.578125 -3.734375 C 3.484375 -3.734375 4.0625 -3.109375 4.0625 -2.09375 C 4.0625 -1.125 3.484375 -0.53125 2.578125 -0.53125 C 1.828125 -0.53125 1.375 -0.90625 1.1875 -1.671875 L 0.328125 -1.671875 C 0.453125 -1.109375 0.546875 -0.84375 0.75 -0.59375 C 1.125 -0.078125 1.828125 0.21875 2.59375 0.21875 C 3.96875 0.21875 4.921875 -0.78125 4.921875 -2.21875 C 4.921875 -3.5625 4.03125 -4.484375 2.71875 -4.484375 C 2.25 -4.484375 1.859375 -4.359375 1.46875 -4.0625 L 1.734375 -5.96875 L 4.5625 -5.96875 Z M 4.5625 -6.796875 "/>
</symbol>
<symbol overflow="visible" id="glyph0-4">
<path style="stroke:none;" d="M 2.484375 -4.84375 L 2.484375 0 L 3.328125 0 L 3.328125 -6.796875 L 2.765625 -6.796875 C 2.46875 -5.75 2.28125 -5.609375 0.984375 -5.453125 L 0.984375 -4.84375 Z M 2.484375 -4.84375 "/>
</symbol>
<symbol overflow="visible" id="glyph0-5">
<path style="stroke:none;" d="M 4.859375 -0.828125 L 1.28125 -0.828125 C 1.359375 -1.390625 1.671875 -1.75 2.5 -2.234375 L 3.46875 -2.75 C 4.40625 -3.265625 4.90625 -3.96875 4.90625 -4.8125 C 4.90625 -5.375 4.671875 -5.90625 4.265625 -6.265625 C 3.859375 -6.625 3.375 -6.796875 2.71875 -6.796875 C 1.859375 -6.796875 1.21875 -6.5 0.84375 -5.921875 C 0.609375 -5.5625 0.5 -5.125 0.484375 -4.4375 L 1.328125 -4.4375 C 1.359375 -4.90625 1.40625 -5.1875 1.53125 -5.40625 C 1.75 -5.8125 2.1875 -6.0625 2.703125 -6.0625 C 3.46875 -6.0625 4.03125 -5.515625 4.03125 -4.78125 C 4.03125 -4.25 3.71875 -3.796875 3.125 -3.4375 L 2.234375 -2.9375 C 0.8125 -2.140625 0.40625 -1.5 0.328125 0 L 4.859375 0 Z M 4.859375 -0.828125 "/>
</symbol>
<symbol overflow="visible" id="glyph0-6">
<path style="stroke:none;" d="M 2.125 -3.125 L 2.578125 -3.125 C 3.515625 -3.125 3.984375 -2.703125 3.984375 -1.890625 C 3.984375 -1.03125 3.46875 -0.53125 2.578125 -0.53125 C 1.65625 -0.53125 1.203125 -0.984375 1.15625 -1.96875 L 0.3125 -1.96875 C 0.34375 -1.421875 0.4375 -1.078125 0.609375 -0.765625 C 0.953125 -0.109375 1.625 0.21875 2.546875 0.21875 C 3.953125 0.21875 4.859375 -0.609375 4.859375 -1.90625 C 4.859375 -2.765625 4.515625 -3.25 3.703125 -3.515625 C 4.34375 -3.765625 4.65625 -4.25 4.65625 -4.9375 C 4.65625 -6.109375 3.875 -6.796875 2.578125 -6.796875 C 1.203125 -6.796875 0.484375 -6.046875 0.453125 -4.609375 L 1.296875 -4.609375 C 1.3125 -5.015625 1.34375 -5.25 1.453125 -5.453125 C 1.640625 -5.828125 2.0625 -6.0625 2.59375 -6.0625 C 3.34375 -6.0625 3.796875 -5.625 3.796875 -4.90625 C 3.796875 -4.421875 3.609375 -4.140625 3.25 -3.984375 C 3.015625 -3.890625 2.71875 -3.84375 2.125 -3.84375 Z M 2.125 -3.125 "/>
</symbol>
<symbol overflow="visible" id="glyph0-7">
<path style="stroke:none;" d="M 3.140625 -1.625 L 3.140625 0 L 3.984375 0 L 3.984375 -1.625 L 4.984375 -1.625 L 4.984375 -2.390625 L 3.984375 -2.390625 L 3.984375 -6.796875 L 3.359375 -6.796875 L 0.265625 -2.515625 L 0.265625 -1.625 Z M 3.140625 -2.390625 L 1 -2.390625 L 3.140625 -5.359375 Z M 3.140625 -2.390625 "/>
</symbol>
<symbol overflow="visible" id="glyph0-8">
<path style="stroke:none;" d="M 4.78125 -5.03125 C 4.609375 -6.140625 3.890625 -6.796875 2.84375 -6.796875 C 2.09375 -6.796875 1.421875 -6.4375 1.03125 -5.828125 C 0.609375 -5.171875 0.40625 -4.34375 0.40625 -3.09375 C 0.40625 -1.953125 0.578125 -1.234375 0.984375 -0.625 C 1.359375 -0.078125 1.953125 0.21875 2.703125 0.21875 C 3.984375 0.21875 4.921875 -0.734375 4.921875 -2.078125 C 4.921875 -3.34375 4.0625 -4.234375 2.84375 -4.234375 C 2.171875 -4.234375 1.640625 -3.96875 1.28125 -3.46875 C 1.28125 -5.125 1.828125 -6.046875 2.796875 -6.046875 C 3.390625 -6.046875 3.796875 -5.671875 3.9375 -5.03125 Z M 2.734375 -3.484375 C 3.546875 -3.484375 4.0625 -2.921875 4.0625 -2 C 4.0625 -1.15625 3.484375 -0.53125 2.703125 -0.53125 C 1.921875 -0.53125 1.328125 -1.1875 1.328125 -2.046875 C 1.328125 -2.890625 1.90625 -3.484375 2.734375 -3.484375 Z M 2.734375 -3.484375 "/>
</symbol>
<symbol overflow="visible" id="glyph0-9">
<path style="stroke:none;" d="M 4.984375 -6.796875 L 0.4375 -6.796875 L 0.4375 -5.96875 L 4.109375 -5.96875 C 2.5 -3.65625 1.828125 -2.234375 1.328125 0 L 2.21875 0 C 2.59375 -2.171875 3.453125 -4.046875 4.984375 -6.09375 Z M 4.984375 -6.796875 "/>
</symbol>
<symbol overflow="visible" id="glyph0-10">
<path style="stroke:none;" d="M 3.75 -3.578125 C 4.453125 -4 4.6875 -4.34375 4.6875 -4.984375 C 4.6875 -6.046875 3.84375 -6.796875 2.640625 -6.796875 C 1.4375 -6.796875 0.59375 -6.046875 0.59375 -4.984375 C 0.59375 -4.359375 0.828125 -4.015625 1.515625 -3.578125 C 0.734375 -3.203125 0.359375 -2.640625 0.359375 -1.890625 C 0.359375 -0.640625 1.296875 0.21875 2.640625 0.21875 C 3.984375 0.21875 4.921875 -0.640625 4.921875 -1.875 C 4.921875 -2.640625 4.53125 -3.203125 3.75 -3.578125 Z M 2.640625 -6.046875 C 3.359375 -6.046875 3.8125 -5.625 3.8125 -4.96875 C 3.8125 -4.34375 3.34375 -3.921875 2.640625 -3.921875 C 1.921875 -3.921875 1.453125 -4.34375 1.453125 -4.984375 C 1.453125 -5.625 1.921875 -6.046875 2.640625 -6.046875 Z M 2.640625 -3.203125 C 3.484375 -3.203125 4.0625 -2.671875 4.0625 -1.875 C 4.0625 -1.0625 3.484375 -0.53125 2.625 -0.53125 C 1.796875 -0.53125 1.21875 -1.078125 1.21875 -1.875 C 1.21875 -2.671875 1.796875 -3.203125 2.640625 -3.203125 Z M 2.640625 -3.203125 "/>
</symbol>
<symbol overflow="visible" id="glyph0-11">
<path style="stroke:none;" d="M 0.515625 -1.546875 C 0.671875 -0.4375 1.40625 0.21875 2.4375 0.21875 C 3.1875 0.21875 3.859375 -0.140625 4.265625 -0.75 C 4.6875 -1.40625 4.890625 -2.25 4.890625 -3.484375 C 4.890625 -4.625 4.703125 -5.359375 4.3125 -5.953125 C 3.9375 -6.5 3.34375 -6.796875 2.59375 -6.796875 C 1.296875 -6.796875 0.359375 -5.84375 0.359375 -4.515625 C 0.359375 -3.25 1.234375 -2.34375 2.453125 -2.34375 C 3.09375 -2.34375 3.5625 -2.578125 4.015625 -3.109375 C 4 -1.453125 3.46875 -0.53125 2.5 -0.53125 C 1.90625 -0.53125 1.484375 -0.90625 1.359375 -1.546875 Z M 2.578125 -6.0625 C 3.375 -6.0625 3.96875 -5.40625 3.96875 -4.53125 C 3.96875 -3.6875 3.375 -3.09375 2.546875 -3.09375 C 1.734375 -3.09375 1.234375 -3.671875 1.234375 -4.578125 C 1.234375 -5.4375 1.796875 -6.0625 2.578125 -6.0625 Z M 2.578125 -6.0625 "/>
</symbol>
<symbol overflow="visible" id="glyph1-0">
<path style="stroke:none;" d=""/>
</symbol>
<symbol overflow="visible" id="glyph1-1">
<path style="stroke:none;" d="M 0 -0.953125 L 0 -4.890625 C 0 -5.71875 -0.234375 -6.34375 -0.734375 -6.796875 C -1.1875 -7.234375 -1.8125 -7.46875 -2.5 -7.46875 C -3.546875 -7.46875 -4.1875 -7 -4.625 -5.875 C -4.984375 -6.671875 -5.640625 -7.09375 -6.53125 -7.09375 C -7.15625 -7.09375 -7.734375 -6.859375 -8.140625 -6.390625 C -8.5625 -5.9375 -8.75 -5.34375 -8.75 -4.5 L -8.75 -0.953125 Z M -4.984375 -2.0625 L -7.765625 -2.0625 L -7.765625 -4.21875 C -7.765625 -4.84375 -7.6875 -5.203125 -7.453125 -5.5 C -7.21875 -5.8125 -6.859375 -5.96875 -6.375 -5.96875 C -5.90625 -5.96875 -5.53125 -5.8125 -5.296875 -5.5 C -5.0625 -5.203125 -4.984375 -4.84375 -4.984375 -4.21875 Z M -0.984375 -2.0625 L -4 -2.0625 L -4 -4.78125 C -4 -5.328125 -3.859375 -5.6875 -3.578125 -5.953125 C -3.296875 -6.21875 -2.921875 -6.359375 -2.484375 -6.359375 C -2.0625 -6.359375 -1.6875 -6.21875 -1.40625 -5.953125 C -1.109375 -5.6875 -0.984375 -5.328125 -0.984375 -4.78125 Z M -0.984375 -2.0625 "/>
</symbol>
<symbol overflow="visible" id="glyph1-2">
<path style="stroke:none;" d="M -6.28125 -1.796875 L -6.28125 -0.796875 L 0 -0.796875 L 0 -1.796875 Z M -8.75 -1.796875 L -8.75 -0.796875 L -7.484375 -0.796875 L -7.484375 -1.796875 Z M -8.75 -1.796875 "/>
</symbol>
<symbol overflow="visible" id="glyph1-3">
<path style="stroke:none;" d="M -6.28125 -3.046875 L -6.28125 -2.015625 L -8.015625 -2.015625 L -8.015625 -1.015625 L -6.28125 -1.015625 L -6.28125 -0.171875 L -5.46875 -0.171875 L -5.46875 -1.015625 L -0.71875 -1.015625 C -0.078125 -1.015625 0.28125 -1.453125 0.28125 -2.234375 C 0.28125 -2.46875 0.25 -2.71875 0.1875 -3.046875 L -0.640625 -3.046875 C -0.609375 -2.921875 -0.59375 -2.765625 -0.59375 -2.5625 C -0.59375 -2.140625 -0.71875 -2.015625 -1.15625 -2.015625 L -5.46875 -2.015625 L -5.46875 -3.046875 Z M -6.28125 -3.046875 "/>
</symbol>
<symbol overflow="visible" id="glyph1-4">
<path style="stroke:none;" d="M -4.53125 -5.25 C -5.765625 -5.25 -6.46875 -4.421875 -6.46875 -2.96875 C -6.46875 -1.515625 -5.71875 -0.5625 -4.546875 -0.5625 C -3.5625 -0.5625 -3.09375 -1.0625 -2.734375 -2.5625 L -2.515625 -3.484375 C -2.34375 -4.1875 -2.09375 -4.46875 -1.625 -4.46875 C -1.046875 -4.46875 -0.640625 -3.875 -0.640625 -3 C -0.640625 -2.453125 -0.796875 -2 -1.0625 -1.75 C -1.25 -1.59375 -1.421875 -1.53125 -1.875 -1.46875 L -1.875 -0.40625 C -0.421875 -0.453125 0.28125 -1.265625 0.28125 -2.921875 C 0.28125 -4.5 -0.5 -5.515625 -1.71875 -5.515625 C -2.65625 -5.515625 -3.171875 -4.984375 -3.46875 -3.734375 L -3.703125 -2.765625 C -3.890625 -1.953125 -4.15625 -1.609375 -4.59375 -1.609375 C -5.171875 -1.609375 -5.546875 -2.125 -5.546875 -2.9375 C -5.546875 -3.75 -5.203125 -4.171875 -4.53125 -4.203125 Z M -4.53125 -5.25 "/>
</symbol>
</g>
</defs>
<g id="surface48755">
<rect x="0" y="0" width="720" height="360" style="fill:rgb(100%,100%,100%);fill-opacity:1;stroke:none;"/>
<path style=" stroke:none;fill-rule:nonzero;fill:rgb(6.27451%,58.823529%,28.235294%);fill-opacity:1;" d="M 69.628906 311.535156 L 69.667969 311.53125 L 85.484375 309.382812 L 90.289062 309.382812 L 106.183594 311.535156 L 100.597656 311.535156 L 96.613281 310.972656 L 79.15625 310.972656 L 75.253906 311.535156 L 69.628906 311.535156 L 80.835938 310.742188 L 95.011719 310.738281 L 87.945312 309.734375 L 87.867188 309.730469 L 87.789062 309.738281 L 80.796875 310.738281 L 80.835938 310.742188 Z M 69.628906 311.535156 "/>
<path style=" stroke:none;fill-rule:nonzero;fill:rgb(14.509804%,36.078431%,60%);fill-opacity:1;" d="M 69.628906 306.984375 L 69.675781 306.984375 L 69.675781 306.933594 L 69.808594 306.859375 L 70.121094 306.765625 L 70.433594 306.699219 L 71.234375 306.585938 L 72.347656 306.472656 L 73.507812 306.386719 L 74.355469 306.335938 L 75.113281 306.296875 L 76.851562 306.222656 L 77.964844 306.183594 L 79.167969 306.152344 L 80.640625 306.117188 L 81.710938 306.097656 L 84.117188 306.066406 L 85.898438 306.054688 L 87.28125 306.046875 L 90.269531 306.046875 L 92.050781 306.054688 L 93.34375 306.066406 L 94.769531 306.082031 L 95.972656 306.097656 L 98.070312 306.140625 L 99.941406 306.195312 L 100.789062 306.226562 L 102.125 306.289062 L 103.152344 306.347656 L 103.863281 306.398438 L 104.667969 306.472656 L 105.378906 306.5625 L 105.914062 306.660156 L 106.183594 306.746094 L 99.941406 306.746094 L 99.628906 306.667969 L 99.273438 306.605469 L 98.605469 306.527344 L 97.9375 306.46875 L 97 306.410156 L 96.152344 306.375 L 94.992188 306.335938 L 93.96875 306.3125 L 92.898438 306.296875 L 91.875 306.285156 L 89.910156 306.269531 L 87.636719 306.269531 L 86.792969 306.273438 L 85.054688 306.292969 L 84.117188 306.304688 L 82.78125 306.332031 L 81.84375 306.359375 L 80.730469 306.398438 L 79.972656 306.429688 L 79.035156 306.480469 L 78.367188 306.527344 L 77.609375 306.59375 L 77.164062 306.640625 L 76.761719 306.695312 L 76.40625 306.761719 L 76.136719 306.832031 L 75.960938 306.902344 L 75.871094 306.976562 L 75.871094 307.28125 L 75.960938 307.351562 L 76.183594 307.433594 L 76.761719 307.554688 L 77.609375 307.65625 L 78.589844 307.742188 L 79.527344 307.800781 L 80.058594 307.828125 L 80.773438 307.859375 L 81.886719 307.898438 L 83.492188 307.9375 L 84.429688 307.953125 L 85.855469 307.96875 L 87.328125 307.976562 L 89.289062 307.976562 L 91.027344 307.96875 L 92.183594 307.960938 L 93.390625 307.945312 L 95.039062 307.910156 L 96.0625 307.878906 L 96.953125 307.839844 L 97.625 307.804688 L 98.070312 307.773438 L 98.738281 307.710938 L 99.273438 307.644531 L 99.675781 307.574219 L 99.941406 307.507812 L 106.183594 307.507812 L 105.914062 307.585938 L 105.515625 307.664062 L 105.113281 307.722656 L 104.488281 307.789062 L 103.773438 307.851562 L 102.75 307.921875 L 101.902344 307.964844 L 100.789062 308.015625 L 99.761719 308.050781 L 98.648438 308.085938 L 97 308.125 L 95.929688 308.144531 L 94.769531 308.164062 L 93.390625 308.179688 L 91.648438 308.191406 L 89.777344 308.199219 L 88.039062 308.203125 L 86.167969 308.199219 L 84.785156 308.191406 L 82.957031 308.171875 L 80.683594 308.136719 L 79.035156 308.097656 L 77.742188 308.0625 L 76.628906 308.023438 L 75.378906 307.96875 L 73.773438 307.882812 L 72.792969 307.816406 L 72.125 307.761719 L 71.367188 307.683594 L 70.832031 307.613281 L 70.207031 307.503906 L 69.761719 307.363281 L 69.628906 307.257812 Z M 69.628906 306.984375 "/>
<path style=" stroke:none;fill-rule:nonzero;fill:rgb(96.862745%,70.196078%,16.862745%);fill-opacity:1;" d="M 69.628906 313.425781 L 69.675781 313.421875 L 69.675781 313.394531 L 69.851562 313.324219 L 70.296875 313.230469 L 70.878906 313.152344 L 71.5 313.09375 L 71.902344 313.0625 L 72.570312 313.015625 L 73.152344 312.984375 L 74.621094 312.914062 L 76.496094 312.851562 L 77.519531 312.824219 L 78.679688 312.800781 L 80.328125 312.769531 L 81.085938 312.757812 L 83.402344 312.734375 L 86.035156 312.71875 L 88.929688 312.714844 L 90.269531 312.71875 L 92.097656 312.722656 L 94.59375 312.738281 L 96.019531 312.753906 L 97.132812 312.769531 L 98.292969 312.789062 L 99.71875 312.820312 L 101.054688 312.855469 L 102.125 312.894531 L 103.195312 312.9375 L 104.085938 312.988281 L 104.84375 313.039062 L 105.515625 313.101562 L 105.914062 313.15625 L 106.183594 313.207031 L 99.984375 313.207031 L 99.628906 313.15625 L 99.226562 313.113281 L 98.558594 313.066406 L 97.890625 313.027344 L 97.222656 313 L 95.972656 312.960938 L 94.90625 312.9375 L 93.566406 312.914062 L 92.273438 312.902344 L 90.804688 312.894531 L 89.910156 312.890625 L 87.550781 312.890625 L 85.410156 312.898438 L 84.160156 312.914062 L 83.269531 312.925781 L 82.023438 312.945312 L 81.265625 312.964844 L 80.816406 312.976562 L 79.480469 313.023438 L 78.589844 313.066406 L 78.097656 313.09375 L 77.476562 313.140625 L 77.027344 313.179688 L 76.539062 313.242188 L 76.269531 313.289062 L 75.914062 313.390625 L 75.871094 313.660156 L 76.003906 313.71875 L 76.269531 313.78125 L 76.628906 313.835938 L 77.164062 313.894531 L 77.699219 313.9375 L 78.632812 313.996094 L 79.4375 314.035156 L 80.058594 314.0625 L 81.265625 314.101562 L 81.753906 314.117188 L 82.914062 314.140625 L 84.117188 314.164062 L 85.589844 314.183594 L 86.703125 314.191406 L 88.484375 314.199219 L 90.757812 314.199219 L 93.433594 314.1875 L 95.128906 314.175781 L 96.285156 314.164062 L 97.042969 314.15625 L 97.980469 314.136719 L 98.648438 314.121094 L 99.273438 314.105469 L 100.03125 314.082031 L 100.03125 313.71875 L 89.019531 313.71875 L 89.019531 313.546875 L 106.136719 313.546875 L 106.183594 314.136719 L 105.246094 314.179688 L 104.085938 314.21875 L 102.972656 314.25 L 101.8125 314.273438 L 100.164062 314.300781 L 98.828125 314.320312 L 96.777344 314.34375 L 94.90625 314.355469 L 92.941406 314.363281 L 91.203125 314.371094 L 89.152344 314.371094 L 87.328125 314.367188 L 85.363281 314.359375 L 83.804688 314.347656 L 82.378906 314.332031 L 80.953125 314.3125 L 79.167969 314.28125 L 78.011719 314.253906 L 76.804688 314.222656 L 75.601562 314.183594 L 74.53125 314.144531 L 73.820312 314.113281 L 73.105469 314.074219 L 72.347656 314.03125 L 71.636719 313.980469 L 71.101562 313.933594 L 70.609375 313.878906 L 70.253906 313.828125 L 69.898438 313.761719 L 69.71875 313.707031 L 69.628906 313.660156 Z M 69.628906 313.425781 "/>
<path style=" stroke:none;fill-rule:nonzero;fill:rgb(83.921569%,15.686275%,22.352941%);fill-opacity:1;" d="M 69.628906 298.878906 L 106.183594 298.878906 L 106.183594 299.519531 L 90.949219 299.523438 L 90.949219 304.867188 L 84.820312 304.867188 L 84.820312 299.53125 L 84.730469 299.519531 L 69.628906 299.519531 Z M 69.628906 298.878906 "/>
<path style=" stroke:none;fill-rule:nonzero;fill:rgb(14.509804%,36.078431%,60%);fill-opacity:1;" d="M 108.105469 310.980469 L 108.152344 310.980469 L 108.152344 310.976562 L 108.285156 310.96875 L 108.597656 310.957031 L 108.910156 310.953125 L 109.710938 310.941406 L 110.824219 310.929688 L 111.984375 310.921875 L 112.832031 310.917969 L 113.589844 310.914062 L 115.328125 310.90625 L 116.441406 310.902344 L 117.644531 310.898438 L 119.117188 310.898438 L 120.1875 310.894531 L 122.59375 310.890625 L 131.820312 310.890625 L 133.246094 310.894531 L 134.453125 310.894531 L 136.546875 310.898438 L 138.417969 310.90625 L 139.265625 310.90625 L 140.601562 310.914062 L 141.628906 310.917969 L 142.339844 310.921875 L 143.144531 310.929688 L 143.855469 310.9375 L 144.390625 310.949219 L 144.660156 310.957031 L 138.417969 310.957031 L 138.105469 310.949219 L 137.75 310.945312 L 136.414062 310.929688 L 135.476562 310.925781 L 134.628906 310.921875 L 133.46875 310.917969 L 132.445312 310.914062 L 130.351562 310.914062 L 128.390625 310.910156 L 125.269531 310.910156 L 123.53125 310.914062 L 122.59375 310.914062 L 121.257812 310.917969 L 120.320312 310.917969 L 119.207031 310.921875 L 118.449219 310.925781 L 117.511719 310.929688 L 116.84375 310.9375 L 116.085938 310.941406 L 115.640625 310.945312 L 115.238281 310.953125 L 114.882812 310.957031 L 114.613281 310.964844 L 114.4375 310.972656 L 114.347656 310.976562 L 114.347656 311.007812 L 114.4375 311.015625 L 114.660156 311.023438 L 115.238281 311.035156 L 116.085938 311.042969 L 117.066406 311.050781 L 118.003906 311.058594 L 118.539062 311.058594 L 119.25 311.0625 L 120.363281 311.066406 L 121.96875 311.070312 L 122.90625 311.070312 L 124.332031 311.074219 L 129.503906 311.074219 L 130.664062 311.070312 L 131.867188 311.070312 L 133.515625 311.066406 L 134.539062 311.0625 L 135.433594 311.0625 L 136.101562 311.058594 L 136.546875 311.054688 L 137.214844 311.046875 L 137.75 311.042969 L 138.152344 311.035156 L 138.417969 311.027344 L 144.660156 311.027344 L 144.390625 311.035156 L 143.992188 311.042969 L 143.589844 311.050781 L 142.964844 311.054688 L 142.253906 311.0625 L 141.226562 311.066406 L 140.378906 311.074219 L 139.265625 311.078125 L 138.242188 311.082031 L 137.125 311.082031 L 135.476562 311.085938 L 134.40625 311.089844 L 133.246094 311.089844 L 131.867188 311.09375 L 121.433594 311.09375 L 119.160156 311.089844 L 117.511719 311.085938 L 116.21875 311.082031 L 115.105469 311.078125 L 113.855469 311.074219 L 112.253906 311.066406 L 111.269531 311.058594 L 110.601562 311.054688 L 109.84375 311.046875 L 109.308594 311.039062 L 108.6875 311.027344 L 108.238281 311.015625 L 108.105469 311.003906 Z M 108.105469 310.980469 "/>
<path style=" stroke:none;fill-rule:nonzero;fill:rgb(83.921569%,15.686275%,22.352941%);fill-opacity:1;" d="M 108.105469 312.273438 L 144.660156 312.273438 L 144.660156 312.292969 L 129.425781 312.292969 L 129.425781 312.433594 L 123.296875 312.433594 L 123.296875 312.292969 L 108.105469 312.292969 Z M 108.105469 312.273438 "/>
<path style=" stroke:none;fill-rule:nonzero;fill:rgb(6.27451%,58.823529%,28.235294%);fill-opacity:1;" d="M 146.582031 309.40625 L 146.621094 309.40625 L 162.4375 306.652344 L 167.242188 306.652344 L 183.136719 309.410156 L 177.550781 309.410156 L 173.570312 308.691406 L 156.113281 308.691406 L 152.207031 309.40625 L 146.582031 309.40625 L 157.792969 308.390625 L 171.96875 308.390625 L 164.898438 307.101562 L 164.820312 307.097656 L 164.742188 307.105469 L 157.753906 308.390625 L 157.792969 308.390625 Z M 146.582031 309.40625 "/>
<path style=" stroke:none;fill-rule:nonzero;fill:rgb(14.509804%,36.078431%,60%);fill-opacity:1;" d="M 146.582031 313.800781 L 146.628906 313.800781 L 146.628906 313.777344 L 146.761719 313.742188 L 147.074219 313.699219 L 147.386719 313.667969 L 148.1875 313.613281 L 149.300781 313.5625 L 150.460938 313.519531 L 151.308594 313.496094 L 152.066406 313.476562 L 153.804688 313.445312 L 154.917969 313.425781 L 156.121094 313.410156 L 157.59375 313.394531 L 158.664062 313.386719 L 161.070312 313.371094 L 162.855469 313.363281 L 167.222656 313.363281 L 169.003906 313.367188 L 170.296875 313.371094 L 171.726562 313.378906 L 172.929688 313.386719 L 175.023438 313.40625 L 176.894531 313.433594 L 177.742188 313.445312 L 179.078125 313.476562 L 180.105469 313.503906 L 180.820312 313.527344 L 181.621094 313.5625 L 182.335938 313.601562 L 182.867188 313.648438 L 183.136719 313.6875 L 176.894531 313.6875 L 176.582031 313.652344 L 176.226562 313.625 L 175.558594 313.585938 L 174.890625 313.558594 L 173.953125 313.53125 L 173.105469 313.515625 L 171.949219 313.496094 L 170.921875 313.484375 L 169.851562 313.476562 L 168.828125 313.472656 L 166.867188 313.46875 L 163.746094 313.46875 L 162.007812 313.476562 L 161.070312 313.484375 L 159.734375 313.496094 L 158.796875 313.507812 L 157.683594 313.527344 L 156.925781 313.542969 L 155.988281 313.566406 L 155.320312 313.585938 L 154.5625 313.617188 L 154.117188 313.640625 L 153.714844 313.667969 L 153.359375 313.695312 L 153.089844 313.730469 L 152.914062 313.761719 L 152.824219 313.796875 L 152.824219 313.9375 L 152.914062 313.972656 L 153.136719 314.011719 L 153.714844 314.066406 L 154.5625 314.117188 L 155.542969 314.15625 L 156.480469 314.183594 L 157.015625 314.195312 L 157.726562 314.210938 L 158.84375 314.230469 L 160.445312 314.246094 L 161.382812 314.253906 L 162.808594 314.261719 L 164.28125 314.265625 L 166.242188 314.265625 L 167.980469 314.261719 L 169.140625 314.257812 L 170.34375 314.25 L 171.992188 314.234375 L 173.015625 314.21875 L 173.910156 314.203125 L 174.578125 314.183594 L 175.023438 314.167969 L 175.691406 314.140625 L 176.226562 314.109375 L 176.628906 314.078125 L 176.894531 314.046875 L 183.136719 314.046875 L 182.867188 314.082031 L 182.46875 314.117188 L 182.066406 314.144531 L 181.441406 314.179688 L 180.730469 314.207031 L 179.703125 314.238281 L 178.855469 314.261719 L 177.742188 314.28125 L 176.71875 314.300781 L 175.601562 314.316406 L 173.953125 314.335938 L 172.882812 314.34375 L 171.726562 314.351562 L 170.34375 314.359375 L 168.605469 314.367188 L 166.730469 314.371094 L 164.992188 314.371094 L 163.121094 314.367188 L 161.738281 314.363281 L 159.910156 314.355469 L 157.636719 314.339844 L 155.988281 314.324219 L 154.695312 314.304688 L 153.582031 314.285156 L 152.332031 314.261719 L 150.730469 314.222656 L 149.75 314.191406 L 149.078125 314.164062 L 148.320312 314.128906 L 147.785156 314.097656 L 147.164062 314.042969 L 146.71875 313.980469 L 146.582031 313.929688 Z M 146.582031 313.800781 "/>
<path style=" stroke:none;fill-rule:nonzero;fill:rgb(96.862745%,70.196078%,16.862745%);fill-opacity:1;" d="M 146.582031 302.808594 L 146.628906 302.804688 L 146.628906 302.71875 L 146.804688 302.527344 L 147.25 302.265625 L 147.832031 302.046875 L 148.457031 301.878906 L 148.855469 301.789062 L 149.523438 301.660156 L 150.105469 301.566406 L 151.574219 301.375 L 153.449219 301.199219 L 154.472656 301.121094 L 155.632812 301.050781 L 157.28125 300.96875 L 158.039062 300.9375 L 160.359375 300.871094 L 162.988281 300.828125 L 165.886719 300.816406 L 167.222656 300.820312 L 169.050781 300.835938 L 171.546875 300.882812 L 172.972656 300.925781 L 174.085938 300.96875 L 175.246094 301.023438 L 176.671875 301.109375 L 178.011719 301.210938 L 179.078125 301.3125 L 180.148438 301.441406 L 181.042969 301.578125 L 181.800781 301.726562 L 182.46875 301.902344 L 182.867188 302.050781 L 183.136719 302.203125 L 176.941406 302.203125 L 176.582031 302.050781 L 176.183594 301.9375 L 175.515625 301.796875 L 174.84375 301.695312 L 174.175781 301.613281 L 172.929688 301.503906 L 171.859375 301.4375 L 170.519531 301.375 L 169.226562 301.339844 L 167.757812 301.3125 L 166.867188 301.304688 L 164.503906 301.304688 L 162.363281 301.332031 L 161.117188 301.367188 L 160.222656 301.402344 L 158.976562 301.464844 L 158.21875 301.515625 L 157.773438 301.550781 L 156.433594 301.683594 L 155.542969 301.800781 L 155.054688 301.882812 L 154.429688 302.011719 L 153.984375 302.125 L 153.492188 302.292969 L 153.226562 302.421875 L 152.867188 302.710938 L 152.824219 303.476562 L 152.957031 303.636719 L 153.226562 303.8125 L 153.582031 303.964844 L 154.117188 304.128906 L 154.652344 304.25 L 155.585938 304.417969 L 156.390625 304.527344 L 157.015625 304.597656 L 158.21875 304.714844 L 158.707031 304.753906 L 159.867188 304.828125 L 161.070312 304.886719 L 162.542969 304.941406 L 163.65625 304.964844 L 165.4375 304.988281 L 167.710938 304.988281 L 170.386719 304.960938 L 172.082031 304.925781 L 173.242188 304.894531 L 174 304.863281 L 174.933594 304.816406 L 175.601562 304.773438 L 176.226562 304.726562 L 176.984375 304.65625 L 176.984375 303.636719 L 165.972656 303.632812 L 165.972656 303.15625 L 183.09375 303.152344 L 183.136719 304.816406 L 182.199219 304.929688 L 181.042969 305.042969 L 179.925781 305.125 L 178.769531 305.199219 L 177.117188 305.28125 L 175.78125 305.332031 L 173.730469 305.390625 L 171.859375 305.429688 L 169.898438 305.453125 L 168.160156 305.46875 L 166.109375 305.472656 L 164.28125 305.460938 L 162.320312 305.4375 L 160.757812 305.402344 L 159.332031 305.359375 L 157.90625 305.304688 L 156.121094 305.214844 L 154.964844 305.144531 L 153.761719 305.054688 L 152.554688 304.949219 L 151.488281 304.832031 L 150.773438 304.742188 L 150.058594 304.640625 L 149.300781 304.515625 L 148.589844 304.371094 L 148.054688 304.238281 L 147.5625 304.089844 L 147.207031 303.949219 L 146.851562 303.757812 L 146.671875 303.605469 L 146.582031 303.472656 Z M 146.582031 302.808594 "/>
<path style=" stroke:none;fill-rule:nonzero;fill:rgb(83.921569%,15.686275%,22.352941%);fill-opacity:1;" d="M 146.582031 310.589844 L 183.136719 310.589844 L 183.136719 310.761719 L 167.902344 310.761719 L 167.902344 312.183594 L 161.773438 312.183594 L 161.773438 310.761719 L 146.582031 310.761719 Z M 146.582031 310.589844 "/>
<path style=" stroke:none;fill-rule:nonzero;fill:rgb(6.27451%,58.823529%,28.235294%);fill-opacity:1;" d="M 185.058594 278.710938 L 185.097656 278.671875 L 200.914062 236.398438 L 205.71875 236.398438 L 221.613281 278.753906 L 216.027344 278.753906 L 212.046875 267.695312 L 194.589844 267.695312 L 190.683594 278.710938 L 185.058594 278.710938 L 196.269531 263.125 L 210.445312 263.082031 L 203.375 243.320312 L 203.296875 243.277344 L 203.21875 243.398438 L 196.230469 263.082031 L 196.269531 263.125 Z M 185.058594 278.710938 "/>
<path style=" stroke:none;fill-rule:nonzero;fill:rgb(14.509804%,36.078431%,60%);fill-opacity:1;" d="M 185.058594 308.398438 L 185.105469 308.394531 L 185.105469 308.316406 L 185.238281 308.191406 L 185.550781 308.035156 L 185.863281 307.925781 L 186.664062 307.734375 L 187.78125 307.546875 L 188.9375 307.40625 L 189.785156 307.320312 L 190.542969 307.253906 L 192.28125 307.132812 L 193.394531 307.070312 L 194.601562 307.015625 L 196.070312 306.960938 L 197.140625 306.929688 L 199.546875 306.875 L 201.332031 306.851562 L 202.710938 306.84375 L 205.699219 306.84375 L 207.484375 306.855469 L 208.773438 306.871094 L 210.203125 306.898438 L 211.40625 306.929688 L 213.5 307 L 215.371094 307.089844 L 216.21875 307.144531 L 217.558594 307.246094 L 218.582031 307.34375 L 219.296875 307.425781 L 220.097656 307.546875 L 220.8125 307.695312 L 221.347656 307.863281 L 221.613281 308 L 215.371094 308 L 215.0625 307.871094 L 214.703125 307.769531 L 214.035156 307.636719 L 213.367188 307.542969 L 212.429688 307.445312 L 211.582031 307.386719 L 210.425781 307.324219 L 209.398438 307.285156 L 208.328125 307.253906 L 207.304688 307.234375 L 205.34375 307.214844 L 203.070312 307.214844 L 202.222656 307.222656 L 200.484375 307.25 L 199.546875 307.269531 L 198.210938 307.316406 L 197.273438 307.359375 L 196.160156 307.425781 L 195.402344 307.480469 L 194.464844 307.566406 L 193.796875 307.640625 L 193.039062 307.746094 L 192.59375 307.828125 L 192.191406 307.921875 L 191.835938 308.027344 L 191.570312 308.140625 L 191.390625 308.261719 L 191.300781 308.378906 L 191.300781 308.886719 L 191.390625 309.003906 L 191.613281 309.140625 L 192.191406 309.339844 L 193.039062 309.511719 L 194.019531 309.648438 L 194.957031 309.746094 L 195.492188 309.792969 L 196.203125 309.84375 L 197.320312 309.910156 L 198.921875 309.976562 L 199.859375 310.003906 L 201.285156 310.027344 L 202.757812 310.042969 L 204.71875 310.042969 L 206.457031 310.027344 L 207.617188 310.011719 L 208.820312 309.984375 L 210.46875 309.929688 L 211.496094 309.878906 L 212.386719 309.816406 L 213.054688 309.753906 L 213.5 309.703125 L 214.167969 309.601562 L 214.703125 309.488281 L 215.105469 309.375 L 215.371094 309.265625 L 221.613281 309.265625 L 221.347656 309.394531 L 220.945312 309.523438 L 220.542969 309.617188 L 219.917969 309.730469 L 219.207031 309.832031 L 218.179688 309.945312 L 217.335938 310.023438 L 216.21875 310.101562 L 215.195312 310.164062 L 214.078125 310.21875 L 212.429688 310.285156 L 211.359375 310.320312 L 210.203125 310.347656 L 208.820312 310.375 L 207.082031 310.398438 L 205.210938 310.410156 L 203.46875 310.414062 L 201.597656 310.40625 L 200.214844 310.394531 L 198.390625 310.363281 L 196.117188 310.304688 L 194.464844 310.242188 L 193.171875 310.179688 L 192.058594 310.117188 L 190.8125 310.027344 L 189.207031 309.882812 L 188.226562 309.773438 L 187.554688 309.683594 L 186.796875 309.554688 L 186.265625 309.441406 L 185.640625 309.257812 L 185.195312 309.027344 L 185.058594 308.847656 Z M 185.058594 308.398438 "/>
<path style=" stroke:none;fill-rule:nonzero;fill:rgb(96.862745%,70.196078%,16.862745%);fill-opacity:1;" d="M 185.058594 290.953125 L 185.105469 290.929688 L 185.105469 290.460938 L 185.28125 289.402344 L 185.730469 287.945312 L 186.308594 286.746094 L 186.933594 285.808594 L 187.332031 285.3125 L 188.003906 284.609375 L 188.582031 284.089844 L 190.054688 283.035156 L 191.925781 282.046875 L 192.949219 281.625 L 194.109375 281.226562 L 195.757812 280.777344 L 196.515625 280.613281 L 198.835938 280.238281 L 201.464844 280.003906 L 204.363281 279.933594 L 205.699219 279.957031 L 207.527344 280.050781 L 210.023438 280.308594 L 211.449219 280.542969 L 212.5625 280.777344 L 213.722656 281.082031 L 215.148438 281.554688 L 216.488281 282.117188 L 217.558594 282.679688 L 218.625 283.386719 L 219.519531 284.136719 L 220.277344 284.960938 L 220.945312 285.949219 L 221.347656 286.769531 L 221.613281 287.59375 L 215.417969 287.59375 L 215.0625 286.769531 L 214.660156 286.136719 L 213.992188 285.359375 L 213.320312 284.796875 L 212.652344 284.351562 L 211.40625 283.738281 L 210.335938 283.363281 L 209 283.035156 L 207.707031 282.824219 L 206.234375 282.679688 L 205.34375 282.632812 L 202.980469 282.632812 L 200.839844 282.800781 L 199.59375 282.988281 L 198.699219 283.175781 L 197.453125 283.527344 L 196.695312 283.808594 L 196.25 283.996094 L 194.910156 284.726562 L 194.019531 285.382812 L 193.53125 285.832031 L 192.90625 286.535156 L 192.460938 287.171875 L 191.96875 288.109375 L 191.703125 288.816406 L 191.34375 290.414062 L 191.300781 294.644531 L 191.433594 295.535156 L 191.703125 296.5 L 192.058594 297.34375 L 192.59375 298.238281 L 193.128906 298.917969 L 194.066406 299.835938 L 194.867188 300.445312 L 195.492188 300.847656 L 196.695312 301.480469 L 197.183594 301.691406 L 198.34375 302.117188 L 199.546875 302.445312 L 201.019531 302.726562 L 202.132812 302.867188 L 203.917969 302.984375 L 206.191406 302.984375 L 208.863281 302.84375 L 210.558594 302.65625 L 211.71875 302.46875 L 212.476562 302.304688 L 213.410156 302.046875 L 214.078125 301.808594 L 214.703125 301.550781 L 215.460938 301.152344 L 215.460938 295.535156 L 204.453125 295.511719 L 204.453125 292.878906 L 221.570312 292.855469 L 221.613281 302.046875 L 220.675781 302.679688 L 219.519531 303.289062 L 218.402344 303.761719 L 217.246094 304.160156 L 215.59375 304.605469 L 214.257812 304.886719 L 212.207031 305.21875 L 210.335938 305.429688 L 208.375 305.570312 L 206.636719 305.640625 L 204.585938 305.664062 L 202.757812 305.617188 L 200.796875 305.476562 L 199.234375 305.289062 L 197.808594 305.054688 L 196.382812 304.746094 L 194.601562 304.253906 L 193.441406 303.855469 L 192.238281 303.359375 L 191.035156 302.773438 L 189.964844 302.140625 L 189.25 301.644531 L 188.539062 301.082031 L 187.78125 300.375 L 187.066406 299.578125 L 186.53125 298.847656 L 186.039062 298.027344 L 185.683594 297.25 L 185.328125 296.195312 L 185.148438 295.347656 L 185.058594 294.621094 Z M 185.058594 290.953125 "/>
<path style=" stroke:none;fill-rule:nonzero;fill:rgb(83.921569%,15.686275%,22.352941%);fill-opacity:1;" d="M 185.058594 311.59375 L 221.613281 311.59375 L 221.613281 311.890625 L 206.378906 311.894531 L 206.378906 314.371094 L 200.25 314.371094 L 200.25 311.894531 L 200.160156 311.890625 L 185.058594 311.890625 Z M 185.058594 311.59375 "/>
<path style=" stroke:none;fill-rule:nonzero;fill:rgb(6.27451%,58.823529%,28.235294%);fill-opacity:1;" d="M 223.539062 304.171875 L 223.578125 304.160156 L 239.390625 295.167969 L 244.195312 295.167969 L 260.089844 304.179688 L 254.503906 304.179688 L 250.523438 301.828125 L 233.066406 301.828125 L 229.160156 304.171875 L 223.539062 304.171875 L 234.746094 300.851562 L 248.921875 300.84375 L 241.851562 296.640625 L 241.773438 296.628906 L 241.695312 296.65625 L 234.707031 300.84375 L 234.746094 300.851562 Z M 223.539062 304.171875 "/>
<path style=" stroke:none;fill-rule:nonzero;fill:rgb(14.509804%,36.078431%,60%);fill-opacity:1;" d="M 223.539062 191.023438 L 223.582031 190.855469 L 223.582031 186.855469 L 223.714844 180.527344 L 224.027344 172.527344 L 224.339844 167.03125 L 225.140625 157.199219 L 226.257812 147.703125 L 227.414062 140.371094 L 228.261719 136.039062 L 229.019531 132.707031 L 230.757812 126.542969 L 231.875 123.378906 L 233.078125 120.546875 L 234.546875 117.714844 L 235.617188 116.046875 L 238.023438 113.382812 L 239.808594 112.214844 L 241.191406 111.714844 L 244.175781 111.714844 L 245.960938 112.382812 L 247.253906 113.214844 L 248.679688 114.546875 L 249.882812 116.046875 L 251.976562 119.714844 L 253.847656 124.378906 L 254.695312 127.042969 L 256.035156 132.207031 L 257.058594 137.207031 L 257.773438 141.539062 L 258.574219 147.703125 L 259.289062 155.199219 L 259.824219 163.699219 L 260.089844 170.863281 L 253.847656 170.863281 L 253.539062 164.199219 L 253.179688 159.03125 L 252.511719 152.203125 L 251.84375 147.371094 L 250.90625 142.539062 L 250.058594 139.371094 L 248.902344 136.207031 L 247.875 134.207031 L 246.804688 132.707031 L 245.78125 131.707031 L 243.820312 130.710938 L 241.546875 130.710938 L 240.699219 131.042969 L 238.960938 132.375 L 238.023438 133.542969 L 236.6875 135.875 L 235.75 138.039062 L 234.636719 141.371094 L 233.878906 144.203125 L 232.941406 148.535156 L 232.273438 152.367188 L 231.515625 157.867188 L 231.070312 162.03125 L 230.667969 166.695312 L 230.3125 172.195312 L 230.046875 178.027344 L 229.867188 184.191406 L 229.777344 190.1875 L 229.777344 216.015625 L 229.867188 222.011719 L 230.089844 229.007812 L 230.667969 239.171875 L 231.515625 248.003906 L 232.496094 255 L 233.433594 260 L 233.96875 262.332031 L 234.679688 264.996094 L 235.796875 268.328125 L 237.402344 271.660156 L 238.335938 272.996094 L 239.761719 274.328125 L 241.234375 274.992188 L 243.195312 274.992188 L 244.933594 274.328125 L 246.09375 273.496094 L 247.296875 272.160156 L 248.945312 269.328125 L 249.972656 266.664062 L 250.863281 263.496094 L 251.53125 260.332031 L 251.976562 257.667969 L 252.644531 252.5 L 253.179688 246.835938 L 253.582031 241.003906 L 253.847656 235.339844 L 260.089844 235.339844 L 259.824219 242.003906 L 259.421875 248.503906 L 259.019531 253.335938 L 258.394531 259.164062 L 257.683594 264.332031 L 256.65625 270.160156 L 255.8125 273.992188 L 254.695312 278.160156 L 253.671875 281.324219 L 252.558594 284.15625 L 250.90625 287.488281 L 249.835938 289.15625 L 248.679688 290.65625 L 247.296875 291.988281 L 245.558594 293.152344 L 243.6875 293.820312 L 241.949219 293.988281 L 240.074219 293.652344 L 238.695312 292.988281 L 236.867188 291.488281 L 234.59375 288.488281 L 232.941406 285.324219 L 231.648438 282.15625 L 230.535156 278.824219 L 229.289062 274.328125 L 227.683594 266.996094 L 226.703125 261.332031 L 226.035156 256.667969 L 225.277344 250.167969 L 224.742188 244.335938 L 224.117188 235.007812 L 223.671875 223.179688 L 223.539062 214.015625 Z M 223.539062 191.023438 "/>
<path style=" stroke:none;fill-rule:nonzero;fill:rgb(96.862745%,70.196078%,16.862745%);fill-opacity:1;" d="M 223.539062 312.714844 L 223.582031 312.710938 L 223.582031 312.660156 L 223.761719 312.539062 L 224.207031 312.375 L 224.785156 312.242188 L 225.410156 312.136719 L 225.8125 312.078125 L 226.480469 312 L 227.058594 311.941406 L 228.53125 311.824219 L 230.402344 311.710938 L 231.425781 311.664062 L 232.585938 311.617188 L 234.234375 311.570312 L 234.992188 311.550781 L 237.3125 311.507812 L 239.941406 311.480469 L 242.839844 311.472656 L 244.175781 311.476562 L 246.003906 311.488281 L 248.5 311.515625 L 249.925781 311.542969 L 251.042969 311.570312 L 252.199219 311.601562 L 253.625 311.65625 L 254.964844 311.71875 L 256.035156 311.78125 L 257.105469 311.863281 L 257.996094 311.945312 L 258.753906 312.039062 L 259.421875 312.152344 L 259.824219 312.242188 L 260.089844 312.335938 L 253.894531 312.335938 L 253.539062 312.242188 L 253.136719 312.171875 L 252.46875 312.085938 L 251.800781 312.019531 L 251.128906 311.972656 L 249.882812 311.902344 L 248.8125 311.859375 L 247.476562 311.824219 L 246.183594 311.800781 L 244.710938 311.78125 L 243.820312 311.777344 L 241.457031 311.777344 L 239.316406 311.796875 L 238.070312 311.816406 L 237.179688 311.839844 L 235.929688 311.878906 L 235.171875 311.910156 L 234.726562 311.929688 L 233.390625 312.011719 L 232.496094 312.085938 L 232.007812 312.136719 L 231.382812 312.21875 L 230.9375 312.289062 L 230.445312 312.394531 L 230.179688 312.472656 L 229.824219 312.652344 L 229.777344 313.128906 L 229.910156 313.230469 L 230.179688 313.339844 L 230.535156 313.433594 L 231.070312 313.535156 L 231.605469 313.609375 L 232.542969 313.714844 L 233.34375 313.785156 L 233.96875 313.828125 L 235.171875 313.898438 L 235.664062 313.921875 L 236.820312 313.972656 L 238.023438 314.007812 L 239.496094 314.039062 L 240.609375 314.054688 L 242.394531 314.070312 L 244.667969 314.070312 L 247.339844 314.054688 L 249.035156 314.03125 L 250.195312 314.011719 L 250.953125 313.992188 L 251.886719 313.964844 L 252.558594 313.9375 L 253.179688 313.90625 L 253.9375 313.863281 L 253.9375 313.230469 L 242.929688 313.226562 L 242.929688 312.929688 L 260.046875 312.929688 L 260.089844 313.964844 L 259.152344 314.035156 L 257.996094 314.101562 L 256.878906 314.15625 L 255.722656 314.203125 L 254.074219 314.25 L 252.734375 314.285156 L 250.683594 314.320312 L 248.8125 314.34375 L 246.851562 314.359375 L 245.113281 314.367188 L 243.0625 314.371094 L 241.234375 314.367188 L 239.273438 314.347656 L 237.710938 314.328125 L 236.285156 314.300781 L 234.859375 314.265625 L 233.078125 314.210938 L 231.917969 314.167969 L 230.714844 314.113281 L 229.511719 314.046875 L 228.441406 313.972656 L 227.726562 313.917969 L 227.015625 313.855469 L 226.257812 313.773438 L 225.542969 313.683594 L 225.007812 313.601562 L 224.519531 313.511719 L 224.160156 313.421875 L 223.804688 313.304688 L 223.625 313.210938 L 223.539062 313.128906 Z M 223.539062 312.714844 "/>
<path style=" stroke:none;fill-rule:nonzero;fill:rgb(83.921569%,15.686275%,22.352941%);fill-opacity:1;" d="M 223.539062 305.359375 L 260.089844 305.359375 L 260.089844 305.886719 L 244.855469 305.890625 L 244.855469 310.292969 L 238.726562 310.292969 L 238.726562 305.894531 L 238.636719 305.886719 L 223.539062 305.886719 Z M 223.539062 305.359375 "/>
<path style=" stroke:none;fill-rule:nonzero;fill:rgb(6.27451%,58.823529%,28.235294%);fill-opacity:1;" d="M 262.015625 305.601562 L 262.054688 305.597656 L 277.871094 298.03125 L 282.671875 298.03125 L 298.566406 305.609375 L 292.984375 305.609375 L 289 303.632812 L 271.542969 303.632812 L 267.636719 305.601562 L 262.015625 305.601562 L 273.222656 302.8125 L 287.398438 302.804688 L 280.328125 299.269531 L 280.25 299.261719 L 280.171875 299.28125 L 273.183594 302.804688 L 273.222656 302.8125 Z M 262.015625 305.601562 "/>
<path style=" stroke:none;fill-rule:nonzero;fill:rgb(14.509804%,36.078431%,60%);fill-opacity:1;" d="M 262.015625 183.695312 L 262.058594 183.511719 L 262.058594 179.117188 L 262.191406 172.160156 L 262.503906 163.371094 L 262.816406 157.332031 L 263.617188 146.527344 L 264.734375 136.089844 L 265.890625 128.035156 L 266.738281 123.273438 L 267.496094 119.613281 L 269.234375 112.835938 L 270.351562 109.359375 L 271.554688 106.246094 L 273.023438 103.132812 L 274.09375 101.300781 L 276.5 98.371094 L 278.285156 97.089844 L 279.667969 96.542969 L 282.652344 96.542969 L 284.4375 97.273438 L 285.730469 98.191406 L 287.15625 99.65625 L 288.359375 101.300781 L 290.453125 105.332031 L 292.328125 110.457031 L 293.171875 113.386719 L 294.511719 119.0625 L 295.535156 124.554688 L 296.25 129.316406 L 297.050781 136.089844 L 297.765625 144.332031 L 298.300781 153.667969 L 298.566406 161.542969 L 292.328125 161.542969 L 292.015625 154.21875 L 291.65625 148.542969 L 290.988281 141.035156 L 290.320312 135.726562 L 289.382812 130.414062 L 288.539062 126.9375 L 287.378906 123.457031 L 286.351562 121.261719 L 285.285156 119.613281 L 284.257812 118.511719 L 282.296875 117.414062 L 280.023438 117.414062 L 279.175781 117.78125 L 277.4375 119.246094 L 276.5 120.527344 L 275.164062 123.089844 L 274.226562 125.472656 L 273.113281 129.132812 L 272.355469 132.246094 L 271.421875 137.007812 L 270.75 141.21875 L 269.992188 147.261719 L 269.546875 151.835938 L 269.148438 156.964844 L 268.789062 163.007812 L 268.523438 169.414062 L 268.34375 176.1875 L 268.253906 182.78125 L 268.253906 211.160156 L 268.34375 217.753906 L 268.566406 225.441406 L 269.148438 236.609375 L 269.992188 246.316406 L 270.972656 254.003906 L 271.910156 259.5 L 272.445312 262.0625 L 273.160156 264.992188 L 274.273438 268.652344 L 275.878906 272.316406 L 276.8125 273.78125 L 278.238281 275.246094 L 279.710938 275.976562 L 281.671875 275.976562 L 283.410156 275.246094 L 284.570312 274.328125 L 285.773438 272.863281 L 287.421875 269.75 L 288.449219 266.820312 L 289.339844 263.34375 L 290.007812 259.863281 L 290.453125 256.933594 L 291.121094 251.257812 L 291.65625 245.035156 L 292.058594 238.625 L 292.328125 232.398438 L 298.566406 232.398438 L 298.300781 239.722656 L 297.898438 246.863281 L 297.496094 252.175781 L 296.875 258.582031 L 296.160156 264.257812 L 295.136719 270.667969 L 294.289062 274.878906 L 293.171875 279.457031 L 292.148438 282.933594 L 291.035156 286.046875 L 289.382812 289.710938 L 288.316406 291.539062 L 287.15625 293.1875 L 285.773438 294.652344 L 284.035156 295.933594 L 282.164062 296.667969 L 280.425781 296.851562 L 278.550781 296.484375 L 277.171875 295.75 L 275.34375 294.105469 L 273.070312 290.808594 L 271.421875 287.328125 L 270.128906 283.851562 L 269.011719 280.1875 L 267.765625 275.246094 L 266.160156 267.1875 L 265.179688 260.964844 L 264.511719 255.835938 L 263.753906 248.695312 L 263.21875 242.285156 L 262.59375 232.035156 L 262.148438 219.035156 L 262.015625 208.964844 Z M 262.015625 183.695312 "/>
<path style=" stroke:none;fill-rule:nonzero;fill:rgb(96.862745%,70.196078%,16.862745%);fill-opacity:1;" d="M 262.015625 313.792969 L 262.058594 313.792969 L 262.058594 313.773438 L 262.238281 313.730469 L 262.683594 313.675781 L 263.261719 313.628906 L 263.886719 313.589844 L 264.289062 313.570312 L 264.957031 313.542969 L 265.535156 313.523438 L 267.007812 313.480469 L 268.878906 313.441406 L 269.90625 313.425781 L 271.0625 313.410156 L 272.710938 313.394531 L 273.46875 313.386719 L 275.789062 313.371094 L 278.417969 313.363281 L 281.316406 313.359375 L 282.652344 313.359375 L 284.480469 313.363281 L 286.976562 313.375 L 288.402344 313.382812 L 289.519531 313.394531 L 290.675781 313.40625 L 292.105469 313.421875 L 293.441406 313.445312 L 294.511719 313.46875 L 295.582031 313.496094 L 296.472656 313.523438 L 297.230469 313.558594 L 297.898438 313.597656 L 298.300781 313.628906 L 298.566406 313.660156 L 292.371094 313.660156 L 292.015625 313.628906 L 291.613281 313.605469 L 290.945312 313.574219 L 290.277344 313.550781 L 289.605469 313.535156 L 288.359375 313.507812 L 287.289062 313.496094 L 285.953125 313.480469 L 284.660156 313.472656 L 283.1875 313.46875 L 282.296875 313.464844 L 279.933594 313.464844 L 277.792969 313.472656 L 276.546875 313.480469 L 275.65625 313.488281 L 274.40625 313.5 L 273.648438 313.511719 L 273.203125 313.519531 L 271.867188 313.546875 L 270.972656 313.574219 L 270.484375 313.589844 L 269.859375 313.621094 L 269.414062 313.644531 L 268.921875 313.679688 L 268.65625 313.707031 L 268.300781 313.773438 L 268.253906 313.9375 L 268.390625 313.972656 L 268.65625 314.011719 L 269.011719 314.042969 L 269.546875 314.078125 L 270.082031 314.105469 L 271.019531 314.140625 L 271.820312 314.164062 L 272.445312 314.179688 L 273.648438 314.207031 L 274.140625 314.214844 L 275.296875 314.230469 L 276.5 314.246094 L 277.972656 314.253906 L 279.085938 314.261719 L 280.871094 314.265625 L 283.144531 314.265625 L 285.816406 314.261719 L 287.511719 314.253906 L 288.671875 314.246094 L 289.429688 314.238281 L 290.363281 314.230469 L 291.035156 314.21875 L 291.65625 314.210938 L 292.414062 314.195312 L 292.414062 313.972656 L 281.40625 313.972656 L 281.40625 313.867188 L 298.523438 313.867188 L 298.566406 314.230469 L 297.632812 314.253906 L 296.472656 314.277344 L 295.359375 314.296875 L 294.199219 314.3125 L 292.550781 314.328125 L 291.210938 314.339844 L 289.160156 314.351562 L 287.289062 314.363281 L 285.328125 314.367188 L 283.589844 314.371094 L 281.539062 314.371094 L 279.710938 314.367188 L 277.75 314.363281 L 276.191406 314.355469 L 274.761719 314.347656 L 273.335938 314.335938 L 271.554688 314.316406 L 270.394531 314.300781 L 269.191406 314.28125 L 267.988281 314.257812 L 266.917969 314.230469 L 266.203125 314.210938 L 265.492188 314.191406 L 264.734375 314.164062 L 264.019531 314.132812 L 263.484375 314.101562 L 262.996094 314.070312 L 262.636719 314.039062 L 262.28125 314 L 262.101562 313.964844 L 262.015625 313.9375 Z M 262.015625 313.792969 "/>
<path style=" stroke:none;fill-rule:nonzero;fill:rgb(83.921569%,15.686275%,22.352941%);fill-opacity:1;" d="M 262.015625 306.789062 L 298.566406 306.789062 L 298.566406 307.367188 L 283.332031 307.371094 L 283.332031 312.179688 L 277.203125 312.179688 L 277.203125 307.378906 L 277.113281 307.367188 L 262.015625 307.367188 Z M 262.015625 306.789062 "/>
<path style=" stroke:none;fill-rule:nonzero;fill:rgb(6.27451%,58.823529%,28.235294%);fill-opacity:1;" d="M 300.492188 310.699219 L 300.53125 310.652344 L 316.347656 262.347656 L 321.148438 262.347656 L 337.042969 310.742188 L 331.460938 310.742188 L 327.476562 298.109375 L 310.019531 298.109375 L 306.113281 310.699219 L 300.492188 310.699219 L 311.699219 292.886719 L 325.875 292.839844 L 318.808594 270.253906 L 318.730469 270.210938 L 318.652344 270.347656 L 311.660156 292.839844 L 311.699219 292.886719 Z M 300.492188 310.699219 "/>
<path style=" stroke:none;fill-rule:nonzero;fill:rgb(14.509804%,36.078431%,60%);fill-opacity:1;" d="M 300.492188 222.902344 L 300.535156 222.839844 L 300.535156 221.355469 L 300.667969 219 L 300.980469 216.027344 L 301.292969 213.984375 L 302.097656 210.332031 L 303.210938 206.800781 L 304.371094 204.078125 L 305.214844 202.46875 L 305.972656 201.230469 L 307.710938 198.9375 L 308.828125 197.761719 L 310.03125 196.710938 L 311.5 195.65625 L 312.570312 195.039062 L 314.980469 194.046875 L 316.761719 193.613281 L 318.144531 193.425781 L 321.128906 193.425781 L 322.914062 193.675781 L 324.207031 193.984375 L 325.632812 194.480469 L 326.835938 195.039062 L 328.929688 196.398438 L 330.804688 198.132812 L 331.652344 199.125 L 332.988281 201.042969 L 334.011719 202.902344 L 334.726562 204.511719 L 335.527344 206.800781 L 336.242188 209.589844 L 336.777344 212.746094 L 337.042969 215.410156 L 330.804688 215.410156 L 330.492188 212.933594 L 330.136719 211.011719 L 329.464844 208.472656 L 328.796875 206.679688 L 327.863281 204.882812 L 327.015625 203.707031 L 325.855469 202.53125 L 324.832031 201.785156 L 323.761719 201.230469 L 322.734375 200.859375 L 320.773438 200.488281 L 318.5 200.488281 L 317.652344 200.609375 L 315.914062 201.105469 L 314.980469 201.539062 L 313.640625 202.40625 L 312.707031 203.210938 L 311.589844 204.449219 L 310.832031 205.503906 L 309.898438 207.113281 L 309.226562 208.535156 L 308.46875 210.578125 L 308.023438 212.128906 L 307.625 213.859375 L 307.265625 215.90625 L 307 218.070312 L 306.820312 220.363281 L 306.730469 222.59375 L 306.730469 232.191406 L 306.820312 234.417969 L 307.042969 237.019531 L 307.625 240.796875 L 308.46875 244.078125 L 309.449219 246.679688 L 310.386719 248.535156 L 310.921875 249.402344 L 311.636719 250.394531 L 312.75 251.632812 L 314.355469 252.871094 L 315.289062 253.367188 L 316.71875 253.863281 L 318.1875 254.109375 L 320.148438 254.109375 L 321.886719 253.863281 L 323.046875 253.550781 L 324.25 253.058594 L 325.898438 252.003906 L 326.925781 251.015625 L 327.816406 249.835938 L 328.484375 248.660156 L 328.929688 247.671875 L 329.601562 245.75 L 330.136719 243.644531 L 330.535156 241.476562 L 330.804688 239.371094 L 337.042969 239.371094 L 336.777344 241.847656 L 336.375 244.265625 L 335.972656 246.058594 L 335.351562 248.226562 L 334.636719 250.148438 L 333.613281 252.3125 L 332.765625 253.738281 L 331.652344 255.285156 L 330.625 256.460938 L 329.511719 257.515625 L 327.863281 258.753906 L 326.792969 259.371094 L 325.632812 259.929688 L 324.25 260.425781 L 322.511719 260.859375 L 320.640625 261.105469 L 318.902344 261.167969 L 317.027344 261.042969 L 315.648438 260.796875 L 313.820312 260.238281 L 311.546875 259.125 L 309.898438 257.949219 L 308.605469 256.773438 L 307.488281 255.535156 L 306.242188 253.863281 L 304.636719 251.136719 L 303.65625 249.03125 L 302.988281 247.296875 L 302.230469 244.882812 L 301.695312 242.714844 L 301.070312 239.25 L 300.625 234.851562 L 300.492188 231.445312 Z M 300.492188 222.902344 "/>
<path style=" stroke:none;fill-rule:nonzero;fill:rgb(96.862745%,70.196078%,16.862745%);fill-opacity:1;" d="M 300.492188 312.453125 L 300.535156 312.453125 L 300.535156 312.429688 L 300.714844 312.378906 L 301.160156 312.308594 L 301.738281 312.25 L 302.363281 312.207031 L 302.765625 312.183594 L 303.433594 312.148438 L 304.011719 312.121094 L 305.484375 312.070312 L 307.355469 312.023438 L 308.382812 312.003906 L 309.539062 311.984375 L 311.191406 311.964844 L 311.949219 311.957031 L 314.265625 311.9375 L 316.894531 311.925781 L 319.792969 311.921875 L 321.128906 311.925781 L 322.957031 311.929688 L 325.453125 311.941406 L 326.878906 311.953125 L 327.996094 311.964844 L 329.152344 311.976562 L 330.582031 312 L 331.917969 312.027344 L 332.988281 312.054688 L 334.058594 312.089844 L 334.949219 312.125 L 335.707031 312.164062 L 336.375 312.210938 L 336.777344 312.253906 L 337.042969 312.292969 L 330.847656 312.292969 L 330.492188 312.253906 L 330.089844 312.222656 L 329.421875 312.183594 L 328.753906 312.15625 L 328.085938 312.136719 L 326.835938 312.105469 L 325.765625 312.089844 L 324.429688 312.070312 L 323.136719 312.0625 L 321.664062 312.054688 L 318.410156 312.054688 L 316.269531 312.0625 L 315.023438 312.070312 L 314.132812 312.078125 L 312.882812 312.097656 L 312.125 312.109375 L 311.679688 312.117188 L 310.34375 312.152344 L 309.449219 312.183594 L 308.960938 312.207031 L 308.335938 312.242188 L 307.890625 312.269531 L 307.402344 312.316406 L 307.132812 312.351562 L 306.777344 312.425781 L 306.730469 312.632812 L 306.867188 312.675781 L 307.132812 312.71875 L 307.488281 312.761719 L 308.023438 312.804688 L 308.558594 312.835938 L 309.496094 312.882812 L 310.296875 312.910156 L 310.921875 312.929688 L 312.125 312.960938 L 312.617188 312.96875 L 313.773438 312.992188 L 314.980469 313.007812 L 316.449219 313.019531 L 317.5625 313.027344 L 319.347656 313.03125 L 321.621094 313.03125 L 324.296875 313.027344 L 325.988281 313.015625 L 327.148438 313.007812 L 327.90625 313 L 328.84375 312.988281 L 329.511719 312.976562 L 330.136719 312.964844 L 330.894531 312.945312 L 330.894531 312.675781 L 319.882812 312.671875 L 319.882812 312.546875 L 337 312.546875 L 337.042969 312.988281 L 336.109375 313.019531 L 334.949219 313.046875 L 333.835938 313.070312 L 332.675781 313.089844 L 331.027344 313.109375 L 329.6875 313.125 L 327.636719 313.140625 L 325.765625 313.148438 L 323.804688 313.15625 L 322.066406 313.160156 L 318.1875 313.160156 L 316.226562 313.152344 L 314.667969 313.144531 L 313.238281 313.132812 L 311.8125 313.117188 L 310.03125 313.09375 L 308.871094 313.074219 L 307.667969 313.050781 L 306.464844 313.023438 L 305.394531 312.992188 L 304.679688 312.96875 L 303.96875 312.941406 L 303.210938 312.90625 L 302.496094 312.867188 L 301.960938 312.832031 L 301.472656 312.792969 L 301.117188 312.757812 L 300.757812 312.707031 L 300.582031 312.664062 L 300.492188 312.628906 Z M 300.492188 312.453125 "/>
<path style=" stroke:none;fill-rule:nonzero;fill:rgb(83.921569%,15.686275%,22.352941%);fill-opacity:1;" d="M 300.492188 314.339844 L 337.042969 314.339844 L 337.042969 314.34375 L 321.808594 314.34375 L 321.808594 314.371094 L 315.679688 314.371094 L 315.679688 314.34375 L 300.492188 314.34375 Z M 300.492188 314.339844 "/>
<path style=" stroke:none;fill-rule:nonzero;fill:rgb(6.27451%,58.823529%,28.235294%);fill-opacity:1;" d="M 338.96875 314.371094 L 339.007812 314.367188 L 354.824219 312.839844 L 359.625 312.839844 L 375.519531 314.371094 L 369.9375 314.371094 L 365.953125 313.972656 L 348.496094 313.972656 L 344.589844 314.371094 L 338.96875 314.371094 L 350.175781 313.804688 L 364.351562 313.804688 L 357.285156 313.089844 L 357.207031 313.089844 L 357.128906 313.09375 L 350.136719 313.804688 L 350.175781 313.804688 Z M 338.96875 314.371094 "/>
<path style=" stroke:none;fill-rule:nonzero;fill:rgb(14.509804%,36.078431%,60%);fill-opacity:1;" d="M 338.96875 159.542969 L 339.011719 159.300781 L 339.011719 153.5 L 339.144531 144.3125 L 339.457031 132.707031 L 339.769531 124.730469 L 340.574219 110.464844 L 341.6875 96.6875 L 342.847656 86.046875 L 343.691406 79.761719 L 344.449219 74.929688 L 346.191406 65.984375 L 347.304688 61.390625 L 348.507812 57.28125 L 349.980469 53.167969 L 351.046875 50.753906 L 353.457031 46.882812 L 355.238281 45.191406 L 356.621094 44.464844 L 359.605469 44.464844 L 361.390625 45.433594 L 362.683594 46.640625 L 364.109375 48.578125 L 365.3125 50.753906 L 367.410156 56.070312 L 369.28125 62.839844 L 370.128906 66.707031 L 371.464844 74.203125 L 372.488281 81.457031 L 373.203125 87.742188 L 374.003906 96.6875 L 374.71875 107.566406 L 375.253906 119.894531 L 375.519531 130.289062 L 369.28125 130.289062 L 368.96875 120.621094 L 368.613281 113.125 L 367.941406 103.214844 L 367.273438 96.203125 L 366.339844 89.191406 L 365.492188 84.597656 L 364.332031 80.003906 L 363.308594 77.105469 L 362.238281 74.929688 L 361.210938 73.476562 L 359.25 72.027344 L 356.976562 72.027344 L 356.128906 72.511719 L 354.390625 74.445312 L 353.457031 76.136719 L 352.117188 79.519531 L 351.183594 82.664062 L 350.066406 87.5 L 349.308594 91.609375 L 348.375 97.894531 L 347.707031 103.457031 L 346.949219 111.433594 L 346.5 117.476562 L 346.101562 124.246094 L 345.742188 132.222656 L 345.476562 140.6875 L 345.296875 149.628906 L 345.207031 158.335938 L 345.207031 195.804688 L 345.296875 204.511719 L 345.519531 214.664062 L 346.101562 229.410156 L 346.949219 242.222656 L 347.929688 252.378906 L 348.863281 259.628906 L 349.398438 263.015625 L 350.113281 266.882812 L 351.226562 271.71875 L 352.832031 276.554688 L 353.769531 278.488281 L 355.195312 280.421875 L 356.664062 281.386719 L 358.625 281.386719 L 360.363281 280.421875 L 361.523438 279.210938 L 362.726562 277.277344 L 364.378906 273.167969 L 365.402344 269.300781 L 366.292969 264.707031 L 366.960938 260.113281 L 367.410156 256.246094 L 368.078125 248.75 L 368.613281 240.53125 L 369.011719 232.070312 L 369.28125 223.851562 L 375.519531 223.851562 L 375.253906 233.519531 L 374.851562 242.949219 L 374.453125 249.960938 L 373.828125 258.421875 L 373.113281 265.917969 L 372.089844 274.378906 L 371.242188 279.9375 L 370.128906 285.980469 L 369.101562 290.574219 L 367.988281 294.683594 L 366.339844 299.519531 L 365.269531 301.9375 L 364.109375 304.113281 L 362.726562 306.046875 L 360.988281 307.738281 L 359.117188 308.707031 L 357.378906 308.949219 L 355.507812 308.464844 L 354.125 307.5 L 352.296875 305.324219 L 350.023438 300.972656 L 348.375 296.378906 L 347.082031 291.785156 L 345.964844 286.949219 L 344.71875 280.421875 L 343.113281 269.785156 L 342.132812 261.566406 L 341.464844 254.796875 L 340.707031 245.367188 L 340.171875 236.90625 L 339.546875 223.367188 L 339.101562 206.203125 L 338.96875 192.90625 Z M 338.96875 159.542969 "/>
<path style=" stroke:none;fill-rule:nonzero;fill:rgb(83.921569%,15.686275%,22.352941%);fill-opacity:1;" d="M 338.96875 310.128906 L 375.519531 310.128906 L 375.519531 310.292969 L 360.285156 310.292969 L 360.285156 311.660156 L 354.15625 311.660156 L 354.15625 310.296875 L 354.070312 310.292969 L 338.96875 310.292969 Z M 338.96875 310.128906 "/>
<path style=" stroke:none;fill-rule:nonzero;fill:rgb(6.27451%,58.823529%,28.235294%);fill-opacity:1;" d="M 377.445312 306.910156 L 377.484375 306.882812 L 393.300781 278.386719 L 398.105469 278.386719 L 414 306.9375 L 408.414062 306.9375 L 404.429688 299.484375 L 386.972656 299.484375 L 383.070312 306.910156 L 377.445312 306.910156 L 388.652344 296.402344 L 402.828125 296.375 L 395.761719 283.050781 L 395.683594 283.023438 L 395.605469 283.105469 L 388.613281 296.375 L 388.652344 296.402344 Z M 377.445312 306.910156 "/>
<path style=" stroke:none;fill-rule:nonzero;fill:rgb(96.862745%,70.196078%,16.862745%);fill-opacity:1;" d="M 377.445312 214.140625 L 377.488281 214.039062 L 377.488281 212.023438 L 377.667969 207.492188 L 378.113281 201.246094 L 378.691406 196.105469 L 379.316406 192.078125 L 379.71875 189.960938 L 380.386719 186.941406 L 380.964844 184.722656 L 382.4375 180.191406 L 384.308594 175.957031 L 385.335938 174.144531 L 386.496094 172.433594 L 388.144531 170.519531 L 388.902344 169.8125 L 391.21875 168.203125 L 393.847656 167.195312 L 396.746094 166.890625 L 398.085938 166.992188 L 399.910156 167.394531 L 402.410156 168.503906 L 403.835938 169.511719 L 404.949219 170.519531 L 406.109375 171.828125 L 407.535156 173.84375 L 408.871094 176.261719 L 409.941406 178.679688 L 411.011719 181.699219 L 411.902344 184.925781 L 412.660156 188.449219 L 413.328125 192.683594 L 413.730469 196.207031 L 414 199.734375 L 407.800781 199.734375 L 407.445312 196.207031 L 407.042969 193.488281 L 406.375 190.164062 L 405.707031 187.746094 L 405.039062 185.832031 L 403.789062 183.210938 L 402.71875 181.601562 L 401.382812 180.191406 L 400.089844 179.28125 L 398.621094 178.679688 L 397.726562 178.476562 L 395.363281 178.476562 L 393.226562 179.183594 L 391.976562 179.988281 L 391.085938 180.792969 L 389.835938 182.304688 L 389.078125 183.515625 L 388.632812 184.320312 L 387.296875 187.445312 L 386.40625 190.265625 L 385.914062 192.179688 L 385.289062 195.199219 L 384.84375 197.921875 L 384.355469 201.949219 L 384.085938 204.972656 L 383.730469 211.824219 L 383.6875 229.957031 L 383.820312 233.785156 L 384.085938 237.914062 L 384.445312 241.542969 L 384.980469 245.371094 L 385.511719 248.292969 L 386.449219 252.222656 L 387.253906 254.839844 L 387.875 256.554688 L 389.078125 259.273438 L 389.570312 260.179688 L 390.730469 261.992188 L 391.933594 263.402344 L 393.402344 264.613281 L 394.519531 265.21875 L 396.300781 265.722656 L 398.574219 265.722656 L 401.25 265.117188 L 402.941406 264.3125 L 404.101562 263.503906 L 404.859375 262.800781 L 405.796875 261.691406 L 406.464844 260.683594 L 407.089844 259.574219 L 407.847656 257.863281 L 407.847656 233.785156 L 396.835938 233.683594 L 396.835938 222.402344 L 413.953125 222.300781 L 414 261.691406 L 413.0625 264.410156 L 411.902344 267.03125 L 410.789062 269.046875 L 409.628906 270.757812 L 407.980469 272.671875 L 406.644531 273.882812 L 404.59375 275.292969 L 402.71875 276.199219 L 400.757812 276.804688 L 399.019531 277.105469 L 396.96875 277.207031 L 395.140625 277.003906 L 393.179688 276.398438 L 391.621094 275.59375 L 390.195312 274.585938 L 388.769531 273.277344 L 386.984375 271.160156 L 385.824219 269.449219 L 384.621094 267.332031 L 383.417969 264.816406 L 382.347656 262.09375 L 381.636719 259.980469 L 380.921875 257.5625 L 380.164062 254.539062 L 379.449219 251.113281 L 378.917969 247.992188 L 378.425781 244.464844 L 378.070312 241.140625 L 377.710938 236.605469 L 377.535156 232.980469 L 377.445312 229.855469 Z M 377.445312 214.140625 "/>
<path style=" stroke:none;fill-rule:nonzero;fill:rgb(83.921569%,15.686275%,22.352941%);fill-opacity:1;" d="M 377.445312 308.117188 L 414 308.117188 L 414 308.785156 L 398.765625 308.792969 L 398.765625 314.371094 L 392.636719 314.371094 L 392.636719 308.796875 L 392.546875 308.785156 L 377.445312 308.785156 Z M 377.445312 308.117188 "/>
<path style=" stroke:none;fill-rule:nonzero;fill:rgb(14.509804%,36.078431%,60%);fill-opacity:1;" d="M 415.921875 148.457031 L 415.964844 148.1875 L 415.964844 141.742188 L 416.101562 131.542969 L 416.414062 118.65625 L 416.722656 109.796875 L 417.527344 93.957031 L 418.640625 78.652344 L 419.800781 66.839844 L 420.648438 59.859375 L 421.40625 54.492188 L 423.144531 44.558594 L 424.257812 39.457031 L 425.460938 34.890625 L 426.933594 30.328125 L 428.003906 27.644531 L 430.410156 23.347656 L 432.191406 21.46875 L 433.574219 20.664062 L 436.5625 20.664062 L 438.34375 21.738281 L 439.636719 23.078125 L 441.0625 25.226562 L 442.265625 27.644531 L 444.363281 33.550781 L 446.234375 41.066406 L 447.082031 45.363281 L 448.417969 53.683594 L 449.445312 61.738281 L 450.15625 68.71875 L 450.960938 78.652344 L 451.671875 90.734375 L 452.207031 104.425781 L 452.476562 115.96875 L 446.234375 115.96875 L 445.921875 105.230469 L 445.566406 96.910156 L 444.898438 85.902344 L 444.226562 78.117188 L 443.292969 70.332031 L 442.445312 65.230469 L 441.285156 60.128906 L 440.261719 56.90625 L 439.191406 54.492188 L 438.164062 52.878906 L 436.203125 51.269531 L 433.929688 51.269531 L 433.085938 51.804688 L 431.347656 53.953125 L 430.410156 55.832031 L 429.074219 59.589844 L 428.136719 63.082031 L 427.023438 68.449219 L 426.265625 73.015625 L 425.328125 79.996094 L 424.660156 86.171875 L 423.902344 95.03125 L 423.457031 101.742188 L 423.054688 109.257812 L 422.699219 118.117188 L 422.429688 127.515625 L 422.253906 137.449219 L 422.164062 147.113281 L 422.164062 188.726562 L 422.253906 198.390625 L 422.476562 209.667969 L 423.054688 226.042969 L 423.902344 240.273438 L 424.882812 251.546875 L 425.816406 259.601562 L 426.351562 263.359375 L 427.066406 267.65625 L 428.179688 273.027344 L 429.785156 278.394531 L 430.722656 280.542969 L 432.148438 282.691406 L 433.621094 283.765625 L 435.582031 283.765625 L 437.320312 282.691406 L 438.476562 281.347656 L 439.679688 279.199219 L 441.332031 274.636719 L 442.355469 270.339844 L 443.246094 265.242188 L 443.917969 260.140625 L 444.363281 255.84375 L 445.03125 247.519531 L 445.566406 238.394531 L 445.96875 228.996094 L 446.234375 219.867188 L 452.476562 219.867188 L 452.207031 230.609375 L 451.804688 241.078125 L 451.40625 248.863281 L 450.78125 258.261719 L 450.066406 266.582031 L 449.042969 275.980469 L 448.195312 282.152344 L 447.082031 288.867188 L 446.054688 293.96875 L 444.941406 298.53125 L 443.292969 303.898438 L 442.222656 306.585938 L 441.0625 309 L 439.679688 311.148438 L 437.941406 313.027344 L 436.070312 314.101562 L 434.332031 314.371094 L 432.460938 313.832031 L 431.078125 312.761719 L 429.25 310.34375 L 426.976562 305.511719 L 425.328125 300.410156 L 424.035156 295.308594 L 422.921875 289.941406 L 421.671875 282.691406 L 420.066406 270.878906 L 419.085938 261.75 L 418.417969 254.234375 L 417.660156 243.761719 L 417.125 234.367188 L 416.5 219.332031 L 416.054688 200.269531 L 415.921875 185.503906 Z M 415.921875 148.457031 "/>
<path style=" stroke:none;fill-rule:nonzero;fill:rgb(14.509804%,36.078431%,60%);fill-opacity:1;" d="M 454.398438 148.457031 L 454.445312 148.1875 L 454.445312 141.742188 L 454.578125 131.542969 L 454.890625 118.65625 L 455.203125 109.796875 L 456.003906 93.957031 L 457.117188 78.652344 L 458.277344 66.839844 L 459.125 59.859375 L 459.882812 54.492188 L 461.621094 44.558594 L 462.734375 39.457031 L 463.9375 34.890625 L 465.410156 30.328125 L 466.480469 27.644531 L 468.886719 23.347656 L 470.667969 21.46875 L 472.050781 20.664062 L 475.039062 20.664062 L 476.820312 21.738281 L 478.113281 23.078125 L 479.539062 25.226562 L 480.742188 27.644531 L 482.839844 33.550781 L 484.710938 41.066406 L 485.558594 45.363281 L 486.894531 53.683594 L 487.921875 61.738281 L 488.632812 68.71875 L 489.4375 78.652344 L 490.148438 90.734375 L 490.683594 104.425781 L 490.953125 115.96875 L 484.710938 115.96875 L 484.398438 105.230469 L 484.042969 96.910156 L 483.375 85.902344 L 482.707031 78.117188 L 481.769531 70.332031 L 480.921875 65.230469 L 479.761719 60.128906 L 478.738281 56.90625 L 477.667969 54.492188 L 476.644531 52.878906 L 474.679688 51.269531 L 472.40625 51.269531 L 471.5625 51.804688 L 469.824219 53.953125 L 468.886719 55.832031 L 467.550781 59.589844 L 466.613281 63.082031 L 465.5 68.449219 L 464.742188 73.015625 L 463.804688 79.996094 L 463.136719 86.171875 L 462.378906 95.03125 L 461.933594 101.742188 L 461.53125 109.257812 L 461.175781 118.117188 L 460.90625 127.515625 L 460.730469 137.449219 L 460.640625 147.113281 L 460.640625 188.726562 L 460.730469 198.390625 L 460.953125 209.667969 L 461.53125 226.042969 L 462.378906 240.273438 L 463.359375 251.546875 L 464.296875 259.601562 L 464.828125 263.359375 L 465.542969 267.65625 L 466.65625 273.027344 L 468.261719 278.394531 L 469.199219 280.542969 L 470.625 282.691406 L 472.097656 283.765625 L 474.058594 283.765625 L 475.796875 282.691406 L 476.953125 281.347656 L 478.160156 279.199219 L 479.808594 274.636719 L 480.832031 270.339844 L 481.726562 265.242188 L 482.394531 260.140625 L 482.839844 255.84375 L 483.507812 247.519531 L 484.042969 238.394531 L 484.445312 228.996094 L 484.710938 219.867188 L 490.953125 219.867188 L 490.683594 230.609375 L 490.285156 241.078125 L 489.882812 248.863281 L 489.257812 258.261719 L 488.546875 266.582031 L 487.519531 275.980469 L 486.671875 282.152344 L 485.558594 288.867188 L 484.53125 293.96875 L 483.417969 298.53125 L 481.769531 303.898438 L 480.699219 306.585938 L 479.539062 309 L 478.160156 311.148438 L 476.421875 313.027344 L 474.546875 314.101562 L 472.808594 314.371094 L 470.9375 313.832031 L 469.554688 312.761719 L 467.726562 310.34375 L 465.453125 305.511719 L 463.804688 300.410156 L 462.511719 295.308594 L 461.398438 289.941406 L 460.148438 282.691406 L 458.542969 270.878906 L 457.5625 261.75 L 456.894531 254.234375 L 456.136719 243.761719 L 455.601562 234.367188 L 454.980469 219.332031 L 454.53125 200.269531 L 454.398438 185.503906 Z M 454.398438 148.457031 "/>
<path style=" stroke:none;fill-rule:nonzero;fill:rgb(14.509804%,36.078431%,60%);fill-opacity:1;" d="M 492.875 171.59375 L 492.921875 171.390625 L 492.921875 166.5 L 493.054688 158.761719 L 493.367188 148.980469 L 493.679688 142.257812 L 494.480469 130.238281 L 495.59375 118.625 L 496.753906 109.660156 L 497.601562 104.363281 L 498.359375 100.285156 L 500.097656 92.75 L 501.210938 88.878906 L 502.414062 85.414062 L 503.886719 81.949219 L 504.957031 79.914062 L 507.363281 76.652344 L 509.148438 75.226562 L 510.527344 74.617188 L 513.515625 74.617188 L 515.296875 75.429688 L 516.589844 76.449219 L 518.015625 78.078125 L 519.222656 79.914062 L 521.316406 84.394531 L 523.1875 90.101562 L 524.035156 93.359375 L 525.371094 99.675781 L 526.398438 105.789062 L 527.109375 111.085938 L 527.914062 118.625 L 528.625 127.792969 L 529.160156 138.183594 L 529.429688 146.941406 L 523.1875 146.941406 L 522.875 138.792969 L 522.519531 132.476562 L 521.851562 124.125 L 521.183594 118.214844 L 520.246094 112.308594 L 519.398438 108.4375 L 518.242188 104.566406 L 517.214844 102.121094 L 516.144531 100.285156 L 515.121094 99.066406 L 513.160156 97.84375 L 510.886719 97.84375 L 510.039062 98.25 L 508.300781 99.878906 L 507.363281 101.304688 L 506.027344 104.15625 L 505.089844 106.808594 L 503.976562 110.882812 L 503.21875 114.34375 L 502.28125 119.640625 L 501.613281 124.328125 L 500.855469 131.050781 L 500.410156 136.144531 L 500.007812 141.847656 L 499.652344 148.574219 L 499.382812 155.703125 L 499.207031 163.242188 L 499.117188 170.578125 L 499.117188 202.15625 L 499.207031 209.492188 L 499.429688 218.046875 L 500.007812 230.476562 L 500.855469 241.273438 L 501.835938 249.832031 L 502.773438 255.941406 L 503.308594 258.796875 L 504.019531 262.054688 L 505.132812 266.128906 L 506.738281 270.203125 L 507.675781 271.835938 L 509.101562 273.464844 L 510.574219 274.277344 L 512.535156 274.277344 L 514.273438 273.464844 L 515.433594 272.445312 L 516.636719 270.816406 L 518.285156 267.351562 L 519.308594 264.09375 L 520.203125 260.222656 L 520.871094 256.351562 L 521.316406 253.089844 L 521.984375 246.773438 L 522.519531 239.847656 L 522.921875 232.714844 L 523.1875 225.789062 L 529.429688 225.789062 L 529.160156 233.9375 L 528.761719 241.886719 L 528.359375 247.792969 L 527.734375 254.925781 L 527.023438 261.238281 L 525.996094 268.371094 L 525.148438 273.058594 L 524.035156 278.148438 L 523.011719 282.019531 L 521.894531 285.484375 L 520.246094 289.558594 L 519.175781 291.597656 L 518.015625 293.429688 L 516.636719 295.058594 L 514.898438 296.488281 L 513.023438 297.300781 L 511.285156 297.503906 L 509.414062 297.097656 L 508.03125 296.28125 L 506.203125 294.449219 L 503.929688 290.78125 L 502.28125 286.910156 L 500.988281 283.039062 L 499.875 278.964844 L 498.625 273.464844 L 497.023438 264.5 L 496.039062 257.574219 L 495.371094 251.867188 L 494.613281 243.921875 L 494.078125 236.792969 L 493.457031 225.382812 L 493.007812 210.917969 L 492.875 199.710938 Z M 492.875 171.59375 "/>
<path style=" stroke:none;fill-rule:nonzero;fill:rgb(83.921569%,15.686275%,22.352941%);fill-opacity:1;" d="M 492.875 298.683594 L 529.429688 298.683594 L 529.429688 300.363281 L 514.195312 300.378906 L 514.195312 314.371094 L 508.066406 314.371094 L 508.066406 300.394531 L 507.976562 300.363281 L 492.875 300.363281 Z M 492.875 298.683594 "/>
<path style=" stroke:none;fill-rule:nonzero;fill:rgb(6.27451%,58.823529%,28.235294%);fill-opacity:1;" d="M 531.351562 313.359375 L 531.390625 313.347656 L 547.207031 301.539062 L 552.011719 301.539062 L 567.90625 313.371094 L 562.320312 313.371094 L 558.339844 310.28125 L 540.882812 310.28125 L 536.976562 313.359375 L 531.351562 313.359375 L 542.5625 309.003906 L 556.738281 308.992188 L 549.667969 303.472656 L 549.589844 303.460938 L 549.511719 303.492188 L 542.523438 308.992188 L 542.5625 309.003906 Z M 531.351562 313.359375 "/>
<path style=" stroke:none;fill-rule:nonzero;fill:rgb(14.509804%,36.078431%,60%);fill-opacity:1;" d="M 531.351562 274.640625 L 531.398438 274.621094 L 531.398438 274.1875 L 531.53125 273.5 L 531.84375 272.628906 L 532.15625 272.03125 L 532.957031 270.960938 L 534.070312 269.925781 L 535.230469 269.128906 L 536.078125 268.65625 L 536.835938 268.292969 L 538.574219 267.625 L 539.6875 267.277344 L 540.890625 266.96875 L 542.363281 266.660156 L 543.433594 266.480469 L 545.839844 266.191406 L 547.625 266.0625 L 549.003906 266.007812 L 551.992188 266.007812 L 553.773438 266.082031 L 555.066406 266.171875 L 556.496094 266.316406 L 557.699219 266.480469 L 559.792969 266.878906 L 561.664062 267.386719 L 562.511719 267.675781 L 563.851562 268.238281 L 564.875 268.785156 L 565.589844 269.253906 L 566.390625 269.925781 L 567.105469 270.742188 L 567.636719 271.667969 L 567.90625 272.445312 L 561.664062 272.445312 L 561.351562 271.722656 L 560.996094 271.160156 L 560.328125 270.414062 L 559.660156 269.890625 L 558.722656 269.363281 L 557.875 269.019531 L 556.71875 268.675781 L 555.691406 268.457031 L 554.621094 268.292969 L 553.597656 268.183594 L 551.636719 268.078125 L 549.363281 268.078125 L 548.515625 268.113281 L 546.777344 268.257812 L 545.839844 268.382812 L 544.503906 268.636719 L 543.566406 268.875 L 542.453125 269.238281 L 541.695312 269.546875 L 540.757812 270.015625 L 540.089844 270.433594 L 539.332031 271.03125 L 538.886719 271.484375 L 538.484375 271.992188 L 538.128906 272.589844 L 537.859375 273.226562 L 537.683594 273.898438 L 537.59375 274.550781 L 537.59375 277.359375 L 537.683594 278.011719 L 537.90625 278.773438 L 538.484375 279.882812 L 539.332031 280.84375 L 540.3125 281.605469 L 541.25 282.148438 L 541.785156 282.402344 L 542.496094 282.691406 L 543.613281 283.054688 L 545.214844 283.417969 L 546.152344 283.5625 L 547.578125 283.707031 L 549.050781 283.78125 L 551.011719 283.78125 L 552.75 283.707031 L 553.910156 283.617188 L 555.113281 283.472656 L 556.761719 283.164062 L 557.789062 282.875 L 558.679688 282.527344 L 559.347656 282.183594 L 559.792969 281.894531 L 560.460938 281.332031 L 560.996094 280.714844 L 561.398438 280.082031 L 561.664062 279.464844 L 567.90625 279.464844 L 567.636719 280.191406 L 567.238281 280.898438 L 566.835938 281.421875 L 566.210938 282.058594 L 565.5 282.621094 L 564.472656 283.253906 L 563.625 283.671875 L 562.511719 284.125 L 561.488281 284.46875 L 560.371094 284.777344 L 558.722656 285.140625 L 557.652344 285.320312 L 556.496094 285.484375 L 555.113281 285.628906 L 553.375 285.757812 L 551.5 285.828125 L 549.761719 285.847656 L 547.890625 285.8125 L 546.507812 285.738281 L 544.679688 285.574219 L 542.40625 285.25 L 540.757812 284.902344 L 539.464844 284.558594 L 538.351562 284.195312 L 537.101562 283.707031 L 535.5 282.910156 L 534.519531 282.292969 L 533.847656 281.785156 L 533.089844 281.078125 L 532.554688 280.445312 L 531.933594 279.429688 L 531.488281 278.140625 L 531.351562 277.144531 Z M 531.351562 274.640625 "/>
<path style=" stroke:none;fill-rule:nonzero;fill:rgb(83.921569%,15.686275%,22.352941%);fill-opacity:1;" d="M 531.351562 287.027344 L 567.90625 287.027344 L 567.90625 288.453125 L 552.671875 288.464844 L 552.671875 300.359375 L 546.542969 300.359375 L 546.542969 288.480469 L 546.453125 288.453125 L 531.351562 288.453125 Z M 531.351562 287.027344 "/>
<path style=" stroke:none;fill-rule:nonzero;fill:rgb(6.27451%,58.823529%,28.235294%);fill-opacity:1;" d="M 569.828125 311.265625 L 569.867188 311.257812 L 585.683594 306.242188 L 590.488281 306.242188 L 606.382812 311.269531 L 600.796875 311.269531 L 596.816406 309.957031 L 579.359375 309.957031 L 575.453125 311.265625 L 569.828125 311.265625 L 581.039062 309.414062 L 595.214844 309.410156 L 588.144531 307.066406 L 588.066406 307.058594 L 587.988281 307.074219 L 581 309.410156 L 581.039062 309.414062 Z M 569.828125 311.265625 "/>
<path style=" stroke:none;fill-rule:nonzero;fill:rgb(14.509804%,36.078431%,60%);fill-opacity:1;" d="M 569.828125 300.863281 L 569.875 300.855469 L 569.875 300.691406 L 570.007812 300.433594 L 570.320312 300.109375 L 570.632812 299.882812 L 571.433594 299.484375 L 572.550781 299.09375 L 573.707031 298.796875 L 574.554688 298.621094 L 575.3125 298.484375 L 577.050781 298.230469 L 578.164062 298.101562 L 579.371094 297.988281 L 580.839844 297.871094 L 581.910156 297.804688 L 584.316406 297.695312 L 586.101562 297.648438 L 587.484375 297.625 L 590.46875 297.625 L 592.253906 297.652344 L 593.542969 297.6875 L 594.972656 297.742188 L 596.175781 297.804688 L 598.269531 297.953125 L 600.140625 298.144531 L 600.988281 298.253906 L 602.328125 298.464844 L 603.351562 298.667969 L 604.066406 298.84375 L 604.867188 299.09375 L 605.582031 299.402344 L 606.117188 299.746094 L 606.382812 300.039062 L 600.140625 300.039062 L 599.832031 299.769531 L 599.472656 299.558594 L 598.804688 299.277344 L 598.136719 299.082031 L 597.199219 298.882812 L 596.351562 298.753906 L 595.195312 298.625 L 594.167969 298.542969 L 593.097656 298.484375 L 592.074219 298.441406 L 590.113281 298.402344 L 587.839844 298.402344 L 586.992188 298.414062 L 585.253906 298.46875 L 584.316406 298.515625 L 582.980469 298.613281 L 582.042969 298.699219 L 580.929688 298.835938 L 580.171875 298.953125 L 579.234375 299.128906 L 578.566406 299.285156 L 577.808594 299.511719 L 577.363281 299.679688 L 576.960938 299.871094 L 576.605469 300.09375 L 576.339844 300.332031 L 576.160156 300.585938 L 576.070312 300.828125 L 576.070312 301.882812 L 576.160156 302.128906 L 576.382812 302.414062 L 576.960938 302.828125 L 577.808594 303.1875 L 578.789062 303.472656 L 579.726562 303.675781 L 580.261719 303.773438 L 580.972656 303.882812 L 582.089844 304.015625 L 583.695312 304.152344 L 584.628906 304.207031 L 586.054688 304.261719 L 587.527344 304.289062 L 589.488281 304.289062 L 591.226562 304.261719 L 592.386719 304.226562 L 593.589844 304.171875 L 595.238281 304.058594 L 596.265625 303.949219 L 597.15625 303.820312 L 597.824219 303.691406 L 598.269531 303.582031 L 598.9375 303.371094 L 599.472656 303.140625 L 599.875 302.902344 L 600.140625 302.671875 L 606.382812 302.671875 L 606.117188 302.941406 L 605.714844 303.207031 L 605.3125 303.40625 L 604.6875 303.644531 L 603.976562 303.855469 L 602.949219 304.09375 L 602.105469 304.25 L 600.988281 304.417969 L 599.964844 304.546875 L 598.847656 304.664062 L 597.199219 304.800781 L 596.128906 304.867188 L 594.972656 304.929688 L 593.589844 304.984375 L 591.851562 305.03125 L 589.980469 305.058594 L 588.242188 305.0625 L 586.367188 305.050781 L 584.984375 305.023438 L 583.160156 304.960938 L 580.886719 304.839844 L 579.234375 304.710938 L 577.941406 304.582031 L 576.828125 304.445312 L 575.582031 304.261719 L 573.976562 303.964844 L 572.996094 303.730469 L 572.328125 303.542969 L 571.570312 303.277344 L 571.035156 303.039062 L 570.410156 302.65625 L 569.964844 302.175781 L 569.828125 301.800781 Z M 569.828125 300.863281 "/>
<path style=" stroke:none;fill-rule:nonzero;fill:rgb(96.862745%,70.196078%,16.862745%);fill-opacity:1;" d="M 569.828125 313.273438 L 569.875 313.269531 L 569.875 313.234375 L 570.054688 313.15625 L 570.5 313.046875 L 571.078125 312.957031 L 571.703125 312.886719 L 572.101562 312.851562 L 572.773438 312.796875 L 573.351562 312.757812 L 574.824219 312.679688 L 576.695312 312.605469 L 577.71875 312.574219 L 578.878906 312.542969 L 580.527344 312.511719 L 581.285156 312.5 L 583.605469 312.472656 L 586.234375 312.453125 L 589.132812 312.449219 L 590.46875 312.449219 L 592.296875 312.457031 L 594.792969 312.476562 L 596.21875 312.492188 L 597.332031 312.511719 L 598.492188 312.535156 L 599.917969 312.570312 L 601.257812 312.613281 L 602.328125 312.652344 L 603.394531 312.707031 L 604.289062 312.761719 L 605.046875 312.824219 L 605.714844 312.898438 L 606.117188 312.960938 L 606.382812 313.019531 L 600.1875 313.019531 L 599.832031 312.960938 L 599.429688 312.910156 L 598.761719 312.855469 L 598.089844 312.8125 L 597.421875 312.777344 L 596.175781 312.734375 L 595.105469 312.703125 L 593.769531 312.679688 L 592.476562 312.664062 L 591.003906 312.652344 L 590.113281 312.648438 L 587.75 312.648438 L 585.609375 312.664062 L 584.363281 312.675781 L 583.46875 312.691406 L 582.222656 312.714844 L 581.464844 312.738281 L 581.019531 312.75 L 579.679688 312.804688 L 578.789062 312.855469 L 578.300781 312.890625 L 577.675781 312.941406 L 577.230469 312.988281 L 576.738281 313.058594 L 576.472656 313.113281 L 576.117188 313.230469 L 576.070312 313.546875 L 576.203125 313.613281 L 576.472656 313.6875 L 576.828125 313.75 L 577.363281 313.816406 L 577.898438 313.867188 L 578.835938 313.933594 L 579.636719 313.980469 L 580.261719 314.011719 L 581.464844 314.058594 L 581.953125 314.074219 L 583.113281 314.105469 L 584.316406 314.128906 L 585.789062 314.152344 L 586.902344 314.160156 L 588.6875 314.171875 L 590.960938 314.171875 L 593.632812 314.160156 L 595.328125 314.144531 L 596.488281 314.132812 L 597.246094 314.121094 L 598.179688 314.101562 L 598.847656 314.082031 L 599.472656 314.0625 L 600.230469 314.035156 L 600.230469 313.613281 L 589.222656 313.613281 L 589.222656 313.414062 L 606.339844 313.414062 L 606.382812 314.101562 L 605.445312 314.148438 L 604.289062 314.191406 L 603.171875 314.226562 L 602.015625 314.257812 L 600.363281 314.292969 L 599.027344 314.3125 L 596.976562 314.335938 L 595.105469 314.351562 L 593.144531 314.363281 L 591.40625 314.367188 L 589.355469 314.371094 L 587.527344 314.367188 L 585.566406 314.355469 L 584.003906 314.34375 L 582.578125 314.324219 L 581.152344 314.300781 L 579.371094 314.265625 L 578.210938 314.234375 L 577.007812 314.199219 L 575.804688 314.15625 L 574.734375 314.105469 L 574.019531 314.070312 L 573.308594 314.027344 L 572.550781 313.976562 L 571.835938 313.914062 L 571.300781 313.863281 L 570.8125 313.800781 L 570.453125 313.742188 L 570.097656 313.664062 L 569.917969 313.601562 L 569.828125 313.546875 Z M 569.828125 313.273438 "/>
<path style=" stroke:none;fill-rule:nonzero;fill:rgb(83.921569%,15.686275%,22.352941%);fill-opacity:1;" d="M 569.828125 281.082031 L 606.382812 281.082031 L 606.382812 282.726562 L 591.148438 282.742188 L 591.148438 296.449219 L 585.019531 296.449219 L 585.019531 282.757812 L 584.929688 282.726562 L 569.828125 282.726562 Z M 569.828125 281.082031 "/>
<path style=" stroke:none;fill-rule:nonzero;fill:rgb(6.27451%,58.823529%,28.235294%);fill-opacity:1;" d="M 608.308594 305.984375 L 608.347656 305.980469 L 624.164062 302.722656 L 628.964844 302.722656 L 644.859375 305.988281 L 639.277344 305.988281 L 635.292969 305.136719 L 617.835938 305.136719 L 613.929688 305.984375 L 608.308594 305.984375 L 619.515625 304.78125 L 633.691406 304.78125 L 626.621094 303.257812 L 626.542969 303.253906 L 626.464844 303.261719 L 619.476562 304.78125 L 619.515625 304.78125 Z M 608.308594 305.984375 "/>
<path style=" stroke:none;fill-rule:nonzero;fill:rgb(14.509804%,36.078431%,60%);fill-opacity:1;" d="M 608.308594 311.824219 L 608.351562 311.824219 L 608.351562 311.792969 L 608.484375 311.746094 L 608.796875 311.6875 L 609.109375 311.644531 L 609.910156 311.570312 L 611.027344 311.5 L 612.183594 311.445312 L 613.03125 311.414062 L 613.789062 311.386719 L 615.527344 311.34375 L 616.644531 311.320312 L 617.847656 311.296875 L 619.316406 311.277344 L 620.386719 311.265625 L 622.792969 311.246094 L 624.578125 311.234375 L 625.960938 311.230469 L 628.945312 311.230469 L 630.730469 311.238281 L 632.023438 311.242188 L 633.449219 311.253906 L 634.652344 311.265625 L 636.746094 311.292969 L 638.621094 311.328125 L 639.464844 311.347656 L 640.804688 311.386719 L 641.828125 311.421875 L 642.542969 311.453125 L 643.34375 311.5 L 644.058594 311.554688 L 644.59375 311.621094 L 644.859375 311.671875 L 638.621094 311.671875 L 638.308594 311.625 L 637.949219 311.585938 L 637.28125 311.535156 L 636.613281 311.5 L 635.675781 311.460938 L 634.832031 311.4375 L 633.671875 311.414062 L 632.644531 311.398438 L 631.574219 311.386719 L 630.550781 311.382812 L 628.589844 311.375 L 625.46875 311.375 L 623.730469 311.386719 L 622.792969 311.394531 L 621.457031 311.414062 L 620.519531 311.429688 L 619.40625 311.453125 L 618.648438 311.472656 L 617.710938 311.507812 L 617.042969 311.535156 L 616.285156 311.578125 L 615.839844 311.609375 L 615.4375 311.640625 L 615.082031 311.683594 L 614.816406 311.726562 L 614.636719 311.773438 L 614.546875 311.816406 L 614.546875 312.011719 L 614.636719 312.054688 L 614.859375 312.109375 L 615.4375 312.183594 L 616.285156 312.25 L 617.265625 312.300781 L 618.203125 312.339844 L 618.738281 312.355469 L 619.453125 312.375 L 620.566406 312.402344 L 622.171875 312.425781 L 623.105469 312.4375 L 624.53125 312.445312 L 626.003906 312.449219 L 627.964844 312.449219 L 629.703125 312.445312 L 630.863281 312.441406 L 632.066406 312.429688 L 633.714844 312.410156 L 634.742188 312.386719 L 635.632812 312.363281 L 636.300781 312.339844 L 636.746094 312.320312 L 637.414062 312.28125 L 637.949219 312.242188 L 638.351562 312.195312 L 638.621094 312.15625 L 644.859375 312.15625 L 644.59375 312.203125 L 644.191406 312.253906 L 643.789062 312.289062 L 643.167969 312.332031 L 642.453125 312.371094 L 641.425781 312.414062 L 640.582031 312.441406 L 639.464844 312.472656 L 638.441406 312.496094 L 637.328125 312.519531 L 635.675781 312.542969 L 634.605469 312.554688 L 633.449219 312.566406 L 632.066406 312.578125 L 630.328125 312.585938 L 628.457031 312.589844 L 626.71875 312.59375 L 624.84375 312.589844 L 623.464844 312.585938 L 621.636719 312.574219 L 619.363281 312.550781 L 617.710938 312.527344 L 616.421875 312.503906 L 615.304688 312.480469 L 614.058594 312.445312 L 612.453125 312.390625 L 611.472656 312.347656 L 610.804688 312.3125 L 610.046875 312.265625 L 609.511719 312.222656 L 608.886719 312.152344 L 608.441406 312.0625 L 608.308594 311.996094 Z M 608.308594 311.824219 "/>
<path style=" stroke:none;fill-rule:nonzero;fill:rgb(96.862745%,70.196078%,16.862745%);fill-opacity:1;" d="M 608.308594 314.027344 L 608.351562 314.027344 L 608.351562 314.015625 L 608.53125 313.992188 L 608.976562 313.957031 L 609.554688 313.929688 L 610.179688 313.910156 L 610.582031 313.898438 L 611.25 313.882812 L 611.828125 313.867188 L 613.300781 313.84375 L 615.171875 313.820312 L 616.195312 313.8125 L 617.355469 313.800781 L 619.003906 313.792969 L 619.761719 313.789062 L 622.082031 313.777344 L 624.710938 313.773438 L 630.773438 313.773438 L 633.269531 313.78125 L 634.695312 313.785156 L 635.8125 313.792969 L 636.96875 313.800781 L 638.394531 313.808594 L 639.734375 313.824219 L 640.804688 313.835938 L 641.875 313.851562 L 642.765625 313.871094 L 643.523438 313.890625 L 644.191406 313.910156 L 644.59375 313.929688 L 644.859375 313.949219 L 638.664062 313.949219 L 638.308594 313.929688 L 637.90625 313.917969 L 637.238281 313.898438 L 636.570312 313.886719 L 635.898438 313.875 L 634.652344 313.859375 L 633.582031 313.851562 L 632.246094 313.84375 L 630.953125 313.839844 L 629.480469 313.835938 L 626.226562 313.835938 L 624.085938 313.839844 L 622.839844 313.84375 L 621.949219 313.847656 L 620.699219 313.855469 L 619.941406 313.863281 L 619.496094 313.867188 L 618.160156 313.882812 L 617.265625 313.898438 L 616.777344 313.910156 L 616.152344 313.925781 L 615.707031 313.941406 L 615.214844 313.960938 L 614.949219 313.980469 L 614.59375 314.015625 L 614.546875 314.113281 L 614.679688 314.136719 L 614.949219 314.15625 L 615.304688 314.175781 L 615.839844 314.199219 L 616.375 314.214844 L 617.3125 314.234375 L 618.113281 314.25 L 618.738281 314.257812 L 619.941406 314.273438 L 620.433594 314.277344 L 621.589844 314.289062 L 622.792969 314.296875 L 624.265625 314.300781 L 625.378906 314.304688 L 627.164062 314.308594 L 629.4375 314.308594 L 632.109375 314.304688 L 633.804688 314.300781 L 634.964844 314.296875 L 635.722656 314.292969 L 636.65625 314.285156 L 637.328125 314.28125 L 637.949219 314.273438 L 638.707031 314.265625 L 638.707031 314.136719 L 627.699219 314.132812 L 627.699219 314.074219 L 644.816406 314.074219 L 644.859375 314.285156 L 643.925781 314.300781 L 642.765625 314.316406 L 641.652344 314.328125 L 640.492188 314.335938 L 638.84375 314.347656 L 637.503906 314.351562 L 635.453125 314.359375 L 633.582031 314.363281 L 631.621094 314.367188 L 629.882812 314.371094 L 626.003906 314.371094 L 624.042969 314.367188 L 622.480469 314.363281 L 619.628906 314.347656 L 617.847656 314.335938 L 616.6875 314.328125 L 614.28125 314.304688 L 613.210938 314.289062 L 612.496094 314.277344 L 611.785156 314.265625 L 611.027344 314.246094 L 610.3125 314.230469 L 609.777344 314.210938 L 609.289062 314.191406 L 608.929688 314.175781 L 608.574219 314.148438 L 608.394531 314.128906 L 608.308594 314.113281 Z M 608.308594 314.027344 "/>
<path style=" stroke:none;fill-rule:nonzero;fill:rgb(83.921569%,15.686275%,22.352941%);fill-opacity:1;" d="M 608.308594 307.167969 L 644.859375 307.167969 L 644.859375 307.476562 L 629.625 307.480469 L 629.625 310.050781 L 623.496094 310.050781 L 623.496094 307.480469 L 623.40625 307.476562 L 608.308594 307.476562 Z M 608.308594 307.167969 "/>
<path style=" stroke:none;fill-rule:nonzero;fill:rgb(6.27451%,58.823529%,28.235294%);fill-opacity:1;" d="M 646.785156 311.863281 L 646.824219 311.863281 L 662.640625 311.453125 L 667.441406 311.453125 L 683.335938 311.863281 L 677.753906 311.863281 L 673.769531 311.753906 L 656.3125 311.753906 L 652.40625 311.863281 L 646.785156 311.863281 L 657.992188 311.710938 L 672.167969 311.710938 L 665.097656 311.519531 L 664.941406 311.519531 L 657.953125 311.710938 L 657.992188 311.710938 Z M 646.785156 311.863281 "/>
<path style=" stroke:none;fill-rule:nonzero;fill:rgb(96.862745%,70.196078%,16.862745%);fill-opacity:1;" d="M 646.785156 313.164062 L 646.828125 313.164062 L 646.828125 313.160156 L 647.007812 313.148438 L 647.453125 313.132812 L 648.03125 313.117188 L 648.65625 313.109375 L 649.058594 313.101562 L 649.726562 313.09375 L 650.304688 313.089844 L 651.777344 313.078125 L 653.648438 313.066406 L 654.675781 313.0625 L 655.832031 313.058594 L 657.480469 313.050781 L 658.238281 313.050781 L 660.558594 313.046875 L 663.1875 313.042969 L 669.25 313.042969 L 671.746094 313.046875 L 673.171875 313.050781 L 674.289062 313.050781 L 675.445312 313.054688 L 676.875 313.0625 L 678.210938 313.066406 L 680.351562 313.082031 L 681.242188 313.089844 L 682 313.097656 L 682.667969 313.109375 L 683.070312 313.117188 L 683.335938 313.128906 L 677.140625 313.128906 L 676.785156 313.117188 L 676.382812 313.113281 L 675.714844 313.101562 L 674.378906 313.09375 L 673.128906 313.085938 L 672.058594 313.082031 L 670.722656 313.078125 L 669.429688 313.074219 L 662.5625 313.074219 L 661.316406 313.078125 L 660.425781 313.078125 L 659.175781 313.082031 L 658.417969 313.085938 L 657.972656 313.089844 L 656.636719 313.097656 L 655.742188 313.105469 L 655.253906 313.109375 L 654.628906 313.117188 L 654.183594 313.125 L 653.691406 313.132812 L 653.425781 313.140625 L 653.070312 313.160156 L 653.023438 313.207031 L 653.160156 313.21875 L 653.425781 313.226562 L 653.78125 313.238281 L 654.851562 313.253906 L 655.789062 313.265625 L 656.589844 313.273438 L 657.214844 313.277344 L 658.417969 313.285156 L 658.910156 313.285156 L 660.066406 313.292969 L 661.269531 313.292969 L 662.742188 313.296875 L 663.855469 313.300781 L 670.589844 313.300781 L 672.28125 313.296875 L 673.441406 313.296875 L 674.199219 313.292969 L 675.136719 313.289062 L 675.804688 313.289062 L 676.425781 313.285156 L 677.183594 313.28125 L 677.183594 313.21875 L 666.175781 313.21875 L 666.175781 313.1875 L 683.292969 313.1875 L 683.335938 313.289062 L 682.402344 313.296875 L 681.242188 313.304688 L 680.128906 313.308594 L 678.96875 313.3125 L 677.320312 313.320312 L 675.980469 313.320312 L 673.929688 313.324219 L 672.058594 313.328125 L 670.097656 313.328125 L 668.359375 313.332031 L 664.480469 313.332031 L 662.519531 313.328125 L 660.960938 313.328125 L 659.53125 313.324219 L 658.105469 313.320312 L 656.324219 313.316406 L 655.164062 313.3125 L 652.757812 313.296875 L 651.6875 313.292969 L 650.972656 313.285156 L 650.261719 313.28125 L 649.503906 313.273438 L 648.789062 313.261719 L 648.253906 313.253906 L 647.765625 313.246094 L 647.40625 313.238281 L 647.050781 313.226562 L 646.875 313.214844 L 646.785156 313.207031 Z M 646.785156 313.164062 "/>
<path style=" stroke:none;fill-rule:nonzero;fill:rgb(83.921569%,15.686275%,22.352941%);fill-opacity:1;" d="M 646.785156 309.371094 L 683.335938 309.371094 L 683.335938 309.46875 L 668.101562 309.46875 L 668.101562 310.273438 L 661.972656 310.273438 L 661.972656 309.46875 L 646.785156 309.46875 Z M 646.785156 309.371094 "/>
<g style="fill:rgb(0%,0%,0%);fill-opacity:1;">
  <use xlink:href="#glyph0-1" x="21.957031" y="318.198242"/>
  <use xlink:href="#glyph0-2" x="27.291016" y="318.198242"/>
  <use xlink:href="#glyph0-1" x="29.958008" y="318.198242"/>
</g>
<g style="fill:rgb(0%,0%,0%);fill-opacity:1;">
  <use xlink:href="#glyph0-1" x="21.957031" y="244.475586"/>
  <use xlink:href="#glyph0-2" x="27.291016" y="244.475586"/>
  <use xlink:href="#glyph0-3" x="29.958008" y="244.475586"/>
</g>
<g style="fill:rgb(0%,0%,0%);fill-opacity:1;">
  <use xlink:href="#glyph0-4" x="21.957031" y="170.75293"/>
  <use xlink:href="#glyph0-2" x="27.291016" y="170.75293"/>
  <use xlink:href="#glyph0-1" x="29.958008" y="170.75293"/>
</g>
<g style="fill:rgb(0%,0%,0%);fill-opacity:1;">
  <use xlink:href="#glyph0-4" x="21.957031" y="97.03418"/>
  <use xlink:href="#glyph0-2" x="27.291016" y="97.03418"/>
  <use xlink:href="#glyph0-3" x="29.958008" y="97.03418"/>
</g>
<g style="fill:rgb(0%,0%,0%);fill-opacity:1;">
  <use xlink:href="#glyph0-5" x="21.957031" y="23.311523"/>
  <use xlink:href="#glyph0-2" x="27.291016" y="23.311523"/>
  <use xlink:href="#glyph0-1" x="29.958008" y="23.311523"/>
</g>
<g style="fill:rgb(0%,0%,0%);fill-opacity:1;">
  <use xlink:href="#glyph0-4" x="84.90625" y="338.19043"/>
</g>
<g style="fill:rgb(0%,0%,0%);fill-opacity:1;">
  <use xlink:href="#glyph0-5" x="123.382812" y="338.19043"/>
</g>
<g style="fill:rgb(0%,0%,0%);fill-opacity:1;">
  <use xlink:href="#glyph0-6" x="161.859375" y="338.19043"/>
</g>
<g style="fill:rgb(0%,0%,0%);fill-opacity:1;">
  <use xlink:href="#glyph0-7" x="200.335938" y="338.19043"/>
</g>
<g style="fill:rgb(0%,0%,0%);fill-opacity:1;">
  <use xlink:href="#glyph0-3" x="238.8125" y="338.19043"/>
</g>
<g style="fill:rgb(0%,0%,0%);fill-opacity:1;">
  <use xlink:href="#glyph0-8" x="277.289062" y="338.19043"/>
</g>
<g style="fill:rgb(0%,0%,0%);fill-opacity:1;">
  <use xlink:href="#glyph0-9" x="315.769531" y="338.19043"/>
</g>
<g style="fill:rgb(0%,0%,0%);fill-opacity:1;">
  <use xlink:href="#glyph0-10" x="354.246094" y="338.19043"/>
</g>
<g style="fill:rgb(0%,0%,0%);fill-opacity:1;">
  <use xlink:href="#glyph0-11" x="392.722656" y="338.19043"/>
</g>
<g style="fill:rgb(0%,0%,0%);fill-opacity:1;">
  <use xlink:href="#glyph0-4" x="428.699219" y="338.19043"/>
  <use xlink:href="#glyph0-1" x="434.033203" y="338.19043"/>
</g>
<g style="fill:rgb(0%,0%,0%);fill-opacity:1;">
  <use xlink:href="#glyph0-4" x="467.175781" y="338.19043"/>
  <use xlink:href="#glyph0-4" x="472.509766" y="338.19043"/>
</g>
<g style="fill:rgb(0%,0%,0%);fill-opacity:1;">
  <use xlink:href="#glyph0-4" x="505.652344" y="338.19043"/>
  <use xlink:href="#glyph0-5" x="510.986328" y="338.19043"/>
</g>
<g style="fill:rgb(0%,0%,0%);fill-opacity:1;">
  <use xlink:href="#glyph0-4" x="544.128906" y="338.19043"/>
  <use xlink:href="#glyph0-6" x="549.462891" y="338.19043"/>
</g>
<g style="fill:rgb(0%,0%,0%);fill-opacity:1;">
  <use xlink:href="#glyph0-4" x="582.605469" y="338.19043"/>
  <use xlink:href="#glyph0-7" x="587.939453" y="338.19043"/>
</g>
<g style="fill:rgb(0%,0%,0%);fill-opacity:1;">
  <use xlink:href="#glyph0-4" x="621.082031" y="338.19043"/>
  <use xlink:href="#glyph0-3" x="626.416016" y="338.19043"/>
</g>
<g style="fill:rgb(0%,0%,0%);fill-opacity:1;">
  <use xlink:href="#glyph0-4" x="659.558594" y="338.19043"/>
  <use xlink:href="#glyph0-8" x="664.892578" y="338.19043"/>
</g>
<g style="fill:rgb(0%,0%,0%);fill-opacity:1;">
  <use xlink:href="#glyph1-1" x="14.412109" y="178.015625"/>
  <use xlink:href="#glyph1-2" x="14.412109" y="170.011719"/>
  <use xlink:href="#glyph1-3" x="14.412109" y="167.347656"/>
  <use xlink:href="#glyph1-4" x="14.412109" y="164.011719"/>
</g>
</g>
</svg>
