<?xml version="1.0" encoding="UTF-8"?>
<svg xmlns="http://www.w3.org/2000/svg" xmlns:xlink="http://www.w3.org/1999/xlink" width="720pt" height="360pt" viewBox="0 0 720 360" version="1.1">
<defs>
<g>
<symbol overflow="visible" id="glyph0-0">
<path style="stroke:none;" d=""/>
</symbol>
<symbol overflow="visible" id="glyph0-1">
<path style="stroke:none;" d="M 2.640625 -6.796875 C 2 -6.796875 1.421875 -6.53125 1.078125 -6.046875 C 0.640625 -5.453125 0.40625 -4.546875 0.40625 -3.296875 C 0.40625 -1 1.1875 0.21875 2.640625 0.21875 C 4.078125 0.21875 4.859375 -1 4.859375 -3.234375 C 4.859375 -4.5625 4.65625 -5.4375 4.203125 -6.046875 C 3.84375 -6.53125 3.28125 -6.796875 2.640625 -6.796875 Z M 2.640625 -6.046875 C 3.546875 -6.046875 4 -5.125 4 -3.3125 C 4 -1.375 3.5625 -0.484375 2.625 -0.484375 C 1.734375 -0.484375 1.28125 -1.421875 1.28125 -3.28125 C 1.28125 -5.140625 1.734375 -6.046875 2.640625 -6.046875 Z M 2.640625 -6.046875 "/>
</symbol>
<symbol overflow="visible" id="glyph0-2">
<path style="stroke:none;" d="M 1.828125 -1 L 0.828125 -1 L 0.828125 0 L 1.828125 0 Z M 1.828125 -1 "/>
</symbol>
<symbol overflow="visible" id="glyph0-3">
<path style="stroke:none;" d="M 4.5625 -6.796875 L 1.0625 -6.796875 L 0.546875 -3.09375 L 1.328125 -3.09375 C 1.71875 -3.5625 2.046875 -3.734375 2.578125 -3.734375 C 3.484375 -3.734375 4.0625 -3.109375 4.0625 -2.09375 C 4.0625 -1.125 3.484375 -0.53125 2.578125 -0.53125 C 1.828125 -0.53125 1.375 -0.90625 1.1875 -1.671875 L 0.328125 -1.671875 C 0.453125 -1.109375 0.546875 -0.84375 0.75 -0.59375 C 1.125 -0.078125 1.828125 0.21875 2.59375 0.21875 C 3.96875 0.21875 4.921875 -0.78125 4.921875 -2.21875 C 4.921875 -3.5625 4.03125 -4.484375 2.71875 -4.484375 C 2.25 -4.484375 1.859375 -4.359375 1.46875 -4.0625 L 1.734375 -5.96875 L 4.5625 -5.96875 Z M 4.5625 -6.796875 "/>
</symbol>
<symbol overflow="visible" id="glyph0-4">
<path style="stroke:none;" d="M 2.484375 -4.84375 L 2.484375 0 L 3.328125 0 L 3.328125 -6.796875 L 2.765625 -6.796875 C 2.46875 -5.75 2.28125 -5.609375 0.984375 -5.453125 L 0.984375 -4.84375 Z M 2.484375 -4.84375 "/>
</symbol>
<symbol overflow="visible" id="glyph0-5">
<path style="stroke:none;" d="M 4.859375 -0.828125 L 1.28125 -0.828125 C 1.359375 -1.390625 1.671875 -1.75 2.5 -2.234375 L 3.46875 -2.75 C 4.40625 -3.265625 4.90625 -3.96875 4.90625 -4.8125 C 4.90625 -5.375 4.671875 -5.90625 4.265625 -6.265625 C 3.859375 -6.625 3.375 -6.796875 2.71875 -6.796875 C 1.859375 -6.796875 1.21875 -6.5 0.84375 -5.921875 C 0.609375 -5.5625 0.5 -5.125 0.484375 -4.4375 L 1.328125 -4.4375 C 1.359375 -4.90625 1.40625 -5.1875 1.53125 -5.40625 C 1.75 -5.8125 2.1875 -6.0625 2.703125 -6.0625 C 3.46875 -6.0625 4.03125 -5.515625 4.03125 -4.78125 C 4.03125 -4.25 3.71875 -3.796875 3.125 -3.4375 L 2.234375 -2.9375 C 0.8125 -2.140625 0.40625 -1.5 0.328125 0 L 4.859375 0 Z M 4.859375 -0.828125 "/>
</symbol>
<symbol overflow="visible" id="glyph0-6">
<path style="stroke:none;" d="M 2.125 -3.125 L 2.578125 -3.125 C 3.515625 -3.125 3.984375 -2.703125 3.984375 -1.890625 C 3.984375 -1.03125 3.46875 -0.53125 2.578125 -0.53125 C 1.65625 -0.53125 1.203125 -0.984375 1.15625 -1.96875 L 0.3125 -1.96875 C 0.34375 -1.421875 0.4375 -1.078125 0.609375 -0.765625 C 0.953125 -0.109375 1.625 0.21875 2.546875 0.21875 C 3.953125 0.21875 4.859375 -0.609375 4.859375 -1.90625 C 4.859375 -2.765625 4.515625 -3.25 3.703125 -3.515625 C 4.34375 -3.765625 4.65625 -4.25 4.65625 -4.9375 C 4.65625 -6.109375 3.875 -6.796875 2.578125 -6.796875 C 1.203125 -6.796875 0.484375 -6.046875 0.453125 -4.609375 L 1.296875 -4.609375 C 1.3125 -5.015625 1.34375 -5.25 1.453125 -5.453125 C 1.640625 -5.828125 2.0625 -6.0625 2.59375 -6.0625 C 3.34375 -6.0625 3.796875 -5.625 3.796875 -4.90625 C 3.796875 -4.421875 3.609375 -4.140625 3.25 -3.984375 C 3.015625 -3.890625 2.71875 -3.84375 2.125 -3.84375 Z M 2.125 -3.125 "/>
</symbol>
<symbol overflow="visible" id="glyph0-7">
<path style="stroke:none;" d="M 3.140625 -1.625 L 3.140625 0 L 3.984375 0 L 3.984375 -1.625 L 4.984375 -1.625 L 4.984375 -2.390625 L 3.984375 -2.390625 L 3.984375 -6.796875 L 3.359375 -6.796875 L 0.265625 -2.515625 L 0.265625 -1.625 Z M 3.140625 -2.390625 L 1 -2.390625 L 3.140625 -5.359375 Z M 3.140625 -2.390625 "/>
</symbol>
<symbol overflow="visible" id="glyph0-8">
<path style="stroke:none;" d="M 4.78125 -5.03125 C 4.609375 -6.140625 3.890625 -6.796875 2.84375 -6.796875 C 2.09375 -6.796875 1.421875 -6.4375 1.03125 -5.828125 C 0.609375 -5.171875 0.40625 -4.34375 0.40625 -3.09375 C 0.40625 -1.953125 0.578125 -1.234375 0.984375 -0.625 C 1.359375 -0.078125 1.953125 0.21875 2.703125 0.21875 C 3.984375 0.21875 4.921875 -0.734375 4.921875 -2.078125 C 4.921875 -3.34375 4.0625 -4.234375 2.84375 -4.234375 C 2.171875 -4.234375 1.640625 -3.96875 1.28125 -3.46875 C 1.28125 -5.125 1.828125 -6.046875 2.796875 -6.046875 C 3.390625 -6.046875 3.796875 -5.671875 3.9375 -5.03125 Z M 2.734375 -3.484375 C 3.546875 -3.484375 4.0625 -2.921875 4.0625 -2 C 4.0625 -1.15625 3.484375 -0.53125 2.703125 -0.53125 C 1.921875 -0.53125 1.328125 -1.1875 1.328125 -2.046875 C 1.328125 -2.890625 1.90625 -3.484375 2.734375 -3.484375 Z M 2.734375 -3.484375 "/>
</symbol>
<symbol overflow="visible" id="glyph0-9">
<path style="stroke:none;" d="M 4.984375 -6.796875 L 0.4375 -6.796875 L 0.4375 -5.96875 L 4.109375 -5.96875 C 2.5 -3.65625 1.828125 -2.234375 1.328125 0 L 2.21875 0 C 2.59375 -2.171875 3.453125 -4.046875 4.984375 -6.09375 Z M 4.984375 -6.796875 "/>
</symbol>
<symbol overflow="visible" id="glyph0-10">
<path style="stroke:none;" d="M 3.75 -3.578125 C 4.453125 -4 4.6875 -4.34375 4.6875 -4.984375 C 4.6875 -6.046875 3.84375 -6.796875 2.640625 -6.796875 C 1.4375 -6.796875 0.59375 -6.046875 0.59375 -4.984375 C 0.59375 -4.359375 0.828125 -4.015625 1.515625 -3.578125 C 0.734375 -3.203125 0.359375 -2.640625 0.359375 -1.890625 C 0.359375 -0.640625 1.296875 0.21875 2.640625 0.21875 C 3.984375 0.21875 4.921875 -0.640625 4.921875 -1.875 C 4.921875 -2.640625 4.53125 -3.203125 3.75 -3.578125 Z M 2.640625 -6.046875 C 3.359375 -6.046875 3.8125 -5.625 3.8125 -4.96875 C 3.8125 -4.34375 3.34375 -3.921875 2.640625 -3.921875 C 1.921875 -3.921875 1.453125 -4.34375 1.453125 -4.984375 C 1.453125 -5.625 1.921875 -6.046875 2.640625 -6.046875 Z M 2.640625 -3.203125 C 3.484375 -3.203125 4.0625 -2.671875 4.0625 -1.875 C 4.0625 -1.0625 3.484375 -0.53125 2.625 -0.53125 C 1.796875 -0.53125 1.21875 -1.078125 1.21875 -1.875 C 1.21875 -2.671875 1.796875 -3.203125 2.640625 -3.203125 Z M 2.640625 -3.203125 "/>
</symbol>
<symbol overflow="visible" id="glyph0-11">
<path style="stroke:none;" d="M 0.515625 -1.546875 C 0.671875 -0.4375 1.40625 0.21875 2.4375 0.21875 C 3.1875 0.21875 3.859375 -0.140625 4.265625 -0.75 C 4.6875 -1.40625 4.890625 -2.25 4.890625 -3.484375 C 4.890625 -4.625 4.703125 -5.359375 4.3125 -5.953125 C 3.9375 -6.5 3.34375 -6.796875 2.59375 -6.796875 C 1.296875 -6.796875 0.359375 -5.84375 0.359375 -4.515625 C 0.359375 -3.25 1.234375 -2.34375 2.453125 -2.34375 C 3.09375 -2.34375 3.5625 -2.578125 4.015625 -3.109375 C 4 -1.453125 3.46875 -0.53125 2.5 -0.53125 C 1.90625 -0.53125 1.484375 -0.90625 1.359375 -1.546875 Z M 2.578125 -6.0625 C 3.375 -6.0625 3.96875 -5.40625 3.96875 -4.53125 C 3.96875 -3.6875 3.375 -3.09375 2.546875 -3.09375 C 1.734375 -3.09375 1.234375 -3.671875 1.234375 -4.578125 C 1.234375 -5.4375 1.796875 -6.0625 2.578125 -6.0625 Z M 2.578125 -6.0625 "/>
</symbol>
<symbol overflow="visible" id="glyph1-0">
<path style="stroke:none;" d=""/>
</symbol>
<symbol overflow="visible" id="glyph1-1">
<path style="stroke:none;" d="M 0 -0.953125 L 0 -4.890625 C 0 -5.71875 -0.234375 -6.34375 -0.734375 -6.796875 C -1.1875 -7.234375 -1.8125 -7.46875 -2.5 -7.46875 C -3.546875 -7.46875 -4.1875 -7 -4.625 -5.875 C -4.984375 -6.671875 -5.640625 -7.09375 -6.53125 -7.09375 C -7.15625 -7.09375 -7.734375 -6.859375 -8.140625 -6.390625 C -8.5625 -5.9375 -8.75 -5.34375 -8.75 -4.5 L -8.75 -0.953125 Z M -4.984375 -2.0625 L -7.765625 -2.0625 L -7.765625 -4.21875 C -7.765625 -4.84375 -7.6875 -5.203125 -7.453125 -5.5 C -7.21875 -5.8125 -6.859375 -5.96875 -6.375 -5.96875 C -5.90625 -5.96875 -5.53125 -5.8125 -5.296875 -5.5 C -5.0625 -5.203125 -4.984375 -4.84375 -4.984375 -4.21875 Z M -0.984375 -2.0625 L -4 -2.0625 L -4 -4.78125 C -4 -5.328125 -3.859375 -5.6875 -3.578125 -5.953125 C -3.296875 -6.21875 -2.921875 -6.359375 -2.484375 -6.359375 C -2.0625 -6.359375 -1.6875 -6.21875 -1.40625 -5.953125 C -1.109375 -5.6875 -0.984375 -5.328125 -0.984375 -4.78125 Z M -0.984375 -2.0625 "/>
</symbol>
<symbol overflow="visible" id="glyph1-2">
<path style="stroke:none;" d="M -6.28125 -1.796875 L -6.28125 -0.796875 L 0 -0.796875 L 0 -1.796875 Z M -8.75 -1.796875 L -8.75 -0.796875 L -7.484375 -0.796875 L -7.484375 -1.796875 Z M -8.75 -1.796875 "/>
</symbol>
<symbol overflow="visible" id="glyph1-3">
<path style="stroke:none;" d="M -6.28125 -3.046875 L -6.28125 -2.015625 L -8.015625 -2.015625 L -8.015625 -1.015625 L -6.28125 -1.015625 L -6.28125 -0.171875 L -5.46875 -0.171875 L -5.46875 -1.015625 L -0.71875 -1.015625 C -0.078125 -1.015625 0.28125 -1.453125 0.28125 -2.234375 C 0.28125 -2.46875 0.25 -2.71875 0.1875 -3.046875 L -0.640625 -3.046875 C -0.609375 -2.921875 -0.59375 -2.765625 -0.59375 -2.5625 C -0.59375 -2.140625 -0.71875 -2.015625 -1.15625 -2.015625 L -5.46875 -2.015625 L -5.46875 -3.046875 Z M -6.28125 -3.046875 "/>
</symbol>
<symbol overflow="visible" id="glyph1-4">
<path style="stroke:none;" d="M -4.53125 -5.25 C -5.765625 -5.25 -6.46875 -4.421875 -6.46875 -2.96875 C -6.46875 -1.515625 -5.71875 -0.5625 -4.546875 -0.5625 C -3.5625 -0.5625 -3.09375 -1.0625 -2.734375 -2.5625 L -2.515625 -3.484375 C -2.34375 -4.1875 -2.09375 -4.46875 -1.625 -4.46875 C -1.046875 -4.46875 -0.640625 -3.875 -0.640625 -3 C -0.640625 -2.453125 -0.796875 -2 -1.0625 -1.75 C -1.25 -1.59375 -1.421875 -1.53125 -1.875 -1.46875 L -1.875 -0.40625 C -0.421875 -0.453125 0.28125 -1.265625 0.28125 -2.921875 C 0.28125 -4.5 -0.5 -5.515625 -1.71875 -5.515625 C -2.65625 -5.515625 -3.171875 -4.984375 -3.46875 -3.734375 L -3.703125 -2.765625 C -3.890625 -1.953125 -4.15625 -1.609375 -4.59375 -1.609375 C -5.171875 -1.609375 -5.546875 -2.125 -5.546875 -2.9375 C -5.546875 -3.75 -5.203125 -4.171875 -4.53125 -4.203125 Z M -4.53125 -5.25 "/>
</symbol>
</g>
</defs>
<g id="surface41144">
<rect x="0" y="0" width="720" height="360" style="fill:rgb(100%,100%,100%);fill-opacity:1;stroke:none;"/>
<path style=" stroke:none;fill-rule:nonzero;fill:rgb(14.509804%,36.078431%,60%);fill-opacity:1;" d="M 69.628906 148.457031 L 69.683594 148.1875 L 69.683594 141.742188 L 69.847656 131.542969 L 70.234375 118.65625 L 70.617188 109.796875 L 71.605469 93.957031 L 72.976562 78.652344 L 74.40625 66.839844 L 75.449219 59.859375 L 76.382812 54.492188 L 78.523438 44.558594 L 79.894531 39.457031 L 81.378906 34.890625 L 83.191406 30.328125 L 84.507812 27.644531 L 87.472656 23.347656 L 89.667969 21.46875 L 91.371094 20.664062 L 95.050781 20.664062 L 97.246094 21.738281 L 98.839844 23.078125 L 100.59375 25.226562 L 102.078125 27.644531 L 104.65625 33.550781 L 106.964844 41.066406 L 108.007812 45.363281 L 109.652344 53.683594 L 110.917969 61.738281 L 111.796875 68.71875 L 112.785156 78.652344 L 113.660156 90.734375 L 114.320312 104.425781 L 114.648438 115.96875 L 106.964844 115.96875 L 106.578125 105.230469 L 106.140625 96.910156 L 105.316406 85.902344 L 104.492188 78.117188 L 103.339844 70.332031 L 102.296875 65.230469 L 100.871094 60.128906 L 99.605469 56.90625 L 98.289062 54.492188 L 97.027344 52.878906 L 94.609375 51.269531 L 91.808594 51.269531 L 90.765625 51.804688 L 88.625 53.953125 L 87.472656 55.832031 L 85.824219 59.589844 L 84.671875 63.082031 L 83.300781 68.449219 L 82.367188 73.015625 L 81.214844 79.996094 L 80.390625 86.171875 L 79.457031 95.03125 L 78.90625 101.742188 L 78.414062 109.257812 L 77.976562 118.117188 L 77.644531 127.515625 L 77.425781 137.449219 L 77.316406 147.113281 L 77.316406 188.726562 L 77.425781 198.390625 L 77.699219 209.667969 L 78.414062 226.042969 L 79.457031 240.273438 L 80.664062 251.546875 L 81.816406 259.601562 L 82.476562 263.359375 L 83.355469 267.65625 L 84.726562 273.027344 L 86.703125 278.394531 L 87.855469 280.542969 L 89.613281 282.691406 L 91.425781 283.765625 L 93.84375 283.765625 L 95.984375 282.691406 L 97.410156 281.347656 L 98.894531 279.199219 L 100.925781 274.636719 L 102.1875 270.339844 L 103.285156 265.242188 L 104.109375 260.140625 L 104.65625 255.84375 L 105.480469 247.519531 L 106.140625 238.394531 L 106.632812 228.996094 L 106.964844 219.867188 L 114.648438 219.867188 L 114.320312 230.609375 L 113.828125 241.078125 L 113.332031 248.863281 L 112.5625 258.261719 L 111.6875 266.582031 L 110.421875 275.980469 L 109.378906 282.152344 L 108.007812 288.867188 L 106.746094 293.96875 L 105.371094 298.53125 L 103.339844 303.898438 L 102.023438 306.585938 L 100.59375 309 L 98.894531 311.148438 L 96.75 313.027344 L 94.445312 314.101562 L 92.304688 314.371094 L 90 313.832031 L 88.296875 312.761719 L 86.046875 310.34375 L 83.246094 305.511719 L 81.214844 300.410156 L 79.621094 295.308594 L 78.25 289.941406 L 76.710938 282.691406 L 74.734375 270.878906 L 73.527344 261.75 L 72.703125 254.234375 L 71.769531 243.761719 L 71.113281 234.367188 L 70.34375 219.332031 L 69.792969 200.269531 L 69.628906 185.503906 Z M 69.628906 148.457031 "/>
<path style=" stroke:none;fill-rule:nonzero;fill:rgb(6.27451%,58.823529%,28.235294%);fill-opacity:1;" d="M 117.019531 314.34375 L 117.066406 314.316406 L 136.546875 284.917969 L 142.464844 284.917969 L 162.039062 314.371094 L 155.164062 314.371094 L 150.257812 306.683594 L 128.757812 306.683594 L 123.945312 314.34375 L 117.019531 314.34375 L 130.824219 303.5 L 148.285156 303.472656 L 139.578125 289.730469 L 139.480469 289.699219 L 139.386719 289.785156 L 130.777344 303.472656 L 130.824219 303.5 Z M 117.019531 314.34375 "/>
<path style=" stroke:none;fill-rule:nonzero;fill:rgb(96.862745%,70.196078%,16.862745%);fill-opacity:1;" d="M 117.019531 184.585938 L 117.074219 184.429688 L 117.074219 181.261719 L 117.292969 174.132812 L 117.84375 164.3125 L 118.558594 156.234375 L 119.324219 149.902344 L 119.820312 146.574219 L 120.644531 141.824219 L 121.355469 138.339844 L 123.167969 131.210938 L 125.476562 124.558594 L 126.738281 121.707031 L 128.164062 119.015625 L 130.195312 116.007812 L 131.128906 114.898438 L 133.984375 112.363281 L 137.222656 110.78125 L 140.792969 110.304688 L 142.441406 110.460938 L 144.691406 111.097656 L 147.765625 112.839844 L 149.523438 114.421875 L 150.894531 116.007812 L 152.324219 118.066406 L 154.078125 121.234375 L 155.726562 125.035156 L 157.042969 128.835938 L 158.363281 133.585938 L 159.460938 138.65625 L 160.394531 144.199219 L 161.21875 150.851562 L 161.710938 156.394531 L 162.039062 161.9375 L 154.410156 161.9375 L 153.96875 156.394531 L 153.476562 152.117188 L 152.652344 146.890625 L 151.828125 143.089844 L 151.003906 140.082031 L 149.46875 135.960938 L 148.148438 133.429688 L 146.503906 131.210938 L 144.910156 129.785156 L 143.097656 128.835938 L 142 128.519531 L 139.089844 128.519531 L 136.457031 129.628906 L 134.917969 130.894531 L 133.820312 132.160156 L 132.28125 134.539062 L 131.351562 136.4375 L 130.800781 137.703125 L 129.152344 142.613281 L 128.054688 147.050781 L 127.453125 150.058594 L 126.683594 154.8125 L 126.132812 159.085938 L 125.53125 165.421875 L 125.199219 170.175781 L 124.761719 180.945312 L 124.707031 209.453125 L 124.871094 215.472656 L 125.199219 221.964844 L 125.640625 227.667969 L 126.296875 233.6875 L 126.957031 238.28125 L 128.109375 244.457031 L 129.097656 248.574219 L 129.867188 251.269531 L 131.351562 255.542969 L 131.953125 256.96875 L 133.382812 259.820312 L 134.863281 262.039062 L 136.675781 263.9375 L 138.046875 264.890625 L 140.246094 265.679688 L 143.042969 265.679688 L 146.339844 264.730469 L 148.425781 263.464844 L 149.851562 262.195312 L 150.785156 261.085938 L 151.9375 259.34375 L 152.761719 257.761719 L 153.53125 256.019531 L 154.464844 253.328125 L 154.464844 215.472656 L 140.902344 215.3125 L 140.902344 197.574219 L 161.984375 197.417969 L 162.039062 259.34375 L 160.886719 263.621094 L 159.460938 267.738281 L 158.085938 270.90625 L 156.660156 273.601562 L 154.628906 276.609375 L 152.980469 278.511719 L 150.457031 280.726562 L 148.148438 282.152344 L 145.734375 283.101562 L 143.59375 283.578125 L 141.066406 283.738281 L 138.816406 283.421875 L 136.402344 282.46875 L 134.480469 281.203125 L 132.722656 279.617188 L 130.964844 277.558594 L 128.769531 274.234375 L 127.339844 271.542969 L 125.859375 268.214844 L 124.378906 264.253906 L 123.058594 259.980469 L 122.179688 256.652344 L 121.300781 252.851562 L 120.367188 248.101562 L 119.492188 242.714844 L 118.832031 237.804688 L 118.226562 232.261719 L 117.789062 227.035156 L 117.347656 219.90625 L 117.128906 214.207031 L 117.019531 209.296875 Z M 117.019531 184.585938 "/>
<path style=" stroke:none;fill-rule:nonzero;fill:rgb(96.862745%,70.196078%,16.862745%);fill-opacity:1;" d="M 164.410156 146.460938 L 164.464844 146.191406 L 164.464844 140.828125 L 164.683594 128.757812 L 165.234375 112.128906 L 165.949219 98.449219 L 166.714844 87.71875 L 167.210938 82.085938 L 168.035156 74.039062 L 168.746094 68.140625 L 170.558594 56.070312 L 172.867188 44.804688 L 174.128906 39.976562 L 175.554688 35.414062 L 177.585938 30.320312 L 178.519531 28.441406 L 181.375 24.148438 L 184.613281 21.46875 L 188.183594 20.664062 L 189.832031 20.929688 L 192.082031 22.003906 L 195.15625 24.953125 L 196.914062 27.636719 L 198.285156 30.320312 L 199.714844 33.804688 L 201.46875 39.171875 L 203.117188 45.609375 L 204.433594 52.046875 L 205.753906 60.09375 L 206.851562 68.675781 L 207.785156 78.0625 L 208.609375 89.328125 L 209.101562 98.714844 L 209.429688 108.105469 L 201.800781 108.105469 L 201.359375 98.714844 L 200.867188 91.476562 L 200.042969 82.625 L 199.21875 76.1875 L 198.394531 71.089844 L 196.859375 64.117188 L 195.539062 59.824219 L 193.894531 56.070312 L 192.300781 53.65625 L 190.488281 52.046875 L 189.390625 51.507812 L 186.480469 51.507812 L 183.847656 53.386719 L 182.308594 55.53125 L 181.210938 57.679688 L 179.671875 61.703125 L 178.742188 64.921875 L 178.191406 67.066406 L 176.542969 75.382812 L 175.445312 82.890625 L 174.84375 87.988281 L 174.074219 96.035156 L 173.523438 103.277344 L 172.921875 114.003906 L 172.589844 122.050781 L 172.152344 140.292969 L 172.097656 188.574219 L 172.261719 198.765625 L 172.589844 209.761719 L 173.03125 219.417969 L 173.6875 229.609375 L 174.347656 237.390625 L 175.5 247.851562 L 176.488281 254.824219 L 177.257812 259.382812 L 178.742188 266.625 L 179.34375 269.039062 L 180.773438 273.867188 L 182.253906 277.625 L 184.066406 280.84375 L 185.4375 282.453125 L 187.632812 283.792969 L 190.433594 283.792969 L 193.730469 282.183594 L 195.816406 280.039062 L 197.242188 277.890625 L 198.175781 276.015625 L 199.328125 273.0625 L 200.152344 270.382812 L 200.921875 267.429688 L 201.855469 262.871094 L 201.855469 198.765625 L 188.292969 198.496094 L 188.292969 168.457031 L 209.375 168.1875 L 209.429688 273.0625 L 208.277344 280.304688 L 206.851562 287.28125 L 205.476562 292.644531 L 204.050781 297.203125 L 202.019531 302.300781 L 200.371094 305.519531 L 197.847656 309.273438 L 195.539062 311.6875 L 193.125 313.296875 L 190.984375 314.101562 L 188.457031 314.371094 L 186.207031 313.835938 L 183.792969 312.226562 L 181.871094 310.078125 L 180.113281 307.398438 L 178.355469 303.910156 L 176.160156 298.277344 L 174.730469 293.71875 L 173.25 288.085938 L 171.765625 281.378906 L 170.449219 274.136719 L 169.570312 268.503906 L 168.691406 262.066406 L 167.757812 254.019531 L 166.882812 244.898438 L 166.222656 236.585938 L 165.617188 227.195312 L 165.179688 218.34375 L 164.738281 206.277344 L 164.519531 196.621094 L 164.410156 188.304688 Z M 164.410156 146.460938 "/>
<path style=" stroke:none;fill-rule:nonzero;fill:rgb(6.27451%,58.823529%,28.235294%);fill-opacity:1;" d="M 211.800781 314.09375 L 211.847656 313.820312 L 231.328125 20.664062 L 237.246094 20.664062 L 256.820312 314.371094 L 249.945312 314.371094 L 245.039062 237.703125 L 223.539062 237.703125 L 218.726562 314.09375 L 211.800781 314.09375 L 225.605469 205.988281 L 243.066406 205.710938 L 234.359375 68.648438 L 234.261719 68.375 L 234.167969 69.199219 L 225.558594 205.710938 L 225.605469 205.988281 Z M 211.800781 314.09375 "/>
<path style=" stroke:none;fill-rule:nonzero;fill:rgb(6.27451%,58.823529%,28.235294%);fill-opacity:1;" d="M 259.191406 314.09375 L 259.238281 313.820312 L 278.71875 20.664062 L 284.636719 20.664062 L 304.210938 314.371094 L 297.335938 314.371094 L 292.429688 237.703125 L 270.929688 237.703125 L 266.117188 314.09375 L 259.191406 314.09375 L 272.996094 205.988281 L 290.457031 205.710938 L 281.75 68.648438 L 281.652344 68.375 L 281.558594 69.199219 L 272.949219 205.710938 L 272.996094 205.988281 Z M 259.191406 314.09375 "/>
<path style=" stroke:none;fill-rule:nonzero;fill:rgb(6.27451%,58.823529%,28.235294%);fill-opacity:1;" d="M 306.582031 260.835938 L 306.628906 260.738281 L 326.109375 156.421875 L 332.027344 156.421875 L 351.601562 260.933594 L 344.726562 260.933594 L 339.820312 233.652344 L 318.320312 233.652344 L 313.507812 260.835938 L 306.582031 260.835938 L 320.386719 222.367188 L 337.847656 222.269531 L 329.140625 173.5 L 329.042969 173.398438 L 328.949219 173.695312 L 320.339844 222.269531 L 320.386719 222.367188 Z M 306.582031 260.835938 "/>
<path style=" stroke:none;fill-rule:nonzero;fill:rgb(96.862745%,70.196078%,16.862745%);fill-opacity:1;" d="M 306.582031 284.496094 L 306.636719 284.449219 L 306.636719 283.492188 L 306.855469 281.34375 L 307.40625 278.386719 L 308.121094 275.953125 L 308.886719 274.042969 L 309.382812 273.042969 L 310.207031 271.609375 L 310.917969 270.558594 L 312.730469 268.410156 L 315.039062 266.40625 L 316.300781 265.546875 L 317.726562 264.738281 L 319.757812 263.832031 L 320.691406 263.496094 L 323.546875 262.734375 L 326.785156 262.253906 L 330.355469 262.113281 L 332.003906 262.160156 L 334.253906 262.351562 L 337.328125 262.875 L 339.085938 263.351562 L 340.457031 263.832031 L 341.886719 264.449219 L 343.640625 265.40625 L 345.289062 266.550781 L 346.605469 267.695312 L 347.925781 269.128906 L 349.023438 270.65625 L 349.957031 272.324219 L 350.78125 274.328125 L 351.273438 276 L 351.601562 277.671875 L 343.972656 277.671875 L 343.53125 276 L 343.039062 274.710938 L 342.214844 273.136719 L 341.390625 271.992188 L 340.566406 271.085938 L 339.03125 269.84375 L 337.710938 269.078125 L 336.066406 268.410156 L 334.472656 267.980469 L 332.660156 267.695312 L 331.5625 267.601562 L 328.652344 267.601562 L 326.019531 267.933594 L 324.480469 268.316406 L 323.382812 268.699219 L 321.84375 269.414062 L 320.910156 269.988281 L 320.363281 270.367188 L 318.714844 271.847656 L 317.617188 273.183594 L 317.015625 274.089844 L 316.246094 275.523438 L 315.695312 276.8125 L 315.09375 278.71875 L 314.761719 280.152344 L 314.324219 283.398438 L 314.269531 291.988281 L 314.433594 293.800781 L 314.761719 295.757812 L 315.203125 297.476562 L 315.859375 299.289062 L 316.519531 300.671875 L 317.671875 302.535156 L 318.660156 303.777344 L 319.429688 304.585938 L 320.910156 305.875 L 321.515625 306.304688 L 322.945312 307.164062 L 324.425781 307.832031 L 326.238281 308.40625 L 327.609375 308.691406 L 329.804688 308.929688 L 332.605469 308.929688 L 335.902344 308.644531 L 337.988281 308.261719 L 339.414062 307.878906 L 340.347656 307.546875 L 341.5 307.019531 L 342.324219 306.542969 L 343.09375 306.019531 L 344.027344 305.207031 L 344.027344 293.800781 L 330.464844 293.753906 L 330.464844 288.410156 L 351.546875 288.359375 L 351.601562 307.019531 L 350.449219 308.308594 L 349.023438 309.550781 L 347.648438 310.503906 L 346.222656 311.316406 L 344.191406 312.222656 L 342.542969 312.796875 L 340.019531 313.464844 L 337.710938 313.894531 L 335.296875 314.179688 L 333.15625 314.324219 L 330.628906 314.371094 L 328.378906 314.273438 L 325.964844 313.988281 L 324.042969 313.605469 L 322.285156 313.128906 L 320.527344 312.507812 L 318.332031 311.507812 L 316.902344 310.695312 L 315.421875 309.695312 L 313.9375 308.5 L 312.621094 307.210938 L 311.742188 306.210938 L 310.863281 305.0625 L 309.929688 303.632812 L 309.054688 302.011719 L 308.394531 300.53125 L 307.789062 298.859375 L 307.351562 297.285156 L 306.910156 295.136719 L 306.691406 293.417969 L 306.582031 291.941406 Z M 306.582031 284.496094 "/>
<path style=" stroke:none;fill-rule:nonzero;fill:rgb(6.27451%,58.823529%,28.235294%);fill-opacity:1;" d="M 353.972656 314.371094 L 354.019531 314.371094 L 373.5 314.039062 L 379.417969 314.039062 L 398.992188 314.371094 L 392.117188 314.371094 L 387.210938 314.285156 L 365.707031 314.285156 L 360.898438 314.371094 L 353.972656 314.371094 L 367.777344 314.25 L 385.238281 314.25 L 376.53125 314.09375 L 376.339844 314.09375 L 367.730469 314.25 L 367.777344 314.25 Z M 353.972656 314.371094 "/>
<path style=" stroke:none;fill-rule:nonzero;fill:rgb(14.509804%,36.078431%,60%);fill-opacity:1;" d="M 353.972656 307.671875 L 354.027344 307.667969 L 354.027344 307.605469 L 354.191406 307.5 L 354.578125 307.371094 L 354.960938 307.28125 L 355.949219 307.125 L 357.320312 306.96875 L 358.75 306.851562 L 359.792969 306.78125 L 360.726562 306.726562 L 362.867188 306.628906 L 364.238281 306.578125 L 365.722656 306.53125 L 367.535156 306.484375 L 368.851562 306.457031 L 371.816406 306.414062 L 374.011719 306.394531 L 375.714844 306.386719 L 379.394531 306.386719 L 381.589844 306.398438 L 383.179688 306.414062 L 384.9375 306.433594 L 386.421875 306.457031 L 389 306.515625 L 391.308594 306.59375 L 392.351562 306.636719 L 393.996094 306.71875 L 395.261719 306.800781 L 396.140625 306.871094 L 397.128906 306.96875 L 398.003906 307.089844 L 398.664062 307.230469 L 398.992188 307.34375 L 391.308594 307.34375 L 390.921875 307.238281 L 390.484375 307.152344 L 389.660156 307.042969 L 388.835938 306.964844 L 387.683594 306.886719 L 386.640625 306.835938 L 385.210938 306.785156 L 383.949219 306.75 L 382.632812 306.726562 L 381.371094 306.710938 L 378.953125 306.695312 L 376.152344 306.695312 L 375.109375 306.699219 L 372.96875 306.722656 L 371.816406 306.742188 L 370.167969 306.777344 L 369.015625 306.8125 L 367.644531 306.867188 L 366.710938 306.914062 L 365.558594 306.984375 L 364.734375 307.046875 L 363.800781 307.132812 L 363.25 307.203125 L 362.757812 307.277344 L 362.316406 307.367188 L 361.988281 307.460938 L 361.769531 307.558594 L 361.660156 307.65625 L 361.660156 308.074219 L 361.769531 308.171875 L 362.042969 308.285156 L 362.757812 308.449219 L 363.800781 308.59375 L 365.007812 308.707031 L 366.160156 308.785156 L 366.820312 308.824219 L 367.699219 308.867188 L 369.070312 308.921875 L 371.046875 308.976562 L 372.199219 308.996094 L 373.957031 309.019531 L 375.769531 309.027344 L 378.183594 309.027344 L 380.328125 309.019531 L 381.753906 309.003906 L 383.238281 308.984375 L 385.269531 308.9375 L 386.53125 308.894531 L 387.628906 308.84375 L 388.453125 308.792969 L 389 308.75 L 389.824219 308.664062 L 390.484375 308.574219 L 390.976562 308.480469 L 391.308594 308.386719 L 398.992188 308.386719 L 398.664062 308.496094 L 398.171875 308.601562 L 397.675781 308.679688 L 396.90625 308.773438 L 396.027344 308.855469 L 394.765625 308.949219 L 393.722656 309.011719 L 392.351562 309.082031 L 391.085938 309.132812 L 389.714844 309.175781 L 387.683594 309.230469 L 386.367188 309.257812 L 384.9375 309.28125 L 383.238281 309.304688 L 381.09375 309.324219 L 378.789062 309.332031 L 376.648438 309.335938 L 374.34375 309.332031 L 372.640625 309.320312 L 370.390625 309.296875 L 367.589844 309.246094 L 365.558594 309.195312 L 363.964844 309.144531 L 362.59375 309.089844 L 361.054688 309.019531 L 359.078125 308.898438 L 357.871094 308.808594 L 357.046875 308.734375 L 356.113281 308.628906 L 355.453125 308.535156 L 354.6875 308.382812 L 354.136719 308.191406 L 353.972656 308.042969 Z M 353.972656 307.671875 "/>
<path style=" stroke:none;fill-rule:nonzero;fill:rgb(96.862745%,70.196078%,16.862745%);fill-opacity:1;" d="M 353.972656 311.519531 L 354.027344 311.519531 L 354.027344 311.476562 L 354.246094 311.378906 L 354.796875 311.246094 L 355.511719 311.136719 L 356.277344 311.050781 L 356.773438 311.007812 L 357.597656 310.941406 L 358.308594 310.894531 L 360.121094 310.796875 L 362.429688 310.707031 L 363.691406 310.671875 L 365.117188 310.632812 L 367.148438 310.59375 L 368.082031 310.578125 L 370.9375 310.542969 L 374.175781 310.523438 L 377.746094 310.515625 L 379.394531 310.519531 L 381.644531 310.527344 L 384.71875 310.550781 L 386.476562 310.570312 L 387.847656 310.59375 L 389.277344 310.621094 L 391.03125 310.664062 L 392.679688 310.714844 L 393.996094 310.765625 L 395.316406 310.832031 L 396.414062 310.898438 L 397.347656 310.972656 L 398.171875 311.0625 L 398.664062 311.140625 L 398.992188 311.214844 L 391.363281 311.214844 L 390.921875 311.140625 L 390.429688 311.082031 L 389.605469 311.011719 L 388.78125 310.960938 L 387.957031 310.917969 L 386.421875 310.863281 L 385.101562 310.828125 L 383.457031 310.796875 L 381.863281 310.78125 L 380.050781 310.765625 L 378.953125 310.761719 L 376.042969 310.761719 L 373.410156 310.777344 L 371.871094 310.792969 L 370.773438 310.8125 L 369.234375 310.84375 L 368.300781 310.871094 L 367.753906 310.886719 L 366.105469 310.953125 L 365.007812 311.011719 L 364.40625 311.054688 L 363.636719 311.117188 L 363.085938 311.175781 L 362.484375 311.261719 L 362.152344 311.324219 L 361.714844 311.472656 L 361.660156 311.855469 L 361.824219 311.9375 L 362.152344 312.027344 L 362.59375 312.101562 L 363.25 312.183594 L 363.910156 312.246094 L 365.0625 312.328125 L 366.050781 312.386719 L 366.820312 312.421875 L 368.300781 312.480469 L 368.90625 312.5 L 370.332031 312.539062 L 371.816406 312.566406 L 373.628906 312.59375 L 375 312.605469 L 377.195312 312.617188 L 379.996094 312.617188 L 383.292969 312.601562 L 385.378906 312.585938 L 386.804688 312.570312 L 387.738281 312.554688 L 388.890625 312.53125 L 389.714844 312.507812 L 390.484375 312.484375 L 391.417969 312.449219 L 391.417969 311.9375 L 377.855469 311.933594 L 377.855469 311.695312 L 398.9375 311.695312 L 398.992188 312.53125 L 397.839844 312.589844 L 396.414062 312.644531 L 395.039062 312.6875 L 393.613281 312.722656 L 391.582031 312.765625 L 389.933594 312.789062 L 387.410156 312.820312 L 385.101562 312.839844 L 382.6875 312.851562 L 380.546875 312.859375 L 378.019531 312.859375 L 375.769531 312.855469 L 373.355469 312.84375 L 371.433594 312.824219 L 369.675781 312.804688 L 367.917969 312.777344 L 365.722656 312.730469 L 364.292969 312.695312 L 362.8125 312.652344 L 361.328125 312.597656 L 360.011719 312.539062 L 359.132812 312.496094 L 358.253906 312.441406 L 357.320312 312.378906 L 356.441406 312.304688 L 355.785156 312.238281 L 355.179688 312.164062 L 354.742188 312.09375 L 354.300781 311.996094 L 354.082031 311.921875 L 353.972656 311.855469 Z M 353.972656 311.519531 "/>
<path style=" stroke:none;fill-rule:nonzero;fill:rgb(83.921569%,15.686275%,22.352941%);fill-opacity:1;" d="M 353.972656 302.058594 L 398.992188 302.058594 L 398.992188 302.394531 L 380.230469 302.398438 L 380.230469 305.207031 L 372.679688 305.207031 L 372.679688 302.402344 L 372.570312 302.394531 L 353.972656 302.394531 Z M 353.972656 302.058594 "/>
<path style=" stroke:none;fill-rule:nonzero;fill:rgb(6.27451%,58.823529%,28.235294%);fill-opacity:1;" d="M 401.363281 304.671875 L 401.410156 304.667969 L 420.890625 300.621094 L 426.808594 300.621094 L 446.382812 304.675781 L 439.507812 304.675781 L 434.601562 303.617188 L 413.097656 303.617188 L 408.289062 304.671875 L 401.363281 304.671875 L 415.167969 303.179688 L 432.628906 303.175781 L 423.921875 301.285156 L 423.824219 301.28125 L 423.730469 301.289062 L 415.121094 303.175781 L 415.167969 303.179688 Z M 401.363281 304.671875 "/>
<path style=" stroke:none;fill-rule:nonzero;fill:rgb(14.509804%,36.078431%,60%);fill-opacity:1;" d="M 401.363281 314.03125 L 401.417969 314.03125 L 401.417969 314.015625 L 401.582031 313.996094 L 401.96875 313.96875 L 402.351562 313.949219 L 403.339844 313.917969 L 404.710938 313.886719 L 406.140625 313.863281 L 407.183594 313.847656 L 408.117188 313.835938 L 410.257812 313.816406 L 411.628906 313.804688 L 413.113281 313.796875 L 414.925781 313.789062 L 416.242188 313.78125 L 419.207031 313.773438 L 421.402344 313.769531 L 423.105469 313.765625 L 426.785156 313.765625 L 428.980469 313.769531 L 430.570312 313.773438 L 432.328125 313.777344 L 433.8125 313.78125 L 436.390625 313.792969 L 438.699219 313.808594 L 439.742188 313.816406 L 441.386719 313.835938 L 442.652344 313.851562 L 443.527344 313.867188 L 444.515625 313.886719 L 445.394531 313.910156 L 446.054688 313.941406 L 446.382812 313.964844 L 438.699219 313.964844 L 438.3125 313.941406 L 437.875 313.925781 L 437.050781 313.902344 L 436.226562 313.886719 L 435.074219 313.871094 L 434.03125 313.859375 L 432.601562 313.847656 L 431.339844 313.84375 L 430.023438 313.835938 L 428.761719 313.832031 L 422.5 313.832031 L 420.359375 313.835938 L 419.207031 313.839844 L 417.558594 313.847656 L 416.40625 313.855469 L 415.035156 313.867188 L 414.101562 313.875 L 412.949219 313.890625 L 412.125 313.902344 L 411.191406 313.921875 L 410.640625 313.933594 L 410.148438 313.949219 L 409.707031 313.96875 L 409.378906 313.988281 L 409.160156 314.007812 L 409.050781 314.027344 L 409.050781 314.113281 L 409.160156 314.132812 L 409.433594 314.15625 L 410.148438 314.1875 L 411.191406 314.21875 L 412.398438 314.242188 L 413.550781 314.257812 L 414.210938 314.265625 L 415.089844 314.273438 L 416.460938 314.285156 L 418.4375 314.296875 L 419.589844 314.300781 L 421.347656 314.304688 L 423.160156 314.308594 L 425.574219 314.308594 L 427.71875 314.304688 L 429.144531 314.304688 L 430.625 314.296875 L 432.660156 314.289062 L 433.921875 314.28125 L 435.019531 314.269531 L 435.84375 314.257812 L 436.390625 314.25 L 437.214844 314.234375 L 437.875 314.214844 L 438.367188 314.195312 L 438.699219 314.175781 L 446.382812 314.175781 L 446.054688 314.199219 L 445.5625 314.21875 L 445.066406 314.234375 L 444.296875 314.253906 L 443.417969 314.273438 L 442.15625 314.292969 L 441.113281 314.304688 L 439.742188 314.316406 L 438.476562 314.328125 L 437.105469 314.339844 L 435.074219 314.347656 L 433.757812 314.355469 L 432.328125 314.359375 L 430.625 314.363281 L 428.484375 314.367188 L 426.179688 314.371094 L 421.734375 314.371094 L 420.03125 314.367188 L 417.78125 314.363281 L 414.980469 314.351562 L 412.949219 314.34375 L 411.355469 314.332031 L 409.984375 314.320312 L 408.445312 314.304688 L 406.46875 314.28125 L 405.261719 314.261719 L 404.4375 314.246094 L 403.503906 314.226562 L 402.84375 314.207031 L 402.078125 314.175781 L 401.527344 314.136719 L 401.363281 314.105469 Z M 401.363281 314.03125 "/>
<path style=" stroke:none;fill-rule:nonzero;fill:rgb(96.862745%,70.196078%,16.862745%);fill-opacity:1;" d="M 401.363281 311.414062 L 401.417969 311.414062 L 401.417969 311.375 L 401.636719 311.292969 L 402.1875 311.175781 L 402.902344 311.078125 L 403.667969 311.003906 L 404.164062 310.964844 L 404.988281 310.910156 L 405.699219 310.867188 L 407.511719 310.785156 L 409.820312 310.707031 L 411.082031 310.671875 L 412.507812 310.640625 L 414.539062 310.605469 L 415.472656 310.589844 L 418.328125 310.5625 L 421.566406 310.542969 L 425.136719 310.535156 L 426.785156 310.539062 L 429.035156 310.546875 L 432.109375 310.566406 L 433.867188 310.585938 L 435.238281 310.605469 L 436.667969 310.628906 L 438.421875 310.664062 L 440.070312 310.710938 L 441.386719 310.753906 L 442.707031 310.8125 L 443.804688 310.871094 L 444.738281 310.9375 L 445.5625 311.015625 L 446.054688 311.082031 L 446.382812 311.148438 L 438.753906 311.148438 L 438.3125 311.082031 L 437.820312 311.03125 L 436.996094 310.96875 L 436.171875 310.925781 L 435.347656 310.890625 L 433.8125 310.839844 L 432.492188 310.808594 L 430.847656 310.785156 L 429.253906 310.765625 L 427.441406 310.753906 L 426.34375 310.75 L 423.433594 310.75 L 420.800781 310.765625 L 419.261719 310.78125 L 418.164062 310.796875 L 416.625 310.824219 L 415.691406 310.84375 L 415.144531 310.859375 L 413.496094 310.917969 L 412.398438 310.972656 L 411.796875 311.007812 L 411.027344 311.0625 L 410.476562 311.113281 L 409.875 311.1875 L 409.542969 311.246094 L 409.105469 311.371094 L 409.050781 311.710938 L 409.214844 311.78125 L 409.542969 311.855469 L 409.984375 311.925781 L 410.640625 311.996094 L 411.300781 312.050781 L 412.453125 312.125 L 413.441406 312.171875 L 414.210938 312.203125 L 415.691406 312.253906 L 416.296875 312.269531 L 417.722656 312.304688 L 419.207031 312.332031 L 421.019531 312.355469 L 422.390625 312.363281 L 424.585938 312.375 L 427.386719 312.375 L 430.683594 312.363281 L 432.769531 312.347656 L 434.195312 312.332031 L 435.128906 312.320312 L 436.28125 312.300781 L 437.105469 312.28125 L 437.875 312.261719 L 438.808594 312.226562 L 438.808594 311.78125 L 425.246094 311.777344 L 425.246094 311.570312 L 446.328125 311.566406 L 446.382812 312.300781 L 445.230469 312.351562 L 443.804688 312.398438 L 442.429688 312.4375 L 441.003906 312.46875 L 438.972656 312.503906 L 437.324219 312.527344 L 434.800781 312.550781 L 432.492188 312.570312 L 430.078125 312.582031 L 427.9375 312.585938 L 425.410156 312.589844 L 423.160156 312.585938 L 420.746094 312.574219 L 418.824219 312.558594 L 417.066406 312.539062 L 415.308594 312.515625 L 413.113281 312.476562 L 411.683594 312.445312 L 410.203125 312.40625 L 408.71875 312.359375 L 407.402344 312.308594 L 406.523438 312.269531 L 405.644531 312.222656 L 404.710938 312.167969 L 403.832031 312.101562 L 403.175781 312.042969 L 402.570312 311.980469 L 402.132812 311.917969 L 401.691406 311.832031 L 401.472656 311.765625 L 401.363281 311.707031 Z M 401.363281 311.414062 "/>
<path style=" stroke:none;fill-rule:nonzero;fill:rgb(83.921569%,15.686275%,22.352941%);fill-opacity:1;" d="M 401.363281 305.855469 L 446.382812 305.855469 L 446.382812 306.230469 L 427.621094 306.234375 L 427.621094 309.355469 L 420.070312 309.355469 L 420.070312 306.238281 L 419.960938 306.230469 L 401.363281 306.230469 Z M 401.363281 305.855469 "/>
<path style=" stroke:none;fill-rule:nonzero;fill:rgb(6.27451%,58.823529%,28.235294%);fill-opacity:1;" d="M 448.753906 311.371094 L 448.800781 311.359375 L 468.28125 300.0625 L 474.199219 300.0625 L 493.773438 311.382812 L 486.898438 311.382812 L 481.992188 308.425781 L 460.488281 308.425781 L 455.679688 311.371094 L 448.753906 311.371094 L 462.558594 307.207031 L 480.019531 307.195312 L 471.3125 301.914062 L 471.214844 301.902344 L 471.121094 301.933594 L 462.511719 307.195312 L 462.558594 307.207031 Z M 448.753906 311.371094 "/>
<path style=" stroke:none;fill-rule:nonzero;fill:rgb(14.509804%,36.078431%,60%);fill-opacity:1;" d="M 448.753906 292.183594 L 448.808594 292.171875 L 448.808594 291.914062 L 448.972656 291.5 L 449.359375 290.980469 L 449.742188 290.621094 L 450.730469 289.984375 L 452.101562 289.363281 L 453.53125 288.886719 L 454.574219 288.605469 L 455.507812 288.390625 L 457.648438 287.988281 L 459.019531 287.78125 L 460.503906 287.597656 L 462.316406 287.414062 L 463.632812 287.304688 L 466.597656 287.132812 L 468.792969 287.054688 L 470.496094 287.023438 L 474.175781 287.023438 L 476.371094 287.066406 L 477.960938 287.121094 L 479.71875 287.207031 L 481.203125 287.304688 L 483.78125 287.542969 L 486.089844 287.847656 L 487.132812 288.019531 L 488.777344 288.355469 L 490.042969 288.683594 L 490.917969 288.964844 L 491.90625 289.363281 L 492.785156 289.851562 L 493.445312 290.40625 L 493.773438 290.871094 L 486.089844 290.871094 L 485.703125 290.4375 L 485.265625 290.101562 L 484.441406 289.65625 L 483.617188 289.34375 L 482.464844 289.027344 L 481.421875 288.824219 L 479.992188 288.617188 L 478.730469 288.488281 L 477.414062 288.390625 L 476.152344 288.324219 L 473.734375 288.257812 L 470.933594 288.257812 L 469.890625 288.28125 L 467.75 288.367188 L 466.597656 288.445312 L 464.949219 288.59375 L 463.796875 288.734375 L 462.425781 288.953125 L 461.492188 289.136719 L 460.339844 289.417969 L 459.515625 289.667969 L 458.582031 290.027344 L 458.03125 290.296875 L 457.539062 290.601562 L 457.097656 290.957031 L 456.769531 291.339844 L 456.550781 291.738281 L 456.441406 292.128906 L 456.441406 293.808594 L 456.550781 294.199219 L 456.824219 294.65625 L 457.539062 295.316406 L 458.582031 295.890625 L 459.789062 296.347656 L 460.941406 296.671875 L 461.601562 296.824219 L 462.480469 296.996094 L 463.851562 297.214844 L 465.828125 297.429688 L 466.980469 297.519531 L 468.738281 297.605469 L 470.550781 297.648438 L 472.964844 297.648438 L 475.109375 297.605469 L 476.535156 297.550781 L 478.015625 297.464844 L 480.050781 297.28125 L 481.3125 297.105469 L 482.410156 296.898438 L 483.234375 296.695312 L 483.78125 296.519531 L 484.605469 296.183594 L 485.265625 295.816406 L 485.757812 295.4375 L 486.089844 295.066406 L 493.773438 295.066406 L 493.445312 295.5 L 492.953125 295.925781 L 492.457031 296.238281 L 491.6875 296.617188 L 490.808594 296.953125 L 489.546875 297.335938 L 488.503906 297.582031 L 487.132812 297.855469 L 485.867188 298.058594 L 484.496094 298.246094 L 482.464844 298.460938 L 481.148438 298.570312 L 479.71875 298.667969 L 478.015625 298.753906 L 475.875 298.832031 L 473.570312 298.875 L 471.429688 298.882812 L 469.125 298.863281 L 467.421875 298.820312 L 465.171875 298.722656 L 462.371094 298.527344 L 460.339844 298.320312 L 458.746094 298.113281 L 457.375 297.898438 L 455.835938 297.605469 L 453.859375 297.128906 L 452.652344 296.757812 L 451.828125 296.457031 L 450.894531 296.03125 L 450.234375 295.652344 L 449.46875 295.046875 L 448.917969 294.277344 L 448.753906 293.679688 Z M 448.753906 292.183594 "/>
<path style=" stroke:none;fill-rule:nonzero;fill:rgb(96.862745%,70.196078%,16.862745%);fill-opacity:1;" d="M 448.753906 261.199219 L 448.808594 261.160156 L 448.808594 260.375 L 449.027344 258.601562 L 449.578125 256.160156 L 450.292969 254.152344 L 451.058594 252.578125 L 451.554688 251.753906 L 452.378906 250.570312 L 453.089844 249.707031 L 454.902344 247.933594 L 457.207031 246.28125 L 458.472656 245.574219 L 459.898438 244.902344 L 461.929688 244.15625 L 462.863281 243.878906 L 465.71875 243.25 L 468.957031 242.855469 L 472.527344 242.738281 L 474.175781 242.777344 L 476.425781 242.933594 L 479.5 243.367188 L 481.257812 243.761719 L 482.628906 244.15625 L 484.058594 244.667969 L 485.8125 245.453125 L 487.460938 246.398438 L 488.777344 247.34375 L 490.097656 248.523438 L 491.195312 249.785156 L 492.128906 251.164062 L 492.953125 252.816406 L 493.445312 254.195312 L 493.773438 255.570312 L 486.144531 255.570312 L 485.703125 254.195312 L 485.210938 253.128906 L 484.386719 251.832031 L 483.5625 250.886719 L 482.738281 250.140625 L 481.203125 249.117188 L 479.882812 248.484375 L 478.238281 247.933594 L 476.644531 247.578125 L 474.832031 247.34375 L 473.734375 247.265625 L 470.824219 247.265625 L 468.191406 247.539062 L 466.652344 247.855469 L 465.554688 248.171875 L 464.015625 248.761719 L 463.082031 249.234375 L 462.535156 249.546875 L 460.886719 250.769531 L 459.789062 251.871094 L 459.183594 252.617188 L 458.417969 253.800781 L 457.867188 254.863281 L 457.265625 256.4375 L 456.933594 257.617188 L 456.496094 260.296875 L 456.441406 267.382812 L 456.605469 268.875 L 456.933594 270.492188 L 457.375 271.90625 L 458.03125 273.402344 L 458.691406 274.546875 L 459.84375 276.082031 L 460.832031 277.105469 L 461.601562 277.773438 L 463.082031 278.835938 L 463.6875 279.191406 L 465.113281 279.898438 L 466.597656 280.449219 L 468.410156 280.921875 L 469.78125 281.160156 L 471.976562 281.355469 L 474.777344 281.355469 L 478.074219 281.121094 L 480.160156 280.804688 L 481.585938 280.488281 L 482.519531 280.214844 L 483.671875 279.78125 L 484.496094 279.386719 L 485.265625 278.953125 L 486.199219 278.285156 L 486.199219 268.875 L 472.636719 268.835938 L 472.636719 264.429688 L 493.71875 264.390625 L 493.773438 279.78125 L 492.621094 280.84375 L 491.195312 281.867188 L 489.820312 282.65625 L 488.394531 283.324219 L 486.363281 284.070312 L 484.714844 284.542969 L 482.191406 285.09375 L 479.882812 285.449219 L 477.46875 285.6875 L 475.328125 285.804688 L 472.800781 285.84375 L 470.550781 285.765625 L 468.136719 285.527344 L 466.214844 285.214844 L 464.457031 284.820312 L 462.699219 284.308594 L 460.503906 283.480469 L 459.074219 282.8125 L 457.59375 281.984375 L 456.109375 281 L 454.792969 279.9375 L 453.914062 279.113281 L 453.035156 278.167969 L 452.101562 276.984375 L 451.222656 275.648438 L 450.566406 274.425781 L 449.960938 273.050781 L 449.523438 271.75 L 449.082031 269.980469 L 448.863281 268.5625 L 448.753906 267.339844 Z M 448.753906 261.199219 "/>
<path style=" stroke:none;fill-rule:nonzero;fill:rgb(83.921569%,15.686275%,22.352941%);fill-opacity:1;" d="M 448.753906 312.5625 L 493.773438 312.5625 L 493.773438 312.753906 L 475.011719 312.757812 L 475.011719 314.371094 L 467.460938 314.371094 L 467.460938 312.757812 L 467.351562 312.753906 L 448.753906 312.753906 Z M 448.753906 312.5625 "/>
<path style=" stroke:none;fill-rule:nonzero;fill:rgb(6.27451%,58.823529%,28.235294%);fill-opacity:1;" d="M 496.144531 307.929688 L 496.191406 307.925781 L 515.671875 301.398438 L 521.589844 301.398438 L 541.164062 307.9375 L 534.289062 307.9375 L 529.382812 306.230469 L 507.878906 306.230469 L 503.070312 307.929688 L 496.144531 307.929688 L 509.949219 305.523438 L 527.410156 305.519531 L 518.703125 302.464844 L 518.605469 302.460938 L 518.511719 302.476562 L 509.902344 305.519531 L 509.949219 305.523438 Z M 496.144531 307.929688 "/>
<path style=" stroke:none;fill-rule:nonzero;fill:rgb(14.509804%,36.078431%,60%);fill-opacity:1;" d="M 496.144531 236.859375 L 496.199219 236.785156 L 496.199219 234.957031 L 496.363281 232.0625 L 496.75 228.40625 L 497.132812 225.894531 L 498.121094 221.402344 L 499.492188 217.0625 L 500.921875 213.710938 L 501.964844 211.730469 L 502.898438 210.207031 L 505.039062 207.390625 L 506.410156 205.941406 L 507.894531 204.648438 L 509.707031 203.355469 L 511.023438 202.59375 L 513.988281 201.375 L 516.183594 200.839844 L 517.886719 200.613281 L 521.566406 200.613281 L 523.761719 200.917969 L 525.351562 201.296875 L 527.109375 201.90625 L 528.59375 202.59375 L 531.171875 204.269531 L 533.480469 206.398438 L 534.523438 207.617188 L 536.167969 209.980469 L 537.433594 212.261719 L 538.308594 214.242188 L 539.296875 217.0625 L 540.175781 220.488281 L 540.835938 224.371094 L 541.164062 227.644531 L 533.480469 227.644531 L 533.09375 224.601562 L 532.65625 222.238281 L 531.832031 219.117188 L 531.007812 216.910156 L 529.855469 214.699219 L 528.8125 213.253906 L 527.382812 211.808594 L 526.121094 210.894531 L 524.804688 210.207031 L 523.542969 209.75 L 521.125 209.292969 L 518.324219 209.292969 L 517.28125 209.445312 L 515.140625 210.054688 L 513.988281 210.589844 L 512.339844 211.65625 L 511.1875 212.644531 L 509.816406 214.167969 L 508.882812 215.460938 L 507.730469 217.441406 L 506.90625 219.191406 L 505.972656 221.707031 L 505.421875 223.609375 L 504.929688 225.742188 L 504.488281 228.253906 L 504.160156 230.921875 L 503.941406 233.738281 L 503.832031 236.480469 L 503.832031 248.28125 L 503.941406 251.023438 L 504.214844 254.222656 L 504.929688 258.867188 L 505.972656 262.902344 L 507.179688 266.101562 L 508.332031 268.386719 L 508.992188 269.453125 L 509.871094 270.671875 L 511.242188 272.195312 L 513.21875 273.714844 L 514.371094 274.324219 L 516.128906 274.933594 L 517.941406 275.238281 L 520.355469 275.238281 L 522.5 274.933594 L 523.925781 274.554688 L 525.40625 273.945312 L 527.4375 272.652344 L 528.703125 271.433594 L 529.800781 269.984375 L 530.625 268.539062 L 531.171875 267.320312 L 531.996094 264.960938 L 532.65625 262.371094 L 533.148438 259.703125 L 533.480469 257.117188 L 541.164062 257.117188 L 540.835938 260.160156 L 540.34375 263.132812 L 539.847656 265.339844 L 539.078125 268.003906 L 538.199219 270.367188 L 536.9375 273.03125 L 535.894531 274.78125 L 534.523438 276.6875 L 533.257812 278.132812 L 531.886719 279.429688 L 529.855469 280.949219 L 528.539062 281.710938 L 527.109375 282.398438 L 525.40625 283.007812 L 523.265625 283.539062 L 520.960938 283.84375 L 518.820312 283.921875 L 516.511719 283.769531 L 514.8125 283.464844 L 512.558594 282.777344 L 509.761719 281.40625 L 507.730469 279.960938 L 506.136719 278.515625 L 504.765625 276.992188 L 503.226562 274.933594 L 501.25 271.585938 L 500.042969 268.996094 L 499.21875 266.863281 L 498.285156 263.894531 L 497.625 261.226562 L 496.859375 256.964844 L 496.308594 251.558594 L 496.144531 247.367188 Z M 496.144531 236.859375 "/>
<path style=" stroke:none;fill-rule:nonzero;fill:rgb(96.862745%,70.196078%,16.862745%);fill-opacity:1;" d="M 496.144531 291.574219 L 496.199219 291.5625 L 496.199219 291.285156 L 496.417969 290.664062 L 496.96875 289.808594 L 497.683594 289.105469 L 498.449219 288.550781 L 498.945312 288.261719 L 499.769531 287.847656 L 500.480469 287.542969 L 502.292969 286.921875 L 504.597656 286.34375 L 505.863281 286.09375 L 507.289062 285.859375 L 509.320312 285.597656 L 510.253906 285.5 L 513.109375 285.28125 L 516.347656 285.140625 L 519.917969 285.101562 L 521.566406 285.113281 L 523.816406 285.167969 L 526.890625 285.320312 L 528.648438 285.460938 L 530.019531 285.597656 L 531.449219 285.777344 L 533.203125 286.054688 L 534.851562 286.382812 L 536.167969 286.714844 L 537.488281 287.128906 L 538.585938 287.570312 L 539.519531 288.054688 L 540.34375 288.632812 L 540.835938 289.117188 L 541.164062 289.601562 L 533.535156 289.601562 L 533.09375 289.117188 L 532.601562 288.746094 L 531.777344 288.289062 L 530.953125 287.957031 L 530.128906 287.695312 L 528.59375 287.335938 L 527.273438 287.117188 L 525.628906 286.921875 L 524.035156 286.796875 L 522.222656 286.714844 L 521.125 286.6875 L 518.214844 286.6875 L 515.582031 286.785156 L 514.042969 286.894531 L 512.945312 287.003906 L 511.40625 287.210938 L 510.472656 287.378906 L 509.925781 287.488281 L 508.277344 287.917969 L 507.179688 288.304688 L 506.574219 288.566406 L 505.808594 288.980469 L 505.257812 289.351562 L 504.65625 289.90625 L 504.324219 290.320312 L 503.886719 291.257812 L 503.832031 293.742188 L 503.996094 294.265625 L 504.324219 294.832031 L 504.765625 295.332031 L 505.421875 295.855469 L 506.082031 296.253906 L 507.234375 296.792969 L 508.222656 297.152344 L 508.992188 297.386719 L 510.472656 297.761719 L 511.078125 297.882812 L 512.503906 298.132812 L 513.988281 298.328125 L 515.800781 298.492188 L 517.171875 298.574219 L 519.367188 298.644531 L 522.167969 298.644531 L 525.464844 298.5625 L 527.550781 298.449219 L 528.976562 298.339844 L 529.910156 298.242188 L 531.0625 298.089844 L 531.886719 297.953125 L 532.65625 297.800781 L 533.589844 297.566406 L 533.589844 294.265625 L 520.027344 294.253906 L 520.027344 292.707031 L 541.109375 292.695312 L 541.164062 298.089844 L 540.011719 298.464844 L 538.585938 298.824219 L 537.210938 299.101562 L 535.785156 299.335938 L 533.753906 299.597656 L 532.105469 299.761719 L 529.582031 299.957031 L 527.273438 300.078125 L 524.859375 300.164062 L 522.71875 300.203125 L 520.191406 300.21875 L 517.941406 300.191406 L 515.523438 300.109375 L 513.605469 299.996094 L 511.847656 299.859375 L 510.089844 299.679688 L 507.894531 299.390625 L 506.464844 299.15625 L 504.984375 298.863281 L 503.5 298.519531 L 502.183594 298.148438 L 501.304688 297.855469 L 500.425781 297.527344 L 499.492188 297.113281 L 498.613281 296.640625 L 497.957031 296.214844 L 497.351562 295.730469 L 496.914062 295.273438 L 496.472656 294.652344 L 496.253906 294.15625 L 496.144531 293.730469 Z M 496.144531 291.574219 "/>
<path style=" stroke:none;fill-rule:nonzero;fill:rgb(83.921569%,15.686275%,22.352941%);fill-opacity:1;" d="M 496.144531 309.117188 L 541.164062 309.117188 L 541.164062 309.679688 L 522.402344 309.683594 L 522.402344 314.371094 L 514.851562 314.371094 L 514.851562 309.6875 L 514.742188 309.679688 L 496.144531 309.679688 Z M 496.144531 309.117188 "/>
<path style=" stroke:none;fill-rule:nonzero;fill:rgb(14.509804%,36.078431%,60%);fill-opacity:1;" d="M 543.535156 148.457031 L 543.589844 148.1875 L 543.589844 141.742188 L 543.753906 131.542969 L 544.140625 118.65625 L 544.523438 109.796875 L 545.511719 93.957031 L 546.882812 78.652344 L 548.3125 66.839844 L 549.355469 59.859375 L 550.289062 54.492188 L 552.429688 44.558594 L 553.800781 39.457031 L 555.285156 34.890625 L 557.097656 30.328125 L 558.414062 27.644531 L 561.378906 23.347656 L 563.574219 21.46875 L 565.277344 20.664062 L 568.957031 20.664062 L 571.152344 21.738281 L 572.742188 23.078125 L 574.5 25.226562 L 575.984375 27.644531 L 578.5625 33.550781 L 580.871094 41.066406 L 581.914062 45.363281 L 583.558594 53.683594 L 584.824219 61.738281 L 585.699219 68.71875 L 586.6875 78.652344 L 587.566406 90.734375 L 588.226562 104.425781 L 588.554688 115.96875 L 580.871094 115.96875 L 580.484375 105.230469 L 580.046875 96.910156 L 579.222656 85.902344 L 578.398438 78.117188 L 577.246094 70.332031 L 576.203125 65.230469 L 574.773438 60.128906 L 573.511719 56.90625 L 572.195312 54.492188 L 570.933594 52.878906 L 568.515625 51.269531 L 565.714844 51.269531 L 564.671875 51.804688 L 562.53125 53.953125 L 561.378906 55.832031 L 559.730469 59.589844 L 558.578125 63.082031 L 557.207031 68.449219 L 556.273438 73.015625 L 555.121094 79.996094 L 554.296875 86.171875 L 553.363281 95.03125 L 552.8125 101.742188 L 552.320312 109.257812 L 551.878906 118.117188 L 551.550781 127.515625 L 551.332031 137.449219 L 551.222656 147.113281 L 551.222656 188.726562 L 551.332031 198.390625 L 551.605469 209.667969 L 552.320312 226.042969 L 553.363281 240.273438 L 554.570312 251.546875 L 555.722656 259.601562 L 556.382812 263.359375 L 557.261719 267.65625 L 558.632812 273.027344 L 560.609375 278.394531 L 561.761719 280.542969 L 563.519531 282.691406 L 565.332031 283.765625 L 567.746094 283.765625 L 569.886719 282.691406 L 571.316406 281.347656 L 572.796875 279.199219 L 574.828125 274.636719 L 576.09375 270.339844 L 577.191406 265.242188 L 578.015625 260.140625 L 578.5625 255.84375 L 579.386719 247.519531 L 580.046875 238.394531 L 580.539062 228.996094 L 580.871094 219.867188 L 588.554688 219.867188 L 588.226562 230.609375 L 587.730469 241.078125 L 587.238281 248.863281 L 586.46875 258.261719 L 585.589844 266.582031 L 584.328125 275.980469 L 583.285156 282.152344 L 581.914062 288.867188 L 580.648438 293.96875 L 579.277344 298.53125 L 577.246094 303.898438 L 575.929688 306.585938 L 574.5 309 L 572.796875 311.148438 L 570.65625 313.027344 L 568.351562 314.101562 L 566.210938 314.371094 L 563.902344 313.832031 L 562.203125 312.761719 L 559.949219 310.34375 L 557.152344 305.511719 L 555.121094 300.410156 L 553.527344 295.308594 L 552.15625 289.941406 L 550.617188 282.691406 L 548.640625 270.878906 L 547.433594 261.75 L 546.609375 254.234375 L 545.675781 243.761719 L 545.015625 234.367188 L 544.25 219.332031 L 543.699219 200.269531 L 543.535156 185.503906 Z M 543.535156 148.457031 "/>
<path style=" stroke:none;fill-rule:nonzero;fill:rgb(96.862745%,70.196078%,16.862745%);fill-opacity:1;" d="M 590.925781 146.460938 L 590.980469 146.191406 L 590.980469 140.828125 L 591.199219 128.757812 L 591.75 112.128906 L 592.460938 98.449219 L 593.230469 87.71875 L 593.726562 82.085938 L 594.550781 74.039062 L 595.261719 68.140625 L 597.074219 56.070312 L 599.378906 44.804688 L 600.644531 39.976562 L 602.070312 35.414062 L 604.101562 30.320312 L 605.035156 28.441406 L 607.890625 24.148438 L 611.128906 21.46875 L 614.699219 20.664062 L 616.347656 20.929688 L 618.597656 22.003906 L 621.671875 24.953125 L 623.429688 27.636719 L 624.800781 30.320312 L 626.230469 33.804688 L 627.984375 39.171875 L 629.632812 45.609375 L 630.949219 52.046875 L 632.269531 60.09375 L 633.367188 68.675781 L 634.300781 78.0625 L 635.121094 89.328125 L 635.617188 98.714844 L 635.945312 108.105469 L 628.316406 108.105469 L 627.875 98.714844 L 627.382812 91.476562 L 626.558594 82.625 L 625.734375 76.1875 L 624.910156 71.089844 L 623.375 64.117188 L 622.054688 59.824219 L 620.410156 56.070312 L 618.816406 53.65625 L 617.003906 52.046875 L 615.90625 51.507812 L 612.996094 51.507812 L 610.363281 53.386719 L 608.824219 55.53125 L 607.726562 57.679688 L 606.1875 61.703125 L 605.253906 64.921875 L 604.707031 67.066406 L 603.058594 75.382812 L 601.960938 82.890625 L 601.355469 87.988281 L 600.589844 96.035156 L 600.039062 103.277344 L 599.433594 114.003906 L 599.105469 122.050781 L 598.667969 140.292969 L 598.613281 188.574219 L 598.777344 198.765625 L 599.105469 209.761719 L 599.546875 219.417969 L 600.203125 229.609375 L 600.863281 237.390625 L 602.015625 247.851562 L 603.003906 254.824219 L 603.773438 259.382812 L 605.253906 266.625 L 605.859375 269.039062 L 607.285156 273.867188 L 608.769531 277.625 L 610.582031 280.84375 L 611.953125 282.453125 L 614.148438 283.792969 L 616.949219 283.792969 L 620.242188 282.183594 L 622.332031 280.039062 L 623.757812 277.890625 L 624.691406 276.015625 L 625.84375 273.0625 L 626.667969 270.382812 L 627.4375 267.429688 L 628.371094 262.871094 L 628.371094 198.765625 L 614.808594 198.496094 L 614.808594 168.457031 L 635.890625 168.1875 L 635.945312 273.0625 L 634.792969 280.304688 L 633.367188 287.28125 L 631.992188 292.644531 L 630.566406 297.203125 L 628.535156 302.300781 L 626.886719 305.519531 L 624.363281 309.273438 L 622.054688 311.6875 L 619.640625 313.296875 L 617.5 314.101562 L 614.972656 314.371094 L 612.722656 313.835938 L 610.304688 312.226562 L 608.386719 310.078125 L 606.628906 307.398438 L 604.871094 303.910156 L 602.675781 298.277344 L 601.246094 293.71875 L 599.765625 288.085938 L 598.28125 281.378906 L 596.964844 274.136719 L 596.085938 268.503906 L 595.207031 262.066406 L 594.273438 254.019531 L 593.394531 244.898438 L 592.738281 236.585938 L 592.132812 227.195312 L 591.695312 218.34375 L 591.253906 206.277344 L 591.035156 196.621094 L 590.925781 188.304688 Z M 590.925781 146.460938 "/>
<path style=" stroke:none;fill-rule:nonzero;fill:rgb(6.27451%,58.823529%,28.235294%);fill-opacity:1;" d="M 638.316406 314.09375 L 638.363281 313.820312 L 657.84375 20.664062 L 663.761719 20.664062 L 683.335938 314.371094 L 676.457031 314.371094 L 671.550781 237.703125 L 650.050781 237.703125 L 645.242188 314.09375 L 638.316406 314.09375 L 652.121094 205.988281 L 669.582031 205.710938 L 660.875 68.648438 L 660.777344 68.375 L 660.683594 69.199219 L 652.074219 205.710938 L 652.121094 205.988281 Z M 638.316406 314.09375 "/>
<g style="fill:rgb(0%,0%,0%);fill-opacity:1;">
  <use xlink:href="#glyph0-1" x="21.957031" y="318.198242"/>
  <use xlink:href="#glyph0-2" x="27.291016" y="318.198242"/>
  <use xlink:href="#glyph0-1" x="29.958008" y="318.198242"/>
</g>
<g style="fill:rgb(0%,0%,0%);fill-opacity:1;">
  <use xlink:href="#glyph0-1" x="21.957031" y="244.475586"/>
  <use xlink:href="#glyph0-2" x="27.291016" y="244.475586"/>
  <use xlink:href="#glyph0-3" x="29.958008" y="244.475586"/>
</g>
<g style="fill:rgb(0%,0%,0%);fill-opacity:1;">
  <use xlink:href="#glyph0-4" x="21.957031" y="170.75293"/>
  <use xlink:href="#glyph0-2" x="27.291016" y="170.75293"/>
  <use xlink:href="#glyph0-1" x="29.958008" y="170.75293"/>
</g>
<g style="fill:rgb(0%,0%,0%);fill-opacity:1;">
  <use xlink:href="#glyph0-4" x="21.957031" y="97.03418"/>
  <use xlink:href="#glyph0-2" x="27.291016" y="97.03418"/>
  <use xlink:href="#glyph0-3" x="29.958008" y="97.03418"/>
</g>
<g style="fill:rgb(0%,0%,0%);fill-opacity:1;">
  <use xlink:href="#glyph0-5" x="21.957031" y="23.311523"/>
  <use xlink:href="#glyph0-2" x="27.291016" y="23.311523"/>
  <use xlink:href="#glyph0-1" x="29.958008" y="23.311523"/>
</g>
<g style="fill:rgb(0%,0%,0%);fill-opacity:1;">
  <use xlink:href="#glyph0-4" x="89.140625" y="338.19043"/>
</g>
<g style="fill:rgb(0%,0%,0%);fill-opacity:1;">
  <use xlink:href="#glyph0-5" x="136.53125" y="338.19043"/>
</g>
<g style="fill:rgb(0%,0%,0%);fill-opacity:1;">
  <use xlink:href="#glyph0-6" x="183.921875" y="338.19043"/>
</g>
<g style="fill:rgb(0%,0%,0%);fill-opacity:1;">
  <use xlink:href="#glyph0-7" x="231.3125" y="338.19043"/>
</g>
<g style="fill:rgb(0%,0%,0%);fill-opacity:1;">
  <use xlink:href="#glyph0-3" x="278.703125" y="338.19043"/>
</g>
<g style="fill:rgb(0%,0%,0%);fill-opacity:1;">
  <use xlink:href="#glyph0-8" x="326.09375" y="338.19043"/>
</g>
<g style="fill:rgb(0%,0%,0%);fill-opacity:1;">
  <use xlink:href="#glyph0-9" x="373.484375" y="338.19043"/>
</g>
<g style="fill:rgb(0%,0%,0%);fill-opacity:1;">
  <use xlink:href="#glyph0-10" x="420.875" y="338.19043"/>
</g>
<g style="fill:rgb(0%,0%,0%);fill-opacity:1;">
  <use xlink:href="#glyph0-11" x="468.265625" y="338.19043"/>
</g>
<g style="fill:rgb(0%,0%,0%);fill-opacity:1;">
  <use xlink:href="#glyph0-4" x="513.15625" y="338.19043"/>
  <use xlink:href="#glyph0-1" x="518.490234" y="338.19043"/>
</g>
<g style="fill:rgb(0%,0%,0%);fill-opacity:1;">
  <use xlink:href="#glyph0-4" x="560.546875" y="338.19043"/>
  <use xlink:href="#glyph0-4" x="565.880859" y="338.19043"/>
</g>
<g style="fill:rgb(0%,0%,0%);fill-opacity:1;">
  <use xlink:href="#glyph0-4" x="607.9375" y="338.19043"/>
  <use xlink:href="#glyph0-5" x="613.271484" y="338.19043"/>
</g>
<g style="fill:rgb(0%,0%,0%);fill-opacity:1;">
  <use xlink:href="#glyph0-4" x="655.328125" y="338.19043"/>
  <use xlink:href="#glyph0-6" x="660.662109" y="338.19043"/>
</g>
<g style="fill:rgb(0%,0%,0%);fill-opacity:1;">
  <use xlink:href="#glyph1-1" x="14.412109" y="178.015625"/>
  <use xlink:href="#glyph1-2" x="14.412109" y="170.011719"/>
  <use xlink:href="#glyph1-3" x="14.412109" y="167.347656"/>
  <use xlink:href="#glyph1-4" x="14.412109" y="164.011719"/>
</g>
</g>
</svg>
