<?xml version="1.0" encoding="UTF-8"?>
<svg xmlns="http://www.w3.org/2000/svg" xmlns:xlink="http://www.w3.org/1999/xlink" width="720pt" height="360pt" viewBox="0 0 720 360" version="1.1">
<defs>
<g>
<symbol overflow="visible" id="glyph0-0">
<path style="stroke:none;" d=""/>
</symbol>
<symbol overflow="visible" id="glyph0-1">
<path style="stroke:none;" d="M 2.640625 -6.796875 C 2 -6.796875 1.421875 -6.53125 1.078125 -6.046875 C 0.640625 -5.453125 0.40625 -4.546875 0.40625 -3.296875 C 0.40625 -1 1.1875 0.21875 2.640625 0.21875 C 4.078125 0.21875 4.859375 -1 4.859375 -3.234375 C 4.859375 -4.5625 4.65625 -5.4375 4.203125 -6.046875 C 3.84375 -6.53125 3.28125 -6.796875 2.640625 -6.796875 Z M 2.640625 -6.046875 C 3.546875 -6.046875 4 -5.125 4 -3.3125 C 4 -1.375 3.5625 -0.484375 2.625 -0.484375 C 1.734375 -0.484375 1.28125 -1.421875 1.28125 -3.28125 C 1.28125 -5.140625 1.734375 -6.046875 2.640625 -6.046875 Z M 2.640625 -6.046875 "/>
</symbol>
<symbol overflow="visible" id="glyph0-2">
<path style="stroke:none;" d="M 1.828125 -1 L 0.828125 -1 L 0.828125 0 L 1.828125 0 Z M 1.828125 -1 "/>
</symbol>
<symbol overflow="visible" id="glyph0-3">
<path style="stroke:none;" d="M 4.5625 -6.796875 L 1.0625 -6.796875 L 0.546875 -3.09375 L 1.328125 -3.09375 C 1.71875 -3.5625 2.046875 -3.734375 2.578125 -3.734375 C 3.484375 -3.734375 4.0625 -3.109375 4.0625 -2.09375 C 4.0625 -1.125 3.484375 -0.53125 2.578125 -0.53125 C 1.828125 -0.53125 1.375 -0.90625 1.1875 -1.671875 L 0.328125 -1.671875 C 0.453125 -1.109375 0.546875 -0.84375 0.75 -0.59375 C 1.125 -0.078125 1.828125 0.21875 2.59375 0.21875 C 3.96875 0.21875 4.921875 -0.78125 4.921875 -2.21875 C 4.921875 -3.5625 4.03125 -4.484375 2.71875 -4.484375 C 2.25 -4.484375 1.859375 -4.359375 1.46875 -4.0625 L 1.734375 -5.96875 L 4.5625 -5.96875 Z M 4.5625 -6.796875 "/>
</symbol>
<symbol overflow="visible" id="glyph0-4">
<path style="stroke:none;" d="M 2.484375 -4.84375 L 2.484375 0 L 3.328125 0 L 3.328125 -6.796875 L 2.765625 -6.796875 C 2.46875 -5.75 2.28125 -5.609375 0.984375 -5.453125 L 0.984375 -4.84375 Z M 2.484375 -4.84375 "/>
</symbol>
<symbol overflow="visible" id="glyph0-5">
<path style="stroke:none;" d="M 4.859375 -0.828125 L 1.28125 -0.828125 C 1.359375 -1.390625 1.671875 -1.75 2.5 -2.234375 L 3.46875 -2.75 C 4.40625 -3.265625 4.90625 -3.96875 4.90625 -4.8125 C 4.90625 -5.375 4.671875 -5.90625 4.265625 -6.265625 C 3.859375 -6.625 3.375 -6.796875 2.71875 -6.796875 C 1.859375 -6.796875 1.21875 -6.5 0.84375 -5.921875 C 0.609375 -5.5625 0.5 -5.125 0.484375 -4.4375 L 1.328125 -4.4375 C 1.359375 -4.90625 1.40625 -5.1875 1.53125 -5.40625 C 1.75 -5.8125 2.1875 -6.0625 2.703125 -6.0625 C 3.46875 -6.0625 4.03125 -5.515625 4.03125 -4.78125 C 4.03125 -4.25 3.71875 -3.796875 3.125 -3.4375 L 2.234375 -2.9375 C 0.8125 -2.140625 0.40625 -1.5 0.328125 0 L 4.859375 0 Z M 4.859375 -0.828125 "/>
</symbol>
<symbol overflow="visible" id="glyph0-6">
<path style="stroke:none;" d="M 2.125 -3.125 L 2.578125 -3.125 C 3.515625 -3.125 3.984375 -2.703125 3.984375 -1.890625 C 3.984375 -1.03125 3.46875 -0.53125 2.578125 -0.53125 C 1.65625 -0.53125 1.203125 -0.984375 1.15625 -1.96875 L 0.3125 -1.96875 C 0.34375 -1.421875 0.4375 -1.078125 0.609375 -0.765625 C 0.953125 -0.109375 1.625 0.21875 2.546875 0.21875 C 3.953125 0.21875 4.859375 -0.609375 4.859375 -1.90625 C 4.859375 -2.765625 4.515625 -3.25 3.703125 -3.515625 C 4.34375 -3.765625 4.65625 -4.25 4.65625 -4.9375 C 4.65625 -6.109375 3.875 -6.796875 2.578125 -6.796875 C 1.203125 -6.796875 0.484375 -6.046875 0.453125 -4.609375 L 1.296875 -4.609375 C 1.3125 -5.015625 1.34375 -5.25 1.453125 -5.453125 C 1.640625 -5.828125 2.0625 -6.0625 2.59375 -6.0625 C 3.34375 -6.0625 3.796875 -5.625 3.796875 -4.90625 C 3.796875 -4.421875 3.609375 -4.140625 3.25 -3.984375 C 3.015625 -3.890625 2.71875 -3.84375 2.125 -3.84375 Z M 2.125 -3.125 "/>
</symbol>
<symbol overflow="visible" id="glyph0-7">
<path style="stroke:none;" d="M 3.140625 -1.625 L 3.140625 0 L 3.984375 0 L 3.984375 -1.625 L 4.984375 -1.625 L 4.984375 -2.390625 L 3.984375 -2.390625 L 3.984375 -6.796875 L 3.359375 -6.796875 L 0.265625 -2.515625 L 0.265625 -1.625 Z M 3.140625 -2.390625 L 1 -2.390625 L 3.140625 -5.359375 Z M 3.140625 -2.390625 "/>
</symbol>
<symbol overflow="visible" id="glyph0-8">
<path style="stroke:none;" d="M 4.78125 -5.03125 C 4.609375 -6.140625 3.890625 -6.796875 2.84375 -6.796875 C 2.09375 -6.796875 1.421875 -6.4375 1.03125 -5.828125 C 0.609375 -5.171875 0.40625 -4.34375 0.40625 -3.09375 C 0.40625 -1.953125 0.578125 -1.234375 0.984375 -0.625 C 1.359375 -0.078125 1.953125 0.21875 2.703125 0.21875 C 3.984375 0.21875 4.921875 -0.734375 4.921875 -2.078125 C 4.921875 -3.34375 4.0625 -4.234375 2.84375 -4.234375 C 2.171875 -4.234375 1.640625 -3.96875 1.28125 -3.46875 C 1.28125 -5.125 1.828125 -6.046875 2.796875 -6.046875 C 3.390625 -6.046875 3.796875 -5.671875 3.9375 -5.03125 Z M 2.734375 -3.484375 C 3.546875 -3.484375 4.0625 -2.921875 4.0625 -2 C 4.0625 -1.15625 3.484375 -0.53125 2.703125 -0.53125 C 1.921875 -0.53125 1.328125 -1.1875 1.328125 -2.046875 C 1.328125 -2.890625 1.90625 -3.484375 2.734375 -3.484375 Z M 2.734375 -3.484375 "/>
</symbol>
<symbol overflow="visible" id="glyph0-9">
<path style="stroke:none;" d="M 4.984375 -6.796875 L 0.4375 -6.796875 L 0.4375 -5.96875 L 4.109375 -5.96875 C 2.5 -3.65625 1.828125 -2.234375 1.328125 0 L 2.21875 0 C 2.59375 -2.171875 3.453125 -4.046875 4.984375 -6.09375 Z M 4.984375 -6.796875 "/>
</symbol>
<symbol overflow="visible" id="glyph0-10">
<path style="stroke:none;" d="M 3.75 -3.578125 C 4.453125 -4 4.6875 -4.34375 4.6875 -4.984375 C 4.6875 -6.046875 3.84375 -6.796875 2.640625 -6.796875 C 1.4375 -6.796875 0.59375 -6.046875 0.59375 -4.984375 C 0.59375 -4.359375 0.828125 -4.015625 1.515625 -3.578125 C 0.734375 -3.203125 0.359375 -2.640625 0.359375 -1.890625 C 0.359375 -0.640625 1.296875 0.21875 2.640625 0.21875 C 3.984375 0.21875 4.921875 -0.640625 4.921875 -1.875 C 4.921875 -2.640625 4.53125 -3.203125 3.75 -3.578125 Z M 2.640625 -6.046875 C 3.359375 -6.046875 3.8125 -5.625 3.8125 -4.96875 C 3.8125 -4.34375 3.34375 -3.921875 2.640625 -3.921875 C 1.921875 -3.921875 1.453125 -4.34375 1.453125 -4.984375 C 1.453125 -5.625 1.921875 -6.046875 2.640625 -6.046875 Z M 2.640625 -3.203125 C 3.484375 -3.203125 4.0625 -2.671875 4.0625 -1.875 C 4.0625 -1.0625 3.484375 -0.53125 2.625 -0.53125 C 1.796875 -0.53125 1.21875 -1.078125 1.21875 -1.875 C 1.21875 -2.671875 1.796875 -3.203125 2.640625 -3.203125 Z M 2.640625 -3.203125 "/>
</symbol>
<symbol overflow="visible" id="glyph0-11">
<path style="stroke:none;" d="M 0.515625 -1.546875 C 0.671875 -0.4375 1.40625 0.21875 2.4375 0.21875 C 3.1875 0.21875 3.859375 -0.140625 4.265625 -0.75 C 4.6875 -1.40625 4.890625 -2.25 4.890625 -3.484375 C 4.890625 -4.625 4.703125 -5.359375 4.3125 -5.953125 C 3.9375 -6.5 3.34375 -6.796875 2.59375 -6.796875 C 1.296875 -6.796875 0.359375 -5.84375 0.359375 -4.515625 C 0.359375 -3.25 1.234375 -2.34375 2.453125 -2.34375 C 3.09375 -2.34375 3.5625 -2.578125 4.015625 -3.109375 C 4 -1.453125 3.46875 -0.53125 2.5 -0.53125 C 1.90625 -0.53125 1.484375 -0.90625 1.359375 -1.546875 Z M 2.578125 -6.0625 C 3.375 -6.0625 3.96875 -5.40625 3.96875 -4.53125 C 3.96875 -3.6875 3.375 -3.09375 2.546875 -3.09375 C 1.734375 -3.09375 1.234375 -3.671875 1.234375 -4.578125 C 1.234375 -5.4375 1.796875 -6.0625 2.578125 -6.0625 Z M 2.578125 -6.0625 "/>
</symbol>
<symbol overflow="visible" id="glyph1-0">
<path style="stroke:none;" d=""/>
</symbol>
<symbol overflow="visible" id="glyph1-1">
<path style="stroke:none;" d="M 0 -0.953125 L 0 -4.890625 C 0 -5.71875 -0.234375 -6.34375 -0.734375 -6.796875 C -1.1875 -7.234375 -1.8125 -7.46875 -2.5 -7.46875 C -3.546875 -7.46875 -4.1875 -7 -4.625 -5.875 C -4.984375 -6.671875 -5.640625 -7.09375 -6.53125 -7.09375 C -7.15625 -7.09375 -7.734375 -6.859375 -8.140625 -6.390625 C -8.5625 -5.9375 -8.75 -5.34375 -8.75 -4.5 L -8.75 -0.953125 Z M -4.984375 -2.0625 L -7.765625 -2.0625 L -7.765625 -4.21875 C -7.765625 -4.84375 -7.6875 -5.203125 -7.453125 -5.5 C -7.21875 -5.8125 -6.859375 -5.96875 -6.375 -5.96875 C -5.90625 -5.96875 -5.53125 -5.8125 -5.296875 -5.5 C -5.0625 -5.203125 -4.984375 -4.84375 -4.984375 -4.21875 Z M -0.984375 -2.0625 L -4 -2.0625 L -4 -4.78125 C -4 -5.328125 -3.859375 -5.6875 -3.578125 -5.953125 C -3.296875 -6.21875 -2.921875 -6.359375 -2.484375 -6.359375 C -2.0625 -6.359375 -1.6875 -6.21875 -1.40625 -5.953125 C -1.109375 -5.6875 -0.984375 -5.328125 -0.984375 -4.78125 Z M -0.984375 -2.0625 "/>
</symbol>
<symbol overflow="visible" id="glyph1-2">
<path style="stroke:none;" d="M -6.28125 -1.796875 L -6.28125 -0.796875 L 0 -0.796875 L 0 -1.796875 Z M -8.75 -1.796875 L -8.75 -0.796875 L -7.484375 -0.796875 L -7.484375 -1.796875 Z M -8.75 -1.796875 "/>
</symbol>
<symbol overflow="visible" id="glyph1-3">
<path style="stroke:none;" d="M -6.28125 -3.046875 L -6.28125 -2.015625 L -8.015625 -2.015625 L -8.015625 -1.015625 L -6.28125 -1.015625 L -6.28125 -0.171875 L -5.46875 -0.171875 L -5.46875 -1.015625 L -0.71875 -1.015625 C -0.078125 -1.015625 0.28125 -1.453125 0.28125 -2.234375 C 0.28125 -2.46875 0.25 -2.71875 0.1875 -3.046875 L -0.640625 -3.046875 C -0.609375 -2.921875 -0.59375 -2.765625 -0.59375 -2.5625 C -0.59375 -2.140625 -0.71875 -2.015625 -1.15625 -2.015625 L -5.46875 -2.015625 L -5.46875 -3.046875 Z M -6.28125 -3.046875 "/>
</symbol>
<symbol overflow="visible" id="glyph1-4">
<path style="stroke:none;" d="M -4.53125 -5.25 C -5.765625 -5.25 -6.46875 -4.421875 -6.46875 -2.96875 C -6.46875 -1.515625 -5.71875 -0.5625 -4.546875 -0.5625 C -3.5625 -0.5625 -3.09375 -1.0625 -2.734375 -2.5625 L -2.515625 -3.484375 C -2.34375 -4.1875 -2.09375 -4.46875 -1.625 -4.46875 C -1.046875 -4.46875 -0.640625 -3.875 -0.640625 -3 C -0.640625 -2.453125 -0.796875 -2 -1.0625 -1.75 C -1.25 -1.59375 -1.421875 -1.53125 -1.875 -1.46875 L -1.875 -0.40625 C -0.421875 -0.453125 0.28125 -1.265625 0.28125 -2.921875 C 0.28125 -4.5 -0.5 -5.515625 -1.71875 -5.515625 C -2.65625 -5.515625 -3.171875 -4.984375 -3.46875 -3.734375 L -3.703125 -2.765625 C -3.890625 -1.953125 -4.15625 -1.609375 -4.59375 -1.609375 C -5.171875 -1.609375 -5.546875 -2.125 -5.546875 -2.9375 C -5.546875 -3.75 -5.203125 -4.171875 -4.53125 -4.203125 Z M -4.53125 -5.25 "/>
</symbol>
</g>
</defs>
<g id="surface42449">
<rect x="0" y="0" width="720" height="360" style="fill:rgb(100%,100%,100%);fill-opacity:1;stroke:none;"/>
<path style=" stroke:none;fill-rule:nonzero;fill:rgb(6.27451%,58.823529%,28.235294%);fill-opacity:1;" d="M 69.628906 249.480469 L 69.679688 249.402344 L 90.792969 166.253906 L 97.203125 166.253906 L 118.417969 249.558594 L 110.964844 249.558594 L 105.648438 227.8125 L 82.347656 227.8125 L 77.136719 249.480469 L 69.628906 249.480469 L 84.589844 218.820312 L 103.511719 218.742188 L 94.074219 179.863281 L 93.972656 179.785156 L 93.867188 180.019531 L 84.535156 218.742188 L 84.589844 218.820312 Z M 69.628906 249.480469 "/>
<path style=" stroke:none;fill-rule:nonzero;fill:rgb(96.862745%,70.196078%,16.862745%);fill-opacity:1;" d="M 69.628906 277.992188 L 69.6875 277.933594 L 69.6875 276.773438 L 69.925781 274.15625 L 70.523438 270.554688 L 71.296875 267.589844 L 72.128906 265.265625 L 72.664062 264.046875 L 73.554688 262.304688 L 74.328125 261.023438 L 76.292969 258.410156 L 78.792969 255.96875 L 80.160156 254.921875 L 81.707031 253.9375 L 83.910156 252.832031 L 84.921875 252.425781 L 88.015625 251.496094 L 91.523438 250.914062 L 95.390625 250.738281 L 97.175781 250.796875 L 99.617188 251.03125 L 102.949219 251.667969 L 104.851562 252.25 L 106.339844 252.832031 L 107.886719 253.585938 L 109.789062 254.75 L 111.574219 256.144531 L 113.003906 257.539062 L 114.429688 259.28125 L 115.621094 261.140625 L 116.632812 263.175781 L 117.523438 265.617188 L 118.0625 267.648438 L 118.417969 269.683594 L 110.148438 269.683594 L 109.671875 267.648438 L 109.136719 266.082031 L 108.242188 264.164062 L 107.351562 262.769531 L 106.457031 261.664062 L 104.792969 260.152344 L 103.363281 259.222656 L 101.578125 258.410156 L 99.855469 257.886719 L 97.890625 257.539062 L 96.699219 257.421875 L 93.546875 257.421875 L 90.691406 257.828125 L 89.027344 258.292969 L 87.835938 258.757812 L 86.167969 259.628906 L 85.160156 260.328125 L 84.5625 260.792969 L 82.777344 262.59375 L 81.589844 264.222656 L 80.933594 265.324219 L 80.101562 267.070312 L 79.507812 268.636719 L 78.851562 270.960938 L 78.496094 272.707031 L 78.019531 276.65625 L 77.960938 287.117188 L 78.136719 289.324219 L 78.496094 291.707031 L 78.96875 293.800781 L 79.683594 296.007812 L 80.398438 297.691406 L 81.648438 299.960938 L 82.71875 301.46875 L 83.550781 302.457031 L 85.160156 304.027344 L 85.8125 304.550781 L 87.359375 305.597656 L 88.964844 306.410156 L 90.929688 307.105469 L 92.417969 307.457031 L 94.796875 307.746094 L 97.832031 307.746094 L 101.402344 307.398438 L 103.664062 306.933594 L 105.210938 306.46875 L 106.21875 306.0625 L 107.46875 305.421875 L 108.363281 304.839844 L 109.195312 304.203125 L 110.207031 303.214844 L 110.207031 289.324219 L 95.511719 289.265625 L 95.511719 282.757812 L 118.359375 282.699219 L 118.417969 305.421875 L 117.167969 306.992188 L 115.621094 308.5 L 114.132812 309.664062 L 112.585938 310.652344 L 110.386719 311.753906 L 108.601562 312.453125 L 105.863281 313.265625 L 103.363281 313.789062 L 100.746094 314.136719 L 98.425781 314.3125 L 95.691406 314.371094 L 93.25 314.253906 L 90.632812 313.90625 L 88.550781 313.441406 L 86.644531 312.859375 L 84.742188 312.105469 L 82.363281 310.882812 L 80.816406 309.894531 L 79.207031 308.675781 L 77.601562 307.222656 L 76.175781 305.652344 L 75.222656 304.433594 L 74.269531 303.039062 L 73.257812 301.296875 L 72.308594 299.320312 L 71.59375 297.519531 L 70.9375 295.484375 L 70.460938 293.566406 L 69.988281 290.953125 L 69.75 288.859375 L 69.628906 287.058594 Z M 69.628906 277.992188 "/>
<path style=" stroke:none;fill-rule:nonzero;fill:rgb(6.27451%,58.823529%,28.235294%);fill-opacity:1;" d="M 120.984375 314.09375 L 121.039062 313.820312 L 142.148438 20.664062 L 148.558594 20.664062 L 169.773438 314.371094 L 162.320312 314.371094 L 157.003906 237.703125 L 133.703125 237.703125 L 128.492188 314.09375 L 120.984375 314.09375 L 135.945312 205.988281 L 154.867188 205.710938 L 145.433594 68.648438 L 145.328125 68.375 L 145.222656 69.199219 L 135.894531 205.710938 L 135.945312 205.988281 Z M 120.984375 314.09375 "/>
<path style=" stroke:none;fill-rule:nonzero;fill:rgb(6.27451%,58.823529%,28.235294%);fill-opacity:1;" d="M 172.34375 314.09375 L 172.394531 313.820312 L 193.503906 20.664062 L 199.914062 20.664062 L 221.128906 314.371094 L 213.675781 314.371094 L 208.359375 237.703125 L 185.058594 237.703125 L 179.847656 314.09375 L 172.34375 314.09375 L 187.300781 205.988281 L 206.222656 205.710938 L 196.789062 68.648438 L 196.683594 68.375 L 196.578125 69.199219 L 187.25 205.710938 L 187.300781 205.988281 Z M 172.34375 314.09375 "/>
<path style=" stroke:none;fill-rule:nonzero;fill:rgb(96.862745%,70.196078%,16.862745%);fill-opacity:1;" d="M 223.699219 146.460938 L 223.757812 146.191406 L 223.757812 140.828125 L 223.996094 128.757812 L 224.589844 112.128906 L 225.363281 98.449219 L 226.195312 87.71875 L 226.734375 82.085938 L 227.625 74.039062 L 228.398438 68.140625 L 230.363281 56.070312 L 232.859375 44.804688 L 234.230469 39.976562 L 235.777344 35.414062 L 237.976562 30.320312 L 238.988281 28.441406 L 242.082031 24.148438 L 245.59375 21.46875 L 249.460938 20.664062 L 251.246094 20.929688 L 253.683594 22.003906 L 257.015625 24.953125 L 258.921875 27.636719 L 260.410156 30.320312 L 261.957031 33.804688 L 263.859375 39.171875 L 265.644531 45.609375 L 267.074219 52.046875 L 268.5 60.09375 L 269.691406 68.675781 L 270.703125 78.0625 L 271.59375 89.328125 L 272.128906 98.714844 L 272.488281 108.105469 L 264.214844 108.105469 L 263.742188 98.714844 L 263.203125 91.476562 L 262.3125 82.625 L 261.421875 76.1875 L 260.527344 71.089844 L 258.863281 64.117188 L 257.433594 59.824219 L 255.648438 56.070312 L 253.921875 53.65625 L 251.960938 52.046875 L 250.769531 51.507812 L 247.617188 51.507812 L 244.761719 53.386719 L 243.09375 55.53125 L 241.90625 57.679688 L 240.238281 61.703125 L 239.226562 64.921875 L 238.632812 67.066406 L 236.847656 75.382812 L 235.65625 82.890625 L 235.003906 87.988281 L 234.167969 96.035156 L 233.574219 103.277344 L 232.921875 114.003906 L 232.5625 122.050781 L 232.085938 140.292969 L 232.027344 188.574219 L 232.207031 198.765625 L 232.5625 209.761719 L 233.039062 219.417969 L 233.753906 229.609375 L 234.46875 237.390625 L 235.71875 247.851562 L 236.789062 254.824219 L 237.621094 259.382812 L 239.226562 266.625 L 239.882812 269.039062 L 241.429688 273.867188 L 243.035156 277.625 L 245 280.84375 L 246.484375 282.453125 L 248.867188 283.792969 L 251.898438 283.792969 L 255.46875 282.183594 L 257.730469 280.039062 L 259.277344 277.890625 L 260.289062 276.015625 L 261.539062 273.0625 L 262.429688 270.382812 L 263.265625 267.429688 L 264.277344 262.871094 L 264.277344 198.765625 L 249.578125 198.496094 L 249.578125 168.457031 L 272.425781 168.1875 L 272.488281 273.0625 L 271.238281 280.304688 L 269.691406 287.28125 L 268.203125 292.644531 L 266.65625 297.203125 L 264.453125 302.300781 L 262.667969 305.519531 L 259.933594 309.273438 L 257.433594 311.6875 L 254.816406 313.296875 L 252.496094 314.101562 L 249.757812 314.371094 L 247.320312 313.835938 L 244.699219 312.226562 L 242.617188 310.078125 L 240.714844 307.398438 L 238.8125 303.910156 L 236.429688 298.277344 L 234.882812 293.71875 L 233.277344 288.085938 L 231.671875 281.378906 L 230.242188 274.136719 L 229.292969 268.503906 L 228.339844 262.066406 L 227.328125 254.019531 L 226.375 244.898438 L 225.660156 236.585938 L 225.007812 227.195312 L 224.53125 218.34375 L 224.054688 206.277344 L 223.816406 196.621094 L 223.699219 188.304688 Z M 223.699219 146.460938 "/>
<path style=" stroke:none;fill-rule:nonzero;fill:rgb(6.27451%,58.823529%,28.235294%);fill-opacity:1;" d="M 275.054688 314.371094 L 275.105469 314.371094 L 296.21875 313.976562 L 302.628906 313.976562 L 323.84375 314.371094 L 316.390625 314.371094 L 311.074219 314.269531 L 287.773438 314.269531 L 282.558594 314.371094 L 275.054688 314.371094 L 290.015625 314.226562 L 308.933594 314.226562 L 299.5 314.042969 L 299.292969 314.042969 L 289.960938 314.226562 L 290.015625 314.226562 Z M 275.054688 314.371094 "/>
<path style=" stroke:none;fill-rule:nonzero;fill:rgb(14.509804%,36.078431%,60%);fill-opacity:1;" d="M 275.054688 312.308594 L 275.113281 312.304688 L 275.113281 312.285156 L 275.292969 312.257812 L 275.710938 312.21875 L 276.125 312.191406 L 277.195312 312.144531 L 278.683594 312.101562 L 280.230469 312.066406 L 281.359375 312.042969 L 282.371094 312.027344 L 284.691406 312 L 286.179688 311.984375 L 287.789062 311.96875 L 289.75 311.957031 L 291.179688 311.949219 L 294.390625 311.9375 L 296.769531 311.929688 L 304.980469 311.929688 L 306.707031 311.933594 L 308.613281 311.941406 L 310.21875 311.949219 L 313.015625 311.964844 L 315.511719 311.988281 L 316.644531 312 L 318.429688 312.027344 L 319.796875 312.050781 L 320.75 312.070312 L 321.820312 312.101562 L 322.773438 312.136719 L 323.484375 312.175781 L 323.84375 312.210938 L 315.511719 312.210938 L 315.097656 312.179688 L 314.621094 312.152344 L 313.726562 312.121094 L 312.835938 312.097656 L 311.585938 312.074219 L 310.457031 312.058594 L 308.910156 312.046875 L 307.539062 312.035156 L 306.113281 312.027344 L 304.742188 312.023438 L 302.125 312.019531 L 297.960938 312.019531 L 295.640625 312.027344 L 294.390625 312.03125 L 292.605469 312.042969 L 291.355469 312.054688 L 289.871094 312.070312 L 288.859375 312.082031 L 287.609375 312.105469 L 286.714844 312.121094 L 285.703125 312.148438 L 285.109375 312.167969 L 284.574219 312.191406 L 284.097656 312.21875 L 283.742188 312.246094 L 283.503906 312.273438 L 283.382812 312.304688 L 283.382812 312.425781 L 283.503906 312.453125 L 283.800781 312.488281 L 284.574219 312.535156 L 285.703125 312.578125 L 287.011719 312.613281 L 288.261719 312.636719 L 288.976562 312.648438 L 289.929688 312.660156 L 291.417969 312.675781 L 293.558594 312.691406 L 294.808594 312.699219 L 296.710938 312.703125 L 298.675781 312.707031 L 301.292969 312.707031 L 303.613281 312.703125 L 305.160156 312.699219 L 306.765625 312.695312 L 308.96875 312.679688 L 310.335938 312.667969 L 311.527344 312.652344 L 312.417969 312.636719 L 313.015625 312.625 L 313.90625 312.601562 L 314.621094 312.574219 L 315.15625 312.546875 L 315.511719 312.519531 L 323.84375 312.519531 L 323.484375 312.550781 L 322.949219 312.582031 L 322.414062 312.605469 L 321.582031 312.632812 L 320.628906 312.65625 L 319.261719 312.683594 L 318.132812 312.703125 L 316.644531 312.722656 L 315.273438 312.738281 L 313.789062 312.75 L 311.585938 312.765625 L 310.160156 312.777344 L 308.613281 312.78125 L 306.765625 312.789062 L 304.445312 312.792969 L 301.949219 312.796875 L 297.128906 312.796875 L 295.285156 312.792969 L 292.84375 312.785156 L 289.808594 312.773438 L 287.609375 312.757812 L 285.882812 312.742188 L 284.394531 312.726562 L 282.730469 312.703125 L 280.585938 312.667969 L 279.277344 312.644531 L 278.386719 312.621094 L 277.375 312.589844 L 276.660156 312.5625 L 275.828125 312.515625 L 275.234375 312.460938 L 275.054688 312.417969 Z M 275.054688 312.308594 "/>
<path style=" stroke:none;fill-rule:nonzero;fill:rgb(96.862745%,70.196078%,16.862745%);fill-opacity:1;" d="M 275.054688 306.285156 L 275.113281 306.28125 L 275.113281 306.238281 L 275.351562 306.144531 L 275.945312 306.011719 L 276.71875 305.902344 L 277.554688 305.816406 L 278.089844 305.773438 L 278.980469 305.707031 L 279.753906 305.660156 L 281.71875 305.5625 L 284.21875 305.472656 L 285.585938 305.4375 L 287.132812 305.398438 L 289.335938 305.359375 L 290.34375 305.34375 L 293.4375 305.308594 L 296.949219 305.289062 L 300.816406 305.28125 L 302.601562 305.285156 L 305.042969 305.292969 L 308.375 305.316406 L 310.277344 305.335938 L 311.765625 305.359375 L 313.3125 305.386719 L 315.214844 305.429688 L 317 305.480469 L 318.429688 305.53125 L 319.855469 305.597656 L 321.046875 305.664062 L 322.058594 305.738281 L 322.949219 305.828125 L 323.484375 305.902344 L 323.84375 305.980469 L 315.574219 305.980469 L 315.097656 305.902344 L 314.5625 305.847656 L 313.667969 305.777344 L 312.777344 305.722656 L 311.882812 305.683594 L 310.21875 305.628906 L 308.789062 305.59375 L 307.003906 305.5625 L 305.28125 305.542969 L 303.316406 305.53125 L 302.125 305.527344 L 298.972656 305.527344 L 296.117188 305.542969 L 294.449219 305.558594 L 293.261719 305.578125 L 291.59375 305.609375 L 290.582031 305.632812 L 289.988281 305.652344 L 288.203125 305.71875 L 287.011719 305.777344 L 286.359375 305.820312 L 285.527344 305.882812 L 284.929688 305.941406 L 284.277344 306.027344 L 283.917969 306.089844 L 283.445312 306.234375 L 283.382812 306.621094 L 283.5625 306.703125 L 283.917969 306.789062 L 284.394531 306.867188 L 285.109375 306.949219 L 285.824219 307.011719 L 287.074219 307.09375 L 288.144531 307.148438 L 288.976562 307.1875 L 290.582031 307.242188 L 291.238281 307.261719 L 292.785156 307.300781 L 294.390625 307.332031 L 296.355469 307.355469 L 297.84375 307.371094 L 300.222656 307.378906 L 303.257812 307.378906 L 306.828125 307.367188 L 309.085938 307.351562 L 310.632812 307.332031 L 311.644531 307.320312 L 312.894531 307.292969 L 313.789062 307.273438 L 314.621094 307.25 L 315.632812 307.214844 L 315.632812 306.703125 L 300.9375 306.699219 L 300.9375 306.460938 L 323.785156 306.457031 L 323.84375 307.292969 L 322.59375 307.351562 L 321.046875 307.410156 L 319.558594 307.449219 L 318.011719 307.488281 L 315.8125 307.527344 L 314.027344 307.554688 L 311.289062 307.582031 L 308.789062 307.601562 L 306.171875 307.617188 L 303.851562 307.621094 L 301.113281 307.625 L 298.675781 307.621094 L 296.058594 307.605469 L 293.976562 307.589844 L 292.070312 307.570312 L 290.167969 307.539062 L 287.789062 307.496094 L 286.238281 307.460938 L 284.632812 307.414062 L 283.027344 307.359375 L 281.597656 307.304688 L 280.648438 307.257812 L 279.695312 307.207031 L 278.683594 307.144531 L 277.730469 307.070312 L 277.019531 307.003906 L 276.363281 306.929688 L 275.886719 306.859375 L 275.410156 306.761719 L 275.171875 306.683594 L 275.054688 306.617188 Z M 275.054688 306.285156 "/>
<path style=" stroke:none;fill-rule:nonzero;fill:rgb(83.921569%,15.686275%,22.352941%);fill-opacity:1;" d="M 275.054688 308.804688 L 323.84375 308.804688 L 323.84375 309.011719 L 303.507812 309.015625 L 303.507812 310.75 L 295.328125 310.75 L 295.328125 309.015625 L 295.210938 309.011719 L 275.054688 309.011719 Z M 275.054688 308.804688 "/>
<path style=" stroke:none;fill-rule:nonzero;fill:rgb(14.509804%,36.078431%,60%);fill-opacity:1;" d="M 326.410156 278.425781 L 326.46875 278.367188 L 326.46875 276.972656 L 326.648438 274.761719 L 327.066406 271.96875 L 327.480469 270.050781 L 328.554688 266.617188 L 330.039062 263.304688 L 331.585938 260.742188 L 332.71875 259.230469 L 333.730469 258.066406 L 336.050781 255.917969 L 337.535156 254.8125 L 339.144531 253.820312 L 341.105469 252.832031 L 342.535156 252.25 L 345.746094 251.320312 L 348.128906 250.914062 L 349.972656 250.738281 L 353.957031 250.738281 L 356.339844 250.972656 L 358.0625 251.261719 L 359.96875 251.726562 L 361.574219 252.25 L 364.371094 253.53125 L 366.871094 255.160156 L 368 256.089844 L 369.785156 257.894531 L 371.152344 259.636719 L 372.105469 261.152344 L 373.175781 263.304688 L 374.128906 265.921875 L 374.84375 268.886719 L 375.199219 271.386719 L 366.871094 271.386719 L 366.453125 269.0625 L 365.976562 267.257812 L 365.085938 264.875 L 364.191406 263.1875 L 362.941406 261.5 L 361.8125 260.394531 L 360.265625 259.289062 L 358.898438 258.589844 L 357.46875 258.066406 L 356.101562 257.71875 L 353.484375 257.371094 L 350.449219 257.371094 L 349.316406 257.488281 L 346.996094 257.953125 L 345.746094 258.359375 L 343.960938 259.171875 L 342.714844 259.929688 L 341.226562 261.09375 L 340.214844 262.082031 L 338.964844 263.59375 L 338.074219 264.929688 L 337.0625 266.851562 L 336.464844 268.304688 L 335.929688 269.933594 L 335.453125 271.851562 L 335.097656 273.890625 L 334.859375 276.039062 L 334.742188 278.132812 L 334.742188 287.148438 L 334.859375 289.242188 L 335.15625 291.6875 L 335.929688 295.234375 L 337.0625 298.316406 L 338.371094 300.761719 L 339.621094 302.503906 L 340.332031 303.320312 L 341.285156 304.25 L 342.773438 305.414062 L 344.914062 306.578125 L 346.164062 307.042969 L 348.066406 307.507812 L 350.03125 307.738281 L 352.648438 307.738281 L 354.96875 307.507812 L 356.515625 307.214844 L 358.125 306.75 L 360.324219 305.761719 L 361.691406 304.832031 L 362.882812 303.726562 L 363.777344 302.621094 L 364.371094 301.691406 L 365.261719 299.886719 L 365.976562 297.910156 L 366.511719 295.875 L 366.871094 293.898438 L 375.199219 293.898438 L 374.84375 296.222656 L 374.308594 298.492188 L 373.769531 300.179688 L 372.9375 302.214844 L 371.988281 304.015625 L 370.617188 306.054688 L 369.488281 307.390625 L 368 308.84375 L 366.632812 309.949219 L 365.144531 310.9375 L 362.941406 312.101562 L 361.515625 312.683594 L 359.96875 313.207031 L 358.125 313.671875 L 355.804688 314.078125 L 353.304688 314.3125 L 350.984375 314.371094 L 348.484375 314.253906 L 346.640625 314.023438 L 344.199219 313.5 L 341.167969 312.453125 L 338.964844 311.347656 L 337.238281 310.242188 L 335.753906 309.078125 L 334.085938 307.507812 L 331.945312 304.949219 L 330.636719 302.96875 L 329.742188 301.34375 L 328.730469 299.074219 L 328.015625 297.039062 L 327.183594 293.78125 L 326.589844 289.652344 L 326.410156 286.453125 Z M 326.410156 278.425781 "/>
<path style=" stroke:none;fill-rule:nonzero;fill:rgb(83.921569%,15.686275%,22.352941%);fill-opacity:1;" d="M 326.410156 166.253906 L 375.199219 166.253906 L 375.199219 175.171875 L 354.867188 175.25 L 354.867188 249.558594 L 346.683594 249.558594 L 346.683594 175.328125 L 346.566406 175.171875 L 326.410156 175.171875 Z M 326.410156 166.253906 "/>
<path style=" stroke:none;fill-rule:nonzero;fill:rgb(14.509804%,36.078431%,60%);fill-opacity:1;" d="M 480.480469 148.457031 L 480.539062 148.1875 L 480.539062 141.742188 L 480.71875 131.542969 L 481.132812 118.65625 L 481.550781 109.796875 L 482.621094 93.957031 L 484.109375 78.652344 L 485.65625 66.839844 L 486.785156 59.859375 L 487.796875 54.492188 L 490.117188 44.558594 L 491.605469 39.457031 L 493.210938 34.890625 L 495.175781 30.328125 L 496.605469 27.644531 L 499.816406 23.347656 L 502.195312 21.46875 L 504.039062 20.664062 L 508.027344 20.664062 L 510.40625 21.738281 L 512.132812 23.078125 L 514.035156 25.226562 L 515.644531 27.644531 L 518.441406 33.550781 L 520.9375 41.066406 L 522.070312 45.363281 L 523.855469 53.683594 L 525.222656 61.738281 L 526.175781 68.71875 L 527.246094 78.652344 L 528.195312 90.734375 L 528.910156 104.425781 L 529.269531 115.96875 L 520.9375 115.96875 L 520.523438 105.230469 L 520.046875 96.910156 L 519.152344 85.902344 L 518.261719 78.117188 L 517.011719 70.332031 L 515.882812 65.230469 L 514.335938 60.128906 L 512.964844 56.90625 L 511.539062 54.492188 L 510.167969 52.878906 L 507.550781 51.269531 L 504.515625 51.269531 L 503.386719 51.804688 L 501.066406 53.953125 L 499.816406 55.832031 L 498.03125 59.589844 L 496.78125 63.082031 L 495.292969 68.449219 L 494.285156 73.015625 L 493.035156 79.996094 L 492.140625 86.171875 L 491.128906 95.03125 L 490.535156 101.742188 L 490 109.257812 L 489.523438 118.117188 L 489.167969 127.515625 L 488.929688 137.449219 L 488.808594 147.113281 L 488.808594 188.726562 L 488.929688 198.390625 L 489.226562 209.667969 L 490 226.042969 L 491.128906 240.273438 L 492.4375 251.546875 L 493.6875 259.601562 L 494.402344 263.359375 L 495.355469 267.65625 L 496.839844 273.027344 L 498.984375 278.394531 L 500.234375 280.542969 L 502.136719 282.691406 L 504.101562 283.765625 L 506.71875 283.765625 L 509.039062 282.691406 L 510.585938 281.347656 L 512.191406 279.199219 L 514.394531 274.636719 L 515.761719 270.339844 L 516.953125 265.242188 L 517.84375 260.140625 L 518.441406 255.84375 L 519.332031 247.519531 L 520.046875 238.394531 L 520.582031 228.996094 L 520.9375 219.867188 L 529.269531 219.867188 L 528.910156 230.609375 L 528.375 241.078125 L 527.839844 248.863281 L 527.007812 258.261719 L 526.054688 266.582031 L 524.6875 275.980469 L 523.554688 282.152344 L 522.070312 288.867188 L 520.699219 293.96875 L 519.214844 298.53125 L 517.011719 303.898438 L 515.582031 306.585938 L 514.035156 309 L 512.191406 311.148438 L 509.871094 313.027344 L 507.371094 314.101562 L 505.050781 314.371094 L 502.554688 313.832031 L 500.710938 312.761719 L 498.269531 310.34375 L 495.234375 305.511719 L 493.035156 300.410156 L 491.308594 295.308594 L 489.820312 289.941406 L 488.15625 282.691406 L 486.011719 270.878906 L 484.703125 261.75 L 483.8125 254.234375 L 482.800781 243.761719 L 482.085938 234.367188 L 481.253906 219.332031 L 480.65625 200.269531 L 480.480469 185.503906 Z M 480.480469 148.457031 "/>
<path style=" stroke:none;fill-rule:nonzero;fill:rgb(83.921569%,15.686275%,22.352941%);fill-opacity:1;" d="M 531.835938 20.664062 L 580.625 20.664062 L 580.625 52.101562 L 560.289062 52.378906 L 560.289062 314.371094 L 552.109375 314.371094 L 552.109375 52.652344 L 551.992188 52.101562 L 531.835938 52.101562 Z M 531.835938 20.664062 "/>
<path style=" stroke:none;fill-rule:nonzero;fill:rgb(83.921569%,15.686275%,22.352941%);fill-opacity:1;" d="M 583.191406 20.664062 L 631.980469 20.664062 L 631.980469 52.101562 L 611.648438 52.378906 L 611.648438 314.371094 L 603.464844 314.371094 L 603.464844 52.652344 L 603.347656 52.101562 L 583.191406 52.101562 Z M 583.191406 20.664062 "/>
<path style=" stroke:none;fill-rule:nonzero;fill:rgb(14.509804%,36.078431%,60%);fill-opacity:1;" d="M 634.546875 277.59375 L 634.609375 277.535156 L 634.609375 276.109375 L 634.785156 273.847656 L 635.203125 270.988281 L 635.621094 269.027344 L 636.691406 265.515625 L 638.179688 262.125 L 639.726562 259.503906 L 640.855469 257.957031 L 641.867188 256.769531 L 644.1875 254.566406 L 645.675781 253.433594 L 647.28125 252.421875 L 649.246094 251.410156 L 650.671875 250.816406 L 653.886719 249.863281 L 656.265625 249.449219 L 658.109375 249.269531 L 662.097656 249.269531 L 664.476562 249.507812 L 666.203125 249.804688 L 668.105469 250.28125 L 669.710938 250.816406 L 672.507812 252.125 L 675.007812 253.792969 L 676.136719 254.746094 L 677.921875 256.589844 L 679.292969 258.375 L 680.242188 259.921875 L 681.3125 262.125 L 682.265625 264.800781 L 682.980469 267.835938 L 683.335938 270.394531 L 675.007812 270.394531 L 674.589844 268.015625 L 674.113281 266.167969 L 673.222656 263.730469 L 672.328125 262.003906 L 671.082031 260.277344 L 669.949219 259.148438 L 668.402344 258.015625 L 667.035156 257.304688 L 665.605469 256.769531 L 664.238281 256.410156 L 661.621094 256.054688 L 658.585938 256.054688 L 657.457031 256.171875 L 655.136719 256.648438 L 653.886719 257.066406 L 652.101562 257.898438 L 650.851562 258.671875 L 649.363281 259.863281 L 648.351562 260.875 L 647.101562 262.421875 L 646.210938 263.789062 L 645.199219 265.753906 L 644.605469 267.242188 L 644.066406 268.90625 L 643.59375 270.871094 L 643.234375 272.953125 L 642.996094 275.15625 L 642.878906 277.296875 L 642.878906 286.519531 L 642.996094 288.664062 L 643.292969 291.164062 L 644.066406 294.792969 L 645.199219 297.945312 L 646.507812 300.445312 L 647.757812 302.230469 L 648.472656 303.0625 L 649.421875 304.015625 L 650.910156 305.207031 L 653.050781 306.398438 L 654.300781 306.871094 L 656.207031 307.347656 L 658.167969 307.585938 L 660.789062 307.585938 L 663.109375 307.347656 L 664.65625 307.050781 L 666.261719 306.574219 L 668.460938 305.5625 L 669.832031 304.613281 L 671.019531 303.480469 L 671.914062 302.351562 L 672.507812 301.398438 L 673.402344 299.554688 L 674.113281 297.53125 L 674.648438 295.449219 L 675.007812 293.425781 L 683.335938 293.425781 L 682.980469 295.804688 L 682.445312 298.125 L 681.910156 299.851562 L 681.074219 301.933594 L 680.125 303.777344 L 678.753906 305.859375 L 677.625 307.230469 L 676.136719 308.71875 L 674.769531 309.847656 L 673.28125 310.859375 L 671.082031 312.050781 L 669.652344 312.644531 L 668.105469 313.179688 L 666.261719 313.65625 L 663.941406 314.074219 L 661.441406 314.3125 L 659.121094 314.371094 L 656.621094 314.25 L 654.777344 314.011719 L 652.339844 313.476562 L 649.304688 312.40625 L 647.101562 311.277344 L 645.378906 310.144531 L 643.890625 308.957031 L 642.222656 307.347656 L 640.082031 304.730469 L 638.773438 302.707031 L 637.878906 301.042969 L 636.867188 298.71875 L 636.15625 296.636719 L 635.320312 293.304688 L 634.726562 289.082031 L 634.546875 285.808594 Z M 634.546875 277.59375 "/>
<path style=" stroke:none;fill-rule:nonzero;fill:rgb(83.921569%,15.686275%,22.352941%);fill-opacity:1;" d="M 634.546875 166.851562 L 683.335938 166.851562 L 683.335938 175.546875 L 663.003906 175.625 L 663.003906 248.089844 L 654.824219 248.089844 L 654.824219 175.699219 L 654.703125 175.546875 L 634.546875 175.546875 Z M 634.546875 166.851562 "/>
<g style="fill:rgb(0%,0%,0%);fill-opacity:1;">
  <use xlink:href="#glyph0-1" x="21.957031" y="318.198242"/>
  <use xlink:href="#glyph0-2" x="27.291016" y="318.198242"/>
  <use xlink:href="#glyph0-1" x="29.958008" y="318.198242"/>
</g>
<g style="fill:rgb(0%,0%,0%);fill-opacity:1;">
  <use xlink:href="#glyph0-1" x="21.957031" y="244.475586"/>
  <use xlink:href="#glyph0-2" x="27.291016" y="244.475586"/>
  <use xlink:href="#glyph0-3" x="29.958008" y="244.475586"/>
</g>
<g style="fill:rgb(0%,0%,0%);fill-opacity:1;">
  <use xlink:href="#glyph0-4" x="21.957031" y="170.75293"/>
  <use xlink:href="#glyph0-2" x="27.291016" y="170.75293"/>
  <use xlink:href="#glyph0-1" x="29.958008" y="170.75293"/>
</g>
<g style="fill:rgb(0%,0%,0%);fill-opacity:1;">
  <use xlink:href="#glyph0-4" x="21.957031" y="97.03418"/>
  <use xlink:href="#glyph0-2" x="27.291016" y="97.03418"/>
  <use xlink:href="#glyph0-3" x="29.958008" y="97.03418"/>
</g>
<g style="fill:rgb(0%,0%,0%);fill-opacity:1;">
  <use xlink:href="#glyph0-5" x="21.957031" y="23.311523"/>
  <use xlink:href="#glyph0-2" x="27.291016" y="23.311523"/>
  <use xlink:href="#glyph0-1" x="29.958008" y="23.311523"/>
</g>
<g style="fill:rgb(0%,0%,0%);fill-opacity:1;">
  <use xlink:href="#glyph0-4" x="91.023438" y="338.19043"/>
</g>
<g style="fill:rgb(0%,0%,0%);fill-opacity:1;">
  <use xlink:href="#glyph0-5" x="142.378906" y="338.19043"/>
</g>
<g style="fill:rgb(0%,0%,0%);fill-opacity:1;">
  <use xlink:href="#glyph0-6" x="193.734375" y="338.19043"/>
</g>
<g style="fill:rgb(0%,0%,0%);fill-opacity:1;">
  <use xlink:href="#glyph0-7" x="245.09375" y="338.19043"/>
</g>
<g style="fill:rgb(0%,0%,0%);fill-opacity:1;">
  <use xlink:href="#glyph0-3" x="296.449219" y="338.19043"/>
</g>
<g style="fill:rgb(0%,0%,0%);fill-opacity:1;">
  <use xlink:href="#glyph0-8" x="347.804688" y="338.19043"/>
</g>
<g style="fill:rgb(0%,0%,0%);fill-opacity:1;">
  <use xlink:href="#glyph0-9" x="399.160156" y="338.19043"/>
</g>
<g style="fill:rgb(0%,0%,0%);fill-opacity:1;">
  <use xlink:href="#glyph0-10" x="450.519531" y="338.19043"/>
</g>
<g style="fill:rgb(0%,0%,0%);fill-opacity:1;">
  <use xlink:href="#glyph0-11" x="501.875" y="338.19043"/>
</g>
<g style="fill:rgb(0%,0%,0%);fill-opacity:1;">
  <use xlink:href="#glyph0-4" x="550.730469" y="338.19043"/>
  <use xlink:href="#glyph0-1" x="556.064453" y="338.19043"/>
</g>
<g style="fill:rgb(0%,0%,0%);fill-opacity:1;">
  <use xlink:href="#glyph0-4" x="602.085938" y="338.19043"/>
  <use xlink:href="#glyph0-4" x="607.419922" y="338.19043"/>
</g>
<g style="fill:rgb(0%,0%,0%);fill-opacity:1;">
  <use xlink:href="#glyph0-4" x="653.441406" y="338.19043"/>
  <use xlink:href="#glyph0-5" x="658.775391" y="338.19043"/>
</g>
<g style="fill:rgb(0%,0%,0%);fill-opacity:1;">
  <use xlink:href="#glyph1-1" x="14.412109" y="178.015625"/>
  <use xlink:href="#glyph1-2" x="14.412109" y="170.011719"/>
  <use xlink:href="#glyph1-3" x="14.412109" y="167.347656"/>
  <use xlink:href="#glyph1-4" x="14.412109" y="164.011719"/>
</g>
</g>
</svg>
