<?xml version="1.0" encoding="UTF-8"?>
<svg xmlns="http://www.w3.org/2000/svg" xmlns:xlink="http://www.w3.org/1999/xlink" width="720pt" height="360pt" viewBox="0 0 720 360" version="1.1">
<defs>
<g>
<symbol overflow="visible" id="glyph0-0">
<path style="stroke:none;" d=""/>
</symbol>
<symbol overflow="visible" id="glyph0-1">
<path style="stroke:none;" d="M 2.640625 -6.796875 C 2 -6.796875 1.421875 -6.53125 1.078125 -6.046875 C 0.640625 -5.453125 0.40625 -4.546875 0.40625 -3.296875 C 0.40625 -1 1.1875 0.21875 2.640625 0.21875 C 4.078125 0.21875 4.859375 -1 4.859375 -3.234375 C 4.859375 -4.5625 4.65625 -5.4375 4.203125 -6.046875 C 3.84375 -6.53125 3.28125 -6.796875 2.640625 -6.796875 Z M 2.640625 -6.046875 C 3.546875 -6.046875 4 -5.125 4 -3.3125 C 4 -1.375 3.5625 -0.484375 2.625 -0.484375 C 1.734375 -0.484375 1.28125 -1.421875 1.28125 -3.28125 C 1.28125 -5.140625 1.734375 -6.046875 2.640625 -6.046875 Z M 2.640625 -6.046875 "/>
</symbol>
<symbol overflow="visible" id="glyph0-2">
<path style="stroke:none;" d="M 1.828125 -1 L 0.828125 -1 L 0.828125 0 L 1.828125 0 Z M 1.828125 -1 "/>
</symbol>
<symbol overflow="visible" id="glyph0-3">
<path style="stroke:none;" d="M 4.5625 -6.796875 L 1.0625 -6.796875 L 0.546875 -3.09375 L 1.328125 -3.09375 C 1.71875 -3.5625 2.046875 -3.734375 2.578125 -3.734375 C 3.484375 -3.734375 4.0625 -3.109375 4.0625 -2.09375 C 4.0625 -1.125 3.484375 -0.53125 2.578125 -0.53125 C 1.828125 -0.53125 1.375 -0.90625 1.1875 -1.671875 L 0.328125 -1.671875 C 0.453125 -1.109375 0.546875 -0.84375 0.75 -0.59375 C 1.125 -0.078125 1.828125 0.21875 2.59375 0.21875 C 3.96875 0.21875 4.921875 -0.78125 4.921875 -2.21875 C 4.921875 -3.5625 4.03125 -4.484375 2.71875 -4.484375 C 2.25 -4.484375 1.859375 -4.359375 1.46875 -4.0625 L 1.734375 -5.96875 L 4.5625 -5.96875 Z M 4.5625 -6.796875 "/>
</symbol>
<symbol overflow="visible" id="glyph0-4">
<path style="stroke:none;" d="M 2.484375 -4.84375 L 2.484375 0 L 3.328125 0 L 3.328125 -6.796875 L 2.765625 -6.796875 C 2.46875 -5.75 2.28125 -5.609375 0.984375 -5.453125 L 0.984375 -4.84375 Z M 2.484375 -4.84375 "/>
</symbol>
<symbol overflow="visible" id="glyph0-5">
<path style="stroke:none;" d="M 4.859375 -0.828125 L 1.28125 -0.828125 C 1.359375 -1.390625 1.671875 -1.75 2.5 -2.234375 L 3.46875 -2.75 C 4.40625 -3.265625 4.90625 -3.96875 4.90625 -4.8125 C 4.90625 -5.375 4.671875 -5.90625 4.265625 -6.265625 C 3.859375 -6.625 3.375 -6.796875 2.71875 -6.796875 C 1.859375 -6.796875 1.21875 -6.5 0.84375 -5.921875 C 0.609375 -5.5625 0.5 -5.125 0.484375 -4.4375 L 1.328125 -4.4375 C 1.359375 -4.90625 1.40625 -5.1875 1.53125 -5.40625 C 1.75 -5.8125 2.1875 -6.0625 2.703125 -6.0625 C 3.46875 -6.0625 4.03125 -5.515625 4.03125 -4.78125 C 4.03125 -4.25 3.71875 -3.796875 3.125 -3.4375 L 2.234375 -2.9375 C 0.8125 -2.140625 0.40625 -1.5 0.328125 0 L 4.859375 0 Z M 4.859375 -0.828125 "/>
</symbol>
<symbol overflow="visible" id="glyph0-6">
<path style="stroke:none;" d="M 2.125 -3.125 L 2.578125 -3.125 C 3.515625 -3.125 3.984375 -2.703125 3.984375 -1.890625 C 3.984375 -1.03125 3.46875 -0.53125 2.578125 -0.53125 C 1.65625 -0.53125 1.203125 -0.984375 1.15625 -1.96875 L 0.3125 -1.96875 C 0.34375 -1.421875 0.4375 -1.078125 0.609375 -0.765625 C 0.953125 -0.109375 1.625 0.21875 2.546875 0.21875 C 3.953125 0.21875 4.859375 -0.609375 4.859375 -1.90625 C 4.859375 -2.765625 4.515625 -3.25 3.703125 -3.515625 C 4.34375 -3.765625 4.65625 -4.25 4.65625 -4.9375 C 4.65625 -6.109375 3.875 -6.796875 2.578125 -6.796875 C 1.203125 -6.796875 0.484375 -6.046875 0.453125 -4.609375 L 1.296875 -4.609375 C 1.3125 -5.015625 1.34375 -5.25 1.453125 -5.453125 C 1.640625 -5.828125 2.0625 -6.0625 2.59375 -6.0625 C 3.34375 -6.0625 3.796875 -5.625 3.796875 -4.90625 C 3.796875 -4.421875 3.609375 -4.140625 3.25 -3.984375 C 3.015625 -3.890625 2.71875 -3.84375 2.125 -3.84375 Z M 2.125 -3.125 "/>
</symbol>
<symbol overflow="visible" id="glyph0-7">
<path style="stroke:none;" d="M 3.140625 -1.625 L 3.140625 0 L 3.984375 0 L 3.984375 -1.625 L 4.984375 -1.625 L 4.984375 -2.390625 L 3.984375 -2.390625 L 3.984375 -6.796875 L 3.359375 -6.796875 L 0.265625 -2.515625 L 0.265625 -1.625 Z M 3.140625 -2.390625 L 1 -2.390625 L 3.140625 -5.359375 Z M 3.140625 -2.390625 "/>
</symbol>
<symbol overflow="visible" id="glyph0-8">
<path style="stroke:none;" d="M 4.78125 -5.03125 C 4.609375 -6.140625 3.890625 -6.796875 2.84375 -6.796875 C 2.09375 -6.796875 1.421875 -6.4375 1.03125 -5.828125 C 0.609375 -5.171875 0.40625 -4.34375 0.40625 -3.09375 C 0.40625 -1.953125 0.578125 -1.234375 0.984375 -0.625 C 1.359375 -0.078125 1.953125 0.21875 2.703125 0.21875 C 3.984375 0.21875 4.921875 -0.734375 4.921875 -2.078125 C 4.921875 -3.34375 4.0625 -4.234375 2.84375 -4.234375 C 2.171875 -4.234375 1.640625 -3.96875 1.28125 -3.46875 C 1.28125 -5.125 1.828125 -6.046875 2.796875 -6.046875 C 3.390625 -6.046875 3.796875 -5.671875 3.9375 -5.03125 Z M 2.734375 -3.484375 C 3.546875 -3.484375 4.0625 -2.921875 4.0625 -2 C 4.0625 -1.15625 3.484375 -0.53125 2.703125 -0.53125 C 1.921875 -0.53125 1.328125 -1.1875 1.328125 -2.046875 C 1.328125 -2.890625 1.90625 -3.484375 2.734375 -3.484375 Z M 2.734375 -3.484375 "/>
</symbol>
<symbol overflow="visible" id="glyph0-9">
<path style="stroke:none;" d="M 4.984375 -6.796875 L 0.4375 -6.796875 L 0.4375 -5.96875 L 4.109375 -5.96875 C 2.5 -3.65625 1.828125 -2.234375 1.328125 0 L 2.21875 0 C 2.59375 -2.171875 3.453125 -4.046875 4.984375 -6.09375 Z M 4.984375 -6.796875 "/>
</symbol>
<symbol overflow="visible" id="glyph0-10">
<path style="stroke:none;" d="M 3.75 -3.578125 C 4.453125 -4 4.6875 -4.34375 4.6875 -4.984375 C 4.6875 -6.046875 3.84375 -6.796875 2.640625 -6.796875 C 1.4375 -6.796875 0.59375 -6.046875 0.59375 -4.984375 C 0.59375 -4.359375 0.828125 -4.015625 1.515625 -3.578125 C 0.734375 -3.203125 0.359375 -2.640625 0.359375 -1.890625 C 0.359375 -0.640625 1.296875 0.21875 2.640625 0.21875 C 3.984375 0.21875 4.921875 -0.640625 4.921875 -1.875 C 4.921875 -2.640625 4.53125 -3.203125 3.75 -3.578125 Z M 2.640625 -6.046875 C 3.359375 -6.046875 3.8125 -5.625 3.8125 -4.96875 C 3.8125 -4.34375 3.34375 -3.921875 2.640625 -3.921875 C 1.921875 -3.921875 1.453125 -4.34375 1.453125 -4.984375 C 1.453125 -5.625 1.921875 -6.046875 2.640625 -6.046875 Z M 2.640625 -3.203125 C 3.484375 -3.203125 4.0625 -2.671875 4.0625 -1.875 C 4.0625 -1.0625 3.484375 -0.53125 2.625 -0.53125 C 1.796875 -0.53125 1.21875 -1.078125 1.21875 -1.875 C 1.21875 -2.671875 1.796875 -3.203125 2.640625 -3.203125 Z M 2.640625 -3.203125 "/>
</symbol>
<symbol overflow="visible" id="glyph0-11">
<path style="stroke:none;" d="M 0.515625 -1.546875 C 0.671875 -0.4375 1.40625 0.21875 2.4375 0.21875 C 3.1875 0.21875 3.859375 -0.140625 4.265625 -0.75 C 4.6875 -1.40625 4.890625 -2.25 4.890625 -3.484375 C 4.890625 -4.625 4.703125 -5.359375 4.3125 -5.953125 C 3.9375 -6.5 3.34375 -6.796875 2.59375 -6.796875 C 1.296875 -6.796875 0.359375 -5.84375 0.359375 -4.515625 C 0.359375 -3.25 1.234375 -2.34375 2.453125 -2.34375 C 3.09375 -2.34375 3.5625 -2.578125 4.015625 -3.109375 C 4 -1.453125 3.46875 -0.53125 2.5 -0.53125 C 1.90625 -0.53125 1.484375 -0.90625 1.359375 -1.546875 Z M 2.578125 -6.0625 C 3.375 -6.0625 3.96875 -5.40625 3.96875 -4.53125 C 3.96875 -3.6875 3.375 -3.09375 2.546875 -3.09375 C 1.734375 -3.09375 1.234375 -3.671875 1.234375 -4.578125 C 1.234375 -5.4375 1.796875 -6.0625 2.578125 -6.0625 Z M 2.578125 -6.0625 "/>
</symbol>
<symbol overflow="visible" id="glyph1-0">
<path style="stroke:none;" d=""/>
</symbol>
<symbol overflow="visible" id="glyph1-1">
<path style="stroke:none;" d="M 0 -0.953125 L 0 -4.890625 C 0 -5.71875 -0.234375 -6.34375 -0.734375 -6.796875 C -1.1875 -7.234375 -1.8125 -7.46875 -2.5 -7.46875 C -3.546875 -7.46875 -4.1875 -7 -4.625 -5.875 C -4.984375 -6.671875 -5.640625 -7.09375 -6.53125 -7.09375 C -7.15625 -7.09375 -7.734375 -6.859375 -8.140625 -6.390625 C -8.5625 -5.9375 -8.75 -5.34375 -8.75 -4.5 L -8.75 -0.953125 Z M -4.984375 -2.0625 L -7.765625 -2.0625 L -7.765625 -4.21875 C -7.765625 -4.84375 -7.6875 -5.203125 -7.453125 -5.5 C -7.21875 -5.8125 -6.859375 -5.96875 -6.375 -5.96875 C -5.90625 -5.96875 -5.53125 -5.8125 -5.296875 -5.5 C -5.0625 -5.203125 -4.984375 -4.84375 -4.984375 -4.21875 Z M -0.984375 -2.0625 L -4 -2.0625 L -4 -4.78125 C -4 -5.328125 -3.859375 -5.6875 -3.578125 -5.953125 C -3.296875 -6.21875 -2.921875 -6.359375 -2.484375 -6.359375 C -2.0625 -6.359375 -1.6875 -6.21875 -1.40625 -5.953125 C -1.109375 -5.6875 -0.984375 -5.328125 -0.984375 -4.78125 Z M -0.984375 -2.0625 "/>
</symbol>
<symbol overflow="visible" id="glyph1-2">
<path style="stroke:none;" d="M -6.28125 -1.796875 L -6.28125 -0.796875 L 0 -0.796875 L 0 -1.796875 Z M -8.75 -1.796875 L -8.75 -0.796875 L -7.484375 -0.796875 L -7.484375 -1.796875 Z M -8.75 -1.796875 "/>
</symbol>
<symbol overflow="visible" id="glyph1-3">
<path style="stroke:none;" d="M -6.28125 -3.046875 L -6.28125 -2.015625 L -8.015625 -2.015625 L -8.015625 -1.015625 L -6.28125 -1.015625 L -6.28125 -0.171875 L -5.46875 -0.171875 L -5.46875 -1.015625 L -0.71875 -1.015625 C -0.078125 -1.015625 0.28125 -1.453125 0.28125 -2.234375 C 0.28125 -2.46875 0.25 -2.71875 0.1875 -3.046875 L -0.640625 -3.046875 C -0.609375 -2.921875 -0.59375 -2.765625 -0.59375 -2.5625 C -0.59375 -2.140625 -0.71875 -2.015625 -1.15625 -2.015625 L -5.46875 -2.015625 L -5.46875 -3.046875 Z M -6.28125 -3.046875 "/>
</symbol>
<symbol overflow="visible" id="glyph1-4">
<path style="stroke:none;" d="M -4.53125 -5.25 C -5.765625 -5.25 -6.46875 -4.421875 -6.46875 -2.96875 C -6.46875 -1.515625 -5.71875 -0.5625 -4.546875 -0.5625 C -3.5625 -0.5625 -3.09375 -1.0625 -2.734375 -2.5625 L -2.515625 -3.484375 C -2.34375 -4.1875 -2.09375 -4.46875 -1.625 -4.46875 C -1.046875 -4.46875 -0.640625 -3.875 -0.640625 -3 C -0.640625 -2.453125 -0.796875 -2 -1.0625 -1.75 C -1.25 -1.59375 -1.421875 -1.53125 -1.875 -1.46875 L -1.875 -0.40625 C -0.421875 -0.453125 0.28125 -1.265625 0.28125 -2.921875 C 0.28125 -4.5 -0.5 -5.515625 -1.71875 -5.515625 C -2.65625 -5.515625 -3.171875 -4.984375 -3.46875 -3.734375 L -3.703125 -2.765625 C -3.890625 -1.953125 -4.15625 -1.609375 -4.59375 -1.609375 C -5.171875 -1.609375 -5.546875 -2.125 -5.546875 -2.9375 C -5.546875 -3.75 -5.203125 -4.171875 -4.53125 -4.203125 Z M -4.53125 -5.25 "/>
</symbol>
</g>
</defs>
<g id="surface41799">
<rect x="0" y="0" width="720" height="360" style="fill:rgb(100%,100%,100%);fill-opacity:1;stroke:none;"/>
<path style=" stroke:none;fill-rule:nonzero;fill:rgb(6.27451%,58.823529%,28.235294%);fill-opacity:1;" d="M 69.628906 314.09375 L 69.675781 313.820312 L 89.15625 20.664062 L 95.074219 20.664062 L 114.648438 314.371094 L 107.773438 314.371094 L 102.867188 237.703125 L 81.367188 237.703125 L 76.554688 314.09375 L 69.628906 314.09375 L 83.433594 205.988281 L 100.894531 205.710938 L 92.1875 68.648438 L 92.089844 68.375 L 91.996094 69.199219 L 83.386719 205.710938 L 83.433594 205.988281 Z M 69.628906 314.09375 "/>
<path style=" stroke:none;fill-rule:nonzero;fill:rgb(6.27451%,58.823529%,28.235294%);fill-opacity:1;" d="M 117.019531 314.09375 L 117.066406 313.820312 L 136.546875 20.664062 L 142.464844 20.664062 L 162.039062 314.371094 L 155.164062 314.371094 L 150.257812 237.703125 L 128.757812 237.703125 L 123.945312 314.09375 L 117.019531 314.09375 L 130.824219 205.988281 L 148.285156 205.710938 L 139.578125 68.648438 L 139.480469 68.375 L 139.386719 69.199219 L 130.777344 205.710938 L 130.824219 205.988281 Z M 117.019531 314.09375 "/>
<path style=" stroke:none;fill-rule:nonzero;fill:rgb(14.509804%,36.078431%,60%);fill-opacity:1;" d="M 164.410156 148.457031 L 164.464844 148.1875 L 164.464844 141.742188 L 164.628906 131.542969 L 165.015625 118.65625 L 165.398438 109.796875 L 166.386719 93.957031 L 167.757812 78.652344 L 169.1875 66.839844 L 170.230469 59.859375 L 171.164062 54.492188 L 173.304688 44.558594 L 174.675781 39.457031 L 176.160156 34.890625 L 177.972656 30.328125 L 179.289062 27.644531 L 182.253906 23.347656 L 184.449219 21.46875 L 186.152344 20.664062 L 189.832031 20.664062 L 192.027344 21.738281 L 193.621094 23.078125 L 195.375 25.226562 L 196.859375 27.644531 L 199.4375 33.550781 L 201.746094 41.066406 L 202.789062 45.363281 L 204.433594 53.683594 L 205.699219 61.738281 L 206.578125 68.71875 L 207.566406 78.652344 L 208.441406 90.734375 L 209.101562 104.425781 L 209.429688 115.96875 L 201.746094 115.96875 L 201.359375 105.230469 L 200.921875 96.910156 L 200.097656 85.902344 L 199.273438 78.117188 L 198.121094 70.332031 L 197.078125 65.230469 L 195.652344 60.128906 L 194.386719 56.90625 L 193.070312 54.492188 L 191.808594 52.878906 L 189.390625 51.269531 L 186.589844 51.269531 L 185.546875 51.804688 L 183.40625 53.953125 L 182.253906 55.832031 L 180.605469 59.589844 L 179.453125 63.082031 L 178.082031 68.449219 L 177.148438 73.015625 L 175.996094 79.996094 L 175.171875 86.171875 L 174.238281 95.03125 L 173.6875 101.742188 L 173.195312 109.257812 L 172.753906 118.117188 L 172.425781 127.515625 L 172.207031 137.449219 L 172.097656 147.113281 L 172.097656 188.726562 L 172.207031 198.390625 L 172.480469 209.667969 L 173.195312 226.042969 L 174.238281 240.273438 L 175.445312 251.546875 L 176.597656 259.601562 L 177.257812 263.359375 L 178.136719 267.65625 L 179.507812 273.027344 L 181.484375 278.394531 L 182.636719 280.542969 L 184.394531 282.691406 L 186.207031 283.765625 L 188.621094 283.765625 L 190.765625 282.691406 L 192.191406 281.347656 L 193.675781 279.199219 L 195.707031 274.636719 L 196.96875 270.339844 L 198.066406 265.242188 L 198.890625 260.140625 L 199.4375 255.84375 L 200.261719 247.519531 L 200.921875 238.394531 L 201.414062 228.996094 L 201.746094 219.867188 L 209.429688 219.867188 L 209.101562 230.609375 L 208.609375 241.078125 L 208.113281 248.863281 L 207.34375 258.261719 L 206.464844 266.582031 L 205.203125 275.980469 L 204.160156 282.152344 L 202.789062 288.867188 L 201.523438 293.96875 L 200.152344 298.53125 L 198.121094 303.898438 L 196.804688 306.585938 L 195.375 309 L 193.675781 311.148438 L 191.53125 313.027344 L 189.226562 314.101562 L 187.085938 314.371094 L 184.78125 313.832031 L 183.078125 312.761719 L 180.828125 310.34375 L 178.027344 305.511719 L 175.996094 300.410156 L 174.402344 295.308594 L 173.03125 289.941406 L 171.492188 282.691406 L 169.515625 270.878906 L 168.308594 261.75 L 167.484375 254.234375 L 166.550781 243.761719 L 165.894531 234.367188 L 165.125 219.332031 L 164.574219 200.269531 L 164.410156 185.503906 Z M 164.410156 148.457031 "/>
<path style=" stroke:none;fill-rule:nonzero;fill:rgb(14.509804%,36.078431%,60%);fill-opacity:1;" d="M 211.800781 297.628906 L 211.855469 297.601562 L 211.855469 296.949219 L 212.019531 295.921875 L 212.40625 294.621094 L 212.789062 293.726562 L 213.777344 292.128906 L 215.148438 290.582031 L 216.578125 289.390625 L 217.621094 288.6875 L 218.554688 288.144531 L 220.695312 287.144531 L 222.066406 286.628906 L 223.550781 286.167969 L 225.363281 285.707031 L 226.679688 285.4375 L 229.644531 285.003906 L 231.839844 284.8125 L 233.542969 284.730469 L 237.222656 284.730469 L 239.417969 284.839844 L 241.011719 284.976562 L 242.765625 285.191406 L 244.25 285.4375 L 246.828125 286.03125 L 249.136719 286.792969 L 250.179688 287.222656 L 251.824219 288.0625 L 253.089844 288.878906 L 253.96875 289.582031 L 254.957031 290.582031 L 255.832031 291.804688 L 256.492188 293.183594 L 256.820312 294.351562 L 249.136719 294.351562 L 248.75 293.265625 L 248.3125 292.425781 L 247.488281 291.316406 L 246.664062 290.53125 L 245.511719 289.742188 L 244.46875 289.230469 L 243.042969 288.714844 L 241.777344 288.390625 L 240.460938 288.144531 L 239.199219 287.984375 L 236.78125 287.820312 L 233.980469 287.820312 L 232.9375 287.875 L 230.796875 288.089844 L 229.644531 288.28125 L 227.996094 288.660156 L 226.84375 289.011719 L 225.472656 289.554688 L 224.539062 290.015625 L 223.386719 290.71875 L 222.5625 291.34375 L 221.628906 292.238281 L 221.078125 292.914062 L 220.585938 293.671875 L 220.144531 294.566406 L 219.816406 295.515625 L 219.597656 296.515625 L 219.488281 297.492188 L 219.488281 301.691406 L 219.597656 302.667969 L 219.871094 303.804688 L 220.585938 305.457031 L 221.628906 306.894531 L 222.835938 308.03125 L 223.988281 308.84375 L 224.648438 309.222656 L 225.527344 309.65625 L 226.898438 310.199219 L 228.875 310.742188 L 230.027344 310.957031 L 231.785156 311.171875 L 233.597656 311.28125 L 236.011719 311.28125 L 238.15625 311.171875 L 239.582031 311.039062 L 241.066406 310.820312 L 243.097656 310.359375 L 244.359375 309.925781 L 245.457031 309.414062 L 246.28125 308.898438 L 246.828125 308.464844 L 247.652344 307.625 L 248.3125 306.703125 L 248.804688 305.753906 L 249.136719 304.835938 L 256.820312 304.835938 L 256.492188 305.917969 L 256 306.972656 L 255.503906 307.761719 L 254.734375 308.707031 L 253.855469 309.546875 L 252.59375 310.496094 L 251.550781 311.121094 L 250.179688 311.796875 L 248.914062 312.3125 L 247.542969 312.773438 L 245.511719 313.3125 L 244.195312 313.585938 L 242.765625 313.828125 L 241.066406 314.046875 L 238.921875 314.234375 L 236.617188 314.34375 L 234.476562 314.371094 L 232.171875 314.316406 L 230.46875 314.207031 L 228.21875 313.964844 L 225.417969 313.476562 L 223.386719 312.960938 L 221.792969 312.445312 L 220.421875 311.90625 L 218.882812 311.171875 L 216.90625 309.980469 L 215.699219 309.0625 L 214.875 308.300781 L 213.941406 307.246094 L 213.285156 306.296875 L 212.515625 304.78125 L 211.964844 302.855469 L 211.800781 301.367188 Z M 211.800781 297.628906 "/>
<path style=" stroke:none;fill-rule:nonzero;fill:rgb(83.921569%,15.686275%,22.352941%);fill-opacity:1;" d="M 211.800781 110.757812 L 256.820312 110.757812 L 256.820312 129.253906 L 238.058594 129.417969 L 238.058594 283.550781 L 230.507812 283.550781 L 230.507812 129.578125 L 230.398438 129.253906 L 211.800781 129.253906 Z M 211.800781 110.757812 "/>
<path style=" stroke:none;fill-rule:nonzero;fill:rgb(6.27451%,58.823529%,28.235294%);fill-opacity:1;" d="M 259.191406 287.160156 L 259.238281 287.113281 L 278.71875 236.742188 L 284.636719 236.742188 L 304.210938 287.207031 L 297.335938 287.207031 L 292.429688 274.035156 L 270.929688 274.035156 L 266.117188 287.160156 L 259.191406 287.160156 L 272.996094 268.585938 L 290.457031 268.539062 L 281.75 244.988281 L 281.652344 244.941406 L 281.558594 245.082031 L 272.949219 268.539062 L 272.996094 268.585938 Z M 259.191406 287.160156 "/>
<path style=" stroke:none;fill-rule:nonzero;fill:rgb(14.509804%,36.078431%,60%);fill-opacity:1;" d="M 259.191406 292.953125 L 259.246094 292.941406 L 259.246094 292.710938 L 259.410156 292.347656 L 259.796875 291.886719 L 260.179688 291.570312 L 261.167969 291.003906 L 262.539062 290.457031 L 263.96875 290.035156 L 265.011719 289.789062 L 265.945312 289.597656 L 268.085938 289.242188 L 269.457031 289.058594 L 270.941406 288.894531 L 272.753906 288.734375 L 274.070312 288.636719 L 277.035156 288.484375 L 279.230469 288.417969 L 280.933594 288.386719 L 284.613281 288.386719 L 286.808594 288.425781 L 288.398438 288.472656 L 290.15625 288.550781 L 291.640625 288.636719 L 294.21875 288.847656 L 296.527344 289.117188 L 297.570312 289.269531 L 299.214844 289.566406 L 300.480469 289.855469 L 301.359375 290.105469 L 302.347656 290.457031 L 303.222656 290.890625 L 303.882812 291.378906 L 304.210938 291.792969 L 296.527344 291.792969 L 296.140625 291.40625 L 295.703125 291.109375 L 294.878906 290.71875 L 294.054688 290.441406 L 292.902344 290.160156 L 291.859375 289.980469 L 290.433594 289.796875 L 289.167969 289.683594 L 287.851562 289.597656 L 286.589844 289.539062 L 284.171875 289.480469 L 281.371094 289.480469 L 280.328125 289.5 L 278.1875 289.578125 L 277.035156 289.644531 L 275.386719 289.777344 L 274.234375 289.902344 L 272.863281 290.09375 L 271.929688 290.257812 L 270.777344 290.507812 L 269.953125 290.726562 L 269.019531 291.042969 L 268.46875 291.285156 L 267.976562 291.550781 L 267.535156 291.867188 L 267.207031 292.203125 L 266.988281 292.558594 L 266.878906 292.902344 L 266.878906 294.390625 L 266.988281 294.734375 L 267.261719 295.136719 L 267.976562 295.722656 L 269.019531 296.230469 L 270.226562 296.632812 L 271.378906 296.921875 L 272.039062 297.054688 L 272.917969 297.207031 L 274.289062 297.398438 L 276.265625 297.59375 L 277.417969 297.667969 L 279.175781 297.746094 L 280.988281 297.785156 L 283.402344 297.785156 L 285.546875 297.746094 L 286.972656 297.699219 L 288.457031 297.621094 L 290.488281 297.457031 L 291.75 297.304688 L 292.847656 297.121094 L 293.671875 296.941406 L 294.21875 296.785156 L 295.042969 296.488281 L 295.703125 296.164062 L 296.195312 295.828125 L 296.527344 295.503906 L 304.210938 295.503906 L 303.882812 295.886719 L 303.390625 296.257812 L 302.894531 296.539062 L 302.125 296.871094 L 301.246094 297.171875 L 299.984375 297.503906 L 298.941406 297.726562 L 297.570312 297.964844 L 296.304688 298.148438 L 294.933594 298.3125 L 292.902344 298.503906 L 291.585938 298.597656 L 290.15625 298.683594 L 288.457031 298.761719 L 286.3125 298.828125 L 284.007812 298.867188 L 281.867188 298.875 L 279.5625 298.859375 L 277.859375 298.820312 L 275.609375 298.734375 L 272.808594 298.558594 L 270.777344 298.378906 L 269.183594 298.195312 L 267.8125 298.003906 L 266.273438 297.746094 L 264.296875 297.324219 L 263.089844 296.996094 L 262.265625 296.730469 L 261.332031 296.355469 L 260.675781 296.019531 L 259.90625 295.484375 L 259.355469 294.800781 L 259.191406 294.273438 Z M 259.191406 292.953125 "/>
<path style=" stroke:none;fill-rule:nonzero;fill:rgb(96.862745%,70.196078%,16.862745%);fill-opacity:1;" d="M 259.191406 302.910156 L 259.246094 302.902344 L 259.246094 302.78125 L 259.464844 302.507812 L 260.015625 302.132812 L 260.730469 301.820312 L 261.496094 301.578125 L 261.992188 301.449219 L 262.816406 301.265625 L 263.527344 301.132812 L 265.339844 300.859375 L 267.648438 300.605469 L 268.910156 300.496094 L 270.335938 300.390625 L 272.367188 300.273438 L 273.300781 300.234375 L 276.15625 300.136719 L 279.394531 300.074219 L 282.964844 300.054688 L 284.613281 300.0625 L 286.863281 300.085938 L 289.9375 300.152344 L 291.695312 300.214844 L 293.066406 300.273438 L 294.496094 300.355469 L 296.25 300.476562 L 297.898438 300.621094 L 299.214844 300.769531 L 300.535156 300.949219 L 301.632812 301.144531 L 302.566406 301.359375 L 303.390625 301.613281 L 303.882812 301.828125 L 304.210938 302.039062 L 296.582031 302.039062 L 296.140625 301.828125 L 295.648438 301.664062 L 294.824219 301.460938 L 294 301.316406 L 293.175781 301.199219 L 291.640625 301.042969 L 290.320312 300.945312 L 288.675781 300.859375 L 287.082031 300.804688 L 285.269531 300.769531 L 284.171875 300.757812 L 281.261719 300.757812 L 278.628906 300.796875 L 277.089844 300.847656 L 275.992188 300.894531 L 274.453125 300.988281 L 273.519531 301.058594 L 272.972656 301.109375 L 271.324219 301.296875 L 270.226562 301.46875 L 269.625 301.582031 L 268.855469 301.765625 L 268.304688 301.929688 L 267.703125 302.175781 L 267.371094 302.355469 L 266.933594 302.769531 L 266.878906 303.867188 L 267.042969 304.097656 L 267.371094 304.347656 L 267.8125 304.566406 L 268.46875 304.796875 L 269.128906 304.972656 L 270.28125 305.210938 L 271.269531 305.367188 L 272.039062 305.472656 L 273.519531 305.636719 L 274.125 305.691406 L 275.554688 305.800781 L 277.035156 305.886719 L 278.847656 305.957031 L 280.21875 305.996094 L 282.414062 306.027344 L 285.214844 306.027344 L 288.511719 305.988281 L 290.597656 305.941406 L 292.023438 305.890625 L 292.957031 305.847656 L 294.109375 305.78125 L 294.933594 305.722656 L 295.703125 305.65625 L 296.636719 305.550781 L 296.636719 304.097656 L 283.074219 304.089844 L 283.074219 303.410156 L 304.15625 303.402344 L 304.210938 305.78125 L 303.058594 305.945312 L 301.632812 306.105469 L 300.257812 306.226562 L 298.832031 306.328125 L 296.800781 306.445312 L 295.152344 306.519531 L 292.628906 306.605469 L 290.320312 306.660156 L 287.90625 306.695312 L 285.765625 306.714844 L 283.238281 306.71875 L 280.988281 306.707031 L 278.574219 306.671875 L 276.652344 306.621094 L 274.894531 306.5625 L 273.136719 306.480469 L 270.941406 306.355469 L 269.511719 306.25 L 268.03125 306.121094 L 266.546875 305.972656 L 265.230469 305.804688 L 264.351562 305.679688 L 263.472656 305.53125 L 262.539062 305.351562 L 261.664062 305.144531 L 261.003906 304.953125 L 260.398438 304.742188 L 259.960938 304.539062 L 259.519531 304.265625 L 259.300781 304.046875 L 259.191406 303.859375 Z M 259.191406 302.910156 "/>
<path style=" stroke:none;fill-rule:nonzero;fill:rgb(83.921569%,15.686275%,22.352941%);fill-opacity:1;" d="M 259.191406 307.898438 L 304.210938 307.898438 L 304.210938 308.589844 L 285.449219 308.597656 L 285.449219 314.371094 L 277.898438 314.371094 L 277.898438 308.605469 L 277.789062 308.589844 L 259.191406 308.589844 Z M 259.191406 307.898438 "/>
<path style=" stroke:none;fill-rule:nonzero;fill:rgb(6.27451%,58.823529%,28.235294%);fill-opacity:1;" d="M 306.582031 314.367188 L 306.628906 314.359375 L 326.109375 308.609375 L 332.027344 308.609375 L 351.601562 314.371094 L 344.726562 314.371094 L 339.820312 312.867188 L 318.320312 312.867188 L 313.507812 314.367188 L 306.582031 314.367188 L 320.386719 312.246094 L 337.847656 312.238281 L 329.140625 309.550781 L 329.042969 309.542969 L 328.949219 309.5625 L 320.339844 312.238281 L 320.386719 312.246094 Z M 306.582031 314.367188 "/>
<path style=" stroke:none;fill-rule:nonzero;fill:rgb(14.509804%,36.078431%,60%);fill-opacity:1;" d="M 306.582031 203.492188 L 306.636719 203.351562 L 306.636719 199.988281 L 306.800781 194.664062 L 307.1875 187.941406 L 307.570312 183.316406 L 308.558594 175.050781 L 309.929688 167.066406 L 311.359375 160.898438 L 312.402344 157.257812 L 313.335938 154.457031 L 315.476562 149.273438 L 316.847656 146.609375 L 318.332031 144.226562 L 320.144531 141.847656 L 321.460938 140.445312 L 324.425781 138.203125 L 326.621094 137.222656 L 328.324219 136.800781 L 332.003906 136.800781 L 334.199219 137.363281 L 335.789062 138.0625 L 337.546875 139.183594 L 339.03125 140.445312 L 341.609375 143.527344 L 343.917969 147.449219 L 344.960938 149.691406 L 346.605469 154.035156 L 347.871094 158.238281 L 348.75 161.882812 L 349.738281 167.066406 L 350.613281 173.371094 L 351.273438 180.515625 L 351.601562 186.539062 L 343.917969 186.539062 L 343.53125 180.933594 L 343.09375 176.59375 L 342.269531 170.847656 L 341.445312 166.785156 L 340.292969 162.722656 L 339.25 160.058594 L 337.824219 157.398438 L 336.558594 155.714844 L 335.242188 154.457031 L 333.980469 153.613281 L 331.5625 152.773438 L 328.761719 152.773438 L 327.71875 153.054688 L 325.578125 154.175781 L 324.425781 155.15625 L 322.777344 157.117188 L 321.625 158.9375 L 320.253906 161.742188 L 319.320312 164.121094 L 318.167969 167.765625 L 317.34375 170.988281 L 316.410156 175.609375 L 315.859375 179.113281 L 315.367188 183.035156 L 314.925781 187.660156 L 314.597656 192.5625 L 314.378906 197.746094 L 314.269531 202.789062 L 314.269531 224.507812 L 314.378906 229.550781 L 314.652344 235.433594 L 315.367188 243.980469 L 316.410156 251.40625 L 317.617188 257.289062 L 318.769531 261.492188 L 319.429688 263.457031 L 320.308594 265.695312 L 321.679688 268.5 L 323.65625 271.300781 L 324.808594 272.421875 L 326.566406 273.542969 L 328.378906 274.101562 L 330.792969 274.101562 L 332.9375 273.542969 L 334.363281 272.84375 L 335.847656 271.722656 L 337.878906 269.339844 L 339.140625 267.097656 L 340.238281 264.4375 L 341.0625 261.773438 L 341.609375 259.53125 L 342.433594 255.1875 L 343.09375 250.425781 L 343.585938 245.523438 L 343.917969 240.757812 L 351.601562 240.757812 L 351.273438 246.363281 L 350.78125 251.828125 L 350.285156 255.890625 L 349.515625 260.792969 L 348.636719 265.136719 L 347.375 270.039062 L 346.332031 273.261719 L 344.960938 276.765625 L 343.695312 279.425781 L 342.324219 281.808594 L 340.292969 284.609375 L 338.976562 286.011719 L 337.546875 287.273438 L 335.847656 288.394531 L 333.703125 289.375 L 331.398438 289.933594 L 329.257812 290.074219 L 326.953125 289.792969 L 325.25 289.234375 L 323 287.972656 L 320.199219 285.453125 L 318.167969 282.789062 L 316.574219 280.128906 L 315.203125 277.324219 L 313.664062 273.542969 L 311.6875 267.378906 L 310.480469 262.613281 L 309.65625 258.691406 L 308.722656 253.226562 L 308.066406 248.324219 L 307.296875 240.480469 L 306.746094 230.53125 L 306.582031 222.824219 Z M 306.582031 203.492188 "/>
<path style=" stroke:none;fill-rule:nonzero;fill:rgb(96.862745%,70.196078%,16.862745%);fill-opacity:1;" d="M 306.582031 303.390625 L 306.636719 303.382812 L 306.636719 303.253906 L 306.855469 302.964844 L 307.40625 302.566406 L 308.121094 302.234375 L 308.886719 301.976562 L 309.382812 301.84375 L 310.207031 301.648438 L 310.917969 301.507812 L 312.730469 301.21875 L 315.039062 300.945312 L 316.300781 300.828125 L 317.726562 300.71875 L 319.757812 300.597656 L 320.691406 300.550781 L 323.546875 300.449219 L 326.785156 300.382812 L 330.355469 300.367188 L 332.003906 300.371094 L 334.253906 300.398438 L 337.328125 300.46875 L 339.085938 300.53125 L 340.457031 300.597656 L 341.886719 300.679688 L 343.640625 300.808594 L 345.289062 300.964844 L 346.605469 301.121094 L 347.925781 301.3125 L 349.023438 301.519531 L 349.957031 301.746094 L 350.78125 302.015625 L 351.273438 302.242188 L 351.601562 302.46875 L 343.972656 302.46875 L 343.53125 302.242188 L 343.039062 302.070312 L 342.214844 301.855469 L 341.390625 301.699219 L 340.566406 301.578125 L 339.03125 301.410156 L 337.710938 301.308594 L 336.066406 301.21875 L 334.472656 301.160156 L 332.660156 301.121094 L 331.5625 301.105469 L 328.652344 301.105469 L 326.019531 301.152344 L 324.480469 301.203125 L 323.382812 301.253906 L 321.84375 301.351562 L 320.910156 301.429688 L 320.363281 301.480469 L 318.714844 301.679688 L 317.617188 301.863281 L 317.015625 301.984375 L 316.246094 302.179688 L 315.695312 302.351562 L 315.09375 302.609375 L 314.761719 302.804688 L 314.324219 303.242188 L 314.269531 304.402344 L 314.433594 304.648438 L 314.761719 304.914062 L 315.203125 305.144531 L 315.859375 305.390625 L 316.519531 305.578125 L 317.671875 305.828125 L 318.660156 305.996094 L 319.429688 306.105469 L 320.910156 306.28125 L 321.515625 306.339844 L 322.945312 306.453125 L 324.425781 306.546875 L 326.238281 306.621094 L 327.609375 306.660156 L 329.804688 306.695312 L 332.605469 306.695312 L 335.902344 306.65625 L 337.988281 306.601562 L 339.414062 306.550781 L 340.347656 306.507812 L 341.5 306.4375 L 342.324219 306.371094 L 343.09375 306.300781 L 344.027344 306.191406 L 344.027344 304.648438 L 330.464844 304.640625 L 330.464844 303.917969 L 351.546875 303.914062 L 351.601562 306.4375 L 350.449219 306.609375 L 349.023438 306.777344 L 347.648438 306.90625 L 346.222656 307.015625 L 344.191406 307.140625 L 342.542969 307.214844 L 340.019531 307.304688 L 337.710938 307.363281 L 335.296875 307.402344 L 333.15625 307.421875 L 330.628906 307.429688 L 328.378906 307.417969 L 325.964844 307.378906 L 324.042969 307.324219 L 322.285156 307.261719 L 320.527344 307.175781 L 318.332031 307.042969 L 316.902344 306.933594 L 315.421875 306.796875 L 313.9375 306.636719 L 312.621094 306.460938 L 311.742188 306.324219 L 310.863281 306.171875 L 309.929688 305.976562 L 309.054688 305.757812 L 308.394531 305.558594 L 307.789062 305.332031 L 307.351562 305.121094 L 306.910156 304.828125 L 306.691406 304.597656 L 306.582031 304.398438 Z M 306.582031 303.390625 "/>
<path style=" stroke:none;fill-rule:nonzero;fill:rgb(83.921569%,15.686275%,22.352941%);fill-opacity:1;" d="M 306.582031 291.253906 L 351.601562 291.253906 L 351.601562 292.101562 L 332.839844 292.109375 L 332.839844 299.1875 L 325.289062 299.1875 L 325.289062 292.117188 L 325.179688 292.101562 L 306.582031 292.101562 Z M 306.582031 291.253906 "/>
<path style=" stroke:none;fill-rule:nonzero;fill:rgb(6.27451%,58.823529%,28.235294%);fill-opacity:1;" d="M 353.972656 283.695312 L 354.019531 283.640625 L 373.5 227.324219 L 379.417969 227.324219 L 398.992188 283.746094 L 392.117188 283.746094 L 387.210938 269.019531 L 365.707031 269.019531 L 360.898438 283.695312 L 353.972656 283.695312 L 367.777344 262.925781 L 385.238281 262.875 L 376.53125 236.542969 L 376.433594 236.488281 L 376.339844 236.648438 L 367.730469 262.875 L 367.777344 262.925781 Z M 353.972656 283.695312 "/>
<path style=" stroke:none;fill-rule:nonzero;fill:rgb(14.509804%,36.078431%,60%);fill-opacity:1;" d="M 353.972656 291.960938 L 354.027344 291.945312 L 354.027344 291.59375 L 354.191406 291.03125 L 354.578125 290.320312 L 354.960938 289.832031 L 355.949219 288.960938 L 357.320312 288.121094 L 358.75 287.46875 L 359.792969 287.085938 L 360.726562 286.789062 L 362.867188 286.242188 L 364.238281 285.960938 L 365.722656 285.710938 L 367.535156 285.460938 L 368.851562 285.3125 L 371.816406 285.074219 L 374.011719 284.972656 L 375.714844 284.925781 L 379.394531 284.925781 L 381.589844 284.988281 L 383.179688 285.058594 L 384.9375 285.179688 L 386.421875 285.3125 L 389 285.636719 L 391.308594 286.050781 L 392.351562 286.285156 L 393.996094 286.746094 L 395.261719 287.1875 L 396.140625 287.574219 L 397.128906 288.121094 L 398.003906 288.785156 L 398.664062 289.539062 L 398.992188 290.171875 L 391.308594 290.171875 L 390.921875 289.582031 L 390.484375 289.125 L 389.660156 288.519531 L 388.835938 288.089844 L 387.683594 287.660156 L 386.640625 287.378906 L 385.210938 287.101562 L 383.949219 286.921875 L 382.632812 286.789062 L 381.371094 286.699219 L 378.953125 286.613281 L 376.152344 286.613281 L 375.109375 286.640625 L 372.96875 286.761719 L 371.816406 286.863281 L 370.167969 287.070312 L 369.015625 287.261719 L 367.644531 287.558594 L 366.710938 287.808594 L 365.558594 288.191406 L 364.734375 288.53125 L 363.800781 289.019531 L 363.25 289.390625 L 362.757812 289.804688 L 362.316406 290.292969 L 361.988281 290.808594 L 361.769531 291.355469 L 361.660156 291.886719 L 361.660156 294.179688 L 361.769531 294.710938 L 362.042969 295.332031 L 362.757812 296.230469 L 363.800781 297.015625 L 365.007812 297.636719 L 366.160156 298.078125 L 366.820312 298.285156 L 367.699219 298.523438 L 369.070312 298.816406 L 371.046875 299.113281 L 372.199219 299.230469 L 373.957031 299.351562 L 375.769531 299.410156 L 378.183594 299.410156 L 380.328125 299.351562 L 381.753906 299.277344 L 383.238281 299.15625 L 385.269531 298.90625 L 386.53125 298.671875 L 387.628906 298.390625 L 388.453125 298.109375 L 389 297.871094 L 389.824219 297.414062 L 390.484375 296.910156 L 390.976562 296.394531 L 391.308594 295.890625 L 398.992188 295.890625 L 398.664062 296.484375 L 398.171875 297.058594 L 397.675781 297.488281 L 396.90625 298.003906 L 396.027344 298.464844 L 394.765625 298.980469 L 393.722656 299.320312 L 392.351562 299.691406 L 391.085938 299.96875 L 389.714844 300.222656 L 387.683594 300.515625 L 386.367188 300.664062 L 384.9375 300.796875 L 383.238281 300.917969 L 381.09375 301.019531 L 378.789062 301.078125 L 376.648438 301.09375 L 374.34375 301.0625 L 372.640625 301.003906 L 370.390625 300.871094 L 367.589844 300.605469 L 365.558594 300.324219 L 363.964844 300.042969 L 362.59375 299.75 L 361.054688 299.351562 L 359.078125 298.699219 L 357.871094 298.199219 L 357.046875 297.785156 L 356.113281 297.207031 L 355.453125 296.691406 L 354.6875 295.863281 L 354.136719 294.8125 L 353.972656 294 Z M 353.972656 291.960938 "/>
<path style=" stroke:none;fill-rule:nonzero;fill:rgb(96.862745%,70.196078%,16.862745%);fill-opacity:1;" d="M 353.972656 305.894531 L 354.027344 305.886719 L 354.027344 305.734375 L 354.246094 305.386719 L 354.796875 304.90625 L 355.511719 304.511719 L 356.277344 304.203125 L 356.773438 304.042969 L 357.597656 303.808594 L 358.308594 303.640625 L 360.121094 303.292969 L 362.429688 302.96875 L 363.691406 302.828125 L 365.117188 302.699219 L 367.148438 302.550781 L 368.082031 302.496094 L 370.9375 302.375 L 374.175781 302.296875 L 377.746094 302.273438 L 379.394531 302.28125 L 381.644531 302.3125 L 384.71875 302.398438 L 386.476562 302.472656 L 387.847656 302.550781 L 389.277344 302.652344 L 391.03125 302.804688 L 392.679688 302.992188 L 393.996094 303.175781 L 395.316406 303.410156 L 396.414062 303.65625 L 397.347656 303.925781 L 398.171875 304.25 L 398.664062 304.519531 L 398.992188 304.792969 L 391.363281 304.792969 L 390.921875 304.519531 L 390.429688 304.3125 L 389.605469 304.058594 L 388.78125 303.871094 L 387.957031 303.726562 L 386.421875 303.523438 L 385.101562 303.402344 L 383.457031 303.292969 L 381.863281 303.222656 L 380.050781 303.175781 L 378.953125 303.160156 L 376.042969 303.160156 L 373.410156 303.214844 L 371.871094 303.277344 L 370.773438 303.339844 L 369.234375 303.453125 L 368.300781 303.546875 L 367.753906 303.609375 L 366.105469 303.847656 L 365.007812 304.066406 L 364.40625 304.210938 L 363.636719 304.445312 L 363.085938 304.652344 L 362.484375 304.960938 L 362.152344 305.191406 L 361.714844 305.71875 L 361.660156 307.109375 L 361.824219 307.402344 L 362.152344 307.71875 L 362.59375 307.996094 L 363.25 308.289062 L 363.910156 308.511719 L 365.0625 308.816406 L 366.050781 309.015625 L 366.820312 309.148438 L 368.300781 309.355469 L 368.90625 309.425781 L 370.332031 309.5625 L 371.816406 309.671875 L 373.628906 309.765625 L 375 309.8125 L 377.195312 309.851562 L 379.996094 309.851562 L 383.292969 309.804688 L 385.378906 309.742188 L 386.804688 309.679688 L 387.738281 309.625 L 388.890625 309.539062 L 389.714844 309.464844 L 390.484375 309.378906 L 391.417969 309.246094 L 391.417969 307.402344 L 377.855469 307.394531 L 377.855469 306.527344 L 398.9375 306.519531 L 398.992188 309.539062 L 397.839844 309.75 L 396.414062 309.949219 L 395.039062 310.105469 L 393.613281 310.234375 L 391.582031 310.382812 L 389.933594 310.476562 L 387.410156 310.582031 L 385.101562 310.652344 L 382.6875 310.699219 L 380.546875 310.722656 L 378.019531 310.730469 L 375.769531 310.714844 L 373.355469 310.667969 L 371.433594 310.605469 L 369.675781 310.53125 L 367.917969 310.429688 L 365.722656 310.265625 L 364.292969 310.136719 L 362.8125 309.972656 L 361.328125 309.78125 L 360.011719 309.570312 L 359.132812 309.410156 L 358.253906 309.222656 L 357.320312 308.992188 L 356.441406 308.730469 L 355.785156 308.492188 L 355.179688 308.21875 L 354.742188 307.964844 L 354.300781 307.617188 L 354.082031 307.339844 L 353.972656 307.101562 Z M 353.972656 305.894531 "/>
<path style=" stroke:none;fill-rule:nonzero;fill:rgb(83.921569%,15.686275%,22.352941%);fill-opacity:1;" d="M 353.972656 311.910156 L 398.992188 311.910156 L 398.992188 312.171875 L 380.230469 312.175781 L 380.230469 314.371094 L 372.679688 314.371094 L 372.679688 312.179688 L 372.570312 312.171875 L 353.972656 312.171875 Z M 353.972656 311.910156 "/>
<path style=" stroke:none;fill-rule:nonzero;fill:rgb(6.27451%,58.823529%,28.235294%);fill-opacity:1;" d="M 401.363281 303.660156 L 401.410156 303.65625 L 420.890625 295.929688 L 426.808594 295.929688 L 446.382812 303.667969 L 439.507812 303.667969 L 434.601562 301.648438 L 413.097656 301.648438 L 408.289062 303.660156 L 401.363281 303.660156 L 415.167969 300.8125 L 432.628906 300.804688 L 423.921875 297.195312 L 423.824219 297.1875 L 423.730469 297.210938 L 415.121094 300.804688 L 415.167969 300.8125 Z M 401.363281 303.660156 "/>
<path style=" stroke:none;fill-rule:nonzero;fill:rgb(14.509804%,36.078431%,60%);fill-opacity:1;" d="M 401.363281 307.726562 L 401.417969 307.71875 L 401.417969 307.574219 L 401.582031 307.34375 L 401.96875 307.054688 L 402.351562 306.855469 L 403.339844 306.5 L 404.710938 306.152344 L 406.140625 305.886719 L 407.183594 305.730469 L 408.117188 305.609375 L 410.257812 305.386719 L 411.628906 305.273438 L 413.113281 305.167969 L 414.925781 305.066406 L 416.242188 305.007812 L 419.207031 304.910156 L 421.402344 304.867188 L 423.105469 304.847656 L 426.785156 304.847656 L 428.980469 304.871094 L 430.570312 304.902344 L 432.328125 304.953125 L 433.8125 305.007812 L 436.390625 305.140625 L 438.699219 305.308594 L 439.742188 305.40625 L 441.386719 305.59375 L 442.652344 305.773438 L 443.527344 305.929688 L 444.515625 306.152344 L 445.394531 306.425781 L 446.054688 306.734375 L 446.382812 306.996094 L 438.699219 306.996094 L 438.3125 306.753906 L 437.875 306.566406 L 437.050781 306.316406 L 436.226562 306.140625 L 435.074219 305.96875 L 434.03125 305.851562 L 432.601562 305.738281 L 431.339844 305.664062 L 430.023438 305.609375 L 428.761719 305.574219 L 426.34375 305.539062 L 423.542969 305.539062 L 422.5 305.550781 L 420.359375 305.597656 L 419.207031 305.640625 L 417.558594 305.726562 L 416.40625 305.804688 L 415.035156 305.925781 L 414.101562 306.027344 L 412.949219 306.183594 L 412.125 306.324219 L 411.191406 306.523438 L 410.640625 306.675781 L 410.148438 306.84375 L 409.707031 307.042969 L 409.378906 307.253906 L 409.160156 307.476562 L 409.050781 307.695312 L 409.050781 308.632812 L 409.160156 308.851562 L 409.433594 309.105469 L 410.148438 309.472656 L 411.191406 309.792969 L 412.398438 310.046875 L 413.550781 310.226562 L 414.210938 310.3125 L 415.089844 310.410156 L 416.460938 310.53125 L 418.4375 310.652344 L 419.589844 310.699219 L 421.347656 310.746094 L 423.160156 310.773438 L 425.574219 310.773438 L 427.71875 310.746094 L 429.144531 310.71875 L 430.625 310.667969 L 432.660156 310.566406 L 433.921875 310.46875 L 435.019531 310.355469 L 435.84375 310.238281 L 436.390625 310.144531 L 437.214844 309.957031 L 437.875 309.75 L 438.367188 309.539062 L 438.699219 309.332031 L 446.382812 309.332031 L 446.054688 309.574219 L 445.5625 309.8125 L 445.066406 309.984375 L 444.296875 310.199219 L 443.417969 310.386719 L 442.15625 310.597656 L 441.113281 310.734375 L 439.742188 310.886719 L 438.476562 311 L 437.105469 311.105469 L 435.074219 311.226562 L 433.757812 311.285156 L 432.328125 311.339844 L 430.625 311.386719 L 428.484375 311.429688 L 426.179688 311.453125 L 424.039062 311.460938 L 421.734375 311.449219 L 420.03125 311.425781 L 417.78125 311.371094 L 414.980469 311.261719 L 412.949219 311.144531 L 411.355469 311.03125 L 409.984375 310.910156 L 408.445312 310.746094 L 406.46875 310.480469 L 405.261719 310.277344 L 404.4375 310.105469 L 403.503906 309.871094 L 402.84375 309.660156 L 402.078125 309.320312 L 401.527344 308.890625 L 401.363281 308.558594 Z M 401.363281 307.726562 "/>
<path style=" stroke:none;fill-rule:nonzero;fill:rgb(96.862745%,70.196078%,16.862745%);fill-opacity:1;" d="M 401.363281 313.382812 L 401.417969 313.378906 L 401.417969 313.347656 L 401.636719 313.277344 L 402.1875 313.179688 L 402.902344 313.097656 L 403.667969 313.035156 L 404.164062 313.003906 L 404.988281 312.953125 L 405.699219 312.917969 L 407.511719 312.847656 L 409.820312 312.78125 L 411.082031 312.753906 L 412.507812 312.726562 L 414.539062 312.695312 L 415.472656 312.6875 L 418.328125 312.660156 L 421.566406 312.644531 L 425.136719 312.640625 L 426.785156 312.640625 L 429.035156 312.648438 L 432.109375 312.664062 L 433.867188 312.679688 L 435.238281 312.695312 L 436.667969 312.71875 L 438.421875 312.75 L 440.070312 312.789062 L 441.386719 312.824219 L 442.707031 312.871094 L 443.804688 312.921875 L 444.738281 312.976562 L 445.5625 313.042969 L 446.054688 313.101562 L 446.382812 313.15625 L 438.753906 313.15625 L 438.3125 313.101562 L 437.820312 313.058594 L 436.996094 313.003906 L 436.171875 312.96875 L 435.347656 312.9375 L 433.8125 312.894531 L 432.492188 312.871094 L 430.847656 312.847656 L 429.253906 312.835938 L 427.441406 312.824219 L 426.34375 312.820312 L 423.433594 312.820312 L 420.800781 312.832031 L 419.261719 312.84375 L 418.164062 312.859375 L 416.625 312.882812 L 415.691406 312.902344 L 415.144531 312.914062 L 413.496094 312.960938 L 412.398438 313.007812 L 411.796875 313.035156 L 411.027344 313.085938 L 410.476562 313.125 L 409.875 313.191406 L 409.542969 313.238281 L 409.105469 313.34375 L 409.050781 313.628906 L 409.214844 313.691406 L 409.542969 313.753906 L 409.984375 313.8125 L 410.640625 313.871094 L 411.300781 313.917969 L 412.453125 313.980469 L 413.441406 314.019531 L 414.210938 314.046875 L 415.691406 314.089844 L 416.296875 314.105469 L 417.722656 314.132812 L 419.207031 314.152344 L 421.019531 314.171875 L 422.390625 314.183594 L 424.585938 314.191406 L 427.386719 314.191406 L 430.683594 314.179688 L 432.769531 314.167969 L 434.195312 314.15625 L 435.128906 314.144531 L 436.28125 314.128906 L 437.105469 314.113281 L 437.875 314.09375 L 438.808594 314.066406 L 438.808594 313.691406 L 425.246094 313.6875 L 425.246094 313.511719 L 446.328125 313.507812 L 446.382812 314.128906 L 445.230469 314.171875 L 443.804688 314.210938 L 442.429688 314.242188 L 441.003906 314.269531 L 438.972656 314.300781 L 437.324219 314.320312 L 434.800781 314.339844 L 432.492188 314.355469 L 430.078125 314.363281 L 427.9375 314.367188 L 425.410156 314.371094 L 423.160156 314.367188 L 420.746094 314.359375 L 418.824219 314.34375 L 417.066406 314.328125 L 415.308594 314.308594 L 413.113281 314.277344 L 411.683594 314.25 L 410.203125 314.214844 L 408.71875 314.175781 L 407.402344 314.132812 L 406.523438 314.101562 L 405.644531 314.0625 L 404.710938 314.015625 L 403.832031 313.960938 L 403.175781 313.914062 L 402.570312 313.855469 L 402.132812 313.804688 L 401.691406 313.734375 L 401.472656 313.675781 L 401.363281 313.628906 Z M 401.363281 313.382812 "/>
<path style=" stroke:none;fill-rule:nonzero;fill:rgb(83.921569%,15.686275%,22.352941%);fill-opacity:1;" d="M 401.363281 276.875 L 446.382812 276.875 L 446.382812 278.789062 L 427.621094 278.804688 L 427.621094 294.75 L 420.070312 294.75 L 420.070312 278.820312 L 419.960938 278.789062 L 401.363281 278.789062 Z M 401.363281 276.875 "/>
<path style=" stroke:none;fill-rule:nonzero;fill:rgb(83.921569%,15.686275%,22.352941%);fill-opacity:1;" d="M 448.753906 20.664062 L 493.773438 20.664062 L 493.773438 52.101562 L 475.011719 52.378906 L 475.011719 314.371094 L 467.460938 314.371094 L 467.460938 52.652344 L 467.351562 52.101562 L 448.753906 52.101562 Z M 448.753906 20.664062 "/>
<path style=" stroke:none;fill-rule:nonzero;fill:rgb(83.921569%,15.686275%,22.352941%);fill-opacity:1;" d="M 496.144531 20.664062 L 541.164062 20.664062 L 541.164062 52.101562 L 522.402344 52.378906 L 522.402344 314.371094 L 514.851562 314.371094 L 514.851562 52.652344 L 514.742188 52.101562 L 496.144531 52.101562 Z M 496.144531 20.664062 "/>
<path style=" stroke:none;fill-rule:nonzero;fill:rgb(14.509804%,36.078431%,60%);fill-opacity:1;" d="M 543.535156 148.457031 L 543.589844 148.1875 L 543.589844 141.742188 L 543.753906 131.542969 L 544.140625 118.65625 L 544.523438 109.796875 L 545.511719 93.957031 L 546.882812 78.652344 L 548.3125 66.839844 L 549.355469 59.859375 L 550.289062 54.492188 L 552.429688 44.558594 L 553.800781 39.457031 L 555.285156 34.890625 L 557.097656 30.328125 L 558.414062 27.644531 L 561.378906 23.347656 L 563.574219 21.46875 L 565.277344 20.664062 L 568.957031 20.664062 L 571.152344 21.738281 L 572.742188 23.078125 L 574.5 25.226562 L 575.984375 27.644531 L 578.5625 33.550781 L 580.871094 41.066406 L 581.914062 45.363281 L 583.558594 53.683594 L 584.824219 61.738281 L 585.699219 68.71875 L 586.6875 78.652344 L 587.566406 90.734375 L 588.226562 104.425781 L 588.554688 115.96875 L 580.871094 115.96875 L 580.484375 105.230469 L 580.046875 96.910156 L 579.222656 85.902344 L 578.398438 78.117188 L 577.246094 70.332031 L 576.203125 65.230469 L 574.773438 60.128906 L 573.511719 56.90625 L 572.195312 54.492188 L 570.933594 52.878906 L 568.515625 51.269531 L 565.714844 51.269531 L 564.671875 51.804688 L 562.53125 53.953125 L 561.378906 55.832031 L 559.730469 59.589844 L 558.578125 63.082031 L 557.207031 68.449219 L 556.273438 73.015625 L 555.121094 79.996094 L 554.296875 86.171875 L 553.363281 95.03125 L 552.8125 101.742188 L 552.320312 109.257812 L 551.878906 118.117188 L 551.550781 127.515625 L 551.332031 137.449219 L 551.222656 147.113281 L 551.222656 188.726562 L 551.332031 198.390625 L 551.605469 209.667969 L 552.320312 226.042969 L 553.363281 240.273438 L 554.570312 251.546875 L 555.722656 259.601562 L 556.382812 263.359375 L 557.261719 267.65625 L 558.632812 273.027344 L 560.609375 278.394531 L 561.761719 280.542969 L 563.519531 282.691406 L 565.332031 283.765625 L 567.746094 283.765625 L 569.886719 282.691406 L 571.316406 281.347656 L 572.796875 279.199219 L 574.828125 274.636719 L 576.09375 270.339844 L 577.191406 265.242188 L 578.015625 260.140625 L 578.5625 255.84375 L 579.386719 247.519531 L 580.046875 238.394531 L 580.539062 228.996094 L 580.871094 219.867188 L 588.554688 219.867188 L 588.226562 230.609375 L 587.730469 241.078125 L 587.238281 248.863281 L 586.46875 258.261719 L 585.589844 266.582031 L 584.328125 275.980469 L 583.285156 282.152344 L 581.914062 288.867188 L 580.648438 293.96875 L 579.277344 298.53125 L 577.246094 303.898438 L 575.929688 306.585938 L 574.5 309 L 572.796875 311.148438 L 570.65625 313.027344 L 568.351562 314.101562 L 566.210938 314.371094 L 563.902344 313.832031 L 562.203125 312.761719 L 559.949219 310.34375 L 557.152344 305.511719 L 555.121094 300.410156 L 553.527344 295.308594 L 552.15625 289.941406 L 550.617188 282.691406 L 548.640625 270.878906 L 547.433594 261.75 L 546.609375 254.234375 L 545.675781 243.761719 L 545.015625 234.367188 L 544.25 219.332031 L 543.699219 200.269531 L 543.535156 185.503906 Z M 543.535156 148.457031 "/>
<path style=" stroke:none;fill-rule:nonzero;fill:rgb(14.509804%,36.078431%,60%);fill-opacity:1;" d="M 590.925781 148.457031 L 590.980469 148.1875 L 590.980469 141.742188 L 591.144531 131.542969 L 591.53125 118.65625 L 591.914062 109.796875 L 592.902344 93.957031 L 594.273438 78.652344 L 595.703125 66.839844 L 596.746094 59.859375 L 597.679688 54.492188 L 599.820312 44.558594 L 601.191406 39.457031 L 602.675781 34.890625 L 604.488281 30.328125 L 605.804688 27.644531 L 608.769531 23.347656 L 610.964844 21.46875 L 612.667969 20.664062 L 616.347656 20.664062 L 618.542969 21.738281 L 620.132812 23.078125 L 621.890625 25.226562 L 623.375 27.644531 L 625.953125 33.550781 L 628.261719 41.066406 L 629.304688 45.363281 L 630.949219 53.683594 L 632.214844 61.738281 L 633.089844 68.71875 L 634.078125 78.652344 L 634.957031 90.734375 L 635.617188 104.425781 L 635.945312 115.96875 L 628.261719 115.96875 L 627.875 105.230469 L 627.4375 96.910156 L 626.613281 85.902344 L 625.789062 78.117188 L 624.636719 70.332031 L 623.59375 65.230469 L 622.164062 60.128906 L 620.902344 56.90625 L 619.585938 54.492188 L 618.324219 52.878906 L 615.90625 51.269531 L 613.105469 51.269531 L 612.0625 51.804688 L 609.921875 53.953125 L 608.769531 55.832031 L 607.121094 59.589844 L 605.96875 63.082031 L 604.597656 68.449219 L 603.664062 73.015625 L 602.511719 79.996094 L 601.6875 86.171875 L 600.753906 95.03125 L 600.203125 101.742188 L 599.710938 109.257812 L 599.269531 118.117188 L 598.941406 127.515625 L 598.722656 137.449219 L 598.613281 147.113281 L 598.613281 188.726562 L 598.722656 198.390625 L 598.996094 209.667969 L 599.710938 226.042969 L 600.753906 240.273438 L 601.960938 251.546875 L 603.113281 259.601562 L 603.773438 263.359375 L 604.652344 267.65625 L 606.023438 273.027344 L 608 278.394531 L 609.152344 280.542969 L 610.910156 282.691406 L 612.722656 283.765625 L 615.136719 283.765625 L 617.277344 282.691406 L 618.707031 281.347656 L 620.1875 279.199219 L 622.21875 274.636719 L 623.484375 270.339844 L 624.582031 265.242188 L 625.40625 260.140625 L 625.953125 255.84375 L 626.777344 247.519531 L 627.4375 238.394531 L 627.929688 228.996094 L 628.261719 219.867188 L 635.945312 219.867188 L 635.617188 230.609375 L 635.121094 241.078125 L 634.628906 248.863281 L 633.859375 258.261719 L 632.980469 266.582031 L 631.71875 275.980469 L 630.675781 282.152344 L 629.304688 288.867188 L 628.039062 293.96875 L 626.667969 298.53125 L 624.636719 303.898438 L 623.320312 306.585938 L 621.890625 309 L 620.1875 311.148438 L 618.046875 313.027344 L 615.742188 314.101562 L 613.601562 314.371094 L 611.292969 313.832031 L 609.59375 312.761719 L 607.339844 310.34375 L 604.542969 305.511719 L 602.511719 300.410156 L 600.917969 295.308594 L 599.546875 289.941406 L 598.007812 282.691406 L 596.03125 270.878906 L 594.824219 261.75 L 594 254.234375 L 593.066406 243.761719 L 592.40625 234.367188 L 591.640625 219.332031 L 591.089844 200.269531 L 590.925781 185.503906 Z M 590.925781 148.457031 "/>
<path style=" stroke:none;fill-rule:nonzero;fill:rgb(14.509804%,36.078431%,60%);fill-opacity:1;" d="M 638.316406 172.742188 L 638.371094 172.542969 L 638.371094 167.738281 L 638.535156 160.132812 L 638.921875 150.523438 L 639.304688 143.917969 L 640.292969 132.105469 L 641.664062 120.695312 L 643.09375 111.886719 L 644.136719 106.683594 L 645.070312 102.679688 L 647.210938 95.273438 L 648.582031 91.46875 L 650.066406 88.066406 L 651.878906 84.664062 L 653.195312 82.660156 L 656.160156 79.457031 L 658.355469 78.058594 L 660.058594 77.457031 L 663.738281 77.457031 L 665.933594 78.257812 L 667.523438 79.257812 L 669.28125 80.859375 L 670.765625 82.660156 L 673.34375 87.066406 L 675.652344 92.671875 L 676.695312 95.875 L 678.339844 102.078125 L 679.605469 108.085938 L 680.480469 113.289062 L 681.46875 120.695312 L 682.347656 129.703125 L 683.007812 139.914062 L 683.335938 148.519531 L 675.652344 148.519531 L 675.265625 140.515625 L 674.828125 134.308594 L 674.003906 126.101562 L 673.179688 120.296875 L 672.027344 114.492188 L 670.984375 110.6875 L 669.554688 106.882812 L 668.292969 104.480469 L 666.976562 102.679688 L 665.714844 101.480469 L 663.296875 100.277344 L 660.496094 100.277344 L 659.453125 100.679688 L 657.3125 102.28125 L 656.160156 103.679688 L 654.511719 106.484375 L 653.359375 109.085938 L 651.988281 113.089844 L 651.054688 116.492188 L 649.902344 121.695312 L 649.078125 126.300781 L 648.144531 132.90625 L 647.59375 137.910156 L 647.101562 143.515625 L 646.660156 150.121094 L 646.332031 157.128906 L 646.113281 164.535156 L 646.003906 171.742188 L 646.003906 202.769531 L 646.113281 209.976562 L 646.386719 218.386719 L 647.101562 230.597656 L 648.144531 241.207031 L 649.351562 249.613281 L 650.503906 255.617188 L 651.164062 258.421875 L 652.042969 261.625 L 653.414062 265.628906 L 655.390625 269.632812 L 656.542969 271.234375 L 658.300781 272.835938 L 660.113281 273.636719 L 662.527344 273.636719 L 664.667969 272.835938 L 666.097656 271.832031 L 667.578125 270.230469 L 669.609375 266.828125 L 670.875 263.625 L 671.972656 259.824219 L 672.796875 256.019531 L 673.34375 252.816406 L 674.167969 246.609375 L 674.828125 239.804688 L 675.320312 232.796875 L 675.652344 225.992188 L 683.335938 225.992188 L 683.007812 234 L 682.511719 241.804688 L 682.019531 247.613281 L 681.25 254.617188 L 680.371094 260.824219 L 679.109375 267.828125 L 678.066406 272.433594 L 676.695312 277.4375 L 675.429688 281.242188 L 674.058594 284.644531 L 672.027344 288.648438 L 670.710938 290.652344 L 669.28125 292.453125 L 667.578125 294.054688 L 665.4375 295.453125 L 663.132812 296.253906 L 660.992188 296.457031 L 658.683594 296.054688 L 656.984375 295.253906 L 654.730469 293.453125 L 651.933594 289.851562 L 649.902344 286.046875 L 648.308594 282.242188 L 646.9375 278.238281 L 645.398438 272.835938 L 643.421875 264.027344 L 642.214844 257.21875 L 641.390625 251.613281 L 640.457031 243.808594 L 639.796875 236.800781 L 639.03125 225.589844 L 638.480469 211.378906 L 638.316406 200.367188 Z M 638.316406 172.742188 "/>
<path style=" stroke:none;fill-rule:nonzero;fill:rgb(96.862745%,70.196078%,16.862745%);fill-opacity:1;" d="M 638.316406 304.804688 L 638.371094 304.789062 L 638.371094 304.480469 L 638.589844 303.792969 L 639.140625 302.847656 L 639.851562 302.066406 L 640.621094 301.457031 L 641.117188 301.136719 L 641.941406 300.675781 L 642.652344 300.339844 L 644.464844 299.652344 L 646.769531 299.011719 L 648.035156 298.734375 L 649.460938 298.476562 L 651.492188 298.1875 L 652.425781 298.078125 L 655.28125 297.835938 L 658.519531 297.679688 L 662.089844 297.636719 L 663.738281 297.652344 L 665.988281 297.710938 L 669.0625 297.878906 L 670.820312 298.03125 L 672.191406 298.1875 L 673.617188 298.382812 L 675.375 298.691406 L 677.023438 299.058594 L 678.339844 299.421875 L 679.660156 299.882812 L 680.757812 300.371094 L 681.691406 300.90625 L 682.511719 301.546875 L 683.007812 302.082031 L 683.335938 302.617188 L 675.707031 302.617188 L 675.265625 302.082031 L 674.773438 301.671875 L 673.949219 301.164062 L 673.125 300.800781 L 672.300781 300.507812 L 670.765625 300.109375 L 669.445312 299.867188 L 667.800781 299.652344 L 666.207031 299.515625 L 664.394531 299.421875 L 663.296875 299.394531 L 660.386719 299.394531 L 657.75 299.5 L 656.214844 299.621094 L 655.117188 299.746094 L 653.578125 299.972656 L 652.644531 300.15625 L 652.097656 300.28125 L 650.449219 300.753906 L 649.351562 301.179688 L 648.746094 301.472656 L 647.980469 301.929688 L 647.429688 302.34375 L 646.824219 302.953125 L 646.496094 303.414062 L 646.058594 304.453125 L 646.003906 307.203125 L 646.167969 307.785156 L 646.496094 308.410156 L 646.9375 308.960938 L 647.59375 309.542969 L 648.253906 309.984375 L 649.40625 310.582031 L 650.394531 310.976562 L 651.164062 311.238281 L 652.644531 311.648438 L 653.25 311.789062 L 654.675781 312.0625 L 656.160156 312.277344 L 657.972656 312.460938 L 659.34375 312.550781 L 661.539062 312.628906 L 664.339844 312.628906 L 667.632812 312.535156 L 669.722656 312.414062 L 671.148438 312.292969 L 672.082031 312.183594 L 673.234375 312.015625 L 674.058594 311.863281 L 674.828125 311.695312 L 675.761719 311.4375 L 675.761719 307.785156 L 662.199219 307.769531 L 662.199219 306.054688 L 683.28125 306.042969 L 683.335938 312.015625 L 682.183594 312.429688 L 680.757812 312.828125 L 679.382812 313.132812 L 677.957031 313.390625 L 675.925781 313.683594 L 674.277344 313.867188 L 671.753906 314.082031 L 669.445312 314.21875 L 667.03125 314.308594 L 664.890625 314.355469 L 662.363281 314.371094 L 660.113281 314.339844 L 657.695312 314.25 L 655.773438 314.125 L 654.019531 313.972656 L 652.261719 313.773438 L 650.066406 313.453125 L 648.636719 313.195312 L 647.15625 312.871094 L 645.671875 312.492188 L 644.355469 312.078125 L 643.476562 311.757812 L 642.597656 311.390625 L 641.664062 310.933594 L 640.785156 310.414062 L 640.128906 309.9375 L 639.523438 309.402344 L 639.085938 308.898438 L 638.644531 308.210938 L 638.425781 307.660156 L 638.316406 307.1875 Z M 638.316406 304.804688 "/>
<g style="fill:rgb(0%,0%,0%);fill-opacity:1;">
  <use xlink:href="#glyph0-1" x="21.957031" y="318.198242"/>
  <use xlink:href="#glyph0-2" x="27.291016" y="318.198242"/>
  <use xlink:href="#glyph0-1" x="29.958008" y="318.198242"/>
</g>
<g style="fill:rgb(0%,0%,0%);fill-opacity:1;">
  <use xlink:href="#glyph0-1" x="21.957031" y="244.475586"/>
  <use xlink:href="#glyph0-2" x="27.291016" y="244.475586"/>
  <use xlink:href="#glyph0-3" x="29.958008" y="244.475586"/>
</g>
<g style="fill:rgb(0%,0%,0%);fill-opacity:1;">
  <use xlink:href="#glyph0-4" x="21.957031" y="170.75293"/>
  <use xlink:href="#glyph0-2" x="27.291016" y="170.75293"/>
  <use xlink:href="#glyph0-1" x="29.958008" y="170.75293"/>
</g>
<g style="fill:rgb(0%,0%,0%);fill-opacity:1;">
  <use xlink:href="#glyph0-4" x="21.957031" y="97.03418"/>
  <use xlink:href="#glyph0-2" x="27.291016" y="97.03418"/>
  <use xlink:href="#glyph0-3" x="29.958008" y="97.03418"/>
</g>
<g style="fill:rgb(0%,0%,0%);fill-opacity:1;">
  <use xlink:href="#glyph0-5" x="21.957031" y="23.311523"/>
  <use xlink:href="#glyph0-2" x="27.291016" y="23.311523"/>
  <use xlink:href="#glyph0-1" x="29.958008" y="23.311523"/>
</g>
<g style="fill:rgb(0%,0%,0%);fill-opacity:1;">
  <use xlink:href="#glyph0-4" x="89.140625" y="338.19043"/>
</g>
<g style="fill:rgb(0%,0%,0%);fill-opacity:1;">
  <use xlink:href="#glyph0-5" x="136.53125" y="338.19043"/>
</g>
<g style="fill:rgb(0%,0%,0%);fill-opacity:1;">
  <use xlink:href="#glyph0-6" x="183.921875" y="338.19043"/>
</g>
<g style="fill:rgb(0%,0%,0%);fill-opacity:1;">
  <use xlink:href="#glyph0-7" x="231.3125" y="338.19043"/>
</g>
<g style="fill:rgb(0%,0%,0%);fill-opacity:1;">
  <use xlink:href="#glyph0-3" x="278.703125" y="338.19043"/>
</g>
<g style="fill:rgb(0%,0%,0%);fill-opacity:1;">
  <use xlink:href="#glyph0-8" x="326.09375" y="338.19043"/>
</g>
<g style="fill:rgb(0%,0%,0%);fill-opacity:1;">
  <use xlink:href="#glyph0-9" x="373.484375" y="338.19043"/>
</g>
<g style="fill:rgb(0%,0%,0%);fill-opacity:1;">
  <use xlink:href="#glyph0-10" x="420.875" y="338.19043"/>
</g>
<g style="fill:rgb(0%,0%,0%);fill-opacity:1;">
  <use xlink:href="#glyph0-11" x="468.265625" y="338.19043"/>
</g>
<g style="fill:rgb(0%,0%,0%);fill-opacity:1;">
  <use xlink:href="#glyph0-4" x="513.15625" y="338.19043"/>
  <use xlink:href="#glyph0-1" x="518.490234" y="338.19043"/>
</g>
<g style="fill:rgb(0%,0%,0%);fill-opacity:1;">
  <use xlink:href="#glyph0-4" x="560.546875" y="338.19043"/>
  <use xlink:href="#glyph0-4" x="565.880859" y="338.19043"/>
</g>
<g style="fill:rgb(0%,0%,0%);fill-opacity:1;">
  <use xlink:href="#glyph0-4" x="607.9375" y="338.19043"/>
  <use xlink:href="#glyph0-5" x="613.271484" y="338.19043"/>
</g>
<g style="fill:rgb(0%,0%,0%);fill-opacity:1;">
  <use xlink:href="#glyph0-4" x="655.328125" y="338.19043"/>
  <use xlink:href="#glyph0-6" x="660.662109" y="338.19043"/>
</g>
<g style="fill:rgb(0%,0%,0%);fill-opacity:1;">
  <use xlink:href="#glyph1-1" x="14.412109" y="178.015625"/>
  <use xlink:href="#glyph1-2" x="14.412109" y="170.011719"/>
  <use xlink:href="#glyph1-3" x="14.412109" y="167.347656"/>
  <use xlink:href="#glyph1-4" x="14.412109" y="164.011719"/>
</g>
</g>
</svg>
