<?xml version="1.0" encoding="UTF-8"?>
<svg xmlns="http://www.w3.org/2000/svg" xmlns:xlink="http://www.w3.org/1999/xlink" width="720pt" height="360pt" viewBox="0 0 720 360" version="1.1">
<defs>
<g>
<symbol overflow="visible" id="glyph0-0">
<path style="stroke:none;" d=""/>
</symbol>
<symbol overflow="visible" id="glyph0-1">
<path style="stroke:none;" d="M 2.640625 -6.796875 C 2 -6.796875 1.421875 -6.53125 1.078125 -6.046875 C 0.640625 -5.453125 0.40625 -4.546875 0.40625 -3.296875 C 0.40625 -1 1.1875 0.21875 2.640625 0.21875 C 4.078125 0.21875 4.859375 -1 4.859375 -3.234375 C 4.859375 -4.5625 4.65625 -5.4375 4.203125 -6.046875 C 3.84375 -6.53125 3.28125 -6.796875 2.640625 -6.796875 Z M 2.640625 -6.046875 C 3.546875 -6.046875 4 -5.125 4 -3.3125 C 4 -1.375 3.5625 -0.484375 2.625 -0.484375 C 1.734375 -0.484375 1.28125 -1.421875 1.28125 -3.28125 C 1.28125 -5.140625 1.734375 -6.046875 2.640625 -6.046875 Z M 2.640625 -6.046875 "/>
</symbol>
<symbol overflow="visible" id="glyph0-2">
<path style="stroke:none;" d="M 1.828125 -1 L 0.828125 -1 L 0.828125 0 L 1.828125 0 Z M 1.828125 -1 "/>
</symbol>
<symbol overflow="visible" id="glyph0-3">
<path style="stroke:none;" d="M 4.5625 -6.796875 L 1.0625 -6.796875 L 0.546875 -3.09375 L 1.328125 -3.09375 C 1.71875 -3.5625 2.046875 -3.734375 2.578125 -3.734375 C 3.484375 -3.734375 4.0625 -3.109375 4.0625 -2.09375 C 4.0625 -1.125 3.484375 -0.53125 2.578125 -0.53125 C 1.828125 -0.53125 1.375 -0.90625 1.1875 -1.671875 L 0.328125 -1.671875 C 0.453125 -1.109375 0.546875 -0.84375 0.75 -0.59375 C 1.125 -0.078125 1.828125 0.21875 2.59375 0.21875 C 3.96875 0.21875 4.921875 -0.78125 4.921875 -2.21875 C 4.921875 -3.5625 4.03125 -4.484375 2.71875 -4.484375 C 2.25 -4.484375 1.859375 -4.359375 1.46875 -4.0625 L 1.734375 -5.96875 L 4.5625 -5.96875 Z M 4.5625 -6.796875 "/>
</symbol>
<symbol overflow="visible" id="glyph0-4">
<path style="stroke:none;" d="M 2.484375 -4.84375 L 2.484375 0 L 3.328125 0 L 3.328125 -6.796875 L 2.765625 -6.796875 C 2.46875 -5.75 2.28125 -5.609375 0.984375 -5.453125 L 0.984375 -4.84375 Z M 2.484375 -4.84375 "/>
</symbol>
<symbol overflow="visible" id="glyph0-5">
<path style="stroke:none;" d="M 4.859375 -0.828125 L 1.28125 -0.828125 C 1.359375 -1.390625 1.671875 -1.75 2.5 -2.234375 L 3.46875 -2.75 C 4.40625 -3.265625 4.90625 -3.96875 4.90625 -4.8125 C 4.90625 -5.375 4.671875 -5.90625 4.265625 -6.265625 C 3.859375 -6.625 3.375 -6.796875 2.71875 -6.796875 C 1.859375 -6.796875 1.21875 -6.5 0.84375 -5.921875 C 0.609375 -5.5625 0.5 -5.125 0.484375 -4.4375 L 1.328125 -4.4375 C 1.359375 -4.90625 1.40625 -5.1875 1.53125 -5.40625 C 1.75 -5.8125 2.1875 -6.0625 2.703125 -6.0625 C 3.46875 -6.0625 4.03125 -5.515625 4.03125 -4.78125 C 4.03125 -4.25 3.71875 -3.796875 3.125 -3.4375 L 2.234375 -2.9375 C 0.8125 -2.140625 0.40625 -1.5 0.328125 0 L 4.859375 0 Z M 4.859375 -0.828125 "/>
</symbol>
<symbol overflow="visible" id="glyph0-6">
<path style="stroke:none;" d="M 2.125 -3.125 L 2.578125 -3.125 C 3.515625 -3.125 3.984375 -2.703125 3.984375 -1.890625 C 3.984375 -1.03125 3.46875 -0.53125 2.578125 -0.53125 C 1.65625 -0.53125 1.203125 -0.984375 1.15625 -1.96875 L 0.3125 -1.96875 C 0.34375 -1.421875 0.4375 -1.078125 0.609375 -0.765625 C 0.953125 -0.109375 1.625 0.21875 2.546875 0.21875 C 3.953125 0.21875 4.859375 -0.609375 4.859375 -1.90625 C 4.859375 -2.765625 4.515625 -3.25 3.703125 -3.515625 C 4.34375 -3.765625 4.65625 -4.25 4.65625 -4.9375 C 4.65625 -6.109375 3.875 -6.796875 2.578125 -6.796875 C 1.203125 -6.796875 0.484375 -6.046875 0.453125 -4.609375 L 1.296875 -4.609375 C 1.3125 -5.015625 1.34375 -5.25 1.453125 -5.453125 C 1.640625 -5.828125 2.0625 -6.0625 2.59375 -6.0625 C 3.34375 -6.0625 3.796875 -5.625 3.796875 -4.90625 C 3.796875 -4.421875 3.609375 -4.140625 3.25 -3.984375 C 3.015625 -3.890625 2.71875 -3.84375 2.125 -3.84375 Z M 2.125 -3.125 "/>
</symbol>
<symbol overflow="visible" id="glyph0-7">
<path style="stroke:none;" d="M 3.140625 -1.625 L 3.140625 0 L 3.984375 0 L 3.984375 -1.625 L 4.984375 -1.625 L 4.984375 -2.390625 L 3.984375 -2.390625 L 3.984375 -6.796875 L 3.359375 -6.796875 L 0.265625 -2.515625 L 0.265625 -1.625 Z M 3.140625 -2.390625 L 1 -2.390625 L 3.140625 -5.359375 Z M 3.140625 -2.390625 "/>
</symbol>
<symbol overflow="visible" id="glyph0-8">
<path style="stroke:none;" d="M 4.78125 -5.03125 C 4.609375 -6.140625 3.890625 -6.796875 2.84375 -6.796875 C 2.09375 -6.796875 1.421875 -6.4375 1.03125 -5.828125 C 0.609375 -5.171875 0.40625 -4.34375 0.40625 -3.09375 C 0.40625 -1.953125 0.578125 -1.234375 0.984375 -0.625 C 1.359375 -0.078125 1.953125 0.21875 2.703125 0.21875 C 3.984375 0.21875 4.921875 -0.734375 4.921875 -2.078125 C 4.921875 -3.34375 4.0625 -4.234375 2.84375 -4.234375 C 2.171875 -4.234375 1.640625 -3.96875 1.28125 -3.46875 C 1.28125 -5.125 1.828125 -6.046875 2.796875 -6.046875 C 3.390625 -6.046875 3.796875 -5.671875 3.9375 -5.03125 Z M 2.734375 -3.484375 C 3.546875 -3.484375 4.0625 -2.921875 4.0625 -2 C 4.0625 -1.15625 3.484375 -0.53125 2.703125 -0.53125 C 1.921875 -0.53125 1.328125 -1.1875 1.328125 -2.046875 C 1.328125 -2.890625 1.90625 -3.484375 2.734375 -3.484375 Z M 2.734375 -3.484375 "/>
</symbol>
<symbol overflow="visible" id="glyph0-9">
<path style="stroke:none;" d="M 4.984375 -6.796875 L 0.4375 -6.796875 L 0.4375 -5.96875 L 4.109375 -5.96875 C 2.5 -3.65625 1.828125 -2.234375 1.328125 0 L 2.21875 0 C 2.59375 -2.171875 3.453125 -4.046875 4.984375 -6.09375 Z M 4.984375 -6.796875 "/>
</symbol>
<symbol overflow="visible" id="glyph0-10">
<path style="stroke:none;" d="M 3.75 -3.578125 C 4.453125 -4 4.6875 -4.34375 4.6875 -4.984375 C 4.6875 -6.046875 3.84375 -6.796875 2.640625 -6.796875 C 1.4375 -6.796875 0.59375 -6.046875 0.59375 -4.984375 C 0.59375 -4.359375 0.828125 -4.015625 1.515625 -3.578125 C 0.734375 -3.203125 0.359375 -2.640625 0.359375 -1.890625 C 0.359375 -0.640625 1.296875 0.21875 2.640625 0.21875 C 3.984375 0.21875 4.921875 -0.640625 4.921875 -1.875 C 4.921875 -2.640625 4.53125 -3.203125 3.75 -3.578125 Z M 2.640625 -6.046875 C 3.359375 -6.046875 3.8125 -5.625 3.8125 -4.96875 C 3.8125 -4.34375 3.34375 -3.921875 2.640625 -3.921875 C 1.921875 -3.921875 1.453125 -4.34375 1.453125 -4.984375 C 1.453125 -5.625 1.921875 -6.046875 2.640625 -6.046875 Z M 2.640625 -3.203125 C 3.484375 -3.203125 4.0625 -2.671875 4.0625 -1.875 C 4.0625 -1.0625 3.484375 -0.53125 2.625 -0.53125 C 1.796875 -0.53125 1.21875 -1.078125 1.21875 -1.875 C 1.21875 -2.671875 1.796875 -3.203125 2.640625 -3.203125 Z M 2.640625 -3.203125 "/>
</symbol>
<symbol overflow="visible" id="glyph0-11">
<path style="stroke:none;" d="M 0.515625 -1.546875 C 0.671875 -0.4375 1.40625 0.21875 2.4375 0.21875 C 3.1875 0.21875 3.859375 -0.140625 4.265625 -0.75 C 4.6875 -1.40625 4.890625 -2.25 4.890625 -3.484375 C 4.890625 -4.625 4.703125 -5.359375 4.3125 -5.953125 C 3.9375 -6.5 3.34375 -6.796875 2.59375 -6.796875 C 1.296875 -6.796875 0.359375 -5.84375 0.359375 -4.515625 C 0.359375 -3.25 1.234375 -2.34375 2.453125 -2.34375 C 3.09375 -2.34375 3.5625 -2.578125 4.015625 -3.109375 C 4 -1.453125 3.46875 -0.53125 2.5 -0.53125 C 1.90625 -0.53125 1.484375 -0.90625 1.359375 -1.546875 Z M 2.578125 -6.0625 C 3.375 -6.0625 3.96875 -5.40625 3.96875 -4.53125 C 3.96875 -3.6875 3.375 -3.09375 2.546875 -3.09375 C 1.734375 -3.09375 1.234375 -3.671875 1.234375 -4.578125 C 1.234375 -5.4375 1.796875 -6.0625 2.578125 -6.0625 Z M 2.578125 -6.0625 "/>
</symbol>
<symbol overflow="visible" id="glyph1-0">
<path style="stroke:none;" d=""/>
</symbol>
<symbol overflow="visible" id="glyph1-1">
<path style="stroke:none;" d="M 0 -0.953125 L 0 -4.890625 C 0 -5.71875 -0.234375 -6.34375 -0.734375 -6.796875 C -1.1875 -7.234375 -1.8125 -7.46875 -2.5 -7.46875 C -3.546875 -7.46875 -4.1875 -7 -4.625 -5.875 C -4.984375 -6.671875 -5.640625 -7.09375 -6.53125 -7.09375 C -7.15625 -7.09375 -7.734375 -6.859375 -8.140625 -6.390625 C -8.5625 -5.9375 -8.75 -5.34375 -8.75 -4.5 L -8.75 -0.953125 Z M -4.984375 -2.0625 L -7.765625 -2.0625 L -7.765625 -4.21875 C -7.765625 -4.84375 -7.6875 -5.203125 -7.453125 -5.5 C -7.21875 -5.8125 -6.859375 -5.96875 -6.375 -5.96875 C -5.90625 -5.96875 -5.53125 -5.8125 -5.296875 -5.5 C -5.0625 -5.203125 -4.984375 -4.84375 -4.984375 -4.21875 Z M -0.984375 -2.0625 L -4 -2.0625 L -4 -4.78125 C -4 -5.328125 -3.859375 -5.6875 -3.578125 -5.953125 C -3.296875 -6.21875 -2.921875 -6.359375 -2.484375 -6.359375 C -2.0625 -6.359375 -1.6875 -6.21875 -1.40625 -5.953125 C -1.109375 -5.6875 -0.984375 -5.328125 -0.984375 -4.78125 Z M -0.984375 -2.0625 "/>
</symbol>
<symbol overflow="visible" id="glyph1-2">
<path style="stroke:none;" d="M -6.28125 -1.796875 L -6.28125 -0.796875 L 0 -0.796875 L 0 -1.796875 Z M -8.75 -1.796875 L -8.75 -0.796875 L -7.484375 -0.796875 L -7.484375 -1.796875 Z M -8.75 -1.796875 "/>
</symbol>
<symbol overflow="visible" id="glyph1-3">
<path style="stroke:none;" d="M -6.28125 -3.046875 L -6.28125 -2.015625 L -8.015625 -2.015625 L -8.015625 -1.015625 L -6.28125 -1.015625 L -6.28125 -0.171875 L -5.46875 -0.171875 L -5.46875 -1.015625 L -0.71875 -1.015625 C -0.078125 -1.015625 0.28125 -1.453125 0.28125 -2.234375 C 0.28125 -2.46875 0.25 -2.71875 0.1875 -3.046875 L -0.640625 -3.046875 C -0.609375 -2.921875 -0.59375 -2.765625 -0.59375 -2.5625 C -0.59375 -2.140625 -0.71875 -2.015625 -1.15625 -2.015625 L -5.46875 -2.015625 L -5.46875 -3.046875 Z M -6.28125 -3.046875 "/>
</symbol>
<symbol overflow="visible" id="glyph1-4">
<path style="stroke:none;" d="M -4.53125 -5.25 C -5.765625 -5.25 -6.46875 -4.421875 -6.46875 -2.96875 C -6.46875 -1.515625 -5.71875 -0.5625 -4.546875 -0.5625 C -3.5625 -0.5625 -3.09375 -1.0625 -2.734375 -2.5625 L -2.515625 -3.484375 C -2.34375 -4.1875 -2.09375 -4.46875 -1.625 -4.46875 C -1.046875 -4.46875 -0.640625 -3.875 -0.640625 -3 C -0.640625 -2.453125 -0.796875 -2 -1.0625 -1.75 C -1.25 -1.59375 -1.421875 -1.53125 -1.875 -1.46875 L -1.875 -0.40625 C -0.421875 -0.453125 0.28125 -1.265625 0.28125 -2.921875 C 0.28125 -4.5 -0.5 -5.515625 -1.71875 -5.515625 C -2.65625 -5.515625 -3.171875 -4.984375 -3.46875 -3.734375 L -3.703125 -2.765625 C -3.890625 -1.953125 -4.15625 -1.609375 -4.59375 -1.609375 C -5.171875 -1.609375 -5.546875 -2.125 -5.546875 -2.9375 C -5.546875 -3.75 -5.203125 -4.171875 -4.53125 -4.203125 Z M -4.53125 -5.25 "/>
</symbol>
</g>
</defs>
<g id="surface44389">
<rect x="0" y="0" width="720" height="360" style="fill:rgb(100%,100%,100%);fill-opacity:1;stroke:none;"/>
<path style=" stroke:none;fill-rule:nonzero;fill:rgb(96.862745%,70.196078%,16.862745%);fill-opacity:1;" d="M 69.628906 146.460938 L 69.695312 146.191406 L 69.695312 140.828125 L 69.953125 128.757812 L 70.601562 112.128906 L 71.449219 98.449219 L 72.355469 87.71875 L 72.941406 82.085938 L 73.914062 74.039062 L 74.757812 68.140625 L 76.902344 56.070312 L 79.628906 44.804688 L 81.121094 39.976562 L 82.808594 35.414062 L 85.214844 30.320312 L 86.316406 28.441406 L 89.691406 24.148438 L 93.523438 21.46875 L 97.746094 20.664062 L 99.691406 20.929688 L 102.355469 22.003906 L 105.992188 24.953125 L 108.070312 27.636719 L 109.691406 30.320312 L 111.378906 33.804688 L 113.457031 39.171875 L 115.40625 45.609375 L 116.964844 52.046875 L 118.523438 60.09375 L 119.820312 68.675781 L 120.925781 78.0625 L 121.898438 89.328125 L 122.484375 98.714844 L 122.875 108.105469 L 113.847656 108.105469 L 113.328125 98.714844 L 112.742188 91.476562 L 111.769531 82.625 L 110.796875 76.1875 L 109.820312 71.089844 L 108.003906 64.117188 L 106.445312 59.824219 L 104.496094 56.070312 L 102.613281 53.65625 L 100.472656 52.046875 L 99.171875 51.507812 L 95.730469 51.507812 L 92.613281 53.386719 L 90.796875 55.53125 L 89.5 57.679688 L 87.679688 61.703125 L 86.578125 64.921875 L 85.925781 67.066406 L 83.980469 75.382812 L 82.679688 82.890625 L 81.964844 87.988281 L 81.058594 96.035156 L 80.40625 103.277344 L 79.695312 114.003906 L 79.304688 122.050781 L 78.785156 140.292969 L 78.71875 188.574219 L 78.914062 198.765625 L 79.304688 209.761719 L 79.824219 219.417969 L 80.601562 229.609375 L 81.382812 237.390625 L 82.746094 247.851562 L 83.914062 254.824219 L 84.824219 259.382812 L 86.578125 266.625 L 87.289062 269.039062 L 88.980469 273.867188 L 90.730469 277.625 L 92.875 280.84375 L 94.5 282.453125 L 97.09375 283.792969 L 100.40625 283.792969 L 104.304688 282.183594 L 106.769531 280.039062 L 108.457031 277.890625 L 109.5625 276.015625 L 110.925781 273.0625 L 111.898438 270.382812 L 112.808594 267.429688 L 113.914062 262.871094 L 113.914062 198.765625 L 97.875 198.496094 L 97.875 168.457031 L 122.808594 168.1875 L 122.875 273.0625 L 121.511719 280.304688 L 119.820312 287.28125 L 118.199219 292.644531 L 116.511719 297.203125 L 114.109375 302.300781 L 112.160156 305.519531 L 109.171875 309.273438 L 106.445312 311.6875 L 103.589844 313.296875 L 101.054688 314.101562 L 98.070312 314.371094 L 95.40625 313.835938 L 92.550781 312.226562 L 90.277344 310.078125 L 88.199219 307.398438 L 86.121094 303.910156 L 83.523438 298.277344 L 81.835938 293.71875 L 80.082031 288.085938 L 78.332031 281.378906 L 76.773438 274.136719 L 75.734375 268.503906 L 74.695312 262.066406 L 73.589844 254.019531 L 72.550781 244.898438 L 71.773438 236.585938 L 71.058594 227.195312 L 70.539062 218.34375 L 70.019531 206.277344 L 69.757812 196.621094 L 69.628906 188.304688 Z M 69.628906 146.460938 "/>
<path style=" stroke:none;fill-rule:nonzero;fill:rgb(96.862745%,70.196078%,16.862745%);fill-opacity:1;" d="M 125.675781 146.460938 L 125.742188 146.191406 L 125.742188 140.828125 L 126 128.757812 L 126.648438 112.128906 L 127.492188 98.449219 L 128.402344 87.71875 L 128.988281 82.085938 L 129.960938 74.039062 L 130.804688 68.140625 L 132.949219 56.070312 L 135.675781 44.804688 L 137.167969 39.976562 L 138.855469 35.414062 L 141.257812 30.320312 L 142.363281 28.441406 L 145.738281 24.148438 L 149.570312 21.46875 L 153.792969 20.664062 L 155.738281 20.929688 L 158.402344 22.003906 L 162.039062 24.953125 L 164.117188 27.636719 L 165.738281 30.320312 L 167.425781 33.804688 L 169.503906 39.171875 L 171.453125 45.609375 L 173.011719 52.046875 L 174.570312 60.09375 L 175.867188 68.675781 L 176.972656 78.0625 L 177.945312 89.328125 L 178.53125 98.714844 L 178.917969 108.105469 L 169.894531 108.105469 L 169.375 98.714844 L 168.789062 91.476562 L 167.816406 82.625 L 166.84375 76.1875 L 165.867188 71.089844 L 164.050781 64.117188 L 162.492188 59.824219 L 160.542969 56.070312 L 158.660156 53.65625 L 156.519531 52.046875 L 155.21875 51.507812 L 151.777344 51.507812 L 148.660156 53.386719 L 146.84375 55.53125 L 145.542969 57.679688 L 143.726562 61.703125 L 142.621094 64.921875 L 141.972656 67.066406 L 140.027344 75.382812 L 138.726562 82.890625 L 138.011719 87.988281 L 137.105469 96.035156 L 136.453125 103.277344 L 135.738281 114.003906 L 135.351562 122.050781 L 134.832031 140.292969 L 134.765625 188.574219 L 134.960938 198.765625 L 135.351562 209.761719 L 135.871094 219.417969 L 136.648438 229.609375 L 137.429688 237.390625 L 138.792969 247.851562 L 139.960938 254.824219 L 140.871094 259.382812 L 142.621094 266.625 L 143.335938 269.039062 L 145.023438 273.867188 L 146.777344 277.625 L 148.921875 280.84375 L 150.542969 282.453125 L 153.140625 283.792969 L 156.453125 283.792969 L 160.347656 282.183594 L 162.816406 280.039062 L 164.503906 277.890625 L 165.609375 276.015625 L 166.972656 273.0625 L 167.945312 270.382812 L 168.855469 267.429688 L 169.960938 262.871094 L 169.960938 198.765625 L 153.921875 198.496094 L 153.921875 168.457031 L 178.855469 168.1875 L 178.917969 273.0625 L 177.554688 280.304688 L 175.867188 287.28125 L 174.246094 292.644531 L 172.554688 297.203125 L 170.152344 302.300781 L 168.207031 305.519531 L 165.21875 309.273438 L 162.492188 311.6875 L 159.636719 313.296875 L 157.101562 314.101562 L 154.117188 314.371094 L 151.453125 313.835938 L 148.597656 312.226562 L 146.324219 310.078125 L 144.246094 307.398438 L 142.167969 303.910156 L 139.570312 298.277344 L 137.882812 293.71875 L 136.128906 288.085938 L 134.375 281.378906 L 132.816406 274.136719 L 131.777344 268.503906 L 130.742188 262.066406 L 129.636719 254.019531 L 128.597656 244.898438 L 127.820312 236.585938 L 127.105469 227.195312 L 126.585938 218.34375 L 126.066406 206.277344 L 125.804688 196.621094 L 125.675781 188.304688 Z M 125.675781 146.460938 "/>
<path style=" stroke:none;fill-rule:nonzero;fill:rgb(6.27451%,58.823529%,28.235294%);fill-opacity:1;" d="M 181.722656 314.09375 L 181.777344 313.820312 L 204.816406 20.664062 L 211.8125 20.664062 L 234.964844 314.371094 L 226.832031 314.371094 L 221.03125 237.703125 L 195.601562 237.703125 L 189.914062 314.09375 L 181.722656 314.09375 L 198.046875 205.988281 L 218.695312 205.710938 L 208.402344 68.648438 L 208.289062 68.375 L 208.171875 69.199219 L 197.992188 205.710938 L 198.046875 205.988281 Z M 181.722656 314.09375 "/>
<path style=" stroke:none;fill-rule:nonzero;fill:rgb(6.27451%,58.823529%,28.235294%);fill-opacity:1;" d="M 237.769531 314.304688 L 237.824219 314.242188 L 260.863281 245.332031 L 267.859375 245.332031 L 291.011719 314.371094 L 282.878906 314.371094 L 277.074219 296.347656 L 251.648438 296.347656 L 245.960938 314.304688 L 237.769531 314.304688 L 254.09375 288.894531 L 274.742188 288.828125 L 264.449219 256.609375 L 264.332031 256.546875 L 264.21875 256.742188 L 254.039062 288.828125 L 254.09375 288.894531 Z M 237.769531 314.304688 "/>
<path style=" stroke:none;fill-rule:nonzero;fill:rgb(96.862745%,70.196078%,16.862745%);fill-opacity:1;" d="M 237.769531 200.53125 L 237.832031 200.460938 L 237.832031 199.066406 L 238.09375 195.929688 L 238.742188 191.609375 L 239.585938 188.058594 L 240.496094 185.269531 L 241.078125 183.808594 L 242.054688 181.714844 L 242.898438 180.183594 L 245.039062 177.046875 L 247.769531 174.121094 L 249.261719 172.867188 L 250.949219 171.683594 L 253.351562 170.359375 L 254.457031 169.871094 L 257.832031 168.753906 L 261.664062 168.058594 L 265.882812 167.847656 L 267.832031 167.917969 L 270.492188 168.199219 L 274.128906 168.964844 L 276.207031 169.660156 L 277.832031 170.359375 L 279.519531 171.265625 L 281.597656 172.65625 L 283.546875 174.328125 L 285.105469 176.003906 L 286.660156 178.09375 L 287.960938 180.324219 L 289.066406 182.761719 L 290.039062 185.6875 L 290.621094 188.128906 L 291.011719 190.566406 L 281.988281 190.566406 L 281.46875 188.128906 L 280.882812 186.246094 L 279.910156 183.945312 L 278.933594 182.273438 L 277.960938 180.949219 L 276.144531 179.136719 L 274.585938 178.023438 L 272.636719 177.046875 L 270.753906 176.421875 L 268.609375 176.003906 L 267.3125 175.863281 L 263.871094 175.863281 L 260.753906 176.351562 L 258.9375 176.90625 L 257.636719 177.464844 L 255.820312 178.511719 L 254.714844 179.347656 L 254.066406 179.90625 L 252.117188 182.066406 L 250.820312 184.015625 L 250.105469 185.339844 L 249.195312 187.429688 L 248.546875 189.3125 L 247.832031 192.097656 L 247.441406 194.1875 L 246.921875 198.929688 L 246.859375 211.472656 L 247.054688 214.117188 L 247.441406 216.976562 L 247.960938 219.484375 L 248.742188 222.132812 L 249.519531 224.152344 L 250.882812 226.871094 L 252.054688 228.683594 L 252.960938 229.867188 L 254.714844 231.75 L 255.429688 232.375 L 257.117188 233.628906 L 258.871094 234.605469 L 261.015625 235.441406 L 262.636719 235.859375 L 265.234375 236.207031 L 268.546875 236.207031 L 272.441406 235.789062 L 274.910156 235.234375 L 276.597656 234.675781 L 277.703125 234.1875 L 279.066406 233.421875 L 280.039062 232.722656 L 280.949219 231.957031 L 282.050781 230.773438 L 282.050781 214.117188 L 266.015625 214.050781 L 266.015625 206.246094 L 290.949219 206.175781 L 291.011719 233.421875 L 289.648438 235.300781 L 287.960938 237.113281 L 286.335938 238.507812 L 284.648438 239.691406 L 282.246094 241.015625 L 280.296875 241.851562 L 277.3125 242.828125 L 274.585938 243.457031 L 271.726562 243.875 L 269.195312 244.082031 L 266.207031 244.152344 L 263.546875 244.011719 L 260.6875 243.59375 L 258.417969 243.039062 L 256.339844 242.339844 L 254.261719 241.433594 L 251.664062 239.972656 L 249.976562 238.785156 L 248.222656 237.324219 L 246.46875 235.582031 L 244.910156 233.699219 L 243.871094 232.238281 L 242.832031 230.5625 L 241.730469 228.472656 L 240.691406 226.105469 L 239.910156 223.945312 L 239.195312 221.503906 L 238.675781 219.207031 L 238.15625 216.070312 L 237.898438 213.5625 L 237.769531 211.402344 Z M 237.769531 200.53125 "/>
<path style=" stroke:none;fill-rule:nonzero;fill:rgb(6.27451%,58.823529%,28.235294%);fill-opacity:1;" d="M 293.816406 311.355469 L 293.871094 311.355469 L 316.910156 310.035156 L 323.90625 310.035156 L 347.058594 311.359375 L 338.925781 311.359375 L 333.121094 311.011719 L 307.695312 311.011719 L 302.007812 311.355469 L 293.816406 311.355469 L 310.140625 310.871094 L 330.789062 310.867188 L 320.492188 310.25 L 320.378906 310.25 L 320.265625 310.253906 L 310.082031 310.867188 L 310.140625 310.871094 Z M 293.816406 311.355469 "/>
<path style=" stroke:none;fill-rule:nonzero;fill:rgb(14.509804%,36.078431%,60%);fill-opacity:1;" d="M 293.816406 307.972656 L 293.878906 307.96875 L 293.878906 307.9375 L 294.074219 307.882812 L 294.527344 307.8125 L 294.984375 307.765625 L 296.152344 307.683594 L 297.777344 307.601562 L 299.464844 307.539062 L 300.699219 307.5 L 301.800781 307.472656 L 304.332031 307.417969 L 305.957031 307.390625 L 307.710938 307.367188 L 309.851562 307.34375 L 311.410156 307.328125 L 314.917969 307.308594 L 317.515625 307.296875 L 319.527344 307.292969 L 323.878906 307.292969 L 326.476562 307.296875 L 328.359375 307.304688 L 330.4375 307.316406 L 332.191406 307.328125 L 335.242188 307.359375 L 337.96875 307.402344 L 339.203125 307.425781 L 341.148438 307.46875 L 342.644531 307.511719 L 343.683594 307.546875 L 344.851562 307.601562 L 345.890625 307.664062 L 346.667969 307.738281 L 347.058594 307.800781 L 337.96875 307.800781 L 337.515625 307.742188 L 336.996094 307.699219 L 336.019531 307.640625 L 335.046875 307.597656 L 333.683594 307.558594 L 332.449219 307.53125 L 330.761719 307.503906 L 329.265625 307.484375 L 327.710938 307.472656 L 326.214844 307.464844 L 323.359375 307.457031 L 318.8125 307.457031 L 316.28125 307.46875 L 314.917969 307.480469 L 312.96875 307.5 L 311.605469 307.519531 L 309.984375 307.546875 L 308.878906 307.570312 L 307.515625 307.609375 L 306.542969 307.640625 L 305.4375 307.6875 L 304.789062 307.722656 L 304.203125 307.761719 L 303.683594 307.8125 L 303.292969 307.859375 L 303.035156 307.914062 L 302.90625 307.964844 L 302.90625 308.1875 L 303.035156 308.238281 L 303.359375 308.296875 L 304.203125 308.382812 L 305.4375 308.460938 L 306.867188 308.519531 L 308.230469 308.5625 L 309.007812 308.582031 L 310.046875 308.605469 L 311.671875 308.632812 L 314.007812 308.664062 L 315.371094 308.675781 L 317.449219 308.6875 L 319.59375 308.691406 L 322.449219 308.691406 L 324.980469 308.6875 L 326.671875 308.679688 L 328.421875 308.667969 L 330.824219 308.644531 L 332.320312 308.621094 L 333.617188 308.59375 L 334.59375 308.566406 L 335.242188 308.542969 L 336.214844 308.5 L 336.996094 308.449219 L 337.578125 308.398438 L 337.96875 308.351562 L 347.058594 308.351562 L 346.667969 308.410156 L 346.085938 308.464844 L 345.5 308.507812 L 344.589844 308.554688 L 343.550781 308.601562 L 342.058594 308.648438 L 340.824219 308.683594 L 339.203125 308.71875 L 337.707031 308.746094 L 336.085938 308.769531 L 333.683594 308.796875 L 332.125 308.8125 L 330.4375 308.824219 L 328.421875 308.835938 L 325.890625 308.847656 L 323.164062 308.851562 L 320.632812 308.855469 L 317.90625 308.851562 L 315.890625 308.847656 L 313.230469 308.832031 L 309.917969 308.808594 L 307.515625 308.78125 L 305.632812 308.753906 L 304.007812 308.722656 L 302.191406 308.6875 L 299.851562 308.621094 L 298.425781 308.574219 L 297.449219 308.535156 L 296.347656 308.480469 L 295.566406 308.429688 L 294.660156 308.347656 L 294.007812 308.246094 L 293.816406 308.167969 Z M 293.816406 307.972656 "/>
<path style=" stroke:none;fill-rule:nonzero;fill:rgb(96.862745%,70.196078%,16.862745%);fill-opacity:1;" d="M 293.816406 314.25 L 293.878906 314.25 L 293.878906 314.246094 L 294.140625 314.238281 L 294.789062 314.226562 L 295.632812 314.21875 L 296.542969 314.210938 L 297.125 314.207031 L 298.101562 314.199219 L 298.945312 314.195312 L 301.085938 314.1875 L 303.8125 314.179688 L 305.308594 314.175781 L 306.996094 314.171875 L 309.398438 314.167969 L 310.503906 314.167969 L 313.878906 314.164062 L 330.175781 314.164062 L 332.253906 314.167969 L 333.878906 314.167969 L 335.566406 314.171875 L 337.644531 314.175781 L 339.589844 314.179688 L 341.148438 314.183594 L 342.707031 314.191406 L 344.007812 314.195312 L 345.109375 314.203125 L 346.085938 314.210938 L 346.667969 314.21875 L 347.058594 314.222656 L 338.035156 314.222656 L 337.515625 314.21875 L 336.929688 314.210938 L 335.957031 314.207031 L 334.980469 314.203125 L 334.007812 314.199219 L 332.191406 314.195312 L 330.632812 314.191406 L 328.683594 314.1875 L 326.800781 314.1875 L 324.65625 314.183594 L 319.917969 314.183594 L 316.800781 314.1875 L 313.683594 314.1875 L 311.867188 314.191406 L 310.761719 314.195312 L 310.113281 314.195312 L 308.164062 314.203125 L 306.867188 314.207031 L 306.152344 314.210938 L 305.242188 314.214844 L 304.59375 314.222656 L 303.878906 314.230469 L 303.488281 314.234375 L 302.96875 314.246094 L 302.90625 314.28125 L 303.101562 314.289062 L 303.488281 314.296875 L 304.007812 314.304688 L 304.789062 314.3125 L 305.566406 314.316406 L 306.929688 314.324219 L 308.101562 314.328125 L 309.007812 314.332031 L 310.761719 314.335938 L 311.476562 314.339844 L 313.164062 314.34375 L 314.917969 314.34375 L 317.058594 314.347656 L 330.957031 314.347656 L 332.644531 314.34375 L 333.746094 314.34375 L 335.113281 314.339844 L 336.085938 314.339844 L 336.996094 314.335938 L 338.097656 314.335938 L 338.097656 314.289062 L 322.058594 314.289062 L 322.058594 314.265625 L 346.992188 314.265625 L 347.058594 314.339844 L 345.695312 314.347656 L 344.007812 314.351562 L 342.382812 314.355469 L 340.695312 314.359375 L 338.292969 314.363281 L 336.34375 314.363281 L 333.359375 314.367188 L 330.632812 314.367188 L 327.773438 314.371094 L 319.59375 314.371094 L 316.734375 314.367188 L 312.386719 314.367188 L 310.308594 314.363281 L 307.710938 314.359375 L 306.023438 314.355469 L 302.515625 314.347656 L 300.957031 314.34375 L 299.917969 314.339844 L 298.878906 314.332031 L 297.777344 314.328125 L 296.738281 314.320312 L 295.957031 314.316406 L 295.242188 314.308594 L 294.203125 314.292969 L 293.945312 314.289062 L 293.816406 314.28125 Z M 293.816406 314.25 "/>
<path style=" stroke:none;fill-rule:nonzero;fill:rgb(83.921569%,15.686275%,22.352941%);fill-opacity:1;" d="M 293.816406 312.539062 L 347.058594 312.539062 L 347.058594 312.585938 L 324.867188 312.585938 L 324.867188 312.984375 L 315.941406 312.984375 L 315.941406 312.585938 L 293.816406 312.585938 Z M 293.816406 312.539062 "/>
<path style=" stroke:none;fill-rule:nonzero;fill:rgb(83.921569%,15.686275%,22.352941%);fill-opacity:1;" d="M 349.859375 20.664062 L 403.105469 20.664062 L 403.105469 52.101562 L 380.914062 52.378906 L 380.914062 314.371094 L 371.988281 314.371094 L 371.988281 52.652344 L 371.859375 52.101562 L 349.859375 52.101562 Z M 349.859375 20.664062 "/>
<path style=" stroke:none;fill-rule:nonzero;fill:rgb(96.862745%,70.196078%,16.862745%);fill-opacity:1;" d="M 405.90625 281.328125 L 405.972656 281.273438 L 405.972656 280.21875 L 406.230469 277.84375 L 406.882812 274.570312 L 407.726562 271.878906 L 408.632812 269.765625 L 409.21875 268.660156 L 410.191406 267.074219 L 411.039062 265.914062 L 413.179688 263.539062 L 415.90625 261.320312 L 417.402344 260.371094 L 419.089844 259.472656 L 421.492188 258.472656 L 422.59375 258.101562 L 425.972656 257.257812 L 429.800781 256.730469 L 434.023438 256.570312 L 435.972656 256.625 L 438.632812 256.835938 L 442.269531 257.414062 L 444.347656 257.941406 L 445.96875 258.472656 L 447.660156 259.15625 L 449.738281 260.210938 L 451.683594 261.480469 L 453.242188 262.746094 L 454.800781 264.328125 L 456.101562 266.019531 L 457.203125 267.867188 L 458.175781 270.082031 L 458.761719 271.929688 L 459.152344 273.777344 L 450.125 273.777344 L 449.605469 271.929688 L 449.023438 270.507812 L 448.046875 268.765625 L 447.074219 267.496094 L 446.101562 266.496094 L 444.28125 265.121094 L 442.722656 264.277344 L 440.777344 263.539062 L 438.894531 263.0625 L 436.75 262.746094 L 435.453125 262.640625 L 432.011719 262.640625 L 428.894531 263.011719 L 427.074219 263.433594 L 425.777344 263.855469 L 423.957031 264.648438 L 422.855469 265.28125 L 422.207031 265.703125 L 420.257812 267.339844 L 418.957031 268.816406 L 418.246094 269.820312 L 417.335938 271.402344 L 416.6875 272.828125 L 415.972656 274.941406 L 415.582031 276.523438 L 415.0625 280.113281 L 414.996094 289.613281 L 415.191406 291.621094 L 415.582031 293.785156 L 416.101562 295.683594 L 416.882812 297.691406 L 417.660156 299.222656 L 419.023438 301.28125 L 420.191406 302.652344 L 421.101562 303.550781 L 422.855469 304.976562 L 423.570312 305.449219 L 425.257812 306.398438 L 427.011719 307.140625 L 429.152344 307.773438 L 430.777344 308.089844 L 433.375 308.351562 L 436.683594 308.351562 L 440.582031 308.035156 L 443.046875 307.613281 L 444.738281 307.191406 L 445.839844 306.824219 L 447.203125 306.242188 L 448.179688 305.714844 L 449.085938 305.132812 L 450.191406 304.234375 L 450.191406 291.621094 L 434.152344 291.566406 L 434.152344 285.65625 L 459.085938 285.601562 L 459.152344 306.242188 L 457.789062 307.667969 L 456.101562 309.039062 L 454.476562 310.09375 L 452.789062 310.992188 L 450.386719 311.996094 L 448.4375 312.628906 L 445.449219 313.367188 L 442.722656 313.84375 L 439.867188 314.160156 L 437.335938 314.316406 L 434.347656 314.371094 L 431.683594 314.265625 L 428.828125 313.949219 L 426.554688 313.527344 L 424.476562 313 L 422.398438 312.3125 L 419.804688 311.203125 L 418.113281 310.304688 L 416.363281 309.199219 L 414.609375 307.878906 L 413.050781 306.453125 L 412.011719 305.34375 L 410.972656 304.078125 L 409.867188 302.492188 L 408.828125 300.699219 L 408.050781 299.0625 L 407.335938 297.214844 L 406.816406 295.472656 L 406.296875 293.097656 L 406.039062 291.199219 L 405.90625 289.5625 Z M 405.90625 281.328125 "/>
<path style=" stroke:none;fill-rule:nonzero;fill:rgb(83.921569%,15.686275%,22.352941%);fill-opacity:1;" d="M 405.90625 162.453125 L 459.152344 162.453125 L 459.152344 172.402344 L 436.960938 172.488281 L 436.960938 255.390625 L 428.035156 255.390625 L 428.035156 172.578125 L 427.902344 172.402344 L 405.90625 172.402344 Z M 405.90625 162.453125 "/>
<path style=" stroke:none;fill-rule:nonzero;fill:rgb(14.509804%,36.078431%,60%);fill-opacity:1;" d="M 461.953125 281.183594 L 462.019531 281.132812 L 462.019531 279.84375 L 462.214844 277.800781 L 462.667969 275.222656 L 463.121094 273.453125 L 464.292969 270.285156 L 465.914062 267.222656 L 467.601562 264.859375 L 468.835938 263.464844 L 469.941406 262.390625 L 472.472656 260.402344 L 474.097656 259.382812 L 475.847656 258.46875 L 477.992188 257.558594 L 479.550781 257.019531 L 483.058594 256.160156 L 485.652344 255.785156 L 487.667969 255.625 L 492.015625 255.625 L 494.613281 255.839844 L 496.496094 256.109375 L 498.574219 256.539062 L 500.328125 257.019531 L 503.378906 258.203125 L 506.109375 259.707031 L 507.339844 260.566406 L 509.289062 262.230469 L 510.78125 263.839844 L 511.820312 265.238281 L 512.992188 267.222656 L 514.027344 269.640625 L 514.808594 272.378906 L 515.199219 274.6875 L 506.109375 274.6875 L 505.652344 272.539062 L 505.132812 270.875 L 504.160156 268.671875 L 503.1875 267.117188 L 501.820312 265.558594 L 500.589844 264.539062 L 498.898438 263.519531 L 497.40625 262.875 L 495.847656 262.390625 L 494.355469 262.066406 L 491.496094 261.746094 L 488.1875 261.746094 L 486.953125 261.851562 L 484.421875 262.28125 L 483.058594 262.660156 L 481.109375 263.410156 L 479.746094 264.109375 L 478.121094 265.183594 L 477.019531 266.09375 L 475.65625 267.492188 L 474.679688 268.726562 L 473.578125 270.5 L 472.925781 271.839844 L 472.34375 273.34375 L 471.824219 275.117188 L 471.433594 276.996094 L 471.175781 278.984375 L 471.042969 280.917969 L 471.042969 289.238281 L 471.175781 291.171875 L 471.5 293.429688 L 472.34375 296.703125 L 473.578125 299.550781 L 475.003906 301.804688 L 476.367188 303.417969 L 477.148438 304.167969 L 478.1875 305.027344 L 479.808594 306.101562 L 482.148438 307.175781 L 483.511719 307.605469 L 485.589844 308.035156 L 487.730469 308.25 L 490.589844 308.25 L 493.121094 308.035156 L 494.808594 307.765625 L 496.5625 307.335938 L 498.964844 306.421875 L 500.457031 305.5625 L 501.757812 304.542969 L 502.730469 303.523438 L 503.378906 302.664062 L 504.355469 301 L 505.132812 299.175781 L 505.71875 297.292969 L 506.109375 295.46875 L 515.199219 295.46875 L 514.808594 297.617188 L 514.222656 299.710938 L 513.640625 301.269531 L 512.730469 303.148438 L 511.691406 304.8125 L 510.199219 306.691406 L 508.964844 307.925781 L 507.339844 309.269531 L 505.847656 310.289062 L 504.222656 311.203125 L 501.820312 312.277344 L 500.261719 312.8125 L 498.574219 313.296875 L 496.5625 313.726562 L 494.03125 314.101562 L 491.304688 314.316406 L 488.769531 314.371094 L 486.042969 314.261719 L 484.03125 314.046875 L 481.367188 313.566406 L 478.058594 312.597656 L 475.65625 311.578125 L 473.769531 310.558594 L 472.148438 309.484375 L 470.332031 308.035156 L 467.992188 305.671875 L 466.5625 303.847656 L 465.589844 302.34375 L 464.484375 300.246094 L 463.707031 298.367188 L 462.796875 295.363281 L 462.148438 291.546875 L 461.953125 288.59375 Z M 461.953125 281.183594 "/>
<path style=" stroke:none;fill-rule:nonzero;fill:rgb(83.921569%,15.686275%,22.352941%);fill-opacity:1;" d="M 461.953125 163.238281 L 515.199219 163.238281 L 515.199219 173 L 493.007812 173.085938 L 493.007812 254.445312 L 484.078125 254.445312 L 484.078125 173.171875 L 483.949219 173 L 461.953125 173 Z M 461.953125 163.238281 "/>
<path style=" stroke:none;fill-rule:nonzero;fill:rgb(14.509804%,36.078431%,60%);fill-opacity:1;" d="M 518 148.457031 L 518.066406 148.1875 L 518.066406 141.742188 L 518.261719 131.542969 L 518.714844 118.65625 L 519.167969 109.796875 L 520.335938 93.957031 L 521.960938 78.652344 L 523.648438 66.839844 L 524.882812 59.859375 L 525.988281 54.492188 L 528.519531 44.558594 L 530.140625 39.457031 L 531.894531 34.890625 L 534.039062 30.328125 L 535.597656 27.644531 L 539.101562 23.347656 L 541.699219 21.46875 L 543.714844 20.664062 L 548.0625 20.664062 L 550.660156 21.738281 L 552.542969 23.078125 L 554.621094 25.226562 L 556.375 27.644531 L 559.425781 33.550781 L 562.152344 41.066406 L 563.386719 45.363281 L 565.335938 53.683594 L 566.828125 61.738281 L 567.867188 68.71875 L 569.035156 78.652344 L 570.074219 90.734375 L 570.855469 104.425781 L 571.246094 115.96875 L 562.152344 115.96875 L 561.699219 105.230469 L 561.179688 96.910156 L 560.207031 85.902344 L 559.230469 78.117188 L 557.867188 70.332031 L 556.632812 65.230469 L 554.945312 60.128906 L 553.453125 56.90625 L 551.894531 54.492188 L 550.402344 52.878906 L 547.542969 51.269531 L 544.234375 51.269531 L 543 51.804688 L 540.464844 53.953125 L 539.101562 55.832031 L 537.15625 59.589844 L 535.792969 63.082031 L 534.167969 68.449219 L 533.0625 73.015625 L 531.699219 79.996094 L 530.726562 86.171875 L 529.621094 95.03125 L 528.972656 101.742188 L 528.390625 109.257812 L 527.871094 118.117188 L 527.480469 127.515625 L 527.21875 137.449219 L 527.089844 147.113281 L 527.089844 188.726562 L 527.21875 198.390625 L 527.546875 209.667969 L 528.390625 226.042969 L 529.621094 240.273438 L 531.050781 251.546875 L 532.414062 259.601562 L 533.195312 263.359375 L 534.234375 267.65625 L 535.855469 273.027344 L 538.195312 278.394531 L 539.558594 280.542969 L 541.636719 282.691406 L 543.777344 283.765625 L 546.636719 283.765625 L 549.167969 282.691406 L 550.855469 281.347656 L 552.609375 279.199219 L 555.011719 274.636719 L 556.503906 270.339844 L 557.804688 265.242188 L 558.777344 260.140625 L 559.425781 255.84375 L 560.402344 247.519531 L 561.179688 238.394531 L 561.765625 228.996094 L 562.152344 219.867188 L 571.246094 219.867188 L 570.855469 230.609375 L 570.269531 241.078125 L 569.6875 248.863281 L 568.777344 258.261719 L 567.738281 266.582031 L 566.246094 275.980469 L 565.011719 282.152344 L 563.386719 288.867188 L 561.894531 293.96875 L 560.269531 298.53125 L 557.867188 303.898438 L 556.308594 306.585938 L 554.621094 309 L 552.609375 311.148438 L 550.078125 313.027344 L 547.347656 314.101562 L 544.816406 314.371094 L 542.089844 313.832031 L 540.078125 312.761719 L 537.414062 310.34375 L 534.101562 305.511719 L 531.699219 300.410156 L 529.816406 295.308594 L 528.195312 289.941406 L 526.375 282.691406 L 524.039062 270.878906 L 522.609375 261.75 L 521.636719 254.234375 L 520.53125 243.761719 L 519.753906 234.367188 L 518.84375 219.332031 L 518.195312 200.269531 L 518 185.503906 Z M 518 148.457031 "/>
<path style=" stroke:none;fill-rule:nonzero;fill:rgb(14.509804%,36.078431%,60%);fill-opacity:1;" d="M 574.046875 148.457031 L 574.113281 148.1875 L 574.113281 141.742188 L 574.304688 131.542969 L 574.761719 118.65625 L 575.214844 109.796875 L 576.382812 93.957031 L 578.007812 78.652344 L 579.695312 66.839844 L 580.929688 59.859375 L 582.035156 54.492188 L 584.566406 44.558594 L 586.1875 39.457031 L 587.941406 34.890625 L 590.085938 30.328125 L 591.644531 27.644531 L 595.148438 23.347656 L 597.746094 21.46875 L 599.757812 20.664062 L 604.109375 20.664062 L 606.707031 21.738281 L 608.589844 23.078125 L 610.667969 25.226562 L 612.421875 27.644531 L 615.472656 33.550781 L 618.199219 41.066406 L 619.433594 45.363281 L 621.382812 53.683594 L 622.875 61.738281 L 623.914062 68.71875 L 625.082031 78.652344 L 626.121094 90.734375 L 626.902344 104.425781 L 627.289062 115.96875 L 618.199219 115.96875 L 617.746094 105.230469 L 617.226562 96.910156 L 616.253906 85.902344 L 615.277344 78.117188 L 613.914062 70.332031 L 612.679688 65.230469 L 610.992188 60.128906 L 609.5 56.90625 L 607.941406 54.492188 L 606.449219 52.878906 L 603.589844 51.269531 L 600.277344 51.269531 L 599.046875 51.804688 L 596.511719 53.953125 L 595.148438 55.832031 L 593.203125 59.589844 L 591.839844 63.082031 L 590.214844 68.449219 L 589.109375 73.015625 L 587.746094 79.996094 L 586.773438 86.171875 L 585.667969 95.03125 L 585.019531 101.742188 L 584.4375 109.257812 L 583.917969 118.117188 L 583.527344 127.515625 L 583.265625 137.449219 L 583.136719 147.113281 L 583.136719 188.726562 L 583.265625 198.390625 L 583.589844 209.667969 L 584.4375 226.042969 L 585.667969 240.273438 L 587.097656 251.546875 L 588.460938 259.601562 L 589.242188 263.359375 L 590.28125 267.65625 L 591.902344 273.027344 L 594.242188 278.394531 L 595.605469 280.542969 L 597.683594 282.691406 L 599.824219 283.765625 L 602.679688 283.765625 L 605.214844 282.691406 L 606.902344 281.347656 L 608.65625 279.199219 L 611.058594 274.636719 L 612.550781 270.339844 L 613.851562 265.242188 L 614.824219 260.140625 L 615.472656 255.84375 L 616.445312 247.519531 L 617.226562 238.394531 L 617.8125 228.996094 L 618.199219 219.867188 L 627.289062 219.867188 L 626.902344 230.609375 L 626.316406 241.078125 L 625.730469 248.863281 L 624.824219 258.261719 L 623.785156 266.582031 L 622.289062 275.980469 L 621.058594 282.152344 L 619.433594 288.867188 L 617.941406 293.96875 L 616.316406 298.53125 L 613.914062 303.898438 L 612.355469 306.585938 L 610.667969 309 L 608.65625 311.148438 L 606.121094 313.027344 L 603.394531 314.101562 L 600.863281 314.371094 L 598.136719 313.832031 L 596.125 312.761719 L 593.460938 310.34375 L 590.148438 305.511719 L 587.746094 300.410156 L 585.863281 295.308594 L 584.242188 289.941406 L 582.421875 282.691406 L 580.085938 270.878906 L 578.65625 261.75 L 577.683594 254.234375 L 576.578125 243.761719 L 575.800781 234.367188 L 574.890625 219.332031 L 574.242188 200.269531 L 574.046875 185.503906 Z M 574.046875 148.457031 "/>
<path style=" stroke:none;fill-rule:nonzero;fill:rgb(6.27451%,58.823529%,28.235294%);fill-opacity:1;" d="M 630.09375 314.09375 L 630.148438 313.820312 L 653.1875 20.664062 L 660.183594 20.664062 L 683.335938 314.371094 L 675.203125 314.371094 L 669.398438 237.703125 L 643.972656 237.703125 L 638.285156 314.09375 L 630.09375 314.09375 L 646.417969 205.988281 L 667.066406 205.710938 L 656.773438 68.648438 L 656.65625 68.375 L 656.542969 69.199219 L 646.363281 205.710938 L 646.417969 205.988281 Z M 630.09375 314.09375 "/>
<g style="fill:rgb(0%,0%,0%);fill-opacity:1;">
  <use xlink:href="#glyph0-1" x="21.957031" y="318.198242"/>
  <use xlink:href="#glyph0-2" x="27.291016" y="318.198242"/>
  <use xlink:href="#glyph0-1" x="29.958008" y="318.198242"/>
</g>
<g style="fill:rgb(0%,0%,0%);fill-opacity:1;">
  <use xlink:href="#glyph0-1" x="21.957031" y="244.475586"/>
  <use xlink:href="#glyph0-2" x="27.291016" y="244.475586"/>
  <use xlink:href="#glyph0-3" x="29.958008" y="244.475586"/>
</g>
<g style="fill:rgb(0%,0%,0%);fill-opacity:1;">
  <use xlink:href="#glyph0-4" x="21.957031" y="170.75293"/>
  <use xlink:href="#glyph0-2" x="27.291016" y="170.75293"/>
  <use xlink:href="#glyph0-1" x="29.958008" y="170.75293"/>
</g>
<g style="fill:rgb(0%,0%,0%);fill-opacity:1;">
  <use xlink:href="#glyph0-4" x="21.957031" y="97.03418"/>
  <use xlink:href="#glyph0-2" x="27.291016" y="97.03418"/>
  <use xlink:href="#glyph0-3" x="29.958008" y="97.03418"/>
</g>
<g style="fill:rgb(0%,0%,0%);fill-opacity:1;">
  <use xlink:href="#glyph0-5" x="21.957031" y="23.311523"/>
  <use xlink:href="#glyph0-2" x="27.291016" y="23.311523"/>
  <use xlink:href="#glyph0-1" x="29.958008" y="23.311523"/>
</g>
<g style="fill:rgb(0%,0%,0%);fill-opacity:1;">
  <use xlink:href="#glyph0-4" x="93.25" y="338.19043"/>
</g>
<g style="fill:rgb(0%,0%,0%);fill-opacity:1;">
  <use xlink:href="#glyph0-5" x="149.296875" y="338.19043"/>
</g>
<g style="fill:rgb(0%,0%,0%);fill-opacity:1;">
  <use xlink:href="#glyph0-6" x="205.34375" y="338.19043"/>
</g>
<g style="fill:rgb(0%,0%,0%);fill-opacity:1;">
  <use xlink:href="#glyph0-7" x="261.390625" y="338.19043"/>
</g>
<g style="fill:rgb(0%,0%,0%);fill-opacity:1;">
  <use xlink:href="#glyph0-3" x="317.4375" y="338.19043"/>
</g>
<g style="fill:rgb(0%,0%,0%);fill-opacity:1;">
  <use xlink:href="#glyph0-8" x="373.484375" y="338.19043"/>
</g>
<g style="fill:rgb(0%,0%,0%);fill-opacity:1;">
  <use xlink:href="#glyph0-9" x="429.53125" y="338.19043"/>
</g>
<g style="fill:rgb(0%,0%,0%);fill-opacity:1;">
  <use xlink:href="#glyph0-10" x="485.574219" y="338.19043"/>
</g>
<g style="fill:rgb(0%,0%,0%);fill-opacity:1;">
  <use xlink:href="#glyph0-11" x="541.621094" y="338.19043"/>
</g>
<g style="fill:rgb(0%,0%,0%);fill-opacity:1;">
  <use xlink:href="#glyph0-4" x="595.167969" y="338.19043"/>
  <use xlink:href="#glyph0-1" x="600.501953" y="338.19043"/>
</g>
<g style="fill:rgb(0%,0%,0%);fill-opacity:1;">
  <use xlink:href="#glyph0-4" x="651.214844" y="338.19043"/>
  <use xlink:href="#glyph0-4" x="656.548828" y="338.19043"/>
</g>
<g style="fill:rgb(0%,0%,0%);fill-opacity:1;">
  <use xlink:href="#glyph1-1" x="14.412109" y="178.015625"/>
  <use xlink:href="#glyph1-2" x="14.412109" y="170.011719"/>
  <use xlink:href="#glyph1-3" x="14.412109" y="167.347656"/>
  <use xlink:href="#glyph1-4" x="14.412109" y="164.011719"/>
</g>
</g>
</svg>
