<?xml version="1.0" encoding="UTF-8"?>
<svg xmlns="http://www.w3.org/2000/svg" xmlns:xlink="http://www.w3.org/1999/xlink" width="720pt" height="360pt" viewBox="0 0 720 360" version="1.1">
<defs>
<g>
<symbol overflow="visible" id="glyph0-0">
<path style="stroke:none;" d=""/>
</symbol>
<symbol overflow="visible" id="glyph0-1">
<path style="stroke:none;" d="M 2.640625 -6.796875 C 2 -6.796875 1.421875 -6.53125 1.078125 -6.046875 C 0.640625 -5.453125 0.40625 -4.546875 0.40625 -3.296875 C 0.40625 -1 1.1875 0.21875 2.640625 0.21875 C 4.078125 0.21875 4.859375 -1 4.859375 -3.234375 C 4.859375 -4.5625 4.65625 -5.4375 4.203125 -6.046875 C 3.84375 -6.53125 3.28125 -6.796875 2.640625 -6.796875 Z M 2.640625 -6.046875 C 3.546875 -6.046875 4 -5.125 4 -3.3125 C 4 -1.375 3.5625 -0.484375 2.625 -0.484375 C 1.734375 -0.484375 1.28125 -1.421875 1.28125 -3.28125 C 1.28125 -5.140625 1.734375 -6.046875 2.640625 -6.046875 Z M 2.640625 -6.046875 "/>
</symbol>
<symbol overflow="visible" id="glyph0-2">
<path style="stroke:none;" d="M 1.828125 -1 L 0.828125 -1 L 0.828125 0 L 1.828125 0 Z M 1.828125 -1 "/>
</symbol>
<symbol overflow="visible" id="glyph0-3">
<path style="stroke:none;" d="M 4.5625 -6.796875 L 1.0625 -6.796875 L 0.546875 -3.09375 L 1.328125 -3.09375 C 1.71875 -3.5625 2.046875 -3.734375 2.578125 -3.734375 C 3.484375 -3.734375 4.0625 -3.109375 4.0625 -2.09375 C 4.0625 -1.125 3.484375 -0.53125 2.578125 -0.53125 C 1.828125 -0.53125 1.375 -0.90625 1.1875 -1.671875 L 0.328125 -1.671875 C 0.453125 -1.109375 0.546875 -0.84375 0.75 -0.59375 C 1.125 -0.078125 1.828125 0.21875 2.59375 0.21875 C 3.96875 0.21875 4.921875 -0.78125 4.921875 -2.21875 C 4.921875 -3.5625 4.03125 -4.484375 2.71875 -4.484375 C 2.25 -4.484375 1.859375 -4.359375 1.46875 -4.0625 L 1.734375 -5.96875 L 4.5625 -5.96875 Z M 4.5625 -6.796875 "/>
</symbol>
<symbol overflow="visible" id="glyph0-4">
<path style="stroke:none;" d="M 2.484375 -4.84375 L 2.484375 0 L 3.328125 0 L 3.328125 -6.796875 L 2.765625 -6.796875 C 2.46875 -5.75 2.28125 -5.609375 0.984375 -5.453125 L 0.984375 -4.84375 Z M 2.484375 -4.84375 "/>
</symbol>
<symbol overflow="visible" id="glyph0-5">
<path style="stroke:none;" d="M 4.859375 -0.828125 L 1.28125 -0.828125 C 1.359375 -1.390625 1.671875 -1.75 2.5 -2.234375 L 3.46875 -2.75 C 4.40625 -3.265625 4.90625 -3.96875 4.90625 -4.8125 C 4.90625 -5.375 4.671875 -5.90625 4.265625 -6.265625 C 3.859375 -6.625 3.375 -6.796875 2.71875 -6.796875 C 1.859375 -6.796875 1.21875 -6.5 0.84375 -5.921875 C 0.609375 -5.5625 0.5 -5.125 0.484375 -4.4375 L 1.328125 -4.4375 C 1.359375 -4.90625 1.40625 -5.1875 1.53125 -5.40625 C 1.75 -5.8125 2.1875 -6.0625 2.703125 -6.0625 C 3.46875 -6.0625 4.03125 -5.515625 4.03125 -4.78125 C 4.03125 -4.25 3.71875 -3.796875 3.125 -3.4375 L 2.234375 -2.9375 C 0.8125 -2.140625 0.40625 -1.5 0.328125 0 L 4.859375 0 Z M 4.859375 -0.828125 "/>
</symbol>
<symbol overflow="visible" id="glyph0-6">
<path style="stroke:none;" d="M 2.125 -3.125 L 2.578125 -3.125 C 3.515625 -3.125 3.984375 -2.703125 3.984375 -1.890625 C 3.984375 -1.03125 3.46875 -0.53125 2.578125 -0.53125 C 1.65625 -0.53125 1.203125 -0.984375 1.15625 -1.96875 L 0.3125 -1.96875 C 0.34375 -1.421875 0.4375 -1.078125 0.609375 -0.765625 C 0.953125 -0.109375 1.625 0.21875 2.546875 0.21875 C 3.953125 0.21875 4.859375 -0.609375 4.859375 -1.90625 C 4.859375 -2.765625 4.515625 -3.25 3.703125 -3.515625 C 4.34375 -3.765625 4.65625 -4.25 4.65625 -4.9375 C 4.65625 -6.109375 3.875 -6.796875 2.578125 -6.796875 C 1.203125 -6.796875 0.484375 -6.046875 0.453125 -4.609375 L 1.296875 -4.609375 C 1.3125 -5.015625 1.34375 -5.25 1.453125 -5.453125 C 1.640625 -5.828125 2.0625 -6.0625 2.59375 -6.0625 C 3.34375 -6.0625 3.796875 -5.625 3.796875 -4.90625 C 3.796875 -4.421875 3.609375 -4.140625 3.25 -3.984375 C 3.015625 -3.890625 2.71875 -3.84375 2.125 -3.84375 Z M 2.125 -3.125 "/>
</symbol>
<symbol overflow="visible" id="glyph0-7">
<path style="stroke:none;" d="M 3.140625 -1.625 L 3.140625 0 L 3.984375 0 L 3.984375 -1.625 L 4.984375 -1.625 L 4.984375 -2.390625 L 3.984375 -2.390625 L 3.984375 -6.796875 L 3.359375 -6.796875 L 0.265625 -2.515625 L 0.265625 -1.625 Z M 3.140625 -2.390625 L 1 -2.390625 L 3.140625 -5.359375 Z M 3.140625 -2.390625 "/>
</symbol>
<symbol overflow="visible" id="glyph0-8">
<path style="stroke:none;" d="M 4.78125 -5.03125 C 4.609375 -6.140625 3.890625 -6.796875 2.84375 -6.796875 C 2.09375 -6.796875 1.421875 -6.4375 1.03125 -5.828125 C 0.609375 -5.171875 0.40625 -4.34375 0.40625 -3.09375 C 0.40625 -1.953125 0.578125 -1.234375 0.984375 -0.625 C 1.359375 -0.078125 1.953125 0.21875 2.703125 0.21875 C 3.984375 0.21875 4.921875 -0.734375 4.921875 -2.078125 C 4.921875 -3.34375 4.0625 -4.234375 2.84375 -4.234375 C 2.171875 -4.234375 1.640625 -3.96875 1.28125 -3.46875 C 1.28125 -5.125 1.828125 -6.046875 2.796875 -6.046875 C 3.390625 -6.046875 3.796875 -5.671875 3.9375 -5.03125 Z M 2.734375 -3.484375 C 3.546875 -3.484375 4.0625 -2.921875 4.0625 -2 C 4.0625 -1.15625 3.484375 -0.53125 2.703125 -0.53125 C 1.921875 -0.53125 1.328125 -1.1875 1.328125 -2.046875 C 1.328125 -2.890625 1.90625 -3.484375 2.734375 -3.484375 Z M 2.734375 -3.484375 "/>
</symbol>
<symbol overflow="visible" id="glyph0-9">
<path style="stroke:none;" d="M 4.984375 -6.796875 L 0.4375 -6.796875 L 0.4375 -5.96875 L 4.109375 -5.96875 C 2.5 -3.65625 1.828125 -2.234375 1.328125 0 L 2.21875 0 C 2.59375 -2.171875 3.453125 -4.046875 4.984375 -6.09375 Z M 4.984375 -6.796875 "/>
</symbol>
<symbol overflow="visible" id="glyph0-10">
<path style="stroke:none;" d="M 3.75 -3.578125 C 4.453125 -4 4.6875 -4.34375 4.6875 -4.984375 C 4.6875 -6.046875 3.84375 -6.796875 2.640625 -6.796875 C 1.4375 -6.796875 0.59375 -6.046875 0.59375 -4.984375 C 0.59375 -4.359375 0.828125 -4.015625 1.515625 -3.578125 C 0.734375 -3.203125 0.359375 -2.640625 0.359375 -1.890625 C 0.359375 -0.640625 1.296875 0.21875 2.640625 0.21875 C 3.984375 0.21875 4.921875 -0.640625 4.921875 -1.875 C 4.921875 -2.640625 4.53125 -3.203125 3.75 -3.578125 Z M 2.640625 -6.046875 C 3.359375 -6.046875 3.8125 -5.625 3.8125 -4.96875 C 3.8125 -4.34375 3.34375 -3.921875 2.640625 -3.921875 C 1.921875 -3.921875 1.453125 -4.34375 1.453125 -4.984375 C 1.453125 -5.625 1.921875 -6.046875 2.640625 -6.046875 Z M 2.640625 -3.203125 C 3.484375 -3.203125 4.0625 -2.671875 4.0625 -1.875 C 4.0625 -1.0625 3.484375 -0.53125 2.625 -0.53125 C 1.796875 -0.53125 1.21875 -1.078125 1.21875 -1.875 C 1.21875 -2.671875 1.796875 -3.203125 2.640625 -3.203125 Z M 2.640625 -3.203125 "/>
</symbol>
<symbol overflow="visible" id="glyph0-11">
<path style="stroke:none;" d="M 0.515625 -1.546875 C 0.671875 -0.4375 1.40625 0.21875 2.4375 0.21875 C 3.1875 0.21875 3.859375 -0.140625 4.265625 -0.75 C 4.6875 -1.40625 4.890625 -2.25 4.890625 -3.484375 C 4.890625 -4.625 4.703125 -5.359375 4.3125 -5.953125 C 3.9375 -6.5 3.34375 -6.796875 2.59375 -6.796875 C 1.296875 -6.796875 0.359375 -5.84375 0.359375 -4.515625 C 0.359375 -3.25 1.234375 -2.34375 2.453125 -2.34375 C 3.09375 -2.34375 3.5625 -2.578125 4.015625 -3.109375 C 4 -1.453125 3.46875 -0.53125 2.5 -0.53125 C 1.90625 -0.53125 1.484375 -0.90625 1.359375 -1.546875 Z M 2.578125 -6.0625 C 3.375 -6.0625 3.96875 -5.40625 3.96875 -4.53125 C 3.96875 -3.6875 3.375 -3.09375 2.546875 -3.09375 C 1.734375 -3.09375 1.234375 -3.671875 1.234375 -4.578125 C 1.234375 -5.4375 1.796875 -6.0625 2.578125 -6.0625 Z M 2.578125 -6.0625 "/>
</symbol>
<symbol overflow="visible" id="glyph1-0">
<path style="stroke:none;" d=""/>
</symbol>
<symbol overflow="visible" id="glyph1-1">
<path style="stroke:none;" d="M 0 -0.953125 L 0 -4.890625 C 0 -5.71875 -0.234375 -6.34375 -0.734375 -6.796875 C -1.1875 -7.234375 -1.8125 -7.46875 -2.5 -7.46875 C -3.546875 -7.46875 -4.1875 -7 -4.625 -5.875 C -4.984375 -6.671875 -5.640625 -7.09375 -6.53125 -7.09375 C -7.15625 -7.09375 -7.734375 -6.859375 -8.140625 -6.390625 C -8.5625 -5.9375 -8.75 -5.34375 -8.75 -4.5 L -8.75 -0.953125 Z M -4.984375 -2.0625 L -7.765625 -2.0625 L -7.765625 -4.21875 C -7.765625 -4.84375 -7.6875 -5.203125 -7.453125 -5.5 C -7.21875 -5.8125 -6.859375 -5.96875 -6.375 -5.96875 C -5.90625 -5.96875 -5.53125 -5.8125 -5.296875 -5.5 C -5.0625 -5.203125 -4.984375 -4.84375 -4.984375 -4.21875 Z M -0.984375 -2.0625 L -4 -2.0625 L -4 -4.78125 C -4 -5.328125 -3.859375 -5.6875 -3.578125 -5.953125 C -3.296875 -6.21875 -2.921875 -6.359375 -2.484375 -6.359375 C -2.0625 -6.359375 -1.6875 -6.21875 -1.40625 -5.953125 C -1.109375 -5.6875 -0.984375 -5.328125 -0.984375 -4.78125 Z M -0.984375 -2.0625 "/>
</symbol>
<symbol overflow="visible" id="glyph1-2">
<path style="stroke:none;" d="M -6.28125 -1.796875 L -6.28125 -0.796875 L 0 -0.796875 L 0 -1.796875 Z M -8.75 -1.796875 L -8.75 -0.796875 L -7.484375 -0.796875 L -7.484375 -1.796875 Z M -8.75 -1.796875 "/>
</symbol>
<symbol overflow="visible" id="glyph1-3">
<path style="stroke:none;" d="M -6.28125 -3.046875 L -6.28125 -2.015625 L -8.015625 -2.015625 L -8.015625 -1.015625 L -6.28125 -1.015625 L -6.28125 -0.171875 L -5.46875 -0.171875 L -5.46875 -1.015625 L -0.71875 -1.015625 C -0.078125 -1.015625 0.28125 -1.453125 0.28125 -2.234375 C 0.28125 -2.46875 0.25 -2.71875 0.1875 -3.046875 L -0.640625 -3.046875 C -0.609375 -2.921875 -0.59375 -2.765625 -0.59375 -2.5625 C -0.59375 -2.140625 -0.71875 -2.015625 -1.15625 -2.015625 L -5.46875 -2.015625 L -5.46875 -3.046875 Z M -6.28125 -3.046875 "/>
</symbol>
<symbol overflow="visible" id="glyph1-4">
<path style="stroke:none;" d="M -4.53125 -5.25 C -5.765625 -5.25 -6.46875 -4.421875 -6.46875 -2.96875 C -6.46875 -1.515625 -5.71875 -0.5625 -4.546875 -0.5625 C -3.5625 -0.5625 -3.09375 -1.0625 -2.734375 -2.5625 L -2.515625 -3.484375 C -2.34375 -4.1875 -2.09375 -4.46875 -1.625 -4.46875 C -1.046875 -4.46875 -0.640625 -3.875 -0.640625 -3 C -0.640625 -2.453125 -0.796875 -2 -1.0625 -1.75 C -1.25 -1.59375 -1.421875 -1.53125 -1.875 -1.46875 L -1.875 -0.40625 C -0.421875 -0.453125 0.28125 -1.265625 0.28125 -2.921875 C 0.28125 -4.5 -0.5 -5.515625 -1.71875 -5.515625 C -2.65625 -5.515625 -3.171875 -4.984375 -3.46875 -3.734375 L -3.703125 -2.765625 C -3.890625 -1.953125 -4.15625 -1.609375 -4.59375 -1.609375 C -5.171875 -1.609375 -5.546875 -2.125 -5.546875 -2.9375 C -5.546875 -3.75 -5.203125 -4.171875 -4.53125 -4.203125 Z M -4.53125 -5.25 "/>
</symbol>
</g>
</defs>
<g id="surface42243">
<rect x="0" y="0" width="720" height="360" style="fill:rgb(100%,100%,100%);fill-opacity:1;stroke:none;"/>
<path style=" stroke:none;fill-rule:nonzero;fill:rgb(14.509804%,36.078431%,60%);fill-opacity:1;" d="M 69.628906 148.457031 L 69.699219 148.1875 L 69.699219 141.742188 L 69.914062 131.542969 L 70.414062 118.65625 L 70.914062 109.796875 L 72.203125 93.957031 L 73.988281 78.652344 L 75.847656 66.839844 L 77.203125 59.859375 L 78.417969 54.492188 L 81.207031 44.558594 L 82.992188 39.457031 L 84.921875 34.890625 L 87.28125 30.328125 L 88.996094 27.644531 L 92.851562 23.347656 L 95.710938 21.46875 L 97.925781 20.664062 L 102.714844 20.664062 L 105.574219 21.738281 L 107.644531 23.078125 L 109.929688 25.226562 L 111.859375 27.644531 L 115.21875 33.550781 L 118.21875 41.066406 L 119.578125 45.363281 L 121.722656 53.683594 L 123.367188 61.738281 L 124.507812 68.71875 L 125.796875 78.652344 L 126.9375 90.734375 L 127.796875 104.425781 L 128.222656 115.96875 L 118.21875 115.96875 L 117.71875 105.230469 L 117.148438 96.910156 L 116.078125 85.902344 L 115.003906 78.117188 L 113.503906 70.332031 L 112.148438 65.230469 L 110.289062 60.128906 L 108.644531 56.90625 L 106.929688 54.492188 L 105.285156 52.878906 L 102.140625 51.269531 L 98.5 51.269531 L 97.140625 51.804688 L 94.355469 53.953125 L 92.851562 55.832031 L 90.710938 59.589844 L 89.207031 63.082031 L 87.421875 68.449219 L 86.207031 73.015625 L 84.707031 79.996094 L 83.636719 86.171875 L 82.421875 95.03125 L 81.707031 101.742188 L 81.0625 109.257812 L 80.492188 118.117188 L 80.0625 127.515625 L 79.777344 137.449219 L 79.632812 147.113281 L 79.632812 188.726562 L 79.777344 198.390625 L 80.132812 209.667969 L 81.0625 226.042969 L 82.421875 240.273438 L 83.992188 251.546875 L 85.492188 259.601562 L 86.351562 263.359375 L 87.492188 267.65625 L 89.28125 273.027344 L 91.851562 278.394531 L 93.351562 280.542969 L 95.640625 282.691406 L 97.996094 283.765625 L 101.140625 283.765625 L 103.929688 282.691406 L 105.785156 281.347656 L 107.714844 279.199219 L 110.359375 274.636719 L 112.003906 270.339844 L 113.433594 265.242188 L 114.503906 260.140625 L 115.21875 255.84375 L 116.292969 247.519531 L 117.148438 238.394531 L 117.792969 228.996094 L 118.21875 219.867188 L 128.222656 219.867188 L 127.796875 230.609375 L 127.152344 241.078125 L 126.507812 248.863281 L 125.507812 258.261719 L 124.367188 266.582031 L 122.722656 275.980469 L 121.363281 282.152344 L 119.578125 288.867188 L 117.933594 293.96875 L 116.148438 298.53125 L 113.503906 303.898438 L 111.789062 306.585938 L 109.929688 309 L 107.714844 311.148438 L 104.929688 313.027344 L 101.929688 314.101562 L 99.140625 314.371094 L 96.140625 313.832031 L 93.925781 312.761719 L 90.996094 310.34375 L 87.351562 305.511719 L 84.707031 300.410156 L 82.632812 295.308594 L 80.847656 289.941406 L 78.847656 282.691406 L 76.273438 270.878906 L 74.703125 261.75 L 73.632812 254.234375 L 72.417969 243.761719 L 71.558594 234.367188 L 70.558594 219.332031 L 69.84375 200.269531 L 69.628906 185.503906 Z M 69.628906 148.457031 "/>
<path style=" stroke:none;fill-rule:nonzero;fill:rgb(14.509804%,36.078431%,60%);fill-opacity:1;" d="M 131.308594 148.457031 L 131.378906 148.1875 L 131.378906 141.742188 L 131.59375 131.542969 L 132.09375 118.65625 L 132.59375 109.796875 L 133.882812 93.957031 L 135.667969 78.652344 L 137.523438 66.839844 L 138.882812 59.859375 L 140.097656 54.492188 L 142.882812 44.558594 L 144.671875 39.457031 L 146.601562 34.890625 L 148.957031 30.328125 L 150.671875 27.644531 L 154.53125 23.347656 L 157.390625 21.46875 L 159.605469 20.664062 L 164.394531 20.664062 L 167.25 21.738281 L 169.324219 23.078125 L 171.609375 25.226562 L 173.539062 27.644531 L 176.898438 33.550781 L 179.898438 41.066406 L 181.257812 45.363281 L 183.402344 53.683594 L 185.042969 61.738281 L 186.1875 68.71875 L 187.472656 78.652344 L 188.617188 90.734375 L 189.476562 104.425781 L 189.902344 115.96875 L 179.898438 115.96875 L 179.398438 105.230469 L 178.828125 96.910156 L 177.757812 85.902344 L 176.683594 78.117188 L 175.183594 70.332031 L 173.824219 65.230469 L 171.96875 60.128906 L 170.324219 56.90625 L 168.609375 54.492188 L 166.964844 52.878906 L 163.820312 51.269531 L 160.175781 51.269531 L 158.820312 51.804688 L 156.03125 53.953125 L 154.53125 55.832031 L 152.386719 59.589844 L 150.886719 63.082031 L 149.101562 68.449219 L 147.886719 73.015625 L 146.386719 79.996094 L 145.3125 86.171875 L 144.097656 95.03125 L 143.386719 101.742188 L 142.742188 109.257812 L 142.171875 118.117188 L 141.742188 127.515625 L 141.457031 137.449219 L 141.3125 147.113281 L 141.3125 188.726562 L 141.457031 198.390625 L 141.8125 209.667969 L 142.742188 226.042969 L 144.097656 240.273438 L 145.671875 251.546875 L 147.171875 259.601562 L 148.03125 263.359375 L 149.171875 267.65625 L 150.960938 273.027344 L 153.53125 278.394531 L 155.03125 280.542969 L 157.320312 282.691406 L 159.675781 283.765625 L 162.820312 283.765625 L 165.609375 282.691406 L 167.464844 281.347656 L 169.394531 279.199219 L 172.039062 274.636719 L 173.683594 270.339844 L 175.113281 265.242188 L 176.183594 260.140625 L 176.898438 255.84375 L 177.96875 247.519531 L 178.828125 238.394531 L 179.472656 228.996094 L 179.898438 219.867188 L 189.902344 219.867188 L 189.476562 230.609375 L 188.832031 241.078125 L 188.1875 248.863281 L 187.1875 258.261719 L 186.046875 266.582031 L 184.402344 275.980469 L 183.042969 282.152344 L 181.257812 288.867188 L 179.613281 293.96875 L 177.828125 298.53125 L 175.183594 303.898438 L 173.46875 306.585938 L 171.609375 309 L 169.394531 311.148438 L 166.609375 313.027344 L 163.605469 314.101562 L 160.820312 314.371094 L 157.820312 313.832031 L 155.605469 312.761719 L 152.675781 310.34375 L 149.03125 305.511719 L 146.386719 300.410156 L 144.3125 295.308594 L 142.527344 289.941406 L 140.527344 282.691406 L 137.953125 270.878906 L 136.382812 261.75 L 135.308594 254.234375 L 134.09375 243.761719 L 133.238281 234.367188 L 132.238281 219.332031 L 131.523438 200.269531 L 131.308594 185.503906 Z M 131.308594 148.457031 "/>
<path style=" stroke:none;fill-rule:nonzero;fill:rgb(83.921569%,15.686275%,22.352941%);fill-opacity:1;" d="M 192.988281 20.664062 L 251.582031 20.664062 L 251.582031 52.101562 L 227.164062 52.378906 L 227.164062 314.371094 L 217.335938 314.371094 L 217.335938 52.652344 L 217.195312 52.101562 L 192.988281 52.101562 Z M 192.988281 20.664062 "/>
<path style=" stroke:none;fill-rule:nonzero;fill:rgb(83.921569%,15.686275%,22.352941%);fill-opacity:1;" d="M 254.667969 20.664062 L 313.261719 20.664062 L 313.261719 52.101562 L 288.839844 52.378906 L 288.839844 314.371094 L 279.015625 314.371094 L 279.015625 52.652344 L 278.875 52.101562 L 254.667969 52.101562 Z M 254.667969 20.664062 "/>
<path style=" stroke:none;fill-rule:nonzero;fill:rgb(6.27451%,58.823529%,28.235294%);fill-opacity:1;" d="M 316.347656 307.457031 L 316.410156 307.449219 L 341.761719 300.410156 L 349.460938 300.410156 L 374.941406 307.464844 L 365.988281 307.464844 L 359.605469 305.621094 L 331.621094 305.621094 L 325.359375 307.457031 L 316.347656 307.457031 L 334.3125 304.859375 L 357.039062 304.855469 L 345.707031 301.5625 L 345.582031 301.558594 L 345.457031 301.578125 L 334.25 304.855469 L 334.3125 304.859375 Z M 316.347656 307.457031 "/>
<path style=" stroke:none;fill-rule:nonzero;fill:rgb(14.509804%,36.078431%,60%);fill-opacity:1;" d="M 316.347656 313.539062 L 316.417969 313.539062 L 316.417969 313.507812 L 316.632812 313.457031 L 317.132812 313.390625 L 317.632812 313.347656 L 318.917969 313.269531 L 320.703125 313.191406 L 322.5625 313.132812 L 323.921875 313.097656 L 325.136719 313.070312 L 327.921875 313.019531 L 329.707031 312.996094 L 331.636719 312.972656 L 333.996094 312.949219 L 335.710938 312.9375 L 339.570312 312.914062 L 342.429688 312.90625 L 344.644531 312.902344 L 349.429688 312.902344 L 352.289062 312.90625 L 354.363281 312.914062 L 356.648438 312.921875 L 358.578125 312.9375 L 361.9375 312.964844 L 364.9375 313.003906 L 366.292969 313.023438 L 368.4375 313.066406 L 370.082031 313.105469 L 371.226562 313.140625 L 372.511719 313.191406 L 373.65625 313.25 L 374.511719 313.320312 L 374.941406 313.378906 L 364.9375 313.378906 L 364.4375 313.324219 L 363.867188 313.28125 L 362.792969 313.226562 L 361.722656 313.1875 L 360.222656 313.148438 L 358.863281 313.125 L 357.003906 313.097656 L 355.363281 313.082031 L 353.648438 313.070312 L 352.003906 313.0625 L 348.859375 313.054688 L 345.214844 313.054688 L 343.855469 313.058594 L 341.070312 313.066406 L 339.570312 313.078125 L 337.425781 313.09375 L 335.925781 313.113281 L 334.140625 313.140625 L 332.925781 313.164062 L 331.421875 313.199219 L 330.351562 313.230469 L 329.136719 313.273438 L 328.421875 313.304688 L 327.777344 313.34375 L 327.207031 313.386719 L 326.777344 313.4375 L 326.492188 313.484375 L 326.351562 313.535156 L 326.351562 313.742188 L 326.492188 313.789062 L 326.851562 313.847656 L 327.777344 313.929688 L 329.136719 314 L 330.707031 314.054688 L 332.210938 314.097656 L 333.066406 314.117188 L 334.210938 314.136719 L 335.996094 314.164062 L 338.570312 314.191406 L 340.070312 314.203125 L 342.355469 314.210938 L 344.714844 314.21875 L 347.859375 314.21875 L 350.644531 314.210938 L 352.503906 314.207031 L 354.433594 314.195312 L 357.078125 314.171875 L 358.71875 314.148438 L 360.148438 314.125 L 361.222656 314.097656 L 361.9375 314.078125 L 363.007812 314.035156 L 363.867188 313.992188 L 364.507812 313.945312 L 364.9375 313.898438 L 374.941406 313.898438 L 374.511719 313.953125 L 373.871094 314.003906 L 373.226562 314.042969 L 372.226562 314.089844 L 371.082031 314.132812 L 369.4375 314.179688 L 368.082031 314.210938 L 366.292969 314.242188 L 364.652344 314.269531 L 362.863281 314.292969 L 360.222656 314.316406 L 358.507812 314.332031 L 356.648438 314.34375 L 354.433594 314.355469 L 351.644531 314.363281 L 348.644531 314.371094 L 345.859375 314.371094 L 342.855469 314.367188 L 340.640625 314.363281 L 337.710938 314.351562 L 334.066406 314.328125 L 331.421875 314.300781 L 329.351562 314.273438 L 327.566406 314.25 L 325.5625 314.210938 L 322.992188 314.152344 L 321.417969 314.105469 L 320.347656 314.070312 L 319.132812 314.015625 L 318.273438 313.96875 L 317.273438 313.894531 L 316.558594 313.800781 L 316.347656 313.726562 Z M 316.347656 313.539062 "/>
<path style=" stroke:none;fill-rule:nonzero;fill:rgb(96.862745%,70.196078%,16.862745%);fill-opacity:1;" d="M 316.347656 309.960938 L 316.417969 309.957031 L 316.417969 309.902344 L 316.703125 309.777344 L 317.417969 309.601562 L 318.347656 309.457031 L 319.347656 309.347656 L 319.992188 309.285156 L 321.0625 309.203125 L 321.992188 309.140625 L 324.347656 309.015625 L 327.351562 308.894531 L 328.992188 308.84375 L 330.851562 308.796875 L 333.496094 308.746094 L 334.710938 308.722656 L 338.425781 308.679688 L 342.640625 308.652344 L 347.289062 308.644531 L 349.429688 308.644531 L 352.359375 308.65625 L 356.363281 308.6875 L 358.648438 308.714844 L 360.433594 308.746094 L 362.292969 308.78125 L 364.578125 308.835938 L 366.722656 308.90625 L 368.4375 308.972656 L 370.152344 309.054688 L 371.582031 309.144531 L 372.796875 309.246094 L 373.871094 309.363281 L 374.511719 309.460938 L 374.941406 309.558594 L 365.007812 309.558594 L 364.4375 309.460938 L 363.792969 309.386719 L 362.722656 309.292969 L 361.648438 309.226562 L 360.578125 309.171875 L 358.578125 309.097656 L 356.863281 309.054688 L 354.71875 309.015625 L 352.644531 308.988281 L 350.289062 308.972656 L 348.859375 308.964844 L 345.070312 308.964844 L 341.640625 308.984375 L 339.640625 309.007812 L 338.210938 309.03125 L 336.210938 309.074219 L 334.996094 309.105469 L 334.28125 309.128906 L 332.136719 309.214844 L 330.707031 309.296875 L 329.921875 309.347656 L 328.921875 309.433594 L 328.207031 309.507812 L 327.421875 309.621094 L 326.992188 309.707031 L 326.421875 309.898438 L 326.351562 310.402344 L 326.5625 310.507812 L 326.992188 310.625 L 327.566406 310.726562 L 328.421875 310.832031 L 329.28125 310.914062 L 330.78125 311.023438 L 332.066406 311.097656 L 333.066406 311.144531 L 334.996094 311.222656 L 335.78125 311.246094 L 337.640625 311.296875 L 339.570312 311.335938 L 341.929688 311.371094 L 343.714844 311.386719 L 346.574219 311.402344 L 350.21875 311.402344 L 354.503906 311.382812 L 357.21875 311.363281 L 359.078125 311.339844 L 360.292969 311.320312 L 361.792969 311.289062 L 362.863281 311.261719 L 363.867188 311.230469 L 365.078125 311.179688 L 365.078125 310.507812 L 347.429688 310.507812 L 347.429688 310.191406 L 374.871094 310.1875 L 374.941406 311.289062 L 373.441406 311.363281 L 371.582031 311.4375 L 369.796875 311.492188 L 367.9375 311.542969 L 365.292969 311.59375 L 363.152344 311.628906 L 359.863281 311.667969 L 356.863281 311.691406 L 353.71875 311.710938 L 350.929688 311.71875 L 347.644531 311.722656 L 344.714844 311.714844 L 341.570312 311.699219 L 339.070312 311.675781 L 336.78125 311.648438 L 334.496094 311.613281 L 331.636719 311.550781 L 329.78125 311.503906 L 327.851562 311.445312 L 325.921875 311.375 L 324.207031 311.300781 L 323.0625 311.242188 L 321.917969 311.171875 L 320.703125 311.089844 L 319.5625 310.992188 L 318.703125 310.90625 L 317.917969 310.808594 L 317.347656 310.714844 L 316.773438 310.589844 L 316.488281 310.488281 L 316.347656 310.398438 Z M 316.347656 309.960938 "/>
<path style=" stroke:none;fill-rule:nonzero;fill:rgb(83.921569%,15.686275%,22.352941%);fill-opacity:1;" d="M 316.347656 290.191406 L 374.941406 290.191406 L 374.941406 291.160156 L 350.519531 291.167969 L 350.519531 299.230469 L 340.695312 299.230469 L 340.695312 291.175781 L 340.554688 291.160156 L 316.347656 291.160156 Z M 316.347656 290.191406 "/>
<path style=" stroke:none;fill-rule:nonzero;fill:rgb(6.27451%,58.823529%,28.235294%);fill-opacity:1;" d="M 378.023438 314.332031 L 378.085938 314.296875 L 403.441406 274.855469 L 411.140625 274.855469 L 436.621094 314.371094 L 427.667969 314.371094 L 421.28125 304.054688 L 393.300781 304.054688 L 387.039062 314.332031 L 378.023438 314.332031 L 395.992188 299.789062 L 418.714844 299.75 L 407.386719 281.3125 L 407.261719 281.273438 L 407.136719 281.386719 L 395.929688 299.75 L 395.992188 299.789062 Z M 378.023438 314.332031 "/>
<path style=" stroke:none;fill-rule:nonzero;fill:rgb(83.921569%,15.686275%,22.352941%);fill-opacity:1;" d="M 378.023438 133.78125 L 436.621094 133.78125 L 436.621094 148.753906 L 412.199219 148.886719 L 412.199219 273.675781 L 402.375 273.675781 L 402.375 149.019531 L 402.230469 148.753906 L 378.023438 148.753906 Z M 378.023438 133.78125 "/>
<path style=" stroke:none;fill-rule:nonzero;fill:rgb(6.27451%,58.823529%,28.235294%);fill-opacity:1;" d="M 439.703125 314.304688 L 439.765625 314.238281 L 465.121094 243.984375 L 472.820312 243.984375 L 498.300781 314.371094 L 489.347656 314.371094 L 482.960938 295.996094 L 454.980469 295.996094 L 448.71875 314.304688 L 439.703125 314.304688 L 457.671875 288.398438 L 480.394531 288.332031 L 469.066406 255.484375 L 468.9375 255.417969 L 468.8125 255.613281 L 457.609375 288.332031 L 457.671875 288.398438 Z M 439.703125 314.304688 "/>
<path style=" stroke:none;fill-rule:nonzero;fill:rgb(83.921569%,15.686275%,22.352941%);fill-opacity:1;" d="M 439.703125 168.011719 L 498.300781 168.011719 L 498.300781 176.019531 L 473.878906 176.089844 L 473.878906 242.804688 L 464.054688 242.804688 L 464.054688 176.15625 L 463.910156 176.019531 L 439.703125 176.019531 Z M 439.703125 168.011719 "/>
<path style=" stroke:none;fill-rule:nonzero;fill:rgb(83.921569%,15.686275%,22.352941%);fill-opacity:1;" d="M 501.382812 20.664062 L 559.980469 20.664062 L 559.980469 52.101562 L 535.558594 52.378906 L 535.558594 314.371094 L 525.734375 314.371094 L 525.734375 52.652344 L 525.589844 52.101562 L 501.382812 52.101562 Z M 501.382812 20.664062 "/>
<path style=" stroke:none;fill-rule:nonzero;fill:rgb(96.862745%,70.196078%,16.862745%);fill-opacity:1;" d="M 563.0625 146.460938 L 563.132812 146.191406 L 563.132812 140.828125 L 563.421875 128.757812 L 564.132812 112.128906 L 565.0625 98.449219 L 566.0625 87.71875 L 566.707031 82.085938 L 567.777344 74.039062 L 568.707031 68.140625 L 571.066406 56.070312 L 574.066406 44.804688 L 575.710938 39.976562 L 577.570312 35.414062 L 580.210938 30.320312 L 581.425781 28.441406 L 585.144531 24.148438 L 589.359375 21.46875 L 594.003906 20.664062 L 596.148438 20.929688 L 599.078125 22.003906 L 603.078125 24.953125 L 605.367188 27.636719 L 607.152344 30.320312 L 609.011719 33.804688 L 611.296875 39.171875 L 613.441406 45.609375 L 615.15625 52.046875 L 616.871094 60.09375 L 618.300781 68.675781 L 619.515625 78.0625 L 620.585938 89.328125 L 621.230469 98.714844 L 621.65625 108.105469 L 611.726562 108.105469 L 611.152344 98.714844 L 610.511719 91.476562 L 609.4375 82.625 L 608.367188 76.1875 L 607.292969 71.089844 L 605.292969 64.117188 L 603.578125 59.824219 L 601.433594 56.070312 L 599.363281 53.65625 L 597.003906 52.046875 L 595.574219 51.507812 L 591.789062 51.507812 L 588.359375 53.386719 L 586.359375 55.53125 L 584.929688 57.679688 L 582.929688 61.703125 L 581.714844 64.921875 L 581 67.066406 L 578.855469 75.382812 L 577.425781 82.890625 L 576.640625 87.988281 L 575.640625 96.035156 L 574.925781 103.277344 L 574.136719 114.003906 L 573.710938 122.050781 L 573.136719 140.292969 L 573.066406 188.574219 L 573.28125 198.765625 L 573.710938 209.761719 L 574.28125 219.417969 L 575.140625 229.609375 L 575.996094 237.390625 L 577.496094 247.851562 L 578.785156 254.824219 L 579.785156 259.382812 L 581.714844 266.625 L 582.5 269.039062 L 584.355469 273.867188 L 586.285156 277.625 L 588.644531 280.84375 L 590.429688 282.453125 L 593.289062 283.792969 L 596.933594 283.792969 L 601.222656 282.183594 L 603.9375 280.039062 L 605.792969 277.890625 L 607.007812 276.015625 L 608.507812 273.0625 L 609.582031 270.382812 L 610.582031 267.429688 L 611.796875 262.871094 L 611.796875 198.765625 L 594.148438 198.496094 L 594.148438 168.457031 L 621.585938 168.1875 L 621.65625 273.0625 L 620.15625 280.304688 L 618.300781 287.28125 L 616.511719 292.644531 L 614.65625 297.203125 L 612.011719 302.300781 L 609.867188 305.519531 L 606.582031 309.273438 L 603.578125 311.6875 L 600.433594 313.296875 L 597.648438 314.101562 L 594.359375 314.371094 L 591.429688 313.835938 L 588.289062 312.226562 L 585.785156 310.078125 L 583.5 307.398438 L 581.210938 303.910156 L 578.355469 298.277344 L 576.496094 293.71875 L 574.566406 288.085938 L 572.636719 281.378906 L 570.921875 274.136719 L 569.78125 268.503906 L 568.636719 262.066406 L 567.421875 254.019531 L 566.277344 244.898438 L 565.421875 236.585938 L 564.632812 227.195312 L 564.0625 218.34375 L 563.492188 206.277344 L 563.207031 196.621094 L 563.0625 188.304688 Z M 563.0625 146.460938 "/>
<path style=" stroke:none;fill-rule:nonzero;fill:rgb(96.862745%,70.196078%,16.862745%);fill-opacity:1;" d="M 624.742188 146.460938 L 624.8125 146.191406 L 624.8125 140.828125 L 625.097656 128.757812 L 625.8125 112.128906 L 626.742188 98.449219 L 627.742188 87.71875 L 628.386719 82.085938 L 629.457031 74.039062 L 630.386719 68.140625 L 632.746094 56.070312 L 635.746094 44.804688 L 637.390625 39.976562 L 639.246094 35.414062 L 641.890625 30.320312 L 643.105469 28.441406 L 646.820312 24.148438 L 651.039062 21.46875 L 655.683594 20.664062 L 657.828125 20.929688 L 660.757812 22.003906 L 664.757812 24.953125 L 667.042969 27.636719 L 668.832031 30.320312 L 670.6875 33.804688 L 672.976562 39.171875 L 675.121094 45.609375 L 676.835938 52.046875 L 678.550781 60.09375 L 679.980469 68.675781 L 681.191406 78.0625 L 682.265625 89.328125 L 682.910156 98.714844 L 683.335938 108.105469 L 673.40625 108.105469 L 672.832031 98.714844 L 672.191406 91.476562 L 671.117188 82.625 L 670.046875 76.1875 L 668.972656 71.089844 L 666.972656 64.117188 L 665.257812 59.824219 L 663.113281 56.070312 L 661.042969 53.65625 L 658.683594 52.046875 L 657.253906 51.507812 L 653.46875 51.507812 L 650.039062 53.386719 L 648.035156 55.53125 L 646.609375 57.679688 L 644.605469 61.703125 L 643.390625 64.921875 L 642.675781 67.066406 L 640.535156 75.382812 L 639.105469 82.890625 L 638.320312 87.988281 L 637.316406 96.035156 L 636.605469 103.277344 L 635.816406 114.003906 L 635.390625 122.050781 L 634.816406 140.292969 L 634.746094 188.574219 L 634.960938 198.765625 L 635.390625 209.761719 L 635.960938 219.417969 L 636.816406 229.609375 L 637.675781 237.390625 L 639.175781 247.851562 L 640.460938 254.824219 L 641.464844 259.382812 L 643.390625 266.625 L 644.179688 269.039062 L 646.035156 273.867188 L 647.964844 277.625 L 650.324219 280.84375 L 652.109375 282.453125 L 654.96875 283.792969 L 658.613281 283.792969 L 662.898438 282.183594 L 665.617188 280.039062 L 667.472656 277.890625 L 668.6875 276.015625 L 670.1875 273.0625 L 671.261719 270.382812 L 672.261719 267.429688 L 673.476562 262.871094 L 673.476562 198.765625 L 655.824219 198.496094 L 655.824219 168.457031 L 683.265625 168.1875 L 683.335938 273.0625 L 681.835938 280.304688 L 679.980469 287.28125 L 678.191406 292.644531 L 676.335938 297.203125 L 673.691406 302.300781 L 671.546875 305.519531 L 668.257812 309.273438 L 665.257812 311.6875 L 662.113281 313.296875 L 659.328125 314.101562 L 656.039062 314.371094 L 653.109375 313.835938 L 649.964844 312.226562 L 647.464844 310.078125 L 645.179688 307.398438 L 642.890625 303.910156 L 640.035156 298.277344 L 638.175781 293.71875 L 636.246094 288.085938 L 634.316406 281.378906 L 632.601562 274.136719 L 631.457031 268.503906 L 630.316406 262.066406 L 629.101562 254.019531 L 627.957031 244.898438 L 627.101562 236.585938 L 626.3125 227.195312 L 625.742188 218.34375 L 625.171875 206.277344 L 624.882812 196.621094 L 624.742188 188.304688 Z M 624.742188 146.460938 "/>
<g style="fill:rgb(0%,0%,0%);fill-opacity:1;">
  <use xlink:href="#glyph0-1" x="21.957031" y="318.198242"/>
  <use xlink:href="#glyph0-2" x="27.291016" y="318.198242"/>
  <use xlink:href="#glyph0-1" x="29.958008" y="318.198242"/>
</g>
<g style="fill:rgb(0%,0%,0%);fill-opacity:1;">
  <use xlink:href="#glyph0-1" x="21.957031" y="244.475586"/>
  <use xlink:href="#glyph0-2" x="27.291016" y="244.475586"/>
  <use xlink:href="#glyph0-3" x="29.958008" y="244.475586"/>
</g>
<g style="fill:rgb(0%,0%,0%);fill-opacity:1;">
  <use xlink:href="#glyph0-4" x="21.957031" y="170.75293"/>
  <use xlink:href="#glyph0-2" x="27.291016" y="170.75293"/>
  <use xlink:href="#glyph0-1" x="29.958008" y="170.75293"/>
</g>
<g style="fill:rgb(0%,0%,0%);fill-opacity:1;">
  <use xlink:href="#glyph0-4" x="21.957031" y="97.03418"/>
  <use xlink:href="#glyph0-2" x="27.291016" y="97.03418"/>
  <use xlink:href="#glyph0-3" x="29.958008" y="97.03418"/>
</g>
<g style="fill:rgb(0%,0%,0%);fill-opacity:1;">
  <use xlink:href="#glyph0-5" x="21.957031" y="23.311523"/>
  <use xlink:href="#glyph0-2" x="27.291016" y="23.311523"/>
  <use xlink:href="#glyph0-1" x="29.958008" y="23.311523"/>
</g>
<g style="fill:rgb(0%,0%,0%);fill-opacity:1;">
  <use xlink:href="#glyph0-4" x="95.925781" y="338.19043"/>
</g>
<g style="fill:rgb(0%,0%,0%);fill-opacity:1;">
  <use xlink:href="#glyph0-5" x="157.605469" y="338.19043"/>
</g>
<g style="fill:rgb(0%,0%,0%);fill-opacity:1;">
  <use xlink:href="#glyph0-6" x="219.285156" y="338.19043"/>
</g>
<g style="fill:rgb(0%,0%,0%);fill-opacity:1;">
  <use xlink:href="#glyph0-7" x="280.964844" y="338.19043"/>
</g>
<g style="fill:rgb(0%,0%,0%);fill-opacity:1;">
  <use xlink:href="#glyph0-3" x="342.644531" y="338.19043"/>
</g>
<g style="fill:rgb(0%,0%,0%);fill-opacity:1;">
  <use xlink:href="#glyph0-8" x="404.324219" y="338.19043"/>
</g>
<g style="fill:rgb(0%,0%,0%);fill-opacity:1;">
  <use xlink:href="#glyph0-9" x="466" y="338.19043"/>
</g>
<g style="fill:rgb(0%,0%,0%);fill-opacity:1;">
  <use xlink:href="#glyph0-10" x="527.679688" y="338.19043"/>
</g>
<g style="fill:rgb(0%,0%,0%);fill-opacity:1;">
  <use xlink:href="#glyph0-11" x="589.359375" y="338.19043"/>
</g>
<g style="fill:rgb(0%,0%,0%);fill-opacity:1;">
  <use xlink:href="#glyph0-4" x="648.539062" y="338.19043"/>
  <use xlink:href="#glyph0-1" x="653.873047" y="338.19043"/>
</g>
<g style="fill:rgb(0%,0%,0%);fill-opacity:1;">
  <use xlink:href="#glyph1-1" x="14.412109" y="178.015625"/>
  <use xlink:href="#glyph1-2" x="14.412109" y="170.011719"/>
  <use xlink:href="#glyph1-3" x="14.412109" y="167.347656"/>
  <use xlink:href="#glyph1-4" x="14.412109" y="164.011719"/>
</g>
</g>
</svg>
