<?xml version="1.0" encoding="UTF-8"?>
<svg xmlns="http://www.w3.org/2000/svg" xmlns:xlink="http://www.w3.org/1999/xlink" width="720pt" height="360pt" viewBox="0 0 720 360" version="1.1">
<defs>
<g>
<symbol overflow="visible" id="glyph0-0">
<path style="stroke:none;" d=""/>
</symbol>
<symbol overflow="visible" id="glyph0-1">
<path style="stroke:none;" d="M 2.640625 -6.796875 C 2 -6.796875 1.421875 -6.53125 1.078125 -6.046875 C 0.640625 -5.453125 0.40625 -4.546875 0.40625 -3.296875 C 0.40625 -1 1.1875 0.21875 2.640625 0.21875 C 4.078125 0.21875 4.859375 -1 4.859375 -3.234375 C 4.859375 -4.5625 4.65625 -5.4375 4.203125 -6.046875 C 3.84375 -6.53125 3.28125 -6.796875 2.640625 -6.796875 Z M 2.640625 -6.046875 C 3.546875 -6.046875 4 -5.125 4 -3.3125 C 4 -1.375 3.5625 -0.484375 2.625 -0.484375 C 1.734375 -0.484375 1.28125 -1.421875 1.28125 -3.28125 C 1.28125 -5.140625 1.734375 -6.046875 2.640625 -6.046875 Z M 2.640625 -6.046875 "/>
</symbol>
<symbol overflow="visible" id="glyph0-2">
<path style="stroke:none;" d="M 1.828125 -1 L 0.828125 -1 L 0.828125 0 L 1.828125 0 Z M 1.828125 -1 "/>
</symbol>
<symbol overflow="visible" id="glyph0-3">
<path style="stroke:none;" d="M 4.5625 -6.796875 L 1.0625 -6.796875 L 0.546875 -3.09375 L 1.328125 -3.09375 C 1.71875 -3.5625 2.046875 -3.734375 2.578125 -3.734375 C 3.484375 -3.734375 4.0625 -3.109375 4.0625 -2.09375 C 4.0625 -1.125 3.484375 -0.53125 2.578125 -0.53125 C 1.828125 -0.53125 1.375 -0.90625 1.1875 -1.671875 L 0.328125 -1.671875 C 0.453125 -1.109375 0.546875 -0.84375 0.75 -0.59375 C 1.125 -0.078125 1.828125 0.21875 2.59375 0.21875 C 3.96875 0.21875 4.921875 -0.78125 4.921875 -2.21875 C 4.921875 -3.5625 4.03125 -4.484375 2.71875 -4.484375 C 2.25 -4.484375 1.859375 -4.359375 1.46875 -4.0625 L 1.734375 -5.96875 L 4.5625 -5.96875 Z M 4.5625 -6.796875 "/>
</symbol>
<symbol overflow="visible" id="glyph0-4">
<path style="stroke:none;" d="M 2.484375 -4.84375 L 2.484375 0 L 3.328125 0 L 3.328125 -6.796875 L 2.765625 -6.796875 C 2.46875 -5.75 2.28125 -5.609375 0.984375 -5.453125 L 0.984375 -4.84375 Z M 2.484375 -4.84375 "/>
</symbol>
<symbol overflow="visible" id="glyph0-5">
<path style="stroke:none;" d="M 4.859375 -0.828125 L 1.28125 -0.828125 C 1.359375 -1.390625 1.671875 -1.75 2.5 -2.234375 L 3.46875 -2.75 C 4.40625 -3.265625 4.90625 -3.96875 4.90625 -4.8125 C 4.90625 -5.375 4.671875 -5.90625 4.265625 -6.265625 C 3.859375 -6.625 3.375 -6.796875 2.71875 -6.796875 C 1.859375 -6.796875 1.21875 -6.5 0.84375 -5.921875 C 0.609375 -5.5625 0.5 -5.125 0.484375 -4.4375 L 1.328125 -4.4375 C 1.359375 -4.90625 1.40625 -5.1875 1.53125 -5.40625 C 1.75 -5.8125 2.1875 -6.0625 2.703125 -6.0625 C 3.46875 -6.0625 4.03125 -5.515625 4.03125 -4.78125 C 4.03125 -4.25 3.71875 -3.796875 3.125 -3.4375 L 2.234375 -2.9375 C 0.8125 -2.140625 0.40625 -1.5 0.328125 0 L 4.859375 0 Z M 4.859375 -0.828125 "/>
</symbol>
<symbol overflow="visible" id="glyph0-6">
<path style="stroke:none;" d="M 2.125 -3.125 L 2.578125 -3.125 C 3.515625 -3.125 3.984375 -2.703125 3.984375 -1.890625 C 3.984375 -1.03125 3.46875 -0.53125 2.578125 -0.53125 C 1.65625 -0.53125 1.203125 -0.984375 1.15625 -1.96875 L 0.3125 -1.96875 C 0.34375 -1.421875 0.4375 -1.078125 0.609375 -0.765625 C 0.953125 -0.109375 1.625 0.21875 2.546875 0.21875 C 3.953125 0.21875 4.859375 -0.609375 4.859375 -1.90625 C 4.859375 -2.765625 4.515625 -3.25 3.703125 -3.515625 C 4.34375 -3.765625 4.65625 -4.25 4.65625 -4.9375 C 4.65625 -6.109375 3.875 -6.796875 2.578125 -6.796875 C 1.203125 -6.796875 0.484375 -6.046875 0.453125 -4.609375 L 1.296875 -4.609375 C 1.3125 -5.015625 1.34375 -5.25 1.453125 -5.453125 C 1.640625 -5.828125 2.0625 -6.0625 2.59375 -6.0625 C 3.34375 -6.0625 3.796875 -5.625 3.796875 -4.90625 C 3.796875 -4.421875 3.609375 -4.140625 3.25 -3.984375 C 3.015625 -3.890625 2.71875 -3.84375 2.125 -3.84375 Z M 2.125 -3.125 "/>
</symbol>
<symbol overflow="visible" id="glyph0-7">
<path style="stroke:none;" d="M 3.140625 -1.625 L 3.140625 0 L 3.984375 0 L 3.984375 -1.625 L 4.984375 -1.625 L 4.984375 -2.390625 L 3.984375 -2.390625 L 3.984375 -6.796875 L 3.359375 -6.796875 L 0.265625 -2.515625 L 0.265625 -1.625 Z M 3.140625 -2.390625 L 1 -2.390625 L 3.140625 -5.359375 Z M 3.140625 -2.390625 "/>
</symbol>
<symbol overflow="visible" id="glyph0-8">
<path style="stroke:none;" d="M 4.78125 -5.03125 C 4.609375 -6.140625 3.890625 -6.796875 2.84375 -6.796875 C 2.09375 -6.796875 1.421875 -6.4375 1.03125 -5.828125 C 0.609375 -5.171875 0.40625 -4.34375 0.40625 -3.09375 C 0.40625 -1.953125 0.578125 -1.234375 0.984375 -0.625 C 1.359375 -0.078125 1.953125 0.21875 2.703125 0.21875 C 3.984375 0.21875 4.921875 -0.734375 4.921875 -2.078125 C 4.921875 -3.34375 4.0625 -4.234375 2.84375 -4.234375 C 2.171875 -4.234375 1.640625 -3.96875 1.28125 -3.46875 C 1.28125 -5.125 1.828125 -6.046875 2.796875 -6.046875 C 3.390625 -6.046875 3.796875 -5.671875 3.9375 -5.03125 Z M 2.734375 -3.484375 C 3.546875 -3.484375 4.0625 -2.921875 4.0625 -2 C 4.0625 -1.15625 3.484375 -0.53125 2.703125 -0.53125 C 1.921875 -0.53125 1.328125 -1.1875 1.328125 -2.046875 C 1.328125 -2.890625 1.90625 -3.484375 2.734375 -3.484375 Z M 2.734375 -3.484375 "/>
</symbol>
<symbol overflow="visible" id="glyph0-9">
<path style="stroke:none;" d="M 4.984375 -6.796875 L 0.4375 -6.796875 L 0.4375 -5.96875 L 4.109375 -5.96875 C 2.5 -3.65625 1.828125 -2.234375 1.328125 0 L 2.21875 0 C 2.59375 -2.171875 3.453125 -4.046875 4.984375 -6.09375 Z M 4.984375 -6.796875 "/>
</symbol>
<symbol overflow="visible" id="glyph0-10">
<path style="stroke:none;" d="M 3.75 -3.578125 C 4.453125 -4 4.6875 -4.34375 4.6875 -4.984375 C 4.6875 -6.046875 3.84375 -6.796875 2.640625 -6.796875 C 1.4375 -6.796875 0.59375 -6.046875 0.59375 -4.984375 C 0.59375 -4.359375 0.828125 -4.015625 1.515625 -3.578125 C 0.734375 -3.203125 0.359375 -2.640625 0.359375 -1.890625 C 0.359375 -0.640625 1.296875 0.21875 2.640625 0.21875 C 3.984375 0.21875 4.921875 -0.640625 4.921875 -1.875 C 4.921875 -2.640625 4.53125 -3.203125 3.75 -3.578125 Z M 2.640625 -6.046875 C 3.359375 -6.046875 3.8125 -5.625 3.8125 -4.96875 C 3.8125 -4.34375 3.34375 -3.921875 2.640625 -3.921875 C 1.921875 -3.921875 1.453125 -4.34375 1.453125 -4.984375 C 1.453125 -5.625 1.921875 -6.046875 2.640625 -6.046875 Z M 2.640625 -3.203125 C 3.484375 -3.203125 4.0625 -2.671875 4.0625 -1.875 C 4.0625 -1.0625 3.484375 -0.53125 2.625 -0.53125 C 1.796875 -0.53125 1.21875 -1.078125 1.21875 -1.875 C 1.21875 -2.671875 1.796875 -3.203125 2.640625 -3.203125 Z M 2.640625 -3.203125 "/>
</symbol>
<symbol overflow="visible" id="glyph0-11">
<path style="stroke:none;" d="M 0.515625 -1.546875 C 0.671875 -0.4375 1.40625 0.21875 2.4375 0.21875 C 3.1875 0.21875 3.859375 -0.140625 4.265625 -0.75 C 4.6875 -1.40625 4.890625 -2.25 4.890625 -3.484375 C 4.890625 -4.625 4.703125 -5.359375 4.3125 -5.953125 C 3.9375 -6.5 3.34375 -6.796875 2.59375 -6.796875 C 1.296875 -6.796875 0.359375 -5.84375 0.359375 -4.515625 C 0.359375 -3.25 1.234375 -2.34375 2.453125 -2.34375 C 3.09375 -2.34375 3.5625 -2.578125 4.015625 -3.109375 C 4 -1.453125 3.46875 -0.53125 2.5 -0.53125 C 1.90625 -0.53125 1.484375 -0.90625 1.359375 -1.546875 Z M 2.578125 -6.0625 C 3.375 -6.0625 3.96875 -5.40625 3.96875 -4.53125 C 3.96875 -3.6875 3.375 -3.09375 2.546875 -3.09375 C 1.734375 -3.09375 1.234375 -3.671875 1.234375 -4.578125 C 1.234375 -5.4375 1.796875 -6.0625 2.578125 -6.0625 Z M 2.578125 -6.0625 "/>
</symbol>
<symbol overflow="visible" id="glyph1-0">
<path style="stroke:none;" d=""/>
</symbol>
<symbol overflow="visible" id="glyph1-1">
<path style="stroke:none;" d="M 0 -0.953125 L 0 -4.890625 C 0 -5.71875 -0.234375 -6.34375 -0.734375 -6.796875 C -1.1875 -7.234375 -1.8125 -7.46875 -2.5 -7.46875 C -3.546875 -7.46875 -4.1875 -7 -4.625 -5.875 C -4.984375 -6.671875 -5.640625 -7.09375 -6.53125 -7.09375 C -7.15625 -7.09375 -7.734375 -6.859375 -8.140625 -6.390625 C -8.5625 -5.9375 -8.75 -5.34375 -8.75 -4.5 L -8.75 -0.953125 Z M -4.984375 -2.0625 L -7.765625 -2.0625 L -7.765625 -4.21875 C -7.765625 -4.84375 -7.6875 -5.203125 -7.453125 -5.5 C -7.21875 -5.8125 -6.859375 -5.96875 -6.375 -5.96875 C -5.90625 -5.96875 -5.53125 -5.8125 -5.296875 -5.5 C -5.0625 -5.203125 -4.984375 -4.84375 -4.984375 -4.21875 Z M -0.984375 -2.0625 L -4 -2.0625 L -4 -4.78125 C -4 -5.328125 -3.859375 -5.6875 -3.578125 -5.953125 C -3.296875 -6.21875 -2.921875 -6.359375 -2.484375 -6.359375 C -2.0625 -6.359375 -1.6875 -6.21875 -1.40625 -5.953125 C -1.109375 -5.6875 -0.984375 -5.328125 -0.984375 -4.78125 Z M -0.984375 -2.0625 "/>
</symbol>
<symbol overflow="visible" id="glyph1-2">
<path style="stroke:none;" d="M -6.28125 -1.796875 L -6.28125 -0.796875 L 0 -0.796875 L 0 -1.796875 Z M -8.75 -1.796875 L -8.75 -0.796875 L -7.484375 -0.796875 L -7.484375 -1.796875 Z M -8.75 -1.796875 "/>
</symbol>
<symbol overflow="visible" id="glyph1-3">
<path style="stroke:none;" d="M -6.28125 -3.046875 L -6.28125 -2.015625 L -8.015625 -2.015625 L -8.015625 -1.015625 L -6.28125 -1.015625 L -6.28125 -0.171875 L -5.46875 -0.171875 L -5.46875 -1.015625 L -0.71875 -1.015625 C -0.078125 -1.015625 0.28125 -1.453125 0.28125 -2.234375 C 0.28125 -2.46875 0.25 -2.71875 0.1875 -3.046875 L -0.640625 -3.046875 C -0.609375 -2.921875 -0.59375 -2.765625 -0.59375 -2.5625 C -0.59375 -2.140625 -0.71875 -2.015625 -1.15625 -2.015625 L -5.46875 -2.015625 L -5.46875 -3.046875 Z M -6.28125 -3.046875 "/>
</symbol>
<symbol overflow="visible" id="glyph1-4">
<path style="stroke:none;" d="M -4.53125 -5.25 C -5.765625 -5.25 -6.46875 -4.421875 -6.46875 -2.96875 C -6.46875 -1.515625 -5.71875 -0.5625 -4.546875 -0.5625 C -3.5625 -0.5625 -3.09375 -1.0625 -2.734375 -2.5625 L -2.515625 -3.484375 C -2.34375 -4.1875 -2.09375 -4.46875 -1.625 -4.46875 C -1.046875 -4.46875 -0.640625 -3.875 -0.640625 -3 C -0.640625 -2.453125 -0.796875 -2 -1.0625 -1.75 C -1.25 -1.59375 -1.421875 -1.53125 -1.875 -1.46875 L -1.875 -0.40625 C -0.421875 -0.453125 0.28125 -1.265625 0.28125 -2.921875 C 0.28125 -4.5 -0.5 -5.515625 -1.71875 -5.515625 C -2.65625 -5.515625 -3.171875 -4.984375 -3.46875 -3.734375 L -3.703125 -2.765625 C -3.890625 -1.953125 -4.15625 -1.609375 -4.59375 -1.609375 C -5.171875 -1.609375 -5.546875 -2.125 -5.546875 -2.9375 C -5.546875 -3.75 -5.203125 -4.171875 -4.53125 -4.203125 Z M -4.53125 -5.25 "/>
</symbol>
</g>
</defs>
<g id="surface60969">
<rect x="0" y="0" width="720" height="360" style="fill:rgb(100%,100%,100%);fill-opacity:1;stroke:none;"/>
<path style=" stroke:none;fill-rule:nonzero;fill:rgb(6.27451%,58.823529%,28.235294%);fill-opacity:1;" d="M 69.628906 299.648438 L 69.667969 299.636719 L 84.550781 287.792969 L 89.070312 287.792969 L 104.027344 299.660156 L 98.769531 299.660156 L 95.023438 296.5625 L 78.597656 296.5625 L 74.921875 299.648438 L 69.628906 299.648438 L 80.175781 295.28125 L 93.515625 295.269531 L 86.863281 289.734375 L 86.789062 289.722656 L 86.71875 289.753906 L 80.140625 295.269531 L 80.175781 295.28125 Z M 69.628906 299.648438 "/>
<path style=" stroke:none;fill-rule:nonzero;fill:rgb(14.509804%,36.078431%,60%);fill-opacity:1;" d="M 69.628906 308.921875 L 69.671875 308.917969 L 69.671875 308.84375 L 69.796875 308.730469 L 70.089844 308.589844 L 70.382812 308.492188 L 71.140625 308.316406 L 72.1875 308.144531 L 73.277344 308.015625 L 74.074219 307.9375 L 74.789062 307.875 L 76.425781 307.765625 L 77.472656 307.710938 L 78.605469 307.660156 L 79.992188 307.609375 L 80.996094 307.578125 L 83.261719 307.53125 L 84.941406 307.511719 L 86.242188 307.5 L 89.050781 307.5 L 90.730469 307.511719 L 91.945312 307.527344 L 93.289062 307.550781 L 94.421875 307.578125 L 96.390625 307.644531 L 98.152344 307.726562 L 98.949219 307.773438 L 100.207031 307.867188 L 101.171875 307.957031 L 101.84375 308.035156 L 102.601562 308.144531 L 103.269531 308.277344 L 103.773438 308.429688 L 104.027344 308.558594 L 98.152344 308.558594 L 97.859375 308.441406 L 97.523438 308.347656 L 96.894531 308.226562 L 96.265625 308.140625 L 95.386719 308.050781 L 94.585938 307.996094 L 93.496094 307.9375 L 92.53125 307.902344 L 91.527344 307.875 L 90.5625 307.859375 L 88.714844 307.839844 L 86.574219 307.839844 L 85.777344 307.847656 L 84.144531 307.871094 L 83.261719 307.890625 L 82.003906 307.933594 L 81.121094 307.972656 L 80.074219 308.03125 L 79.359375 308.082031 L 78.480469 308.160156 L 77.851562 308.226562 L 77.136719 308.328125 L 76.71875 308.402344 L 76.339844 308.484375 L 76.003906 308.582031 L 75.753906 308.6875 L 75.585938 308.796875 L 75.5 308.90625 L 75.5 309.367188 L 75.585938 309.472656 L 75.796875 309.601562 L 76.339844 309.78125 L 77.136719 309.941406 L 78.0625 310.066406 L 78.941406 310.152344 L 79.445312 310.195312 L 80.117188 310.242188 L 81.164062 310.304688 L 82.675781 310.363281 L 83.554688 310.386719 L 84.898438 310.410156 L 86.28125 310.421875 L 88.128906 310.421875 L 89.765625 310.410156 L 90.855469 310.394531 L 91.988281 310.371094 L 93.539062 310.320312 L 94.503906 310.273438 L 95.34375 310.21875 L 95.972656 310.160156 L 96.390625 310.113281 L 97.019531 310.019531 L 97.523438 309.917969 L 97.902344 309.8125 L 98.152344 309.714844 L 104.027344 309.714844 L 103.773438 309.832031 L 103.398438 309.949219 L 103.019531 310.035156 L 102.433594 310.140625 L 101.761719 310.230469 L 100.796875 310.335938 L 100 310.40625 L 98.949219 310.480469 L 97.984375 310.535156 L 96.9375 310.585938 L 95.386719 310.644531 L 94.378906 310.675781 L 93.289062 310.703125 L 91.988281 310.726562 L 90.351562 310.746094 L 88.589844 310.757812 L 86.953125 310.761719 L 85.191406 310.757812 L 83.890625 310.746094 L 82.171875 310.71875 L 80.03125 310.664062 L 78.480469 310.605469 L 77.265625 310.550781 L 76.214844 310.492188 L 75.039062 310.410156 L 73.53125 310.28125 L 72.609375 310.179688 L 71.976562 310.09375 L 71.265625 309.976562 L 70.761719 309.875 L 70.175781 309.707031 L 69.753906 309.496094 L 69.628906 309.332031 Z M 69.628906 308.921875 "/>
<path style=" stroke:none;fill-rule:nonzero;fill:rgb(96.862745%,70.196078%,16.862745%);fill-opacity:1;" d="M 69.628906 312.980469 L 69.671875 312.980469 L 69.671875 312.9375 L 69.839844 312.835938 L 70.257812 312.699219 L 70.804688 312.585938 L 71.390625 312.496094 L 71.769531 312.449219 L 72.398438 312.382812 L 72.941406 312.335938 L 74.328125 312.234375 L 76.089844 312.140625 L 77.054688 312.101562 L 78.144531 312.0625 L 79.695312 312.023438 L 80.410156 312.007812 L 82.589844 311.972656 L 85.066406 311.949219 L 87.792969 311.941406 L 89.050781 311.945312 L 90.769531 311.953125 L 93.121094 311.976562 L 94.460938 312 L 95.511719 312.023438 L 96.601562 312.050781 L 97.945312 312.09375 L 99.203125 312.148438 L 100.207031 312.203125 L 101.214844 312.269531 L 102.054688 312.339844 L 102.765625 312.417969 L 103.398438 312.507812 L 103.773438 312.585938 L 104.027344 312.664062 L 98.195312 312.664062 L 97.859375 312.585938 L 97.480469 312.527344 L 96.851562 312.453125 L 96.222656 312.402344 L 95.59375 312.359375 L 94.421875 312.300781 L 93.414062 312.265625 L 92.15625 312.234375 L 90.9375 312.214844 L 89.554688 312.203125 L 88.714844 312.195312 L 86.492188 312.195312 L 84.480469 312.210938 L 83.304688 312.230469 L 82.464844 312.246094 L 81.289062 312.28125 L 80.578125 312.308594 L 80.15625 312.324219 L 78.898438 312.394531 L 78.0625 312.457031 L 77.597656 312.5 L 77.011719 312.566406 L 76.59375 312.625 L 76.132812 312.714844 L 75.878906 312.78125 L 75.542969 312.929688 L 75.5 313.332031 L 75.628906 313.414062 L 75.878906 313.503906 L 76.214844 313.585938 L 76.71875 313.667969 L 77.222656 313.734375 L 78.101562 313.820312 L 78.859375 313.878906 L 79.445312 313.914062 L 80.578125 313.976562 L 81.039062 313.996094 L 82.128906 314.035156 L 83.261719 314.066406 L 84.644531 314.09375 L 85.695312 314.105469 L 87.371094 314.117188 L 89.511719 314.117188 L 92.027344 314.105469 L 93.625 314.085938 L 94.714844 314.070312 L 95.425781 314.054688 L 96.308594 314.027344 L 96.9375 314.007812 L 97.523438 313.984375 L 98.238281 313.945312 L 98.238281 313.414062 L 87.875 313.414062 L 87.875 313.164062 L 103.984375 313.160156 L 104.027344 314.027344 L 103.144531 314.089844 L 102.054688 314.148438 L 101.003906 314.191406 L 99.914062 314.230469 L 98.363281 314.269531 L 97.105469 314.296875 L 95.175781 314.328125 L 93.414062 314.347656 L 91.566406 314.363281 L 89.933594 314.367188 L 88.003906 314.371094 L 86.28125 314.367188 L 84.4375 314.351562 L 82.96875 314.335938 L 81.625 314.3125 L 80.285156 314.285156 L 78.605469 314.238281 L 77.515625 314.199219 L 76.382812 314.152344 L 75.25 314.097656 L 74.242188 314.039062 L 73.574219 313.992188 L 72.902344 313.9375 L 72.1875 313.871094 L 71.515625 313.796875 L 71.011719 313.726562 L 70.550781 313.648438 L 70.214844 313.578125 L 69.882812 313.476562 L 69.714844 313.398438 L 69.628906 313.328125 Z M 69.628906 312.980469 "/>
<path style=" stroke:none;fill-rule:nonzero;fill:rgb(83.921569%,15.686275%,22.352941%);fill-opacity:1;" d="M 69.628906 300.839844 L 104.027344 300.839844 L 104.027344 301.425781 L 89.691406 301.429688 L 89.691406 306.320312 L 83.921875 306.320312 L 83.921875 301.4375 L 83.839844 301.425781 L 69.628906 301.425781 Z M 69.628906 300.839844 "/>
<path style=" stroke:none;fill-rule:nonzero;fill:rgb(6.27451%,58.823529%,28.235294%);fill-opacity:1;" d="M 105.835938 311.582031 L 105.871094 311.582031 L 120.757812 311.347656 L 125.277344 311.347656 L 140.234375 311.582031 L 134.976562 311.582031 L 131.230469 311.519531 L 114.804688 311.519531 L 111.128906 311.582031 L 105.835938 311.582031 L 116.382812 311.496094 L 129.722656 311.496094 L 123.070312 311.386719 L 122.996094 311.382812 L 122.925781 311.386719 L 116.347656 311.496094 L 116.382812 311.496094 Z M 105.835938 311.582031 "/>
<path style=" stroke:none;fill-rule:nonzero;fill:rgb(6.27451%,58.823529%,28.235294%);fill-opacity:1;" d="M 142.042969 305.132812 L 142.078125 305.113281 L 156.964844 285.839844 L 161.484375 285.839844 L 176.441406 305.148438 L 171.183594 305.148438 L 167.4375 300.109375 L 151.011719 300.109375 L 147.335938 305.132812 L 142.042969 305.132812 L 152.589844 298.023438 L 165.929688 298.003906 L 159.277344 288.992188 L 159.203125 288.976562 L 159.132812 289.03125 L 152.554688 298.003906 L 152.589844 298.023438 Z M 142.042969 305.132812 "/>
<path style=" stroke:none;fill-rule:nonzero;fill:rgb(14.509804%,36.078431%,60%);fill-opacity:1;" d="M 142.042969 308.714844 L 142.085938 308.707031 L 142.085938 308.589844 L 142.210938 308.398438 L 142.503906 308.15625 L 142.796875 307.992188 L 143.554688 307.695312 L 144.601562 307.410156 L 145.691406 307.191406 L 146.488281 307.058594 L 147.203125 306.960938 L 148.839844 306.773438 L 149.886719 306.679688 L 151.019531 306.59375 L 152.402344 306.507812 L 153.410156 306.460938 L 155.675781 306.378906 L 157.355469 306.34375 L 158.652344 306.328125 L 161.464844 306.328125 L 163.144531 306.347656 L 164.359375 306.375 L 165.703125 306.414062 L 166.832031 306.460938 L 168.804688 306.570312 L 170.566406 306.710938 L 171.363281 306.789062 L 172.621094 306.945312 L 173.585938 307.09375 L 174.257812 307.226562 L 175.011719 307.410156 L 175.683594 307.636719 L 176.1875 307.890625 L 176.441406 308.109375 L 170.566406 308.109375 L 170.273438 307.90625 L 169.9375 307.75 L 169.308594 307.546875 L 168.679688 307.402344 L 167.796875 307.257812 L 167 307.160156 L 165.910156 307.066406 L 164.945312 307.003906 L 163.941406 306.960938 L 162.976562 306.929688 L 161.128906 306.898438 L 158.988281 306.898438 L 158.191406 306.910156 L 156.558594 306.949219 L 155.675781 306.984375 L 154.417969 307.054688 L 153.535156 307.121094 L 152.488281 307.222656 L 151.773438 307.304688 L 150.894531 307.4375 L 150.265625 307.550781 L 149.550781 307.714844 L 149.132812 307.84375 L 148.753906 307.980469 L 148.417969 308.148438 L 148.167969 308.324219 L 148 308.507812 L 147.914062 308.6875 L 147.914062 309.464844 L 148 309.644531 L 148.210938 309.855469 L 148.753906 310.160156 L 149.550781 310.425781 L 150.472656 310.636719 L 151.355469 310.789062 L 151.859375 310.859375 L 152.53125 310.9375 L 153.578125 311.039062 L 155.089844 311.136719 L 155.96875 311.179688 L 157.3125 311.21875 L 158.695312 311.238281 L 160.542969 311.238281 L 162.179688 311.21875 L 163.269531 311.191406 L 164.402344 311.152344 L 165.953125 311.066406 L 166.917969 310.988281 L 167.757812 310.890625 L 168.386719 310.796875 L 168.804688 310.71875 L 169.433594 310.5625 L 169.9375 310.390625 L 170.316406 310.214844 L 170.566406 310.046875 L 176.441406 310.046875 L 176.1875 310.246094 L 175.8125 310.441406 L 175.433594 310.585938 L 174.847656 310.761719 L 174.175781 310.917969 L 173.210938 311.09375 L 172.414062 311.207031 L 171.363281 311.332031 L 170.398438 311.429688 L 169.351562 311.515625 L 167.796875 311.613281 L 166.792969 311.664062 L 165.703125 311.710938 L 164.402344 311.75 L 162.765625 311.785156 L 161.003906 311.804688 L 159.367188 311.808594 L 157.605469 311.800781 L 156.304688 311.777344 L 154.585938 311.734375 L 152.445312 311.644531 L 150.894531 311.546875 L 149.675781 311.453125 L 148.628906 311.351562 L 147.453125 311.21875 L 145.945312 310.996094 L 145.019531 310.828125 L 144.390625 310.6875 L 143.679688 310.492188 L 143.175781 310.316406 L 142.589844 310.035156 L 142.167969 309.679688 L 142.042969 309.40625 Z M 142.042969 308.714844 "/>
<path style=" stroke:none;fill-rule:nonzero;fill:rgb(96.862745%,70.196078%,16.862745%);fill-opacity:1;" d="M 142.042969 313.582031 L 142.085938 313.578125 L 142.085938 313.554688 L 142.253906 313.496094 L 142.671875 313.417969 L 143.21875 313.355469 L 143.804688 313.304688 L 144.183594 313.277344 L 144.8125 313.238281 L 145.355469 313.210938 L 146.742188 313.15625 L 148.503906 313.101562 L 149.46875 313.078125 L 150.558594 313.058594 L 152.109375 313.035156 L 152.824219 313.027344 L 155.003906 313.003906 L 157.480469 312.992188 L 160.207031 312.988281 L 161.464844 312.988281 L 163.183594 312.996094 L 165.535156 313.007812 L 166.875 313.023438 L 167.925781 313.035156 L 169.015625 313.050781 L 170.359375 313.074219 L 171.617188 313.105469 L 172.621094 313.136719 L 173.628906 313.175781 L 174.46875 313.214844 L 175.179688 313.257812 L 175.8125 313.3125 L 176.1875 313.355469 L 176.441406 313.398438 L 170.609375 313.398438 L 170.273438 313.355469 L 169.894531 313.320312 L 169.265625 313.28125 L 168.636719 313.25 L 168.007812 313.226562 L 166.832031 313.191406 L 165.828125 313.171875 L 164.570312 313.15625 L 163.351562 313.144531 L 161.96875 313.136719 L 161.128906 313.132812 L 158.90625 313.132812 L 156.890625 313.144531 L 155.71875 313.152344 L 154.878906 313.164062 L 153.703125 313.183594 L 152.992188 313.195312 L 152.570312 313.207031 L 151.3125 313.246094 L 150.472656 313.28125 L 150.011719 313.304688 L 149.425781 313.34375 L 149.007812 313.378906 L 148.546875 313.429688 L 148.292969 313.464844 L 147.957031 313.550781 L 147.914062 313.777344 L 148.042969 313.828125 L 148.292969 313.878906 L 148.628906 313.925781 L 149.132812 313.972656 L 149.636719 314.007812 L 150.515625 314.058594 L 151.273438 314.089844 L 151.859375 314.113281 L 152.992188 314.144531 L 153.453125 314.15625 L 154.542969 314.179688 L 155.675781 314.199219 L 157.058594 314.214844 L 158.109375 314.21875 L 159.785156 314.226562 L 161.925781 314.226562 L 164.441406 314.21875 L 166.035156 314.210938 L 167.128906 314.199219 L 167.839844 314.191406 L 168.722656 314.175781 L 169.351562 314.164062 L 169.9375 314.148438 L 170.652344 314.128906 L 170.652344 313.828125 L 160.289062 313.824219 L 160.289062 313.683594 L 176.398438 313.683594 L 176.441406 314.175781 L 175.558594 314.210938 L 174.46875 314.242188 L 173.417969 314.269531 L 172.328125 314.289062 L 170.777344 314.3125 L 169.519531 314.328125 L 167.589844 314.347656 L 165.828125 314.359375 L 163.980469 314.367188 L 162.34375 314.371094 L 160.417969 314.371094 L 158.695312 314.367188 L 156.851562 314.359375 L 155.382812 314.351562 L 154.039062 314.335938 L 152.699219 314.320312 L 151.019531 314.296875 L 149.929688 314.273438 L 148.796875 314.246094 L 147.664062 314.214844 L 145.984375 314.15625 L 145.316406 314.125 L 144.601562 314.085938 L 143.929688 314.042969 L 143.425781 314.003906 L 142.964844 313.960938 L 142.628906 313.917969 L 142.292969 313.863281 L 142.128906 313.816406 L 142.042969 313.777344 Z M 142.042969 313.582031 "/>
<path style=" stroke:none;fill-rule:nonzero;fill:rgb(83.921569%,15.686275%,22.352941%);fill-opacity:1;" d="M 142.042969 263.808594 L 176.441406 263.808594 L 176.441406 266.042969 L 162.105469 266.0625 L 162.105469 284.660156 L 156.335938 284.660156 L 156.335938 266.082031 L 156.253906 266.042969 L 142.042969 266.042969 Z M 142.042969 263.808594 "/>
<path style=" stroke:none;fill-rule:nonzero;fill:rgb(6.27451%,58.823529%,28.235294%);fill-opacity:1;" d="M 178.25 306.03125 L 178.285156 306.023438 L 193.171875 299.476562 L 197.691406 299.476562 L 212.648438 306.035156 L 207.390625 306.035156 L 203.644531 304.324219 L 187.21875 304.324219 L 183.542969 306.03125 L 178.25 306.03125 L 188.796875 303.617188 L 202.136719 303.609375 L 195.484375 300.546875 L 195.410156 300.542969 L 195.339844 300.5625 L 188.761719 303.609375 L 188.796875 303.617188 Z M 178.25 306.03125 "/>
<path style=" stroke:none;fill-rule:nonzero;fill:rgb(14.509804%,36.078431%,60%);fill-opacity:1;" d="M 178.25 291.230469 L 178.292969 291.21875 L 178.292969 290.941406 L 178.417969 290.507812 L 178.710938 289.960938 L 179.003906 289.582031 L 179.761719 288.90625 L 180.808594 288.253906 L 181.898438 287.753906 L 182.695312 287.453125 L 183.410156 287.226562 L 185.046875 286.804688 L 186.09375 286.585938 L 187.226562 286.390625 L 188.609375 286.195312 L 189.617188 286.082031 L 191.882812 285.898438 L 193.5625 285.820312 L 194.859375 285.785156 L 197.671875 285.785156 L 199.347656 285.832031 L 200.566406 285.886719 L 201.910156 285.980469 L 203.039062 286.082031 L 205.011719 286.332031 L 206.773438 286.652344 L 207.570312 286.835938 L 208.828125 287.191406 L 209.792969 287.535156 L 210.464844 287.832031 L 211.21875 288.253906 L 211.890625 288.769531 L 212.394531 289.351562 L 212.648438 289.84375 L 206.773438 289.84375 L 206.480469 289.386719 L 206.144531 289.03125 L 205.515625 288.5625 L 204.886719 288.234375 L 204.003906 287.902344 L 203.207031 287.683594 L 202.117188 287.464844 L 201.152344 287.328125 L 200.148438 287.226562 L 199.183594 287.15625 L 197.335938 287.089844 L 195.195312 287.089844 L 194.398438 287.113281 L 192.765625 287.203125 L 191.882812 287.28125 L 190.625 287.441406 L 189.742188 287.59375 L 188.695312 287.820312 L 187.980469 288.015625 L 187.101562 288.3125 L 186.472656 288.574219 L 185.757812 288.953125 L 185.339844 289.238281 L 184.960938 289.558594 L 184.625 289.9375 L 184.375 290.335938 L 184.207031 290.761719 L 184.121094 291.171875 L 184.121094 292.945312 L 184.207031 293.355469 L 184.417969 293.835938 L 184.960938 294.535156 L 185.757812 295.140625 L 186.679688 295.621094 L 187.5625 295.964844 L 188.066406 296.125 L 188.738281 296.308594 L 189.785156 296.535156 L 191.296875 296.765625 L 192.175781 296.855469 L 193.519531 296.949219 L 194.902344 296.992188 L 196.75 296.992188 L 198.386719 296.949219 L 199.476562 296.890625 L 200.609375 296.800781 L 202.160156 296.605469 L 203.125 296.421875 L 203.964844 296.203125 L 204.59375 295.988281 L 205.011719 295.804688 L 205.640625 295.449219 L 206.144531 295.0625 L 206.523438 294.660156 L 206.773438 294.269531 L 212.648438 294.269531 L 212.394531 294.730469 L 212.015625 295.175781 L 211.640625 295.507812 L 211.054688 295.90625 L 210.382812 296.261719 L 209.417969 296.660156 L 208.621094 296.925781 L 207.570312 297.210938 L 206.605469 297.429688 L 205.558594 297.621094 L 204.003906 297.851562 L 203 297.964844 L 201.910156 298.070312 L 200.609375 298.160156 L 198.972656 298.238281 L 197.210938 298.285156 L 195.574219 298.296875 L 193.8125 298.273438 L 192.511719 298.230469 L 190.792969 298.125 L 188.652344 297.921875 L 187.101562 297.703125 L 185.882812 297.484375 L 184.835938 297.257812 L 183.660156 296.949219 L 182.152344 296.445312 L 181.226562 296.054688 L 180.597656 295.734375 L 179.886719 295.289062 L 179.382812 294.890625 L 178.796875 294.25 L 178.375 293.4375 L 178.25 292.808594 Z M 178.25 291.230469 "/>
<path style=" stroke:none;fill-rule:nonzero;fill:rgb(96.862745%,70.196078%,16.862745%);fill-opacity:1;" d="M 178.25 313.34375 L 178.292969 313.339844 L 178.292969 313.308594 L 178.460938 313.234375 L 178.878906 313.132812 L 179.425781 313.050781 L 180.011719 312.984375 L 180.390625 312.949219 L 181.019531 312.898438 L 181.5625 312.863281 L 182.949219 312.789062 L 184.710938 312.722656 L 185.675781 312.691406 L 186.765625 312.664062 L 188.316406 312.632812 L 189.03125 312.621094 L 191.210938 312.59375 L 193.6875 312.578125 L 196.414062 312.574219 L 197.671875 312.574219 L 199.390625 312.582031 L 201.742188 312.601562 L 203.082031 312.617188 L 204.132812 312.632812 L 205.222656 312.652344 L 206.5625 312.6875 L 207.824219 312.726562 L 208.828125 312.765625 L 209.835938 312.816406 L 210.675781 312.867188 L 211.386719 312.925781 L 212.015625 312.992188 L 212.394531 313.050781 L 212.648438 313.109375 L 206.816406 313.109375 L 206.480469 313.050781 L 206.101562 313.007812 L 205.472656 312.953125 L 204.84375 312.914062 L 204.214844 312.882812 L 203.039062 312.839844 L 202.035156 312.8125 L 200.777344 312.789062 L 199.558594 312.777344 L 198.175781 312.765625 L 197.335938 312.761719 L 195.113281 312.761719 L 193.097656 312.773438 L 191.925781 312.785156 L 191.085938 312.800781 L 189.910156 312.824219 L 189.199219 312.84375 L 188.777344 312.859375 L 187.519531 312.910156 L 186.679688 312.953125 L 186.21875 312.984375 L 185.632812 313.035156 L 185.214844 313.078125 L 184.753906 313.144531 L 184.5 313.195312 L 184.164062 313.304688 L 184.121094 313.601562 L 184.25 313.664062 L 184.5 313.730469 L 184.835938 313.789062 L 185.339844 313.851562 L 185.84375 313.898438 L 186.722656 313.964844 L 187.480469 314.007812 L 188.066406 314.035156 L 189.199219 314.078125 L 189.660156 314.09375 L 190.75 314.121094 L 191.882812 314.144531 L 193.265625 314.164062 L 194.316406 314.175781 L 195.992188 314.183594 L 198.132812 314.183594 L 200.648438 314.171875 L 202.242188 314.160156 L 203.335938 314.148438 L 204.046875 314.136719 L 204.929688 314.117188 L 205.558594 314.101562 L 206.144531 314.082031 L 206.859375 314.054688 L 206.859375 313.664062 L 196.496094 313.660156 L 196.496094 313.476562 L 212.605469 313.476562 L 212.648438 314.117188 L 211.765625 314.164062 L 210.675781 314.203125 L 209.625 314.238281 L 208.535156 314.265625 L 206.984375 314.296875 L 205.726562 314.316406 L 203.796875 314.339844 L 202.035156 314.355469 L 200.1875 314.363281 L 198.550781 314.367188 L 196.621094 314.371094 L 194.902344 314.367188 L 193.058594 314.359375 L 191.589844 314.34375 L 190.246094 314.328125 L 188.90625 314.308594 L 187.226562 314.273438 L 186.136719 314.246094 L 185.003906 314.210938 L 183.871094 314.167969 L 182.863281 314.125 L 182.191406 314.089844 L 181.523438 314.050781 L 180.808594 314 L 180.136719 313.945312 L 179.632812 313.894531 L 179.171875 313.835938 L 178.835938 313.78125 L 178.5 313.710938 L 178.335938 313.648438 L 178.25 313.597656 Z M 178.25 313.34375 "/>
<path style=" stroke:none;fill-rule:nonzero;fill:rgb(83.921569%,15.686275%,22.352941%);fill-opacity:1;" d="M 178.25 307.214844 L 212.648438 307.214844 L 212.648438 307.664062 L 198.3125 307.667969 L 198.3125 311.394531 L 192.542969 311.394531 L 192.542969 307.671875 L 192.460938 307.664062 L 178.25 307.664062 Z M 178.25 307.214844 "/>
<path style=" stroke:none;fill-rule:nonzero;fill:rgb(6.27451%,58.823529%,28.235294%);fill-opacity:1;" d="M 214.457031 304.5625 L 214.492188 304.550781 L 229.378906 292.035156 L 233.898438 292.035156 L 248.855469 304.574219 L 243.597656 304.574219 L 239.851562 301.300781 L 223.421875 301.300781 L 219.75 304.5625 L 214.457031 304.5625 L 225.003906 299.945312 L 238.34375 299.933594 L 231.691406 294.082031 L 231.617188 294.070312 L 231.546875 294.105469 L 224.96875 299.933594 L 225.003906 299.945312 Z M 214.457031 304.5625 "/>
<path style=" stroke:none;fill-rule:nonzero;fill:rgb(14.509804%,36.078431%,60%);fill-opacity:1;" d="M 214.457031 307.582031 L 214.5 307.578125 L 214.5 307.488281 L 214.625 307.339844 L 214.917969 307.15625 L 215.210938 307.03125 L 215.96875 306.800781 L 217.015625 306.582031 L 218.105469 306.414062 L 218.902344 306.3125 L 219.617188 306.238281 L 221.253906 306.09375 L 222.300781 306.023438 L 223.433594 305.957031 L 224.816406 305.890625 L 225.824219 305.851562 L 228.089844 305.789062 L 229.769531 305.765625 L 231.066406 305.753906 L 233.878906 305.753906 L 235.554688 305.769531 L 236.773438 305.785156 L 238.117188 305.816406 L 239.246094 305.851562 L 241.21875 305.9375 L 242.980469 306.042969 L 243.777344 306.105469 L 245.035156 306.226562 L 246 306.339844 L 246.671875 306.441406 L 247.425781 306.582031 L 248.097656 306.757812 L 248.601562 306.953125 L 248.855469 307.117188 L 242.980469 307.117188 L 242.6875 306.964844 L 242.351562 306.84375 L 241.722656 306.6875 L 241.09375 306.574219 L 240.210938 306.464844 L 239.414062 306.390625 L 238.324219 306.316406 L 237.359375 306.273438 L 236.351562 306.238281 L 235.390625 306.214844 L 233.542969 306.191406 L 231.402344 306.191406 L 230.605469 306.199219 L 228.972656 306.230469 L 228.089844 306.257812 L 226.832031 306.308594 L 225.949219 306.359375 L 224.902344 306.4375 L 224.1875 306.503906 L 223.308594 306.601562 L 222.679688 306.691406 L 221.964844 306.816406 L 221.546875 306.914062 L 221.167969 307.023438 L 220.832031 307.148438 L 220.582031 307.285156 L 220.414062 307.425781 L 220.328125 307.566406 L 220.328125 308.160156 L 220.414062 308.300781 L 220.625 308.460938 L 221.167969 308.695312 L 221.964844 308.898438 L 222.886719 309.0625 L 223.769531 309.175781 L 224.273438 309.230469 L 224.945312 309.292969 L 225.992188 309.367188 L 227.503906 309.445312 L 228.382812 309.476562 L 229.726562 309.507812 L 231.109375 309.523438 L 232.957031 309.523438 L 234.589844 309.507812 L 235.683594 309.488281 L 236.816406 309.457031 L 238.367188 309.390625 L 239.332031 309.332031 L 240.171875 309.257812 L 240.800781 309.183594 L 241.21875 309.121094 L 241.847656 309.003906 L 242.351562 308.871094 L 242.730469 308.738281 L 242.980469 308.605469 L 248.855469 308.605469 L 248.601562 308.761719 L 248.222656 308.910156 L 247.847656 309.023438 L 247.257812 309.15625 L 246.589844 309.277344 L 245.625 309.410156 L 244.828125 309.5 L 243.777344 309.597656 L 242.8125 309.667969 L 241.765625 309.734375 L 240.210938 309.8125 L 239.207031 309.851562 L 238.117188 309.882812 L 236.816406 309.914062 L 235.179688 309.941406 L 233.417969 309.957031 L 231.78125 309.960938 L 230.019531 309.953125 L 228.71875 309.9375 L 227 309.902344 L 224.859375 309.835938 L 223.308594 309.761719 L 222.089844 309.6875 L 221.042969 309.613281 L 219.867188 309.507812 L 218.359375 309.339844 L 217.433594 309.207031 L 216.804688 309.101562 L 216.09375 308.949219 L 215.589844 308.816406 L 215.003906 308.597656 L 214.582031 308.328125 L 214.457031 308.113281 Z M 214.457031 307.582031 "/>
<path style=" stroke:none;fill-rule:nonzero;fill:rgb(96.862745%,70.196078%,16.862745%);fill-opacity:1;" d="M 214.457031 276.964844 L 214.5 276.945312 L 214.5 276.5 L 214.667969 275.5 L 215.085938 274.125 L 215.632812 272.996094 L 216.21875 272.105469 L 216.597656 271.640625 L 217.226562 270.976562 L 217.769531 270.488281 L 219.15625 269.488281 L 220.917969 268.558594 L 221.882812 268.15625 L 222.972656 267.78125 L 224.523438 267.359375 L 225.238281 267.203125 L 227.417969 266.847656 L 229.894531 266.625 L 232.621094 266.558594 L 233.878906 266.582031 L 235.597656 266.671875 L 237.949219 266.914062 L 239.289062 267.136719 L 240.339844 267.359375 L 241.429688 267.648438 L 242.769531 268.089844 L 244.03125 268.625 L 245.035156 269.15625 L 246.042969 269.820312 L 246.882812 270.53125 L 247.59375 271.308594 L 248.222656 272.238281 L 248.601562 273.015625 L 248.855469 273.792969 L 243.023438 273.792969 L 242.6875 273.015625 L 242.308594 272.417969 L 241.679688 271.683594 L 241.050781 271.152344 L 240.421875 270.730469 L 239.246094 270.15625 L 238.242188 269.800781 L 236.984375 269.488281 L 235.765625 269.289062 L 234.382812 269.15625 L 233.542969 269.113281 L 231.320312 269.113281 L 229.304688 269.265625 L 228.132812 269.445312 L 227.292969 269.621094 L 226.117188 269.953125 L 225.40625 270.222656 L 224.984375 270.398438 L 223.726562 271.085938 L 222.886719 271.707031 L 222.425781 272.128906 L 221.839844 272.792969 L 221.421875 273.394531 L 220.957031 274.28125 L 220.707031 274.945312 L 220.371094 276.457031 L 220.328125 280.449219 L 220.457031 281.292969 L 220.707031 282.203125 L 221.042969 283 L 221.546875 283.84375 L 222.050781 284.488281 L 222.929688 285.351562 L 223.683594 285.929688 L 224.273438 286.308594 L 225.40625 286.90625 L 225.867188 287.105469 L 226.957031 287.503906 L 228.089844 287.816406 L 229.472656 288.082031 L 230.523438 288.214844 L 232.199219 288.324219 L 234.339844 288.324219 L 236.855469 288.191406 L 238.449219 288.015625 L 239.542969 287.839844 L 240.253906 287.683594 L 241.136719 287.4375 L 241.765625 287.214844 L 242.351562 286.972656 L 243.066406 286.59375 L 243.066406 281.292969 L 232.703125 281.269531 L 232.703125 278.785156 L 248.8125 278.761719 L 248.855469 287.4375 L 247.972656 288.039062 L 246.882812 288.613281 L 245.832031 289.058594 L 244.742188 289.433594 L 243.191406 289.855469 L 241.933594 290.125 L 240.003906 290.433594 L 238.242188 290.632812 L 236.394531 290.765625 L 234.757812 290.832031 L 232.828125 290.855469 L 231.109375 290.8125 L 229.265625 290.679688 L 227.796875 290.5 L 226.453125 290.277344 L 225.113281 289.988281 L 223.433594 289.523438 L 222.34375 289.148438 L 221.210938 288.679688 L 220.078125 288.125 L 219.070312 287.527344 L 218.398438 287.0625 L 217.730469 286.527344 L 217.015625 285.863281 L 216.34375 285.109375 L 215.839844 284.421875 L 215.378906 283.644531 L 215.042969 282.914062 L 214.707031 281.914062 L 214.539062 281.113281 L 214.457031 280.425781 Z M 214.457031 276.964844 "/>
<path style=" stroke:none;fill-rule:nonzero;fill:rgb(83.921569%,15.686275%,22.352941%);fill-opacity:1;" d="M 214.457031 311.140625 L 248.855469 311.140625 L 248.855469 311.488281 L 234.519531 311.488281 L 234.519531 314.371094 L 228.75 314.371094 L 228.75 311.492188 L 228.667969 311.488281 L 214.457031 311.488281 Z M 214.457031 311.140625 "/>
<path style=" stroke:none;fill-rule:nonzero;fill:rgb(6.27451%,58.823529%,28.235294%);fill-opacity:1;" d="M 250.664062 313.414062 L 250.699219 313.410156 L 265.582031 307.933594 L 270.105469 307.933594 L 285.0625 313.417969 L 279.804688 313.417969 L 276.058594 311.988281 L 259.628906 311.988281 L 255.957031 313.414062 L 250.664062 313.414062 L 261.210938 311.394531 L 274.550781 311.390625 L 267.898438 308.832031 L 267.824219 308.824219 L 267.753906 308.839844 L 261.175781 311.390625 L 261.210938 311.394531 Z M 250.664062 313.414062 "/>
<path style=" stroke:none;fill-rule:nonzero;fill:rgb(14.509804%,36.078431%,60%);fill-opacity:1;" d="M 250.664062 285.910156 L 250.707031 285.875 L 250.707031 285.066406 L 250.832031 283.785156 L 251.125 282.167969 L 251.417969 281.054688 L 252.175781 279.0625 L 253.222656 277.140625 L 254.3125 275.65625 L 255.109375 274.78125 L 255.824219 274.105469 L 257.460938 272.855469 L 258.507812 272.214844 L 259.640625 271.644531 L 261.023438 271.070312 L 262.03125 270.730469 L 264.296875 270.191406 L 265.976562 269.957031 L 267.273438 269.855469 L 270.085938 269.855469 L 271.761719 269.988281 L 272.980469 270.160156 L 274.320312 270.429688 L 275.453125 270.730469 L 277.425781 271.472656 L 279.1875 272.417969 L 279.984375 272.957031 L 281.242188 274.003906 L 282.207031 275.015625 L 282.878906 275.894531 L 283.632812 277.140625 L 284.304688 278.660156 L 284.808594 280.378906 L 285.0625 281.828125 L 279.1875 281.828125 L 278.894531 280.480469 L 278.558594 279.433594 L 277.929688 278.050781 L 277.300781 277.074219 L 276.417969 276.09375 L 275.621094 275.453125 L 274.53125 274.8125 L 273.566406 274.410156 L 272.558594 274.105469 L 271.59375 273.902344 L 269.75 273.699219 L 267.609375 273.699219 L 266.8125 273.769531 L 265.179688 274.039062 L 264.296875 274.273438 L 263.039062 274.746094 L 262.15625 275.183594 L 261.109375 275.859375 L 260.394531 276.433594 L 259.515625 277.308594 L 258.886719 278.085938 L 258.171875 279.199219 L 257.753906 280.042969 L 257.375 280.984375 L 257.039062 282.097656 L 256.789062 283.277344 L 256.621094 284.527344 L 256.535156 285.742188 L 256.535156 290.96875 L 256.621094 292.183594 L 256.832031 293.601562 L 257.375 295.65625 L 258.171875 297.445312 L 259.09375 298.863281 L 259.976562 299.875 L 260.480469 300.347656 L 261.152344 300.886719 L 262.199219 301.558594 L 263.710938 302.234375 L 264.589844 302.503906 L 265.933594 302.773438 L 267.316406 302.910156 L 269.164062 302.910156 L 270.796875 302.773438 L 271.890625 302.605469 L 273.023438 302.335938 L 274.574219 301.761719 L 275.539062 301.222656 L 276.378906 300.582031 L 277.007812 299.941406 L 277.425781 299.402344 L 278.054688 298.355469 L 278.558594 297.210938 L 278.9375 296.027344 L 279.1875 294.882812 L 285.0625 294.882812 L 284.808594 296.230469 L 284.429688 297.546875 L 284.054688 298.523438 L 283.464844 299.707031 L 282.796875 300.75 L 281.832031 301.929688 L 281.035156 302.707031 L 279.984375 303.550781 L 279.019531 304.191406 L 277.972656 304.765625 L 276.417969 305.4375 L 275.414062 305.777344 L 274.320312 306.082031 L 273.023438 306.351562 L 271.386719 306.585938 L 269.625 306.722656 L 267.988281 306.753906 L 266.226562 306.6875 L 264.925781 306.550781 L 263.207031 306.25 L 261.066406 305.640625 L 259.515625 305 L 258.296875 304.359375 L 257.25 303.683594 L 256.074219 302.773438 L 254.566406 301.289062 L 253.640625 300.144531 L 253.011719 299.199219 L 252.300781 297.882812 L 251.796875 296.703125 L 251.210938 294.816406 L 250.789062 292.417969 L 250.664062 290.566406 Z M 250.664062 285.910156 "/>
<path style=" stroke:none;fill-rule:nonzero;fill:rgb(83.921569%,15.686275%,22.352941%);fill-opacity:1;" d="M 250.664062 220.351562 L 285.0625 220.351562 L 285.0625 225.523438 L 270.726562 225.570312 L 270.726562 268.675781 L 264.957031 268.675781 L 264.957031 225.617188 L 264.875 225.523438 L 250.664062 225.523438 Z M 250.664062 220.351562 "/>
<path style=" stroke:none;fill-rule:nonzero;fill:rgb(6.27451%,58.823529%,28.235294%);fill-opacity:1;" d="M 286.871094 314.363281 L 286.90625 314.359375 L 301.789062 307.5625 L 306.3125 307.5625 L 321.269531 314.371094 L 316.011719 314.371094 L 312.265625 312.59375 L 295.835938 312.59375 L 292.164062 314.363281 L 286.871094 314.363281 L 297.417969 311.859375 L 310.757812 311.851562 L 304.105469 308.675781 L 304.03125 308.667969 L 303.960938 308.6875 L 297.382812 311.851562 L 297.417969 311.859375 Z M 286.871094 314.363281 "/>
<path style=" stroke:none;fill-rule:nonzero;fill:rgb(83.921569%,15.686275%,22.352941%);fill-opacity:1;" d="M 286.871094 49.324219 L 321.269531 49.324219 L 321.269531 76.839844 L 306.933594 77.082031 L 306.933594 306.382812 L 301.164062 306.382812 L 301.164062 77.324219 L 301.082031 76.839844 L 286.871094 76.839844 Z M 286.871094 49.324219 "/>
<path style=" stroke:none;fill-rule:nonzero;fill:rgb(6.27451%,58.823529%,28.235294%);fill-opacity:1;" d="M 323.078125 311.277344 L 323.113281 311.015625 L 337.996094 32.574219 L 342.519531 32.574219 L 357.472656 311.539062 L 352.21875 311.539062 L 348.472656 238.722656 L 332.042969 238.722656 L 328.371094 311.277344 L 323.078125 311.277344 L 333.625 208.597656 L 346.964844 208.335938 L 340.3125 78.152344 L 340.238281 77.890625 L 340.164062 78.675781 L 333.589844 208.335938 L 333.625 208.597656 Z M 323.078125 311.277344 "/>
<path style=" stroke:none;fill-rule:nonzero;fill:rgb(96.862745%,70.196078%,16.862745%);fill-opacity:1;" d="M 323.078125 313.425781 L 323.121094 313.425781 L 323.121094 313.394531 L 323.289062 313.328125 L 323.707031 313.234375 L 324.253906 313.15625 L 324.839844 313.097656 L 325.21875 313.066406 L 325.847656 313.019531 L 326.390625 312.988281 L 327.777344 312.917969 L 329.539062 312.855469 L 330.503906 312.828125 L 331.59375 312.804688 L 333.144531 312.773438 L 333.859375 312.765625 L 336.039062 312.738281 L 338.515625 312.726562 L 341.242188 312.71875 L 342.5 312.722656 L 344.21875 312.726562 L 346.566406 312.746094 L 347.910156 312.757812 L 348.960938 312.773438 L 350.050781 312.792969 L 351.390625 312.824219 L 352.652344 312.859375 L 353.65625 312.898438 L 354.664062 312.941406 L 355.503906 312.988281 L 356.214844 313.042969 L 356.84375 313.105469 L 357.222656 313.160156 L 357.472656 313.210938 L 351.644531 313.210938 L 351.308594 313.160156 L 350.929688 313.117188 L 350.300781 313.070312 L 349.671875 313.03125 L 349.042969 313.003906 L 347.867188 312.964844 L 346.863281 312.941406 L 345.605469 312.917969 L 344.386719 312.90625 L 343.003906 312.898438 L 342.164062 312.894531 L 339.941406 312.894531 L 337.925781 312.90625 L 336.753906 312.917969 L 335.914062 312.929688 L 334.738281 312.949219 L 334.027344 312.96875 L 333.605469 312.980469 L 332.347656 313.027344 L 331.507812 313.070312 L 331.046875 313.097656 L 330.460938 313.144531 L 330.042969 313.183594 L 329.578125 313.246094 L 329.328125 313.289062 L 328.992188 313.394531 L 328.949219 313.664062 L 329.078125 313.722656 L 329.328125 313.78125 L 329.664062 313.835938 L 330.167969 313.894531 L 330.671875 313.9375 L 331.550781 313.996094 L 332.304688 314.035156 L 332.894531 314.0625 L 334.027344 314.101562 L 334.488281 314.117188 L 335.578125 314.144531 L 336.710938 314.164062 L 338.09375 314.183594 L 339.144531 314.191406 L 340.820312 314.199219 L 342.960938 314.199219 L 345.476562 314.191406 L 347.070312 314.179688 L 348.164062 314.164062 L 348.875 314.15625 L 349.757812 314.136719 L 350.386719 314.125 L 350.972656 314.105469 L 351.6875 314.082031 L 351.6875 313.722656 L 341.324219 313.71875 L 341.324219 313.550781 L 357.433594 313.550781 L 357.472656 314.136719 L 356.59375 314.179688 L 355.503906 314.21875 L 354.453125 314.25 L 353.363281 314.273438 L 351.8125 314.304688 L 350.554688 314.320312 L 348.625 314.34375 L 346.863281 314.355469 L 345.015625 314.363281 L 343.378906 314.371094 L 341.449219 314.371094 L 339.730469 314.367188 L 337.886719 314.359375 L 336.417969 314.347656 L 335.074219 314.332031 L 333.734375 314.3125 L 332.054688 314.28125 L 330.964844 314.253906 L 329.832031 314.222656 L 328.699219 314.183594 L 327.691406 314.144531 L 327.019531 314.113281 L 326.351562 314.078125 L 325.636719 314.03125 L 324.964844 313.980469 L 324.460938 313.933594 L 324 313.882812 L 323.664062 313.832031 L 323.328125 313.761719 L 323.160156 313.710938 L 323.078125 313.664062 Z M 323.078125 313.425781 "/>
<path style=" stroke:none;fill-rule:nonzero;fill:rgb(6.27451%,58.823529%,28.235294%);fill-opacity:1;" d="M 359.285156 314.09375 L 359.320312 313.820312 L 374.203125 20.664062 L 378.726562 20.664062 L 393.679688 314.371094 L 388.425781 314.371094 L 384.679688 237.703125 L 368.25 237.703125 L 364.578125 314.09375 L 359.285156 314.09375 L 369.832031 205.988281 L 383.171875 205.710938 L 376.519531 68.648438 L 376.445312 68.375 L 376.371094 69.199219 L 369.796875 205.710938 L 369.832031 205.988281 Z M 359.285156 314.09375 "/>
<path style=" stroke:none;fill-rule:nonzero;fill:rgb(96.862745%,70.196078%,16.862745%);fill-opacity:1;" d="M 395.492188 313.425781 L 395.535156 313.425781 L 395.535156 313.394531 L 395.703125 313.328125 L 396.121094 313.234375 L 396.667969 313.15625 L 397.253906 313.097656 L 397.632812 313.066406 L 398.261719 313.019531 L 398.804688 312.988281 L 400.191406 312.917969 L 401.953125 312.855469 L 402.917969 312.828125 L 404.007812 312.804688 L 405.558594 312.773438 L 406.273438 312.765625 L 408.453125 312.738281 L 410.929688 312.726562 L 413.65625 312.71875 L 414.914062 312.722656 L 416.632812 312.726562 L 418.980469 312.746094 L 420.324219 312.757812 L 421.375 312.773438 L 422.464844 312.792969 L 423.804688 312.824219 L 425.066406 312.859375 L 426.070312 312.898438 L 427.078125 312.941406 L 427.917969 312.988281 L 428.628906 313.042969 L 429.257812 313.105469 L 429.636719 313.160156 L 429.886719 313.210938 L 424.058594 313.210938 L 423.722656 313.160156 L 423.34375 313.117188 L 422.714844 313.070312 L 422.085938 313.03125 L 421.457031 313.003906 L 420.28125 312.964844 L 419.277344 312.941406 L 418.015625 312.917969 L 416.800781 312.90625 L 415.417969 312.898438 L 414.578125 312.894531 L 412.355469 312.894531 L 410.339844 312.90625 L 409.167969 312.917969 L 408.328125 312.929688 L 407.152344 312.949219 L 406.441406 312.96875 L 406.019531 312.980469 L 404.761719 313.027344 L 403.921875 313.070312 L 403.460938 313.097656 L 402.875 313.144531 L 402.453125 313.183594 L 401.992188 313.246094 L 401.742188 313.289062 L 401.40625 313.394531 L 401.363281 313.664062 L 401.492188 313.722656 L 401.742188 313.78125 L 402.078125 313.835938 L 402.582031 313.894531 L 403.085938 313.9375 L 403.964844 313.996094 L 404.71875 314.035156 L 405.308594 314.0625 L 406.441406 314.101562 L 406.902344 314.117188 L 407.992188 314.144531 L 409.125 314.164062 L 410.507812 314.183594 L 411.558594 314.191406 L 413.234375 314.199219 L 415.375 314.199219 L 417.890625 314.191406 L 419.484375 314.179688 L 420.578125 314.164062 L 421.289062 314.15625 L 422.171875 314.136719 L 422.800781 314.125 L 423.386719 314.105469 L 424.101562 314.082031 L 424.101562 313.722656 L 413.738281 313.71875 L 413.738281 313.550781 L 429.847656 313.550781 L 429.886719 314.136719 L 429.007812 314.179688 L 427.917969 314.21875 L 426.867188 314.25 L 425.777344 314.273438 L 424.226562 314.304688 L 422.96875 314.320312 L 421.039062 314.34375 L 419.277344 314.355469 L 417.429688 314.363281 L 415.792969 314.371094 L 413.863281 314.371094 L 412.144531 314.367188 L 410.300781 314.359375 L 408.832031 314.347656 L 407.488281 314.332031 L 406.144531 314.3125 L 404.46875 314.28125 L 403.378906 314.253906 L 402.246094 314.222656 L 401.113281 314.183594 L 400.105469 314.144531 L 399.433594 314.113281 L 398.765625 314.078125 L 398.050781 314.03125 L 397.378906 313.980469 L 396.875 313.933594 L 396.414062 313.882812 L 396.078125 313.832031 L 395.742188 313.761719 L 395.574219 313.710938 L 395.492188 313.664062 Z M 395.492188 313.425781 "/>
<path style=" stroke:none;fill-rule:nonzero;fill:rgb(83.921569%,15.686275%,22.352941%);fill-opacity:1;" d="M 395.492188 32.574219 L 429.886719 32.574219 L 429.886719 62.4375 L 415.554688 62.699219 L 415.554688 311.539062 L 409.785156 311.539062 L 409.785156 62.960938 L 409.703125 62.4375 L 395.492188 62.4375 Z M 395.492188 32.574219 "/>
<path style=" stroke:none;fill-rule:nonzero;fill:rgb(6.27451%,58.823529%,28.235294%);fill-opacity:1;" d="M 431.699219 314.371094 L 431.734375 314.367188 L 446.617188 313.027344 L 451.140625 313.027344 L 466.09375 314.371094 L 460.839844 314.371094 L 457.09375 314.019531 L 440.664062 314.019531 L 436.992188 314.371094 L 431.699219 314.371094 L 442.246094 313.875 L 455.585938 313.875 L 448.933594 313.246094 L 448.859375 313.246094 L 448.785156 313.25 L 442.207031 313.875 L 442.246094 313.875 Z M 431.699219 314.371094 "/>
<path style=" stroke:none;fill-rule:nonzero;fill:rgb(14.509804%,36.078431%,60%);fill-opacity:1;" d="M 431.699219 166.773438 L 431.742188 166.550781 L 431.742188 161.210938 L 431.867188 152.753906 L 432.160156 142.074219 L 432.453125 134.730469 L 433.207031 121.601562 L 434.257812 108.917969 L 435.347656 99.128906 L 436.144531 93.34375 L 436.859375 88.894531 L 438.496094 80.660156 L 439.542969 76.433594 L 440.675781 72.648438 L 442.058594 68.867188 L 443.066406 66.640625 L 445.332031 63.082031 L 447.007812 61.523438 L 448.308594 60.855469 L 451.121094 60.855469 L 452.796875 61.746094 L 454.015625 62.859375 L 455.355469 64.640625 L 456.488281 66.640625 L 458.460938 71.539062 L 460.222656 77.765625 L 461.019531 81.328125 L 462.277344 88.226562 L 463.242188 94.902344 L 463.914062 100.6875 L 464.667969 108.917969 L 465.339844 118.933594 L 465.84375 130.28125 L 466.09375 139.847656 L 460.222656 139.847656 L 459.929688 130.949219 L 459.59375 124.050781 L 458.964844 114.925781 L 458.335938 108.472656 L 457.453125 102.019531 L 456.65625 97.792969 L 455.566406 93.566406 L 454.601562 90.894531 L 453.59375 88.894531 L 452.628906 87.558594 L 450.785156 86.222656 L 448.644531 86.222656 L 447.847656 86.667969 L 446.210938 88.449219 L 445.332031 90.003906 L 444.074219 93.121094 L 443.191406 96.011719 L 442.144531 100.464844 L 441.429688 104.246094 L 440.550781 110.03125 L 439.921875 115.148438 L 439.207031 122.492188 L 438.789062 128.054688 L 438.410156 134.285156 L 438.074219 141.628906 L 437.824219 149.414062 L 437.65625 157.648438 L 437.570312 165.660156 L 437.570312 200.148438 L 437.65625 208.160156 L 437.863281 217.503906 L 438.410156 231.078125 L 439.207031 242.871094 L 440.128906 252.214844 L 441.011719 258.890625 L 441.515625 262.007812 L 442.183594 265.566406 L 443.234375 270.015625 L 444.746094 274.46875 L 445.625 276.246094 L 446.96875 278.027344 L 448.351562 278.917969 L 450.199219 278.917969 L 451.832031 278.027344 L 452.925781 276.914062 L 454.054688 275.136719 L 455.609375 271.351562 L 456.574219 267.792969 L 457.414062 263.5625 L 458.042969 259.335938 L 458.460938 255.777344 L 459.089844 248.878906 L 459.59375 241.3125 L 459.972656 233.523438 L 460.222656 225.960938 L 466.09375 225.960938 L 465.84375 234.859375 L 465.464844 243.539062 L 465.089844 249.992188 L 464.5 257.777344 L 463.832031 264.675781 L 462.867188 272.464844 L 462.070312 277.582031 L 461.019531 283.144531 L 460.054688 287.371094 L 459.007812 291.15625 L 457.453125 295.605469 L 456.449219 297.832031 L 455.355469 299.832031 L 454.054688 301.613281 L 452.421875 303.171875 L 450.660156 304.0625 L 449.023438 304.285156 L 447.261719 303.839844 L 445.960938 302.949219 L 444.242188 300.945312 L 442.101562 296.941406 L 440.550781 292.714844 L 439.332031 288.484375 L 438.285156 284.035156 L 437.109375 278.027344 L 435.601562 268.238281 L 434.675781 260.671875 L 434.046875 254.441406 L 433.335938 245.761719 L 432.832031 237.976562 L 432.242188 225.515625 L 431.824219 209.714844 L 431.699219 197.476562 Z M 431.699219 166.773438 "/>
<path style=" stroke:none;fill-rule:nonzero;fill:rgb(83.921569%,15.686275%,22.352941%);fill-opacity:1;" d="M 431.699219 305.464844 L 466.09375 305.464844 L 466.09375 306.148438 L 451.761719 306.152344 L 451.761719 311.847656 L 445.992188 311.847656 L 445.992188 306.160156 L 445.910156 306.148438 L 431.699219 306.148438 Z M 431.699219 305.464844 "/>
<path style=" stroke:none;fill-rule:nonzero;fill:rgb(14.509804%,36.078431%,60%);fill-opacity:1;" d="M 467.90625 164.238281 L 467.949219 164.011719 L 467.949219 158.589844 L 468.074219 150 L 468.367188 139.152344 L 468.660156 131.695312 L 469.414062 118.359375 L 470.464844 105.476562 L 471.554688 95.53125 L 472.351562 89.65625 L 473.066406 85.136719 L 474.699219 76.773438 L 475.75 72.480469 L 476.882812 68.636719 L 478.265625 64.796875 L 479.273438 62.535156 L 481.539062 58.921875 L 483.214844 57.339844 L 484.515625 56.660156 L 487.328125 56.660156 L 489.003906 57.5625 L 490.222656 58.695312 L 491.5625 60.503906 L 492.695312 62.535156 L 494.667969 67.507812 L 496.429688 73.835938 L 497.226562 77.453125 L 498.484375 84.457031 L 499.449219 91.238281 L 500.121094 97.113281 L 500.875 105.476562 L 501.546875 115.648438 L 502.050781 127.175781 L 502.300781 136.890625 L 496.429688 136.890625 L 496.136719 127.851562 L 495.800781 120.847656 L 495.171875 111.578125 L 494.542969 105.023438 L 493.660156 98.472656 L 492.863281 94.175781 L 491.773438 89.882812 L 490.808594 87.171875 L 489.800781 85.136719 L 488.835938 83.78125 L 486.992188 82.425781 L 484.851562 82.425781 L 484.054688 82.875 L 482.417969 84.683594 L 481.539062 86.265625 L 480.28125 89.429688 L 479.398438 92.367188 L 478.351562 96.890625 L 477.636719 100.730469 L 476.757812 106.605469 L 476.128906 111.804688 L 475.414062 119.265625 L 474.996094 124.914062 L 474.617188 131.242188 L 474.28125 138.699219 L 474.03125 146.609375 L 473.863281 154.972656 L 473.777344 163.109375 L 473.777344 198.140625 L 473.863281 206.277344 L 474.070312 215.769531 L 474.617188 229.554688 L 475.414062 241.53125 L 476.335938 251.023438 L 477.21875 257.804688 L 477.722656 260.96875 L 478.390625 264.585938 L 479.441406 269.105469 L 480.953125 273.625 L 481.832031 275.433594 L 483.175781 277.242188 L 484.558594 278.144531 L 486.40625 278.144531 L 488.039062 277.242188 L 489.132812 276.113281 L 490.261719 274.304688 L 491.816406 270.460938 L 492.78125 266.84375 L 493.621094 262.550781 L 494.25 258.257812 L 494.667969 254.640625 L 495.296875 247.636719 L 495.800781 239.949219 L 496.179688 232.039062 L 496.429688 224.355469 L 502.300781 224.355469 L 502.050781 233.398438 L 501.671875 242.210938 L 501.296875 248.765625 L 500.707031 256.675781 L 500.039062 263.679688 L 499.074219 271.589844 L 498.277344 276.789062 L 497.226562 282.441406 L 496.261719 286.734375 L 495.214844 290.574219 L 493.660156 295.097656 L 492.65625 297.355469 L 491.5625 299.390625 L 490.261719 301.199219 L 488.628906 302.78125 L 486.867188 303.683594 L 485.230469 303.910156 L 483.46875 303.457031 L 482.167969 302.554688 L 480.449219 300.519531 L 478.308594 296.453125 L 476.757812 292.15625 L 475.539062 287.863281 L 474.492188 283.34375 L 473.316406 277.242188 L 471.808594 267.296875 L 470.882812 259.613281 L 470.253906 253.285156 L 469.542969 244.472656 L 469.039062 236.5625 L 468.449219 223.90625 L 468.03125 207.859375 L 467.90625 195.425781 Z M 467.90625 164.238281 "/>
<path style=" stroke:none;fill-rule:nonzero;fill:rgb(83.921569%,15.686275%,22.352941%);fill-opacity:1;" d="M 467.90625 305.089844 L 502.300781 305.089844 L 502.300781 306.082031 L 487.96875 306.09375 L 487.96875 314.371094 L 482.199219 314.371094 L 482.199219 306.101562 L 482.117188 306.082031 L 467.90625 306.082031 Z M 467.90625 305.089844 "/>
<path style=" stroke:none;fill-rule:nonzero;fill:rgb(6.27451%,58.823529%,28.235294%);fill-opacity:1;" d="M 504.113281 314.371094 L 504.148438 314.371094 L 519.03125 313.710938 L 523.550781 313.710938 L 538.507812 314.371094 L 533.253906 314.371094 L 529.507812 314.199219 L 513.078125 314.199219 L 509.40625 314.371094 L 504.113281 314.371094 L 514.660156 314.128906 L 528 314.125 L 521.347656 313.820312 L 521.199219 313.820312 L 514.621094 314.125 L 514.660156 314.128906 Z M 504.113281 314.371094 "/>
<path style=" stroke:none;fill-rule:nonzero;fill:rgb(14.509804%,36.078431%,60%);fill-opacity:1;" d="M 504.113281 265.480469 L 504.15625 265.457031 L 504.15625 264.894531 L 504.28125 263.996094 L 504.574219 262.867188 L 504.867188 262.089844 L 505.621094 260.695312 L 506.671875 259.355469 L 507.761719 258.316406 L 508.558594 257.703125 L 509.273438 257.230469 L 510.90625 256.359375 L 511.957031 255.914062 L 513.089844 255.511719 L 514.472656 255.109375 L 515.480469 254.875 L 517.746094 254.496094 L 519.421875 254.332031 L 520.722656 254.261719 L 523.535156 254.261719 L 525.210938 254.355469 L 526.429688 254.472656 L 527.769531 254.664062 L 528.902344 254.875 L 530.875 255.394531 L 532.636719 256.054688 L 533.433594 256.429688 L 534.691406 257.160156 L 535.65625 257.867188 L 536.328125 258.480469 L 537.082031 259.355469 L 537.753906 260.414062 L 538.257812 261.617188 L 538.507812 262.628906 L 532.636719 262.628906 L 532.34375 261.6875 L 532.007812 260.957031 L 531.378906 259.988281 L 530.75 259.304688 L 529.867188 258.621094 L 529.070312 258.175781 L 527.980469 257.726562 L 527.015625 257.445312 L 526.007812 257.230469 L 525.042969 257.089844 L 523.199219 256.949219 L 521.058594 256.949219 L 520.261719 256.996094 L 518.625 257.183594 L 517.746094 257.351562 L 516.488281 257.679688 L 515.605469 257.988281 L 514.558594 258.457031 L 513.84375 258.859375 L 512.964844 259.472656 L 512.335938 260.011719 L 511.621094 260.792969 L 511.203125 261.378906 L 510.824219 262.039062 L 510.488281 262.820312 L 510.238281 263.644531 L 510.070312 264.515625 L 509.984375 265.363281 L 509.984375 269.019531 L 510.070312 269.867188 L 510.277344 270.855469 L 510.824219 272.292969 L 511.621094 273.542969 L 512.542969 274.535156 L 513.425781 275.242188 L 513.929688 275.570312 L 514.597656 275.949219 L 515.648438 276.417969 L 517.15625 276.890625 L 518.039062 277.078125 L 519.382812 277.269531 L 520.765625 277.363281 L 522.609375 277.363281 L 524.246094 277.269531 L 525.335938 277.148438 L 526.46875 276.960938 L 528.023438 276.5625 L 528.988281 276.183594 L 529.828125 275.734375 L 530.457031 275.289062 L 530.875 274.910156 L 531.503906 274.179688 L 532.007812 273.378906 L 532.386719 272.554688 L 532.636719 271.753906 L 538.507812 271.753906 L 538.257812 272.695312 L 537.878906 273.613281 L 537.503906 274.296875 L 536.914062 275.121094 L 536.242188 275.855469 L 535.28125 276.679688 L 534.480469 277.222656 L 533.433594 277.808594 L 532.46875 278.257812 L 531.421875 278.660156 L 529.867188 279.128906 L 528.863281 279.367188 L 527.769531 279.578125 L 526.46875 279.765625 L 524.835938 279.929688 L 523.074219 280.027344 L 521.4375 280.050781 L 519.675781 280.003906 L 518.375 279.90625 L 516.65625 279.695312 L 514.515625 279.273438 L 512.964844 278.824219 L 511.746094 278.375 L 510.699219 277.90625 L 509.523438 277.269531 L 508.015625 276.230469 L 507.089844 275.429688 L 506.460938 274.769531 L 505.75 273.851562 L 505.246094 273.023438 L 504.65625 271.703125 L 504.238281 270.03125 L 504.113281 268.734375 Z M 504.113281 265.480469 "/>
<path style=" stroke:none;fill-rule:nonzero;fill:rgb(96.862745%,70.196078%,16.862745%);fill-opacity:1;" d="M 504.113281 291.222656 L 504.15625 291.203125 L 504.15625 290.777344 L 504.324219 289.816406 L 504.742188 288.496094 L 505.289062 287.410156 L 505.875 286.558594 L 506.253906 286.109375 L 506.882812 285.46875 L 507.425781 285 L 508.8125 284.042969 L 510.574219 283.148438 L 511.539062 282.761719 L 512.628906 282.402344 L 514.179688 281.996094 L 514.894531 281.847656 L 517.074219 281.507812 L 519.550781 281.292969 L 522.277344 281.230469 L 523.535156 281.25 L 525.253906 281.335938 L 527.601562 281.570312 L 528.945312 281.78125 L 529.992188 281.996094 L 531.085938 282.273438 L 532.425781 282.699219 L 533.683594 283.210938 L 534.691406 283.722656 L 535.699219 284.363281 L 536.539062 285.042969 L 537.25 285.789062 L 537.878906 286.683594 L 538.257812 287.429688 L 538.507812 288.175781 L 532.679688 288.175781 L 532.34375 287.429688 L 531.964844 286.855469 L 531.335938 286.152344 L 530.707031 285.640625 L 530.078125 285.234375 L 528.902344 284.679688 L 527.898438 284.339844 L 526.636719 284.042969 L 525.421875 283.851562 L 524.039062 283.722656 L 523.199219 283.679688 L 520.976562 283.679688 L 518.960938 283.828125 L 517.789062 284 L 516.949219 284.167969 L 515.773438 284.488281 L 515.0625 284.746094 L 514.640625 284.914062 L 513.382812 285.578125 L 512.542969 286.171875 L 512.082031 286.578125 L 511.496094 287.21875 L 511.074219 287.792969 L 510.613281 288.644531 L 510.363281 289.285156 L 510.027344 290.734375 L 509.984375 294.570312 L 510.109375 295.378906 L 510.363281 296.253906 L 510.699219 297.019531 L 511.203125 297.832031 L 511.707031 298.449219 L 512.585938 299.28125 L 513.339844 299.832031 L 513.929688 300.195312 L 515.0625 300.769531 L 515.523438 300.964844 L 516.613281 301.347656 L 517.746094 301.644531 L 519.128906 301.902344 L 520.179688 302.027344 L 521.855469 302.136719 L 523.996094 302.136719 L 526.511719 302.007812 L 528.105469 301.835938 L 529.195312 301.667969 L 529.910156 301.515625 L 530.789062 301.28125 L 531.421875 301.070312 L 532.007812 300.835938 L 532.71875 300.472656 L 532.71875 295.378906 L 522.359375 295.359375 L 522.359375 292.972656 L 538.46875 292.949219 L 538.507812 301.28125 L 537.628906 301.859375 L 536.539062 302.414062 L 535.488281 302.839844 L 534.398438 303.199219 L 532.847656 303.605469 L 531.589844 303.859375 L 529.660156 304.160156 L 527.898438 304.351562 L 526.050781 304.480469 L 524.414062 304.542969 L 522.484375 304.566406 L 520.765625 304.523438 L 518.921875 304.394531 L 517.453125 304.222656 L 516.109375 304.011719 L 514.765625 303.734375 L 513.089844 303.285156 L 512 302.921875 L 510.867188 302.476562 L 509.734375 301.941406 L 508.726562 301.367188 L 508.054688 300.921875 L 507.382812 300.410156 L 506.671875 299.769531 L 506 299.046875 L 505.496094 298.382812 L 505.035156 297.636719 L 504.699219 296.933594 L 504.363281 295.976562 L 504.195312 295.210938 L 504.113281 294.546875 Z M 504.113281 291.222656 "/>
<path style=" stroke:none;fill-rule:nonzero;fill:rgb(83.921569%,15.686275%,22.352941%);fill-opacity:1;" d="M 504.113281 305.742188 L 538.507812 305.742188 L 538.507812 306.472656 L 524.175781 306.476562 L 524.175781 312.53125 L 518.40625 312.53125 L 518.40625 306.484375 L 518.324219 306.472656 L 504.113281 306.472656 Z M 504.113281 305.742188 "/>
<path style=" stroke:none;fill-rule:nonzero;fill:rgb(6.27451%,58.823529%,28.235294%);fill-opacity:1;" d="M 540.320312 314.367188 L 540.355469 314.363281 L 555.238281 311.089844 L 559.757812 311.089844 L 574.714844 314.371094 L 569.460938 314.371094 L 565.710938 313.515625 L 549.285156 313.515625 L 545.613281 314.367188 L 540.320312 314.367188 L 550.867188 313.160156 L 564.207031 313.15625 L 557.554688 311.625 L 557.480469 311.625 L 557.40625 311.632812 L 550.828125 313.15625 L 550.867188 313.160156 Z M 540.320312 314.367188 "/>
<path style=" stroke:none;fill-rule:nonzero;fill:rgb(14.509804%,36.078431%,60%);fill-opacity:1;" d="M 540.320312 294.78125 L 540.363281 294.761719 L 540.363281 294.347656 L 540.488281 293.691406 L 540.78125 292.863281 L 541.074219 292.292969 L 541.828125 291.273438 L 542.878906 290.289062 L 543.96875 289.53125 L 544.765625 289.082031 L 545.480469 288.738281 L 547.113281 288.097656 L 548.164062 287.769531 L 549.296875 287.476562 L 550.679688 287.183594 L 551.6875 287.011719 L 553.953125 286.734375 L 555.628906 286.613281 L 556.929688 286.5625 L 559.742188 286.5625 L 561.417969 286.628906 L 562.636719 286.714844 L 563.976562 286.855469 L 565.109375 287.011719 L 567.082031 287.390625 L 568.84375 287.875 L 569.640625 288.148438 L 570.898438 288.683594 L 571.863281 289.203125 L 572.535156 289.652344 L 573.289062 290.289062 L 573.960938 291.066406 L 574.464844 291.949219 L 574.714844 292.691406 L 568.84375 292.691406 L 568.550781 292 L 568.214844 291.464844 L 567.585938 290.757812 L 566.957031 290.257812 L 566.074219 289.753906 L 565.277344 289.425781 L 564.1875 289.097656 L 563.222656 288.890625 L 562.214844 288.738281 L 561.25 288.632812 L 559.40625 288.53125 L 557.265625 288.53125 L 556.46875 288.5625 L 554.832031 288.703125 L 553.953125 288.824219 L 552.695312 289.066406 L 551.8125 289.289062 L 550.765625 289.632812 L 550.050781 289.929688 L 549.171875 290.378906 L 548.542969 290.773438 L 547.828125 291.34375 L 547.410156 291.777344 L 547.03125 292.257812 L 546.695312 292.828125 L 546.445312 293.433594 L 546.277344 294.070312 L 546.191406 294.695312 L 546.191406 297.371094 L 546.277344 297.992188 L 546.484375 298.71875 L 547.03125 299.769531 L 547.828125 300.683594 L 548.75 301.410156 L 549.632812 301.929688 L 550.136719 302.171875 L 550.804688 302.445312 L 551.855469 302.792969 L 553.363281 303.136719 L 554.246094 303.273438 L 555.589844 303.414062 L 556.972656 303.484375 L 558.816406 303.484375 L 560.453125 303.414062 L 561.542969 303.328125 L 562.675781 303.1875 L 564.230469 302.894531 L 565.195312 302.621094 L 566.03125 302.292969 L 566.664062 301.964844 L 567.082031 301.6875 L 567.710938 301.152344 L 568.214844 300.5625 L 568.59375 299.960938 L 568.84375 299.371094 L 574.714844 299.371094 L 574.464844 300.0625 L 574.085938 300.738281 L 573.710938 301.238281 L 573.121094 301.84375 L 572.449219 302.378906 L 571.484375 302.980469 L 570.6875 303.378906 L 569.640625 303.8125 L 568.675781 304.136719 L 567.628906 304.433594 L 566.074219 304.777344 L 565.070312 304.949219 L 563.976562 305.105469 L 562.675781 305.242188 L 561.042969 305.363281 L 559.28125 305.433594 L 557.644531 305.449219 L 555.882812 305.417969 L 554.582031 305.347656 L 552.863281 305.191406 L 550.722656 304.882812 L 549.171875 304.554688 L 547.953125 304.226562 L 546.90625 303.878906 L 545.730469 303.414062 L 544.21875 302.652344 L 543.296875 302.066406 L 542.667969 301.582031 L 541.957031 300.910156 L 541.453125 300.304688 L 540.863281 299.339844 L 540.445312 298.113281 L 540.320312 297.164062 Z M 540.320312 294.78125 "/>
<path style=" stroke:none;fill-rule:nonzero;fill:rgb(96.862745%,70.196078%,16.862745%);fill-opacity:1;" d="M 540.320312 308.035156 L 540.363281 308.03125 L 540.363281 307.972656 L 540.53125 307.835938 L 540.949219 307.652344 L 541.492188 307.5 L 542.082031 307.378906 L 542.457031 307.316406 L 543.089844 307.226562 L 543.632812 307.160156 L 545.019531 307.027344 L 546.78125 306.898438 L 547.746094 306.847656 L 548.835938 306.796875 L 550.386719 306.738281 L 551.101562 306.71875 L 553.28125 306.667969 L 555.757812 306.640625 L 558.484375 306.628906 L 559.742188 306.632812 L 561.460938 306.644531 L 563.808594 306.679688 L 565.152344 306.707031 L 566.199219 306.738281 L 567.292969 306.777344 L 568.632812 306.835938 L 569.890625 306.910156 L 570.898438 306.980469 L 571.90625 307.070312 L 572.746094 307.167969 L 573.457031 307.273438 L 574.085938 307.398438 L 574.464844 307.503906 L 574.714844 307.605469 L 568.886719 307.605469 L 568.550781 307.503906 L 568.171875 307.421875 L 567.542969 307.324219 L 566.914062 307.25 L 566.285156 307.195312 L 565.109375 307.117188 L 564.105469 307.066406 L 562.84375 307.027344 L 561.628906 307 L 560.246094 306.980469 L 559.40625 306.976562 L 557.183594 306.976562 L 555.167969 306.996094 L 553.996094 307.019531 L 553.15625 307.042969 L 551.980469 307.089844 L 551.269531 307.125 L 550.847656 307.148438 L 549.589844 307.242188 L 548.75 307.324219 L 548.289062 307.382812 L 547.703125 307.472656 L 547.28125 307.554688 L 546.820312 307.671875 L 546.570312 307.761719 L 546.234375 307.964844 L 546.191406 308.503906 L 546.316406 308.621094 L 546.570312 308.742188 L 546.90625 308.851562 L 547.410156 308.964844 L 547.910156 309.050781 L 548.792969 309.167969 L 549.546875 309.246094 L 550.136719 309.296875 L 551.269531 309.378906 L 551.730469 309.40625 L 552.820312 309.457031 L 553.953125 309.5 L 555.335938 309.535156 L 556.386719 309.554688 L 558.0625 309.570312 L 560.203125 309.570312 L 562.71875 309.550781 L 564.3125 309.527344 L 565.402344 309.503906 L 566.117188 309.480469 L 566.996094 309.449219 L 567.628906 309.417969 L 568.214844 309.386719 L 568.925781 309.335938 L 568.925781 308.621094 L 558.566406 308.617188 L 558.566406 308.28125 L 574.675781 308.277344 L 574.714844 309.449219 L 573.835938 309.53125 L 572.746094 309.609375 L 571.695312 309.667969 L 570.605469 309.71875 L 569.054688 309.777344 L 567.796875 309.8125 L 565.867188 309.855469 L 564.105469 309.878906 L 562.257812 309.898438 L 560.621094 309.90625 L 558.691406 309.910156 L 556.972656 309.90625 L 555.125 309.886719 L 553.660156 309.863281 L 552.316406 309.832031 L 550.972656 309.792969 L 549.296875 309.730469 L 548.207031 309.679688 L 547.074219 309.617188 L 545.941406 309.542969 L 544.933594 309.460938 L 544.261719 309.398438 L 543.589844 309.328125 L 542.878906 309.238281 L 542.207031 309.136719 L 541.703125 309.042969 L 541.242188 308.9375 L 540.90625 308.839844 L 540.570312 308.703125 L 540.402344 308.59375 L 540.320312 308.503906 Z M 540.320312 308.035156 "/>
<path style=" stroke:none;fill-rule:nonzero;fill:rgb(83.921569%,15.686275%,22.352941%);fill-opacity:1;" d="M 540.320312 259.800781 L 574.714844 259.800781 L 574.714844 262.539062 L 560.378906 262.5625 L 560.378906 285.382812 L 554.613281 285.382812 L 554.613281 262.589844 L 554.53125 262.539062 L 540.320312 262.539062 Z M 540.320312 259.800781 "/>
<path style=" stroke:none;fill-rule:nonzero;fill:rgb(6.27451%,58.823529%,28.235294%);fill-opacity:1;" d="M 576.527344 312.023438 L 576.5625 312.019531 L 591.445312 308.902344 L 595.964844 308.902344 L 610.921875 312.023438 L 605.667969 312.023438 L 601.917969 311.210938 L 585.492188 311.210938 L 581.816406 312.023438 L 576.527344 312.023438 L 587.074219 310.875 L 600.414062 310.871094 L 593.761719 309.414062 L 593.6875 309.410156 L 593.613281 309.417969 L 587.035156 310.871094 L 587.074219 310.875 Z M 576.527344 312.023438 "/>
<path style=" stroke:none;fill-rule:nonzero;fill:rgb(14.509804%,36.078431%,60%);fill-opacity:1;" d="M 576.527344 313.710938 L 576.570312 313.710938 L 576.570312 313.683594 L 576.695312 313.644531 L 576.988281 313.59375 L 577.28125 313.558594 L 578.035156 313.496094 L 579.085938 313.433594 L 580.175781 313.386719 L 580.972656 313.359375 L 581.6875 313.339844 L 583.320312 313.300781 L 584.371094 313.277344 L 585.503906 313.261719 L 586.886719 313.242188 L 587.894531 313.230469 L 590.160156 313.214844 L 591.835938 313.207031 L 593.136719 313.203125 L 595.949219 313.203125 L 597.625 313.207031 L 598.84375 313.214844 L 600.183594 313.222656 L 601.316406 313.230469 L 603.289062 313.253906 L 605.050781 313.285156 L 605.847656 313.300781 L 607.105469 313.335938 L 608.070312 313.367188 L 608.742188 313.394531 L 609.496094 313.433594 L 610.167969 313.484375 L 610.671875 313.535156 L 610.921875 313.582031 L 605.050781 313.582031 L 604.757812 313.539062 L 604.421875 313.507812 L 603.792969 313.464844 L 603.164062 313.433594 L 602.28125 313.402344 L 601.484375 313.382812 L 600.394531 313.359375 L 599.429688 313.347656 L 598.421875 313.339844 L 597.457031 313.332031 L 595.613281 313.324219 L 593.472656 313.324219 L 592.675781 313.328125 L 591.039062 313.335938 L 590.160156 313.34375 L 588.902344 313.359375 L 588.019531 313.371094 L 586.972656 313.394531 L 586.257812 313.414062 L 585.378906 313.441406 L 584.75 313.464844 L 584.035156 313.5 L 583.617188 313.527344 L 583.238281 313.554688 L 582.902344 313.589844 L 582.652344 313.628906 L 582.484375 313.667969 L 582.398438 313.707031 L 582.398438 313.871094 L 582.484375 313.910156 L 582.691406 313.953125 L 583.238281 314.019531 L 584.035156 314.078125 L 584.957031 314.121094 L 585.839844 314.152344 L 586.34375 314.167969 L 587.011719 314.183594 L 588.0625 314.207031 L 589.570312 314.226562 L 590.453125 314.238281 L 591.796875 314.246094 L 593.179688 314.25 L 595.023438 314.25 L 596.660156 314.246094 L 597.75 314.238281 L 598.882812 314.230469 L 600.4375 314.210938 L 601.402344 314.195312 L 602.238281 314.175781 L 602.871094 314.15625 L 603.289062 314.136719 L 603.917969 314.105469 L 604.421875 314.070312 L 604.800781 314.03125 L 605.050781 313.996094 L 610.921875 313.996094 L 610.671875 314.039062 L 610.292969 314.078125 L 609.917969 314.109375 L 609.328125 314.148438 L 608.65625 314.179688 L 607.691406 314.21875 L 606.894531 314.242188 L 605.847656 314.269531 L 604.882812 314.289062 L 603.835938 314.308594 L 602.28125 314.328125 L 601.273438 314.339844 L 600.183594 314.347656 L 598.882812 314.359375 L 597.25 314.367188 L 595.488281 314.371094 L 593.851562 314.371094 L 592.089844 314.367188 L 590.789062 314.363281 L 589.070312 314.355469 L 586.929688 314.335938 L 585.378906 314.316406 L 584.160156 314.296875 L 583.113281 314.273438 L 581.9375 314.246094 L 580.425781 314.199219 L 579.503906 314.160156 L 578.875 314.132812 L 578.164062 314.089844 L 577.660156 314.054688 L 577.070312 313.992188 L 576.652344 313.917969 L 576.527344 313.859375 Z M 576.527344 313.710938 "/>
<path style=" stroke:none;fill-rule:nonzero;fill:rgb(96.862745%,70.196078%,16.862745%);fill-opacity:1;" d="M 576.527344 305.714844 L 576.570312 305.714844 L 576.570312 305.648438 L 576.734375 305.503906 L 577.15625 305.304688 L 577.699219 305.140625 L 578.289062 305.015625 L 578.664062 304.945312 L 579.296875 304.851562 L 579.839844 304.78125 L 581.226562 304.636719 L 582.988281 304.5 L 583.953125 304.445312 L 585.042969 304.390625 L 586.59375 304.328125 L 587.308594 304.304688 L 589.488281 304.253906 L 591.964844 304.222656 L 594.691406 304.210938 L 595.949219 304.214844 L 597.667969 304.226562 L 600.015625 304.265625 L 601.359375 304.296875 L 602.40625 304.328125 L 603.5 304.371094 L 604.839844 304.433594 L 606.097656 304.511719 L 607.105469 304.585938 L 608.113281 304.683594 L 608.953125 304.785156 L 609.664062 304.898438 L 610.292969 305.035156 L 610.671875 305.144531 L 610.921875 305.257812 L 605.09375 305.257812 L 604.757812 305.144531 L 604.378906 305.058594 L 603.75 304.953125 L 603.121094 304.875 L 602.492188 304.816406 L 601.316406 304.730469 L 600.308594 304.679688 L 599.050781 304.636719 L 597.835938 304.605469 L 596.453125 304.585938 L 595.613281 304.582031 L 593.390625 304.582031 L 591.375 304.605469 L 590.203125 304.628906 L 589.363281 304.65625 L 588.1875 304.703125 L 587.476562 304.742188 L 587.054688 304.765625 L 585.796875 304.867188 L 584.957031 304.957031 L 584.496094 305.015625 L 583.910156 305.113281 L 583.488281 305.199219 L 583.027344 305.328125 L 582.777344 305.425781 L 582.441406 305.644531 L 582.398438 306.21875 L 582.523438 306.34375 L 582.777344 306.472656 L 583.113281 306.589844 L 583.617188 306.710938 L 584.117188 306.804688 L 585 306.929688 L 585.753906 307.011719 L 586.34375 307.066406 L 587.476562 307.152344 L 587.9375 307.183594 L 589.027344 307.238281 L 590.160156 307.285156 L 591.542969 307.324219 L 592.59375 307.34375 L 594.269531 307.359375 L 596.410156 307.359375 L 598.925781 307.339844 L 600.519531 307.3125 L 601.609375 307.289062 L 602.324219 307.265625 L 603.203125 307.230469 L 603.835938 307.199219 L 604.421875 307.164062 L 605.132812 307.109375 L 605.132812 306.34375 L 594.773438 306.339844 L 594.773438 305.980469 L 610.882812 305.976562 L 610.921875 307.230469 L 610.042969 307.316406 L 608.953125 307.402344 L 607.902344 307.464844 L 606.8125 307.519531 L 605.261719 307.578125 L 604 307.617188 L 602.074219 307.664062 L 600.308594 307.691406 L 598.464844 307.710938 L 596.828125 307.722656 L 594.898438 307.722656 L 593.179688 307.71875 L 591.332031 307.699219 L 589.867188 307.671875 L 588.523438 307.640625 L 587.179688 307.597656 L 585.503906 307.53125 L 584.414062 307.476562 L 583.28125 307.410156 L 582.148438 307.328125 L 581.140625 307.242188 L 580.46875 307.175781 L 579.796875 307.097656 L 579.085938 307.003906 L 578.414062 306.894531 L 577.910156 306.792969 L 577.449219 306.683594 L 577.113281 306.578125 L 576.777344 306.433594 L 576.609375 306.316406 L 576.527344 306.21875 Z M 576.527344 305.714844 "/>
<path style=" stroke:none;fill-rule:nonzero;fill:rgb(83.921569%,15.686275%,22.352941%);fill-opacity:1;" d="M 576.527344 296.003906 L 610.921875 296.003906 L 610.921875 296.753906 L 596.585938 296.761719 L 596.585938 303.03125 L 590.820312 303.03125 L 590.820312 296.769531 L 590.738281 296.753906 L 576.527344 296.753906 Z M 576.527344 296.003906 "/>
<path style=" stroke:none;fill-rule:nonzero;fill:rgb(6.27451%,58.823529%,28.235294%);fill-opacity:1;" d="M 612.734375 308.683594 L 612.769531 308.679688 L 627.652344 305.640625 L 632.171875 305.640625 L 647.128906 308.683594 L 641.875 308.683594 L 638.125 307.890625 L 621.699219 307.890625 L 618.023438 308.683594 L 612.734375 308.683594 L 623.28125 307.5625 L 636.621094 307.558594 L 629.96875 306.136719 L 629.894531 306.136719 L 629.820312 306.144531 L 623.242188 307.558594 L 623.28125 307.5625 Z M 612.734375 308.683594 "/>
<path style=" stroke:none;fill-rule:nonzero;fill:rgb(14.509804%,36.078431%,60%);fill-opacity:1;" d="M 612.734375 310.976562 L 612.777344 310.972656 L 612.777344 310.917969 L 612.902344 310.828125 L 613.195312 310.71875 L 613.488281 310.640625 L 614.242188 310.503906 L 615.292969 310.371094 L 616.382812 310.265625 L 617.179688 310.207031 L 617.894531 310.160156 L 619.527344 310.074219 L 620.578125 310.027344 L 621.710938 309.988281 L 623.09375 309.949219 L 624.101562 309.925781 L 626.367188 309.886719 L 628.042969 309.871094 L 629.34375 309.863281 L 632.15625 309.863281 L 633.832031 309.875 L 635.050781 309.886719 L 636.390625 309.902344 L 637.523438 309.925781 L 639.496094 309.976562 L 641.257812 310.042969 L 642.054688 310.078125 L 643.3125 310.152344 L 644.277344 310.222656 L 644.949219 310.28125 L 645.703125 310.371094 L 646.375 310.472656 L 646.878906 310.59375 L 647.128906 310.695312 L 641.257812 310.695312 L 640.964844 310.601562 L 640.628906 310.527344 L 640 310.433594 L 639.371094 310.363281 L 638.488281 310.296875 L 637.691406 310.253906 L 636.601562 310.207031 L 635.636719 310.179688 L 634.628906 310.160156 L 633.664062 310.144531 L 631.820312 310.128906 L 629.679688 310.128906 L 628.882812 310.136719 L 627.246094 310.152344 L 626.367188 310.171875 L 625.109375 310.203125 L 624.226562 310.234375 L 623.179688 310.28125 L 622.464844 310.320312 L 621.585938 310.382812 L 620.957031 310.433594 L 620.242188 310.511719 L 619.824219 310.570312 L 619.445312 310.636719 L 619.109375 310.710938 L 618.859375 310.792969 L 618.691406 310.882812 L 618.605469 310.964844 L 618.605469 311.328125 L 618.691406 311.410156 L 618.898438 311.507812 L 619.445312 311.652344 L 620.242188 311.777344 L 621.164062 311.875 L 622.046875 311.945312 L 622.550781 311.976562 L 623.21875 312.015625 L 624.269531 312.0625 L 625.777344 312.109375 L 626.660156 312.125 L 628.003906 312.144531 L 629.386719 312.15625 L 631.230469 312.15625 L 632.867188 312.144531 L 633.957031 312.132812 L 635.089844 312.113281 L 636.644531 312.074219 L 637.609375 312.039062 L 638.445312 311.992188 L 639.078125 311.949219 L 639.496094 311.910156 L 640.125 311.839844 L 640.628906 311.761719 L 641.003906 311.679688 L 641.257812 311.597656 L 647.128906 311.597656 L 646.878906 311.691406 L 646.5 311.78125 L 646.125 311.851562 L 645.535156 311.933594 L 644.863281 312.003906 L 643.898438 312.085938 L 643.101562 312.140625 L 642.054688 312.199219 L 641.089844 312.242188 L 640.042969 312.285156 L 638.488281 312.328125 L 637.480469 312.351562 L 636.390625 312.375 L 635.089844 312.394531 L 633.457031 312.410156 L 631.695312 312.417969 L 630.058594 312.421875 L 628.296875 312.417969 L 626.996094 312.40625 L 625.277344 312.386719 L 623.136719 312.34375 L 621.585938 312.300781 L 620.367188 312.253906 L 619.320312 312.207031 L 618.144531 312.144531 L 616.632812 312.042969 L 615.710938 311.964844 L 615.082031 311.898438 L 614.371094 311.804688 L 613.867188 311.726562 L 613.277344 311.59375 L 612.859375 311.429688 L 612.734375 311.300781 Z M 612.734375 310.976562 "/>
<path style=" stroke:none;fill-rule:nonzero;fill:rgb(96.862745%,70.196078%,16.862745%);fill-opacity:1;" d="M 612.734375 313.929688 L 612.777344 313.929688 L 612.777344 313.914062 L 612.941406 313.882812 L 613.363281 313.839844 L 613.90625 313.804688 L 614.496094 313.777344 L 614.871094 313.761719 L 615.503906 313.742188 L 616.046875 313.726562 L 617.429688 313.695312 L 619.191406 313.664062 L 620.15625 313.652344 L 621.25 313.640625 L 622.800781 313.625 L 623.515625 313.621094 L 625.695312 313.609375 L 628.171875 313.601562 L 632.15625 313.601562 L 633.875 313.605469 L 636.222656 313.613281 L 637.566406 313.617188 L 638.613281 313.625 L 639.707031 313.636719 L 641.046875 313.648438 L 642.304688 313.667969 L 643.3125 313.683594 L 644.320312 313.703125 L 645.160156 313.726562 L 645.871094 313.75 L 646.5 313.78125 L 646.878906 313.804688 L 647.128906 313.828125 L 641.300781 313.828125 L 640.964844 313.804688 L 640.585938 313.785156 L 639.957031 313.761719 L 639.328125 313.746094 L 638.699219 313.734375 L 637.523438 313.714844 L 636.515625 313.703125 L 635.257812 313.695312 L 634.042969 313.6875 L 632.660156 313.683594 L 631.820312 313.679688 L 629.597656 313.679688 L 627.582031 313.6875 L 626.410156 313.691406 L 625.570312 313.699219 L 624.394531 313.707031 L 623.683594 313.714844 L 623.261719 313.722656 L 622.003906 313.746094 L 621.164062 313.765625 L 620.703125 313.777344 L 620.117188 313.796875 L 619.695312 313.816406 L 619.234375 313.84375 L 618.984375 313.867188 L 618.648438 313.914062 L 618.605469 314.039062 L 618.730469 314.066406 L 618.984375 314.097656 L 619.320312 314.121094 L 619.824219 314.148438 L 620.324219 314.167969 L 621.207031 314.195312 L 621.960938 314.214844 L 622.550781 314.226562 L 623.683594 314.246094 L 624.144531 314.25 L 625.234375 314.265625 L 626.367188 314.273438 L 627.75 314.28125 L 628.800781 314.285156 L 630.476562 314.289062 L 632.617188 314.289062 L 635.132812 314.285156 L 636.726562 314.28125 L 637.816406 314.273438 L 638.53125 314.269531 L 639.410156 314.261719 L 640.042969 314.253906 L 640.628906 314.246094 L 641.339844 314.234375 L 641.339844 314.066406 L 630.980469 314.066406 L 630.980469 313.988281 L 647.089844 313.988281 L 647.128906 314.261719 L 646.25 314.28125 L 645.160156 314.300781 L 644.109375 314.3125 L 643.019531 314.324219 L 641.46875 314.339844 L 640.207031 314.347656 L 638.277344 314.355469 L 636.515625 314.363281 L 634.671875 314.367188 L 633.035156 314.371094 L 629.386719 314.371094 L 627.539062 314.363281 L 626.074219 314.359375 L 623.386719 314.34375 L 621.710938 314.328125 L 620.621094 314.316406 L 618.355469 314.285156 L 617.347656 314.265625 L 616.003906 314.234375 L 615.292969 314.210938 L 614.621094 314.1875 L 614.117188 314.167969 L 613.65625 314.140625 L 613.320312 314.117188 L 612.984375 314.085938 L 612.816406 314.0625 L 612.734375 314.039062 Z M 612.734375 313.929688 "/>
<path style=" stroke:none;fill-rule:nonzero;fill:rgb(83.921569%,15.686275%,22.352941%);fill-opacity:1;" d="M 612.734375 299.304688 L 647.128906 299.304688 L 647.128906 299.855469 L 632.792969 299.863281 L 632.792969 304.460938 L 627.027344 304.460938 L 627.027344 299.867188 L 626.945312 299.855469 L 612.734375 299.855469 Z M 612.734375 299.304688 "/>
<path style=" stroke:none;fill-rule:nonzero;fill:rgb(6.27451%,58.823529%,28.235294%);fill-opacity:1;" d="M 648.941406 309.292969 L 648.976562 309.289062 L 663.859375 306.222656 L 668.378906 306.222656 L 683.335938 309.292969 L 678.082031 309.292969 L 674.332031 308.492188 L 657.90625 308.492188 L 654.230469 309.292969 L 648.941406 309.292969 L 659.488281 308.160156 L 672.828125 308.15625 L 666.175781 306.722656 L 666.101562 306.722656 L 666.027344 306.730469 L 659.449219 308.15625 L 659.488281 308.160156 Z M 648.941406 309.292969 "/>
<path style=" stroke:none;fill-rule:nonzero;fill:rgb(14.509804%,36.078431%,60%);fill-opacity:1;" d="M 648.941406 303.304688 L 648.980469 303.304688 L 648.980469 303.234375 L 649.109375 303.128906 L 649.402344 302.996094 L 649.695312 302.902344 L 650.449219 302.734375 L 651.5 302.574219 L 652.589844 302.453125 L 653.386719 302.378906 L 654.101562 302.324219 L 655.734375 302.21875 L 656.785156 302.164062 L 657.917969 302.117188 L 659.300781 302.070312 L 660.308594 302.042969 L 662.574219 301.996094 L 664.25 301.976562 L 665.550781 301.96875 L 668.363281 301.96875 L 670.039062 301.980469 L 671.257812 301.996094 L 672.597656 302.015625 L 673.730469 302.042969 L 675.703125 302.105469 L 677.464844 302.183594 L 678.261719 302.226562 L 679.519531 302.316406 L 680.484375 302.398438 L 681.15625 302.472656 L 681.910156 302.574219 L 682.582031 302.703125 L 683.085938 302.84375 L 683.335938 302.964844 L 677.464844 302.964844 L 677.171875 302.855469 L 676.835938 302.765625 L 676.207031 302.652344 L 675.578125 302.570312 L 674.695312 302.488281 L 673.898438 302.433594 L 672.808594 302.382812 L 671.84375 302.347656 L 670.835938 302.324219 L 669.871094 302.304688 L 668.027344 302.289062 L 665.886719 302.289062 L 665.089844 302.292969 L 663.453125 302.316406 L 662.574219 302.335938 L 661.316406 302.375 L 660.433594 302.414062 L 659.386719 302.46875 L 658.671875 302.515625 L 657.792969 302.589844 L 657.160156 302.65625 L 656.449219 302.746094 L 656.03125 302.816406 L 655.652344 302.894531 L 655.316406 302.988281 L 655.066406 303.085938 L 654.898438 303.191406 L 654.8125 303.292969 L 654.8125 303.726562 L 654.898438 303.828125 L 655.105469 303.945312 L 655.652344 304.117188 L 656.449219 304.265625 L 657.371094 304.386719 L 658.253906 304.46875 L 658.757812 304.507812 L 659.425781 304.554688 L 660.476562 304.609375 L 661.984375 304.664062 L 662.867188 304.6875 L 664.210938 304.710938 L 665.59375 304.722656 L 667.4375 304.722656 L 669.074219 304.710938 L 670.164062 304.695312 L 671.296875 304.675781 L 672.851562 304.625 L 673.816406 304.582031 L 674.652344 304.527344 L 675.28125 304.476562 L 675.703125 304.429688 L 676.332031 304.34375 L 676.835938 304.246094 L 677.210938 304.148438 L 677.464844 304.054688 L 683.335938 304.054688 L 683.085938 304.164062 L 682.707031 304.273438 L 682.332031 304.355469 L 681.742188 304.453125 L 681.070312 304.542969 L 680.105469 304.640625 L 679.308594 304.703125 L 678.261719 304.773438 L 677.296875 304.828125 L 676.246094 304.875 L 674.695312 304.933594 L 673.6875 304.960938 L 672.597656 304.984375 L 671.296875 305.007812 L 669.664062 305.027344 L 667.902344 305.039062 L 666.265625 305.042969 L 664.503906 305.035156 L 663.203125 305.023438 L 661.484375 305 L 659.34375 304.949219 L 657.792969 304.894531 L 656.574219 304.84375 L 655.527344 304.785156 L 654.351562 304.710938 L 652.839844 304.585938 L 651.917969 304.492188 L 651.289062 304.414062 L 650.578125 304.304688 L 650.074219 304.203125 L 649.484375 304.046875 L 649.066406 303.847656 L 648.941406 303.695312 Z M 648.941406 303.304688 "/>
<path style=" stroke:none;fill-rule:nonzero;fill:rgb(96.862745%,70.196078%,16.862745%);fill-opacity:1;" d="M 648.941406 311.496094 L 648.980469 311.496094 L 648.980469 311.449219 L 649.148438 311.351562 L 649.570312 311.21875 L 650.113281 311.105469 L 650.703125 311.019531 L 651.078125 310.972656 L 651.707031 310.910156 L 652.253906 310.859375 L 653.636719 310.761719 L 655.398438 310.671875 L 656.363281 310.632812 L 657.457031 310.59375 L 659.007812 310.554688 L 659.722656 310.539062 L 661.902344 310.503906 L 664.378906 310.480469 L 667.105469 310.472656 L 668.363281 310.476562 L 670.082031 310.484375 L 672.429688 310.507812 L 673.773438 310.53125 L 674.820312 310.554688 L 675.914062 310.582031 L 677.253906 310.625 L 678.511719 310.675781 L 679.519531 310.730469 L 680.527344 310.792969 L 681.367188 310.863281 L 682.078125 310.941406 L 682.707031 311.03125 L 683.085938 311.109375 L 683.335938 311.183594 L 677.507812 311.183594 L 677.171875 311.109375 L 676.792969 311.050781 L 676.164062 310.976562 L 675.535156 310.925781 L 674.90625 310.882812 L 673.730469 310.828125 L 672.722656 310.792969 L 671.464844 310.761719 L 670.25 310.742188 L 668.867188 310.730469 L 668.027344 310.726562 L 665.804688 310.726562 L 663.789062 310.742188 L 662.613281 310.757812 L 661.777344 310.773438 L 660.601562 310.808594 L 659.886719 310.835938 L 659.46875 310.851562 L 658.210938 310.917969 L 657.371094 310.980469 L 656.910156 311.023438 L 656.324219 311.085938 L 655.902344 311.144531 L 655.441406 311.234375 L 655.191406 311.296875 L 654.855469 311.445312 L 654.8125 311.839844 L 654.9375 311.921875 L 655.191406 312.011719 L 655.527344 312.089844 L 656.03125 312.171875 L 656.53125 312.234375 L 657.414062 312.320312 L 658.167969 312.378906 L 658.757812 312.414062 L 659.886719 312.472656 L 660.351562 312.492188 L 661.441406 312.53125 L 662.574219 312.5625 L 663.957031 312.589844 L 665.007812 312.601562 L 666.683594 312.613281 L 668.824219 312.613281 L 671.339844 312.601562 L 672.933594 312.582031 L 674.023438 312.566406 L 674.738281 312.550781 L 675.617188 312.527344 L 676.246094 312.503906 L 676.835938 312.480469 L 677.546875 312.441406 L 677.546875 311.921875 L 667.1875 311.917969 L 667.1875 311.675781 L 683.296875 311.671875 L 683.335938 312.527344 L 682.457031 312.585938 L 681.367188 312.640625 L 680.316406 312.683594 L 679.226562 312.722656 L 677.675781 312.761719 L 676.414062 312.789062 L 674.484375 312.820312 L 672.722656 312.839844 L 670.878906 312.851562 L 669.242188 312.859375 L 667.3125 312.863281 L 665.59375 312.855469 L 663.746094 312.84375 L 662.28125 312.828125 L 660.9375 312.804688 L 659.59375 312.777344 L 657.917969 312.730469 L 656.828125 312.695312 L 655.695312 312.648438 L 654.5625 312.59375 L 653.554688 312.535156 L 652.882812 312.488281 L 652.210938 312.4375 L 651.5 312.371094 L 650.828125 312.296875 L 650.324219 312.230469 L 649.863281 312.152344 L 649.527344 312.082031 L 649.191406 311.984375 L 649.023438 311.90625 L 648.941406 311.835938 Z M 648.941406 311.496094 "/>
<path style=" stroke:none;fill-rule:nonzero;fill:rgb(83.921569%,15.686275%,22.352941%);fill-opacity:1;" d="M 648.941406 314.042969 L 683.335938 314.042969 L 683.335938 314.078125 L 669 314.078125 L 669 314.371094 L 663.234375 314.371094 L 663.234375 314.078125 L 648.941406 314.078125 Z M 648.941406 314.042969 "/>
<g style="fill:rgb(0%,0%,0%);fill-opacity:1;">
  <use xlink:href="#glyph0-1" x="21.957031" y="318.198242"/>
  <use xlink:href="#glyph0-2" x="27.291016" y="318.198242"/>
  <use xlink:href="#glyph0-1" x="29.958008" y="318.198242"/>
</g>
<g style="fill:rgb(0%,0%,0%);fill-opacity:1;">
  <use xlink:href="#glyph0-1" x="21.957031" y="244.475586"/>
  <use xlink:href="#glyph0-2" x="27.291016" y="244.475586"/>
  <use xlink:href="#glyph0-3" x="29.958008" y="244.475586"/>
</g>
<g style="fill:rgb(0%,0%,0%);fill-opacity:1;">
  <use xlink:href="#glyph0-4" x="21.957031" y="170.75293"/>
  <use xlink:href="#glyph0-2" x="27.291016" y="170.75293"/>
  <use xlink:href="#glyph0-1" x="29.958008" y="170.75293"/>
</g>
<g style="fill:rgb(0%,0%,0%);fill-opacity:1;">
  <use xlink:href="#glyph0-4" x="21.957031" y="97.03418"/>
  <use xlink:href="#glyph0-2" x="27.291016" y="97.03418"/>
  <use xlink:href="#glyph0-3" x="29.958008" y="97.03418"/>
</g>
<g style="fill:rgb(0%,0%,0%);fill-opacity:1;">
  <use xlink:href="#glyph0-5" x="21.957031" y="23.311523"/>
  <use xlink:href="#glyph0-2" x="27.291016" y="23.311523"/>
  <use xlink:href="#glyph0-1" x="29.958008" y="23.311523"/>
</g>
<g style="fill:rgb(0%,0%,0%);fill-opacity:1;">
  <use xlink:href="#glyph0-4" x="83.828125" y="338.19043"/>
</g>
<g style="fill:rgb(0%,0%,0%);fill-opacity:1;">
  <use xlink:href="#glyph0-5" x="120.035156" y="338.19043"/>
</g>
<g style="fill:rgb(0%,0%,0%);fill-opacity:1;">
  <use xlink:href="#glyph0-6" x="156.242188" y="338.19043"/>
</g>
<g style="fill:rgb(0%,0%,0%);fill-opacity:1;">
  <use xlink:href="#glyph0-7" x="192.449219" y="338.19043"/>
</g>
<g style="fill:rgb(0%,0%,0%);fill-opacity:1;">
  <use xlink:href="#glyph0-3" x="228.65625" y="338.19043"/>
</g>
<g style="fill:rgb(0%,0%,0%);fill-opacity:1;">
  <use xlink:href="#glyph0-8" x="264.863281" y="338.19043"/>
</g>
<g style="fill:rgb(0%,0%,0%);fill-opacity:1;">
  <use xlink:href="#glyph0-9" x="301.070312" y="338.19043"/>
</g>
<g style="fill:rgb(0%,0%,0%);fill-opacity:1;">
  <use xlink:href="#glyph0-10" x="337.277344" y="338.19043"/>
</g>
<g style="fill:rgb(0%,0%,0%);fill-opacity:1;">
  <use xlink:href="#glyph0-11" x="373.484375" y="338.19043"/>
</g>
<g style="fill:rgb(0%,0%,0%);fill-opacity:1;">
  <use xlink:href="#glyph0-4" x="407.191406" y="338.19043"/>
  <use xlink:href="#glyph0-1" x="412.525391" y="338.19043"/>
</g>
<g style="fill:rgb(0%,0%,0%);fill-opacity:1;">
  <use xlink:href="#glyph0-4" x="443.398438" y="338.19043"/>
  <use xlink:href="#glyph0-4" x="448.732422" y="338.19043"/>
</g>
<g style="fill:rgb(0%,0%,0%);fill-opacity:1;">
  <use xlink:href="#glyph0-4" x="479.605469" y="338.19043"/>
  <use xlink:href="#glyph0-5" x="484.939453" y="338.19043"/>
</g>
<g style="fill:rgb(0%,0%,0%);fill-opacity:1;">
  <use xlink:href="#glyph0-4" x="515.8125" y="338.19043"/>
  <use xlink:href="#glyph0-6" x="521.146484" y="338.19043"/>
</g>
<g style="fill:rgb(0%,0%,0%);fill-opacity:1;">
  <use xlink:href="#glyph0-4" x="552.019531" y="338.19043"/>
  <use xlink:href="#glyph0-7" x="557.353516" y="338.19043"/>
</g>
<g style="fill:rgb(0%,0%,0%);fill-opacity:1;">
  <use xlink:href="#glyph0-4" x="588.226562" y="338.19043"/>
  <use xlink:href="#glyph0-3" x="593.560547" y="338.19043"/>
</g>
<g style="fill:rgb(0%,0%,0%);fill-opacity:1;">
  <use xlink:href="#glyph0-4" x="624.433594" y="338.19043"/>
  <use xlink:href="#glyph0-8" x="629.767578" y="338.19043"/>
</g>
<g style="fill:rgb(0%,0%,0%);fill-opacity:1;">
  <use xlink:href="#glyph0-4" x="660.640625" y="338.19043"/>
  <use xlink:href="#glyph0-9" x="665.974609" y="338.19043"/>
</g>
<g style="fill:rgb(0%,0%,0%);fill-opacity:1;">
  <use xlink:href="#glyph1-1" x="14.412109" y="178.015625"/>
  <use xlink:href="#glyph1-2" x="14.412109" y="170.011719"/>
  <use xlink:href="#glyph1-3" x="14.412109" y="167.347656"/>
  <use xlink:href="#glyph1-4" x="14.412109" y="164.011719"/>
</g>
</g>
</svg>
