<?xml version="1.0" encoding="UTF-8"?>
<svg xmlns="http://www.w3.org/2000/svg" xmlns:xlink="http://www.w3.org/1999/xlink" width="720pt" height="360pt" viewBox="0 0 720 360" version="1.1">
<defs>
<g>
<symbol overflow="visible" id="glyph0-0">
<path style="stroke:none;" d=""/>
</symbol>
<symbol overflow="visible" id="glyph0-1">
<path style="stroke:none;" d="M 2.640625 -6.796875 C 2 -6.796875 1.421875 -6.53125 1.078125 -6.046875 C 0.640625 -5.453125 0.40625 -4.546875 0.40625 -3.296875 C 0.40625 -1 1.1875 0.21875 2.640625 0.21875 C 4.078125 0.21875 4.859375 -1 4.859375 -3.234375 C 4.859375 -4.5625 4.65625 -5.4375 4.203125 -6.046875 C 3.84375 -6.53125 3.28125 -6.796875 2.640625 -6.796875 Z M 2.640625 -6.046875 C 3.546875 -6.046875 4 -5.125 4 -3.3125 C 4 -1.375 3.5625 -0.484375 2.625 -0.484375 C 1.734375 -0.484375 1.28125 -1.421875 1.28125 -3.28125 C 1.28125 -5.140625 1.734375 -6.046875 2.640625 -6.046875 Z M 2.640625 -6.046875 "/>
</symbol>
<symbol overflow="visible" id="glyph0-2">
<path style="stroke:none;" d="M 1.828125 -1 L 0.828125 -1 L 0.828125 0 L 1.828125 0 Z M 1.828125 -1 "/>
</symbol>
<symbol overflow="visible" id="glyph0-3">
<path style="stroke:none;" d="M 4.5625 -6.796875 L 1.0625 -6.796875 L 0.546875 -3.09375 L 1.328125 -3.09375 C 1.71875 -3.5625 2.046875 -3.734375 2.578125 -3.734375 C 3.484375 -3.734375 4.0625 -3.109375 4.0625 -2.09375 C 4.0625 -1.125 3.484375 -0.53125 2.578125 -0.53125 C 1.828125 -0.53125 1.375 -0.90625 1.1875 -1.671875 L 0.328125 -1.671875 C 0.453125 -1.109375 0.546875 -0.84375 0.75 -0.59375 C 1.125 -0.078125 1.828125 0.21875 2.59375 0.21875 C 3.96875 0.21875 4.921875 -0.78125 4.921875 -2.21875 C 4.921875 -3.5625 4.03125 -4.484375 2.71875 -4.484375 C 2.25 -4.484375 1.859375 -4.359375 1.46875 -4.0625 L 1.734375 -5.96875 L 4.5625 -5.96875 Z M 4.5625 -6.796875 "/>
</symbol>
<symbol overflow="visible" id="glyph0-4">
<path style="stroke:none;" d="M 2.484375 -4.84375 L 2.484375 0 L 3.328125 0 L 3.328125 -6.796875 L 2.765625 -6.796875 C 2.46875 -5.75 2.28125 -5.609375 0.984375 -5.453125 L 0.984375 -4.84375 Z M 2.484375 -4.84375 "/>
</symbol>
<symbol overflow="visible" id="glyph0-5">
<path style="stroke:none;" d="M 4.859375 -0.828125 L 1.28125 -0.828125 C 1.359375 -1.390625 1.671875 -1.75 2.5 -2.234375 L 3.46875 -2.75 C 4.40625 -3.265625 4.90625 -3.96875 4.90625 -4.8125 C 4.90625 -5.375 4.671875 -5.90625 4.265625 -6.265625 C 3.859375 -6.625 3.375 -6.796875 2.71875 -6.796875 C 1.859375 -6.796875 1.21875 -6.5 0.84375 -5.921875 C 0.609375 -5.5625 0.5 -5.125 0.484375 -4.4375 L 1.328125 -4.4375 C 1.359375 -4.90625 1.40625 -5.1875 1.53125 -5.40625 C 1.75 -5.8125 2.1875 -6.0625 2.703125 -6.0625 C 3.46875 -6.0625 4.03125 -5.515625 4.03125 -4.78125 C 4.03125 -4.25 3.71875 -3.796875 3.125 -3.4375 L 2.234375 -2.9375 C 0.8125 -2.140625 0.40625 -1.5 0.328125 0 L 4.859375 0 Z M 4.859375 -0.828125 "/>
</symbol>
<symbol overflow="visible" id="glyph0-6">
<path style="stroke:none;" d="M 2.125 -3.125 L 2.578125 -3.125 C 3.515625 -3.125 3.984375 -2.703125 3.984375 -1.890625 C 3.984375 -1.03125 3.46875 -0.53125 2.578125 -0.53125 C 1.65625 -0.53125 1.203125 -0.984375 1.15625 -1.96875 L 0.3125 -1.96875 C 0.34375 -1.421875 0.4375 -1.078125 0.609375 -0.765625 C 0.953125 -0.109375 1.625 0.21875 2.546875 0.21875 C 3.953125 0.21875 4.859375 -0.609375 4.859375 -1.90625 C 4.859375 -2.765625 4.515625 -3.25 3.703125 -3.515625 C 4.34375 -3.765625 4.65625 -4.25 4.65625 -4.9375 C 4.65625 -6.109375 3.875 -6.796875 2.578125 -6.796875 C 1.203125 -6.796875 0.484375 -6.046875 0.453125 -4.609375 L 1.296875 -4.609375 C 1.3125 -5.015625 1.34375 -5.25 1.453125 -5.453125 C 1.640625 -5.828125 2.0625 -6.0625 2.59375 -6.0625 C 3.34375 -6.0625 3.796875 -5.625 3.796875 -4.90625 C 3.796875 -4.421875 3.609375 -4.140625 3.25 -3.984375 C 3.015625 -3.890625 2.71875 -3.84375 2.125 -3.84375 Z M 2.125 -3.125 "/>
</symbol>
<symbol overflow="visible" id="glyph0-7">
<path style="stroke:none;" d="M 3.140625 -1.625 L 3.140625 0 L 3.984375 0 L 3.984375 -1.625 L 4.984375 -1.625 L 4.984375 -2.390625 L 3.984375 -2.390625 L 3.984375 -6.796875 L 3.359375 -6.796875 L 0.265625 -2.515625 L 0.265625 -1.625 Z M 3.140625 -2.390625 L 1 -2.390625 L 3.140625 -5.359375 Z M 3.140625 -2.390625 "/>
</symbol>
<symbol overflow="visible" id="glyph0-8">
<path style="stroke:none;" d="M 4.78125 -5.03125 C 4.609375 -6.140625 3.890625 -6.796875 2.84375 -6.796875 C 2.09375 -6.796875 1.421875 -6.4375 1.03125 -5.828125 C 0.609375 -5.171875 0.40625 -4.34375 0.40625 -3.09375 C 0.40625 -1.953125 0.578125 -1.234375 0.984375 -0.625 C 1.359375 -0.078125 1.953125 0.21875 2.703125 0.21875 C 3.984375 0.21875 4.921875 -0.734375 4.921875 -2.078125 C 4.921875 -3.34375 4.0625 -4.234375 2.84375 -4.234375 C 2.171875 -4.234375 1.640625 -3.96875 1.28125 -3.46875 C 1.28125 -5.125 1.828125 -6.046875 2.796875 -6.046875 C 3.390625 -6.046875 3.796875 -5.671875 3.9375 -5.03125 Z M 2.734375 -3.484375 C 3.546875 -3.484375 4.0625 -2.921875 4.0625 -2 C 4.0625 -1.15625 3.484375 -0.53125 2.703125 -0.53125 C 1.921875 -0.53125 1.328125 -1.1875 1.328125 -2.046875 C 1.328125 -2.890625 1.90625 -3.484375 2.734375 -3.484375 Z M 2.734375 -3.484375 "/>
</symbol>
<symbol overflow="visible" id="glyph0-9">
<path style="stroke:none;" d="M 4.984375 -6.796875 L 0.4375 -6.796875 L 0.4375 -5.96875 L 4.109375 -5.96875 C 2.5 -3.65625 1.828125 -2.234375 1.328125 0 L 2.21875 0 C 2.59375 -2.171875 3.453125 -4.046875 4.984375 -6.09375 Z M 4.984375 -6.796875 "/>
</symbol>
<symbol overflow="visible" id="glyph0-10">
<path style="stroke:none;" d="M 3.75 -3.578125 C 4.453125 -4 4.6875 -4.34375 4.6875 -4.984375 C 4.6875 -6.046875 3.84375 -6.796875 2.640625 -6.796875 C 1.4375 -6.796875 0.59375 -6.046875 0.59375 -4.984375 C 0.59375 -4.359375 0.828125 -4.015625 1.515625 -3.578125 C 0.734375 -3.203125 0.359375 -2.640625 0.359375 -1.890625 C 0.359375 -0.640625 1.296875 0.21875 2.640625 0.21875 C 3.984375 0.21875 4.921875 -0.640625 4.921875 -1.875 C 4.921875 -2.640625 4.53125 -3.203125 3.75 -3.578125 Z M 2.640625 -6.046875 C 3.359375 -6.046875 3.8125 -5.625 3.8125 -4.96875 C 3.8125 -4.34375 3.34375 -3.921875 2.640625 -3.921875 C 1.921875 -3.921875 1.453125 -4.34375 1.453125 -4.984375 C 1.453125 -5.625 1.921875 -6.046875 2.640625 -6.046875 Z M 2.640625 -3.203125 C 3.484375 -3.203125 4.0625 -2.671875 4.0625 -1.875 C 4.0625 -1.0625 3.484375 -0.53125 2.625 -0.53125 C 1.796875 -0.53125 1.21875 -1.078125 1.21875 -1.875 C 1.21875 -2.671875 1.796875 -3.203125 2.640625 -3.203125 Z M 2.640625 -3.203125 "/>
</symbol>
<symbol overflow="visible" id="glyph0-11">
<path style="stroke:none;" d="M 0.515625 -1.546875 C 0.671875 -0.4375 1.40625 0.21875 2.4375 0.21875 C 3.1875 0.21875 3.859375 -0.140625 4.265625 -0.75 C 4.6875 -1.40625 4.890625 -2.25 4.890625 -3.484375 C 4.890625 -4.625 4.703125 -5.359375 4.3125 -5.953125 C 3.9375 -6.5 3.34375 -6.796875 2.59375 -6.796875 C 1.296875 -6.796875 0.359375 -5.84375 0.359375 -4.515625 C 0.359375 -3.25 1.234375 -2.34375 2.453125 -2.34375 C 3.09375 -2.34375 3.5625 -2.578125 4.015625 -3.109375 C 4 -1.453125 3.46875 -0.53125 2.5 -0.53125 C 1.90625 -0.53125 1.484375 -0.90625 1.359375 -1.546875 Z M 2.578125 -6.0625 C 3.375 -6.0625 3.96875 -5.40625 3.96875 -4.53125 C 3.96875 -3.6875 3.375 -3.09375 2.546875 -3.09375 C 1.734375 -3.09375 1.234375 -3.671875 1.234375 -4.578125 C 1.234375 -5.4375 1.796875 -6.0625 2.578125 -6.0625 Z M 2.578125 -6.0625 "/>
</symbol>
<symbol overflow="visible" id="glyph1-0">
<path style="stroke:none;" d=""/>
</symbol>
<symbol overflow="visible" id="glyph1-1">
<path style="stroke:none;" d="M 0 -0.953125 L 0 -4.890625 C 0 -5.71875 -0.234375 -6.34375 -0.734375 -6.796875 C -1.1875 -7.234375 -1.8125 -7.46875 -2.5 -7.46875 C -3.546875 -7.46875 -4.1875 -7 -4.625 -5.875 C -4.984375 -6.671875 -5.640625 -7.09375 -6.53125 -7.09375 C -7.15625 -7.09375 -7.734375 -6.859375 -8.140625 -6.390625 C -8.5625 -5.9375 -8.75 -5.34375 -8.75 -4.5 L -8.75 -0.953125 Z M -4.984375 -2.0625 L -7.765625 -2.0625 L -7.765625 -4.21875 C -7.765625 -4.84375 -7.6875 -5.203125 -7.453125 -5.5 C -7.21875 -5.8125 -6.859375 -5.96875 -6.375 -5.96875 C -5.90625 -5.96875 -5.53125 -5.8125 -5.296875 -5.5 C -5.0625 -5.203125 -4.984375 -4.84375 -4.984375 -4.21875 Z M -0.984375 -2.0625 L -4 -2.0625 L -4 -4.78125 C -4 -5.328125 -3.859375 -5.6875 -3.578125 -5.953125 C -3.296875 -6.21875 -2.921875 -6.359375 -2.484375 -6.359375 C -2.0625 -6.359375 -1.6875 -6.21875 -1.40625 -5.953125 C -1.109375 -5.6875 -0.984375 -5.328125 -0.984375 -4.78125 Z M -0.984375 -2.0625 "/>
</symbol>
<symbol overflow="visible" id="glyph1-2">
<path style="stroke:none;" d="M -6.28125 -1.796875 L -6.28125 -0.796875 L 0 -0.796875 L 0 -1.796875 Z M -8.75 -1.796875 L -8.75 -0.796875 L -7.484375 -0.796875 L -7.484375 -1.796875 Z M -8.75 -1.796875 "/>
</symbol>
<symbol overflow="visible" id="glyph1-3">
<path style="stroke:none;" d="M -6.28125 -3.046875 L -6.28125 -2.015625 L -8.015625 -2.015625 L -8.015625 -1.015625 L -6.28125 -1.015625 L -6.28125 -0.171875 L -5.46875 -0.171875 L -5.46875 -1.015625 L -0.71875 -1.015625 C -0.078125 -1.015625 0.28125 -1.453125 0.28125 -2.234375 C 0.28125 -2.46875 0.25 -2.71875 0.1875 -3.046875 L -0.640625 -3.046875 C -0.609375 -2.921875 -0.59375 -2.765625 -0.59375 -2.5625 C -0.59375 -2.140625 -0.71875 -2.015625 -1.15625 -2.015625 L -5.46875 -2.015625 L -5.46875 -3.046875 Z M -6.28125 -3.046875 "/>
</symbol>
<symbol overflow="visible" id="glyph1-4">
<path style="stroke:none;" d="M -4.53125 -5.25 C -5.765625 -5.25 -6.46875 -4.421875 -6.46875 -2.96875 C -6.46875 -1.515625 -5.71875 -0.5625 -4.546875 -0.5625 C -3.5625 -0.5625 -3.09375 -1.0625 -2.734375 -2.5625 L -2.515625 -3.484375 C -2.34375 -4.1875 -2.09375 -4.46875 -1.625 -4.46875 C -1.046875 -4.46875 -0.640625 -3.875 -0.640625 -3 C -0.640625 -2.453125 -0.796875 -2 -1.0625 -1.75 C -1.25 -1.59375 -1.421875 -1.53125 -1.875 -1.46875 L -1.875 -0.40625 C -0.421875 -0.453125 0.28125 -1.265625 0.28125 -2.921875 C 0.28125 -4.5 -0.5 -5.515625 -1.71875 -5.515625 C -2.65625 -5.515625 -3.171875 -4.984375 -3.46875 -3.734375 L -3.703125 -2.765625 C -3.890625 -1.953125 -4.15625 -1.609375 -4.59375 -1.609375 C -5.171875 -1.609375 -5.546875 -2.125 -5.546875 -2.9375 C -5.546875 -3.75 -5.203125 -4.171875 -4.53125 -4.203125 Z M -4.53125 -5.25 "/>
</symbol>
</g>
</defs>
<g id="surface59145">
<rect x="0" y="0" width="720" height="360" style="fill:rgb(100%,100%,100%);fill-opacity:1;stroke:none;"/>
<path style=" stroke:none;fill-rule:nonzero;fill:rgb(6.27451%,58.823529%,28.235294%);fill-opacity:1;" d="M 69.628906 311.972656 L 69.667969 311.96875 L 85.484375 309.386719 L 90.289062 309.386719 L 106.183594 311.972656 L 100.597656 311.972656 L 96.613281 311.300781 L 79.15625 311.300781 L 75.253906 311.972656 L 69.628906 311.972656 L 80.835938 311.019531 L 95.011719 311.015625 L 87.945312 309.808594 L 87.867188 309.808594 L 87.789062 309.816406 L 80.796875 311.015625 L 80.835938 311.019531 Z M 69.628906 311.972656 "/>
<path style=" stroke:none;fill-rule:nonzero;fill:rgb(14.509804%,36.078431%,60%);fill-opacity:1;" d="M 69.628906 313.683594 L 69.675781 313.683594 L 69.675781 313.65625 L 69.808594 313.613281 L 70.121094 313.558594 L 70.433594 313.523438 L 71.234375 313.457031 L 72.347656 313.394531 L 73.507812 313.34375 L 74.355469 313.316406 L 75.113281 313.292969 L 76.851562 313.253906 L 77.964844 313.230469 L 79.167969 313.210938 L 80.640625 313.195312 L 81.710938 313.183594 L 84.117188 313.164062 L 85.898438 313.15625 L 87.28125 313.152344 L 90.269531 313.152344 L 92.050781 313.15625 L 93.34375 313.164062 L 94.769531 313.171875 L 95.972656 313.183594 L 98.070312 313.207031 L 99.941406 313.238281 L 100.789062 313.257812 L 102.125 313.289062 L 103.152344 313.324219 L 103.863281 313.351562 L 104.667969 313.394531 L 105.378906 313.445312 L 105.914062 313.5 L 106.183594 313.546875 L 99.941406 313.546875 L 99.628906 313.503906 L 99.273438 313.46875 L 98.605469 313.425781 L 97.9375 313.390625 L 97 313.359375 L 96.152344 313.339844 L 94.992188 313.316406 L 93.96875 313.304688 L 92.898438 313.292969 L 91.875 313.289062 L 89.910156 313.28125 L 86.792969 313.28125 L 85.054688 313.292969 L 84.117188 313.300781 L 82.78125 313.316406 L 81.84375 313.328125 L 80.730469 313.351562 L 79.972656 313.371094 L 79.035156 313.398438 L 78.367188 313.425781 L 77.609375 313.460938 L 77.164062 313.488281 L 76.761719 313.519531 L 76.40625 313.558594 L 76.136719 313.597656 L 75.960938 313.636719 L 75.871094 313.675781 L 75.871094 313.851562 L 75.960938 313.890625 L 76.183594 313.9375 L 76.761719 314.003906 L 77.609375 314.0625 L 78.589844 314.109375 L 79.527344 314.144531 L 80.058594 314.160156 L 80.773438 314.175781 L 81.886719 314.199219 L 83.492188 314.222656 L 84.429688 314.230469 L 85.855469 314.238281 L 87.328125 314.242188 L 89.289062 314.242188 L 91.027344 314.238281 L 92.183594 314.234375 L 93.390625 314.226562 L 95.039062 314.207031 L 96.0625 314.1875 L 96.953125 314.167969 L 97.625 314.144531 L 98.070312 314.128906 L 98.738281 314.09375 L 99.273438 314.054688 L 99.675781 314.015625 L 99.941406 313.980469 L 106.183594 313.980469 L 105.914062 314.023438 L 105.515625 314.066406 L 105.113281 314.097656 L 104.488281 314.136719 L 103.773438 314.171875 L 102.75 314.210938 L 101.902344 314.238281 L 100.789062 314.265625 L 99.761719 314.285156 L 98.648438 314.304688 L 97 314.328125 L 95.929688 314.339844 L 94.769531 314.347656 L 93.390625 314.355469 L 91.648438 314.363281 L 89.777344 314.371094 L 88.039062 314.371094 L 86.167969 314.367188 L 84.785156 314.363281 L 82.957031 314.355469 L 80.683594 314.332031 L 79.035156 314.3125 L 77.742188 314.292969 L 76.628906 314.269531 L 75.378906 314.238281 L 73.773438 314.191406 L 72.792969 314.152344 L 72.125 314.121094 L 71.367188 314.078125 L 70.832031 314.039062 L 70.207031 313.976562 L 69.761719 313.898438 L 69.628906 313.835938 Z M 69.628906 313.683594 "/>
<path style=" stroke:none;fill-rule:nonzero;fill:rgb(96.862745%,70.196078%,16.862745%);fill-opacity:1;" d="M 69.628906 301.007812 L 69.675781 301 L 69.675781 300.890625 L 69.851562 300.644531 L 70.296875 300.304688 L 70.878906 300.023438 L 71.5 299.804688 L 71.902344 299.6875 L 72.570312 299.523438 L 73.152344 299.402344 L 74.621094 299.15625 L 76.496094 298.925781 L 77.519531 298.828125 L 78.679688 298.734375 L 80.328125 298.628906 L 81.085938 298.589844 L 83.402344 298.503906 L 86.035156 298.449219 L 88.929688 298.433594 L 90.269531 298.4375 L 92.097656 298.460938 L 94.59375 298.519531 L 96.019531 298.574219 L 97.132812 298.628906 L 98.292969 298.703125 L 99.71875 298.8125 L 101.054688 298.941406 L 102.125 299.074219 L 103.195312 299.238281 L 104.085938 299.414062 L 104.84375 299.605469 L 105.515625 299.835938 L 105.914062 300.03125 L 106.183594 300.222656 L 99.984375 300.222656 L 99.628906 300.03125 L 99.226562 299.882812 L 98.558594 299.699219 L 97.890625 299.570312 L 97.222656 299.464844 L 95.972656 299.320312 L 94.90625 299.234375 L 93.566406 299.15625 L 92.273438 299.109375 L 90.804688 299.074219 L 89.910156 299.0625 L 87.550781 299.0625 L 85.410156 299.101562 L 84.160156 299.144531 L 83.269531 299.191406 L 82.023438 299.273438 L 81.265625 299.339844 L 80.816406 299.382812 L 79.480469 299.550781 L 78.589844 299.707031 L 78.097656 299.808594 L 77.476562 299.976562 L 77.027344 300.121094 L 76.539062 300.34375 L 76.269531 300.507812 L 75.914062 300.878906 L 75.871094 301.867188 L 76.003906 302.078125 L 76.269531 302.300781 L 76.628906 302.5 L 77.164062 302.707031 L 77.699219 302.867188 L 78.632812 303.082031 L 79.4375 303.222656 L 80.058594 303.316406 L 81.265625 303.464844 L 81.753906 303.515625 L 82.914062 303.613281 L 84.117188 303.691406 L 85.589844 303.757812 L 86.703125 303.789062 L 88.484375 303.816406 L 90.757812 303.816406 L 93.433594 303.785156 L 95.128906 303.738281 L 96.285156 303.695312 L 97.042969 303.65625 L 97.980469 303.597656 L 98.648438 303.542969 L 99.273438 303.480469 L 100.03125 303.386719 L 100.03125 302.078125 L 89.019531 302.070312 L 89.019531 301.457031 L 106.136719 301.449219 L 106.183594 303.597656 L 105.246094 303.746094 L 104.085938 303.886719 L 102.972656 303.996094 L 101.8125 304.089844 L 100.164062 304.195312 L 98.828125 304.261719 L 96.777344 304.339844 L 94.90625 304.386719 L 92.941406 304.421875 L 91.203125 304.4375 L 89.152344 304.441406 L 87.328125 304.429688 L 85.363281 304.398438 L 83.804688 304.355469 L 82.378906 304.300781 L 80.953125 304.226562 L 79.167969 304.113281 L 78.011719 304.019531 L 76.804688 303.90625 L 75.601562 303.765625 L 74.53125 303.617188 L 73.820312 303.503906 L 73.105469 303.371094 L 72.347656 303.207031 L 71.636719 303.019531 L 71.101562 302.851562 L 70.609375 302.660156 L 70.253906 302.476562 L 69.898438 302.230469 L 69.71875 302.03125 L 69.628906 301.863281 Z M 69.628906 301.007812 "/>
<path style=" stroke:none;fill-rule:nonzero;fill:rgb(83.921569%,15.686275%,22.352941%);fill-opacity:1;" d="M 69.628906 305.621094 L 106.183594 305.621094 L 106.183594 305.898438 L 90.949219 305.902344 L 90.949219 308.207031 L 84.820312 308.207031 L 84.820312 305.902344 L 84.730469 305.898438 L 69.628906 305.898438 Z M 69.628906 305.621094 "/>
<path style=" stroke:none;fill-rule:nonzero;fill:rgb(6.27451%,58.823529%,28.235294%);fill-opacity:1;" d="M 108.105469 311.265625 L 108.144531 311.265625 L 123.960938 310.984375 L 128.765625 310.984375 L 144.660156 311.265625 L 139.074219 311.265625 L 135.089844 311.191406 L 117.636719 311.191406 L 113.730469 311.265625 L 108.105469 311.265625 L 119.3125 311.160156 L 133.492188 311.160156 L 126.421875 311.03125 L 126.265625 311.03125 L 119.273438 311.160156 L 119.3125 311.160156 Z M 108.105469 311.265625 "/>
<path style=" stroke:none;fill-rule:nonzero;fill:rgb(83.921569%,15.686275%,22.352941%);fill-opacity:1;" d="M 108.105469 312.445312 L 144.660156 312.445312 L 144.660156 312.449219 L 129.425781 312.449219 L 129.425781 312.5 L 123.296875 312.5 L 123.296875 312.449219 L 108.105469 312.449219 Z M 108.105469 312.445312 "/>
<path style=" stroke:none;fill-rule:nonzero;fill:rgb(6.27451%,58.823529%,28.235294%);fill-opacity:1;" d="M 146.582031 303.109375 L 146.621094 303.105469 L 162.4375 297.964844 L 167.242188 297.964844 L 183.136719 303.117188 L 177.550781 303.117188 L 173.570312 301.769531 L 156.113281 301.769531 L 152.207031 303.109375 L 146.582031 303.109375 L 157.792969 301.214844 L 171.96875 301.210938 L 164.898438 298.804688 L 164.820312 298.800781 L 164.742188 298.816406 L 157.753906 301.210938 L 157.792969 301.214844 Z M 146.582031 303.109375 "/>
<path style=" stroke:none;fill-rule:nonzero;fill:rgb(14.509804%,36.078431%,60%);fill-opacity:1;" d="M 146.582031 306.308594 L 146.628906 306.304688 L 146.628906 306.203125 L 146.761719 306.042969 L 147.074219 305.839844 L 147.386719 305.699219 L 148.1875 305.449219 L 149.300781 305.207031 L 150.460938 305.023438 L 151.308594 304.914062 L 152.066406 304.828125 L 153.804688 304.671875 L 154.917969 304.589844 L 156.121094 304.519531 L 157.59375 304.449219 L 158.664062 304.40625 L 161.070312 304.335938 L 162.855469 304.308594 L 164.234375 304.296875 L 167.222656 304.296875 L 169.003906 304.3125 L 170.296875 304.332031 L 171.726562 304.367188 L 172.929688 304.40625 L 175.023438 304.5 L 176.894531 304.617188 L 177.742188 304.683594 L 179.078125 304.816406 L 180.105469 304.941406 L 180.820312 305.050781 L 181.621094 305.207031 L 182.335938 305.398438 L 182.867188 305.613281 L 183.136719 305.796875 L 176.894531 305.796875 L 176.582031 305.625 L 176.226562 305.496094 L 175.558594 305.324219 L 174.890625 305.199219 L 173.953125 305.078125 L 173.105469 304.996094 L 171.949219 304.917969 L 170.921875 304.867188 L 169.851562 304.828125 L 168.828125 304.800781 L 166.867188 304.777344 L 164.59375 304.777344 L 163.746094 304.785156 L 162.007812 304.820312 L 161.070312 304.847656 L 159.734375 304.910156 L 158.796875 304.964844 L 157.683594 305.046875 L 156.925781 305.121094 L 155.988281 305.230469 L 155.320312 305.328125 L 154.5625 305.464844 L 154.117188 305.570312 L 153.714844 305.691406 L 153.359375 305.828125 L 153.089844 305.976562 L 152.914062 306.132812 L 152.824219 306.285156 L 152.824219 306.941406 L 152.914062 307.09375 L 153.136719 307.269531 L 153.714844 307.527344 L 154.5625 307.753906 L 155.542969 307.929688 L 156.480469 308.058594 L 157.015625 308.117188 L 157.726562 308.183594 L 158.84375 308.269531 L 160.445312 308.351562 L 161.382812 308.386719 L 162.808594 308.421875 L 164.28125 308.4375 L 166.242188 308.4375 L 167.980469 308.421875 L 169.140625 308.398438 L 170.34375 308.367188 L 171.992188 308.292969 L 173.015625 308.226562 L 173.910156 308.144531 L 174.578125 308.066406 L 175.023438 307.996094 L 175.691406 307.867188 L 176.226562 307.722656 L 176.628906 307.574219 L 176.894531 307.429688 L 183.136719 307.429688 L 182.867188 307.601562 L 182.46875 307.765625 L 182.066406 307.886719 L 181.441406 308.035156 L 180.730469 308.167969 L 179.703125 308.316406 L 178.855469 308.410156 L 177.742188 308.519531 L 176.71875 308.597656 L 175.601562 308.667969 L 173.953125 308.753906 L 172.882812 308.796875 L 171.726562 308.835938 L 170.34375 308.867188 L 168.605469 308.898438 L 166.730469 308.914062 L 164.992188 308.917969 L 163.121094 308.910156 L 161.738281 308.894531 L 159.910156 308.855469 L 157.636719 308.78125 L 155.988281 308.699219 L 154.695312 308.617188 L 153.582031 308.535156 L 152.332031 308.421875 L 150.730469 308.234375 L 149.75 308.089844 L 149.078125 307.972656 L 148.320312 307.808594 L 147.785156 307.660156 L 147.164062 307.421875 L 146.71875 307.121094 L 146.582031 306.890625 Z M 146.582031 306.308594 "/>
<path style=" stroke:none;fill-rule:nonzero;fill:rgb(96.862745%,70.196078%,16.862745%);fill-opacity:1;" d="M 146.582031 311.023438 L 146.628906 311.023438 L 146.628906 310.984375 L 146.804688 310.894531 L 147.25 310.773438 L 147.832031 310.671875 L 148.457031 310.59375 L 148.855469 310.550781 L 149.523438 310.492188 L 150.105469 310.449219 L 151.574219 310.359375 L 153.449219 310.277344 L 154.472656 310.242188 L 155.632812 310.207031 L 157.28125 310.167969 L 158.039062 310.15625 L 160.359375 310.125 L 162.988281 310.105469 L 165.886719 310.097656 L 167.222656 310.101562 L 169.050781 310.109375 L 171.546875 310.128906 L 172.972656 310.148438 L 174.085938 310.167969 L 175.246094 310.195312 L 176.671875 310.234375 L 178.011719 310.28125 L 179.078125 310.328125 L 180.148438 310.390625 L 181.042969 310.453125 L 181.800781 310.519531 L 182.46875 310.605469 L 182.867188 310.671875 L 183.136719 310.742188 L 176.941406 310.742188 L 176.582031 310.671875 L 176.183594 310.621094 L 175.515625 310.554688 L 174.84375 310.507812 L 174.175781 310.46875 L 172.929688 310.417969 L 171.859375 310.386719 L 170.519531 310.359375 L 169.226562 310.339844 L 167.757812 310.328125 L 166.867188 310.324219 L 164.503906 310.324219 L 162.363281 310.339844 L 161.117188 310.355469 L 160.222656 310.371094 L 158.976562 310.402344 L 158.21875 310.425781 L 157.773438 310.441406 L 156.433594 310.5 L 155.542969 310.558594 L 155.054688 310.59375 L 154.429688 310.652344 L 153.984375 310.707031 L 153.492188 310.785156 L 153.226562 310.84375 L 152.867188 310.980469 L 152.824219 311.335938 L 152.957031 311.410156 L 153.226562 311.492188 L 153.582031 311.5625 L 154.117188 311.636719 L 154.652344 311.695312 L 155.585938 311.769531 L 156.390625 311.820312 L 157.015625 311.855469 L 158.21875 311.910156 L 158.707031 311.925781 L 159.867188 311.960938 L 161.070312 311.988281 L 162.542969 312.011719 L 163.65625 312.027344 L 165.4375 312.035156 L 167.710938 312.035156 L 170.386719 312.023438 L 172.082031 312.007812 L 173.242188 311.992188 L 174 311.976562 L 174.933594 311.957031 L 175.601562 311.9375 L 176.226562 311.914062 L 176.984375 311.882812 L 176.984375 311.410156 L 165.972656 311.40625 L 165.972656 311.1875 L 183.09375 311.183594 L 183.136719 311.957031 L 182.199219 312.007812 L 181.042969 312.0625 L 179.925781 312.101562 L 178.769531 312.132812 L 177.117188 312.171875 L 175.78125 312.195312 L 173.730469 312.222656 L 171.859375 312.242188 L 169.898438 312.253906 L 168.160156 312.257812 L 166.109375 312.261719 L 164.28125 312.257812 L 162.320312 312.246094 L 160.757812 312.230469 L 159.332031 312.210938 L 157.90625 312.183594 L 156.121094 312.140625 L 154.964844 312.109375 L 153.761719 312.066406 L 152.554688 312.019531 L 151.488281 311.964844 L 150.773438 311.921875 L 150.058594 311.875 L 149.300781 311.816406 L 148.589844 311.75 L 148.054688 311.6875 L 147.5625 311.617188 L 147.207031 311.554688 L 146.851562 311.464844 L 146.671875 311.394531 L 146.582031 311.332031 Z M 146.582031 311.023438 "/>
<path style=" stroke:none;fill-rule:nonzero;fill:rgb(83.921569%,15.686275%,22.352941%);fill-opacity:1;" d="M 146.582031 313.441406 L 183.136719 313.441406 L 183.136719 313.539062 L 167.902344 313.539062 L 167.902344 314.371094 L 161.773438 314.371094 L 161.773438 313.542969 L 161.683594 313.539062 L 146.582031 313.539062 Z M 146.582031 313.441406 "/>
<path style=" stroke:none;fill-rule:nonzero;fill:rgb(6.27451%,58.823529%,28.235294%);fill-opacity:1;" d="M 185.058594 312.003906 L 185.097656 312 L 200.914062 306.113281 L 205.71875 306.113281 L 221.613281 312.011719 L 216.027344 312.011719 L 212.046875 310.472656 L 194.589844 310.472656 L 190.683594 312.003906 L 185.058594 312.003906 L 196.269531 309.835938 L 210.445312 309.828125 L 203.375 307.078125 L 203.296875 307.070312 L 203.21875 307.085938 L 196.230469 309.828125 L 196.269531 309.835938 Z M 185.058594 312.003906 "/>
<path style=" stroke:none;fill-rule:nonzero;fill:rgb(14.509804%,36.078431%,60%);fill-opacity:1;" d="M 185.058594 290.9375 L 185.105469 290.917969 L 185.105469 290.371094 L 185.238281 289.511719 L 185.550781 288.425781 L 185.863281 287.679688 L 186.664062 286.34375 L 187.78125 285.050781 L 188.9375 284.054688 L 189.785156 283.464844 L 190.542969 283.011719 L 192.28125 282.175781 L 193.394531 281.746094 L 194.601562 281.359375 L 196.070312 280.976562 L 197.140625 280.75 L 199.546875 280.386719 L 201.332031 280.226562 L 202.710938 280.160156 L 205.699219 280.160156 L 207.484375 280.25 L 208.773438 280.363281 L 210.203125 280.546875 L 211.40625 280.75 L 213.5 281.246094 L 215.371094 281.882812 L 216.21875 282.242188 L 217.558594 282.945312 L 218.582031 283.625 L 219.296875 284.214844 L 220.097656 285.050781 L 220.8125 286.070312 L 221.347656 287.226562 L 221.613281 288.199219 L 215.371094 288.199219 L 215.0625 287.292969 L 214.703125 286.589844 L 214.035156 285.664062 L 213.367188 285.007812 L 212.429688 284.347656 L 211.582031 283.917969 L 210.425781 283.488281 L 209.398438 283.21875 L 208.328125 283.011719 L 207.304688 282.878906 L 205.34375 282.742188 L 203.070312 282.742188 L 202.222656 282.789062 L 200.484375 282.96875 L 199.546875 283.125 L 198.210938 283.445312 L 197.273438 283.738281 L 196.160156 284.191406 L 195.402344 284.574219 L 194.464844 285.164062 L 193.796875 285.6875 L 193.039062 286.433594 L 192.59375 287 L 192.191406 287.632812 L 191.835938 288.378906 L 191.570312 289.171875 L 191.390625 290.011719 L 191.300781 290.824219 L 191.300781 294.335938 L 191.390625 295.152344 L 191.613281 296.101562 L 192.191406 297.484375 L 193.039062 298.683594 L 194.019531 299.632812 L 194.957031 300.3125 L 195.492188 300.632812 L 196.203125 300.992188 L 197.320312 301.445312 L 198.921875 301.898438 L 199.859375 302.082031 L 201.285156 302.261719 L 202.757812 302.351562 L 204.71875 302.351562 L 206.457031 302.261719 L 207.617188 302.148438 L 208.820312 301.96875 L 210.46875 301.582031 L 211.496094 301.21875 L 212.386719 300.789062 L 213.054688 300.359375 L 213.5 299.996094 L 214.167969 299.292969 L 214.703125 298.523438 L 215.105469 297.734375 L 215.371094 296.960938 L 221.613281 296.960938 L 221.347656 297.867188 L 220.945312 298.75 L 220.542969 299.40625 L 219.917969 300.199219 L 219.207031 300.902344 L 218.179688 301.695312 L 217.335938 302.214844 L 216.21875 302.78125 L 215.195312 303.210938 L 214.078125 303.597656 L 212.429688 304.050781 L 211.359375 304.277344 L 210.203125 304.480469 L 208.820312 304.660156 L 207.082031 304.820312 L 205.210938 304.910156 L 203.46875 304.933594 L 201.597656 304.886719 L 200.214844 304.796875 L 198.390625 304.59375 L 196.117188 304.1875 L 194.464844 303.757812 L 193.171875 303.324219 L 192.058594 302.871094 L 190.8125 302.261719 L 189.207031 301.265625 L 188.226562 300.496094 L 187.554688 299.859375 L 186.796875 298.976562 L 186.265625 298.183594 L 185.640625 296.917969 L 185.195312 295.308594 L 185.058594 294.0625 Z M 185.058594 290.9375 "/>
<path style=" stroke:none;fill-rule:nonzero;fill:rgb(96.862745%,70.196078%,16.862745%);fill-opacity:1;" d="M 185.058594 313.695312 L 185.105469 313.695312 L 185.105469 313.671875 L 185.28125 313.625 L 185.730469 313.558594 L 186.308594 313.503906 L 186.933594 313.460938 L 187.332031 313.4375 L 188.003906 313.40625 L 188.582031 313.382812 L 190.054688 313.332031 L 191.925781 313.289062 L 192.949219 313.269531 L 194.109375 313.25 L 195.757812 313.230469 L 196.515625 313.222656 L 198.835938 313.203125 L 201.464844 313.195312 L 204.363281 313.191406 L 205.699219 313.191406 L 207.527344 313.195312 L 210.023438 313.207031 L 211.449219 313.21875 L 212.5625 313.230469 L 213.722656 313.242188 L 215.148438 313.265625 L 216.488281 313.292969 L 217.558594 313.316406 L 218.625 313.347656 L 219.519531 313.382812 L 220.277344 313.421875 L 220.945312 313.464844 L 221.347656 313.503906 L 221.613281 313.542969 L 215.417969 313.542969 L 215.0625 313.503906 L 214.660156 313.476562 L 213.992188 313.441406 L 213.320312 313.414062 L 212.652344 313.394531 L 211.40625 313.367188 L 210.335938 313.347656 L 209 313.332031 L 207.707031 313.324219 L 206.234375 313.316406 L 202.980469 313.316406 L 200.839844 313.324219 L 199.59375 313.332031 L 198.699219 313.339844 L 197.453125 313.355469 L 196.695312 313.367188 L 196.25 313.378906 L 194.910156 313.410156 L 194.019531 313.441406 L 193.53125 313.460938 L 192.90625 313.492188 L 192.460938 313.523438 L 191.96875 313.566406 L 191.703125 313.597656 L 191.34375 313.671875 L 191.300781 313.867188 L 191.433594 313.90625 L 191.703125 313.949219 L 192.058594 313.988281 L 192.59375 314.03125 L 193.128906 314.0625 L 194.066406 314.101562 L 194.867188 314.132812 L 195.492188 314.148438 L 196.695312 314.179688 L 197.183594 314.1875 L 198.34375 314.207031 L 199.546875 314.222656 L 201.019531 314.234375 L 202.132812 314.242188 L 203.917969 314.246094 L 206.191406 314.246094 L 208.863281 314.242188 L 210.558594 314.234375 L 211.71875 314.222656 L 212.476562 314.214844 L 213.410156 314.203125 L 214.078125 314.195312 L 214.703125 314.183594 L 215.460938 314.164062 L 215.460938 313.90625 L 204.453125 313.90625 L 204.453125 313.785156 L 221.570312 313.785156 L 221.613281 314.203125 L 220.675781 314.234375 L 219.519531 314.261719 L 218.402344 314.285156 L 217.246094 314.300781 L 215.59375 314.320312 L 214.257812 314.335938 L 212.207031 314.351562 L 210.335938 314.359375 L 208.375 314.367188 L 206.636719 314.371094 L 204.585938 314.371094 L 202.757812 314.367188 L 200.796875 314.363281 L 199.234375 314.351562 L 197.808594 314.34375 L 196.382812 314.328125 L 194.601562 314.304688 L 193.441406 314.289062 L 192.238281 314.265625 L 191.035156 314.238281 L 189.964844 314.210938 L 189.25 314.1875 L 188.539062 314.160156 L 187.78125 314.128906 L 187.066406 314.089844 L 186.53125 314.058594 L 186.039062 314.019531 L 185.683594 313.984375 L 185.328125 313.9375 L 185.148438 313.898438 L 185.058594 313.863281 Z M 185.058594 313.695312 "/>
<path style=" stroke:none;fill-rule:nonzero;fill:rgb(83.921569%,15.686275%,22.352941%);fill-opacity:1;" d="M 185.058594 236.90625 L 221.613281 236.90625 L 221.613281 241.410156 L 206.378906 241.449219 L 206.378906 278.980469 L 200.25 278.980469 L 200.25 241.488281 L 200.160156 241.410156 L 185.058594 241.410156 Z M 185.058594 236.90625 "/>
<path style=" stroke:none;fill-rule:nonzero;fill:rgb(6.27451%,58.823529%,28.235294%);fill-opacity:1;" d="M 223.539062 314.367188 L 223.578125 314.363281 L 239.390625 310.070312 L 244.195312 310.070312 L 260.089844 314.371094 L 254.503906 314.371094 L 250.523438 313.246094 L 233.066406 313.246094 L 229.160156 314.367188 L 223.539062 314.367188 L 234.746094 312.785156 L 248.921875 312.78125 L 241.851562 310.773438 L 241.773438 310.769531 L 241.695312 310.78125 L 234.707031 312.78125 L 234.746094 312.785156 Z M 223.539062 314.367188 "/>
<path style=" stroke:none;fill-rule:nonzero;fill:rgb(83.921569%,15.686275%,22.352941%);fill-opacity:1;" d="M 223.539062 41.515625 L 260.089844 41.515625 L 260.089844 70.136719 L 244.855469 70.390625 L 244.855469 308.890625 L 238.726562 308.890625 L 238.726562 70.640625 L 238.636719 70.136719 L 223.539062 70.136719 Z M 223.539062 41.515625 "/>
<path style=" stroke:none;fill-rule:nonzero;fill:rgb(6.27451%,58.823529%,28.235294%);fill-opacity:1;" d="M 262.015625 308.75 L 262.054688 308.5 L 277.871094 44.273438 L 282.671875 44.273438 L 298.566406 309 L 292.984375 309 L 289 239.898438 L 271.542969 239.898438 L 267.636719 308.75 L 262.015625 308.75 L 273.222656 211.3125 L 287.398438 211.0625 L 280.328125 87.523438 L 280.25 87.277344 L 280.171875 88.019531 L 273.183594 211.0625 L 273.222656 211.3125 Z M 262.015625 308.75 "/>
<path style=" stroke:none;fill-rule:nonzero;fill:rgb(96.862745%,70.196078%,16.862745%);fill-opacity:1;" d="M 262.015625 310.824219 L 262.058594 310.820312 L 262.058594 310.792969 L 262.238281 310.734375 L 262.683594 310.648438 L 263.261719 310.578125 L 263.886719 310.523438 L 264.289062 310.492188 L 264.957031 310.453125 L 265.535156 310.421875 L 267.007812 310.359375 L 268.878906 310.300781 L 269.90625 310.277344 L 271.0625 310.253906 L 272.710938 310.226562 L 273.46875 310.21875 L 275.789062 310.195312 L 278.417969 310.183594 L 281.316406 310.179688 L 282.652344 310.179688 L 284.480469 310.183594 L 286.976562 310.199219 L 288.402344 310.214844 L 289.519531 310.226562 L 290.675781 310.246094 L 292.105469 310.273438 L 293.441406 310.304688 L 294.511719 310.339844 L 295.582031 310.378906 L 296.472656 310.425781 L 297.230469 310.472656 L 297.898438 310.53125 L 298.300781 310.578125 L 298.566406 310.625 L 292.371094 310.625 L 292.015625 310.578125 L 291.613281 310.542969 L 290.945312 310.496094 L 290.277344 310.464844 L 289.605469 310.4375 L 288.359375 310.402344 L 287.289062 310.378906 L 285.953125 310.359375 L 284.660156 310.347656 L 283.1875 310.339844 L 282.296875 310.335938 L 279.933594 310.335938 L 277.792969 310.347656 L 276.546875 310.355469 L 275.65625 310.367188 L 274.40625 310.390625 L 273.648438 310.40625 L 273.203125 310.417969 L 271.867188 310.460938 L 270.972656 310.496094 L 270.484375 310.523438 L 269.859375 310.566406 L 269.414062 310.601562 L 268.921875 310.65625 L 268.65625 310.699219 L 268.300781 310.792969 L 268.253906 311.039062 L 268.390625 311.09375 L 268.65625 311.148438 L 269.011719 311.199219 L 269.546875 311.25 L 270.082031 311.289062 L 271.019531 311.34375 L 271.820312 311.378906 L 272.445312 311.402344 L 273.648438 311.441406 L 274.140625 311.453125 L 275.296875 311.476562 L 276.5 311.496094 L 277.972656 311.511719 L 279.085938 311.519531 L 280.871094 311.527344 L 283.144531 311.527344 L 285.816406 311.519531 L 287.511719 311.507812 L 288.671875 311.496094 L 289.429688 311.488281 L 290.363281 311.472656 L 291.035156 311.460938 L 291.65625 311.445312 L 292.414062 311.421875 L 292.414062 311.09375 L 281.40625 311.089844 L 281.40625 310.9375 L 298.523438 310.933594 L 298.566406 311.472656 L 297.632812 311.511719 L 296.472656 311.546875 L 295.359375 311.574219 L 294.199219 311.597656 L 292.550781 311.621094 L 291.210938 311.640625 L 289.160156 311.660156 L 287.289062 311.671875 L 285.328125 311.679688 L 283.589844 311.683594 L 279.710938 311.683594 L 277.75 311.671875 L 276.191406 311.664062 L 274.761719 311.648438 L 273.335938 311.632812 L 271.554688 311.601562 L 270.394531 311.578125 L 269.191406 311.550781 L 267.988281 311.515625 L 266.917969 311.476562 L 266.203125 311.449219 L 265.492188 311.417969 L 264.734375 311.375 L 264.019531 311.328125 L 263.484375 311.285156 L 262.996094 311.238281 L 262.636719 311.191406 L 262.28125 311.128906 L 262.101562 311.082031 L 262.015625 311.039062 Z M 262.015625 310.824219 "/>
<path style=" stroke:none;fill-rule:nonzero;fill:rgb(83.921569%,15.686275%,22.352941%);fill-opacity:1;" d="M 262.015625 312.863281 L 298.566406 312.863281 L 298.566406 313.027344 L 283.332031 313.027344 L 283.332031 314.371094 L 277.203125 314.371094 L 277.203125 313.027344 L 262.015625 313.027344 Z M 262.015625 312.863281 "/>
<path style=" stroke:none;fill-rule:nonzero;fill:rgb(6.27451%,58.823529%,28.235294%);fill-opacity:1;" d="M 300.492188 314.09375 L 300.53125 313.820312 L 316.347656 20.664062 L 321.148438 20.664062 L 337.042969 314.371094 L 331.460938 314.371094 L 327.476562 237.703125 L 310.019531 237.703125 L 306.113281 314.09375 L 300.492188 314.09375 L 311.699219 205.988281 L 325.875 205.710938 L 318.808594 68.648438 L 318.730469 68.375 L 318.652344 69.199219 L 311.660156 205.710938 L 311.699219 205.988281 Z M 300.492188 314.09375 "/>
<path style=" stroke:none;fill-rule:nonzero;fill:rgb(6.27451%,58.823529%,28.235294%);fill-opacity:1;" d="M 338.96875 312.210938 L 339.007812 312.191406 L 354.824219 292.003906 L 359.625 292.003906 L 375.519531 312.230469 L 369.9375 312.230469 L 365.953125 306.949219 L 348.496094 306.949219 L 344.589844 312.210938 L 338.96875 312.210938 L 350.175781 304.765625 L 364.351562 304.746094 L 357.285156 295.308594 L 357.207031 295.289062 L 357.128906 295.347656 L 350.136719 304.746094 L 350.175781 304.765625 Z M 338.96875 312.210938 "/>
<path style=" stroke:none;fill-rule:nonzero;fill:rgb(96.862745%,70.196078%,16.862745%);fill-opacity:1;" d="M 338.96875 313.820312 L 339.011719 313.820312 L 339.011719 313.804688 L 339.191406 313.761719 L 339.636719 313.707031 L 340.214844 313.664062 L 340.839844 313.628906 L 341.242188 313.609375 L 341.910156 313.585938 L 342.488281 313.566406 L 343.960938 313.527344 L 345.832031 313.488281 L 346.859375 313.472656 L 348.015625 313.457031 L 349.667969 313.441406 L 350.425781 313.433594 L 352.742188 313.421875 L 355.371094 313.414062 L 358.269531 313.410156 L 359.605469 313.410156 L 361.433594 313.414062 L 363.929688 313.421875 L 365.359375 313.433594 L 366.472656 313.441406 L 367.632812 313.453125 L 369.058594 313.46875 L 370.394531 313.492188 L 371.464844 313.511719 L 372.535156 313.539062 L 373.425781 313.566406 L 374.183594 313.597656 L 374.851562 313.632812 L 375.253906 313.664062 L 375.519531 313.695312 L 369.324219 313.695312 L 368.96875 313.664062 L 368.566406 313.640625 L 367.898438 313.613281 L 367.230469 313.589844 L 366.5625 313.574219 L 365.3125 313.550781 L 364.242188 313.539062 L 362.90625 313.527344 L 361.613281 313.519531 L 360.140625 313.511719 L 356.886719 313.511719 L 354.75 313.515625 L 353.5 313.523438 L 352.609375 313.53125 L 351.359375 313.542969 L 350.601562 313.554688 L 350.15625 313.5625 L 348.820312 313.589844 L 347.929688 313.613281 L 347.4375 313.628906 L 346.8125 313.65625 L 346.367188 313.679688 L 345.878906 313.714844 L 345.609375 313.742188 L 345.253906 313.800781 L 345.207031 313.960938 L 345.34375 313.992188 L 345.609375 314.027344 L 345.964844 314.058594 L 346.5 314.09375 L 347.035156 314.117188 L 347.972656 314.152344 L 348.773438 314.175781 L 349.398438 314.191406 L 350.601562 314.214844 L 351.09375 314.222656 L 352.253906 314.238281 L 353.457031 314.25 L 354.925781 314.261719 L 356.042969 314.265625 L 357.824219 314.269531 L 360.097656 314.269531 L 362.773438 314.265625 L 364.464844 314.257812 L 365.625 314.25 L 366.382812 314.246094 L 367.320312 314.234375 L 367.988281 314.226562 L 368.613281 314.21875 L 369.371094 314.203125 L 369.371094 313.992188 L 358.359375 313.992188 L 358.359375 313.894531 L 375.476562 313.890625 L 375.519531 314.234375 L 374.585938 314.257812 L 373.425781 314.28125 L 372.3125 314.300781 L 371.152344 314.316406 L 369.503906 314.332031 L 368.167969 314.339844 L 366.117188 314.355469 L 364.242188 314.363281 L 362.28125 314.367188 L 360.542969 314.371094 L 358.492188 314.371094 L 356.664062 314.367188 L 354.703125 314.363281 L 353.144531 314.355469 L 351.71875 314.347656 L 350.289062 314.335938 L 348.507812 314.316406 L 347.347656 314.304688 L 346.144531 314.285156 L 344.941406 314.261719 L 343.871094 314.238281 L 343.160156 314.21875 L 342.445312 314.199219 L 341.6875 314.171875 L 340.972656 314.144531 L 340.4375 314.117188 L 339.949219 314.085938 L 339.59375 314.054688 L 339.234375 314.015625 L 339.058594 313.984375 L 338.96875 313.957031 Z M 338.96875 313.820312 "/>
<path style=" stroke:none;fill-rule:nonzero;fill:rgb(83.921569%,15.686275%,22.352941%);fill-opacity:1;" d="M 338.96875 101.5 L 375.519531 101.5 L 375.519531 121.765625 L 360.285156 121.945312 L 360.285156 290.824219 L 354.15625 290.824219 L 354.15625 122.121094 L 354.070312 121.765625 L 338.96875 121.765625 Z M 338.96875 101.5 "/>
<path style=" stroke:none;fill-rule:nonzero;fill:rgb(6.27451%,58.823529%,28.235294%);fill-opacity:1;" d="M 377.445312 314.371094 L 377.484375 314.367188 L 393.300781 313.125 L 398.105469 313.125 L 414 314.371094 L 408.414062 314.371094 L 404.429688 314.046875 L 386.972656 314.046875 L 383.070312 314.371094 L 377.445312 314.371094 L 388.652344 313.910156 L 402.828125 313.910156 L 395.761719 313.328125 L 395.683594 313.328125 L 395.605469 313.332031 L 388.613281 313.910156 L 388.652344 313.910156 Z M 377.445312 314.371094 "/>
<path style=" stroke:none;fill-rule:nonzero;fill:rgb(14.509804%,36.078431%,60%);fill-opacity:1;" d="M 377.445312 306.074219 L 377.488281 306.070312 L 377.488281 305.9375 L 377.625 305.722656 L 377.933594 305.457031 L 378.246094 305.273438 L 379.050781 304.945312 L 380.164062 304.625 L 381.324219 304.382812 L 382.171875 304.234375 L 382.929688 304.125 L 384.667969 303.917969 L 385.78125 303.8125 L 386.984375 303.71875 L 388.457031 303.625 L 389.527344 303.566406 L 391.933594 303.476562 L 393.714844 303.4375 L 395.097656 303.421875 L 398.085938 303.421875 L 399.867188 303.445312 L 401.160156 303.472656 L 402.585938 303.515625 L 403.789062 303.566406 L 405.886719 303.691406 L 407.757812 303.847656 L 408.605469 303.933594 L 409.941406 304.109375 L 410.96875 304.273438 L 411.679688 304.421875 L 412.484375 304.625 L 413.195312 304.878906 L 413.730469 305.160156 L 414 305.402344 L 407.757812 305.402344 L 407.445312 305.179688 L 407.089844 305.003906 L 406.421875 304.777344 L 405.75 304.613281 L 404.816406 304.453125 L 403.96875 304.347656 L 402.808594 304.242188 L 401.785156 304.175781 L 400.714844 304.125 L 399.6875 304.089844 L 397.726562 304.058594 L 395.453125 304.058594 L 394.605469 304.070312 L 392.867188 304.113281 L 391.933594 304.152344 L 390.59375 304.230469 L 389.660156 304.304688 L 388.542969 304.414062 L 387.785156 304.507812 L 386.851562 304.652344 L 386.183594 304.78125 L 385.425781 304.964844 L 384.980469 305.105469 L 384.578125 305.261719 L 384.222656 305.445312 L 383.953125 305.640625 L 383.773438 305.847656 L 383.6875 306.046875 L 383.6875 306.910156 L 383.773438 307.113281 L 383.996094 307.347656 L 384.578125 307.6875 L 385.425781 307.980469 L 386.40625 308.214844 L 387.339844 308.382812 L 387.875 308.460938 L 388.589844 308.550781 L 389.703125 308.660156 L 391.308594 308.773438 L 392.246094 308.816406 L 393.671875 308.863281 L 395.140625 308.882812 L 397.105469 308.882812 L 398.84375 308.863281 L 400 308.835938 L 401.203125 308.789062 L 402.855469 308.695312 L 403.878906 308.605469 L 404.769531 308.5 L 405.441406 308.394531 L 405.886719 308.304688 L 406.554688 308.132812 L 407.089844 307.941406 L 407.488281 307.746094 L 407.757812 307.558594 L 414 307.558594 L 413.730469 307.78125 L 413.328125 308 L 412.929688 308.160156 L 412.304688 308.355469 L 411.589844 308.527344 L 410.566406 308.722656 L 409.71875 308.851562 L 408.605469 308.988281 L 407.578125 309.097656 L 406.464844 309.191406 L 404.816406 309.300781 L 403.746094 309.359375 L 402.585938 309.40625 L 401.203125 309.453125 L 399.464844 309.492188 L 397.59375 309.515625 L 395.855469 309.519531 L 393.984375 309.507812 L 392.601562 309.484375 L 390.773438 309.4375 L 388.5 309.335938 L 386.851562 309.230469 L 385.558594 309.125 L 384.445312 309.011719 L 383.195312 308.863281 L 381.589844 308.617188 L 380.609375 308.425781 L 379.941406 308.269531 L 379.183594 308.054688 L 378.648438 307.859375 L 378.023438 307.546875 L 377.578125 307.152344 L 377.445312 306.84375 Z M 377.445312 306.074219 "/>
<path style=" stroke:none;fill-rule:nonzero;fill:rgb(96.862745%,70.196078%,16.862745%);fill-opacity:1;" d="M 377.445312 311.234375 L 377.488281 311.230469 L 377.488281 311.207031 L 377.667969 311.15625 L 378.113281 311.085938 L 378.691406 311.027344 L 379.316406 310.984375 L 379.71875 310.960938 L 380.386719 310.925781 L 380.964844 310.902344 L 382.4375 310.847656 L 384.308594 310.800781 L 385.335938 310.78125 L 386.496094 310.761719 L 388.144531 310.738281 L 388.902344 310.730469 L 391.21875 310.714844 L 393.847656 310.703125 L 396.746094 310.699219 L 398.085938 310.699219 L 399.910156 310.703125 L 402.410156 310.71875 L 403.835938 310.730469 L 404.949219 310.738281 L 406.109375 310.753906 L 407.535156 310.777344 L 408.871094 310.804688 L 409.941406 310.832031 L 411.011719 310.867188 L 411.902344 310.902344 L 412.660156 310.941406 L 413.328125 310.992188 L 413.730469 311.03125 L 414 311.070312 L 407.800781 311.070312 L 407.445312 311.03125 L 407.042969 311 L 406.375 310.960938 L 405.707031 310.933594 L 405.039062 310.914062 L 403.789062 310.882812 L 402.71875 310.867188 L 401.382812 310.847656 L 400.089844 310.839844 L 398.621094 310.832031 L 397.726562 310.828125 L 395.363281 310.828125 L 393.226562 310.839844 L 391.976562 310.847656 L 391.085938 310.855469 L 389.835938 310.875 L 389.078125 310.886719 L 388.632812 310.894531 L 387.296875 310.929688 L 386.40625 310.964844 L 385.914062 310.984375 L 385.289062 311.019531 L 384.84375 311.050781 L 384.355469 311.09375 L 384.085938 311.128906 L 383.730469 311.207031 L 383.6875 311.410156 L 383.820312 311.453125 L 384.085938 311.5 L 384.445312 311.542969 L 384.980469 311.585938 L 385.511719 311.617188 L 386.449219 311.664062 L 387.253906 311.691406 L 387.875 311.710938 L 389.078125 311.742188 L 389.570312 311.753906 L 390.730469 311.773438 L 391.933594 311.789062 L 393.402344 311.804688 L 394.519531 311.808594 L 396.300781 311.816406 L 398.574219 311.816406 L 401.25 311.808594 L 402.941406 311.800781 L 404.101562 311.789062 L 404.859375 311.78125 L 405.796875 311.769531 L 406.464844 311.757812 L 407.089844 311.746094 L 407.847656 311.726562 L 407.847656 311.453125 L 396.835938 311.453125 L 396.835938 311.324219 L 413.953125 311.324219 L 414 311.769531 L 413.0625 311.800781 L 411.902344 311.832031 L 410.789062 311.851562 L 409.628906 311.871094 L 407.980469 311.894531 L 406.644531 311.90625 L 404.59375 311.921875 L 402.71875 311.933594 L 400.757812 311.941406 L 399.019531 311.945312 L 396.96875 311.945312 L 395.140625 311.941406 L 393.179688 311.9375 L 391.621094 311.925781 L 388.769531 311.902344 L 386.984375 311.875 L 385.824219 311.859375 L 383.417969 311.804688 L 382.347656 311.773438 L 381.636719 311.75 L 380.921875 311.722656 L 380.164062 311.6875 L 379.449219 311.652344 L 378.917969 311.613281 L 378.425781 311.574219 L 378.070312 311.539062 L 377.710938 311.488281 L 377.535156 311.445312 L 377.445312 311.410156 Z M 377.445312 311.234375 "/>
<path style=" stroke:none;fill-rule:nonzero;fill:rgb(83.921569%,15.686275%,22.352941%);fill-opacity:1;" d="M 377.445312 72.996094 L 414 72.996094 L 414 97.535156 L 398.765625 97.75 L 398.765625 302.242188 L 392.636719 302.242188 L 392.636719 97.964844 L 392.546875 97.535156 L 377.445312 97.535156 Z M 377.445312 72.996094 "/>
<path style=" stroke:none;fill-rule:nonzero;fill:rgb(6.27451%,58.823529%,28.235294%);fill-opacity:1;" d="M 415.921875 312.648438 L 415.960938 312.613281 L 431.777344 275.03125 L 436.582031 275.03125 L 452.476562 312.683594 L 446.890625 312.683594 L 442.90625 302.855469 L 425.449219 302.855469 L 421.546875 312.648438 L 415.921875 312.648438 L 427.128906 298.789062 L 441.304688 298.753906 L 434.238281 281.183594 L 434.160156 281.148438 L 434.082031 281.253906 L 427.089844 298.753906 L 427.128906 298.789062 Z M 415.921875 312.648438 "/>
<path style=" stroke:none;fill-rule:nonzero;fill:rgb(96.862745%,70.196078%,16.862745%);fill-opacity:1;" d="M 415.921875 201.179688 L 415.964844 201.0625 L 415.964844 198.738281 L 416.144531 193.515625 L 416.589844 186.316406 L 417.171875 180.398438 L 417.792969 175.753906 L 418.195312 173.316406 L 418.863281 169.832031 L 419.445312 167.277344 L 420.914062 162.054688 L 422.785156 157.175781 L 423.8125 155.089844 L 424.972656 153.113281 L 426.621094 150.910156 L 427.378906 150.097656 L 429.695312 148.238281 L 432.328125 147.078125 L 435.222656 146.730469 L 436.5625 146.84375 L 438.390625 147.308594 L 440.886719 148.585938 L 442.3125 149.746094 L 443.425781 150.910156 L 444.585938 152.417969 L 446.011719 154.738281 L 447.347656 157.527344 L 448.417969 160.3125 L 449.488281 163.796875 L 450.378906 167.511719 L 451.136719 171.574219 L 451.804688 176.449219 L 452.207031 180.511719 L 452.476562 184.574219 L 446.277344 184.574219 L 445.921875 180.511719 L 445.519531 177.378906 L 444.851562 173.546875 L 444.183594 170.761719 L 443.515625 168.554688 L 442.265625 165.535156 L 441.195312 163.679688 L 439.859375 162.054688 L 438.566406 161.007812 L 437.097656 160.3125 L 436.203125 160.078125 L 433.84375 160.078125 L 431.703125 160.894531 L 430.453125 161.820312 L 429.5625 162.75 L 428.316406 164.492188 L 427.558594 165.886719 L 427.109375 166.8125 L 425.773438 170.414062 L 424.882812 173.664062 L 424.390625 175.867188 L 423.769531 179.351562 L 423.320312 182.488281 L 422.832031 187.128906 L 422.5625 190.613281 L 422.207031 198.507812 L 422.164062 219.40625 L 422.296875 223.816406 L 422.5625 228.578125 L 422.921875 232.753906 L 423.457031 237.167969 L 423.992188 240.535156 L 424.925781 245.0625 L 425.730469 248.082031 L 426.351562 250.054688 L 427.558594 253.1875 L 428.046875 254.234375 L 429.207031 256.324219 L 430.410156 257.949219 L 431.878906 259.339844 L 432.996094 260.039062 L 434.777344 260.617188 L 437.050781 260.617188 L 439.726562 259.921875 L 441.421875 258.992188 L 442.578125 258.066406 L 443.335938 257.25 L 444.273438 255.976562 L 444.941406 254.8125 L 445.566406 253.535156 L 446.324219 251.5625 L 446.324219 223.816406 L 435.3125 223.699219 L 435.3125 210.699219 L 452.429688 210.582031 L 452.476562 255.976562 L 451.539062 259.109375 L 450.378906 262.128906 L 449.265625 264.449219 L 448.105469 266.421875 L 446.457031 268.628906 L 445.121094 270.023438 L 443.070312 271.648438 L 441.195312 272.691406 L 439.234375 273.390625 L 437.496094 273.738281 L 435.445312 273.855469 L 433.621094 273.621094 L 431.65625 272.925781 L 430.097656 271.996094 L 428.671875 270.835938 L 427.246094 269.324219 L 425.460938 266.886719 L 424.300781 264.914062 L 423.097656 262.476562 L 421.894531 259.574219 L 420.824219 256.4375 L 420.113281 254 L 419.398438 251.214844 L 418.640625 247.730469 L 417.929688 243.785156 L 417.394531 240.1875 L 416.902344 236.121094 L 416.546875 232.292969 L 416.191406 227.066406 L 416.011719 222.886719 L 415.921875 219.289062 Z M 415.921875 201.179688 "/>
<path style=" stroke:none;fill-rule:nonzero;fill:rgb(83.921569%,15.686275%,22.352941%);fill-opacity:1;" d="M 415.921875 313.863281 L 452.476562 313.863281 L 452.476562 313.917969 L 437.242188 313.917969 L 437.242188 314.371094 L 431.113281 314.371094 L 431.113281 313.917969 L 415.921875 313.917969 Z M 415.921875 313.863281 "/>
<path style=" stroke:none;fill-rule:nonzero;fill:rgb(6.27451%,58.823529%,28.235294%);fill-opacity:1;" d="M 454.398438 309.109375 L 454.4375 309.101562 L 470.253906 301.753906 L 475.058594 301.753906 L 490.953125 309.117188 L 485.367188 309.117188 L 481.382812 307.195312 L 463.929688 307.195312 L 460.023438 309.109375 L 454.398438 309.109375 L 465.605469 306.398438 L 479.78125 306.390625 L 472.714844 302.957031 L 472.636719 302.949219 L 472.558594 302.972656 L 465.566406 306.390625 L 465.605469 306.398438 Z M 454.398438 309.109375 "/>
<path style=" stroke:none;fill-rule:nonzero;fill:rgb(14.509804%,36.078431%,60%);fill-opacity:1;" d="M 454.398438 294.5625 L 454.445312 294.550781 L 454.445312 294.320312 L 454.578125 293.949219 L 454.890625 293.480469 L 455.203125 293.160156 L 456.003906 292.585938 L 457.117188 292.03125 L 458.277344 291.605469 L 459.125 291.351562 L 459.882812 291.15625 L 461.621094 290.796875 L 462.734375 290.613281 L 463.9375 290.445312 L 465.410156 290.28125 L 466.480469 290.183594 L 468.886719 290.027344 L 470.667969 289.960938 L 472.050781 289.929688 L 475.039062 289.929688 L 476.820312 289.96875 L 478.113281 290.019531 L 479.539062 290.097656 L 480.742188 290.183594 L 482.839844 290.398438 L 484.710938 290.671875 L 485.558594 290.824219 L 486.894531 291.128906 L 487.921875 291.417969 L 488.632812 291.671875 L 489.4375 292.03125 L 490.148438 292.46875 L 490.683594 292.964844 L 490.953125 293.382812 L 484.710938 293.382812 L 484.398438 292.996094 L 484.042969 292.695312 L 483.375 292.296875 L 482.707031 292.011719 L 481.769531 291.730469 L 480.921875 291.546875 L 479.761719 291.359375 L 478.738281 291.242188 L 477.667969 291.15625 L 476.644531 291.097656 L 474.679688 291.039062 L 472.40625 291.039062 L 471.5625 291.058594 L 469.824219 291.136719 L 468.886719 291.207031 L 467.550781 291.339844 L 466.613281 291.46875 L 465.5 291.664062 L 464.742188 291.828125 L 463.804688 292.082031 L 463.136719 292.304688 L 462.378906 292.625 L 461.933594 292.867188 L 461.53125 293.140625 L 461.175781 293.460938 L 460.90625 293.804688 L 460.730469 294.164062 L 460.640625 294.511719 L 460.640625 296.023438 L 460.730469 296.371094 L 460.953125 296.78125 L 461.53125 297.375 L 462.378906 297.890625 L 463.359375 298.296875 L 464.296875 298.589844 L 464.828125 298.726562 L 465.542969 298.882812 L 466.65625 299.078125 L 468.261719 299.273438 L 469.199219 299.347656 L 470.625 299.425781 L 472.097656 299.464844 L 474.058594 299.464844 L 475.796875 299.425781 L 476.953125 299.378906 L 478.160156 299.300781 L 479.808594 299.136719 L 480.832031 298.980469 L 481.726562 298.792969 L 482.394531 298.609375 L 482.839844 298.453125 L 483.507812 298.152344 L 484.042969 297.820312 L 484.445312 297.480469 L 484.710938 297.148438 L 490.953125 297.148438 L 490.683594 297.539062 L 490.285156 297.917969 L 489.882812 298.203125 L 489.257812 298.542969 L 488.546875 298.84375 L 487.519531 299.183594 L 486.671875 299.40625 L 485.558594 299.652344 L 484.53125 299.835938 L 483.417969 300 L 481.769531 300.195312 L 480.699219 300.292969 L 479.539062 300.378906 L 478.160156 300.457031 L 476.421875 300.527344 L 474.546875 300.566406 L 472.808594 300.574219 L 470.9375 300.554688 L 469.554688 300.515625 L 467.726562 300.429688 L 465.453125 300.253906 L 463.804688 300.070312 L 462.511719 299.882812 L 461.398438 299.691406 L 460.148438 299.425781 L 458.542969 299 L 457.5625 298.667969 L 456.894531 298.394531 L 456.136719 298.015625 L 455.601562 297.675781 L 454.980469 297.132812 L 454.53125 296.441406 L 454.398438 295.90625 Z M 454.398438 294.5625 "/>
<path style=" stroke:none;fill-rule:nonzero;fill:rgb(96.862745%,70.196078%,16.862745%);fill-opacity:1;" d="M 454.398438 266.515625 L 454.445312 266.480469 L 454.445312 265.769531 L 454.621094 264.171875 L 455.066406 261.96875 L 455.648438 260.160156 L 456.269531 258.738281 L 456.671875 257.992188 L 457.339844 256.925781 L 457.921875 256.144531 L 459.390625 254.546875 L 461.265625 253.054688 L 462.289062 252.414062 L 463.449219 251.8125 L 465.097656 251.136719 L 465.855469 250.886719 L 468.171875 250.320312 L 470.804688 249.964844 L 473.699219 249.859375 L 475.039062 249.894531 L 476.867188 250.035156 L 479.363281 250.425781 L 480.789062 250.78125 L 481.902344 251.136719 L 483.0625 251.597656 L 484.488281 252.308594 L 485.824219 253.160156 L 486.894531 254.015625 L 487.964844 255.078125 L 488.855469 256.214844 L 489.613281 257.460938 L 490.285156 258.953125 L 490.683594 260.195312 L 490.953125 261.4375 L 484.757812 261.4375 L 484.398438 260.195312 L 484 259.234375 L 483.328125 258.0625 L 482.660156 257.210938 L 481.992188 256.535156 L 480.742188 255.613281 L 479.675781 255.042969 L 478.335938 254.546875 L 477.042969 254.226562 L 475.574219 254.015625 L 474.679688 253.941406 L 472.320312 253.941406 L 470.179688 254.191406 L 468.929688 254.476562 L 468.039062 254.761719 L 466.792969 255.292969 L 466.035156 255.71875 L 465.585938 256.003906 L 464.25 257.105469 L 463.359375 258.097656 L 462.867188 258.773438 L 462.246094 259.839844 L 461.800781 260.796875 L 461.308594 262.21875 L 461.042969 263.285156 L 460.683594 265.699219 L 460.640625 272.09375 L 460.773438 273.441406 L 461.042969 274.898438 L 461.398438 276.175781 L 461.933594 277.527344 L 462.46875 278.558594 L 463.402344 279.941406 L 464.207031 280.867188 L 464.828125 281.46875 L 466.035156 282.429688 L 466.523438 282.75 L 467.683594 283.386719 L 468.886719 283.886719 L 470.359375 284.3125 L 471.472656 284.523438 L 473.253906 284.703125 L 475.527344 284.703125 L 478.203125 284.488281 L 479.898438 284.203125 L 481.054688 283.921875 L 481.8125 283.671875 L 482.75 283.28125 L 483.417969 282.925781 L 484.042969 282.535156 L 484.800781 281.929688 L 484.800781 273.441406 L 473.789062 273.40625 L 473.789062 269.429688 L 490.90625 269.394531 L 490.953125 283.28125 L 490.015625 284.238281 L 488.855469 285.164062 L 487.742188 285.875 L 486.582031 286.476562 L 484.933594 287.152344 L 483.597656 287.578125 L 481.546875 288.074219 L 479.675781 288.394531 L 477.710938 288.609375 L 475.972656 288.714844 L 473.921875 288.75 L 472.097656 288.679688 L 470.132812 288.464844 L 468.574219 288.183594 L 467.148438 287.828125 L 465.722656 287.367188 L 463.9375 286.621094 L 462.78125 286.015625 L 461.574219 285.269531 L 460.371094 284.382812 L 459.300781 283.421875 L 458.589844 282.675781 L 457.875 281.824219 L 457.117188 280.757812 L 456.40625 279.550781 L 455.871094 278.449219 L 455.378906 277.207031 L 455.023438 276.035156 L 454.667969 274.4375 L 454.488281 273.160156 L 454.398438 272.058594 Z M 454.398438 266.515625 "/>
<path style=" stroke:none;fill-rule:nonzero;fill:rgb(83.921569%,15.686275%,22.352941%);fill-opacity:1;" d="M 454.398438 310.292969 L 490.953125 310.292969 L 490.953125 310.730469 L 475.71875 310.734375 L 475.71875 314.371094 L 469.589844 314.371094 L 469.589844 310.738281 L 469.5 310.730469 L 454.398438 310.730469 Z M 454.398438 310.292969 "/>
<path style=" stroke:none;fill-rule:nonzero;fill:rgb(6.27451%,58.823529%,28.235294%);fill-opacity:1;" d="M 492.875 311.636719 L 492.914062 311.632812 L 508.730469 308.722656 L 513.535156 308.722656 L 529.429688 311.640625 L 523.84375 311.640625 L 519.859375 310.878906 L 502.40625 310.878906 L 498.5 311.636719 L 492.875 311.636719 L 504.085938 310.5625 L 518.261719 310.558594 L 511.191406 309.199219 L 511.113281 309.195312 L 511.035156 309.203125 L 504.046875 310.558594 L 504.085938 310.5625 Z M 492.875 311.636719 "/>
<path style=" stroke:none;fill-rule:nonzero;fill:rgb(14.509804%,36.078431%,60%);fill-opacity:1;" d="M 492.875 291.234375 L 492.921875 291.207031 L 492.921875 290.574219 L 493.054688 289.570312 L 493.367188 288.304688 L 493.679688 287.433594 L 494.480469 285.875 L 495.59375 284.371094 L 496.753906 283.210938 L 497.601562 282.527344 L 498.359375 281.996094 L 500.097656 281.019531 L 501.210938 280.519531 L 502.414062 280.070312 L 503.886719 279.621094 L 504.957031 279.359375 L 507.363281 278.9375 L 509.148438 278.75 L 510.527344 278.671875 L 513.515625 278.671875 L 515.296875 278.777344 L 516.589844 278.910156 L 518.015625 279.121094 L 519.222656 279.359375 L 521.316406 279.9375 L 523.1875 280.679688 L 524.035156 281.101562 L 525.371094 281.917969 L 526.398438 282.710938 L 527.109375 283.394531 L 527.914062 284.371094 L 528.625 285.558594 L 529.160156 286.90625 L 529.429688 288.039062 L 523.1875 288.039062 L 522.875 286.984375 L 522.519531 286.167969 L 521.851562 285.085938 L 521.183594 284.320312 L 520.246094 283.554688 L 519.398438 283.054688 L 518.242188 282.550781 L 517.214844 282.234375 L 516.144531 281.996094 L 515.121094 281.839844 L 513.160156 281.679688 L 510.886719 281.679688 L 510.039062 281.734375 L 508.300781 281.945312 L 507.363281 282.128906 L 506.027344 282.5 L 505.089844 282.84375 L 503.976562 283.371094 L 503.21875 283.820312 L 502.28125 284.503906 L 501.613281 285.113281 L 500.855469 285.980469 L 500.410156 286.640625 L 500.007812 287.382812 L 499.652344 288.25 L 499.382812 289.175781 L 499.207031 290.152344 L 499.117188 291.101562 L 499.117188 295.191406 L 499.207031 296.140625 L 499.429688 297.25 L 500.007812 298.859375 L 500.855469 300.257812 L 501.835938 301.367188 L 502.773438 302.160156 L 503.308594 302.527344 L 504.019531 302.949219 L 505.132812 303.476562 L 506.738281 304.003906 L 507.675781 304.214844 L 509.101562 304.425781 L 510.574219 304.535156 L 512.535156 304.535156 L 514.273438 304.425781 L 515.433594 304.296875 L 516.636719 304.085938 L 518.285156 303.636719 L 519.308594 303.214844 L 520.203125 302.710938 L 520.871094 302.210938 L 521.316406 301.789062 L 521.984375 300.972656 L 522.519531 300.074219 L 522.921875 299.148438 L 523.1875 298.253906 L 529.429688 298.253906 L 529.160156 299.308594 L 528.761719 300.335938 L 528.359375 301.101562 L 527.734375 302.027344 L 527.023438 302.84375 L 525.996094 303.769531 L 525.148438 304.375 L 524.035156 305.035156 L 523.011719 305.535156 L 521.894531 305.984375 L 520.246094 306.511719 L 519.175781 306.777344 L 518.015625 307.015625 L 516.636719 307.226562 L 514.898438 307.410156 L 513.023438 307.515625 L 511.285156 307.542969 L 509.414062 307.488281 L 508.03125 307.382812 L 506.203125 307.144531 L 503.929688 306.671875 L 502.28125 306.167969 L 500.988281 305.667969 L 499.875 305.140625 L 498.625 304.425781 L 497.023438 303.265625 L 496.039062 302.371094 L 495.371094 301.628906 L 494.613281 300.601562 L 494.078125 299.679688 L 493.457031 298.199219 L 493.007812 296.328125 L 492.875 294.875 Z M 492.875 291.234375 "/>
<path style=" stroke:none;fill-rule:nonzero;fill:rgb(96.862745%,70.196078%,16.862745%);fill-opacity:1;" d="M 492.875 313.484375 L 492.921875 313.480469 L 492.921875 313.453125 L 493.097656 313.390625 L 493.542969 313.300781 L 494.125 313.230469 L 494.75 313.171875 L 495.148438 313.144531 L 495.816406 313.101562 L 496.398438 313.070312 L 497.867188 313.003906 L 499.742188 312.945312 L 500.765625 312.921875 L 501.925781 312.898438 L 503.574219 312.871094 L 504.332031 312.859375 L 506.648438 312.835938 L 509.28125 312.824219 L 512.179688 312.820312 L 513.515625 312.820312 L 515.34375 312.824219 L 517.839844 312.839844 L 519.265625 312.855469 L 520.378906 312.871094 L 521.539062 312.886719 L 522.964844 312.917969 L 524.304688 312.949219 L 525.371094 312.984375 L 526.441406 313.027344 L 527.335938 313.074219 L 528.09375 313.121094 L 528.761719 313.179688 L 529.160156 313.230469 L 529.429688 313.28125 L 523.234375 313.28125 L 522.875 313.230469 L 522.476562 313.191406 L 521.804688 313.144531 L 521.136719 313.113281 L 520.46875 313.085938 L 519.222656 313.046875 L 518.152344 313.027344 L 516.8125 313.003906 L 515.519531 312.992188 L 514.050781 312.984375 L 513.160156 312.980469 L 510.796875 312.980469 L 508.65625 312.992188 L 507.40625 313.003906 L 506.515625 313.015625 L 505.269531 313.035156 L 504.511719 313.050781 L 504.066406 313.0625 L 502.726562 313.109375 L 501.835938 313.148438 L 501.34375 313.175781 L 500.722656 313.21875 L 500.277344 313.253906 L 499.785156 313.3125 L 499.519531 313.355469 L 499.160156 313.449219 L 499.117188 313.707031 L 499.25 313.757812 L 499.519531 313.816406 L 499.875 313.867188 L 500.410156 313.921875 L 500.945312 313.964844 L 501.878906 314.019531 L 502.683594 314.054688 L 503.308594 314.078125 L 504.511719 314.117188 L 505 314.132812 L 506.160156 314.15625 L 507.363281 314.175781 L 508.835938 314.195312 L 509.949219 314.203125 L 511.730469 314.210938 L 514.003906 314.210938 L 516.679688 314.199219 L 518.375 314.1875 L 519.53125 314.179688 L 520.289062 314.167969 L 521.226562 314.152344 L 521.894531 314.136719 L 522.519531 314.121094 L 523.277344 314.097656 L 523.277344 313.757812 L 512.265625 313.757812 L 512.265625 313.597656 L 529.382812 313.597656 L 529.429688 314.152344 L 528.492188 314.191406 L 527.335938 314.226562 L 526.21875 314.253906 L 525.0625 314.28125 L 523.410156 314.308594 L 522.074219 314.324219 L 520.023438 314.34375 L 518.152344 314.355469 L 516.191406 314.363281 L 514.453125 314.371094 L 512.402344 314.371094 L 510.574219 314.367188 L 508.613281 314.359375 L 507.050781 314.347656 L 504.199219 314.316406 L 502.414062 314.285156 L 501.257812 314.261719 L 500.054688 314.230469 L 498.847656 314.195312 L 497.78125 314.15625 L 497.066406 314.128906 L 496.351562 314.09375 L 495.59375 314.050781 L 494.882812 314.003906 L 494.347656 313.960938 L 493.855469 313.910156 L 493.5 313.863281 L 493.144531 313.800781 L 492.964844 313.75 L 492.875 313.703125 Z M 492.875 313.484375 "/>
<path style=" stroke:none;fill-rule:nonzero;fill:rgb(83.921569%,15.686275%,22.352941%);fill-opacity:1;" d="M 492.875 180.332031 L 529.429688 180.332031 L 529.429688 190.734375 L 514.195312 190.824219 L 514.195312 277.492188 L 508.066406 277.492188 L 508.066406 190.914062 L 507.976562 190.734375 L 492.875 190.734375 Z M 492.875 180.332031 "/>
<path style=" stroke:none;fill-rule:nonzero;fill:rgb(6.27451%,58.823529%,28.235294%);fill-opacity:1;" d="M 531.351562 314.367188 L 531.390625 314.363281 L 547.207031 309.679688 L 552.011719 309.679688 L 567.90625 314.371094 L 562.320312 314.371094 L 558.339844 313.144531 L 540.882812 313.144531 L 536.976562 314.367188 L 531.351562 314.367188 L 542.5625 312.640625 L 556.738281 312.636719 L 549.667969 310.445312 L 549.589844 310.441406 L 549.511719 310.453125 L 542.523438 312.636719 L 542.5625 312.640625 Z M 531.351562 314.367188 "/>
<path style=" stroke:none;fill-rule:nonzero;fill:rgb(14.509804%,36.078431%,60%);fill-opacity:1;" d="M 531.351562 291.65625 L 531.398438 291.644531 L 531.398438 291.308594 L 531.53125 290.777344 L 531.84375 290.109375 L 532.15625 289.648438 L 532.957031 288.828125 L 534.070312 288.03125 L 535.230469 287.417969 L 536.078125 287.054688 L 536.835938 286.777344 L 538.574219 286.257812 L 539.6875 285.996094 L 540.890625 285.757812 L 542.363281 285.519531 L 543.433594 285.378906 L 545.839844 285.15625 L 547.625 285.058594 L 549.003906 285.019531 L 551.992188 285.019531 L 553.773438 285.074219 L 555.066406 285.144531 L 556.496094 285.253906 L 557.699219 285.378906 L 559.792969 285.6875 L 561.664062 286.078125 L 562.511719 286.300781 L 563.851562 286.734375 L 564.875 287.152344 L 565.589844 287.515625 L 566.390625 288.03125 L 567.105469 288.660156 L 567.636719 289.371094 L 567.90625 289.96875 L 561.664062 289.96875 L 561.351562 289.410156 L 560.996094 288.980469 L 560.328125 288.40625 L 559.660156 288.003906 L 558.722656 287.597656 L 557.875 287.332031 L 556.71875 287.070312 L 555.691406 286.902344 L 554.621094 286.777344 L 553.597656 286.691406 L 551.636719 286.609375 L 549.363281 286.609375 L 548.515625 286.636719 L 546.777344 286.746094 L 545.839844 286.84375 L 544.503906 287.039062 L 543.566406 287.222656 L 542.453125 287.5 L 541.695312 287.738281 L 540.757812 288.101562 L 540.089844 288.421875 L 539.332031 288.882812 L 538.886719 289.230469 L 538.484375 289.621094 L 538.128906 290.082031 L 537.859375 290.570312 L 537.683594 291.085938 L 537.59375 291.589844 L 537.59375 293.75 L 537.683594 294.253906 L 537.90625 294.839844 L 538.484375 295.6875 L 539.332031 296.429688 L 540.3125 297.015625 L 541.25 297.433594 L 541.785156 297.628906 L 542.496094 297.851562 L 543.613281 298.128906 L 545.214844 298.410156 L 546.152344 298.519531 L 547.578125 298.632812 L 549.050781 298.6875 L 551.011719 298.6875 L 552.75 298.632812 L 553.910156 298.5625 L 555.113281 298.453125 L 556.761719 298.214844 L 557.789062 297.992188 L 558.679688 297.726562 L 559.347656 297.460938 L 559.792969 297.238281 L 560.460938 296.804688 L 560.996094 296.332031 L 561.398438 295.84375 L 561.664062 295.367188 L 567.90625 295.367188 L 567.636719 295.925781 L 567.238281 296.46875 L 566.835938 296.875 L 566.210938 297.363281 L 565.5 297.796875 L 564.472656 298.285156 L 563.625 298.605469 L 562.511719 298.953125 L 561.488281 299.21875 L 560.371094 299.457031 L 558.722656 299.734375 L 557.652344 299.875 L 556.496094 300 L 555.113281 300.113281 L 553.375 300.210938 L 551.5 300.265625 L 549.761719 300.277344 L 547.890625 300.25 L 546.507812 300.195312 L 544.679688 300.070312 L 542.40625 299.820312 L 540.757812 299.554688 L 539.464844 299.289062 L 538.351562 299.007812 L 537.101562 298.632812 L 535.5 298.019531 L 534.519531 297.542969 L 533.847656 297.152344 L 533.089844 296.609375 L 532.554688 296.121094 L 531.933594 295.339844 L 531.488281 294.351562 L 531.351562 293.582031 Z M 531.351562 291.65625 "/>
<path style=" stroke:none;fill-rule:nonzero;fill:rgb(96.862745%,70.196078%,16.862745%);fill-opacity:1;" d="M 531.351562 304.472656 L 531.398438 304.46875 L 531.398438 304.339844 L 531.574219 304.050781 L 532.023438 303.652344 L 532.601562 303.324219 L 533.226562 303.066406 L 533.625 302.929688 L 534.296875 302.738281 L 534.875 302.597656 L 536.34375 302.308594 L 538.21875 302.035156 L 539.242188 301.921875 L 540.402344 301.8125 L 542.050781 301.691406 L 542.808594 301.644531 L 545.128906 301.542969 L 547.757812 301.476562 L 550.65625 301.457031 L 551.992188 301.464844 L 553.820312 301.492188 L 556.316406 301.5625 L 557.742188 301.625 L 558.855469 301.691406 L 560.015625 301.773438 L 561.441406 301.902344 L 562.78125 302.054688 L 563.851562 302.210938 L 564.917969 302.402344 L 565.8125 302.609375 L 566.570312 302.835938 L 567.238281 303.105469 L 567.636719 303.328125 L 567.90625 303.554688 L 561.710938 303.554688 L 561.351562 303.328125 L 560.953125 303.15625 L 560.285156 302.945312 L 559.613281 302.789062 L 558.945312 302.667969 L 557.699219 302.5 L 556.628906 302.398438 L 555.289062 302.308594 L 554 302.25 L 552.527344 302.210938 L 551.636719 302.199219 L 549.273438 302.199219 L 547.132812 302.242188 L 545.886719 302.292969 L 544.992188 302.34375 L 543.746094 302.441406 L 542.988281 302.519531 L 542.542969 302.570312 L 541.203125 302.769531 L 540.3125 302.949219 L 539.824219 303.074219 L 539.199219 303.265625 L 538.753906 303.4375 L 538.261719 303.695312 L 537.996094 303.890625 L 537.636719 304.324219 L 537.59375 305.484375 L 537.726562 305.726562 L 537.996094 305.992188 L 538.351562 306.222656 L 538.886719 306.46875 L 539.421875 306.652344 L 540.359375 306.90625 L 541.160156 307.070312 L 541.785156 307.179688 L 542.988281 307.355469 L 543.476562 307.414062 L 544.636719 307.527344 L 545.839844 307.617188 L 547.3125 307.695312 L 548.425781 307.734375 L 550.210938 307.765625 L 552.484375 307.765625 L 555.15625 307.726562 L 556.851562 307.675781 L 558.011719 307.625 L 558.769531 307.578125 L 559.703125 307.507812 L 560.371094 307.445312 L 560.996094 307.375 L 561.753906 307.265625 L 561.753906 305.726562 L 550.742188 305.722656 L 550.742188 305 L 567.863281 304.996094 L 567.90625 307.507812 L 566.96875 307.683594 L 565.8125 307.851562 L 564.695312 307.976562 L 563.539062 308.085938 L 561.886719 308.210938 L 560.550781 308.285156 L 558.5 308.375 L 556.628906 308.433594 L 554.667969 308.472656 L 552.929688 308.492188 L 550.878906 308.5 L 549.050781 308.484375 L 547.089844 308.449219 L 545.527344 308.394531 L 544.101562 308.332031 L 542.675781 308.25 L 540.890625 308.113281 L 539.734375 308.003906 L 538.53125 307.867188 L 537.328125 307.707031 L 536.257812 307.535156 L 535.542969 307.398438 L 534.828125 307.246094 L 534.070312 307.050781 L 533.359375 306.832031 L 532.824219 306.632812 L 532.332031 306.410156 L 531.976562 306.195312 L 531.621094 305.90625 L 531.441406 305.675781 L 531.351562 305.476562 Z M 531.351562 304.472656 "/>
<path style=" stroke:none;fill-rule:nonzero;fill:rgb(83.921569%,15.686275%,22.352941%);fill-opacity:1;" d="M 531.351562 196.945312 L 567.90625 196.945312 L 567.90625 206.246094 L 552.671875 206.328125 L 552.671875 283.839844 L 546.542969 283.839844 L 546.542969 206.410156 L 546.453125 206.246094 L 531.351562 206.246094 Z M 531.351562 196.945312 "/>
<path style=" stroke:none;fill-rule:nonzero;fill:rgb(6.27451%,58.823529%,28.235294%);fill-opacity:1;" d="M 569.828125 311.628906 L 569.867188 311.628906 L 585.683594 309.230469 L 590.488281 309.230469 L 606.382812 311.632812 L 600.796875 311.632812 L 596.816406 311.003906 L 579.359375 311.003906 L 575.453125 311.628906 L 569.828125 311.628906 L 581.039062 310.746094 L 595.214844 310.742188 L 588.144531 309.621094 L 588.066406 309.621094 L 587.988281 309.625 L 581 310.742188 L 581.039062 310.746094 Z M 569.828125 311.628906 "/>
<path style=" stroke:none;fill-rule:nonzero;fill:rgb(14.509804%,36.078431%,60%);fill-opacity:1;" d="M 569.828125 313.488281 L 569.875 313.488281 L 569.875 313.453125 L 570.007812 313.398438 L 570.320312 313.332031 L 570.632812 313.285156 L 571.433594 313.199219 L 572.550781 313.117188 L 573.707031 313.054688 L 574.554688 313.019531 L 575.3125 312.992188 L 577.050781 312.9375 L 578.164062 312.910156 L 579.371094 312.886719 L 580.839844 312.863281 L 581.910156 312.847656 L 584.316406 312.824219 L 586.101562 312.816406 L 587.484375 312.8125 L 590.46875 312.8125 L 592.253906 312.816406 L 593.542969 312.824219 L 594.972656 312.835938 L 596.175781 312.847656 L 598.269531 312.878906 L 600.140625 312.917969 L 600.988281 312.941406 L 602.328125 312.988281 L 603.351562 313.027344 L 604.066406 313.066406 L 604.867188 313.117188 L 605.582031 313.183594 L 606.117188 313.257812 L 606.382812 313.316406 L 600.140625 313.316406 L 599.832031 313.261719 L 599.472656 313.214844 L 598.804688 313.15625 L 598.136719 313.117188 L 597.199219 313.074219 L 596.351562 313.046875 L 595.195312 313.019531 L 594.167969 313.003906 L 593.097656 312.992188 L 592.074219 312.980469 L 590.113281 312.972656 L 587.839844 312.972656 L 586.992188 312.976562 L 585.253906 312.988281 L 584.316406 312.996094 L 582.980469 313.019531 L 582.042969 313.035156 L 580.929688 313.066406 L 580.171875 313.089844 L 579.234375 313.125 L 578.566406 313.160156 L 577.808594 313.207031 L 577.363281 313.242188 L 576.960938 313.28125 L 576.605469 313.328125 L 576.339844 313.378906 L 576.160156 313.429688 L 576.070312 313.484375 L 576.070312 313.703125 L 576.160156 313.753906 L 576.382812 313.816406 L 576.960938 313.902344 L 577.808594 313.976562 L 578.789062 314.035156 L 579.726562 314.078125 L 580.261719 314.101562 L 580.972656 314.121094 L 582.089844 314.152344 L 583.695312 314.179688 L 584.628906 314.191406 L 586.054688 314.203125 L 587.527344 314.207031 L 589.488281 314.207031 L 591.226562 314.203125 L 592.386719 314.195312 L 593.589844 314.183594 L 595.238281 314.160156 L 596.265625 314.136719 L 597.15625 314.109375 L 597.824219 314.082031 L 598.269531 314.058594 L 598.9375 314.015625 L 599.472656 313.96875 L 599.875 313.917969 L 600.140625 313.867188 L 606.382812 313.867188 L 606.117188 313.925781 L 605.714844 313.980469 L 605.3125 314.023438 L 604.6875 314.074219 L 603.976562 314.117188 L 602.949219 314.167969 L 602.105469 314.199219 L 600.988281 314.234375 L 599.964844 314.261719 L 598.847656 314.285156 L 597.199219 314.316406 L 596.128906 314.328125 L 594.972656 314.34375 L 593.589844 314.355469 L 591.851562 314.363281 L 589.980469 314.371094 L 588.242188 314.371094 L 586.367188 314.367188 L 584.984375 314.363281 L 583.160156 314.347656 L 580.886719 314.324219 L 579.234375 314.296875 L 577.941406 314.269531 L 576.828125 314.242188 L 575.582031 314.203125 L 573.976562 314.140625 L 572.996094 314.089844 L 572.328125 314.050781 L 571.570312 313.996094 L 571.035156 313.945312 L 570.410156 313.867188 L 569.964844 313.765625 L 569.828125 313.6875 Z M 569.828125 313.488281 "/>
<path style=" stroke:none;fill-rule:nonzero;fill:rgb(96.862745%,70.196078%,16.862745%);fill-opacity:1;" d="M 569.828125 297.765625 L 569.875 297.757812 L 569.875 297.617188 L 570.054688 297.304688 L 570.5 296.867188 L 571.078125 296.511719 L 571.703125 296.230469 L 572.101562 296.085938 L 572.773438 295.875 L 573.351562 295.71875 L 574.824219 295.40625 L 576.695312 295.109375 L 577.71875 294.984375 L 578.878906 294.867188 L 580.527344 294.730469 L 581.285156 294.683594 L 583.605469 294.570312 L 586.234375 294.5 L 589.132812 294.480469 L 590.46875 294.488281 L 592.296875 294.515625 L 594.792969 294.59375 L 596.21875 294.664062 L 597.332031 294.730469 L 598.492188 294.824219 L 599.917969 294.964844 L 601.257812 295.132812 L 602.328125 295.300781 L 603.394531 295.511719 L 604.289062 295.734375 L 605.046875 295.980469 L 605.714844 296.273438 L 606.117188 296.519531 L 606.382812 296.761719 L 600.1875 296.761719 L 599.832031 296.519531 L 599.429688 296.328125 L 598.761719 296.097656 L 598.089844 295.929688 L 597.421875 295.796875 L 596.175781 295.613281 L 595.105469 295.503906 L 593.769531 295.40625 L 592.476562 295.339844 L 591.003906 295.300781 L 590.113281 295.285156 L 587.75 295.285156 L 585.609375 295.335938 L 584.363281 295.390625 L 583.46875 295.445312 L 582.222656 295.550781 L 581.464844 295.636719 L 581.019531 295.691406 L 579.679688 295.910156 L 578.789062 296.105469 L 578.300781 296.238281 L 577.675781 296.449219 L 577.230469 296.636719 L 576.738281 296.917969 L 576.472656 297.128906 L 576.117188 297.605469 L 576.070312 298.863281 L 576.203125 299.132812 L 576.472656 299.417969 L 576.828125 299.671875 L 577.363281 299.9375 L 577.898438 300.140625 L 578.835938 300.414062 L 579.636719 300.59375 L 580.261719 300.714844 L 581.464844 300.902344 L 581.953125 300.964844 L 583.113281 301.09375 L 584.316406 301.191406 L 585.789062 301.273438 L 586.902344 301.316406 L 588.6875 301.351562 L 590.960938 301.351562 L 593.632812 301.308594 L 595.328125 301.253906 L 596.488281 301.199219 L 597.246094 301.148438 L 598.179688 301.070312 L 598.847656 301 L 599.472656 300.925781 L 600.230469 300.804688 L 600.230469 299.132812 L 589.222656 299.125 L 589.222656 298.339844 L 606.339844 298.332031 L 606.382812 301.070312 L 605.445312 301.261719 L 604.289062 301.441406 L 603.171875 301.582031 L 602.015625 301.703125 L 600.363281 301.835938 L 599.027344 301.917969 L 596.976562 302.015625 L 595.105469 302.078125 L 593.144531 302.121094 L 591.40625 302.144531 L 589.355469 302.148438 L 587.527344 302.136719 L 585.566406 302.09375 L 584.003906 302.039062 L 582.578125 301.96875 L 581.152344 301.875 L 579.371094 301.730469 L 578.210938 301.609375 L 577.007812 301.464844 L 575.804688 301.289062 L 574.734375 301.097656 L 574.019531 300.953125 L 573.308594 300.785156 L 572.550781 300.574219 L 571.835938 300.335938 L 571.300781 300.117188 L 570.8125 299.875 L 570.453125 299.640625 L 570.097656 299.328125 L 569.917969 299.074219 L 569.828125 298.859375 Z M 569.828125 297.765625 "/>
<path style=" stroke:none;fill-rule:nonzero;fill:rgb(83.921569%,15.686275%,22.352941%);fill-opacity:1;" d="M 569.828125 303.328125 L 606.382812 303.328125 L 606.382812 303.835938 L 591.148438 303.839844 L 591.148438 308.050781 L 585.019531 308.050781 L 585.019531 303.84375 L 584.929688 303.835938 L 569.828125 303.835938 Z M 569.828125 303.328125 "/>
<path style=" stroke:none;fill-rule:nonzero;fill:rgb(6.27451%,58.823529%,28.235294%);fill-opacity:1;" d="M 608.308594 306.964844 L 608.347656 306.957031 L 624.164062 300.136719 L 628.964844 300.136719 L 644.859375 306.972656 L 639.277344 306.972656 L 635.292969 305.1875 L 617.835938 305.1875 L 613.929688 306.964844 L 608.308594 306.964844 L 619.515625 304.449219 L 633.691406 304.441406 L 626.621094 301.253906 L 626.542969 301.246094 L 626.464844 301.265625 L 619.476562 304.441406 L 619.515625 304.449219 Z M 608.308594 306.964844 "/>
<path style=" stroke:none;fill-rule:nonzero;fill:rgb(14.509804%,36.078431%,60%);fill-opacity:1;" d="M 608.308594 294.746094 L 608.351562 294.738281 L 608.351562 294.574219 L 608.484375 294.316406 L 608.796875 293.992188 L 609.109375 293.765625 L 609.910156 293.363281 L 611.027344 292.976562 L 612.183594 292.675781 L 613.03125 292.5 L 613.789062 292.363281 L 615.527344 292.109375 L 616.644531 291.980469 L 617.847656 291.863281 L 619.316406 291.75 L 620.386719 291.679688 L 622.792969 291.570312 L 624.578125 291.523438 L 625.960938 291.503906 L 628.945312 291.503906 L 630.730469 291.53125 L 632.023438 291.566406 L 633.449219 291.621094 L 634.652344 291.679688 L 636.746094 291.832031 L 638.621094 292.023438 L 639.464844 292.128906 L 640.804688 292.339844 L 641.828125 292.546875 L 642.542969 292.722656 L 643.34375 292.976562 L 644.058594 293.28125 L 644.59375 293.628906 L 644.859375 293.921875 L 638.621094 293.921875 L 638.308594 293.648438 L 637.949219 293.4375 L 637.28125 293.160156 L 636.613281 292.960938 L 635.675781 292.765625 L 634.832031 292.632812 L 633.671875 292.503906 L 632.644531 292.421875 L 631.574219 292.363281 L 630.550781 292.320312 L 628.589844 292.28125 L 626.316406 292.28125 L 625.46875 292.292969 L 623.730469 292.347656 L 622.792969 292.394531 L 621.457031 292.492188 L 620.519531 292.582031 L 619.40625 292.714844 L 618.648438 292.832031 L 617.710938 293.007812 L 617.042969 293.164062 L 616.285156 293.390625 L 615.839844 293.5625 L 615.4375 293.75 L 615.082031 293.976562 L 614.816406 294.214844 L 614.636719 294.46875 L 614.546875 294.710938 L 614.546875 295.769531 L 614.636719 296.011719 L 614.859375 296.300781 L 615.4375 296.714844 L 616.285156 297.074219 L 617.265625 297.363281 L 618.203125 297.566406 L 618.738281 297.660156 L 619.453125 297.769531 L 620.566406 297.90625 L 622.171875 298.042969 L 623.105469 298.097656 L 624.53125 298.152344 L 626.003906 298.179688 L 627.964844 298.179688 L 629.703125 298.152344 L 630.863281 298.117188 L 632.066406 298.0625 L 633.714844 297.949219 L 634.742188 297.839844 L 635.632812 297.710938 L 636.300781 297.582031 L 636.746094 297.472656 L 637.414062 297.261719 L 637.949219 297.027344 L 638.351562 296.789062 L 638.621094 296.558594 L 644.859375 296.558594 L 644.59375 296.832031 L 644.191406 297.097656 L 643.789062 297.292969 L 643.167969 297.53125 L 642.453125 297.742188 L 641.425781 297.980469 L 640.582031 298.140625 L 639.464844 298.308594 L 638.441406 298.4375 L 637.328125 298.554688 L 635.675781 298.691406 L 634.605469 298.757812 L 633.449219 298.820312 L 632.066406 298.875 L 630.328125 298.921875 L 628.457031 298.949219 L 626.71875 298.957031 L 624.84375 298.941406 L 623.464844 298.914062 L 621.636719 298.855469 L 619.363281 298.730469 L 617.710938 298.601562 L 616.421875 298.472656 L 615.304688 298.335938 L 614.058594 298.152344 L 612.453125 297.851562 L 611.472656 297.621094 L 610.804688 297.429688 L 610.046875 297.164062 L 609.511719 296.925781 L 608.886719 296.542969 L 608.441406 296.0625 L 608.308594 295.6875 Z M 608.308594 294.746094 "/>
<path style=" stroke:none;fill-rule:nonzero;fill:rgb(96.862745%,70.196078%,16.862745%);fill-opacity:1;" d="M 608.308594 310.816406 L 608.351562 310.808594 L 608.351562 310.695312 L 608.53125 310.441406 L 608.976562 310.089844 L 609.554688 309.796875 L 610.179688 309.570312 L 610.582031 309.453125 L 611.25 309.28125 L 611.828125 309.15625 L 613.300781 308.902344 L 615.171875 308.664062 L 616.195312 308.558594 L 617.355469 308.464844 L 619.003906 308.355469 L 619.761719 308.316406 L 622.082031 308.226562 L 624.710938 308.167969 L 627.609375 308.152344 L 628.945312 308.15625 L 630.773438 308.179688 L 633.269531 308.242188 L 634.695312 308.300781 L 635.8125 308.355469 L 636.96875 308.429688 L 638.394531 308.542969 L 639.734375 308.679688 L 640.804688 308.816406 L 641.875 308.984375 L 642.765625 309.167969 L 643.523438 309.367188 L 644.191406 309.605469 L 644.59375 309.804688 L 644.859375 310.003906 L 638.664062 310.003906 L 638.308594 309.804688 L 637.90625 309.652344 L 637.238281 309.464844 L 636.570312 309.328125 L 635.898438 309.21875 L 634.652344 309.070312 L 633.582031 308.980469 L 632.246094 308.902344 L 630.953125 308.851562 L 629.480469 308.816406 L 628.589844 308.804688 L 626.226562 308.804688 L 624.085938 308.84375 L 622.839844 308.890625 L 621.949219 308.933594 L 620.699219 309.019531 L 619.941406 309.089844 L 619.496094 309.132812 L 618.160156 309.308594 L 617.265625 309.46875 L 616.777344 309.578125 L 616.152344 309.746094 L 615.707031 309.902344 L 615.214844 310.128906 L 614.949219 310.296875 L 614.59375 310.683594 L 614.546875 311.707031 L 614.679688 311.921875 L 614.949219 312.15625 L 615.304688 312.359375 L 615.839844 312.574219 L 616.375 312.742188 L 617.3125 312.960938 L 618.113281 313.109375 L 618.738281 313.207031 L 619.941406 313.359375 L 620.433594 313.410156 L 621.589844 313.511719 L 622.792969 313.59375 L 624.265625 313.660156 L 625.378906 313.695312 L 627.164062 313.722656 L 629.4375 313.722656 L 632.109375 313.6875 L 633.804688 313.644531 L 634.964844 313.597656 L 635.722656 313.558594 L 636.65625 313.496094 L 637.328125 313.4375 L 637.949219 313.375 L 638.707031 313.28125 L 638.707031 311.921875 L 627.699219 311.917969 L 627.699219 311.28125 L 644.816406 311.273438 L 644.859375 313.496094 L 643.925781 313.648438 L 642.765625 313.796875 L 641.652344 313.910156 L 640.492188 314.007812 L 638.84375 314.113281 L 637.503906 314.183594 L 635.453125 314.261719 L 633.582031 314.3125 L 631.621094 314.347656 L 629.882812 314.363281 L 627.832031 314.371094 L 626.003906 314.359375 L 624.042969 314.324219 L 622.480469 314.28125 L 621.054688 314.222656 L 619.628906 314.148438 L 617.847656 314.03125 L 616.6875 313.933594 L 615.484375 313.8125 L 614.28125 313.671875 L 613.210938 313.519531 L 612.496094 313.398438 L 611.785156 313.261719 L 611.027344 313.09375 L 610.3125 312.898438 L 609.777344 312.722656 L 609.289062 312.523438 L 608.929688 312.335938 L 608.574219 312.082031 L 608.394531 311.878906 L 608.308594 311.699219 Z M 608.308594 310.816406 "/>
<path style=" stroke:none;fill-rule:nonzero;fill:rgb(83.921569%,15.686275%,22.352941%);fill-opacity:1;" d="M 608.308594 253.894531 L 644.859375 253.894531 L 644.859375 257.792969 L 629.625 257.828125 L 629.625 290.324219 L 623.496094 290.324219 L 623.496094 257.859375 L 623.40625 257.792969 L 608.308594 257.792969 Z M 608.308594 253.894531 "/>
<path style=" stroke:none;fill-rule:nonzero;fill:rgb(6.27451%,58.823529%,28.235294%);fill-opacity:1;" d="M 646.785156 310.800781 L 646.824219 310.796875 L 662.640625 307.398438 L 667.441406 307.398438 L 683.335938 310.804688 L 677.753906 310.804688 L 673.769531 309.914062 L 656.3125 309.914062 L 652.40625 310.800781 L 646.785156 310.800781 L 657.992188 309.546875 L 672.167969 309.542969 L 665.097656 307.953125 L 665.019531 307.949219 L 664.941406 307.960938 L 657.953125 309.542969 L 657.992188 309.546875 Z M 646.785156 310.800781 "/>
<path style=" stroke:none;fill-rule:nonzero;fill:rgb(14.509804%,36.078431%,60%);fill-opacity:1;" d="M 646.785156 313.023438 L 646.828125 313.019531 L 646.828125 312.96875 L 646.960938 312.882812 L 647.273438 312.78125 L 647.585938 312.707031 L 648.390625 312.578125 L 649.503906 312.453125 L 650.660156 312.359375 L 651.507812 312.300781 L 652.265625 312.257812 L 654.003906 312.175781 L 655.121094 312.136719 L 656.324219 312.097656 L 657.792969 312.0625 L 658.863281 312.039062 L 661.269531 312.003906 L 663.054688 311.988281 L 664.4375 311.984375 L 667.421875 311.984375 L 669.207031 311.992188 L 670.5 312.003906 L 671.925781 312.019531 L 673.128906 312.039062 L 675.222656 312.089844 L 677.097656 312.148438 L 677.941406 312.183594 L 679.28125 312.25 L 680.304688 312.316406 L 681.019531 312.375 L 681.820312 312.453125 L 682.535156 312.554688 L 683.070312 312.664062 L 683.335938 312.757812 L 677.097656 312.757812 L 676.785156 312.671875 L 676.425781 312.601562 L 675.757812 312.511719 L 675.089844 312.449219 L 674.152344 312.386719 L 673.308594 312.34375 L 672.148438 312.304688 L 671.121094 312.277344 L 670.054688 312.257812 L 669.027344 312.246094 L 667.066406 312.230469 L 664.792969 312.230469 L 663.945312 312.238281 L 662.207031 312.253906 L 661.269531 312.269531 L 659.933594 312.300781 L 658.996094 312.328125 L 657.882812 312.371094 L 657.125 312.410156 L 656.191406 312.464844 L 655.519531 312.515625 L 654.761719 312.585938 L 654.316406 312.640625 L 653.917969 312.703125 L 653.558594 312.773438 L 653.292969 312.851562 L 653.113281 312.933594 L 653.023438 313.011719 L 653.023438 313.347656 L 653.113281 313.429688 L 653.335938 313.519531 L 653.917969 313.652344 L 654.761719 313.769531 L 655.742188 313.859375 L 656.679688 313.925781 L 657.214844 313.957031 L 657.929688 313.992188 L 659.042969 314.035156 L 660.648438 314.078125 L 661.582031 314.09375 L 663.011719 314.113281 L 664.480469 314.121094 L 666.441406 314.121094 L 668.179688 314.113281 L 669.339844 314.101562 L 670.542969 314.085938 L 672.191406 314.046875 L 673.21875 314.011719 L 674.109375 313.972656 L 674.777344 313.929688 L 675.222656 313.894531 L 675.894531 313.828125 L 676.425781 313.753906 L 676.828125 313.675781 L 677.097656 313.601562 L 683.335938 313.601562 L 683.070312 313.691406 L 682.667969 313.773438 L 682.265625 313.839844 L 681.644531 313.914062 L 680.929688 313.980469 L 679.90625 314.058594 L 679.058594 314.109375 L 677.941406 314.164062 L 676.917969 314.203125 L 675.804688 314.242188 L 674.152344 314.285156 L 673.085938 314.308594 L 671.925781 314.328125 L 670.542969 314.34375 L 668.804688 314.359375 L 666.933594 314.367188 L 665.195312 314.371094 L 663.320312 314.367188 L 661.941406 314.359375 L 660.113281 314.339844 L 657.839844 314.296875 L 656.191406 314.257812 L 654.898438 314.214844 L 653.78125 314.171875 L 652.535156 314.113281 L 650.929688 314.015625 L 649.949219 313.941406 L 649.28125 313.882812 L 648.523438 313.796875 L 647.988281 313.71875 L 647.363281 313.597656 L 646.917969 313.441406 L 646.785156 313.324219 Z M 646.785156 313.023438 "/>
<path style=" stroke:none;fill-rule:nonzero;fill:rgb(96.862745%,70.196078%,16.862745%);fill-opacity:1;" d="M 646.785156 303.832031 L 646.828125 303.828125 L 646.828125 303.753906 L 647.007812 303.582031 L 647.453125 303.34375 L 648.03125 303.152344 L 648.65625 303 L 649.058594 302.917969 L 649.726562 302.804688 L 650.304688 302.71875 L 651.777344 302.550781 L 653.648438 302.390625 L 654.675781 302.320312 L 655.832031 302.257812 L 657.480469 302.183594 L 658.238281 302.15625 L 660.558594 302.097656 L 663.1875 302.058594 L 666.085938 302.046875 L 667.421875 302.050781 L 669.25 302.066406 L 671.746094 302.105469 L 673.171875 302.144531 L 674.289062 302.183594 L 675.445312 302.234375 L 676.875 302.308594 L 678.210938 302.402344 L 679.28125 302.492188 L 680.351562 302.605469 L 681.242188 302.726562 L 682 302.863281 L 682.667969 303.023438 L 683.070312 303.15625 L 683.335938 303.289062 L 677.140625 303.289062 L 676.785156 303.15625 L 676.382812 303.050781 L 675.714844 302.925781 L 675.046875 302.835938 L 674.378906 302.761719 L 673.128906 302.664062 L 672.058594 302.601562 L 670.722656 302.550781 L 669.429688 302.515625 L 667.957031 302.492188 L 667.066406 302.484375 L 664.703125 302.484375 L 662.5625 302.511719 L 661.316406 302.542969 L 660.425781 302.570312 L 659.175781 302.628906 L 658.417969 302.675781 L 657.972656 302.707031 L 656.636719 302.824219 L 655.742188 302.929688 L 655.253906 303.003906 L 654.628906 303.117188 L 654.183594 303.21875 L 653.691406 303.371094 L 653.425781 303.484375 L 653.070312 303.746094 L 653.023438 304.429688 L 653.160156 304.574219 L 653.425781 304.730469 L 653.78125 304.867188 L 654.316406 305.015625 L 654.851562 305.125 L 655.789062 305.273438 L 656.589844 305.371094 L 657.214844 305.4375 L 658.417969 305.539062 L 658.910156 305.574219 L 660.066406 305.640625 L 661.269531 305.695312 L 662.742188 305.742188 L 663.855469 305.765625 L 665.640625 305.785156 L 667.914062 305.785156 L 670.589844 305.761719 L 672.28125 305.730469 L 673.441406 305.699219 L 674.199219 305.671875 L 675.136719 305.628906 L 675.804688 305.59375 L 676.425781 305.550781 L 677.183594 305.484375 L 677.183594 304.574219 L 666.175781 304.570312 L 666.175781 304.144531 L 683.292969 304.140625 L 683.335938 305.628906 L 682.402344 305.734375 L 681.242188 305.832031 L 680.128906 305.910156 L 678.96875 305.972656 L 677.320312 306.046875 L 675.980469 306.089844 L 673.929688 306.144531 L 672.058594 306.179688 L 670.097656 306.203125 L 668.359375 306.214844 L 666.308594 306.21875 L 664.480469 306.210938 L 662.519531 306.1875 L 660.960938 306.15625 L 659.53125 306.117188 L 658.105469 306.070312 L 656.324219 305.988281 L 655.164062 305.925781 L 653.960938 305.84375 L 652.757812 305.75 L 651.6875 305.644531 L 650.972656 305.566406 L 650.261719 305.476562 L 649.503906 305.359375 L 648.789062 305.230469 L 648.253906 305.113281 L 647.765625 304.980469 L 647.40625 304.855469 L 647.050781 304.683594 L 646.875 304.546875 L 646.785156 304.425781 Z M 646.785156 303.832031 "/>
<path style=" stroke:none;fill-rule:nonzero;fill:rgb(83.921569%,15.686275%,22.352941%);fill-opacity:1;" d="M 646.785156 290.070312 L 683.335938 290.070312 L 683.335938 291.226562 L 668.101562 291.238281 L 668.101562 300.867188 L 661.972656 300.867188 L 661.972656 291.246094 L 661.886719 291.226562 L 646.785156 291.226562 Z M 646.785156 290.070312 "/>
<g style="fill:rgb(0%,0%,0%);fill-opacity:1;">
  <use xlink:href="#glyph0-1" x="21.957031" y="318.198242"/>
  <use xlink:href="#glyph0-2" x="27.291016" y="318.198242"/>
  <use xlink:href="#glyph0-1" x="29.958008" y="318.198242"/>
</g>
<g style="fill:rgb(0%,0%,0%);fill-opacity:1;">
  <use xlink:href="#glyph0-1" x="21.957031" y="244.475586"/>
  <use xlink:href="#glyph0-2" x="27.291016" y="244.475586"/>
  <use xlink:href="#glyph0-3" x="29.958008" y="244.475586"/>
</g>
<g style="fill:rgb(0%,0%,0%);fill-opacity:1;">
  <use xlink:href="#glyph0-4" x="21.957031" y="170.75293"/>
  <use xlink:href="#glyph0-2" x="27.291016" y="170.75293"/>
  <use xlink:href="#glyph0-1" x="29.958008" y="170.75293"/>
</g>
<g style="fill:rgb(0%,0%,0%);fill-opacity:1;">
  <use xlink:href="#glyph0-4" x="21.957031" y="97.03418"/>
  <use xlink:href="#glyph0-2" x="27.291016" y="97.03418"/>
  <use xlink:href="#glyph0-3" x="29.958008" y="97.03418"/>
</g>
<g style="fill:rgb(0%,0%,0%);fill-opacity:1;">
  <use xlink:href="#glyph0-5" x="21.957031" y="23.311523"/>
  <use xlink:href="#glyph0-2" x="27.291016" y="23.311523"/>
  <use xlink:href="#glyph0-1" x="29.958008" y="23.311523"/>
</g>
<g style="fill:rgb(0%,0%,0%);fill-opacity:1;">
  <use xlink:href="#glyph0-4" x="84.90625" y="338.19043"/>
</g>
<g style="fill:rgb(0%,0%,0%);fill-opacity:1;">
  <use xlink:href="#glyph0-5" x="123.382812" y="338.19043"/>
</g>
<g style="fill:rgb(0%,0%,0%);fill-opacity:1;">
  <use xlink:href="#glyph0-6" x="161.859375" y="338.19043"/>
</g>
<g style="fill:rgb(0%,0%,0%);fill-opacity:1;">
  <use xlink:href="#glyph0-7" x="200.335938" y="338.19043"/>
</g>
<g style="fill:rgb(0%,0%,0%);fill-opacity:1;">
  <use xlink:href="#glyph0-3" x="238.8125" y="338.19043"/>
</g>
<g style="fill:rgb(0%,0%,0%);fill-opacity:1;">
  <use xlink:href="#glyph0-8" x="277.289062" y="338.19043"/>
</g>
<g style="fill:rgb(0%,0%,0%);fill-opacity:1;">
  <use xlink:href="#glyph0-9" x="315.769531" y="338.19043"/>
</g>
<g style="fill:rgb(0%,0%,0%);fill-opacity:1;">
  <use xlink:href="#glyph0-10" x="354.246094" y="338.19043"/>
</g>
<g style="fill:rgb(0%,0%,0%);fill-opacity:1;">
  <use xlink:href="#glyph0-11" x="392.722656" y="338.19043"/>
</g>
<g style="fill:rgb(0%,0%,0%);fill-opacity:1;">
  <use xlink:href="#glyph0-4" x="428.699219" y="338.19043"/>
  <use xlink:href="#glyph0-1" x="434.033203" y="338.19043"/>
</g>
<g style="fill:rgb(0%,0%,0%);fill-opacity:1;">
  <use xlink:href="#glyph0-4" x="467.175781" y="338.19043"/>
  <use xlink:href="#glyph0-4" x="472.509766" y="338.19043"/>
</g>
<g style="fill:rgb(0%,0%,0%);fill-opacity:1;">
  <use xlink:href="#glyph0-4" x="505.652344" y="338.19043"/>
  <use xlink:href="#glyph0-5" x="510.986328" y="338.19043"/>
</g>
<g style="fill:rgb(0%,0%,0%);fill-opacity:1;">
  <use xlink:href="#glyph0-4" x="544.128906" y="338.19043"/>
  <use xlink:href="#glyph0-6" x="549.462891" y="338.19043"/>
</g>
<g style="fill:rgb(0%,0%,0%);fill-opacity:1;">
  <use xlink:href="#glyph0-4" x="582.605469" y="338.19043"/>
  <use xlink:href="#glyph0-7" x="587.939453" y="338.19043"/>
</g>
<g style="fill:rgb(0%,0%,0%);fill-opacity:1;">
  <use xlink:href="#glyph0-4" x="621.082031" y="338.19043"/>
  <use xlink:href="#glyph0-3" x="626.416016" y="338.19043"/>
</g>
<g style="fill:rgb(0%,0%,0%);fill-opacity:1;">
  <use xlink:href="#glyph0-4" x="659.558594" y="338.19043"/>
  <use xlink:href="#glyph0-8" x="664.892578" y="338.19043"/>
</g>
<g style="fill:rgb(0%,0%,0%);fill-opacity:1;">
  <use xlink:href="#glyph1-1" x="14.412109" y="178.015625"/>
  <use xlink:href="#glyph1-2" x="14.412109" y="170.011719"/>
  <use xlink:href="#glyph1-3" x="14.412109" y="167.347656"/>
  <use xlink:href="#glyph1-4" x="14.412109" y="164.011719"/>
</g>
</g>
</svg>
