<?xml version="1.0" encoding="UTF-8"?>
<svg xmlns="http://www.w3.org/2000/svg" xmlns:xlink="http://www.w3.org/1999/xlink" width="720pt" height="360pt" viewBox="0 0 720 360" version="1.1">
<defs>
<g>
<symbol overflow="visible" id="glyph0-0">
<path style="stroke:none;" d=""/>
</symbol>
<symbol overflow="visible" id="glyph0-1">
<path style="stroke:none;" d="M 2.640625 -6.796875 C 2 -6.796875 1.421875 -6.53125 1.078125 -6.046875 C 0.640625 -5.453125 0.40625 -4.546875 0.40625 -3.296875 C 0.40625 -1 1.1875 0.21875 2.640625 0.21875 C 4.078125 0.21875 4.859375 -1 4.859375 -3.234375 C 4.859375 -4.5625 4.65625 -5.4375 4.203125 -6.046875 C 3.84375 -6.53125 3.28125 -6.796875 2.640625 -6.796875 Z M 2.640625 -6.046875 C 3.546875 -6.046875 4 -5.125 4 -3.3125 C 4 -1.375 3.5625 -0.484375 2.625 -0.484375 C 1.734375 -0.484375 1.28125 -1.421875 1.28125 -3.28125 C 1.28125 -5.140625 1.734375 -6.046875 2.640625 -6.046875 Z M 2.640625 -6.046875 "/>
</symbol>
<symbol overflow="visible" id="glyph0-2">
<path style="stroke:none;" d="M 1.828125 -1 L 0.828125 -1 L 0.828125 0 L 1.828125 0 Z M 1.828125 -1 "/>
</symbol>
<symbol overflow="visible" id="glyph0-3">
<path style="stroke:none;" d="M 4.5625 -6.796875 L 1.0625 -6.796875 L 0.546875 -3.09375 L 1.328125 -3.09375 C 1.71875 -3.5625 2.046875 -3.734375 2.578125 -3.734375 C 3.484375 -3.734375 4.0625 -3.109375 4.0625 -2.09375 C 4.0625 -1.125 3.484375 -0.53125 2.578125 -0.53125 C 1.828125 -0.53125 1.375 -0.90625 1.1875 -1.671875 L 0.328125 -1.671875 C 0.453125 -1.109375 0.546875 -0.84375 0.75 -0.59375 C 1.125 -0.078125 1.828125 0.21875 2.59375 0.21875 C 3.96875 0.21875 4.921875 -0.78125 4.921875 -2.21875 C 4.921875 -3.5625 4.03125 -4.484375 2.71875 -4.484375 C 2.25 -4.484375 1.859375 -4.359375 1.46875 -4.0625 L 1.734375 -5.96875 L 4.5625 -5.96875 Z M 4.5625 -6.796875 "/>
</symbol>
<symbol overflow="visible" id="glyph0-4">
<path style="stroke:none;" d="M 2.484375 -4.84375 L 2.484375 0 L 3.328125 0 L 3.328125 -6.796875 L 2.765625 -6.796875 C 2.46875 -5.75 2.28125 -5.609375 0.984375 -5.453125 L 0.984375 -4.84375 Z M 2.484375 -4.84375 "/>
</symbol>
<symbol overflow="visible" id="glyph0-5">
<path style="stroke:none;" d="M 4.859375 -0.828125 L 1.28125 -0.828125 C 1.359375 -1.390625 1.671875 -1.75 2.5 -2.234375 L 3.46875 -2.75 C 4.40625 -3.265625 4.90625 -3.96875 4.90625 -4.8125 C 4.90625 -5.375 4.671875 -5.90625 4.265625 -6.265625 C 3.859375 -6.625 3.375 -6.796875 2.71875 -6.796875 C 1.859375 -6.796875 1.21875 -6.5 0.84375 -5.921875 C 0.609375 -5.5625 0.5 -5.125 0.484375 -4.4375 L 1.328125 -4.4375 C 1.359375 -4.90625 1.40625 -5.1875 1.53125 -5.40625 C 1.75 -5.8125 2.1875 -6.0625 2.703125 -6.0625 C 3.46875 -6.0625 4.03125 -5.515625 4.03125 -4.78125 C 4.03125 -4.25 3.71875 -3.796875 3.125 -3.4375 L 2.234375 -2.9375 C 0.8125 -2.140625 0.40625 -1.5 0.328125 0 L 4.859375 0 Z M 4.859375 -0.828125 "/>
</symbol>
<symbol overflow="visible" id="glyph0-6">
<path style="stroke:none;" d="M 2.125 -3.125 L 2.578125 -3.125 C 3.515625 -3.125 3.984375 -2.703125 3.984375 -1.890625 C 3.984375 -1.03125 3.46875 -0.53125 2.578125 -0.53125 C 1.65625 -0.53125 1.203125 -0.984375 1.15625 -1.96875 L 0.3125 -1.96875 C 0.34375 -1.421875 0.4375 -1.078125 0.609375 -0.765625 C 0.953125 -0.109375 1.625 0.21875 2.546875 0.21875 C 3.953125 0.21875 4.859375 -0.609375 4.859375 -1.90625 C 4.859375 -2.765625 4.515625 -3.25 3.703125 -3.515625 C 4.34375 -3.765625 4.65625 -4.25 4.65625 -4.9375 C 4.65625 -6.109375 3.875 -6.796875 2.578125 -6.796875 C 1.203125 -6.796875 0.484375 -6.046875 0.453125 -4.609375 L 1.296875 -4.609375 C 1.3125 -5.015625 1.34375 -5.25 1.453125 -5.453125 C 1.640625 -5.828125 2.0625 -6.0625 2.59375 -6.0625 C 3.34375 -6.0625 3.796875 -5.625 3.796875 -4.90625 C 3.796875 -4.421875 3.609375 -4.140625 3.25 -3.984375 C 3.015625 -3.890625 2.71875 -3.84375 2.125 -3.84375 Z M 2.125 -3.125 "/>
</symbol>
<symbol overflow="visible" id="glyph0-7">
<path style="stroke:none;" d="M 3.140625 -1.625 L 3.140625 0 L 3.984375 0 L 3.984375 -1.625 L 4.984375 -1.625 L 4.984375 -2.390625 L 3.984375 -2.390625 L 3.984375 -6.796875 L 3.359375 -6.796875 L 0.265625 -2.515625 L 0.265625 -1.625 Z M 3.140625 -2.390625 L 1 -2.390625 L 3.140625 -5.359375 Z M 3.140625 -2.390625 "/>
</symbol>
<symbol overflow="visible" id="glyph0-8">
<path style="stroke:none;" d="M 4.78125 -5.03125 C 4.609375 -6.140625 3.890625 -6.796875 2.84375 -6.796875 C 2.09375 -6.796875 1.421875 -6.4375 1.03125 -5.828125 C 0.609375 -5.171875 0.40625 -4.34375 0.40625 -3.09375 C 0.40625 -1.953125 0.578125 -1.234375 0.984375 -0.625 C 1.359375 -0.078125 1.953125 0.21875 2.703125 0.21875 C 3.984375 0.21875 4.921875 -0.734375 4.921875 -2.078125 C 4.921875 -3.34375 4.0625 -4.234375 2.84375 -4.234375 C 2.171875 -4.234375 1.640625 -3.96875 1.28125 -3.46875 C 1.28125 -5.125 1.828125 -6.046875 2.796875 -6.046875 C 3.390625 -6.046875 3.796875 -5.671875 3.9375 -5.03125 Z M 2.734375 -3.484375 C 3.546875 -3.484375 4.0625 -2.921875 4.0625 -2 C 4.0625 -1.15625 3.484375 -0.53125 2.703125 -0.53125 C 1.921875 -0.53125 1.328125 -1.1875 1.328125 -2.046875 C 1.328125 -2.890625 1.90625 -3.484375 2.734375 -3.484375 Z M 2.734375 -3.484375 "/>
</symbol>
<symbol overflow="visible" id="glyph0-9">
<path style="stroke:none;" d="M 4.984375 -6.796875 L 0.4375 -6.796875 L 0.4375 -5.96875 L 4.109375 -5.96875 C 2.5 -3.65625 1.828125 -2.234375 1.328125 0 L 2.21875 0 C 2.59375 -2.171875 3.453125 -4.046875 4.984375 -6.09375 Z M 4.984375 -6.796875 "/>
</symbol>
<symbol overflow="visible" id="glyph0-10">
<path style="stroke:none;" d="M 3.75 -3.578125 C 4.453125 -4 4.6875 -4.34375 4.6875 -4.984375 C 4.6875 -6.046875 3.84375 -6.796875 2.640625 -6.796875 C 1.4375 -6.796875 0.59375 -6.046875 0.59375 -4.984375 C 0.59375 -4.359375 0.828125 -4.015625 1.515625 -3.578125 C 0.734375 -3.203125 0.359375 -2.640625 0.359375 -1.890625 C 0.359375 -0.640625 1.296875 0.21875 2.640625 0.21875 C 3.984375 0.21875 4.921875 -0.640625 4.921875 -1.875 C 4.921875 -2.640625 4.53125 -3.203125 3.75 -3.578125 Z M 2.640625 -6.046875 C 3.359375 -6.046875 3.8125 -5.625 3.8125 -4.96875 C 3.8125 -4.34375 3.34375 -3.921875 2.640625 -3.921875 C 1.921875 -3.921875 1.453125 -4.34375 1.453125 -4.984375 C 1.453125 -5.625 1.921875 -6.046875 2.640625 -6.046875 Z M 2.640625 -3.203125 C 3.484375 -3.203125 4.0625 -2.671875 4.0625 -1.875 C 4.0625 -1.0625 3.484375 -0.53125 2.625 -0.53125 C 1.796875 -0.53125 1.21875 -1.078125 1.21875 -1.875 C 1.21875 -2.671875 1.796875 -3.203125 2.640625 -3.203125 Z M 2.640625 -3.203125 "/>
</symbol>
<symbol overflow="visible" id="glyph0-11">
<path style="stroke:none;" d="M 0.515625 -1.546875 C 0.671875 -0.4375 1.40625 0.21875 2.4375 0.21875 C 3.1875 0.21875 3.859375 -0.140625 4.265625 -0.75 C 4.6875 -1.40625 4.890625 -2.25 4.890625 -3.484375 C 4.890625 -4.625 4.703125 -5.359375 4.3125 -5.953125 C 3.9375 -6.5 3.34375 -6.796875 2.59375 -6.796875 C 1.296875 -6.796875 0.359375 -5.84375 0.359375 -4.515625 C 0.359375 -3.25 1.234375 -2.34375 2.453125 -2.34375 C 3.09375 -2.34375 3.5625 -2.578125 4.015625 -3.109375 C 4 -1.453125 3.46875 -0.53125 2.5 -0.53125 C 1.90625 -0.53125 1.484375 -0.90625 1.359375 -1.546875 Z M 2.578125 -6.0625 C 3.375 -6.0625 3.96875 -5.40625 3.96875 -4.53125 C 3.96875 -3.6875 3.375 -3.09375 2.546875 -3.09375 C 1.734375 -3.09375 1.234375 -3.671875 1.234375 -4.578125 C 1.234375 -5.4375 1.796875 -6.0625 2.578125 -6.0625 Z M 2.578125 -6.0625 "/>
</symbol>
<symbol overflow="visible" id="glyph1-0">
<path style="stroke:none;" d=""/>
</symbol>
<symbol overflow="visible" id="glyph1-1">
<path style="stroke:none;" d="M 0 -0.953125 L 0 -4.890625 C 0 -5.71875 -0.234375 -6.34375 -0.734375 -6.796875 C -1.1875 -7.234375 -1.8125 -7.46875 -2.5 -7.46875 C -3.546875 -7.46875 -4.1875 -7 -4.625 -5.875 C -4.984375 -6.671875 -5.640625 -7.09375 -6.53125 -7.09375 C -7.15625 -7.09375 -7.734375 -6.859375 -8.140625 -6.390625 C -8.5625 -5.9375 -8.75 -5.34375 -8.75 -4.5 L -8.75 -0.953125 Z M -4.984375 -2.0625 L -7.765625 -2.0625 L -7.765625 -4.21875 C -7.765625 -4.84375 -7.6875 -5.203125 -7.453125 -5.5 C -7.21875 -5.8125 -6.859375 -5.96875 -6.375 -5.96875 C -5.90625 -5.96875 -5.53125 -5.8125 -5.296875 -5.5 C -5.0625 -5.203125 -4.984375 -4.84375 -4.984375 -4.21875 Z M -0.984375 -2.0625 L -4 -2.0625 L -4 -4.78125 C -4 -5.328125 -3.859375 -5.6875 -3.578125 -5.953125 C -3.296875 -6.21875 -2.921875 -6.359375 -2.484375 -6.359375 C -2.0625 -6.359375 -1.6875 -6.21875 -1.40625 -5.953125 C -1.109375 -5.6875 -0.984375 -5.328125 -0.984375 -4.78125 Z M -0.984375 -2.0625 "/>
</symbol>
<symbol overflow="visible" id="glyph1-2">
<path style="stroke:none;" d="M -6.28125 -1.796875 L -6.28125 -0.796875 L 0 -0.796875 L 0 -1.796875 Z M -8.75 -1.796875 L -8.75 -0.796875 L -7.484375 -0.796875 L -7.484375 -1.796875 Z M -8.75 -1.796875 "/>
</symbol>
<symbol overflow="visible" id="glyph1-3">
<path style="stroke:none;" d="M -6.28125 -3.046875 L -6.28125 -2.015625 L -8.015625 -2.015625 L -8.015625 -1.015625 L -6.28125 -1.015625 L -6.28125 -0.171875 L -5.46875 -0.171875 L -5.46875 -1.015625 L -0.71875 -1.015625 C -0.078125 -1.015625 0.28125 -1.453125 0.28125 -2.234375 C 0.28125 -2.46875 0.25 -2.71875 0.1875 -3.046875 L -0.640625 -3.046875 C -0.609375 -2.921875 -0.59375 -2.765625 -0.59375 -2.5625 C -0.59375 -2.140625 -0.71875 -2.015625 -1.15625 -2.015625 L -5.46875 -2.015625 L -5.46875 -3.046875 Z M -6.28125 -3.046875 "/>
</symbol>
<symbol overflow="visible" id="glyph1-4">
<path style="stroke:none;" d="M -4.53125 -5.25 C -5.765625 -5.25 -6.46875 -4.421875 -6.46875 -2.96875 C -6.46875 -1.515625 -5.71875 -0.5625 -4.546875 -0.5625 C -3.5625 -0.5625 -3.09375 -1.0625 -2.734375 -2.5625 L -2.515625 -3.484375 C -2.34375 -4.1875 -2.09375 -4.46875 -1.625 -4.46875 C -1.046875 -4.46875 -0.640625 -3.875 -0.640625 -3 C -0.640625 -2.453125 -0.796875 -2 -1.0625 -1.75 C -1.25 -1.59375 -1.421875 -1.53125 -1.875 -1.46875 L -1.875 -0.40625 C -0.421875 -0.453125 0.28125 -1.265625 0.28125 -2.921875 C 0.28125 -4.5 -0.5 -5.515625 -1.71875 -5.515625 C -2.65625 -5.515625 -3.171875 -4.984375 -3.46875 -3.734375 L -3.703125 -2.765625 C -3.890625 -1.953125 -4.15625 -1.609375 -4.59375 -1.609375 C -5.171875 -1.609375 -5.546875 -2.125 -5.546875 -2.9375 C -5.546875 -3.75 -5.203125 -4.171875 -4.53125 -4.203125 Z M -4.53125 -5.25 "/>
</symbol>
</g>
</defs>
<g id="surface62842">
<rect x="0" y="0" width="720" height="360" style="fill:rgb(100%,100%,100%);fill-opacity:1;stroke:none;"/>
<path style=" stroke:none;fill-rule:nonzero;fill:rgb(6.27451%,58.823529%,28.235294%);fill-opacity:1;" d="M 69.628906 312.621094 L 69.667969 312.617188 L 85.484375 310.925781 L 90.289062 310.925781 L 106.183594 312.621094 L 100.597656 312.621094 L 96.613281 312.179688 L 79.15625 312.179688 L 75.253906 312.621094 L 69.628906 312.621094 L 80.835938 311.996094 L 95.011719 311.992188 L 87.945312 311.203125 L 87.867188 311.199219 L 87.789062 311.207031 L 80.796875 311.992188 L 80.835938 311.996094 Z M 69.628906 312.621094 "/>
<path style=" stroke:none;fill-rule:nonzero;fill:rgb(14.509804%,36.078431%,60%);fill-opacity:1;" d="M 69.628906 308.648438 L 69.675781 308.644531 L 69.675781 308.601562 L 69.808594 308.535156 L 70.121094 308.449219 L 70.433594 308.390625 L 71.234375 308.285156 L 72.347656 308.183594 L 73.507812 308.105469 L 74.355469 308.0625 L 75.113281 308.023438 L 76.851562 307.960938 L 77.964844 307.925781 L 79.167969 307.894531 L 80.640625 307.863281 L 81.710938 307.847656 L 84.117188 307.820312 L 85.898438 307.804688 L 87.28125 307.800781 L 90.269531 307.800781 L 92.050781 307.808594 L 93.34375 307.816406 L 94.769531 307.832031 L 95.972656 307.847656 L 98.070312 307.886719 L 99.941406 307.9375 L 100.789062 307.964844 L 102.125 308.019531 L 103.152344 308.074219 L 103.863281 308.121094 L 104.667969 308.183594 L 105.378906 308.265625 L 105.914062 308.355469 L 106.183594 308.433594 L 99.941406 308.433594 L 99.628906 308.359375 L 99.273438 308.304688 L 98.605469 308.234375 L 97.9375 308.179688 L 97 308.128906 L 96.152344 308.097656 L 94.992188 308.0625 L 93.96875 308.042969 L 92.898438 308.023438 L 91.875 308.015625 L 89.910156 308.003906 L 87.636719 308.003906 L 86.792969 308.007812 L 85.054688 308.023438 L 84.117188 308.035156 L 82.78125 308.058594 L 81.84375 308.082031 L 80.730469 308.117188 L 79.972656 308.148438 L 79.035156 308.195312 L 78.367188 308.234375 L 77.609375 308.292969 L 77.164062 308.339844 L 76.761719 308.386719 L 76.40625 308.445312 L 76.136719 308.507812 L 75.960938 308.574219 L 75.871094 308.636719 L 75.871094 308.914062 L 75.960938 308.976562 L 76.183594 309.050781 L 76.761719 309.160156 L 77.609375 309.253906 L 78.589844 309.332031 L 79.527344 309.382812 L 80.058594 309.410156 L 80.773438 309.4375 L 81.886719 309.472656 L 83.492188 309.507812 L 84.429688 309.523438 L 85.855469 309.535156 L 87.328125 309.542969 L 89.289062 309.542969 L 91.027344 309.535156 L 92.183594 309.527344 L 93.390625 309.511719 L 95.039062 309.484375 L 96.0625 309.453125 L 96.953125 309.421875 L 97.625 309.386719 L 98.070312 309.359375 L 98.738281 309.304688 L 99.273438 309.242188 L 99.675781 309.179688 L 99.941406 309.121094 L 106.183594 309.121094 L 105.914062 309.191406 L 105.515625 309.261719 L 105.113281 309.3125 L 104.488281 309.375 L 103.773438 309.429688 L 102.75 309.492188 L 101.902344 309.53125 L 100.789062 309.578125 L 99.761719 309.609375 L 98.648438 309.640625 L 97 309.675781 L 95.929688 309.695312 L 94.769531 309.710938 L 93.390625 309.726562 L 91.648438 309.738281 L 89.777344 309.746094 L 88.039062 309.746094 L 86.167969 309.742188 L 84.785156 309.734375 L 82.957031 309.71875 L 80.683594 309.6875 L 79.035156 309.652344 L 77.742188 309.621094 L 76.628906 309.585938 L 75.378906 309.535156 L 73.773438 309.457031 L 72.792969 309.398438 L 72.125 309.347656 L 71.367188 309.277344 L 70.832031 309.214844 L 70.207031 309.117188 L 69.761719 308.992188 L 69.628906 308.894531 Z M 69.628906 308.648438 "/>
<path style=" stroke:none;fill-rule:nonzero;fill:rgb(96.862745%,70.196078%,16.862745%);fill-opacity:1;" d="M 69.628906 314.042969 L 69.675781 314.042969 L 69.675781 314.035156 L 69.851562 314.011719 L 70.296875 313.976562 L 70.878906 313.953125 L 71.5 313.929688 L 71.902344 313.917969 L 72.570312 313.902344 L 73.152344 313.890625 L 74.621094 313.867188 L 76.496094 313.847656 L 77.519531 313.835938 L 78.679688 313.828125 L 80.328125 313.820312 L 81.085938 313.816406 L 83.402344 313.808594 L 86.035156 313.800781 L 90.269531 313.800781 L 92.097656 313.804688 L 94.59375 313.808594 L 96.019531 313.8125 L 97.132812 313.820312 L 98.292969 313.824219 L 99.71875 313.835938 L 101.054688 313.847656 L 102.125 313.859375 L 103.195312 313.875 L 104.085938 313.894531 L 104.84375 313.910156 L 105.515625 313.933594 L 105.914062 313.953125 L 106.183594 313.96875 L 99.984375 313.96875 L 99.628906 313.953125 L 99.226562 313.9375 L 97.890625 313.90625 L 97.222656 313.898438 L 95.972656 313.882812 L 94.90625 313.875 L 93.566406 313.867188 L 92.273438 313.863281 L 90.804688 313.859375 L 87.550781 313.859375 L 85.410156 313.863281 L 84.160156 313.867188 L 83.269531 313.871094 L 82.023438 313.878906 L 81.265625 313.886719 L 80.816406 313.890625 L 79.480469 313.90625 L 78.589844 313.921875 L 78.097656 313.929688 L 77.476562 313.945312 L 77.027344 313.960938 L 76.539062 313.980469 L 76.269531 313.996094 L 75.914062 314.03125 L 75.871094 314.125 L 76.003906 314.144531 L 76.269531 314.167969 L 76.628906 314.1875 L 77.164062 314.207031 L 77.699219 314.222656 L 78.632812 314.242188 L 79.4375 314.253906 L 80.058594 314.265625 L 81.265625 314.277344 L 81.753906 314.28125 L 82.914062 314.292969 L 84.117188 314.300781 L 85.589844 314.304688 L 86.703125 314.308594 L 88.484375 314.3125 L 90.757812 314.3125 L 93.433594 314.308594 L 95.128906 314.304688 L 96.285156 314.300781 L 97.042969 314.296875 L 97.980469 314.289062 L 98.648438 314.285156 L 99.273438 314.28125 L 100.03125 314.269531 L 100.03125 314.144531 L 89.019531 314.144531 L 89.019531 314.085938 L 106.136719 314.085938 L 106.183594 314.289062 L 105.246094 314.304688 L 104.085938 314.316406 L 102.972656 314.328125 L 101.8125 314.335938 L 100.164062 314.347656 L 98.828125 314.351562 L 96.777344 314.359375 L 94.90625 314.367188 L 92.941406 314.367188 L 91.203125 314.371094 L 87.328125 314.371094 L 85.363281 314.367188 L 83.804688 314.363281 L 82.378906 314.355469 L 80.953125 314.351562 L 79.167969 314.339844 L 78.011719 314.332031 L 76.804688 314.320312 L 75.601562 314.304688 L 74.53125 314.292969 L 73.820312 314.28125 L 73.105469 314.269531 L 72.347656 314.253906 L 71.636719 314.234375 L 71.101562 314.21875 L 70.609375 314.203125 L 70.253906 314.183594 L 69.898438 314.160156 L 69.71875 314.140625 L 69.628906 314.125 Z M 69.628906 314.042969 "/>
<path style=" stroke:none;fill-rule:nonzero;fill:rgb(83.921569%,15.686275%,22.352941%);fill-opacity:1;" d="M 69.628906 303.050781 L 106.183594 303.050781 L 106.183594 303.433594 L 90.949219 303.4375 L 90.949219 306.621094 L 84.820312 306.621094 L 84.820312 303.441406 L 84.730469 303.433594 L 69.628906 303.433594 Z M 69.628906 303.050781 "/>
<path style=" stroke:none;fill-rule:nonzero;fill:rgb(6.27451%,58.823529%,28.235294%);fill-opacity:1;" d="M 108.105469 295.925781 L 108.144531 295.910156 L 123.960938 276.777344 L 128.765625 276.777344 L 144.660156 295.945312 L 139.074219 295.945312 L 135.089844 290.941406 L 117.636719 290.941406 L 113.730469 295.925781 L 108.105469 295.925781 L 119.3125 288.871094 L 133.492188 288.855469 L 126.421875 279.910156 L 126.34375 279.890625 L 126.265625 279.945312 L 119.273438 288.855469 L 119.3125 288.871094 Z M 108.105469 295.925781 "/>
<path style=" stroke:none;fill-rule:nonzero;fill:rgb(14.509804%,36.078431%,60%);fill-opacity:1;" d="M 108.105469 312.433594 L 108.152344 312.433594 L 108.152344 312.355469 L 108.285156 312.238281 L 108.597656 312.085938 L 108.910156 311.984375 L 109.710938 311.800781 L 110.824219 311.621094 L 111.984375 311.484375 L 112.832031 311.402344 L 113.589844 311.339844 L 115.328125 311.222656 L 116.441406 311.164062 L 117.644531 311.109375 L 119.117188 311.054688 L 120.1875 311.023438 L 122.59375 310.976562 L 124.375 310.953125 L 125.757812 310.945312 L 128.746094 310.945312 L 130.527344 310.957031 L 131.820312 310.972656 L 133.246094 310.996094 L 134.453125 311.023438 L 136.546875 311.09375 L 138.417969 311.183594 L 139.265625 311.230469 L 140.601562 311.328125 L 141.628906 311.421875 L 142.339844 311.503906 L 143.144531 311.621094 L 143.855469 311.761719 L 144.390625 311.921875 L 144.660156 312.054688 L 138.417969 312.054688 L 138.105469 311.929688 L 137.75 311.832031 L 137.082031 311.703125 L 136.414062 311.613281 L 135.476562 311.523438 L 134.628906 311.464844 L 133.46875 311.402344 L 132.445312 311.367188 L 131.375 311.339844 L 130.351562 311.320312 L 128.390625 311.300781 L 126.117188 311.300781 L 125.269531 311.308594 L 123.53125 311.332031 L 122.59375 311.355469 L 121.257812 311.398438 L 120.320312 311.4375 L 119.207031 311.5 L 118.449219 311.554688 L 117.511719 311.636719 L 116.84375 311.707031 L 116.085938 311.8125 L 115.640625 311.890625 L 115.238281 311.976562 L 114.882812 312.082031 L 114.613281 312.191406 L 114.4375 312.304688 L 114.347656 312.417969 L 114.347656 312.90625 L 114.4375 313.015625 L 114.660156 313.148438 L 115.238281 313.339844 L 116.085938 313.507812 L 117.066406 313.636719 L 118.003906 313.730469 L 118.539062 313.777344 L 119.25 313.824219 L 120.363281 313.886719 L 121.96875 313.949219 L 122.90625 313.976562 L 124.332031 314 L 125.804688 314.011719 L 127.765625 314.011719 L 129.503906 314 L 130.664062 313.984375 L 131.867188 313.960938 L 133.515625 313.90625 L 134.539062 313.855469 L 135.433594 313.796875 L 136.101562 313.738281 L 136.546875 313.6875 L 137.214844 313.589844 L 137.75 313.484375 L 138.152344 313.375 L 138.417969 313.269531 L 144.660156 313.269531 L 144.390625 313.394531 L 143.992188 313.515625 L 143.589844 313.605469 L 142.964844 313.714844 L 142.253906 313.8125 L 141.226562 313.921875 L 140.378906 313.996094 L 139.265625 314.074219 L 138.242188 314.132812 L 137.125 314.1875 L 135.476562 314.25 L 134.40625 314.28125 L 133.246094 314.308594 L 131.867188 314.332031 L 130.128906 314.355469 L 128.253906 314.367188 L 126.515625 314.371094 L 124.644531 314.363281 L 123.261719 314.351562 L 121.433594 314.324219 L 119.160156 314.265625 L 117.511719 314.207031 L 116.21875 314.148438 L 115.105469 314.085938 L 113.855469 314 L 112.253906 313.863281 L 111.269531 313.757812 L 110.601562 313.667969 L 109.84375 313.546875 L 109.308594 313.4375 L 108.6875 313.261719 L 108.238281 313.039062 L 108.105469 312.867188 Z M 108.105469 312.433594 "/>
<path style=" stroke:none;fill-rule:nonzero;fill:rgb(96.862745%,70.196078%,16.862745%);fill-opacity:1;" d="M 108.105469 299.90625 L 108.152344 299.902344 L 108.152344 299.78125 L 108.328125 299.515625 L 108.773438 299.148438 L 109.355469 298.84375 L 109.980469 298.609375 L 110.378906 298.484375 L 111.046875 298.304688 L 111.628906 298.175781 L 113.097656 297.90625 L 114.972656 297.660156 L 115.996094 297.550781 L 117.15625 297.449219 L 118.804688 297.339844 L 119.5625 297.296875 L 121.878906 297.203125 L 124.511719 297.140625 L 127.40625 297.125 L 128.746094 297.128906 L 130.574219 297.152344 L 133.070312 297.21875 L 134.496094 297.277344 L 135.609375 297.339844 L 136.769531 297.414062 L 138.195312 297.535156 L 139.53125 297.675781 L 140.601562 297.820312 L 141.671875 297.996094 L 142.5625 298.1875 L 143.320312 298.394531 L 143.992188 298.644531 L 144.390625 298.851562 L 144.660156 299.058594 L 138.464844 299.058594 L 138.105469 298.851562 L 137.707031 298.691406 L 137.035156 298.496094 L 136.367188 298.351562 L 135.699219 298.238281 L 134.453125 298.085938 L 133.382812 297.992188 L 132.042969 297.90625 L 130.75 297.855469 L 129.28125 297.820312 L 128.390625 297.808594 L 126.027344 297.808594 L 123.886719 297.847656 L 122.636719 297.894531 L 121.746094 297.941406 L 120.5 298.03125 L 119.742188 298.101562 L 119.296875 298.152344 L 117.957031 298.335938 L 117.066406 298.5 L 116.574219 298.613281 L 115.953125 298.792969 L 115.507812 298.953125 L 115.015625 299.1875 L 114.75 299.367188 L 114.390625 299.769531 L 114.347656 300.839844 L 114.480469 301.066406 L 114.75 301.308594 L 115.105469 301.523438 L 115.640625 301.746094 L 116.175781 301.917969 L 117.109375 302.152344 L 117.914062 302.304688 L 118.539062 302.40625 L 119.742188 302.566406 L 120.230469 302.621094 L 121.390625 302.726562 L 122.59375 302.808594 L 124.066406 302.878906 L 125.179688 302.917969 L 126.960938 302.945312 L 129.234375 302.945312 L 131.910156 302.910156 L 133.605469 302.863281 L 134.761719 302.816406 L 135.519531 302.773438 L 136.457031 302.707031 L 137.125 302.648438 L 137.75 302.582031 L 138.507812 302.484375 L 138.507812 301.066406 L 127.496094 301.058594 L 127.496094 300.394531 L 144.613281 300.386719 L 144.660156 302.707031 L 143.722656 302.867188 L 142.5625 303.023438 L 141.449219 303.140625 L 140.289062 303.242188 L 138.640625 303.355469 L 137.304688 303.425781 L 135.253906 303.507812 L 133.382812 303.5625 L 131.421875 303.597656 L 129.679688 303.617188 L 127.632812 303.621094 L 125.804688 303.609375 L 123.84375 303.574219 L 122.28125 303.527344 L 120.855469 303.46875 L 119.429688 303.390625 L 117.644531 303.265625 L 116.488281 303.164062 L 115.285156 303.039062 L 114.078125 302.890625 L 113.011719 302.730469 L 112.296875 302.609375 L 111.582031 302.464844 L 110.824219 302.285156 L 110.113281 302.085938 L 109.578125 301.902344 L 109.085938 301.695312 L 108.730469 301.496094 L 108.375 301.230469 L 108.195312 301.015625 L 108.105469 300.832031 Z M 108.105469 299.90625 "/>
<path style=" stroke:none;fill-rule:nonzero;fill:rgb(83.921569%,15.686275%,22.352941%);fill-opacity:1;" d="M 108.105469 304.800781 L 144.660156 304.800781 L 144.660156 305.332031 L 129.425781 305.335938 L 129.425781 309.765625 L 123.296875 309.765625 L 123.296875 305.34375 L 123.207031 305.332031 L 108.105469 305.332031 Z M 108.105469 304.800781 "/>
<path style=" stroke:none;fill-rule:nonzero;fill:rgb(6.27451%,58.823529%,28.235294%);fill-opacity:1;" d="M 146.582031 295.699219 L 146.621094 295.683594 L 162.4375 276.691406 L 167.242188 276.691406 L 183.136719 295.71875 L 177.550781 295.71875 L 173.570312 290.75 L 156.113281 290.75 L 152.207031 295.699219 L 146.582031 295.699219 L 157.792969 288.695312 L 171.96875 288.679688 L 164.898438 279.796875 L 164.820312 279.78125 L 164.742188 279.835938 L 157.753906 288.679688 L 157.792969 288.695312 Z M 146.582031 295.699219 "/>
<path style=" stroke:none;fill-rule:nonzero;fill:rgb(14.509804%,36.078431%,60%);fill-opacity:1;" d="M 146.582031 307.132812 L 146.628906 307.128906 L 146.628906 307.042969 L 146.761719 306.910156 L 147.074219 306.738281 L 147.386719 306.621094 L 148.1875 306.414062 L 149.300781 306.210938 L 150.460938 306.054688 L 151.308594 305.964844 L 152.066406 305.890625 L 153.804688 305.761719 L 154.917969 305.695312 L 156.121094 305.632812 L 157.59375 305.574219 L 158.664062 305.539062 L 161.070312 305.480469 L 162.855469 305.457031 L 164.234375 305.445312 L 167.222656 305.445312 L 169.003906 305.460938 L 170.296875 305.476562 L 171.726562 305.507812 L 172.929688 305.539062 L 175.023438 305.617188 L 176.894531 305.714844 L 177.742188 305.773438 L 179.078125 305.882812 L 180.105469 305.988281 L 180.820312 306.078125 L 181.621094 306.210938 L 182.335938 306.371094 L 182.867188 306.550781 L 183.136719 306.703125 L 176.894531 306.703125 L 176.582031 306.5625 L 176.226562 306.453125 L 175.558594 306.304688 L 174.890625 306.203125 L 173.953125 306.101562 L 173.105469 306.035156 L 171.949219 305.964844 L 170.921875 305.925781 L 169.851562 305.890625 L 168.828125 305.871094 L 166.867188 305.851562 L 164.59375 305.851562 L 163.746094 305.855469 L 162.007812 305.886719 L 161.070312 305.910156 L 159.734375 305.960938 L 158.796875 306.003906 L 157.683594 306.078125 L 156.925781 306.136719 L 155.988281 306.230469 L 155.320312 306.308594 L 154.5625 306.425781 L 154.117188 306.515625 L 153.714844 306.613281 L 153.359375 306.730469 L 153.089844 306.855469 L 152.914062 306.984375 L 152.824219 307.113281 L 152.824219 307.664062 L 152.914062 307.789062 L 153.136719 307.9375 L 153.714844 308.152344 L 154.5625 308.34375 L 155.542969 308.492188 L 156.480469 308.597656 L 157.015625 308.644531 L 157.726562 308.703125 L 158.84375 308.773438 L 160.445312 308.84375 L 161.382812 308.871094 L 162.808594 308.902344 L 164.28125 308.914062 L 166.242188 308.914062 L 167.980469 308.902344 L 169.140625 308.882812 L 170.34375 308.855469 L 171.992188 308.796875 L 173.015625 308.738281 L 173.910156 308.671875 L 174.578125 308.605469 L 175.023438 308.546875 L 175.691406 308.4375 L 176.226562 308.316406 L 176.628906 308.191406 L 176.894531 308.074219 L 183.136719 308.074219 L 182.867188 308.214844 L 182.46875 308.351562 L 182.066406 308.457031 L 181.441406 308.578125 L 180.730469 308.6875 L 179.703125 308.8125 L 178.855469 308.894531 L 177.742188 308.984375 L 176.71875 309.050781 L 175.601562 309.109375 L 173.953125 309.179688 L 172.882812 309.214844 L 171.726562 309.246094 L 170.34375 309.277344 L 168.605469 309.300781 L 166.730469 309.316406 L 164.992188 309.320312 L 163.121094 309.3125 L 161.738281 309.296875 L 159.910156 309.265625 L 157.636719 309.203125 L 155.988281 309.132812 L 154.695312 309.066406 L 153.582031 308.996094 L 152.332031 308.902344 L 150.730469 308.746094 L 149.75 308.625 L 149.078125 308.527344 L 148.320312 308.386719 L 147.785156 308.265625 L 147.164062 308.066406 L 146.71875 307.816406 L 146.582031 307.621094 Z M 146.582031 307.132812 "/>
<path style=" stroke:none;fill-rule:nonzero;fill:rgb(96.862745%,70.196078%,16.862745%);fill-opacity:1;" d="M 146.582031 312.15625 L 146.628906 312.152344 L 146.628906 312.082031 L 146.804688 311.921875 L 147.25 311.703125 L 147.832031 311.523438 L 148.457031 311.382812 L 148.855469 311.308594 L 149.523438 311.203125 L 150.105469 311.125 L 151.574219 310.964844 L 153.449219 310.816406 L 154.472656 310.753906 L 155.632812 310.691406 L 157.28125 310.625 L 158.039062 310.601562 L 160.359375 310.542969 L 162.988281 310.507812 L 165.886719 310.5 L 167.222656 310.5 L 169.050781 310.515625 L 171.546875 310.554688 L 172.972656 310.589844 L 174.085938 310.625 L 175.246094 310.671875 L 176.671875 310.742188 L 178.011719 310.828125 L 179.078125 310.910156 L 180.148438 311.019531 L 181.042969 311.132812 L 181.800781 311.253906 L 182.46875 311.402344 L 182.867188 311.527344 L 183.136719 311.652344 L 176.941406 311.652344 L 176.582031 311.527344 L 176.183594 311.433594 L 175.515625 311.316406 L 174.84375 311.230469 L 174.175781 311.164062 L 172.929688 311.070312 L 171.859375 311.015625 L 170.519531 310.964844 L 169.226562 310.933594 L 167.757812 310.910156 L 166.867188 310.90625 L 164.503906 310.90625 L 162.363281 310.929688 L 161.117188 310.957031 L 160.222656 310.988281 L 158.976562 311.039062 L 158.21875 311.082031 L 157.773438 311.109375 L 156.433594 311.21875 L 155.542969 311.320312 L 155.054688 311.386719 L 154.429688 311.492188 L 153.984375 311.585938 L 153.492188 311.730469 L 153.226562 311.835938 L 152.867188 312.074219 L 152.824219 312.710938 L 152.957031 312.847656 L 153.226562 312.992188 L 153.582031 313.117188 L 154.117188 313.253906 L 154.652344 313.355469 L 155.585938 313.492188 L 156.390625 313.585938 L 157.015625 313.644531 L 158.21875 313.742188 L 158.707031 313.773438 L 159.867188 313.835938 L 161.070312 313.886719 L 162.542969 313.929688 L 163.65625 313.949219 L 165.4375 313.96875 L 167.710938 313.96875 L 170.386719 313.945312 L 172.082031 313.917969 L 173.242188 313.890625 L 174 313.863281 L 174.933594 313.824219 L 175.601562 313.789062 L 176.226562 313.75 L 176.984375 313.691406 L 176.984375 312.847656 L 165.972656 312.84375 L 165.972656 312.445312 L 183.09375 312.441406 L 183.136719 313.824219 L 182.199219 313.921875 L 181.042969 314.011719 L 179.925781 314.085938 L 178.769531 314.144531 L 177.117188 314.210938 L 175.78125 314.253906 L 173.730469 314.304688 L 171.859375 314.335938 L 169.898438 314.355469 L 168.160156 314.367188 L 166.109375 314.371094 L 164.28125 314.363281 L 162.320312 314.34375 L 160.757812 314.3125 L 159.332031 314.277344 L 157.90625 314.234375 L 156.121094 314.160156 L 154.964844 314.097656 L 153.761719 314.023438 L 152.554688 313.9375 L 151.488281 313.839844 L 150.773438 313.765625 L 150.058594 313.679688 L 149.300781 313.574219 L 148.589844 313.453125 L 148.054688 313.34375 L 147.5625 313.222656 L 147.207031 313.105469 L 146.851562 312.945312 L 146.671875 312.816406 L 146.582031 312.707031 Z M 146.582031 312.15625 "/>
<path style=" stroke:none;fill-rule:nonzero;fill:rgb(83.921569%,15.686275%,22.352941%);fill-opacity:1;" d="M 146.582031 296.898438 L 183.136719 296.898438 L 183.136719 297.6875 L 167.902344 297.691406 L 167.902344 304.265625 L 161.773438 304.265625 L 161.773438 297.699219 L 161.683594 297.6875 L 146.582031 297.6875 Z M 146.582031 296.898438 "/>
<path style=" stroke:none;fill-rule:nonzero;fill:rgb(6.27451%,58.823529%,28.235294%);fill-opacity:1;" d="M 185.058594 306.175781 L 185.097656 306.171875 L 200.914062 302.339844 L 205.71875 302.339844 L 221.613281 306.179688 L 216.027344 306.179688 L 212.046875 305.179688 L 194.589844 305.179688 L 190.683594 306.175781 L 185.058594 306.175781 L 196.269531 304.761719 L 210.445312 304.761719 L 203.375 302.96875 L 203.296875 302.964844 L 203.21875 302.976562 L 196.230469 304.761719 L 196.269531 304.761719 Z M 185.058594 306.175781 "/>
<path style=" stroke:none;fill-rule:nonzero;fill:rgb(14.509804%,36.078431%,60%);fill-opacity:1;" d="M 185.058594 313.992188 L 185.105469 313.992188 L 185.105469 313.976562 L 185.238281 313.953125 L 185.550781 313.925781 L 185.863281 313.902344 L 186.664062 313.867188 L 187.78125 313.832031 L 188.9375 313.804688 L 189.785156 313.789062 L 190.542969 313.777344 L 192.28125 313.753906 L 193.394531 313.742188 L 194.601562 313.734375 L 196.070312 313.722656 L 197.140625 313.714844 L 199.546875 313.707031 L 201.332031 313.703125 L 202.710938 313.699219 L 205.699219 313.699219 L 207.484375 313.703125 L 208.773438 313.707031 L 210.203125 313.710938 L 211.40625 313.714844 L 213.5 313.730469 L 215.371094 313.746094 L 216.21875 313.757812 L 217.558594 313.777344 L 218.582031 313.792969 L 219.296875 313.808594 L 220.097656 313.832031 L 220.8125 313.859375 L 221.347656 313.890625 L 221.613281 313.917969 L 215.371094 313.917969 L 215.0625 313.894531 L 214.703125 313.875 L 214.035156 313.851562 L 213.367188 313.832031 L 212.429688 313.8125 L 211.582031 313.800781 L 210.425781 313.789062 L 209.398438 313.785156 L 208.328125 313.777344 L 207.304688 313.773438 L 205.34375 313.769531 L 203.070312 313.769531 L 202.222656 313.773438 L 200.484375 313.777344 L 199.546875 313.78125 L 198.210938 313.789062 L 197.273438 313.796875 L 196.160156 313.808594 L 195.402344 313.820312 L 194.464844 313.835938 L 193.796875 313.851562 L 193.039062 313.871094 L 192.59375 313.886719 L 192.191406 313.902344 L 191.835938 313.921875 L 191.570312 313.945312 L 191.390625 313.96875 L 191.300781 313.988281 L 191.300781 314.085938 L 191.390625 314.105469 L 191.613281 314.132812 L 192.191406 314.167969 L 193.039062 314.203125 L 194.019531 314.226562 L 194.957031 314.246094 L 195.492188 314.253906 L 196.203125 314.265625 L 197.320312 314.277344 L 198.921875 314.289062 L 199.859375 314.292969 L 201.285156 314.296875 L 202.757812 314.300781 L 204.71875 314.300781 L 206.457031 314.296875 L 207.617188 314.296875 L 208.820312 314.289062 L 210.46875 314.28125 L 211.496094 314.269531 L 212.386719 314.257812 L 213.5 314.238281 L 214.167969 314.21875 L 214.703125 314.199219 L 215.105469 314.175781 L 215.371094 314.15625 L 221.613281 314.15625 L 221.347656 314.179688 L 220.945312 314.203125 L 220.542969 314.222656 L 219.917969 314.242188 L 219.207031 314.261719 L 218.179688 314.28125 L 217.335938 314.296875 L 216.21875 314.3125 L 215.195312 314.324219 L 214.078125 314.335938 L 212.429688 314.347656 L 211.359375 314.351562 L 210.203125 314.359375 L 208.820312 314.363281 L 207.082031 314.367188 L 205.210938 314.371094 L 201.597656 314.371094 L 200.214844 314.367188 L 198.390625 314.363281 L 196.117188 314.351562 L 194.464844 314.339844 L 193.171875 314.328125 L 192.058594 314.316406 L 190.8125 314.296875 L 189.207031 314.269531 L 188.226562 314.25 L 187.554688 314.234375 L 186.796875 314.210938 L 186.265625 314.1875 L 185.640625 314.152344 L 185.195312 314.109375 L 185.058594 314.078125 Z M 185.058594 313.992188 "/>
<path style=" stroke:none;fill-rule:nonzero;fill:rgb(96.862745%,70.196078%,16.862745%);fill-opacity:1;" d="M 185.058594 308.382812 L 185.105469 308.378906 L 185.105469 308.335938 L 185.28125 308.238281 L 185.730469 308.101562 L 186.308594 307.992188 L 186.933594 307.90625 L 187.332031 307.859375 L 188.003906 307.792969 L 188.582031 307.746094 L 190.054688 307.648438 L 191.925781 307.554688 L 192.949219 307.515625 L 194.109375 307.480469 L 195.757812 307.4375 L 196.515625 307.421875 L 198.835938 307.386719 L 201.464844 307.367188 L 204.363281 307.359375 L 205.699219 307.363281 L 207.527344 307.371094 L 210.023438 307.394531 L 211.449219 307.417969 L 212.5625 307.4375 L 213.722656 307.46875 L 215.148438 307.511719 L 216.488281 307.5625 L 217.558594 307.613281 L 218.625 307.679688 L 219.519531 307.75 L 220.277344 307.828125 L 220.945312 307.917969 L 221.347656 307.996094 L 221.613281 308.070312 L 215.417969 308.070312 L 215.0625 307.996094 L 214.660156 307.9375 L 213.992188 307.863281 L 213.320312 307.8125 L 212.652344 307.769531 L 211.40625 307.714844 L 210.335938 307.679688 L 209 307.648438 L 207.707031 307.628906 L 206.234375 307.613281 L 205.34375 307.609375 L 202.980469 307.609375 L 200.839844 307.625 L 199.59375 307.644531 L 198.699219 307.660156 L 197.453125 307.695312 L 196.695312 307.71875 L 196.25 307.738281 L 194.910156 307.804688 L 194.019531 307.867188 L 193.53125 307.90625 L 192.90625 307.972656 L 192.460938 308.03125 L 191.96875 308.117188 L 191.703125 308.183594 L 191.34375 308.332031 L 191.300781 308.726562 L 191.433594 308.808594 L 191.703125 308.898438 L 192.058594 308.976562 L 192.59375 309.058594 L 193.128906 309.121094 L 194.066406 309.207031 L 194.867188 309.261719 L 195.492188 309.300781 L 196.695312 309.359375 L 197.183594 309.378906 L 198.34375 309.417969 L 199.546875 309.449219 L 201.019531 309.476562 L 202.132812 309.488281 L 203.917969 309.5 L 206.191406 309.5 L 208.863281 309.484375 L 210.558594 309.46875 L 211.71875 309.449219 L 212.476562 309.433594 L 213.410156 309.410156 L 214.078125 309.390625 L 214.703125 309.367188 L 215.460938 309.328125 L 215.460938 308.808594 L 204.453125 308.804688 L 204.453125 308.5625 L 221.570312 308.558594 L 221.613281 309.410156 L 220.675781 309.46875 L 219.519531 309.527344 L 218.402344 309.570312 L 217.246094 309.609375 L 215.59375 309.648438 L 214.257812 309.675781 L 212.207031 309.707031 L 210.335938 309.726562 L 208.375 309.738281 L 206.636719 309.746094 L 204.585938 309.746094 L 202.757812 309.742188 L 200.796875 309.730469 L 199.234375 309.710938 L 197.808594 309.691406 L 196.382812 309.664062 L 194.601562 309.617188 L 193.441406 309.578125 L 192.238281 309.535156 L 191.035156 309.480469 L 189.964844 309.421875 L 189.25 309.375 L 188.539062 309.320312 L 187.78125 309.257812 L 187.066406 309.183594 L 186.53125 309.113281 L 186.039062 309.039062 L 185.683594 308.964844 L 185.328125 308.867188 L 185.148438 308.789062 L 185.058594 308.722656 Z M 185.058594 308.382812 "/>
<path style=" stroke:none;fill-rule:nonzero;fill:rgb(83.921569%,15.686275%,22.352941%);fill-opacity:1;" d="M 185.058594 310.925781 L 221.613281 310.925781 L 221.613281 311.097656 L 206.378906 311.097656 L 206.378906 312.519531 L 200.25 312.519531 L 200.25 311.101562 L 200.160156 311.097656 L 185.058594 311.097656 Z M 185.058594 310.925781 "/>
<path style=" stroke:none;fill-rule:nonzero;fill:rgb(6.27451%,58.823529%,28.235294%);fill-opacity:1;" d="M 223.539062 306.332031 L 223.578125 306.320312 L 239.390625 291.480469 L 244.195312 291.480469 L 260.089844 306.347656 L 254.503906 306.347656 L 250.523438 302.464844 L 233.066406 302.464844 L 229.160156 306.332031 L 223.539062 306.332031 L 234.746094 300.859375 L 248.921875 300.847656 L 241.851562 293.910156 L 241.773438 293.894531 L 241.695312 293.9375 L 234.707031 300.847656 L 234.746094 300.859375 Z M 223.539062 306.332031 "/>
<path style=" stroke:none;fill-rule:nonzero;fill:rgb(14.509804%,36.078431%,60%);fill-opacity:1;" d="M 223.539062 310.503906 L 223.582031 310.5 L 223.582031 310.347656 L 223.714844 310.109375 L 224.027344 309.808594 L 224.339844 309.605469 L 225.140625 309.234375 L 226.257812 308.878906 L 227.414062 308.601562 L 228.261719 308.441406 L 229.019531 308.316406 L 230.757812 308.082031 L 231.875 307.964844 L 233.078125 307.859375 L 234.546875 307.75 L 235.617188 307.6875 L 238.023438 307.589844 L 239.808594 307.546875 L 241.191406 307.527344 L 244.175781 307.527344 L 245.960938 307.550781 L 247.253906 307.582031 L 248.679688 307.632812 L 249.882812 307.6875 L 251.976562 307.828125 L 253.847656 308.003906 L 254.695312 308.101562 L 256.035156 308.296875 L 257.058594 308.484375 L 257.773438 308.644531 L 258.574219 308.878906 L 259.289062 309.160156 L 259.824219 309.476562 L 260.089844 309.746094 L 253.847656 309.746094 L 253.539062 309.496094 L 253.179688 309.304688 L 252.511719 309.046875 L 251.84375 308.867188 L 250.90625 308.683594 L 250.058594 308.566406 L 248.902344 308.445312 L 247.875 308.371094 L 246.804688 308.316406 L 245.78125 308.277344 L 243.820312 308.238281 L 241.546875 308.238281 L 240.699219 308.253906 L 238.960938 308.300781 L 238.023438 308.347656 L 236.6875 308.433594 L 235.75 308.515625 L 234.636719 308.640625 L 233.878906 308.746094 L 232.941406 308.910156 L 232.273438 309.054688 L 231.515625 309.257812 L 231.070312 309.414062 L 230.667969 309.589844 L 230.3125 309.796875 L 230.046875 310.015625 L 229.867188 310.246094 L 229.777344 310.472656 L 229.777344 311.441406 L 229.867188 311.667969 L 230.089844 311.929688 L 230.667969 312.3125 L 231.515625 312.644531 L 232.496094 312.90625 L 233.433594 313.09375 L 233.96875 313.183594 L 234.679688 313.28125 L 235.796875 313.40625 L 237.402344 313.53125 L 238.335938 313.582031 L 239.761719 313.632812 L 241.234375 313.65625 L 243.195312 313.65625 L 244.933594 313.632812 L 246.09375 313.601562 L 247.296875 313.550781 L 248.945312 313.445312 L 249.972656 313.34375 L 250.863281 313.226562 L 251.53125 313.105469 L 251.976562 313.007812 L 252.644531 312.8125 L 253.179688 312.601562 L 253.582031 312.382812 L 253.847656 312.167969 L 260.089844 312.167969 L 259.824219 312.417969 L 259.421875 312.664062 L 259.019531 312.84375 L 258.394531 313.0625 L 257.683594 313.257812 L 256.65625 313.476562 L 255.8125 313.621094 L 254.695312 313.777344 L 253.671875 313.894531 L 252.558594 314 L 250.90625 314.125 L 249.835938 314.1875 L 248.679688 314.246094 L 247.296875 314.296875 L 245.558594 314.339844 L 243.6875 314.363281 L 241.949219 314.371094 L 240.074219 314.359375 L 238.695312 314.332031 L 236.867188 314.277344 L 234.59375 314.164062 L 232.941406 314.046875 L 231.648438 313.925781 L 230.535156 313.800781 L 229.289062 313.632812 L 227.683594 313.355469 L 226.703125 313.144531 L 226.035156 312.96875 L 225.277344 312.726562 L 224.742188 312.507812 L 224.117188 312.15625 L 223.671875 311.710938 L 223.539062 311.367188 Z M 223.539062 310.503906 "/>
<path style=" stroke:none;fill-rule:nonzero;fill:rgb(96.862745%,70.196078%,16.862745%);fill-opacity:1;" d="M 223.539062 190.0625 L 223.582031 189.902344 L 223.582031 186.699219 L 223.761719 179.492188 L 224.207031 169.566406 L 224.785156 161.398438 L 225.410156 154.992188 L 225.8125 151.628906 L 226.480469 146.828125 L 227.058594 143.304688 L 228.53125 136.097656 L 230.402344 129.371094 L 231.425781 126.492188 L 232.585938 123.769531 L 234.234375 120.726562 L 234.992188 119.605469 L 237.3125 117.042969 L 239.941406 115.441406 L 242.839844 114.960938 L 244.175781 115.121094 L 246.003906 115.761719 L 248.5 117.523438 L 249.925781 119.125 L 251.042969 120.726562 L 252.199219 122.808594 L 253.625 126.011719 L 254.964844 129.851562 L 256.035156 133.695312 L 257.105469 138.5 L 257.996094 143.625 L 258.753906 149.230469 L 259.421875 155.953125 L 259.824219 161.558594 L 260.089844 167.164062 L 253.894531 167.164062 L 253.539062 161.558594 L 253.136719 157.234375 L 252.46875 151.949219 L 251.800781 148.109375 L 251.128906 145.066406 L 249.882812 140.902344 L 248.8125 138.339844 L 247.476562 136.097656 L 246.183594 134.65625 L 244.710938 133.695312 L 243.820312 133.375 L 241.457031 133.375 L 239.316406 134.496094 L 238.070312 135.777344 L 237.179688 137.058594 L 235.929688 139.460938 L 235.171875 141.382812 L 234.726562 142.664062 L 233.390625 147.628906 L 232.496094 152.109375 L 232.007812 155.152344 L 231.382812 159.957031 L 230.9375 164.28125 L 230.445312 170.683594 L 230.179688 175.488281 L 229.824219 186.378906 L 229.777344 215.199219 L 229.910156 221.285156 L 230.179688 227.851562 L 230.535156 233.613281 L 231.070312 239.699219 L 231.605469 244.34375 L 232.542969 250.589844 L 233.34375 254.75 L 233.96875 257.472656 L 235.171875 261.796875 L 235.664062 263.238281 L 236.820312 266.121094 L 238.023438 268.363281 L 239.496094 270.285156 L 240.609375 271.246094 L 242.394531 272.046875 L 244.667969 272.046875 L 247.339844 271.085938 L 249.035156 269.804688 L 250.195312 268.523438 L 250.953125 267.402344 L 251.886719 265.640625 L 252.558594 264.039062 L 253.179688 262.277344 L 253.9375 259.554688 L 253.9375 221.285156 L 242.929688 221.125 L 242.929688 203.191406 L 260.046875 203.03125 L 260.089844 265.640625 L 259.152344 269.964844 L 257.996094 274.128906 L 256.878906 277.328125 L 255.722656 280.050781 L 254.074219 283.09375 L 252.734375 285.015625 L 250.683594 287.257812 L 248.8125 288.699219 L 246.851562 289.660156 L 245.113281 290.140625 L 243.0625 290.300781 L 241.234375 289.980469 L 239.273438 289.019531 L 237.710938 287.738281 L 236.285156 286.136719 L 234.859375 284.054688 L 233.078125 280.691406 L 231.917969 277.96875 L 230.714844 274.609375 L 229.511719 270.605469 L 228.441406 266.28125 L 227.726562 262.917969 L 227.015625 259.074219 L 226.257812 254.273438 L 225.542969 248.828125 L 225.007812 243.863281 L 224.519531 238.257812 L 224.160156 232.976562 L 223.804688 225.769531 L 223.625 220.003906 L 223.539062 215.039062 Z M 223.539062 190.0625 "/>
<path style=" stroke:none;fill-rule:nonzero;fill:rgb(14.509804%,36.078431%,60%);fill-opacity:1;" d="M 262.015625 310.523438 L 262.058594 310.519531 L 262.058594 310.371094 L 262.191406 310.132812 L 262.503906 309.835938 L 262.816406 309.628906 L 263.617188 309.261719 L 264.734375 308.90625 L 265.890625 308.632812 L 266.738281 308.472656 L 267.496094 308.347656 L 269.234375 308.117188 L 270.351562 308 L 271.554688 307.894531 L 273.023438 307.789062 L 274.09375 307.726562 L 276.5 307.625 L 278.285156 307.582031 L 279.667969 307.5625 L 282.652344 307.5625 L 284.4375 307.589844 L 285.730469 307.621094 L 287.15625 307.667969 L 288.359375 307.726562 L 290.453125 307.863281 L 292.328125 308.035156 L 293.171875 308.136719 L 294.511719 308.328125 L 295.535156 308.515625 L 296.25 308.675781 L 297.050781 308.90625 L 297.765625 309.1875 L 298.300781 309.503906 L 298.566406 309.773438 L 292.328125 309.773438 L 292.015625 309.523438 L 291.65625 309.332031 L 290.988281 309.074219 L 290.320312 308.894531 L 289.382812 308.714844 L 288.539062 308.597656 L 287.378906 308.476562 L 286.351562 308.402344 L 285.285156 308.347656 L 284.257812 308.308594 L 282.296875 308.273438 L 280.023438 308.273438 L 279.175781 308.285156 L 277.4375 308.335938 L 276.5 308.378906 L 275.164062 308.464844 L 274.226562 308.546875 L 273.113281 308.671875 L 272.355469 308.777344 L 271.421875 308.9375 L 270.75 309.082031 L 269.992188 309.285156 L 269.546875 309.441406 L 269.148438 309.617188 L 268.789062 309.820312 L 268.523438 310.039062 L 268.34375 310.269531 L 268.253906 310.496094 L 268.253906 311.457031 L 268.34375 311.683594 L 268.566406 311.945312 L 269.148438 312.324219 L 269.992188 312.652344 L 270.972656 312.914062 L 271.910156 313.101562 L 272.445312 313.1875 L 273.160156 313.289062 L 274.273438 313.414062 L 275.878906 313.535156 L 276.8125 313.585938 L 278.238281 313.636719 L 279.710938 313.660156 L 281.671875 313.660156 L 283.410156 313.636719 L 284.570312 313.605469 L 285.773438 313.554688 L 287.421875 313.449219 L 288.449219 313.351562 L 289.339844 313.230469 L 290.007812 313.113281 L 290.453125 313.015625 L 291.121094 312.820312 L 291.65625 312.609375 L 292.058594 312.390625 L 292.328125 312.179688 L 298.566406 312.179688 L 298.300781 312.429688 L 297.898438 312.671875 L 297.496094 312.851562 L 296.875 313.070312 L 296.160156 313.261719 L 295.136719 313.480469 L 294.289062 313.625 L 293.171875 313.78125 L 292.148438 313.898438 L 291.035156 314.003906 L 289.382812 314.128906 L 288.316406 314.191406 L 287.15625 314.246094 L 285.773438 314.296875 L 284.035156 314.339844 L 282.164062 314.363281 L 280.425781 314.371094 L 278.550781 314.359375 L 277.171875 314.332031 L 275.34375 314.277344 L 273.070312 314.164062 L 271.421875 314.046875 L 270.128906 313.929688 L 269.011719 313.804688 L 267.765625 313.636719 L 266.160156 313.363281 L 265.179688 313.152344 L 264.511719 312.976562 L 263.753906 312.734375 L 263.21875 312.515625 L 262.59375 312.167969 L 262.148438 311.726562 L 262.015625 311.382812 Z M 262.015625 310.523438 "/>
<path style=" stroke:none;fill-rule:nonzero;fill:rgb(83.921569%,15.686275%,22.352941%);fill-opacity:1;" d="M 262.015625 49.324219 L 298.566406 49.324219 L 298.566406 76.839844 L 283.332031 77.082031 L 283.332031 306.382812 L 277.203125 306.382812 L 277.203125 77.324219 L 277.113281 76.839844 L 262.015625 76.839844 Z M 262.015625 49.324219 "/>
<path style=" stroke:none;fill-rule:nonzero;fill:rgb(6.27451%,58.823529%,28.235294%);fill-opacity:1;" d="M 300.492188 314.371094 L 300.53125 314.367188 L 316.347656 312.839844 L 321.148438 312.839844 L 337.042969 314.371094 L 331.460938 314.371094 L 327.476562 313.972656 L 310.019531 313.972656 L 306.113281 314.371094 L 300.492188 314.371094 L 311.699219 313.804688 L 325.875 313.804688 L 318.808594 313.089844 L 318.730469 313.089844 L 318.652344 313.09375 L 311.660156 313.804688 L 311.699219 313.804688 Z M 300.492188 314.371094 "/>
<path style=" stroke:none;fill-rule:nonzero;fill:rgb(14.509804%,36.078431%,60%);fill-opacity:1;" d="M 300.492188 159.542969 L 300.535156 159.300781 L 300.535156 153.5 L 300.667969 144.3125 L 300.980469 132.707031 L 301.292969 124.730469 L 302.097656 110.464844 L 303.210938 96.6875 L 304.371094 86.046875 L 305.214844 79.761719 L 305.972656 74.929688 L 307.710938 65.984375 L 308.828125 61.390625 L 310.03125 57.28125 L 311.5 53.167969 L 312.570312 50.753906 L 314.980469 46.882812 L 316.761719 45.191406 L 318.144531 44.464844 L 321.128906 44.464844 L 322.914062 45.433594 L 324.207031 46.640625 L 325.632812 48.578125 L 326.835938 50.753906 L 328.929688 56.070312 L 330.804688 62.839844 L 331.652344 66.707031 L 332.988281 74.203125 L 334.011719 81.457031 L 334.726562 87.742188 L 335.527344 96.6875 L 336.242188 107.566406 L 336.777344 119.894531 L 337.042969 130.289062 L 330.804688 130.289062 L 330.492188 120.621094 L 330.136719 113.125 L 329.464844 103.214844 L 328.796875 96.203125 L 327.863281 89.191406 L 327.015625 84.597656 L 325.855469 80.003906 L 324.832031 77.105469 L 323.761719 74.929688 L 322.734375 73.476562 L 320.773438 72.027344 L 318.5 72.027344 L 317.652344 72.511719 L 315.914062 74.445312 L 314.980469 76.136719 L 313.640625 79.519531 L 312.707031 82.664062 L 311.589844 87.5 L 310.832031 91.609375 L 309.898438 97.894531 L 309.226562 103.457031 L 308.46875 111.433594 L 308.023438 117.476562 L 307.625 124.246094 L 307.265625 132.222656 L 307 140.6875 L 306.820312 149.628906 L 306.730469 158.335938 L 306.730469 195.804688 L 306.820312 204.511719 L 307.042969 214.664062 L 307.625 229.410156 L 308.46875 242.222656 L 309.449219 252.378906 L 310.386719 259.628906 L 310.921875 263.015625 L 311.636719 266.882812 L 312.75 271.71875 L 314.355469 276.554688 L 315.289062 278.488281 L 316.71875 280.421875 L 318.1875 281.386719 L 320.148438 281.386719 L 321.886719 280.421875 L 323.046875 279.210938 L 324.25 277.277344 L 325.898438 273.167969 L 326.925781 269.300781 L 327.816406 264.707031 L 328.484375 260.113281 L 328.929688 256.246094 L 329.601562 248.75 L 330.136719 240.53125 L 330.535156 232.070312 L 330.804688 223.851562 L 337.042969 223.851562 L 336.777344 233.519531 L 336.375 242.949219 L 335.972656 249.960938 L 335.351562 258.421875 L 334.636719 265.917969 L 333.613281 274.378906 L 332.765625 279.9375 L 331.652344 285.980469 L 330.625 290.574219 L 329.511719 294.683594 L 327.863281 299.519531 L 326.792969 301.9375 L 325.632812 304.113281 L 324.25 306.046875 L 322.511719 307.738281 L 320.640625 308.707031 L 318.902344 308.949219 L 317.027344 308.464844 L 315.648438 307.5 L 313.820312 305.324219 L 311.546875 300.972656 L 309.898438 296.378906 L 308.605469 291.785156 L 307.488281 286.949219 L 306.242188 280.421875 L 304.636719 269.785156 L 303.65625 261.566406 L 302.988281 254.796875 L 302.230469 245.367188 L 301.695312 236.90625 L 301.070312 223.367188 L 300.625 206.203125 L 300.492188 192.90625 Z M 300.492188 159.542969 "/>
<path style=" stroke:none;fill-rule:nonzero;fill:rgb(83.921569%,15.686275%,22.352941%);fill-opacity:1;" d="M 300.492188 310.128906 L 337.042969 310.128906 L 337.042969 310.292969 L 321.808594 310.292969 L 321.808594 311.660156 L 315.679688 311.660156 L 315.679688 310.296875 L 315.59375 310.292969 L 300.492188 310.292969 Z M 300.492188 310.128906 "/>
<path style=" stroke:none;fill-rule:nonzero;fill:rgb(6.27451%,58.823529%,28.235294%);fill-opacity:1;" d="M 338.96875 314.332031 L 339.007812 314.292969 L 354.824219 273.828125 L 359.625 273.828125 L 375.519531 314.371094 L 369.9375 314.371094 L 365.953125 303.789062 L 348.496094 303.789062 L 344.589844 314.332031 L 338.96875 314.332031 L 350.175781 299.410156 L 364.351562 299.371094 L 357.285156 280.453125 L 357.207031 280.414062 L 357.128906 280.527344 L 350.136719 299.371094 L 350.175781 299.410156 Z M 338.96875 314.332031 "/>
<path style=" stroke:none;fill-rule:nonzero;fill:rgb(96.862745%,70.196078%,16.862745%);fill-opacity:1;" d="M 338.96875 194.511719 L 339.011719 194.386719 L 339.011719 191.890625 L 339.191406 186.273438 L 339.636719 178.535156 L 340.214844 172.167969 L 340.839844 167.175781 L 341.242188 164.554688 L 341.910156 160.808594 L 342.488281 158.0625 L 343.960938 152.445312 L 345.832031 147.203125 L 346.859375 144.957031 L 348.015625 142.835938 L 349.667969 140.464844 L 350.425781 139.589844 L 352.742188 137.59375 L 355.371094 136.34375 L 358.269531 135.96875 L 359.605469 136.09375 L 361.433594 136.59375 L 363.929688 137.96875 L 365.359375 139.214844 L 366.472656 140.464844 L 367.632812 142.085938 L 369.058594 144.582031 L 370.394531 147.578125 L 371.464844 150.574219 L 372.535156 154.320312 L 373.425781 158.3125 L 374.183594 162.679688 L 374.851562 167.925781 L 375.253906 172.292969 L 375.519531 176.660156 L 369.324219 176.660156 L 368.96875 172.292969 L 368.566406 168.921875 L 367.898438 164.804688 L 367.230469 161.808594 L 366.5625 159.4375 L 365.3125 156.191406 L 364.242188 154.195312 L 362.90625 152.445312 L 361.613281 151.324219 L 360.140625 150.574219 L 359.25 150.324219 L 356.886719 150.324219 L 354.75 151.199219 L 353.5 152.195312 L 352.609375 153.195312 L 351.359375 155.066406 L 350.601562 156.566406 L 350.15625 157.5625 L 348.820312 161.433594 L 347.929688 164.929688 L 347.4375 167.300781 L 346.8125 171.042969 L 346.367188 174.414062 L 345.878906 179.40625 L 345.609375 183.152344 L 345.253906 191.640625 L 345.207031 214.109375 L 345.34375 218.851562 L 345.609375 223.96875 L 345.964844 228.460938 L 346.5 233.207031 L 347.035156 236.824219 L 347.972656 241.695312 L 348.773438 244.9375 L 349.398438 247.0625 L 350.601562 250.429688 L 351.09375 251.554688 L 352.253906 253.800781 L 353.457031 255.550781 L 354.925781 257.046875 L 356.042969 257.796875 L 357.824219 258.421875 L 360.097656 258.421875 L 362.773438 257.671875 L 364.464844 256.671875 L 365.625 255.675781 L 366.382812 254.800781 L 367.320312 253.425781 L 367.988281 252.179688 L 368.613281 250.804688 L 369.371094 248.683594 L 369.371094 218.851562 L 358.359375 218.726562 L 358.359375 204.746094 L 375.476562 204.621094 L 375.519531 253.425781 L 374.585938 256.796875 L 373.425781 260.042969 L 372.3125 262.539062 L 371.152344 264.660156 L 369.503906 267.03125 L 368.167969 268.53125 L 366.117188 270.277344 L 364.242188 271.402344 L 362.28125 272.152344 L 360.542969 272.523438 L 358.492188 272.648438 L 356.664062 272.398438 L 354.703125 271.652344 L 353.144531 270.652344 L 351.71875 269.40625 L 350.289062 267.78125 L 348.507812 265.160156 L 347.347656 263.039062 L 346.144531 260.417969 L 344.941406 257.296875 L 343.871094 253.925781 L 343.160156 251.304688 L 342.445312 248.308594 L 341.6875 244.566406 L 340.972656 240.320312 L 340.4375 236.453125 L 339.949219 232.082031 L 339.59375 227.964844 L 339.234375 222.347656 L 339.058594 217.851562 L 338.96875 213.984375 Z M 338.96875 194.511719 "/>
<path style=" stroke:none;fill-rule:nonzero;fill:rgb(83.921569%,15.686275%,22.352941%);fill-opacity:1;" d="M 377.445312 20.664062 L 414 20.664062 L 414 52.101562 L 398.765625 52.378906 L 398.765625 314.371094 L 392.636719 314.371094 L 392.636719 52.652344 L 392.546875 52.101562 L 377.445312 52.101562 Z M 377.445312 20.664062 "/>
<path style=" stroke:none;fill-rule:nonzero;fill:rgb(6.27451%,58.823529%,28.235294%);fill-opacity:1;" d="M 415.921875 284.980469 L 415.960938 284.8125 L 431.777344 106.804688 L 436.582031 106.804688 L 452.476562 285.144531 L 446.890625 285.144531 L 442.90625 238.59375 L 425.449219 238.59375 L 421.546875 284.980469 L 415.921875 284.980469 L 427.128906 219.335938 L 441.304688 219.167969 L 434.238281 135.941406 L 434.160156 135.773438 L 434.082031 136.277344 L 427.089844 219.167969 L 427.128906 219.335938 Z M 415.921875 284.980469 "/>
<path style=" stroke:none;fill-rule:nonzero;fill:rgb(83.921569%,15.686275%,22.352941%);fill-opacity:1;" d="M 415.921875 286.324219 L 452.476562 286.324219 L 452.476562 289.328125 L 437.242188 289.355469 L 437.242188 314.371094 L 431.113281 314.371094 L 431.113281 289.378906 L 431.023438 289.328125 L 415.921875 289.328125 Z M 415.921875 286.324219 "/>
<path style=" stroke:none;fill-rule:nonzero;fill:rgb(6.27451%,58.823529%,28.235294%);fill-opacity:1;" d="M 454.398438 308.640625 L 454.4375 308.386719 L 470.253906 41.515625 L 475.058594 41.515625 L 490.953125 308.890625 L 485.367188 308.890625 L 481.382812 239.097656 L 463.929688 239.097656 L 460.023438 308.640625 L 454.398438 308.640625 L 465.605469 210.226562 L 479.78125 209.976562 L 472.714844 85.199219 L 472.636719 84.949219 L 472.558594 85.703125 L 465.566406 209.976562 L 465.605469 210.226562 Z M 454.398438 308.640625 "/>
<path style=" stroke:none;fill-rule:nonzero;fill:rgb(83.921569%,15.686275%,22.352941%);fill-opacity:1;" d="M 454.398438 310.070312 L 490.953125 310.070312 L 490.953125 310.53125 L 475.71875 310.535156 L 475.71875 314.371094 L 469.589844 314.371094 L 469.589844 310.539062 L 469.5 310.53125 L 454.398438 310.53125 Z M 454.398438 310.070312 "/>
<path style=" stroke:none;fill-rule:nonzero;fill:rgb(6.27451%,58.823529%,28.235294%);fill-opacity:1;" d="M 492.875 311.277344 L 492.914062 311.015625 L 508.730469 32.574219 L 513.535156 32.574219 L 529.429688 311.539062 L 523.84375 311.539062 L 519.859375 238.722656 L 502.40625 238.722656 L 498.5 311.277344 L 492.875 311.277344 L 504.085938 208.597656 L 518.261719 208.335938 L 511.191406 78.152344 L 511.113281 77.890625 L 511.035156 78.675781 L 504.046875 208.335938 L 504.085938 208.597656 Z M 492.875 311.277344 "/>
<path style=" stroke:none;fill-rule:nonzero;fill:rgb(83.921569%,15.686275%,22.352941%);fill-opacity:1;" d="M 492.875 312.71875 L 529.429688 312.71875 L 529.429688 312.898438 L 514.195312 312.898438 L 514.195312 314.371094 L 508.066406 314.371094 L 508.066406 312.898438 L 492.875 312.898438 Z M 492.875 312.71875 "/>
<path style=" stroke:none;fill-rule:nonzero;fill:rgb(6.27451%,58.823529%,28.235294%);fill-opacity:1;" d="M 531.351562 293.5625 L 531.390625 293.542969 L 547.207031 270.367188 L 552.011719 270.367188 L 567.90625 293.585938 L 562.320312 293.585938 L 558.339844 287.523438 L 540.882812 287.523438 L 536.976562 293.5625 L 531.351562 293.5625 L 542.5625 285.015625 L 556.738281 284.996094 L 549.667969 274.160156 L 549.589844 274.136719 L 549.511719 274.203125 L 542.523438 284.996094 L 542.5625 285.015625 Z M 531.351562 293.5625 "/>
<path style=" stroke:none;fill-rule:nonzero;fill:rgb(14.509804%,36.078431%,60%);fill-opacity:1;" d="M 531.351562 306.75 L 531.398438 306.746094 L 531.398438 306.640625 L 531.53125 306.476562 L 531.84375 306.273438 L 532.15625 306.128906 L 532.957031 305.878906 L 534.070312 305.632812 L 535.230469 305.445312 L 536.078125 305.332031 L 536.835938 305.246094 L 538.574219 305.085938 L 539.6875 305.007812 L 540.890625 304.933594 L 542.363281 304.859375 L 543.433594 304.816406 L 545.839844 304.75 L 547.625 304.71875 L 549.003906 304.707031 L 551.992188 304.707031 L 553.773438 304.722656 L 555.066406 304.746094 L 556.496094 304.777344 L 557.699219 304.816406 L 559.792969 304.910156 L 561.664062 305.03125 L 562.511719 305.101562 L 563.851562 305.234375 L 564.875 305.363281 L 565.589844 305.472656 L 566.390625 305.632812 L 567.105469 305.824219 L 567.636719 306.042969 L 567.90625 306.230469 L 561.664062 306.230469 L 561.351562 306.058594 L 560.996094 305.925781 L 560.328125 305.75 L 559.660156 305.625 L 558.722656 305.5 L 557.875 305.417969 L 556.71875 305.335938 L 555.691406 305.285156 L 554.621094 305.246094 L 553.597656 305.222656 L 551.636719 305.195312 L 549.363281 305.195312 L 548.515625 305.203125 L 546.777344 305.238281 L 545.839844 305.269531 L 544.503906 305.328125 L 543.566406 305.382812 L 542.453125 305.46875 L 541.695312 305.542969 L 540.757812 305.652344 L 540.089844 305.753906 L 539.332031 305.894531 L 538.886719 306 L 538.484375 306.121094 L 538.128906 306.261719 L 537.859375 306.414062 L 537.683594 306.574219 L 537.59375 306.726562 L 537.59375 307.390625 L 537.683594 307.546875 L 537.90625 307.726562 L 538.484375 307.988281 L 539.332031 308.214844 L 540.3125 308.394531 L 541.25 308.523438 L 541.785156 308.585938 L 542.496094 308.652344 L 543.613281 308.738281 L 545.214844 308.824219 L 546.152344 308.859375 L 547.578125 308.894531 L 549.050781 308.910156 L 551.011719 308.910156 L 552.75 308.894531 L 553.910156 308.871094 L 555.113281 308.839844 L 556.761719 308.765625 L 557.789062 308.695312 L 558.679688 308.613281 L 559.347656 308.535156 L 559.792969 308.464844 L 560.460938 308.332031 L 560.996094 308.1875 L 561.398438 308.035156 L 561.664062 307.890625 L 567.90625 307.890625 L 567.636719 308.0625 L 567.238281 308.230469 L 566.835938 308.351562 L 566.210938 308.503906 L 565.5 308.636719 L 564.472656 308.785156 L 563.625 308.886719 L 562.511719 308.992188 L 561.488281 309.074219 L 560.371094 309.148438 L 558.722656 309.234375 L 557.652344 309.277344 L 556.496094 309.316406 L 555.113281 309.347656 L 553.375 309.378906 L 551.5 309.394531 L 549.761719 309.398438 L 547.890625 309.390625 L 546.507812 309.375 L 544.679688 309.335938 L 542.40625 309.257812 L 540.757812 309.175781 L 539.464844 309.09375 L 538.351562 309.011719 L 537.101562 308.894531 L 535.5 308.707031 L 534.519531 308.558594 L 533.847656 308.4375 L 533.089844 308.273438 L 532.554688 308.121094 L 531.933594 307.882812 L 531.488281 307.578125 L 531.351562 307.339844 Z M 531.351562 306.75 "/>
<path style=" stroke:none;fill-rule:nonzero;fill:rgb(96.862745%,70.196078%,16.862745%);fill-opacity:1;" d="M 531.351562 312.203125 L 531.398438 312.199219 L 531.398438 312.128906 L 531.574219 311.976562 L 532.023438 311.761719 L 532.601562 311.582031 L 533.226562 311.445312 L 533.625 311.371094 L 534.296875 311.269531 L 534.875 311.191406 L 536.34375 311.035156 L 538.21875 310.890625 L 539.242188 310.828125 L 540.402344 310.769531 L 542.050781 310.703125 L 542.808594 310.679688 L 545.128906 310.625 L 547.757812 310.589844 L 550.65625 310.578125 L 551.992188 310.582031 L 553.820312 310.597656 L 556.316406 310.636719 L 557.742188 310.667969 L 558.855469 310.703125 L 560.015625 310.75 L 561.441406 310.820312 L 562.78125 310.902344 L 563.851562 310.984375 L 564.917969 311.089844 L 565.8125 311.199219 L 566.570312 311.320312 L 567.238281 311.464844 L 567.636719 311.585938 L 567.90625 311.707031 L 561.710938 311.707031 L 561.351562 311.585938 L 560.953125 311.492188 L 560.285156 311.378906 L 559.613281 311.296875 L 558.945312 311.230469 L 557.699219 311.140625 L 556.628906 311.085938 L 555.289062 311.035156 L 554 311.003906 L 552.527344 310.984375 L 551.636719 310.976562 L 549.273438 310.976562 L 547.132812 311.003906 L 545.886719 311.03125 L 544.992188 311.058594 L 543.746094 311.109375 L 542.988281 311.152344 L 542.542969 311.179688 L 541.203125 311.285156 L 540.3125 311.382812 L 539.824219 311.449219 L 539.199219 311.550781 L 538.753906 311.644531 L 538.261719 311.785156 L 537.996094 311.886719 L 537.636719 312.125 L 537.59375 312.746094 L 537.726562 312.878906 L 537.996094 313.019531 L 538.351562 313.144531 L 538.886719 313.277344 L 539.421875 313.378906 L 540.359375 313.511719 L 541.160156 313.601562 L 541.785156 313.660156 L 542.988281 313.753906 L 543.476562 313.785156 L 544.636719 313.847656 L 545.839844 313.894531 L 547.3125 313.9375 L 548.425781 313.957031 L 550.210938 313.976562 L 552.484375 313.976562 L 555.15625 313.957031 L 556.851562 313.925781 L 558.011719 313.898438 L 558.769531 313.875 L 559.703125 313.835938 L 560.371094 313.804688 L 560.996094 313.765625 L 561.753906 313.707031 L 561.753906 312.878906 L 550.742188 312.875 L 550.742188 312.488281 L 567.863281 312.484375 L 567.90625 313.835938 L 566.96875 313.929688 L 565.8125 314.019531 L 564.695312 314.089844 L 563.539062 314.148438 L 561.886719 314.214844 L 560.550781 314.257812 L 558.5 314.304688 L 556.628906 314.335938 L 554.667969 314.355469 L 552.929688 314.367188 L 550.878906 314.371094 L 549.050781 314.363281 L 547.089844 314.34375 L 545.527344 314.316406 L 544.101562 314.28125 L 542.675781 314.234375 L 540.890625 314.164062 L 539.734375 314.105469 L 538.53125 314.03125 L 537.328125 313.945312 L 536.257812 313.851562 L 535.542969 313.777344 L 534.828125 313.695312 L 534.070312 313.589844 L 533.359375 313.472656 L 532.824219 313.367188 L 532.332031 313.246094 L 531.976562 313.132812 L 531.621094 312.976562 L 531.441406 312.851562 L 531.351562 312.742188 Z M 531.351562 312.203125 "/>
<path style=" stroke:none;fill-rule:nonzero;fill:rgb(83.921569%,15.686275%,22.352941%);fill-opacity:1;" d="M 531.351562 294.765625 L 567.90625 294.765625 L 567.90625 295.703125 L 552.671875 295.710938 L 552.671875 303.527344 L 546.542969 303.527344 L 546.542969 295.71875 L 546.453125 295.703125 L 531.351562 295.703125 Z M 531.351562 294.765625 "/>
<path style=" stroke:none;fill-rule:nonzero;fill:rgb(83.921569%,15.686275%,22.352941%);fill-opacity:1;" d="M 569.828125 311.402344 L 606.382812 311.402344 L 606.382812 311.417969 L 591.148438 311.417969 L 591.148438 311.550781 L 585.019531 311.550781 L 585.019531 311.417969 L 569.828125 311.417969 Z M 569.828125 311.402344 "/>
<path style=" stroke:none;fill-rule:nonzero;fill:rgb(6.27451%,58.823529%,28.235294%);fill-opacity:1;" d="M 608.308594 309.628906 L 608.347656 309.628906 L 624.164062 308.257812 L 628.964844 308.257812 L 644.859375 309.632812 L 639.277344 309.632812 L 635.292969 309.273438 L 617.835938 309.273438 L 613.929688 309.628906 L 608.308594 309.628906 L 619.515625 309.125 L 633.691406 309.125 L 626.621094 308.484375 L 626.542969 308.480469 L 626.464844 308.484375 L 619.476562 309.125 L 619.515625 309.125 Z M 608.308594 309.628906 "/>
<path style=" stroke:none;fill-rule:nonzero;fill:rgb(14.509804%,36.078431%,60%);fill-opacity:1;" d="M 608.308594 314.335938 L 608.351562 314.335938 L 608.484375 314.332031 L 608.796875 314.332031 L 609.109375 314.328125 L 609.910156 314.324219 L 611.027344 314.324219 L 612.183594 314.320312 L 613.03125 314.320312 L 613.789062 314.316406 L 616.644531 314.316406 L 617.847656 314.3125 L 636.746094 314.3125 L 638.621094 314.316406 L 640.804688 314.316406 L 641.828125 314.320312 L 642.542969 314.320312 L 643.34375 314.324219 L 644.058594 314.324219 L 644.59375 314.328125 L 644.859375 314.332031 L 638.621094 314.332031 L 638.308594 314.328125 L 637.949219 314.328125 L 637.28125 314.324219 L 636.613281 314.324219 L 635.675781 314.320312 L 633.671875 314.320312 L 632.644531 314.316406 L 622.792969 314.316406 L 621.457031 314.320312 L 618.648438 314.320312 L 617.710938 314.324219 L 616.285156 314.324219 L 615.839844 314.328125 L 615.4375 314.328125 L 615.082031 314.332031 L 614.816406 314.332031 L 614.636719 314.335938 L 614.546875 314.335938 L 614.546875 314.34375 L 614.636719 314.347656 L 614.859375 314.347656 L 615.4375 314.351562 L 616.285156 314.355469 L 617.265625 314.359375 L 619.453125 314.359375 L 620.566406 314.363281 L 634.742188 314.363281 L 635.632812 314.359375 L 636.746094 314.359375 L 637.414062 314.355469 L 637.949219 314.355469 L 638.351562 314.351562 L 644.859375 314.351562 L 644.59375 314.355469 L 643.789062 314.355469 L 643.167969 314.359375 L 642.453125 314.359375 L 641.425781 314.363281 L 640.582031 314.363281 L 639.464844 314.367188 L 634.605469 314.367188 L 633.449219 314.371094 L 621.636719 314.371094 L 619.363281 314.367188 L 615.304688 314.367188 L 614.058594 314.363281 L 612.453125 314.363281 L 611.472656 314.359375 L 610.804688 314.359375 L 610.046875 314.355469 L 609.511719 314.355469 L 608.886719 314.351562 L 608.441406 314.347656 L 608.308594 314.34375 Z M 608.308594 314.335938 "/>
<path style=" stroke:none;fill-rule:nonzero;fill:rgb(96.862745%,70.196078%,16.862745%);fill-opacity:1;" d="M 608.308594 311.117188 L 608.351562 311.117188 L 608.351562 311.105469 L 608.53125 311.074219 L 608.976562 311.035156 L 609.554688 311 L 610.179688 310.972656 L 610.582031 310.960938 L 611.25 310.941406 L 611.828125 310.925781 L 613.300781 310.898438 L 615.171875 310.871094 L 616.195312 310.859375 L 617.355469 310.847656 L 619.003906 310.835938 L 619.761719 310.828125 L 622.082031 310.820312 L 624.710938 310.8125 L 630.773438 310.8125 L 633.269531 310.820312 L 634.695312 310.828125 L 635.8125 310.835938 L 636.96875 310.84375 L 638.394531 310.855469 L 639.734375 310.871094 L 640.804688 310.886719 L 641.875 310.90625 L 642.765625 310.929688 L 643.523438 310.949219 L 644.191406 310.976562 L 644.59375 311 L 644.859375 311.023438 L 638.664062 311.023438 L 638.308594 311 L 637.90625 310.984375 L 637.238281 310.960938 L 636.570312 310.945312 L 635.898438 310.933594 L 634.652344 310.917969 L 633.582031 310.90625 L 632.246094 310.898438 L 630.953125 310.890625 L 629.480469 310.886719 L 626.226562 310.886719 L 624.085938 310.890625 L 622.839844 310.894531 L 621.949219 310.902344 L 620.699219 310.910156 L 619.941406 310.917969 L 619.496094 310.925781 L 618.160156 310.945312 L 617.265625 310.960938 L 616.777344 310.976562 L 616.152344 310.996094 L 615.707031 311.011719 L 615.214844 311.039062 L 614.949219 311.058594 L 614.59375 311.101562 L 614.546875 311.21875 L 614.679688 311.246094 L 614.949219 311.273438 L 615.304688 311.296875 L 615.839844 311.320312 L 616.375 311.339844 L 617.3125 311.363281 L 618.113281 311.382812 L 618.738281 311.394531 L 619.941406 311.410156 L 620.433594 311.417969 L 621.589844 311.429688 L 622.792969 311.4375 L 624.265625 311.445312 L 625.378906 311.449219 L 627.164062 311.453125 L 629.4375 311.453125 L 632.109375 311.449219 L 633.804688 311.445312 L 634.964844 311.4375 L 635.722656 311.433594 L 636.65625 311.425781 L 637.328125 311.417969 L 637.949219 311.414062 L 638.707031 311.402344 L 638.707031 311.246094 L 627.699219 311.246094 L 627.699219 311.171875 L 644.816406 311.171875 L 644.859375 311.425781 L 643.925781 311.445312 L 642.765625 311.460938 L 641.652344 311.472656 L 640.492188 311.484375 L 638.84375 311.496094 L 637.503906 311.503906 L 635.453125 311.515625 L 633.582031 311.519531 L 631.621094 311.523438 L 629.882812 311.527344 L 626.003906 311.527344 L 624.042969 311.523438 L 622.480469 311.515625 L 621.054688 311.511719 L 619.628906 311.5 L 617.847656 311.488281 L 616.6875 311.476562 L 615.484375 311.464844 L 614.28125 311.445312 L 613.210938 311.429688 L 612.496094 311.414062 L 611.785156 311.398438 L 611.027344 311.378906 L 610.3125 311.359375 L 609.777344 311.335938 L 609.289062 311.316406 L 608.929688 311.292969 L 608.574219 311.261719 L 608.394531 311.238281 L 608.308594 311.21875 Z M 608.308594 311.117188 "/>
<path style=" stroke:none;fill-rule:nonzero;fill:rgb(83.921569%,15.686275%,22.352941%);fill-opacity:1;" d="M 608.308594 312.707031 L 644.859375 312.707031 L 644.859375 312.753906 L 629.625 312.753906 L 629.625 313.132812 L 623.496094 313.132812 L 623.496094 312.753906 L 608.308594 312.753906 Z M 608.308594 312.707031 "/>
<path style=" stroke:none;fill-rule:nonzero;fill:rgb(6.27451%,58.823529%,28.235294%);fill-opacity:1;" d="M 646.785156 312.410156 L 646.824219 312.410156 L 662.640625 310.332031 L 667.441406 310.332031 L 683.335938 312.414062 L 677.753906 312.414062 L 673.769531 311.871094 L 656.3125 311.871094 L 652.40625 312.410156 L 646.785156 312.410156 L 657.992188 311.644531 L 672.167969 311.644531 L 665.097656 310.671875 L 665.019531 310.667969 L 664.941406 310.675781 L 657.953125 311.644531 L 657.992188 311.644531 Z M 646.785156 312.410156 "/>
<path style=" stroke:none;fill-rule:nonzero;fill:rgb(14.509804%,36.078431%,60%);fill-opacity:1;" d="M 646.785156 313.929688 L 646.828125 313.929688 L 646.828125 313.914062 L 646.960938 313.886719 L 647.273438 313.851562 L 647.585938 313.828125 L 648.390625 313.785156 L 649.503906 313.746094 L 650.660156 313.714844 L 651.507812 313.695312 L 652.265625 313.683594 L 654.003906 313.65625 L 655.121094 313.644531 L 656.324219 313.628906 L 657.792969 313.617188 L 658.863281 313.613281 L 661.269531 313.601562 L 663.054688 313.59375 L 667.421875 313.59375 L 669.207031 313.597656 L 670.5 313.597656 L 671.925781 313.605469 L 673.128906 313.613281 L 675.222656 313.628906 L 677.097656 313.648438 L 677.941406 313.660156 L 679.28125 313.679688 L 680.304688 313.703125 L 681.019531 313.71875 L 681.820312 313.746094 L 682.535156 313.777344 L 683.070312 313.816406 L 683.335938 313.84375 L 677.097656 313.84375 L 676.785156 313.816406 L 676.425781 313.792969 L 675.757812 313.765625 L 675.089844 313.746094 L 674.152344 313.722656 L 673.308594 313.710938 L 672.148438 313.699219 L 671.121094 313.6875 L 670.054688 313.683594 L 669.027344 313.679688 L 667.066406 313.675781 L 663.945312 313.675781 L 662.207031 313.679688 L 661.269531 313.6875 L 659.933594 313.695312 L 658.996094 313.707031 L 657.882812 313.71875 L 657.125 313.730469 L 656.191406 313.75 L 655.519531 313.765625 L 654.761719 313.789062 L 654.316406 313.808594 L 653.917969 313.828125 L 653.558594 313.851562 L 653.292969 313.875 L 653.113281 313.902344 L 653.023438 313.929688 L 653.023438 314.039062 L 653.113281 314.0625 L 653.335938 314.09375 L 653.917969 314.136719 L 654.761719 314.175781 L 655.742188 314.203125 L 656.679688 314.226562 L 657.214844 314.234375 L 657.929688 314.246094 L 659.042969 314.261719 L 660.648438 314.277344 L 661.582031 314.28125 L 663.011719 314.285156 L 664.480469 314.289062 L 666.441406 314.289062 L 668.179688 314.285156 L 669.339844 314.285156 L 670.542969 314.277344 L 672.191406 314.265625 L 673.21875 314.253906 L 674.109375 314.242188 L 674.777344 314.226562 L 675.222656 314.214844 L 675.894531 314.195312 L 676.425781 314.167969 L 676.828125 314.144531 L 677.097656 314.121094 L 683.335938 314.121094 L 683.070312 314.148438 L 682.667969 314.175781 L 682.265625 314.195312 L 681.644531 314.222656 L 680.929688 314.242188 L 679.90625 314.269531 L 679.058594 314.285156 L 677.941406 314.304688 L 676.917969 314.316406 L 675.804688 314.328125 L 674.152344 314.34375 L 673.085938 314.351562 L 671.925781 314.355469 L 670.542969 314.363281 L 668.804688 314.367188 L 666.933594 314.371094 L 663.320312 314.371094 L 661.941406 314.367188 L 660.113281 314.359375 L 657.839844 314.347656 L 656.191406 314.332031 L 654.898438 314.320312 L 653.78125 314.304688 L 652.535156 314.285156 L 650.929688 314.253906 L 649.949219 314.230469 L 649.28125 314.210938 L 648.523438 314.183594 L 647.988281 314.160156 L 647.363281 314.117188 L 646.917969 314.070312 L 646.785156 314.03125 Z M 646.785156 313.929688 "/>
<path style=" stroke:none;fill-rule:nonzero;fill:rgb(96.862745%,70.196078%,16.862745%);fill-opacity:1;" d="M 646.785156 301.179688 L 646.828125 301.175781 L 646.828125 301.09375 L 647.007812 300.90625 L 647.453125 300.648438 L 648.03125 300.4375 L 648.65625 300.273438 L 649.058594 300.1875 L 649.726562 300.0625 L 650.304688 299.972656 L 651.777344 299.785156 L 653.648438 299.613281 L 654.675781 299.539062 L 655.832031 299.46875 L 657.480469 299.386719 L 658.238281 299.359375 L 660.558594 299.292969 L 663.1875 299.25 L 666.085938 299.238281 L 667.421875 299.242188 L 669.25 299.261719 L 671.746094 299.304688 L 673.171875 299.347656 L 674.289062 299.386719 L 675.445312 299.441406 L 676.875 299.523438 L 678.210938 299.625 L 679.28125 299.722656 L 680.351562 299.847656 L 681.242188 299.980469 L 682 300.125 L 682.667969 300.296875 L 683.070312 300.441406 L 683.335938 300.585938 L 677.140625 300.585938 L 676.785156 300.441406 L 676.382812 300.332031 L 675.714844 300.195312 L 675.046875 300.09375 L 674.378906 300.015625 L 673.128906 299.910156 L 672.058594 299.84375 L 670.722656 299.785156 L 669.429688 299.75 L 667.957031 299.722656 L 667.066406 299.714844 L 664.703125 299.714844 L 662.5625 299.742188 L 661.316406 299.777344 L 660.425781 299.808594 L 659.175781 299.871094 L 658.417969 299.921875 L 657.972656 299.953125 L 656.636719 300.082031 L 655.742188 300.199219 L 655.253906 300.277344 L 654.628906 300.402344 L 654.183594 300.511719 L 653.691406 300.679688 L 653.425781 300.804688 L 653.070312 301.085938 L 653.023438 301.828125 L 653.160156 301.984375 L 653.425781 302.15625 L 653.78125 302.304688 L 654.316406 302.460938 L 654.851562 302.582031 L 655.789062 302.742188 L 656.589844 302.851562 L 657.214844 302.921875 L 658.417969 303.03125 L 658.910156 303.070312 L 660.066406 303.144531 L 661.269531 303.203125 L 662.742188 303.25 L 663.855469 303.277344 L 665.640625 303.296875 L 667.914062 303.296875 L 670.589844 303.273438 L 672.28125 303.238281 L 673.441406 303.207031 L 674.199219 303.175781 L 675.136719 303.132812 L 675.804688 303.089844 L 676.425781 303.042969 L 677.183594 302.972656 L 677.183594 301.984375 L 666.175781 301.980469 L 666.175781 301.519531 L 683.292969 301.515625 L 683.335938 303.132812 L 682.402344 303.242188 L 681.242188 303.351562 L 680.128906 303.433594 L 678.96875 303.503906 L 677.320312 303.582031 L 675.980469 303.632812 L 673.929688 303.691406 L 672.058594 303.726562 L 670.097656 303.753906 L 668.359375 303.765625 L 666.308594 303.769531 L 664.480469 303.761719 L 662.519531 303.734375 L 660.960938 303.703125 L 659.53125 303.660156 L 658.105469 303.605469 L 656.324219 303.519531 L 655.164062 303.449219 L 653.960938 303.363281 L 652.757812 303.261719 L 651.6875 303.148438 L 650.972656 303.0625 L 650.261719 302.960938 L 649.503906 302.839844 L 648.789062 302.699219 L 648.253906 302.570312 L 647.765625 302.425781 L 647.40625 302.289062 L 647.050781 302.101562 L 646.875 301.953125 L 646.785156 301.824219 Z M 646.785156 301.179688 "/>
<path style=" stroke:none;fill-rule:nonzero;fill:rgb(83.921569%,15.686275%,22.352941%);fill-opacity:1;" d="M 646.785156 304.949219 L 683.335938 304.949219 L 683.335938 305.398438 L 668.101562 305.402344 L 668.101562 309.152344 L 661.972656 309.152344 L 661.972656 305.40625 L 661.886719 305.398438 L 646.785156 305.398438 Z M 646.785156 304.949219 "/>
<g style="fill:rgb(0%,0%,0%);fill-opacity:1;">
  <use xlink:href="#glyph0-1" x="21.957031" y="318.198242"/>
  <use xlink:href="#glyph0-2" x="27.291016" y="318.198242"/>
  <use xlink:href="#glyph0-1" x="29.958008" y="318.198242"/>
</g>
<g style="fill:rgb(0%,0%,0%);fill-opacity:1;">
  <use xlink:href="#glyph0-1" x="21.957031" y="244.475586"/>
  <use xlink:href="#glyph0-2" x="27.291016" y="244.475586"/>
  <use xlink:href="#glyph0-3" x="29.958008" y="244.475586"/>
</g>
<g style="fill:rgb(0%,0%,0%);fill-opacity:1;">
  <use xlink:href="#glyph0-4" x="21.957031" y="170.75293"/>
  <use xlink:href="#glyph0-2" x="27.291016" y="170.75293"/>
  <use xlink:href="#glyph0-1" x="29.958008" y="170.75293"/>
</g>
<g style="fill:rgb(0%,0%,0%);fill-opacity:1;">
  <use xlink:href="#glyph0-4" x="21.957031" y="97.03418"/>
  <use xlink:href="#glyph0-2" x="27.291016" y="97.03418"/>
  <use xlink:href="#glyph0-3" x="29.958008" y="97.03418"/>
</g>
<g style="fill:rgb(0%,0%,0%);fill-opacity:1;">
  <use xlink:href="#glyph0-5" x="21.957031" y="23.311523"/>
  <use xlink:href="#glyph0-2" x="27.291016" y="23.311523"/>
  <use xlink:href="#glyph0-1" x="29.958008" y="23.311523"/>
</g>
<g style="fill:rgb(0%,0%,0%);fill-opacity:1;">
  <use xlink:href="#glyph0-4" x="84.90625" y="338.19043"/>
</g>
<g style="fill:rgb(0%,0%,0%);fill-opacity:1;">
  <use xlink:href="#glyph0-5" x="123.382812" y="338.19043"/>
</g>
<g style="fill:rgb(0%,0%,0%);fill-opacity:1;">
  <use xlink:href="#glyph0-6" x="161.859375" y="338.19043"/>
</g>
<g style="fill:rgb(0%,0%,0%);fill-opacity:1;">
  <use xlink:href="#glyph0-7" x="200.335938" y="338.19043"/>
</g>
<g style="fill:rgb(0%,0%,0%);fill-opacity:1;">
  <use xlink:href="#glyph0-3" x="238.8125" y="338.19043"/>
</g>
<g style="fill:rgb(0%,0%,0%);fill-opacity:1;">
  <use xlink:href="#glyph0-8" x="277.289062" y="338.19043"/>
</g>
<g style="fill:rgb(0%,0%,0%);fill-opacity:1;">
  <use xlink:href="#glyph0-9" x="315.769531" y="338.19043"/>
</g>
<g style="fill:rgb(0%,0%,0%);fill-opacity:1;">
  <use xlink:href="#glyph0-10" x="354.246094" y="338.19043"/>
</g>
<g style="fill:rgb(0%,0%,0%);fill-opacity:1;">
  <use xlink:href="#glyph0-11" x="392.722656" y="338.19043"/>
</g>
<g style="fill:rgb(0%,0%,0%);fill-opacity:1;">
  <use xlink:href="#glyph0-4" x="428.699219" y="338.19043"/>
  <use xlink:href="#glyph0-1" x="434.033203" y="338.19043"/>
</g>
<g style="fill:rgb(0%,0%,0%);fill-opacity:1;">
  <use xlink:href="#glyph0-4" x="467.175781" y="338.19043"/>
  <use xlink:href="#glyph0-4" x="472.509766" y="338.19043"/>
</g>
<g style="fill:rgb(0%,0%,0%);fill-opacity:1;">
  <use xlink:href="#glyph0-4" x="505.652344" y="338.19043"/>
  <use xlink:href="#glyph0-5" x="510.986328" y="338.19043"/>
</g>
<g style="fill:rgb(0%,0%,0%);fill-opacity:1;">
  <use xlink:href="#glyph0-4" x="544.128906" y="338.19043"/>
  <use xlink:href="#glyph0-6" x="549.462891" y="338.19043"/>
</g>
<g style="fill:rgb(0%,0%,0%);fill-opacity:1;">
  <use xlink:href="#glyph0-4" x="582.605469" y="338.19043"/>
  <use xlink:href="#glyph0-7" x="587.939453" y="338.19043"/>
</g>
<g style="fill:rgb(0%,0%,0%);fill-opacity:1;">
  <use xlink:href="#glyph0-4" x="621.082031" y="338.19043"/>
  <use xlink:href="#glyph0-3" x="626.416016" y="338.19043"/>
</g>
<g style="fill:rgb(0%,0%,0%);fill-opacity:1;">
  <use xlink:href="#glyph0-4" x="659.558594" y="338.19043"/>
  <use xlink:href="#glyph0-8" x="664.892578" y="338.19043"/>
</g>
<g style="fill:rgb(0%,0%,0%);fill-opacity:1;">
  <use xlink:href="#glyph1-1" x="14.412109" y="178.015625"/>
  <use xlink:href="#glyph1-2" x="14.412109" y="170.011719"/>
  <use xlink:href="#glyph1-3" x="14.412109" y="167.347656"/>
  <use xlink:href="#glyph1-4" x="14.412109" y="164.011719"/>
</g>
</g>
</svg>
