<?xml version="1.0" encoding="UTF-8"?>
<svg xmlns="http://www.w3.org/2000/svg" xmlns:xlink="http://www.w3.org/1999/xlink" width="720pt" height="360pt" viewBox="0 0 720 360" version="1.1">
<defs>
<g>
<symbol overflow="visible" id="glyph0-0">
<path style="stroke:none;" d=""/>
</symbol>
<symbol overflow="visible" id="glyph0-1">
<path style="stroke:none;" d="M 2.640625 -6.796875 C 2 -6.796875 1.421875 -6.53125 1.078125 -6.046875 C 0.640625 -5.453125 0.40625 -4.546875 0.40625 -3.296875 C 0.40625 -1 1.1875 0.21875 2.640625 0.21875 C 4.078125 0.21875 4.859375 -1 4.859375 -3.234375 C 4.859375 -4.5625 4.65625 -5.4375 4.203125 -6.046875 C 3.84375 -6.53125 3.28125 -6.796875 2.640625 -6.796875 Z M 2.640625 -6.046875 C 3.546875 -6.046875 4 -5.125 4 -3.3125 C 4 -1.375 3.5625 -0.484375 2.625 -0.484375 C 1.734375 -0.484375 1.28125 -1.421875 1.28125 -3.28125 C 1.28125 -5.140625 1.734375 -6.046875 2.640625 -6.046875 Z M 2.640625 -6.046875 "/>
</symbol>
<symbol overflow="visible" id="glyph0-2">
<path style="stroke:none;" d="M 1.828125 -1 L 0.828125 -1 L 0.828125 0 L 1.828125 0 Z M 1.828125 -1 "/>
</symbol>
<symbol overflow="visible" id="glyph0-3">
<path style="stroke:none;" d="M 4.5625 -6.796875 L 1.0625 -6.796875 L 0.546875 -3.09375 L 1.328125 -3.09375 C 1.71875 -3.5625 2.046875 -3.734375 2.578125 -3.734375 C 3.484375 -3.734375 4.0625 -3.109375 4.0625 -2.09375 C 4.0625 -1.125 3.484375 -0.53125 2.578125 -0.53125 C 1.828125 -0.53125 1.375 -0.90625 1.1875 -1.671875 L 0.328125 -1.671875 C 0.453125 -1.109375 0.546875 -0.84375 0.75 -0.59375 C 1.125 -0.078125 1.828125 0.21875 2.59375 0.21875 C 3.96875 0.21875 4.921875 -0.78125 4.921875 -2.21875 C 4.921875 -3.5625 4.03125 -4.484375 2.71875 -4.484375 C 2.25 -4.484375 1.859375 -4.359375 1.46875 -4.0625 L 1.734375 -5.96875 L 4.5625 -5.96875 Z M 4.5625 -6.796875 "/>
</symbol>
<symbol overflow="visible" id="glyph0-4">
<path style="stroke:none;" d="M 2.484375 -4.84375 L 2.484375 0 L 3.328125 0 L 3.328125 -6.796875 L 2.765625 -6.796875 C 2.46875 -5.75 2.28125 -5.609375 0.984375 -5.453125 L 0.984375 -4.84375 Z M 2.484375 -4.84375 "/>
</symbol>
<symbol overflow="visible" id="glyph0-5">
<path style="stroke:none;" d="M 4.859375 -0.828125 L 1.28125 -0.828125 C 1.359375 -1.390625 1.671875 -1.75 2.5 -2.234375 L 3.46875 -2.75 C 4.40625 -3.265625 4.90625 -3.96875 4.90625 -4.8125 C 4.90625 -5.375 4.671875 -5.90625 4.265625 -6.265625 C 3.859375 -6.625 3.375 -6.796875 2.71875 -6.796875 C 1.859375 -6.796875 1.21875 -6.5 0.84375 -5.921875 C 0.609375 -5.5625 0.5 -5.125 0.484375 -4.4375 L 1.328125 -4.4375 C 1.359375 -4.90625 1.40625 -5.1875 1.53125 -5.40625 C 1.75 -5.8125 2.1875 -6.0625 2.703125 -6.0625 C 3.46875 -6.0625 4.03125 -5.515625 4.03125 -4.78125 C 4.03125 -4.25 3.71875 -3.796875 3.125 -3.4375 L 2.234375 -2.9375 C 0.8125 -2.140625 0.40625 -1.5 0.328125 0 L 4.859375 0 Z M 4.859375 -0.828125 "/>
</symbol>
<symbol overflow="visible" id="glyph0-6">
<path style="stroke:none;" d="M 2.125 -3.125 L 2.578125 -3.125 C 3.515625 -3.125 3.984375 -2.703125 3.984375 -1.890625 C 3.984375 -1.03125 3.46875 -0.53125 2.578125 -0.53125 C 1.65625 -0.53125 1.203125 -0.984375 1.15625 -1.96875 L 0.3125 -1.96875 C 0.34375 -1.421875 0.4375 -1.078125 0.609375 -0.765625 C 0.953125 -0.109375 1.625 0.21875 2.546875 0.21875 C 3.953125 0.21875 4.859375 -0.609375 4.859375 -1.90625 C 4.859375 -2.765625 4.515625 -3.25 3.703125 -3.515625 C 4.34375 -3.765625 4.65625 -4.25 4.65625 -4.9375 C 4.65625 -6.109375 3.875 -6.796875 2.578125 -6.796875 C 1.203125 -6.796875 0.484375 -6.046875 0.453125 -4.609375 L 1.296875 -4.609375 C 1.3125 -5.015625 1.34375 -5.25 1.453125 -5.453125 C 1.640625 -5.828125 2.0625 -6.0625 2.59375 -6.0625 C 3.34375 -6.0625 3.796875 -5.625 3.796875 -4.90625 C 3.796875 -4.421875 3.609375 -4.140625 3.25 -3.984375 C 3.015625 -3.890625 2.71875 -3.84375 2.125 -3.84375 Z M 2.125 -3.125 "/>
</symbol>
<symbol overflow="visible" id="glyph0-7">
<path style="stroke:none;" d="M 3.140625 -1.625 L 3.140625 0 L 3.984375 0 L 3.984375 -1.625 L 4.984375 -1.625 L 4.984375 -2.390625 L 3.984375 -2.390625 L 3.984375 -6.796875 L 3.359375 -6.796875 L 0.265625 -2.515625 L 0.265625 -1.625 Z M 3.140625 -2.390625 L 1 -2.390625 L 3.140625 -5.359375 Z M 3.140625 -2.390625 "/>
</symbol>
<symbol overflow="visible" id="glyph0-8">
<path style="stroke:none;" d="M 4.78125 -5.03125 C 4.609375 -6.140625 3.890625 -6.796875 2.84375 -6.796875 C 2.09375 -6.796875 1.421875 -6.4375 1.03125 -5.828125 C 0.609375 -5.171875 0.40625 -4.34375 0.40625 -3.09375 C 0.40625 -1.953125 0.578125 -1.234375 0.984375 -0.625 C 1.359375 -0.078125 1.953125 0.21875 2.703125 0.21875 C 3.984375 0.21875 4.921875 -0.734375 4.921875 -2.078125 C 4.921875 -3.34375 4.0625 -4.234375 2.84375 -4.234375 C 2.171875 -4.234375 1.640625 -3.96875 1.28125 -3.46875 C 1.28125 -5.125 1.828125 -6.046875 2.796875 -6.046875 C 3.390625 -6.046875 3.796875 -5.671875 3.9375 -5.03125 Z M 2.734375 -3.484375 C 3.546875 -3.484375 4.0625 -2.921875 4.0625 -2 C 4.0625 -1.15625 3.484375 -0.53125 2.703125 -0.53125 C 1.921875 -0.53125 1.328125 -1.1875 1.328125 -2.046875 C 1.328125 -2.890625 1.90625 -3.484375 2.734375 -3.484375 Z M 2.734375 -3.484375 "/>
</symbol>
<symbol overflow="visible" id="glyph1-0">
<path style="stroke:none;" d=""/>
</symbol>
<symbol overflow="visible" id="glyph1-1">
<path style="stroke:none;" d="M 0 -0.953125 L 0 -4.890625 C 0 -5.71875 -0.234375 -6.34375 -0.734375 -6.796875 C -1.1875 -7.234375 -1.8125 -7.46875 -2.5 -7.46875 C -3.546875 -7.46875 -4.1875 -7 -4.625 -5.875 C -4.984375 -6.671875 -5.640625 -7.09375 -6.53125 -7.09375 C -7.15625 -7.09375 -7.734375 -6.859375 -8.140625 -6.390625 C -8.5625 -5.9375 -8.75 -5.34375 -8.75 -4.5 L -8.75 -0.953125 Z M -4.984375 -2.0625 L -7.765625 -2.0625 L -7.765625 -4.21875 C -7.765625 -4.84375 -7.6875 -5.203125 -7.453125 -5.5 C -7.21875 -5.8125 -6.859375 -5.96875 -6.375 -5.96875 C -5.90625 -5.96875 -5.53125 -5.8125 -5.296875 -5.5 C -5.0625 -5.203125 -4.984375 -4.84375 -4.984375 -4.21875 Z M -0.984375 -2.0625 L -4 -2.0625 L -4 -4.78125 C -4 -5.328125 -3.859375 -5.6875 -3.578125 -5.953125 C -3.296875 -6.21875 -2.921875 -6.359375 -2.484375 -6.359375 C -2.0625 -6.359375 -1.6875 -6.21875 -1.40625 -5.953125 C -1.109375 -5.6875 -0.984375 -5.328125 -0.984375 -4.78125 Z M -0.984375 -2.0625 "/>
</symbol>
<symbol overflow="visible" id="glyph1-2">
<path style="stroke:none;" d="M -6.28125 -1.796875 L -6.28125 -0.796875 L 0 -0.796875 L 0 -1.796875 Z M -8.75 -1.796875 L -8.75 -0.796875 L -7.484375 -0.796875 L -7.484375 -1.796875 Z M -8.75 -1.796875 "/>
</symbol>
<symbol overflow="visible" id="glyph1-3">
<path style="stroke:none;" d="M -6.28125 -3.046875 L -6.28125 -2.015625 L -8.015625 -2.015625 L -8.015625 -1.015625 L -6.28125 -1.015625 L -6.28125 -0.171875 L -5.46875 -0.171875 L -5.46875 -1.015625 L -0.71875 -1.015625 C -0.078125 -1.015625 0.28125 -1.453125 0.28125 -2.234375 C 0.28125 -2.46875 0.25 -2.71875 0.1875 -3.046875 L -0.640625 -3.046875 C -0.609375 -2.921875 -0.59375 -2.765625 -0.59375 -2.5625 C -0.59375 -2.140625 -0.71875 -2.015625 -1.15625 -2.015625 L -5.46875 -2.015625 L -5.46875 -3.046875 Z M -6.28125 -3.046875 "/>
</symbol>
<symbol overflow="visible" id="glyph1-4">
<path style="stroke:none;" d="M -4.53125 -5.25 C -5.765625 -5.25 -6.46875 -4.421875 -6.46875 -2.96875 C -6.46875 -1.515625 -5.71875 -0.5625 -4.546875 -0.5625 C -3.5625 -0.5625 -3.09375 -1.0625 -2.734375 -2.5625 L -2.515625 -3.484375 C -2.34375 -4.1875 -2.09375 -4.46875 -1.625 -4.46875 C -1.046875 -4.46875 -0.640625 -3.875 -0.640625 -3 C -0.640625 -2.453125 -0.796875 -2 -1.0625 -1.75 C -1.25 -1.59375 -1.421875 -1.53125 -1.875 -1.46875 L -1.875 -0.40625 C -0.421875 -0.453125 0.28125 -1.265625 0.28125 -2.921875 C 0.28125 -4.5 -0.5 -5.515625 -1.71875 -5.515625 C -2.65625 -5.515625 -3.171875 -4.984375 -3.46875 -3.734375 L -3.703125 -2.765625 C -3.890625 -1.953125 -4.15625 -1.609375 -4.59375 -1.609375 C -5.171875 -1.609375 -5.546875 -2.125 -5.546875 -2.9375 C -5.546875 -3.75 -5.203125 -4.171875 -4.53125 -4.203125 Z M -4.53125 -5.25 "/>
</symbol>
</g>
</defs>
<g id="surface45763">
<rect x="0" y="0" width="720" height="360" style="fill:rgb(100%,100%,100%);fill-opacity:1;stroke:none;"/>
<path style=" stroke:none;fill-rule:nonzero;fill:rgb(6.27451%,58.823529%,28.235294%);fill-opacity:1;" d="M 69.628906 310.890625 L 69.734375 310.886719 L 112.132812 307.945312 L 125.007812 307.945312 L 167.617188 310.894531 L 152.644531 310.894531 L 141.96875 310.125 L 95.171875 310.125 L 84.703125 310.890625 L 69.628906 310.890625 L 99.675781 309.804688 L 137.675781 309.804688 L 118.726562 308.425781 L 118.519531 308.421875 L 118.308594 308.433594 L 99.570312 309.804688 L 99.675781 309.804688 Z M 69.628906 310.890625 "/>
<path style=" stroke:none;fill-rule:nonzero;fill:rgb(14.509804%,36.078431%,60%);fill-opacity:1;" d="M 69.628906 295.824219 L 69.75 295.816406 L 69.75 295.625 L 70.105469 295.328125 L 70.945312 294.949219 L 71.78125 294.691406 L 73.929688 294.226562 L 76.917969 293.777344 L 80.027344 293.433594 L 82.296875 293.230469 L 84.328125 293.070312 L 88.988281 292.78125 L 91.976562 292.632812 L 95.203125 292.5 L 99.144531 292.363281 L 102.011719 292.285156 L 108.464844 292.160156 L 113.246094 292.105469 L 116.949219 292.082031 L 124.957031 292.082031 L 129.734375 292.113281 L 133.203125 292.152344 L 137.023438 292.214844 L 140.25 292.285156 L 145.867188 292.457031 L 150.886719 292.679688 L 153.15625 292.804688 L 156.742188 293.046875 L 159.492188 293.285156 L 161.402344 293.488281 L 163.554688 293.777344 L 165.464844 294.132812 L 166.898438 294.535156 L 167.617188 294.871094 L 150.886719 294.871094 L 150.050781 294.558594 L 149.09375 294.3125 L 147.300781 293.992188 L 145.507812 293.761719 L 143 293.535156 L 140.730469 293.386719 L 137.621094 293.238281 L 134.875 293.144531 L 132.007812 293.070312 L 129.257812 293.023438 L 124 292.976562 L 117.90625 292.976562 L 115.636719 292.992188 L 110.976562 293.054688 L 108.464844 293.109375 L 104.878906 293.222656 L 102.371094 293.324219 L 99.382812 293.480469 L 97.351562 293.613281 L 94.84375 293.820312 L 93.050781 294 L 91.019531 294.257812 L 89.824219 294.457031 L 88.75 294.675781 L 87.792969 294.933594 L 87.074219 295.210938 L 86.597656 295.5 L 86.359375 295.785156 L 86.359375 297.003906 L 86.597656 297.285156 L 87.195312 297.613281 L 88.75 298.09375 L 91.019531 298.511719 L 93.648438 298.839844 L 96.15625 299.078125 L 97.589844 299.1875 L 99.503906 299.3125 L 102.492188 299.46875 L 106.792969 299.628906 L 109.300781 299.691406 L 113.125 299.753906 L 117.070312 299.785156 L 122.328125 299.785156 L 126.988281 299.753906 L 130.09375 299.714844 L 133.320312 299.652344 L 137.742188 299.515625 L 140.492188 299.390625 L 142.878906 299.242188 L 144.671875 299.09375 L 145.867188 298.96875 L 147.660156 298.722656 L 149.09375 298.457031 L 150.167969 298.179688 L 150.886719 297.914062 L 167.617188 297.914062 L 166.898438 298.226562 L 165.824219 298.535156 L 164.75 298.761719 L 163.074219 299.039062 L 161.164062 299.28125 L 158.414062 299.554688 L 156.144531 299.738281 L 153.15625 299.933594 L 150.410156 300.082031 L 147.421875 300.21875 L 143 300.375 L 140.132812 300.453125 L 137.023438 300.523438 L 133.320312 300.585938 L 128.660156 300.640625 L 123.640625 300.671875 L 118.980469 300.679688 L 113.960938 300.664062 L 110.257812 300.632812 L 105.359375 300.5625 L 99.265625 300.421875 L 94.84375 300.273438 L 91.378906 300.121094 L 88.390625 299.964844 L 85.042969 299.753906 L 80.742188 299.40625 L 78.113281 299.140625 L 76.320312 298.917969 L 74.289062 298.613281 L 72.855469 298.339844 L 71.183594 297.898438 L 69.988281 297.339844 L 69.628906 296.90625 Z M 69.628906 295.824219 "/>
<path style=" stroke:none;fill-rule:nonzero;fill:rgb(96.862745%,70.196078%,16.862745%);fill-opacity:1;" d="M 69.628906 303.960938 L 69.75 303.957031 L 69.75 303.867188 L 70.226562 303.664062 L 71.421875 303.386719 L 72.976562 303.160156 L 74.648438 302.980469 L 75.722656 302.886719 L 77.515625 302.75 L 79.070312 302.652344 L 83.011719 302.453125 L 88.03125 302.261719 L 90.78125 302.183594 L 93.886719 302.105469 L 98.308594 302.019531 L 100.339844 301.988281 L 106.554688 301.917969 L 113.605469 301.875 L 121.371094 301.859375 L 124.957031 301.863281 L 129.855469 301.882812 L 136.546875 301.933594 L 140.371094 301.976562 L 143.359375 302.019531 L 146.464844 302.078125 L 150.289062 302.167969 L 153.875 302.277344 L 156.742188 302.382812 L 159.609375 302.519531 L 162 302.660156 L 164.03125 302.820312 L 165.824219 303.007812 L 166.898438 303.164062 L 167.617188 303.320312 L 151.007812 303.320312 L 150.050781 303.164062 L 148.976562 303.042969 L 147.183594 302.894531 L 145.390625 302.789062 L 143.597656 302.703125 L 140.25 302.585938 L 137.382812 302.515625 L 133.800781 302.453125 L 130.332031 302.410156 L 126.390625 302.382812 L 124 302.375 L 117.667969 302.375 L 111.929688 302.40625 L 108.585938 302.441406 L 106.195312 302.476562 L 102.847656 302.546875 L 100.816406 302.597656 L 99.621094 302.636719 L 96.039062 302.773438 L 93.648438 302.898438 L 92.332031 302.984375 L 90.660156 303.117188 L 89.464844 303.238281 L 88.152344 303.417969 L 87.433594 303.554688 L 86.476562 303.859375 L 86.359375 304.664062 L 86.71875 304.835938 L 87.433594 305.019531 L 88.390625 305.179688 L 89.824219 305.347656 L 91.257812 305.480469 L 93.769531 305.652344 L 95.917969 305.769531 L 97.589844 305.847656 L 100.816406 305.96875 L 102.132812 306.007812 L 105.238281 306.089844 L 108.464844 306.152344 L 112.410156 306.207031 L 115.394531 306.230469 L 120.175781 306.253906 L 126.269531 306.253906 L 133.441406 306.226562 L 137.980469 306.191406 L 141.089844 306.15625 L 143.121094 306.125 L 145.628906 306.074219 L 147.421875 306.03125 L 149.09375 305.980469 L 151.125 305.90625 L 151.125 304.835938 L 121.609375 304.828125 L 121.609375 304.328125 L 167.496094 304.324219 L 167.617188 306.074219 L 165.105469 306.195312 L 162 306.3125 L 159.011719 306.402344 L 155.90625 306.476562 L 151.484375 306.5625 L 147.898438 306.617188 L 142.402344 306.679688 L 137.382812 306.71875 L 132.125 306.746094 L 127.464844 306.761719 L 121.96875 306.765625 L 117.070312 306.757812 L 111.8125 306.730469 L 107.628906 306.695312 L 103.804688 306.648438 L 99.980469 306.589844 L 95.203125 306.496094 L 92.09375 306.421875 L 88.867188 306.324219 L 85.640625 306.214844 L 82.773438 306.09375 L 80.863281 306 L 78.949219 305.890625 L 76.917969 305.757812 L 75.007812 305.605469 L 73.574219 305.464844 L 72.257812 305.308594 L 71.300781 305.160156 L 70.347656 304.960938 L 69.867188 304.796875 L 69.628906 304.660156 Z M 69.628906 303.960938 "/>
<path style=" stroke:none;fill-rule:nonzero;fill:rgb(83.921569%,15.686275%,22.352941%);fill-opacity:1;" d="M 69.628906 312.074219 L 167.617188 312.074219 L 167.617188 312.320312 L 126.777344 312.320312 L 126.777344 314.371094 L 110.347656 314.371094 L 110.347656 312.324219 L 110.109375 312.320312 L 69.628906 312.320312 Z M 69.628906 312.074219 "/>
<path style=" stroke:none;fill-rule:nonzero;fill:rgb(6.27451%,58.823529%,28.235294%);fill-opacity:1;" d="M 172.773438 286.464844 L 172.878906 286.433594 L 215.277344 252.832031 L 228.152344 252.832031 L 270.761719 286.496094 L 255.789062 286.496094 L 245.113281 277.707031 L 198.316406 277.707031 L 187.847656 286.464844 L 172.773438 286.464844 L 202.820312 274.074219 L 240.820312 274.042969 L 221.871094 258.332031 L 221.664062 258.300781 L 221.453125 258.394531 L 202.714844 274.042969 L 202.820312 274.074219 Z M 172.773438 286.464844 "/>
<path style=" stroke:none;fill-rule:nonzero;fill:rgb(14.509804%,36.078431%,60%);fill-opacity:1;" d="M 172.773438 310.773438 L 172.894531 310.765625 L 172.894531 310.625 L 173.25 310.40625 L 174.089844 310.125 L 174.925781 309.933594 L 177.074219 309.589844 L 180.0625 309.257812 L 183.167969 309.003906 L 185.441406 308.851562 L 187.472656 308.734375 L 192.132812 308.519531 L 195.121094 308.410156 L 198.34375 308.308594 L 202.289062 308.210938 L 205.15625 308.152344 L 211.609375 308.058594 L 216.390625 308.019531 L 220.09375 308 L 228.101562 308 L 232.878906 308.023438 L 236.34375 308.054688 L 240.167969 308.101562 L 243.394531 308.152344 L 249.011719 308.28125 L 254.03125 308.441406 L 256.300781 308.535156 L 259.886719 308.71875 L 262.632812 308.890625 L 264.546875 309.042969 L 266.699219 309.257812 L 268.609375 309.519531 L 270.042969 309.816406 L 270.761719 310.066406 L 254.03125 310.066406 L 253.195312 309.835938 L 252.238281 309.65625 L 250.445312 309.414062 L 248.652344 309.246094 L 246.144531 309.078125 L 243.875 308.96875 L 240.765625 308.855469 L 238.019531 308.785156 L 235.152344 308.734375 L 232.402344 308.699219 L 227.144531 308.664062 L 221.050781 308.664062 L 218.78125 308.675781 L 214.121094 308.722656 L 211.609375 308.761719 L 208.023438 308.84375 L 205.515625 308.921875 L 202.527344 309.039062 L 200.496094 309.136719 L 197.988281 309.289062 L 196.195312 309.421875 L 194.164062 309.613281 L 192.96875 309.757812 L 191.894531 309.921875 L 190.9375 310.113281 L 190.21875 310.316406 L 189.742188 310.535156 L 189.503906 310.742188 L 189.503906 311.644531 L 189.742188 311.855469 L 190.339844 312.101562 L 191.894531 312.453125 L 194.164062 312.761719 L 196.792969 313.007812 L 199.300781 313.183594 L 200.734375 313.265625 L 202.648438 313.359375 L 205.636719 313.472656 L 209.9375 313.589844 L 212.445312 313.636719 L 216.269531 313.683594 L 220.214844 313.707031 L 225.472656 313.707031 L 230.132812 313.683594 L 233.238281 313.65625 L 236.464844 313.609375 L 240.886719 313.507812 L 243.636719 313.414062 L 246.023438 313.304688 L 247.816406 313.195312 L 249.011719 313.101562 L 250.804688 312.921875 L 252.238281 312.722656 L 253.3125 312.519531 L 254.03125 312.320312 L 270.761719 312.320312 L 270.042969 312.554688 L 268.96875 312.78125 L 267.890625 312.949219 L 266.21875 313.152344 L 264.308594 313.335938 L 261.558594 313.539062 L 259.289062 313.671875 L 256.300781 313.816406 L 253.554688 313.929688 L 250.566406 314.027344 L 246.144531 314.144531 L 243.277344 314.203125 L 240.167969 314.253906 L 236.464844 314.300781 L 231.804688 314.339844 L 226.785156 314.363281 L 222.125 314.371094 L 217.105469 314.359375 L 213.402344 314.335938 L 208.503906 314.285156 L 202.410156 314.179688 L 197.988281 314.066406 L 194.523438 313.957031 L 191.535156 313.839844 L 188.1875 313.683594 L 183.886719 313.425781 L 181.257812 313.230469 L 179.464844 313.066406 L 177.433594 312.839844 L 176 312.636719 L 174.328125 312.308594 L 173.132812 311.894531 L 172.773438 311.574219 Z M 172.773438 310.773438 "/>
<path style=" stroke:none;fill-rule:nonzero;fill:rgb(96.862745%,70.196078%,16.862745%);fill-opacity:1;" d="M 172.773438 292.394531 L 172.894531 292.382812 L 172.894531 292.183594 L 173.371094 291.730469 L 174.566406 291.105469 L 176.121094 290.59375 L 177.792969 290.191406 L 178.867188 289.980469 L 180.660156 289.675781 L 182.214844 289.457031 L 186.15625 289.003906 L 191.175781 288.582031 L 193.925781 288.398438 L 197.03125 288.230469 L 201.453125 288.039062 L 203.484375 287.96875 L 209.699219 287.804688 L 216.75 287.707031 L 224.515625 287.675781 L 228.101562 287.6875 L 233 287.726562 L 239.691406 287.835938 L 243.515625 287.9375 L 246.503906 288.039062 L 249.609375 288.167969 L 253.433594 288.371094 L 257.019531 288.609375 L 259.886719 288.851562 L 262.753906 289.15625 L 265.144531 289.476562 L 267.175781 289.828125 L 268.96875 290.25 L 270.042969 290.601562 L 270.761719 290.957031 L 254.152344 290.957031 L 253.195312 290.601562 L 252.117188 290.332031 L 250.328125 290 L 248.535156 289.757812 L 246.742188 289.566406 L 243.394531 289.304688 L 240.527344 289.144531 L 236.941406 289.003906 L 233.476562 288.914062 L 229.535156 288.851562 L 227.144531 288.832031 L 220.8125 288.832031 L 215.074219 288.902344 L 211.730469 288.984375 L 209.339844 289.0625 L 205.992188 289.214844 L 203.960938 289.335938 L 202.765625 289.417969 L 199.183594 289.726562 L 196.792969 290.007812 L 195.476562 290.199219 L 193.804688 290.503906 L 192.609375 290.773438 L 191.296875 291.175781 L 190.578125 291.476562 L 189.621094 292.164062 L 189.503906 293.972656 L 189.863281 294.355469 L 190.578125 294.769531 L 191.535156 295.128906 L 192.96875 295.511719 L 194.402344 295.804688 L 196.910156 296.195312 L 199.0625 296.457031 L 200.734375 296.628906 L 203.960938 296.902344 L 205.277344 296.992188 L 208.382812 297.171875 L 211.609375 297.3125 L 215.554688 297.433594 L 218.539062 297.492188 L 223.320312 297.542969 L 229.414062 297.542969 L 236.585938 297.484375 L 241.125 297.402344 L 244.230469 297.324219 L 246.265625 297.253906 L 248.773438 297.140625 L 250.566406 297.042969 L 252.238281 296.929688 L 254.269531 296.757812 L 254.269531 294.355469 L 224.753906 294.34375 L 224.753906 293.21875 L 270.640625 293.207031 L 270.761719 297.140625 L 268.25 297.414062 L 265.144531 297.675781 L 262.15625 297.875 L 259.050781 298.046875 L 254.628906 298.238281 L 251.042969 298.359375 L 245.546875 298.5 L 240.527344 298.589844 L 235.269531 298.652344 L 230.609375 298.679688 L 225.113281 298.691406 L 220.214844 298.671875 L 214.957031 298.609375 L 210.773438 298.53125 L 206.949219 298.429688 L 203.125 298.300781 L 198.34375 298.085938 L 195.238281 297.917969 L 192.011719 297.707031 L 188.785156 297.453125 L 185.917969 297.183594 L 184.007812 296.972656 L 182.09375 296.730469 L 180.0625 296.429688 L 178.152344 296.085938 L 176.71875 295.773438 L 175.402344 295.421875 L 174.445312 295.089844 L 173.492188 294.636719 L 173.011719 294.273438 L 172.773438 293.964844 Z M 172.773438 292.394531 "/>
<path style=" stroke:none;fill-rule:nonzero;fill:rgb(83.921569%,15.686275%,22.352941%);fill-opacity:1;" d="M 172.773438 299.871094 L 270.761719 299.871094 L 270.761719 300.613281 L 229.921875 300.621094 L 229.921875 306.820312 L 213.492188 306.820312 L 213.492188 300.628906 L 213.253906 300.613281 L 172.773438 300.613281 Z M 172.773438 299.871094 "/>
<path style=" stroke:none;fill-rule:nonzero;fill:rgb(6.27451%,58.823529%,28.235294%);fill-opacity:1;" d="M 275.917969 310.246094 L 276.023438 310.238281 L 318.421875 301.140625 L 331.296875 301.140625 L 373.90625 310.253906 L 358.933594 310.253906 L 348.257812 307.875 L 301.460938 307.875 L 290.992188 310.246094 L 275.917969 310.246094 L 305.960938 306.890625 L 343.964844 306.882812 L 325.015625 302.628906 L 324.804688 302.621094 L 324.597656 302.648438 L 305.859375 306.882812 L 305.960938 306.890625 Z M 275.917969 310.246094 "/>
<path style=" stroke:none;fill-rule:nonzero;fill:rgb(14.509804%,36.078431%,60%);fill-opacity:1;" d="M 275.917969 173.335938 L 276.039062 173.167969 L 276.039062 169.128906 L 276.394531 162.738281 L 277.230469 154.660156 L 278.070312 149.109375 L 280.21875 139.179688 L 283.207031 129.589844 L 286.3125 122.1875 L 288.585938 117.8125 L 290.617188 114.445312 L 295.277344 108.222656 L 298.261719 105.023438 L 301.488281 102.164062 L 305.433594 99.304688 L 308.300781 97.621094 L 314.753906 94.929688 L 319.535156 93.75 L 323.238281 93.246094 L 331.246094 93.246094 L 336.023438 93.917969 L 339.488281 94.761719 L 343.3125 96.105469 L 346.539062 97.621094 L 352.15625 101.324219 L 357.175781 106.035156 L 359.445312 108.726562 L 363.03125 113.941406 L 365.777344 118.988281 L 367.691406 123.363281 L 369.839844 129.589844 L 371.753906 137.160156 L 373.1875 145.742188 L 373.90625 152.976562 L 357.175781 152.976562 L 356.339844 146.246094 L 355.382812 141.03125 L 353.589844 134.132812 L 351.796875 129.253906 L 349.289062 124.375 L 347.019531 121.175781 L 343.910156 117.980469 L 341.164062 115.960938 L 338.292969 114.445312 L 335.546875 113.4375 L 330.289062 112.429688 L 324.195312 112.429688 L 321.921875 112.765625 L 317.261719 114.109375 L 314.753906 115.289062 L 311.167969 117.644531 L 308.660156 119.832031 L 305.671875 123.195312 L 303.640625 126.058594 L 301.132812 130.429688 L 299.339844 134.300781 L 297.308594 139.855469 L 296.113281 144.058594 L 295.035156 148.773438 L 294.082031 154.324219 L 293.363281 160.214844 L 292.886719 166.4375 L 292.648438 172.496094 L 292.648438 198.574219 L 292.886719 204.632812 L 293.484375 211.699219 L 295.035156 221.964844 L 297.308594 230.882812 L 299.9375 237.949219 L 302.445312 242.996094 L 303.878906 245.351562 L 305.792969 248.042969 L 308.777344 251.410156 L 313.082031 254.773438 L 315.589844 256.121094 L 319.414062 257.464844 L 323.359375 258.140625 L 328.617188 258.140625 L 333.277344 257.464844 L 336.382812 256.625 L 339.609375 255.277344 L 344.03125 252.417969 L 346.777344 249.726562 L 349.167969 246.527344 L 350.960938 243.332031 L 352.15625 240.640625 L 353.949219 235.425781 L 355.382812 229.703125 L 356.457031 223.8125 L 357.175781 218.09375 L 373.90625 218.09375 L 373.1875 224.824219 L 372.113281 231.386719 L 371.035156 236.265625 L 369.363281 242.15625 L 367.453125 247.371094 L 364.703125 253.257812 L 362.433594 257.128906 L 359.445312 261.335938 L 356.695312 264.53125 L 353.710938 267.394531 L 349.289062 270.757812 L 346.421875 272.441406 L 343.3125 273.953125 L 339.609375 275.300781 L 334.949219 276.480469 L 329.929688 277.152344 L 325.269531 277.320312 L 320.25 276.984375 L 316.546875 276.308594 L 311.648438 274.796875 L 305.550781 271.765625 L 301.132812 268.570312 L 297.664062 265.375 L 294.679688 262.007812 L 291.332031 257.464844 L 287.03125 250.0625 L 284.402344 244.339844 L 282.609375 239.628906 L 280.578125 233.070312 L 279.144531 227.179688 L 277.472656 217.757812 L 276.277344 205.8125 L 275.917969 196.554688 Z M 275.917969 173.335938 "/>
<path style=" stroke:none;fill-rule:nonzero;fill:rgb(96.862745%,70.196078%,16.862745%);fill-opacity:1;" d="M 275.917969 287.691406 L 276.039062 287.671875 L 276.039062 287.28125 L 276.515625 286.398438 L 277.710938 285.183594 L 279.261719 284.183594 L 280.9375 283.398438 L 282.011719 282.988281 L 283.804688 282.398438 L 285.359375 281.96875 L 289.300781 281.085938 L 294.320312 280.261719 L 297.070312 279.910156 L 300.175781 279.578125 L 304.597656 279.207031 L 306.628906 279.066406 L 312.84375 278.753906 L 319.890625 278.558594 L 327.660156 278.5 L 331.246094 278.519531 L 336.144531 278.597656 L 342.835938 278.8125 L 346.660156 279.007812 L 349.648438 279.207031 L 352.753906 279.460938 L 356.578125 279.851562 L 360.164062 280.324219 L 363.03125 280.792969 L 365.898438 281.382812 L 368.289062 282.007812 L 370.320312 282.695312 L 372.113281 283.515625 L 373.1875 284.203125 L 373.90625 284.890625 L 357.292969 284.890625 L 356.339844 284.203125 L 355.261719 283.675781 L 353.472656 283.027344 L 351.679688 282.558594 L 349.886719 282.183594 L 346.539062 281.675781 L 343.671875 281.359375 L 340.085938 281.085938 L 336.621094 280.910156 L 332.679688 280.792969 L 330.289062 280.753906 L 323.957031 280.753906 L 318.21875 280.890625 L 314.875 281.046875 L 312.484375 281.203125 L 309.136719 281.5 L 307.105469 281.734375 L 305.910156 281.890625 L 302.328125 282.5 L 299.9375 283.046875 L 298.621094 283.417969 L 296.949219 284.007812 L 295.753906 284.535156 L 294.441406 285.320312 L 293.722656 285.910156 L 292.765625 287.242188 L 292.648438 290.769531 L 293.003906 291.515625 L 293.722656 292.316406 L 294.679688 293.023438 L 296.113281 293.769531 L 297.546875 294.335938 L 300.054688 295.101562 L 302.207031 295.609375 L 303.878906 295.945312 L 307.105469 296.472656 L 308.421875 296.648438 L 311.527344 297.003906 L 314.753906 297.277344 L 318.699219 297.511719 L 321.683594 297.628906 L 326.464844 297.726562 L 332.558594 297.726562 L 339.730469 297.609375 L 344.269531 297.453125 L 347.375 297.296875 L 349.40625 297.160156 L 351.917969 296.945312 L 353.710938 296.746094 L 355.382812 296.53125 L 357.414062 296.199219 L 357.414062 291.515625 L 327.898438 291.496094 L 327.898438 289.300781 L 373.785156 289.28125 L 373.90625 296.945312 L 371.394531 297.472656 L 368.289062 297.984375 L 365.300781 298.375 L 362.195312 298.707031 L 357.773438 299.078125 L 354.1875 299.316406 L 348.691406 299.589844 L 343.671875 299.765625 L 338.414062 299.882812 L 333.753906 299.941406 L 328.257812 299.960938 L 323.359375 299.921875 L 318.101562 299.804688 L 313.917969 299.648438 L 310.09375 299.453125 L 306.269531 299.199219 L 301.488281 298.785156 L 298.382812 298.453125 L 295.15625 298.042969 L 291.929688 297.550781 L 289.0625 297.023438 L 287.148438 296.609375 L 285.238281 296.140625 L 283.207031 295.550781 L 281.296875 294.886719 L 279.859375 294.277344 L 278.546875 293.59375 L 277.589844 292.945312 L 276.632812 292.0625 L 276.15625 291.359375 L 275.917969 290.75 Z M 275.917969 287.691406 "/>
<path style=" stroke:none;fill-rule:nonzero;fill:rgb(83.921569%,15.686275%,22.352941%);fill-opacity:1;" d="M 275.917969 311.433594 L 373.90625 311.433594 L 373.90625 311.746094 L 333.066406 311.75 L 333.066406 314.371094 L 316.636719 314.371094 L 316.636719 311.753906 L 316.398438 311.746094 L 275.917969 311.746094 Z M 275.917969 311.433594 "/>
<path style=" stroke:none;fill-rule:nonzero;fill:rgb(6.27451%,58.823529%,28.235294%);fill-opacity:1;" d="M 379.0625 274.425781 L 379.167969 274.296875 L 421.566406 136.382812 L 434.441406 136.382812 L 477.046875 274.554688 L 462.078125 274.554688 L 451.402344 238.488281 L 404.605469 238.488281 L 394.136719 274.425781 L 379.0625 274.425781 L 409.105469 223.566406 L 447.109375 223.4375 L 428.160156 158.957031 L 427.949219 158.828125 L 427.742188 159.214844 L 409.003906 223.4375 L 409.105469 223.566406 Z M 379.0625 274.425781 "/>
<path style=" stroke:none;fill-rule:nonzero;fill:rgb(14.509804%,36.078431%,60%);fill-opacity:1;" d="M 379.0625 284.605469 L 379.179688 284.585938 L 379.179688 284.140625 L 379.539062 283.429688 L 380.375 282.535156 L 381.210938 281.921875 L 383.363281 280.824219 L 386.351562 279.761719 L 389.457031 278.941406 L 391.726562 278.457031 L 393.761719 278.082031 L 398.421875 277.394531 L 401.40625 277.039062 L 404.632812 276.722656 L 408.578125 276.40625 L 411.445312 276.21875 L 417.898438 275.921875 L 422.679688 275.789062 L 426.382812 275.734375 L 434.386719 275.734375 L 439.167969 275.808594 L 442.632812 275.902344 L 446.457031 276.050781 L 449.683594 276.21875 L 455.300781 276.628906 L 460.320312 277.152344 L 462.589844 277.449219 L 466.175781 278.027344 L 468.921875 278.585938 L 470.835938 279.070312 L 472.984375 279.761719 L 474.898438 280.597656 L 476.332031 281.550781 L 477.046875 282.351562 L 460.320312 282.351562 L 459.484375 281.605469 L 458.527344 281.027344 L 456.734375 280.261719 L 454.941406 279.722656 L 452.433594 279.183594 L 450.160156 278.828125 L 447.054688 278.472656 L 444.308594 278.25 L 441.4375 278.082031 L 438.691406 277.972656 L 433.433594 277.859375 L 427.339844 277.859375 L 425.066406 277.898438 L 420.40625 278.046875 L 417.898438 278.175781 L 414.3125 278.4375 L 411.804688 278.679688 L 408.816406 279.050781 L 406.785156 279.367188 L 404.277344 279.851562 L 402.484375 280.28125 L 400.453125 280.898438 L 399.257812 281.363281 L 398.179688 281.882812 L 397.226562 282.5 L 396.507812 283.152344 L 396.03125 283.839844 L 395.792969 284.511719 L 395.792969 287.402344 L 396.03125 288.070312 L 396.628906 288.855469 L 398.179688 289.992188 L 400.453125 290.980469 L 403.082031 291.761719 L 405.589844 292.320312 L 407.023438 292.582031 L 408.9375 292.878906 L 411.921875 293.253906 L 416.226562 293.625 L 418.734375 293.773438 L 422.558594 293.921875 L 426.5 293.996094 L 431.757812 293.996094 L 436.421875 293.921875 L 439.527344 293.828125 L 442.753906 293.679688 L 447.175781 293.363281 L 449.921875 293.066406 L 452.3125 292.710938 L 454.105469 292.359375 L 455.300781 292.058594 L 457.09375 291.480469 L 458.527344 290.847656 L 459.601562 290.195312 L 460.320312 289.5625 L 477.046875 289.5625 L 476.332031 290.308594 L 475.257812 291.035156 L 474.179688 291.574219 L 472.507812 292.226562 L 470.597656 292.804688 L 467.847656 293.457031 L 465.578125 293.886719 L 462.589844 294.351562 L 459.839844 294.707031 L 456.855469 295.023438 L 452.433594 295.394531 L 449.566406 295.582031 L 446.457031 295.75 L 442.753906 295.898438 L 438.09375 296.027344 L 433.074219 296.101562 L 428.414062 296.121094 L 423.394531 296.085938 L 419.691406 296.011719 L 414.792969 295.84375 L 408.695312 295.507812 L 404.277344 295.152344 L 400.808594 294.800781 L 397.824219 294.425781 L 394.476562 293.921875 L 390.175781 293.101562 L 387.546875 292.46875 L 385.753906 291.949219 L 383.722656 291.222656 L 382.289062 290.570312 L 380.617188 289.523438 L 379.421875 288.203125 L 379.0625 287.175781 Z M 379.0625 284.605469 "/>
<path style=" stroke:none;fill-rule:nonzero;fill:rgb(96.862745%,70.196078%,16.862745%);fill-opacity:1;" d="M 379.0625 310.304688 L 379.179688 310.296875 L 379.179688 310.167969 L 379.660156 309.875 L 380.855469 309.472656 L 382.40625 309.140625 L 384.082031 308.878906 L 385.15625 308.742188 L 386.949219 308.546875 L 388.503906 308.40625 L 392.445312 308.113281 L 397.464844 307.839844 L 400.210938 307.722656 L 403.320312 307.613281 L 407.742188 307.488281 L 409.773438 307.445312 L 415.984375 307.339844 L 423.035156 307.273438 L 430.804688 307.253906 L 434.386719 307.261719 L 439.289062 307.289062 L 445.980469 307.359375 L 449.804688 307.425781 L 452.789062 307.488281 L 455.898438 307.574219 L 459.722656 307.703125 L 463.308594 307.859375 L 466.175781 308.015625 L 469.042969 308.210938 L 471.433594 308.417969 L 473.464844 308.644531 L 475.257812 308.917969 L 476.332031 309.144531 L 477.046875 309.375 L 460.4375 309.375 L 459.484375 309.144531 L 458.40625 308.972656 L 456.613281 308.757812 L 454.824219 308.601562 L 453.03125 308.476562 L 449.683594 308.308594 L 446.816406 308.203125 L 443.230469 308.113281 L 439.765625 308.054688 L 435.824219 308.015625 L 433.433594 308.003906 L 427.097656 308.003906 L 421.363281 308.046875 L 418.015625 308.101562 L 415.628906 308.152344 L 412.28125 308.25 L 410.25 308.328125 L 409.054688 308.378906 L 405.46875 308.582031 L 403.082031 308.761719 L 401.765625 308.886719 L 400.09375 309.082031 L 398.898438 309.257812 L 397.582031 309.515625 L 396.867188 309.710938 L 395.910156 310.152344 L 395.792969 311.324219 L 396.148438 311.570312 L 396.867188 311.835938 L 397.824219 312.070312 L 399.257812 312.316406 L 400.691406 312.503906 L 403.199219 312.757812 L 405.351562 312.929688 L 407.023438 313.039062 L 410.25 313.214844 L 411.566406 313.273438 L 414.671875 313.390625 L 417.898438 313.480469 L 421.839844 313.558594 L 424.828125 313.597656 L 429.609375 313.628906 L 435.703125 313.628906 L 442.871094 313.589844 L 447.414062 313.539062 L 450.519531 313.488281 L 452.550781 313.441406 L 455.0625 313.371094 L 456.855469 313.304688 L 458.527344 313.234375 L 460.558594 313.121094 L 460.558594 311.570312 L 431.042969 311.5625 L 431.042969 310.835938 L 476.929688 310.828125 L 477.046875 313.371094 L 474.539062 313.546875 L 471.433594 313.714844 L 468.445312 313.84375 L 465.339844 313.953125 L 460.917969 314.078125 L 457.332031 314.15625 L 451.835938 314.246094 L 446.816406 314.304688 L 441.558594 314.34375 L 436.898438 314.363281 L 431.402344 314.371094 L 426.5 314.359375 L 421.242188 314.320312 L 417.0625 314.265625 L 413.238281 314.203125 L 409.414062 314.117188 L 404.632812 313.980469 L 401.527344 313.871094 L 398.300781 313.734375 L 395.074219 313.570312 L 392.207031 313.394531 L 390.292969 313.257812 L 388.382812 313.105469 L 386.351562 312.910156 L 384.4375 312.6875 L 383.003906 312.484375 L 381.691406 312.257812 L 380.734375 312.042969 L 379.777344 311.753906 L 379.300781 311.519531 L 379.0625 311.316406 Z M 379.0625 310.304688 "/>
<path style=" stroke:none;fill-rule:nonzero;fill:rgb(83.921569%,15.686275%,22.352941%);fill-opacity:1;" d="M 379.0625 297.300781 L 477.046875 297.300781 L 477.046875 298.242188 L 436.210938 298.25 L 436.210938 306.074219 L 419.78125 306.074219 L 419.78125 298.257812 L 419.542969 298.242188 L 379.0625 298.242188 Z M 379.0625 297.300781 "/>
<path style=" stroke:none;fill-rule:nonzero;fill:rgb(6.27451%,58.823529%,28.235294%);fill-opacity:1;" d="M 482.207031 314.367188 L 482.3125 314.363281 L 524.707031 310.089844 L 537.585938 310.089844 L 580.191406 314.371094 L 565.222656 314.371094 L 554.542969 313.253906 L 507.75 313.253906 L 497.28125 314.367188 L 482.207031 314.367188 L 512.25 312.789062 L 550.253906 312.785156 L 531.304688 310.789062 L 531.09375 310.785156 L 530.886719 310.796875 L 512.144531 312.785156 L 512.25 312.789062 Z M 482.207031 314.367188 "/>
<path style=" stroke:none;fill-rule:nonzero;fill:rgb(14.509804%,36.078431%,60%);fill-opacity:1;" d="M 482.207031 296.757812 L 482.324219 296.75 L 482.324219 296.597656 L 482.683594 296.355469 L 483.519531 296.046875 L 484.355469 295.835938 L 486.507812 295.457031 L 489.496094 295.089844 L 492.601562 294.808594 L 494.871094 294.640625 L 496.902344 294.515625 L 501.5625 294.277344 L 504.550781 294.15625 L 507.777344 294.046875 L 511.722656 293.9375 L 514.589844 293.875 L 521.042969 293.769531 L 525.820312 293.726562 L 529.527344 293.707031 L 537.53125 293.707031 L 542.3125 293.730469 L 545.777344 293.765625 L 549.601562 293.816406 L 552.828125 293.875 L 558.445312 294.015625 L 563.464844 294.195312 L 565.734375 294.296875 L 569.320312 294.496094 L 572.066406 294.6875 L 573.980469 294.855469 L 576.128906 295.089844 L 578.042969 295.378906 L 579.476562 295.707031 L 580.191406 295.980469 L 563.464844 295.980469 L 562.625 295.726562 L 561.671875 295.527344 L 559.878906 295.265625 L 558.085938 295.078125 L 555.578125 294.890625 L 553.304688 294.769531 L 550.199219 294.648438 L 547.449219 294.570312 L 544.582031 294.515625 L 541.835938 294.476562 L 536.578125 294.4375 L 530.484375 294.4375 L 528.210938 294.449219 L 523.550781 294.5 L 521.042969 294.546875 L 517.457031 294.636719 L 514.949219 294.71875 L 511.960938 294.847656 L 509.929688 294.957031 L 507.417969 295.125 L 505.628906 295.269531 L 503.597656 295.480469 L 502.402344 295.640625 L 501.324219 295.820312 L 500.371094 296.035156 L 499.652344 296.257812 L 499.175781 296.496094 L 498.933594 296.726562 L 498.933594 297.71875 L 499.175781 297.949219 L 499.773438 298.21875 L 501.324219 298.609375 L 503.597656 298.949219 L 506.226562 299.21875 L 508.734375 299.410156 L 510.167969 299.5 L 512.078125 299.601562 L 515.066406 299.730469 L 519.371094 299.859375 L 521.878906 299.910156 L 525.703125 299.960938 L 529.644531 299.988281 L 534.902344 299.988281 L 539.5625 299.960938 L 542.671875 299.929688 L 545.898438 299.878906 L 550.320312 299.769531 L 553.066406 299.667969 L 555.457031 299.546875 L 557.25 299.421875 L 558.445312 299.320312 L 560.238281 299.121094 L 561.671875 298.90625 L 562.746094 298.679688 L 563.464844 298.460938 L 580.191406 298.460938 L 579.476562 298.71875 L 578.402344 298.96875 L 577.324219 299.15625 L 575.652344 299.378906 L 573.738281 299.578125 L 570.992188 299.800781 L 568.722656 299.949219 L 565.734375 300.109375 L 562.984375 300.230469 L 559.996094 300.339844 L 555.578125 300.46875 L 552.707031 300.53125 L 549.601562 300.589844 L 545.898438 300.640625 L 541.238281 300.6875 L 536.21875 300.710938 L 531.558594 300.71875 L 526.539062 300.707031 L 522.835938 300.679688 L 517.933594 300.621094 L 511.839844 300.507812 L 507.417969 300.386719 L 503.953125 300.261719 L 500.96875 300.136719 L 497.621094 299.960938 L 493.320312 299.679688 L 490.691406 299.460938 L 488.898438 299.28125 L 486.867188 299.03125 L 485.433594 298.808594 L 483.757812 298.449219 L 482.5625 297.996094 L 482.207031 297.640625 Z M 482.207031 296.757812 "/>
<path style=" stroke:none;fill-rule:nonzero;fill:rgb(96.862745%,70.196078%,16.862745%);fill-opacity:1;" d="M 482.207031 137.105469 L 482.324219 136.855469 L 482.324219 131.890625 L 482.804688 120.71875 L 484 105.324219 L 485.550781 92.664062 L 487.226562 82.730469 L 488.300781 77.519531 L 490.09375 70.070312 L 491.644531 64.609375 L 495.589844 53.4375 L 500.609375 43.007812 L 503.355469 38.539062 L 506.464844 34.316406 L 510.886719 29.601562 L 512.917969 27.863281 L 519.128906 23.890625 L 526.179688 21.40625 L 533.949219 20.664062 L 537.53125 20.910156 L 542.433594 21.90625 L 549.125 24.636719 L 552.949219 27.117188 L 555.933594 29.601562 L 559.042969 32.828125 L 562.867188 37.792969 L 566.449219 43.753906 L 569.320312 49.710938 L 572.1875 57.160156 L 574.578125 65.105469 L 576.609375 73.792969 L 578.402344 84.222656 L 579.476562 92.910156 L 580.191406 101.601562 L 563.582031 101.601562 L 562.625 92.910156 L 561.550781 86.207031 L 559.757812 78.015625 L 557.964844 72.054688 L 556.175781 67.339844 L 552.828125 60.882812 L 549.960938 56.910156 L 546.375 53.4375 L 542.910156 51.199219 L 538.964844 49.710938 L 536.578125 49.214844 L 530.242188 49.214844 L 524.507812 50.953125 L 521.160156 52.9375 L 518.773438 54.925781 L 515.425781 58.648438 L 513.394531 61.628906 L 512.199219 63.613281 L 508.613281 71.3125 L 506.226562 78.261719 L 504.910156 82.980469 L 503.238281 90.429688 L 502.042969 97.132812 L 500.726562 107.0625 L 500.011719 114.511719 L 499.054688 131.394531 L 498.933594 176.085938 L 499.292969 185.519531 L 500.011719 195.699219 L 500.96875 204.636719 L 502.402344 214.070312 L 503.835938 221.269531 L 506.34375 230.953125 L 508.496094 237.410156 L 510.167969 241.628906 L 513.394531 248.332031 L 514.707031 250.566406 L 517.816406 255.039062 L 521.042969 258.511719 L 524.984375 261.492188 L 527.972656 262.980469 L 532.753906 264.222656 L 538.847656 264.222656 L 546.015625 262.734375 L 550.558594 260.746094 L 553.664062 258.761719 L 555.695312 257.023438 L 558.207031 254.292969 L 559.996094 251.808594 L 561.671875 249.078125 L 563.703125 244.859375 L 563.703125 185.519531 L 534.1875 185.269531 L 534.1875 157.464844 L 580.074219 157.214844 L 580.191406 254.292969 L 577.683594 260.996094 L 574.578125 267.449219 L 571.589844 272.417969 L 568.480469 276.636719 L 564.0625 281.355469 L 560.476562 284.335938 L 554.980469 287.808594 L 549.960938 290.042969 L 544.703125 291.535156 L 540.042969 292.277344 L 534.546875 292.527344 L 529.644531 292.03125 L 524.386719 290.539062 L 520.207031 288.554688 L 516.382812 286.070312 L 512.558594 282.84375 L 507.777344 277.628906 L 504.671875 273.410156 L 501.445312 268.195312 L 498.21875 261.988281 L 495.351562 255.285156 L 493.4375 250.070312 L 491.527344 244.113281 L 489.496094 236.664062 L 487.582031 228.222656 L 486.148438 220.527344 L 484.835938 211.835938 L 483.878906 203.644531 L 482.921875 192.472656 L 482.445312 183.535156 L 482.207031 175.835938 Z M 482.207031 137.105469 "/>
<path style=" stroke:none;fill-rule:nonzero;fill:rgb(83.921569%,15.686275%,22.352941%);fill-opacity:1;" d="M 482.207031 301.898438 L 580.191406 301.898438 L 580.191406 302.648438 L 539.355469 302.65625 L 539.355469 308.910156 L 522.925781 308.910156 L 522.925781 302.660156 L 522.6875 302.648438 L 482.207031 302.648438 Z M 482.207031 301.898438 "/>
<path style=" stroke:none;fill-rule:nonzero;fill:rgb(6.27451%,58.823529%,28.235294%);fill-opacity:1;" d="M 585.351562 314.367188 L 585.453125 314.367188 L 627.851562 311.671875 L 640.730469 311.671875 L 683.335938 314.371094 L 668.367188 314.371094 L 657.6875 313.664062 L 610.894531 313.664062 L 600.425781 314.367188 L 585.351562 314.367188 L 615.394531 313.375 L 653.398438 313.371094 L 634.449219 312.113281 L 634.238281 312.109375 L 634.03125 312.117188 L 615.289062 313.371094 L 615.394531 313.375 Z M 585.351562 314.367188 "/>
<path style=" stroke:none;fill-rule:nonzero;fill:rgb(14.509804%,36.078431%,60%);fill-opacity:1;" d="M 585.351562 291.945312 L 585.46875 291.9375 L 585.46875 291.71875 L 585.828125 291.371094 L 586.664062 290.9375 L 587.5 290.636719 L 589.652344 290.101562 L 592.640625 289.582031 L 595.746094 289.183594 L 598.015625 288.945312 L 600.046875 288.765625 L 604.707031 288.429688 L 607.695312 288.257812 L 610.921875 288.101562 L 614.867188 287.945312 L 617.734375 287.855469 L 624.1875 287.710938 L 628.964844 287.648438 L 632.671875 287.621094 L 640.675781 287.621094 L 645.457031 287.65625 L 648.921875 287.703125 L 652.746094 287.773438 L 655.972656 287.855469 L 661.589844 288.054688 L 666.609375 288.3125 L 668.878906 288.457031 L 672.460938 288.738281 L 675.210938 289.011719 L 677.125 289.246094 L 679.273438 289.582031 L 681.1875 289.992188 L 682.621094 290.453125 L 683.335938 290.847656 L 666.609375 290.847656 L 665.769531 290.480469 L 664.816406 290.199219 L 663.023438 289.828125 L 661.230469 289.566406 L 658.722656 289.300781 L 656.449219 289.128906 L 653.34375 288.957031 L 650.59375 288.847656 L 647.726562 288.765625 L 644.980469 288.710938 L 639.722656 288.65625 L 633.625 288.65625 L 631.355469 288.675781 L 626.695312 288.746094 L 624.1875 288.808594 L 620.601562 288.9375 L 618.09375 289.054688 L 615.105469 289.238281 L 613.074219 289.390625 L 610.5625 289.628906 L 608.769531 289.835938 L 606.738281 290.136719 L 605.546875 290.363281 L 604.46875 290.617188 L 603.511719 290.917969 L 602.796875 291.238281 L 602.320312 291.574219 L 602.078125 291.898438 L 602.078125 293.308594 L 602.320312 293.636719 L 602.917969 294.015625 L 604.46875 294.570312 L 606.738281 295.054688 L 609.367188 295.433594 L 611.878906 295.707031 L 613.3125 295.835938 L 615.222656 295.980469 L 618.210938 296.160156 L 622.511719 296.34375 L 625.023438 296.414062 L 628.847656 296.488281 L 632.789062 296.523438 L 638.046875 296.523438 L 642.707031 296.488281 L 645.816406 296.441406 L 649.042969 296.371094 L 653.464844 296.214844 L 656.210938 296.070312 L 658.601562 295.898438 L 660.394531 295.726562 L 661.589844 295.578125 L 663.382812 295.296875 L 664.816406 294.988281 L 665.890625 294.671875 L 666.609375 294.363281 L 683.335938 294.363281 L 682.621094 294.726562 L 681.542969 295.082031 L 680.46875 295.34375 L 678.796875 295.660156 L 676.882812 295.945312 L 674.136719 296.261719 L 671.867188 296.46875 L 668.878906 296.699219 L 666.128906 296.871094 L 663.140625 297.023438 L 658.722656 297.207031 L 655.851562 297.296875 L 652.746094 297.378906 L 649.042969 297.453125 L 644.382812 297.515625 L 639.363281 297.550781 L 634.703125 297.5625 L 629.683594 297.542969 L 625.980469 297.507812 L 621.078125 297.425781 L 614.984375 297.261719 L 610.5625 297.089844 L 607.097656 296.914062 L 604.109375 296.734375 L 600.765625 296.488281 L 596.464844 296.089844 L 593.835938 295.78125 L 592.042969 295.523438 L 590.011719 295.171875 L 588.578125 294.851562 L 586.902344 294.34375 L 585.707031 293.699219 L 585.351562 293.199219 Z M 585.351562 291.945312 "/>
<path style=" stroke:none;fill-rule:nonzero;fill:rgb(96.862745%,70.196078%,16.862745%);fill-opacity:1;" d="M 585.351562 302 L 585.46875 301.996094 L 585.46875 301.855469 L 585.949219 301.542969 L 587.140625 301.109375 L 588.695312 300.757812 L 590.367188 300.480469 L 591.445312 300.332031 L 593.238281 300.125 L 594.789062 299.972656 L 598.734375 299.65625 L 603.753906 299.367188 L 606.5 299.242188 L 609.609375 299.121094 L 614.027344 298.992188 L 616.0625 298.941406 L 622.273438 298.832031 L 629.324219 298.761719 L 637.09375 298.742188 L 640.675781 298.746094 L 645.578125 298.773438 L 652.269531 298.851562 L 656.09375 298.921875 L 659.078125 298.992188 L 662.1875 299.082031 L 666.011719 299.21875 L 669.59375 299.386719 L 672.460938 299.554688 L 675.332031 299.761719 L 677.722656 299.984375 L 679.753906 300.226562 L 681.542969 300.519531 L 682.621094 300.761719 L 683.335938 301.007812 L 666.726562 301.007812 L 665.769531 300.761719 L 664.695312 300.574219 L 662.902344 300.347656 L 661.109375 300.179688 L 659.316406 300.046875 L 655.972656 299.867188 L 653.105469 299.753906 L 649.519531 299.65625 L 646.054688 299.59375 L 642.109375 299.554688 L 639.722656 299.539062 L 633.386719 299.539062 L 627.652344 299.589844 L 624.304688 299.644531 L 621.914062 299.699219 L 618.570312 299.804688 L 616.539062 299.886719 L 615.34375 299.941406 L 611.757812 300.160156 L 609.367188 300.351562 L 608.054688 300.484375 L 606.382812 300.695312 L 605.1875 300.882812 L 603.871094 301.160156 L 603.15625 301.367188 L 602.199219 301.839844 L 602.078125 303.09375 L 602.4375 303.355469 L 603.15625 303.640625 L 604.109375 303.890625 L 605.546875 304.15625 L 606.980469 304.359375 L 609.488281 304.628906 L 611.640625 304.808594 L 613.3125 304.929688 L 616.539062 305.117188 L 617.851562 305.179688 L 620.960938 305.304688 L 624.1875 305.402344 L 628.128906 305.484375 L 631.117188 305.527344 L 635.898438 305.5625 L 641.992188 305.5625 L 649.160156 305.519531 L 653.703125 305.464844 L 656.808594 305.40625 L 658.839844 305.359375 L 661.351562 305.28125 L 663.140625 305.214844 L 664.816406 305.136719 L 666.847656 305.019531 L 666.847656 303.355469 L 637.332031 303.351562 L 637.332031 302.570312 L 683.21875 302.5625 L 683.335938 305.28125 L 680.828125 305.46875 L 677.722656 305.652344 L 674.734375 305.789062 L 671.625 305.910156 L 667.203125 306.039062 L 663.621094 306.125 L 658.125 306.222656 L 653.105469 306.285156 L 647.847656 306.324219 L 643.1875 306.347656 L 637.691406 306.355469 L 632.789062 306.339844 L 627.53125 306.296875 L 623.351562 306.242188 L 619.527344 306.171875 L 615.703125 306.082031 L 610.921875 305.9375 L 607.816406 305.816406 L 604.589844 305.671875 L 601.363281 305.5 L 598.496094 305.3125 L 596.582031 305.164062 L 594.671875 304.996094 L 592.640625 304.789062 L 590.726562 304.554688 L 589.292969 304.335938 L 587.980469 304.09375 L 587.023438 303.863281 L 586.066406 303.550781 L 585.589844 303.300781 L 585.351562 303.085938 Z M 585.351562 302 "/>
<path style=" stroke:none;fill-rule:nonzero;fill:rgb(83.921569%,15.686275%,22.352941%);fill-opacity:1;" d="M 585.351562 307.53125 L 683.335938 307.53125 L 683.335938 307.851562 L 642.5 307.851562 L 642.5 310.492188 L 626.070312 310.492188 L 626.070312 307.855469 L 625.832031 307.851562 L 585.351562 307.851562 Z M 585.351562 307.53125 "/>
<g style="fill:rgb(0%,0%,0%);fill-opacity:1;">
  <use xlink:href="#glyph0-1" x="21.957031" y="318.198242"/>
  <use xlink:href="#glyph0-2" x="27.291016" y="318.198242"/>
  <use xlink:href="#glyph0-1" x="29.958008" y="318.198242"/>
</g>
<g style="fill:rgb(0%,0%,0%);fill-opacity:1;">
  <use xlink:href="#glyph0-1" x="21.957031" y="220.124023"/>
  <use xlink:href="#glyph0-2" x="27.291016" y="220.124023"/>
  <use xlink:href="#glyph0-3" x="29.958008" y="220.124023"/>
</g>
<g style="fill:rgb(0%,0%,0%);fill-opacity:1;">
  <use xlink:href="#glyph0-4" x="21.957031" y="122.049805"/>
  <use xlink:href="#glyph0-2" x="27.291016" y="122.049805"/>
  <use xlink:href="#glyph0-1" x="29.958008" y="122.049805"/>
</g>
<g style="fill:rgb(0%,0%,0%);fill-opacity:1;">
  <use xlink:href="#glyph0-4" x="21.957031" y="23.979492"/>
  <use xlink:href="#glyph0-2" x="27.291016" y="23.979492"/>
  <use xlink:href="#glyph0-3" x="29.958008" y="23.979492"/>
</g>
<g style="fill:rgb(0%,0%,0%);fill-opacity:1;">
  <use xlink:href="#glyph0-4" x="115.621094" y="338.19043"/>
</g>
<g style="fill:rgb(0%,0%,0%);fill-opacity:1;">
  <use xlink:href="#glyph0-5" x="218.765625" y="338.19043"/>
</g>
<g style="fill:rgb(0%,0%,0%);fill-opacity:1;">
  <use xlink:href="#glyph0-6" x="321.910156" y="338.19043"/>
</g>
<g style="fill:rgb(0%,0%,0%);fill-opacity:1;">
  <use xlink:href="#glyph0-7" x="425.054688" y="338.19043"/>
</g>
<g style="fill:rgb(0%,0%,0%);fill-opacity:1;">
  <use xlink:href="#glyph0-3" x="528.199219" y="338.19043"/>
</g>
<g style="fill:rgb(0%,0%,0%);fill-opacity:1;">
  <use xlink:href="#glyph0-8" x="631.34375" y="338.19043"/>
</g>
<g style="fill:rgb(0%,0%,0%);fill-opacity:1;">
  <use xlink:href="#glyph1-1" x="14.412109" y="178.015625"/>
  <use xlink:href="#glyph1-2" x="14.412109" y="170.011719"/>
  <use xlink:href="#glyph1-3" x="14.412109" y="167.347656"/>
  <use xlink:href="#glyph1-4" x="14.412109" y="164.011719"/>
</g>
</g>
</svg>
