<?xml version="1.0" encoding="UTF-8"?>
<svg xmlns="http://www.w3.org/2000/svg" xmlns:xlink="http://www.w3.org/1999/xlink" width="720pt" height="360pt" viewBox="0 0 720 360" version="1.1">
<defs>
<g>
<symbol overflow="visible" id="glyph0-0">
<path style="stroke:none;" d=""/>
</symbol>
<symbol overflow="visible" id="glyph0-1">
<path style="stroke:none;" d="M 2.640625 -6.796875 C 2 -6.796875 1.421875 -6.53125 1.078125 -6.046875 C 0.640625 -5.453125 0.40625 -4.546875 0.40625 -3.296875 C 0.40625 -1 1.1875 0.21875 2.640625 0.21875 C 4.078125 0.21875 4.859375 -1 4.859375 -3.234375 C 4.859375 -4.5625 4.65625 -5.4375 4.203125 -6.046875 C 3.84375 -6.53125 3.28125 -6.796875 2.640625 -6.796875 Z M 2.640625 -6.046875 C 3.546875 -6.046875 4 -5.125 4 -3.3125 C 4 -1.375 3.5625 -0.484375 2.625 -0.484375 C 1.734375 -0.484375 1.28125 -1.421875 1.28125 -3.28125 C 1.28125 -5.140625 1.734375 -6.046875 2.640625 -6.046875 Z M 2.640625 -6.046875 "/>
</symbol>
<symbol overflow="visible" id="glyph0-2">
<path style="stroke:none;" d="M 1.828125 -1 L 0.828125 -1 L 0.828125 0 L 1.828125 0 Z M 1.828125 -1 "/>
</symbol>
<symbol overflow="visible" id="glyph0-3">
<path style="stroke:none;" d="M 4.859375 -0.828125 L 1.28125 -0.828125 C 1.359375 -1.390625 1.671875 -1.75 2.5 -2.234375 L 3.46875 -2.75 C 4.40625 -3.265625 4.90625 -3.96875 4.90625 -4.8125 C 4.90625 -5.375 4.671875 -5.90625 4.265625 -6.265625 C 3.859375 -6.625 3.375 -6.796875 2.71875 -6.796875 C 1.859375 -6.796875 1.21875 -6.5 0.84375 -5.921875 C 0.609375 -5.5625 0.5 -5.125 0.484375 -4.4375 L 1.328125 -4.4375 C 1.359375 -4.90625 1.40625 -5.1875 1.53125 -5.40625 C 1.75 -5.8125 2.1875 -6.0625 2.703125 -6.0625 C 3.46875 -6.0625 4.03125 -5.515625 4.03125 -4.78125 C 4.03125 -4.25 3.71875 -3.796875 3.125 -3.4375 L 2.234375 -2.9375 C 0.8125 -2.140625 0.40625 -1.5 0.328125 0 L 4.859375 0 Z M 4.859375 -0.828125 "/>
</symbol>
<symbol overflow="visible" id="glyph0-4">
<path style="stroke:none;" d="M 4.5625 -6.796875 L 1.0625 -6.796875 L 0.546875 -3.09375 L 1.328125 -3.09375 C 1.71875 -3.5625 2.046875 -3.734375 2.578125 -3.734375 C 3.484375 -3.734375 4.0625 -3.109375 4.0625 -2.09375 C 4.0625 -1.125 3.484375 -0.53125 2.578125 -0.53125 C 1.828125 -0.53125 1.375 -0.90625 1.1875 -1.671875 L 0.328125 -1.671875 C 0.453125 -1.109375 0.546875 -0.84375 0.75 -0.59375 C 1.125 -0.078125 1.828125 0.21875 2.59375 0.21875 C 3.96875 0.21875 4.921875 -0.78125 4.921875 -2.21875 C 4.921875 -3.5625 4.03125 -4.484375 2.71875 -4.484375 C 2.25 -4.484375 1.859375 -4.359375 1.46875 -4.0625 L 1.734375 -5.96875 L 4.5625 -5.96875 Z M 4.5625 -6.796875 "/>
</symbol>
<symbol overflow="visible" id="glyph0-5">
<path style="stroke:none;" d="M 4.984375 -6.796875 L 0.4375 -6.796875 L 0.4375 -5.96875 L 4.109375 -5.96875 C 2.5 -3.65625 1.828125 -2.234375 1.328125 0 L 2.21875 0 C 2.59375 -2.171875 3.453125 -4.046875 4.984375 -6.09375 Z M 4.984375 -6.796875 "/>
</symbol>
<symbol overflow="visible" id="glyph0-6">
<path style="stroke:none;" d="M 2.484375 -4.84375 L 2.484375 0 L 3.328125 0 L 3.328125 -6.796875 L 2.765625 -6.796875 C 2.46875 -5.75 2.28125 -5.609375 0.984375 -5.453125 L 0.984375 -4.84375 Z M 2.484375 -4.84375 "/>
</symbol>
<symbol overflow="visible" id="glyph0-7">
<path style="stroke:none;" d="M 2.125 -3.125 L 2.578125 -3.125 C 3.515625 -3.125 3.984375 -2.703125 3.984375 -1.890625 C 3.984375 -1.03125 3.46875 -0.53125 2.578125 -0.53125 C 1.65625 -0.53125 1.203125 -0.984375 1.15625 -1.96875 L 0.3125 -1.96875 C 0.34375 -1.421875 0.4375 -1.078125 0.609375 -0.765625 C 0.953125 -0.109375 1.625 0.21875 2.546875 0.21875 C 3.953125 0.21875 4.859375 -0.609375 4.859375 -1.90625 C 4.859375 -2.765625 4.515625 -3.25 3.703125 -3.515625 C 4.34375 -3.765625 4.65625 -4.25 4.65625 -4.9375 C 4.65625 -6.109375 3.875 -6.796875 2.578125 -6.796875 C 1.203125 -6.796875 0.484375 -6.046875 0.453125 -4.609375 L 1.296875 -4.609375 C 1.3125 -5.015625 1.34375 -5.25 1.453125 -5.453125 C 1.640625 -5.828125 2.0625 -6.0625 2.59375 -6.0625 C 3.34375 -6.0625 3.796875 -5.625 3.796875 -4.90625 C 3.796875 -4.421875 3.609375 -4.140625 3.25 -3.984375 C 3.015625 -3.890625 2.71875 -3.84375 2.125 -3.84375 Z M 2.125 -3.125 "/>
</symbol>
<symbol overflow="visible" id="glyph0-8">
<path style="stroke:none;" d="M 3.140625 -1.625 L 3.140625 0 L 3.984375 0 L 3.984375 -1.625 L 4.984375 -1.625 L 4.984375 -2.390625 L 3.984375 -2.390625 L 3.984375 -6.796875 L 3.359375 -6.796875 L 0.265625 -2.515625 L 0.265625 -1.625 Z M 3.140625 -2.390625 L 1 -2.390625 L 3.140625 -5.359375 Z M 3.140625 -2.390625 "/>
</symbol>
<symbol overflow="visible" id="glyph0-9">
<path style="stroke:none;" d="M 4.78125 -5.03125 C 4.609375 -6.140625 3.890625 -6.796875 2.84375 -6.796875 C 2.09375 -6.796875 1.421875 -6.4375 1.03125 -5.828125 C 0.609375 -5.171875 0.40625 -4.34375 0.40625 -3.09375 C 0.40625 -1.953125 0.578125 -1.234375 0.984375 -0.625 C 1.359375 -0.078125 1.953125 0.21875 2.703125 0.21875 C 3.984375 0.21875 4.921875 -0.734375 4.921875 -2.078125 C 4.921875 -3.34375 4.0625 -4.234375 2.84375 -4.234375 C 2.171875 -4.234375 1.640625 -3.96875 1.28125 -3.46875 C 1.28125 -5.125 1.828125 -6.046875 2.796875 -6.046875 C 3.390625 -6.046875 3.796875 -5.671875 3.9375 -5.03125 Z M 2.734375 -3.484375 C 3.546875 -3.484375 4.0625 -2.921875 4.0625 -2 C 4.0625 -1.15625 3.484375 -0.53125 2.703125 -0.53125 C 1.921875 -0.53125 1.328125 -1.1875 1.328125 -2.046875 C 1.328125 -2.890625 1.90625 -3.484375 2.734375 -3.484375 Z M 2.734375 -3.484375 "/>
</symbol>
<symbol overflow="visible" id="glyph1-0">
<path style="stroke:none;" d=""/>
</symbol>
<symbol overflow="visible" id="glyph1-1">
<path style="stroke:none;" d="M 0 -0.953125 L 0 -4.890625 C 0 -5.71875 -0.234375 -6.34375 -0.734375 -6.796875 C -1.1875 -7.234375 -1.8125 -7.46875 -2.5 -7.46875 C -3.546875 -7.46875 -4.1875 -7 -4.625 -5.875 C -4.984375 -6.671875 -5.640625 -7.09375 -6.53125 -7.09375 C -7.15625 -7.09375 -7.734375 -6.859375 -8.140625 -6.390625 C -8.5625 -5.9375 -8.75 -5.34375 -8.75 -4.5 L -8.75 -0.953125 Z M -4.984375 -2.0625 L -7.765625 -2.0625 L -7.765625 -4.21875 C -7.765625 -4.84375 -7.6875 -5.203125 -7.453125 -5.5 C -7.21875 -5.8125 -6.859375 -5.96875 -6.375 -5.96875 C -5.90625 -5.96875 -5.53125 -5.8125 -5.296875 -5.5 C -5.0625 -5.203125 -4.984375 -4.84375 -4.984375 -4.21875 Z M -0.984375 -2.0625 L -4 -2.0625 L -4 -4.78125 C -4 -5.328125 -3.859375 -5.6875 -3.578125 -5.953125 C -3.296875 -6.21875 -2.921875 -6.359375 -2.484375 -6.359375 C -2.0625 -6.359375 -1.6875 -6.21875 -1.40625 -5.953125 C -1.109375 -5.6875 -0.984375 -5.328125 -0.984375 -4.78125 Z M -0.984375 -2.0625 "/>
</symbol>
<symbol overflow="visible" id="glyph1-2">
<path style="stroke:none;" d="M -6.28125 -1.796875 L -6.28125 -0.796875 L 0 -0.796875 L 0 -1.796875 Z M -8.75 -1.796875 L -8.75 -0.796875 L -7.484375 -0.796875 L -7.484375 -1.796875 Z M -8.75 -1.796875 "/>
</symbol>
<symbol overflow="visible" id="glyph1-3">
<path style="stroke:none;" d="M -6.28125 -3.046875 L -6.28125 -2.015625 L -8.015625 -2.015625 L -8.015625 -1.015625 L -6.28125 -1.015625 L -6.28125 -0.171875 L -5.46875 -0.171875 L -5.46875 -1.015625 L -0.71875 -1.015625 C -0.078125 -1.015625 0.28125 -1.453125 0.28125 -2.234375 C 0.28125 -2.46875 0.25 -2.71875 0.1875 -3.046875 L -0.640625 -3.046875 C -0.609375 -2.921875 -0.59375 -2.765625 -0.59375 -2.5625 C -0.59375 -2.140625 -0.71875 -2.015625 -1.15625 -2.015625 L -5.46875 -2.015625 L -5.46875 -3.046875 Z M -6.28125 -3.046875 "/>
</symbol>
<symbol overflow="visible" id="glyph1-4">
<path style="stroke:none;" d="M -4.53125 -5.25 C -5.765625 -5.25 -6.46875 -4.421875 -6.46875 -2.96875 C -6.46875 -1.515625 -5.71875 -0.5625 -4.546875 -0.5625 C -3.5625 -0.5625 -3.09375 -1.0625 -2.734375 -2.5625 L -2.515625 -3.484375 C -2.34375 -4.1875 -2.09375 -4.46875 -1.625 -4.46875 C -1.046875 -4.46875 -0.640625 -3.875 -0.640625 -3 C -0.640625 -2.453125 -0.796875 -2 -1.0625 -1.75 C -1.25 -1.59375 -1.421875 -1.53125 -1.875 -1.46875 L -1.875 -0.40625 C -0.421875 -0.453125 0.28125 -1.265625 0.28125 -2.921875 C 0.28125 -4.5 -0.5 -5.515625 -1.71875 -5.515625 C -2.65625 -5.515625 -3.171875 -4.984375 -3.46875 -3.734375 L -3.703125 -2.765625 C -3.890625 -1.953125 -4.15625 -1.609375 -4.59375 -1.609375 C -5.171875 -1.609375 -5.546875 -2.125 -5.546875 -2.9375 C -5.546875 -3.75 -5.203125 -4.171875 -4.53125 -4.203125 Z M -4.53125 -5.25 "/>
</symbol>
</g>
</defs>
<g id="surface45720">
<rect x="0" y="0" width="720" height="360" style="fill:rgb(100%,100%,100%);fill-opacity:1;stroke:none;"/>
<path style=" stroke:none;fill-rule:nonzero;fill:rgb(96.862745%,70.196078%,16.862745%);fill-opacity:1;" d="M 74.402344 311.113281 L 74.519531 311.109375 L 74.519531 311.105469 L 74.996094 311.097656 L 76.179688 311.082031 L 77.722656 311.070312 L 79.382812 311.0625 L 80.453125 311.054688 L 82.230469 311.050781 L 83.773438 311.042969 L 87.6875 311.035156 L 92.667969 311.023438 L 95.394531 311.019531 L 98.480469 311.015625 L 102.867188 311.011719 L 104.886719 311.011719 L 111.054688 311.007812 L 118.050781 311.003906 L 134.183594 311.003906 L 140.824219 311.007812 L 144.621094 311.007812 L 147.585938 311.011719 L 150.667969 311.015625 L 154.464844 311.019531 L 158.023438 311.023438 L 160.871094 311.03125 L 163.714844 311.039062 L 166.089844 311.042969 L 168.105469 311.054688 L 169.882812 311.0625 L 170.953125 311.070312 L 171.664062 311.078125 L 155.175781 311.078125 L 154.226562 311.070312 L 153.160156 311.0625 L 151.378906 311.058594 L 149.601562 311.050781 L 147.824219 311.046875 L 144.5 311.039062 L 141.65625 311.039062 L 138.097656 311.035156 L 134.65625 311.03125 L 116.390625 311.03125 L 113.070312 311.035156 L 110.695312 311.035156 L 107.375 311.039062 L 105.359375 311.042969 L 104.171875 311.042969 L 100.613281 311.050781 L 98.242188 311.058594 L 96.9375 311.0625 L 95.277344 311.066406 L 94.089844 311.074219 L 92.785156 311.082031 L 92.074219 311.089844 L 91.125 311.105469 L 91.007812 311.148438 L 91.363281 311.15625 L 92.074219 311.164062 L 93.023438 311.175781 L 94.449219 311.183594 L 95.871094 311.1875 L 98.363281 311.199219 L 100.496094 311.203125 L 102.15625 311.207031 L 105.359375 311.214844 L 106.664062 311.214844 L 109.75 311.21875 L 112.949219 311.222656 L 116.863281 311.226562 L 119.832031 311.226562 L 124.574219 311.230469 L 130.625 311.230469 L 137.742188 311.226562 L 142.246094 311.226562 L 145.332031 311.222656 L 147.347656 311.222656 L 149.839844 311.21875 L 151.617188 311.21875 L 153.277344 311.214844 L 155.292969 311.210938 L 155.292969 311.15625 L 125.996094 311.15625 L 125.996094 311.128906 L 171.542969 311.128906 L 171.664062 311.21875 L 169.171875 311.226562 L 166.089844 311.230469 L 163.125 311.238281 L 160.039062 311.242188 L 155.652344 311.246094 L 152.09375 311.246094 L 146.636719 311.25 L 141.65625 311.253906 L 116.273438 311.253906 L 112.121094 311.25 L 108.324219 311.25 L 104.53125 311.246094 L 99.785156 311.242188 L 96.699219 311.238281 L 93.5 311.234375 L 90.296875 311.226562 L 87.449219 311.222656 L 85.550781 311.214844 L 83.652344 311.210938 L 81.636719 311.203125 L 79.738281 311.195312 L 78.316406 311.1875 L 77.011719 311.179688 L 75.113281 311.164062 L 74.640625 311.15625 L 74.402344 311.148438 Z M 74.402344 311.113281 "/>
<path style=" stroke:none;fill-rule:nonzero;fill:rgb(6.27451%,58.823529%,28.235294%);fill-opacity:1;" d="M 176.78125 308.894531 L 176.886719 308.882812 L 218.96875 293.707031 L 231.75 293.707031 L 274.042969 308.910156 L 259.183594 308.910156 L 248.585938 304.941406 L 202.136719 304.941406 L 191.746094 308.894531 L 176.78125 308.894531 L 206.605469 303.300781 L 244.324219 303.285156 L 225.515625 296.191406 L 225.308594 296.175781 L 225.101562 296.21875 L 206.5 303.285156 L 206.605469 303.300781 Z M 176.78125 308.894531 "/>
<path style=" stroke:none;fill-rule:nonzero;fill:rgb(14.509804%,36.078431%,60%);fill-opacity:1;" d="M 176.78125 282.398438 L 176.902344 282.378906 L 176.902344 281.988281 L 177.257812 281.363281 L 178.085938 280.578125 L 178.917969 280.035156 L 181.050781 279.070312 L 184.015625 278.132812 L 187.101562 277.414062 L 189.355469 276.988281 L 191.371094 276.660156 L 195.996094 276.050781 L 198.960938 275.742188 L 202.164062 275.460938 L 206.078125 275.183594 L 208.925781 275.019531 L 215.332031 274.757812 L 220.074219 274.644531 L 223.753906 274.59375 L 231.699219 274.59375 L 236.445312 274.660156 L 239.882812 274.742188 L 243.679688 274.871094 L 246.882812 275.019531 L 252.457031 275.378906 L 257.4375 275.839844 L 259.691406 276.101562 L 263.25 276.609375 L 265.976562 277.101562 L 267.875 277.527344 L 270.011719 278.132812 L 271.910156 278.871094 L 273.332031 279.707031 L 274.042969 280.414062 L 257.4375 280.414062 L 256.609375 279.757812 L 255.660156 279.25 L 253.878906 278.578125 L 252.101562 278.101562 L 249.609375 277.625 L 247.355469 277.316406 L 244.273438 277.003906 L 241.542969 276.808594 L 238.699219 276.660156 L 235.96875 276.5625 L 230.75 276.460938 L 224.703125 276.460938 L 222.449219 276.496094 L 217.820312 276.625 L 215.332031 276.742188 L 211.773438 276.96875 L 209.28125 277.183594 L 206.316406 277.511719 L 204.300781 277.789062 L 201.808594 278.214844 L 200.03125 278.59375 L 198.015625 279.132812 L 196.828125 279.542969 L 195.761719 280.003906 L 194.8125 280.542969 L 194.097656 281.117188 L 193.625 281.722656 L 193.386719 282.316406 L 193.386719 284.855469 L 193.625 285.445312 L 194.21875 286.132812 L 195.761719 287.132812 L 198.015625 288.003906 L 200.625 288.691406 L 203.113281 289.183594 L 204.539062 289.414062 L 206.433594 289.675781 L 209.398438 290.003906 L 213.671875 290.332031 L 216.160156 290.460938 L 219.957031 290.59375 L 223.871094 290.660156 L 229.089844 290.660156 L 233.714844 290.59375 L 236.800781 290.511719 L 240.003906 290.378906 L 244.390625 290.101562 L 247.117188 289.839844 L 249.492188 289.527344 L 251.269531 289.214844 L 252.457031 288.953125 L 254.234375 288.445312 L 255.660156 287.886719 L 256.726562 287.3125 L 257.4375 286.757812 L 274.042969 286.757812 L 273.332031 287.414062 L 272.265625 288.050781 L 271.195312 288.527344 L 269.535156 289.101562 L 267.636719 289.609375 L 264.910156 290.183594 L 262.65625 290.558594 L 259.691406 290.96875 L 256.964844 291.28125 L 254 291.558594 L 249.609375 291.886719 L 246.761719 292.050781 L 243.679688 292.199219 L 240.003906 292.332031 L 235.375 292.445312 L 230.394531 292.511719 L 225.769531 292.527344 L 220.785156 292.496094 L 217.109375 292.429688 L 212.246094 292.28125 L 206.199219 291.984375 L 201.808594 291.675781 L 198.371094 291.363281 L 195.402344 291.035156 L 192.082031 290.59375 L 187.8125 289.871094 L 185.203125 289.3125 L 183.425781 288.855469 L 181.40625 288.214844 L 179.984375 287.640625 L 178.324219 286.722656 L 177.136719 285.558594 L 176.78125 284.660156 Z M 176.78125 282.398438 "/>
<path style=" stroke:none;fill-rule:nonzero;fill:rgb(96.862745%,70.196078%,16.862745%);fill-opacity:1;" d="M 176.78125 128.917969 L 176.902344 128.6875 L 176.902344 124.070312 L 177.375 113.683594 L 178.5625 99.375 L 180.101562 87.601562 L 181.765625 78.367188 L 182.832031 73.519531 L 184.609375 66.597656 L 186.152344 61.519531 L 190.066406 51.132812 L 195.046875 41.4375 L 197.777344 37.28125 L 200.859375 33.359375 L 205.25 28.972656 L 207.265625 27.355469 L 213.433594 23.664062 L 220.429688 21.355469 L 228.140625 20.664062 L 231.699219 20.894531 L 236.5625 21.816406 L 243.203125 24.355469 L 247 26.664062 L 249.964844 28.972656 L 253.050781 31.972656 L 256.84375 36.589844 L 260.402344 42.128906 L 263.25 47.667969 L 266.097656 54.59375 L 268.46875 61.980469 L 270.484375 70.058594 L 272.265625 79.753906 L 273.332031 87.832031 L 274.042969 95.910156 L 257.554688 95.910156 L 256.609375 87.832031 L 255.539062 81.601562 L 253.761719 73.984375 L 251.980469 68.441406 L 250.203125 64.058594 L 246.882812 58.054688 L 244.035156 54.363281 L 240.476562 51.132812 L 237.035156 49.054688 L 233.121094 47.667969 L 230.75 47.207031 L 224.464844 47.207031 L 218.769531 48.824219 L 215.449219 50.671875 L 213.078125 52.515625 L 209.757812 55.980469 L 207.738281 58.75 L 206.554688 60.59375 L 202.996094 67.75 L 200.625 74.214844 L 199.320312 78.597656 L 197.65625 85.523438 L 196.472656 91.757812 L 195.167969 100.988281 L 194.457031 107.914062 L 193.507812 123.609375 L 193.386719 165.15625 L 193.742188 173.929688 L 194.457031 183.394531 L 195.402344 191.703125 L 196.828125 200.472656 L 198.25 207.167969 L 200.742188 216.171875 L 202.875 222.171875 L 204.539062 226.09375 L 207.738281 232.328125 L 209.042969 234.40625 L 212.128906 238.558594 L 215.332031 241.792969 L 219.246094 244.5625 L 222.210938 245.945312 L 226.953125 247.101562 L 233.003906 247.101562 L 240.121094 245.714844 L 244.628906 243.867188 L 247.710938 242.023438 L 249.726562 240.40625 L 252.21875 237.867188 L 254 235.558594 L 255.660156 233.019531 L 257.675781 229.097656 L 257.675781 173.929688 L 228.378906 173.699219 L 228.378906 147.847656 L 273.925781 147.617188 L 274.042969 237.867188 L 271.550781 244.097656 L 268.46875 250.101562 L 265.503906 254.71875 L 262.417969 258.640625 L 258.03125 263.027344 L 254.472656 265.796875 L 249.015625 269.027344 L 244.035156 271.105469 L 238.816406 272.492188 L 234.191406 273.183594 L 228.734375 273.414062 L 223.871094 272.953125 L 218.652344 271.566406 L 214.5 269.722656 L 210.707031 267.414062 L 206.910156 264.410156 L 202.164062 259.566406 L 199.082031 255.640625 L 195.878906 250.792969 L 192.675781 245.023438 L 189.828125 238.789062 L 187.933594 233.945312 L 186.035156 228.402344 L 184.015625 221.480469 L 182.121094 213.632812 L 180.695312 206.476562 L 179.390625 198.398438 L 178.441406 190.78125 L 177.492188 180.390625 L 177.019531 172.082031 L 176.78125 164.925781 Z M 176.78125 128.917969 "/>
<path style=" stroke:none;fill-rule:nonzero;fill:rgb(83.921569%,15.686275%,22.352941%);fill-opacity:1;" d="M 176.78125 310.089844 L 274.042969 310.089844 L 274.042969 310.546875 L 233.507812 310.550781 L 233.507812 314.371094 L 217.199219 314.371094 L 217.199219 310.554688 L 216.964844 310.546875 L 176.78125 310.546875 Z M 176.78125 310.089844 "/>
<path style=" stroke:none;fill-rule:nonzero;fill:rgb(6.27451%,58.823529%,28.235294%);fill-opacity:1;" d="M 279.164062 263.429688 L 279.265625 263.335938 L 321.351562 163.011719 L 334.132812 163.011719 L 376.421875 263.523438 L 361.5625 263.523438 L 350.964844 237.285156 L 304.515625 237.285156 L 294.125 263.429688 L 279.164062 263.429688 L 308.984375 226.433594 L 346.703125 226.339844 L 327.898438 179.433594 L 327.6875 179.339844 L 327.480469 179.621094 L 308.882812 226.339844 L 308.984375 226.433594 Z M 279.164062 263.429688 "/>
<path style=" stroke:none;fill-rule:nonzero;fill:rgb(14.509804%,36.078431%,60%);fill-opacity:1;" d="M 279.164062 276.480469 L 279.28125 276.457031 L 279.28125 275.863281 L 279.636719 274.921875 L 280.46875 273.734375 L 281.296875 272.917969 L 283.433594 271.457031 L 286.398438 270.046875 L 289.480469 268.960938 L 291.734375 268.316406 L 293.75 267.820312 L 298.378906 266.90625 L 301.34375 266.4375 L 304.546875 266.015625 L 308.460938 265.59375 L 311.304688 265.347656 L 317.710938 264.949219 L 322.457031 264.777344 L 326.132812 264.703125 L 334.078125 264.703125 L 338.824219 264.800781 L 342.261719 264.925781 L 346.058594 265.125 L 349.261719 265.347656 L 354.835938 265.890625 L 359.816406 266.585938 L 362.070312 266.980469 L 365.628906 267.746094 L 368.359375 268.488281 L 370.257812 269.132812 L 372.390625 270.046875 L 374.289062 271.160156 L 375.710938 272.421875 L 376.421875 273.488281 L 359.816406 273.488281 L 358.988281 272.496094 L 358.039062 271.730469 L 356.261719 270.714844 L 354.480469 270 L 351.988281 269.28125 L 349.734375 268.8125 L 346.652344 268.339844 L 343.925781 268.042969 L 341.078125 267.820312 L 338.347656 267.671875 L 333.128906 267.523438 L 327.082031 267.523438 L 324.828125 267.574219 L 320.203125 267.773438 L 317.710938 267.945312 L 314.152344 268.292969 L 311.660156 268.613281 L 308.695312 269.109375 L 306.679688 269.527344 L 304.1875 270.171875 L 302.410156 270.742188 L 300.394531 271.558594 L 299.207031 272.175781 L 298.140625 272.867188 L 297.191406 273.683594 L 296.480469 274.550781 L 296.003906 275.464844 L 295.769531 276.359375 L 295.769531 280.191406 L 296.003906 281.082031 L 296.597656 282.121094 L 298.140625 283.632812 L 300.394531 284.941406 L 303.003906 285.980469 L 305.496094 286.726562 L 306.917969 287.070312 L 308.816406 287.46875 L 311.78125 287.960938 L 316.050781 288.457031 L 318.542969 288.65625 L 322.335938 288.851562 L 326.25 288.953125 L 331.46875 288.953125 L 336.097656 288.851562 L 339.179688 288.730469 L 342.382812 288.53125 L 346.769531 288.109375 L 349.5 287.714844 L 351.871094 287.246094 L 353.648438 286.773438 L 354.835938 286.378906 L 356.617188 285.609375 L 358.039062 284.769531 L 359.105469 283.902344 L 359.816406 283.0625 L 376.421875 283.0625 L 375.710938 284.050781 L 374.644531 285.015625 L 373.578125 285.734375 L 371.917969 286.601562 L 370.019531 287.367188 L 367.289062 288.234375 L 365.035156 288.804688 L 362.070312 289.421875 L 359.34375 289.890625 L 356.378906 290.3125 L 351.988281 290.808594 L 349.144531 291.054688 L 346.058594 291.277344 L 342.382812 291.476562 L 337.757812 291.648438 L 332.773438 291.746094 L 328.148438 291.773438 L 323.167969 291.722656 L 319.492188 291.625 L 314.628906 291.402344 L 308.578125 290.957031 L 304.1875 290.484375 L 300.75 290.015625 L 297.785156 289.519531 L 294.464844 288.851562 L 290.191406 287.765625 L 287.582031 286.921875 L 285.804688 286.230469 L 283.789062 285.265625 L 282.363281 284.398438 L 280.703125 283.011719 L 279.519531 281.257812 L 279.164062 279.894531 Z M 279.164062 276.480469 "/>
<path style=" stroke:none;fill-rule:nonzero;fill:rgb(96.862745%,70.196078%,16.862745%);fill-opacity:1;" d="M 279.164062 299.707031 L 279.28125 299.691406 L 279.28125 299.402344 L 279.753906 298.753906 L 280.941406 297.863281 L 282.484375 297.128906 L 284.144531 296.550781 L 285.210938 296.25 L 286.992188 295.816406 L 288.53125 295.5 L 292.445312 294.851562 L 297.429688 294.246094 L 300.15625 293.988281 L 303.242188 293.742188 L 307.628906 293.46875 L 309.644531 293.371094 L 315.8125 293.140625 L 322.8125 292.996094 L 330.519531 292.953125 L 334.078125 292.964844 L 338.941406 293.023438 L 345.585938 293.183594 L 349.378906 293.324219 L 352.34375 293.46875 L 355.429688 293.65625 L 359.226562 293.945312 L 362.785156 294.292969 L 365.628906 294.636719 L 368.476562 295.070312 L 370.847656 295.53125 L 372.867188 296.035156 L 374.644531 296.636719 L 375.710938 297.140625 L 376.421875 297.648438 L 359.9375 297.648438 L 358.988281 297.140625 L 357.921875 296.753906 L 356.140625 296.277344 L 354.363281 295.933594 L 352.582031 295.660156 L 349.261719 295.285156 L 346.414062 295.054688 L 342.855469 294.851562 L 339.417969 294.722656 L 335.503906 294.636719 L 333.128906 294.609375 L 326.84375 294.609375 L 321.152344 294.707031 L 317.828125 294.824219 L 315.457031 294.9375 L 312.136719 295.15625 L 310.121094 295.328125 L 308.933594 295.441406 L 305.375 295.890625 L 303.003906 296.292969 L 301.699219 296.566406 L 300.039062 297 L 298.851562 297.386719 L 297.546875 297.964844 L 296.835938 298.394531 L 295.886719 299.375 L 295.769531 301.96875 L 296.125 302.515625 L 296.835938 303.105469 L 297.785156 303.621094 L 299.207031 304.171875 L 300.632812 304.589844 L 303.121094 305.148438 L 305.257812 305.523438 L 306.917969 305.769531 L 310.121094 306.15625 L 311.425781 306.289062 L 314.507812 306.546875 L 317.710938 306.75 L 321.625 306.921875 L 324.589844 307.007812 L 329.335938 307.078125 L 335.382812 307.078125 L 342.5 306.992188 L 347.007812 306.878906 L 350.09375 306.761719 L 352.109375 306.660156 L 354.597656 306.503906 L 356.378906 306.359375 L 358.039062 306.199219 L 360.054688 305.957031 L 360.054688 302.515625 L 330.757812 302.5 L 330.757812 300.886719 L 376.304688 300.871094 L 376.421875 306.503906 L 373.933594 306.890625 L 370.847656 307.265625 L 367.882812 307.554688 L 364.800781 307.800781 L 360.410156 308.074219 L 356.851562 308.246094 L 351.398438 308.449219 L 346.414062 308.578125 L 341.195312 308.664062 L 336.570312 308.707031 L 331.113281 308.722656 L 326.25 308.691406 L 321.03125 308.605469 L 316.878906 308.492188 L 313.085938 308.347656 L 309.289062 308.160156 L 304.546875 307.855469 L 301.460938 307.613281 L 298.257812 307.308594 L 295.054688 306.949219 L 292.210938 306.5625 L 290.3125 306.257812 L 288.414062 305.914062 L 286.398438 305.480469 L 284.5 304.992188 L 283.078125 304.542969 L 281.773438 304.039062 L 280.824219 303.566406 L 279.875 302.917969 L 279.398438 302.398438 L 279.164062 301.953125 Z M 279.164062 299.707031 "/>
<path style=" stroke:none;fill-rule:nonzero;fill:rgb(83.921569%,15.686275%,22.352941%);fill-opacity:1;" d="M 279.164062 309.902344 L 376.421875 309.902344 L 376.421875 310.378906 L 335.886719 310.382812 L 335.886719 314.371094 L 319.578125 314.371094 L 319.578125 310.386719 L 319.34375 310.378906 L 279.164062 310.378906 Z M 279.164062 309.902344 "/>
<path style=" stroke:none;fill-rule:nonzero;fill:rgb(6.27451%,58.823529%,28.235294%);fill-opacity:1;" d="M 381.542969 265.09375 L 381.648438 264.925781 L 423.730469 84.957031 L 436.511719 84.957031 L 478.804688 265.261719 L 463.945312 265.261719 L 453.34375 218.195312 L 406.898438 218.195312 L 396.507812 265.09375 L 381.542969 265.09375 L 411.367188 198.726562 L 449.085938 198.558594 L 430.277344 114.414062 L 430.070312 114.246094 L 429.863281 114.753906 L 411.261719 198.558594 L 411.367188 198.726562 Z M 381.542969 265.09375 "/>
<path style=" stroke:none;fill-rule:nonzero;fill:rgb(14.509804%,36.078431%,60%);fill-opacity:1;" d="M 381.542969 298.984375 L 381.660156 298.96875 L 381.660156 298.617188 L 382.015625 298.066406 L 382.847656 297.367188 L 383.675781 296.890625 L 385.8125 296.03125 L 388.777344 295.203125 L 391.863281 294.5625 L 394.117188 294.1875 L 396.132812 293.894531 L 400.757812 293.355469 L 403.722656 293.082031 L 406.925781 292.835938 L 410.839844 292.585938 L 413.6875 292.441406 L 420.089844 292.210938 L 424.835938 292.105469 L 428.511719 292.0625 L 436.460938 292.0625 L 441.203125 292.121094 L 444.644531 292.195312 L 448.4375 292.3125 L 451.640625 292.441406 L 457.214844 292.761719 L 462.199219 293.167969 L 464.453125 293.402344 L 468.011719 293.851562 L 470.738281 294.289062 L 472.636719 294.664062 L 474.769531 295.203125 L 476.667969 295.859375 L 478.09375 296.597656 L 478.804688 297.222656 L 462.199219 297.222656 L 461.367188 296.640625 L 460.417969 296.191406 L 458.640625 295.597656 L 456.859375 295.175781 L 454.371094 294.753906 L 452.117188 294.476562 L 449.03125 294.199219 L 446.304688 294.027344 L 443.457031 293.894531 L 440.730469 293.808594 L 435.511719 293.722656 L 429.460938 293.722656 L 427.207031 293.75 L 422.582031 293.867188 L 420.089844 293.96875 L 416.53125 294.171875 L 414.042969 294.359375 L 411.078125 294.652344 L 409.058594 294.898438 L 406.570312 295.277344 L 404.789062 295.609375 L 402.773438 296.089844 L 401.589844 296.453125 L 400.519531 296.859375 L 399.570312 297.339844 L 398.859375 297.847656 L 398.386719 298.386719 L 398.148438 298.910156 L 398.148438 301.164062 L 398.386719 301.6875 L 398.980469 302.296875 L 400.519531 303.183594 L 402.773438 303.953125 L 405.382812 304.5625 L 407.875 305 L 409.296875 305.203125 L 411.195312 305.4375 L 414.160156 305.726562 L 418.429688 306.015625 L 420.921875 306.132812 L 424.71875 306.25 L 428.632812 306.308594 L 433.851562 306.308594 L 438.476562 306.25 L 441.558594 306.175781 L 444.761719 306.0625 L 449.152344 305.8125 L 451.878906 305.582031 L 454.25 305.304688 L 456.03125 305.027344 L 457.214844 304.796875 L 458.996094 304.347656 L 460.417969 303.851562 L 461.488281 303.34375 L 462.199219 302.847656 L 478.804688 302.847656 L 478.09375 303.429688 L 477.023438 303.996094 L 475.957031 304.417969 L 474.296875 304.925781 L 472.398438 305.378906 L 469.671875 305.886719 L 467.417969 306.222656 L 464.453125 306.585938 L 461.722656 306.859375 L 458.757812 307.109375 L 454.371094 307.398438 L 451.523438 307.542969 L 448.4375 307.675781 L 444.761719 307.789062 L 440.136719 307.894531 L 435.15625 307.949219 L 430.527344 307.964844 L 425.546875 307.9375 L 421.871094 307.878906 L 417.007812 307.746094 L 410.957031 307.484375 L 406.570312 307.210938 L 403.128906 306.933594 L 400.164062 306.640625 L 396.84375 306.25 L 392.574219 305.609375 L 389.964844 305.117188 L 388.183594 304.710938 L 386.167969 304.140625 L 384.746094 303.632812 L 383.085938 302.820312 L 381.898438 301.789062 L 381.542969 300.988281 Z M 381.542969 298.984375 "/>
<path style=" stroke:none;fill-rule:nonzero;fill:rgb(96.862745%,70.196078%,16.862745%);fill-opacity:1;" d="M 381.542969 276.910156 L 381.660156 276.886719 L 381.660156 276.441406 L 382.136719 275.4375 L 383.320312 274.054688 L 384.863281 272.914062 L 386.523438 272.023438 L 387.59375 271.554688 L 389.371094 270.882812 L 390.914062 270.394531 L 394.828125 269.386719 L 399.808594 268.449219 L 402.535156 268.050781 L 405.621094 267.667969 L 410.007812 267.246094 L 412.027344 267.089844 L 418.195312 266.730469 L 425.191406 266.507812 L 432.902344 266.441406 L 436.460938 266.464844 L 441.324219 266.554688 L 447.964844 266.800781 L 451.761719 267.023438 L 454.726562 267.246094 L 457.808594 267.535156 L 461.605469 267.980469 L 465.164062 268.519531 L 468.011719 269.054688 L 470.855469 269.722656 L 473.230469 270.4375 L 475.246094 271.21875 L 477.023438 272.15625 L 478.09375 272.9375 L 478.804688 273.71875 L 462.316406 273.71875 L 461.367188 272.9375 L 460.300781 272.335938 L 458.519531 271.597656 L 456.742188 271.0625 L 454.964844 270.636719 L 451.640625 270.058594 L 448.796875 269.699219 L 445.238281 269.386719 L 441.796875 269.1875 L 437.882812 269.054688 L 435.511719 269.007812 L 429.222656 269.007812 L 423.53125 269.164062 L 420.210938 269.34375 L 417.835938 269.523438 L 414.515625 269.855469 L 412.5 270.125 L 411.3125 270.304688 L 407.753906 270.996094 L 405.382812 271.621094 L 404.078125 272.042969 L 402.417969 272.714844 L 401.230469 273.316406 L 399.925781 274.210938 L 399.214844 274.878906 L 398.265625 276.398438 L 398.148438 280.414062 L 398.503906 281.261719 L 399.214844 282.179688 L 400.164062 282.980469 L 401.589844 283.832031 L 403.011719 284.476562 L 405.503906 285.347656 L 407.636719 285.929688 L 409.296875 286.308594 L 412.5 286.910156 L 413.804688 287.113281 L 416.890625 287.511719 L 420.089844 287.824219 L 424.003906 288.09375 L 426.972656 288.226562 L 431.714844 288.339844 L 437.765625 288.339844 L 444.882812 288.207031 L 449.386719 288.027344 L 452.472656 287.847656 L 454.488281 287.691406 L 456.980469 287.445312 L 458.757812 287.222656 L 460.417969 286.976562 L 462.433594 286.597656 L 462.433594 281.261719 L 433.136719 281.242188 L 433.136719 278.742188 L 478.683594 278.71875 L 478.804688 287.445312 L 476.3125 288.050781 L 473.230469 288.628906 L 470.265625 289.074219 L 467.179688 289.457031 L 462.792969 289.878906 L 459.234375 290.148438 L 453.777344 290.460938 L 448.796875 290.660156 L 443.578125 290.792969 L 438.949219 290.863281 L 433.496094 290.882812 L 428.632812 290.839844 L 423.414062 290.707031 L 419.261719 290.527344 L 415.464844 290.304688 L 411.671875 290.011719 L 406.925781 289.542969 L 403.839844 289.164062 L 400.640625 288.695312 L 397.4375 288.136719 L 394.589844 287.535156 L 392.691406 287.066406 L 390.792969 286.53125 L 388.777344 285.863281 L 386.878906 285.101562 L 385.457031 284.410156 L 384.152344 283.628906 L 383.203125 282.894531 L 382.253906 281.886719 L 381.78125 281.085938 L 381.542969 280.394531 Z M 381.542969 276.910156 "/>
<path style=" stroke:none;fill-rule:nonzero;fill:rgb(83.921569%,15.686275%,22.352941%);fill-opacity:1;" d="M 381.542969 309.144531 L 478.804688 309.144531 L 478.804688 309.703125 L 438.269531 309.710938 L 438.269531 314.371094 L 421.960938 314.371094 L 421.960938 309.714844 L 421.722656 309.703125 L 381.542969 309.703125 Z M 381.542969 309.144531 "/>
<path style=" stroke:none;fill-rule:nonzero;fill:rgb(6.27451%,58.823529%,28.235294%);fill-opacity:1;" d="M 483.921875 303.605469 L 484.027344 303.59375 L 526.109375 291.355469 L 538.890625 291.355469 L 581.183594 303.617188 L 566.324219 303.617188 L 555.726562 300.417969 L 509.277344 300.417969 L 498.886719 303.605469 L 483.921875 303.605469 L 513.746094 299.09375 L 551.464844 299.082031 L 532.65625 293.359375 L 532.449219 293.347656 L 532.242188 293.382812 L 513.640625 299.082031 L 513.746094 299.09375 Z M 483.921875 303.605469 "/>
<path style=" stroke:none;fill-rule:nonzero;fill:rgb(14.509804%,36.078431%,60%);fill-opacity:1;" d="M 483.921875 281.734375 L 484.042969 281.71875 L 484.042969 281.390625 L 484.398438 280.871094 L 485.226562 280.214844 L 486.058594 279.765625 L 488.191406 278.957031 L 491.15625 278.179688 L 494.242188 277.578125 L 496.496094 277.222656 L 498.511719 276.949219 L 503.136719 276.445312 L 506.101562 276.183594 L 509.304688 275.953125 L 513.21875 275.71875 L 516.066406 275.582031 L 522.472656 275.363281 L 527.214844 275.269531 L 530.894531 275.226562 L 538.839844 275.226562 L 543.585938 275.28125 L 547.023438 275.351562 L 550.820312 275.460938 L 554.023438 275.582031 L 559.597656 275.882812 L 564.578125 276.265625 L 566.832031 276.484375 L 570.390625 276.910156 L 573.117188 277.320312 L 575.015625 277.675781 L 577.152344 278.179688 L 579.050781 278.792969 L 580.472656 279.492188 L 581.183594 280.078125 L 564.578125 280.078125 L 563.75 279.53125 L 562.800781 279.109375 L 561.019531 278.546875 L 559.242188 278.152344 L 556.75 277.757812 L 554.496094 277.496094 L 551.414062 277.238281 L 548.683594 277.074219 L 545.839844 276.949219 L 543.109375 276.867188 L 537.890625 276.785156 L 531.84375 276.785156 L 529.589844 276.8125 L 524.960938 276.921875 L 522.472656 277.019531 L 518.914062 277.210938 L 516.421875 277.386719 L 513.457031 277.660156 L 511.441406 277.894531 L 508.949219 278.25 L 507.171875 278.5625 L 505.15625 279.011719 L 503.96875 279.355469 L 502.902344 279.738281 L 501.953125 280.1875 L 501.238281 280.667969 L 500.765625 281.171875 L 500.527344 281.664062 L 500.527344 283.78125 L 500.765625 284.273438 L 501.359375 284.847656 L 502.902344 285.683594 L 505.15625 286.40625 L 507.765625 286.980469 L 510.253906 287.390625 L 511.679688 287.582031 L 513.574219 287.800781 L 516.539062 288.074219 L 520.8125 288.347656 L 523.300781 288.457031 L 527.097656 288.566406 L 531.011719 288.621094 L 536.230469 288.621094 L 540.855469 288.566406 L 543.941406 288.496094 L 547.144531 288.386719 L 551.53125 288.15625 L 554.257812 287.9375 L 556.632812 287.675781 L 558.410156 287.417969 L 559.597656 287.199219 L 561.375 286.773438 L 562.800781 286.308594 L 563.867188 285.832031 L 564.578125 285.367188 L 581.183594 285.367188 L 580.472656 285.914062 L 579.40625 286.445312 L 578.335938 286.84375 L 576.675781 287.320312 L 574.777344 287.746094 L 572.050781 288.222656 L 569.796875 288.539062 L 566.832031 288.878906 L 564.105469 289.140625 L 561.140625 289.371094 L 556.75 289.644531 L 553.902344 289.78125 L 550.820312 289.902344 L 547.144531 290.011719 L 542.515625 290.109375 L 537.535156 290.164062 L 532.910156 290.175781 L 527.925781 290.148438 L 524.25 290.09375 L 519.386719 289.972656 L 513.339844 289.726562 L 508.949219 289.46875 L 505.511719 289.207031 L 502.542969 288.933594 L 499.222656 288.566406 L 494.953125 287.964844 L 492.34375 287.5 L 490.566406 287.117188 L 488.546875 286.582031 L 487.125 286.105469 L 485.464844 285.339844 L 484.277344 284.371094 L 483.921875 283.617188 Z M 483.921875 281.734375 "/>
<path style=" stroke:none;fill-rule:nonzero;fill:rgb(96.862745%,70.196078%,16.862745%);fill-opacity:1;" d="M 483.921875 131.804688 L 484.042969 131.574219 L 484.042969 127.03125 L 484.515625 116.804688 L 485.703125 102.71875 L 487.242188 91.128906 L 488.90625 82.039062 L 489.972656 77.269531 L 491.75 70.449219 L 493.292969 65.453125 L 497.207031 55.226562 L 502.1875 45.683594 L 504.917969 41.59375 L 508 37.730469 L 512.390625 33.414062 L 514.40625 31.820312 L 520.574219 28.1875 L 527.570312 25.914062 L 535.28125 25.230469 L 538.839844 25.460938 L 543.703125 26.367188 L 550.34375 28.867188 L 554.140625 31.140625 L 557.105469 33.414062 L 560.191406 36.367188 L 563.984375 40.910156 L 567.542969 46.363281 L 570.390625 51.816406 L 573.238281 58.636719 L 575.609375 65.90625 L 577.625 73.859375 L 579.40625 83.402344 L 580.472656 91.355469 L 581.183594 99.308594 L 564.695312 99.308594 L 563.75 91.355469 L 562.679688 85.222656 L 560.902344 77.722656 L 559.121094 72.269531 L 557.34375 67.953125 L 554.023438 62.042969 L 551.175781 58.40625 L 547.617188 55.226562 L 544.175781 53.179688 L 540.261719 51.816406 L 537.890625 51.363281 L 531.605469 51.363281 L 525.910156 52.953125 L 522.589844 54.773438 L 520.21875 56.589844 L 516.898438 60 L 514.878906 62.726562 L 513.695312 64.542969 L 510.136719 71.585938 L 507.765625 77.949219 L 506.460938 82.265625 L 504.796875 89.082031 L 503.613281 95.21875 L 502.308594 104.308594 L 501.597656 111.125 L 500.648438 126.578125 L 500.527344 167.476562 L 500.882812 176.113281 L 501.597656 185.429688 L 502.542969 193.609375 L 503.96875 202.242188 L 505.390625 208.832031 L 507.882812 217.695312 L 510.015625 223.605469 L 511.679688 227.464844 L 514.878906 233.601562 L 516.183594 235.648438 L 519.269531 239.738281 L 522.472656 242.917969 L 526.386719 245.644531 L 529.351562 247.007812 L 534.09375 248.144531 L 540.144531 248.144531 L 547.261719 246.78125 L 551.769531 244.964844 L 554.851562 243.144531 L 556.867188 241.554688 L 559.359375 239.054688 L 561.140625 236.78125 L 562.800781 234.285156 L 564.816406 230.421875 L 564.816406 176.113281 L 535.519531 175.886719 L 535.519531 150.4375 L 581.066406 150.207031 L 581.183594 239.054688 L 578.691406 245.191406 L 575.609375 251.097656 L 572.644531 255.644531 L 569.558594 259.507812 L 565.171875 263.824219 L 561.613281 266.550781 L 556.15625 269.730469 L 551.175781 271.777344 L 545.957031 273.140625 L 541.332031 273.820312 L 535.875 274.046875 L 531.011719 273.59375 L 525.792969 272.230469 L 521.640625 270.414062 L 517.847656 268.140625 L 514.050781 265.1875 L 509.304688 260.414062 L 506.222656 256.550781 L 503.019531 251.78125 L 499.816406 246.097656 L 496.96875 239.964844 L 495.074219 235.191406 L 493.175781 229.738281 L 491.15625 222.921875 L 489.261719 215.195312 L 487.835938 208.152344 L 486.53125 200.199219 L 485.582031 192.699219 L 484.632812 182.476562 L 484.160156 174.292969 L 483.921875 167.25 Z M 483.921875 131.804688 "/>
<path style=" stroke:none;fill-rule:nonzero;fill:rgb(83.921569%,15.686275%,22.352941%);fill-opacity:1;" d="M 483.921875 304.796875 L 581.183594 304.796875 L 581.183594 305.824219 L 540.648438 305.832031 L 540.648438 314.371094 L 524.339844 314.371094 L 524.339844 305.839844 L 524.105469 305.824219 L 483.921875 305.824219 Z M 483.921875 304.796875 "/>
<path style=" stroke:none;fill-rule:nonzero;fill:rgb(6.27451%,58.823529%,28.235294%);fill-opacity:1;" d="M 586.304688 304.84375 L 586.40625 304.835938 L 628.492188 299.59375 L 641.273438 299.59375 L 683.5625 304.847656 L 668.703125 304.847656 L 658.105469 303.476562 L 611.65625 303.476562 L 601.265625 304.84375 L 586.304688 304.84375 L 616.125 302.910156 L 653.84375 302.902344 L 635.039062 300.449219 L 634.828125 300.445312 L 634.621094 300.460938 L 616.023438 302.902344 L 616.125 302.910156 Z M 586.304688 304.84375 "/>
<path style=" stroke:none;fill-rule:nonzero;fill:rgb(14.509804%,36.078431%,60%);fill-opacity:1;" d="M 586.304688 292.390625 L 586.421875 292.382812 L 586.421875 292.148438 L 586.777344 291.777344 L 587.609375 291.308594 L 588.4375 290.988281 L 590.574219 290.414062 L 593.539062 289.859375 L 596.621094 289.429688 L 598.875 289.175781 L 600.890625 288.980469 L 605.519531 288.621094 L 608.484375 288.433594 L 611.6875 288.269531 L 615.601562 288.105469 L 618.445312 288.007812 L 624.851562 287.851562 L 629.597656 287.78125 L 633.273438 287.753906 L 641.21875 287.753906 L 645.964844 287.792969 L 649.402344 287.839844 L 653.199219 287.917969 L 656.402344 288.007812 L 661.976562 288.21875 L 666.957031 288.492188 L 669.210938 288.648438 L 672.769531 288.953125 L 675.5 289.242188 L 677.398438 289.496094 L 679.53125 289.859375 L 681.429688 290.296875 L 682.851562 290.792969 L 683.5625 291.210938 L 666.957031 291.210938 L 666.128906 290.824219 L 665.179688 290.519531 L 663.402344 290.121094 L 661.621094 289.839844 L 659.128906 289.554688 L 656.875 289.371094 L 653.792969 289.183594 L 651.066406 289.066406 L 648.21875 288.980469 L 645.488281 288.921875 L 640.269531 288.863281 L 634.222656 288.863281 L 631.96875 288.882812 L 627.34375 288.960938 L 624.851562 289.03125 L 621.292969 289.164062 L 618.800781 289.292969 L 615.835938 289.488281 L 613.820312 289.652344 L 611.328125 289.90625 L 609.550781 290.128906 L 607.535156 290.453125 L 606.347656 290.695312 L 605.28125 290.96875 L 604.332031 291.289062 L 603.621094 291.632812 L 603.144531 291.992188 L 602.910156 292.34375 L 602.910156 293.851562 L 603.144531 294.203125 L 603.738281 294.613281 L 605.28125 295.207031 L 607.535156 295.722656 L 610.144531 296.132812 L 612.636719 296.425781 L 614.058594 296.5625 L 615.957031 296.71875 L 618.921875 296.914062 L 623.191406 297.105469 L 625.683594 297.183594 L 629.476562 297.261719 L 633.390625 297.300781 L 638.609375 297.300781 L 643.238281 297.261719 L 646.320312 297.214844 L 649.523438 297.136719 L 653.910156 296.972656 L 656.640625 296.816406 L 659.011719 296.628906 L 660.789062 296.445312 L 661.976562 296.289062 L 663.757812 295.988281 L 665.179688 295.65625 L 666.246094 295.3125 L 666.957031 294.984375 L 683.5625 294.984375 L 682.851562 295.371094 L 681.785156 295.753906 L 680.71875 296.035156 L 679.058594 296.375 L 677.160156 296.679688 L 674.429688 297.019531 L 672.175781 297.242188 L 669.210938 297.488281 L 666.484375 297.671875 L 663.519531 297.839844 L 659.128906 298.03125 L 656.285156 298.128906 L 653.199219 298.21875 L 649.523438 298.296875 L 644.898438 298.363281 L 639.914062 298.402344 L 635.289062 298.414062 L 630.308594 298.394531 L 626.632812 298.355469 L 621.769531 298.265625 L 615.71875 298.089844 L 611.328125 297.90625 L 607.890625 297.722656 L 604.925781 297.527344 L 601.605469 297.261719 L 597.332031 296.835938 L 594.722656 296.503906 L 592.945312 296.230469 L 590.929688 295.851562 L 589.503906 295.507812 L 587.84375 294.964844 L 586.660156 294.273438 L 586.304688 293.734375 Z M 586.304688 292.390625 "/>
<path style=" stroke:none;fill-rule:nonzero;fill:rgb(96.862745%,70.196078%,16.862745%);fill-opacity:1;" d="M 586.304688 307.617188 L 586.421875 307.613281 L 586.421875 307.546875 L 586.894531 307.394531 L 588.082031 307.183594 L 589.625 307.011719 L 591.285156 306.875 L 592.351562 306.804688 L 594.132812 306.703125 L 595.671875 306.625 L 599.585938 306.472656 L 604.570312 306.332031 L 607.296875 306.269531 L 610.382812 306.214844 L 614.769531 306.148438 L 616.785156 306.125 L 622.953125 306.070312 L 629.953125 306.039062 L 637.660156 306.027344 L 641.21875 306.03125 L 646.082031 306.042969 L 652.726562 306.082031 L 656.519531 306.113281 L 659.484375 306.148438 L 662.570312 306.191406 L 666.367188 306.261719 L 669.925781 306.34375 L 672.769531 306.421875 L 675.617188 306.523438 L 677.988281 306.632812 L 680.007812 306.753906 L 681.785156 306.894531 L 682.851562 307.011719 L 683.5625 307.132812 L 667.078125 307.132812 L 666.128906 307.011719 L 665.0625 306.921875 L 663.28125 306.808594 L 661.503906 306.730469 L 659.722656 306.664062 L 656.402344 306.574219 L 653.554688 306.523438 L 649.996094 306.472656 L 646.558594 306.445312 L 642.644531 306.421875 L 640.269531 306.417969 L 633.984375 306.417969 L 628.292969 306.441406 L 624.96875 306.46875 L 622.597656 306.496094 L 619.277344 306.546875 L 617.261719 306.585938 L 616.074219 306.613281 L 612.515625 306.71875 L 610.144531 306.8125 L 608.839844 306.878906 L 607.179688 306.980469 L 605.992188 307.070312 L 604.6875 307.207031 L 603.976562 307.308594 L 603.027344 307.539062 L 602.910156 308.148438 L 603.265625 308.277344 L 603.976562 308.417969 L 604.925781 308.539062 L 606.347656 308.667969 L 607.773438 308.765625 L 610.261719 308.898438 L 612.398438 308.984375 L 614.058594 309.042969 L 617.261719 309.132812 L 618.566406 309.164062 L 621.648438 309.226562 L 624.851562 309.273438 L 628.765625 309.3125 L 631.730469 309.335938 L 636.476562 309.351562 L 642.523438 309.351562 L 649.640625 309.332031 L 654.148438 309.304688 L 657.234375 309.277344 L 659.25 309.253906 L 661.738281 309.214844 L 663.519531 309.183594 L 665.179688 309.144531 L 667.195312 309.085938 L 667.195312 308.277344 L 637.898438 308.273438 L 637.898438 307.894531 L 683.445312 307.890625 L 683.5625 309.214844 L 681.074219 309.308594 L 677.988281 309.394531 L 675.023438 309.464844 L 671.941406 309.519531 L 667.550781 309.585938 L 663.992188 309.625 L 658.539062 309.671875 L 653.554688 309.703125 L 648.335938 309.722656 L 643.710938 309.734375 L 638.253906 309.738281 L 633.390625 309.730469 L 628.171875 309.710938 L 624.019531 309.683594 L 620.226562 309.648438 L 616.429688 309.605469 L 611.6875 309.535156 L 608.601562 309.476562 L 605.398438 309.40625 L 602.195312 309.320312 L 599.351562 309.230469 L 597.453125 309.160156 L 595.554688 309.078125 L 593.539062 308.976562 L 591.640625 308.859375 L 590.21875 308.753906 L 588.914062 308.636719 L 587.964844 308.523438 L 587.015625 308.371094 L 586.539062 308.25 L 586.304688 308.144531 Z M 586.304688 307.617188 "/>
<path style=" stroke:none;fill-rule:nonzero;fill:rgb(83.921569%,15.686275%,22.352941%);fill-opacity:1;" d="M 586.304688 310.917969 L 683.5625 310.917969 L 683.5625 311.285156 L 643.027344 311.289062 L 643.027344 314.371094 L 626.71875 314.371094 L 626.71875 311.292969 L 626.484375 311.285156 L 586.304688 311.285156 Z M 586.304688 310.917969 "/>
<g style="fill:rgb(0%,0%,0%);fill-opacity:1;">
  <use xlink:href="#glyph0-1" x="21.957031" y="318.198242"/>
  <use xlink:href="#glyph0-2" x="27.291016" y="318.198242"/>
  <use xlink:href="#glyph0-1" x="29.958008" y="318.198242"/>
  <use xlink:href="#glyph0-1" x="35.291992" y="318.198242"/>
</g>
<g style="fill:rgb(0%,0%,0%);fill-opacity:1;">
  <use xlink:href="#glyph0-1" x="21.957031" y="257.776367"/>
  <use xlink:href="#glyph0-2" x="27.291016" y="257.776367"/>
  <use xlink:href="#glyph0-3" x="29.958008" y="257.776367"/>
  <use xlink:href="#glyph0-4" x="35.291992" y="257.776367"/>
</g>
<g style="fill:rgb(0%,0%,0%);fill-opacity:1;">
  <use xlink:href="#glyph0-1" x="21.957031" y="197.354492"/>
  <use xlink:href="#glyph0-2" x="27.291016" y="197.354492"/>
  <use xlink:href="#glyph0-4" x="29.958008" y="197.354492"/>
  <use xlink:href="#glyph0-1" x="35.291992" y="197.354492"/>
</g>
<g style="fill:rgb(0%,0%,0%);fill-opacity:1;">
  <use xlink:href="#glyph0-1" x="21.957031" y="136.936523"/>
  <use xlink:href="#glyph0-2" x="27.291016" y="136.936523"/>
  <use xlink:href="#glyph0-5" x="29.958008" y="136.936523"/>
  <use xlink:href="#glyph0-4" x="35.291992" y="136.936523"/>
</g>
<g style="fill:rgb(0%,0%,0%);fill-opacity:1;">
  <use xlink:href="#glyph0-6" x="21.957031" y="76.514648"/>
  <use xlink:href="#glyph0-2" x="27.291016" y="76.514648"/>
  <use xlink:href="#glyph0-1" x="29.958008" y="76.514648"/>
  <use xlink:href="#glyph0-1" x="35.291992" y="76.514648"/>
</g>
<g style="fill:rgb(0%,0%,0%);fill-opacity:1;">
  <use xlink:href="#glyph0-6" x="21.957031" y="16.092773"/>
  <use xlink:href="#glyph0-2" x="27.291016" y="16.092773"/>
  <use xlink:href="#glyph0-3" x="29.958008" y="16.092773"/>
  <use xlink:href="#glyph0-4" x="35.291992" y="16.092773"/>
</g>
<g style="fill:rgb(0%,0%,0%);fill-opacity:1;">
  <use xlink:href="#glyph0-6" x="120.03125" y="338.19043"/>
</g>
<g style="fill:rgb(0%,0%,0%);fill-opacity:1;">
  <use xlink:href="#glyph0-3" x="222.414062" y="338.19043"/>
</g>
<g style="fill:rgb(0%,0%,0%);fill-opacity:1;">
  <use xlink:href="#glyph0-7" x="324.792969" y="338.19043"/>
</g>
<g style="fill:rgb(0%,0%,0%);fill-opacity:1;">
  <use xlink:href="#glyph0-8" x="427.171875" y="338.19043"/>
</g>
<g style="fill:rgb(0%,0%,0%);fill-opacity:1;">
  <use xlink:href="#glyph0-4" x="529.554688" y="338.19043"/>
</g>
<g style="fill:rgb(0%,0%,0%);fill-opacity:1;">
  <use xlink:href="#glyph0-9" x="631.933594" y="338.19043"/>
</g>
<g style="fill:rgb(0%,0%,0%);fill-opacity:1;">
  <use xlink:href="#glyph1-1" x="14.412109" y="178.015625"/>
  <use xlink:href="#glyph1-2" x="14.412109" y="170.011719"/>
  <use xlink:href="#glyph1-3" x="14.412109" y="167.347656"/>
  <use xlink:href="#glyph1-4" x="14.412109" y="164.011719"/>
</g>
</g>
</svg>
