<?xml version="1.0" encoding="UTF-8" standalone="yes"?>
                 <!DOCTYPE svg PUBLIC "-//W3C//DTD SVG 1.0//EN" "http://www.w3.org/TR/2001/REC-SVG-20010904/DTD/svg10.dtd">
                 <svg height="500" width="720" xmlns="http://www.w3.org/2000/svg" xmlns:xlink="http://www.w3.org/1999/xlink">
                 <line x1="85" y1="450" x2="687" y2="450" style="stroke:rgb(99,99,99);stroke-width:2" />
<rect height="7.000000" width="2.000000" x="85.000000" y="450.000000" fill="rgb(0, 0, 0)" style="fill-opacity:1.00" />
<text x="107.000000" y="470">
1
</text>
<rect height="7.000000" width="2.000000" x="145.000000" y="450.000000" fill="rgb(0, 0, 0)" style="fill-opacity:1.00" />
<text x="167.000000" y="470">
2
</text>
<rect height="7.000000" width="2.000000" x="205.000000" y="450.000000" fill="rgb(0, 0, 0)" style="fill-opacity:1.00" />
<text x="227.000000" y="470">
3
</text>
<rect height="7.000000" width="2.000000" x="265.000000" y="450.000000" fill="rgb(0, 0, 0)" style="fill-opacity:1.00" />
<text x="287.000000" y="470">
4
</text>
<rect height="7.000000" width="2.000000" x="325.000000" y="450.000000" fill="rgb(0, 0, 0)" style="fill-opacity:1.00" />
<text x="347.000000" y="470">
5
</text>
<rect height="7.000000" width="2.000000" x="385.000000" y="450.000000" fill="rgb(0, 0, 0)" style="fill-opacity:1.00" />
<text x="407.000000" y="470">
6
</text>
<rect height="7.000000" width="2.000000" x="445.000000" y="450.000000" fill="rgb(0, 0, 0)" style="fill-opacity:1.00" />
<text x="467.000000" y="470">
7
</text>
<rect height="7.000000" width="2.000000" x="505.000000" y="450.000000" fill="rgb(0, 0, 0)" style="fill-opacity:1.00" />
<text x="527.000000" y="470">
8
</text>
<rect height="7.000000" width="2.000000" x="565.000000" y="450.000000" fill="rgb(0, 0, 0)" style="fill-opacity:1.00" />
<text x="587.000000" y="470">
9
</text>
<rect height="7.000000" width="2.000000" x="625.000000" y="450.000000" fill="rgb(0, 0, 0)" style="fill-opacity:1.00" />
<text x="647.000000" y="470">
10
</text>
<rect height="7.000000" width="2.000000" x="685.000000" y="450.000000" fill="rgb(0, 0, 0)" style="fill-opacity:1.00" />
<!-- Begin 'A' -->
<polygon points=" 10.000000, 110.000000, 35.200000, 10.000000, 44.800000, 10.000000, 70.000000, 110.000000, 61.000000, 110.000000, 53.500000, 85.000000, 26.500000, 85.000000, 19.000000, 110.000000" fill="rgb(178, 34, 34)" style="fill-opacity:1.00" />
<polygon points=" 40.000000, 30.000000, 30.400000, 69.000000, 48.400000, 69.000000" fill="rgb(255, 255, 255)" style="fill-opacity:1.00" />
<!-- End 'A' -->
<!-- Begin 'C' -->
<ellipse cx="40.000000" cy="170.000000" rx="30.000000" ry="50.000000" fill="rgb(0, 0, 128)" style="fill-opacity:1.00" />
<ellipse cx="40.000000" cy="170.000000" rx="20.000000" ry="33.333333" fill="rgb(255, 255, 255)" style="fill-opacity:1.00" />
<rect height="50.000000" width="30.000000" x="40.000000" y="145.000000" fill="rgb(255, 255, 255)" style="fill-opacity:1.00" />
<!-- End 'C' -->
<!-- Begin 'G' -->
<ellipse cx="40.000000" cy="280.000000" rx="30.000000" ry="50.000000" fill="rgb(255, 165, 0)" style="fill-opacity:1.00" />
<ellipse cx="40.000000" cy="280.000000" rx="20.000000" ry="33.333333" fill="rgb(255, 255, 255)" style="fill-opacity:1.00" />
<rect height="50.000000" width="30.000000" x="40.000000" y="255.000000" fill="rgb(255, 255, 255)" style="fill-opacity:1.00" />
<rect height="12.500000" width="30.000000" x="40.000000" y="292.500000" fill="rgb(255, 165, 0)" style="fill-opacity:1.00" />
<rect height="37.500000" width="7.500000" x="62.500000" y="292.500000" fill="rgb(255, 165, 0)" style="fill-opacity:1.00" />
<!-- End 'G' -->
<!-- Begin 'T' -->
<rect height="16.000000" width="60.000000" x="10.000000" y="340.000000" fill="rgb(0, 100, 0)" style="fill-opacity:1.00" />
<rect height="100.000000" width="12.000000" x="34.000000" y="340.000000" fill="rgb(0, 100, 0)" style="fill-opacity:1.00" />
<!-- End 'T' -->
<!-- Begin 'A' -->
<polygon points=" 90.000000, 79.050499, 111.000000, 10.000000, 119.000000, 10.000000, 140.000000, 79.050499, 132.500000, 79.050499, 126.250000, 61.787874, 103.750000, 61.787874, 97.500000, 79.050499" fill="rgb(178, 34, 34)" style="fill-opacity:0.25" />
<polygon points=" 115.000000, 23.810100, 107.000000, 50.430299, 122.000000, 50.430299" fill="rgb(255, 255, 255)" style="fill-opacity:1.00" />
<!-- End 'A' -->
<!-- Begin 'T' -->
<rect height="2.247354" width="50.000000" x="90.000000" y="79.050499" fill="rgb(0, 100, 0)" style="fill-opacity:0.25" />
<rect height="14.045963" width="10.000000" x="110.000000" y="79.050499" fill="rgb(0, 100, 0)" style="fill-opacity:0.25" />
<!-- End 'T' -->
<!-- Begin 'G' -->
<ellipse cx="115.000000" cy="99.514666" rx="25.000000" ry="6.418204" fill="rgb(255, 165, 0)" style="fill-opacity:0.25" />
<ellipse cx="115.000000" cy="99.514666" rx="16.666667" ry="4.278803" fill="rgb(255, 255, 255)" style="fill-opacity:1.00" />
<rect height="6.418204" width="25.000000" x="115.000000" y="96.305564" fill="rgb(255, 255, 255)" style="fill-opacity:1.00" />
<rect height="1.604551" width="25.000000" x="115.000000" y="101.119217" fill="rgb(255, 165, 0)" style="fill-opacity:0.25" />
<rect height="4.813653" width="6.250000" x="133.750000" y="101.119217" fill="rgb(255, 165, 0)" style="fill-opacity:0.25" />
<!-- End 'G' -->
<!-- Begin 'C' -->
<ellipse cx="115.000000" cy="107.966435" rx="25.000000" ry="2.033565" fill="rgb(0, 0, 128)" style="fill-opacity:0.25" />
<ellipse cx="115.000000" cy="107.966435" rx="16.666667" ry="1.355710" fill="rgb(255, 255, 255)" style="fill-opacity:1.00" />
<rect height="2.033565" width="25.000000" x="115.000000" y="106.949652" fill="rgb(255, 255, 255)" style="fill-opacity:1.00" />
<!-- End 'C' -->
<!-- Begin 'A' -->
<polygon points=" 90.000000, 189.050499, 111.000000, 120.000000, 119.000000, 120.000000, 140.000000, 189.050499, 132.500000, 189.050499, 126.250000, 171.787874, 103.750000, 171.787874, 97.500000, 189.050499" fill="rgb(178, 34, 34)" style="fill-opacity:0.25" />
<polygon points=" 115.000000, 133.810100, 107.000000, 160.430299, 122.000000, 160.430299" fill="rgb(255, 255, 255)" style="fill-opacity:1.00" />
<!-- End 'A' -->
<!-- Begin 'T' -->
<rect height="2.247354" width="50.000000" x="90.000000" y="189.050499" fill="rgb(0, 100, 0)" style="fill-opacity:0.25" />
<rect height="14.045963" width="10.000000" x="110.000000" y="189.050499" fill="rgb(0, 100, 0)" style="fill-opacity:0.25" />
<!-- End 'T' -->
<!-- Begin 'G' -->
<ellipse cx="115.000000" cy="209.514666" rx="25.000000" ry="6.418204" fill="rgb(255, 165, 0)" style="fill-opacity:0.25" />
<ellipse cx="115.000000" cy="209.514666" rx="16.666667" ry="4.278803" fill="rgb(255, 255, 255)" style="fill-opacity:1.00" />
<rect height="6.418204" width="25.000000" x="115.000000" y="206.305564" fill="rgb(255, 255, 255)" style="fill-opacity:1.00" />
<rect height="1.604551" width="25.000000" x="115.000000" y="211.119217" fill="rgb(255, 165, 0)" style="fill-opacity:0.25" />
<rect height="4.813653" width="6.250000" x="133.750000" y="211.119217" fill="rgb(255, 165, 0)" style="fill-opacity:0.25" />
<!-- End 'G' -->
<!-- Begin 'C' -->
<ellipse cx="115.000000" cy="217.966435" rx="25.000000" ry="2.033565" fill="rgb(0, 0, 128)" style="fill-opacity:0.25" />
<ellipse cx="115.000000" cy="217.966435" rx="16.666667" ry="1.355710" fill="rgb(255, 255, 255)" style="fill-opacity:1.00" />
<rect height="2.033565" width="25.000000" x="115.000000" y="216.949652" fill="rgb(255, 255, 255)" style="fill-opacity:1.00" />
<!-- End 'C' -->
<!-- Begin 'A' -->
<polygon points=" 90.000000, 299.050499, 111.000000, 230.000000, 119.000000, 230.000000, 140.000000, 299.050499, 132.500000, 299.050499, 126.250000, 281.787874, 103.750000, 281.787874, 97.500000, 299.050499" fill="rgb(178, 34, 34)" style="fill-opacity:0.25" />
<polygon points=" 115.000000, 243.810100, 107.000000, 270.430299, 122.000000, 270.430299" fill="rgb(255, 255, 255)" style="fill-opacity:1.00" />
<!-- End 'A' -->
<!-- Begin 'T' -->
<rect height="2.247354" width="50.000000" x="90.000000" y="299.050499" fill="rgb(0, 100, 0)" style="fill-opacity:0.25" />
<rect height="14.045963" width="10.000000" x="110.000000" y="299.050499" fill="rgb(0, 100, 0)" style="fill-opacity:0.25" />
<!-- End 'T' -->
<!-- Begin 'G' -->
<ellipse cx="115.000000" cy="319.514666" rx="25.000000" ry="6.418204" fill="rgb(255, 165, 0)" style="fill-opacity:0.25" />
<ellipse cx="115.000000" cy="319.514666" rx="16.666667" ry="4.278803" fill="rgb(255, 255, 255)" style="fill-opacity:1.00" />
<rect height="6.418204" width="25.000000" x="115.000000" y="316.305564" fill="rgb(255, 255, 255)" style="fill-opacity:1.00" />
<rect height="1.604551" width="25.000000" x="115.000000" y="321.119217" fill="rgb(255, 165, 0)" style="fill-opacity:0.25" />
<rect height="4.813653" width="6.250000" x="133.750000" y="321.119217" fill="rgb(255, 165, 0)" style="fill-opacity:0.25" />
<!-- End 'G' -->
<!-- Begin 'C' -->
<ellipse cx="115.000000" cy="327.966435" rx="25.000000" ry="2.033565" fill="rgb(0, 0, 128)" style="fill-opacity:0.25" />
<ellipse cx="115.000000" cy="327.966435" rx="16.666667" ry="1.355710" fill="rgb(255, 255, 255)" style="fill-opacity:1.00" />
<rect height="2.033565" width="25.000000" x="115.000000" y="326.949652" fill="rgb(255, 255, 255)" style="fill-opacity:1.00" />
<!-- End 'C' -->
<!-- Begin 'A' -->
<polygon points=" 90.000000, 409.050499, 111.000000, 340.000000, 119.000000, 340.000000, 140.000000, 409.050499, 132.500000, 409.050499, 126.250000, 391.787874, 103.750000, 391.787874, 97.500000, 409.050499" fill="rgb(178, 34, 34)" style="fill-opacity:0.25" />
<polygon points=" 115.000000, 353.810100, 107.000000, 380.430299, 122.000000, 380.430299" fill="rgb(255, 255, 255)" style="fill-opacity:1.00" />
<!-- End 'A' -->
<!-- Begin 'T' -->
<rect height="2.247354" width="50.000000" x="90.000000" y="409.050499" fill="rgb(0, 100, 0)" style="fill-opacity:0.25" />
<rect height="14.045963" width="10.000000" x="110.000000" y="409.050499" fill="rgb(0, 100, 0)" style="fill-opacity:0.25" />
<!-- End 'T' -->
<!-- Begin 'G' -->
<ellipse cx="115.000000" cy="429.514666" rx="25.000000" ry="6.418204" fill="rgb(255, 165, 0)" style="fill-opacity:0.25" />
<ellipse cx="115.000000" cy="429.514666" rx="16.666667" ry="4.278803" fill="rgb(255, 255, 255)" style="fill-opacity:1.00" />
<rect height="6.418204" width="25.000000" x="115.000000" y="426.305564" fill="rgb(255, 255, 255)" style="fill-opacity:1.00" />
<rect height="1.604551" width="25.000000" x="115.000000" y="431.119217" fill="rgb(255, 165, 0)" style="fill-opacity:0.25" />
<rect height="4.813653" width="6.250000" x="133.750000" y="431.119217" fill="rgb(255, 165, 0)" style="fill-opacity:0.25" />
<!-- End 'G' -->
<!-- Begin 'C' -->
<ellipse cx="115.000000" cy="437.966435" rx="25.000000" ry="2.033565" fill="rgb(0, 0, 128)" style="fill-opacity:0.25" />
<ellipse cx="115.000000" cy="437.966435" rx="16.666667" ry="1.355710" fill="rgb(255, 255, 255)" style="fill-opacity:1.00" />
<rect height="2.033565" width="25.000000" x="115.000000" y="436.949652" fill="rgb(255, 255, 255)" style="fill-opacity:1.00" />
<!-- End 'C' -->
<!-- Begin 'C' -->
<ellipse cx="175.000000" cy="44.525249" rx="25.000000" ry="34.525249" fill="rgb(0, 0, 128)" style="fill-opacity:0.69" />
<ellipse cx="175.000000" cy="44.525249" rx="16.666667" ry="23.016833" fill="rgb(255, 255, 255)" style="fill-opacity:1.00" />
<rect height="34.525249" width="25.000000" x="175.000000" y="27.262625" fill="rgb(255, 255, 255)" style="fill-opacity:1.00" />
<!-- End 'C' -->
<!-- Begin 'A' -->
<polygon points=" 150.000000, 88.832779, 171.000000, 79.050499, 179.000000, 79.050499, 200.000000, 88.832779, 192.500000, 88.832779, 186.250000, 86.387209, 163.750000, 86.387209, 157.500000, 88.832779" fill="rgb(178, 34, 34)" style="fill-opacity:0.69" />
<polygon points=" 175.000000, 81.006955, 167.000000, 83.919867, 182.000000, 83.919867" fill="rgb(255, 255, 255)" style="fill-opacity:1.00" />
<!-- End 'A' -->
<!-- Begin 'G' -->
<ellipse cx="175.000000" cy="91.849108" rx="25.000000" ry="3.016329" fill="rgb(255, 165, 0)" style="fill-opacity:0.69" />
<ellipse cx="175.000000" cy="91.849108" rx="16.666667" ry="2.010886" fill="rgb(255, 255, 255)" style="fill-opacity:1.00" />
<rect height="3.016329" width="25.000000" x="175.000000" y="90.340943" fill="rgb(255, 255, 255)" style="fill-opacity:1.00" />
<rect height="0.754082" width="25.000000" x="175.000000" y="92.603190" fill="rgb(255, 165, 0)" style="fill-opacity:0.69" />
<rect height="2.262247" width="6.250000" x="193.750000" y="92.603190" fill="rgb(255, 165, 0)" style="fill-opacity:0.69" />
<!-- End 'G' -->
<!-- Begin 'T' -->
<rect height="0.237073" width="50.000000" x="150.000000" y="94.865437" fill="rgb(0, 100, 0)" style="fill-opacity:0.69" />
<rect height="1.481705" width="10.000000" x="170.000000" y="94.865437" fill="rgb(0, 100, 0)" style="fill-opacity:0.69" />
<!-- End 'T' -->
<!-- Begin 'C' -->
<ellipse cx="175.000000" cy="140.872392" rx="25.000000" ry="34.525249" fill="rgb(0, 0, 128)" style="fill-opacity:0.04" />
<ellipse cx="175.000000" cy="140.872392" rx="16.666667" ry="23.016833" fill="rgb(255, 255, 255)" style="fill-opacity:1.00" />
<rect height="34.525249" width="25.000000" x="175.000000" y="123.609767" fill="rgb(255, 255, 255)" style="fill-opacity:1.00" />
<!-- End 'C' -->
<!-- Begin 'A' -->
<polygon points=" 150.000000, 185.179921, 171.000000, 175.397641, 179.000000, 175.397641, 200.000000, 185.179921, 192.500000, 185.179921, 186.250000, 182.734351, 163.750000, 182.734351, 157.500000, 185.179921" fill="rgb(178, 34, 34)" style="fill-opacity:0.04" />
<polygon points=" 175.000000, 177.354097, 167.000000, 180.267009, 182.000000, 180.267009" fill="rgb(255, 255, 255)" style="fill-opacity:1.00" />
<!-- End 'A' -->
<!-- Begin 'G' -->
<ellipse cx="175.000000" cy="188.196250" rx="25.000000" ry="3.016329" fill="rgb(255, 165, 0)" style="fill-opacity:0.04" />
<ellipse cx="175.000000" cy="188.196250" rx="16.666667" ry="2.010886" fill="rgb(255, 255, 255)" style="fill-opacity:1.00" />
<rect height="3.016329" width="25.000000" x="175.000000" y="186.688086" fill="rgb(255, 255, 255)" style="fill-opacity:1.00" />
<rect height="0.754082" width="25.000000" x="175.000000" y="188.950333" fill="rgb(255, 165, 0)" style="fill-opacity:0.04" />
<rect height="2.262247" width="6.250000" x="193.750000" y="188.950333" fill="rgb(255, 165, 0)" style="fill-opacity:0.04" />
<!-- End 'G' -->
<!-- Begin 'T' -->
<rect height="0.237073" width="50.000000" x="150.000000" y="191.212579" fill="rgb(0, 100, 0)" style="fill-opacity:0.04" />
<rect height="1.481705" width="10.000000" x="170.000000" y="191.212579" fill="rgb(0, 100, 0)" style="fill-opacity:0.04" />
<!-- End 'T' -->
<!-- Begin 'C' -->
<ellipse cx="175.000000" cy="237.219534" rx="25.000000" ry="34.525249" fill="rgb(0, 0, 128)" style="fill-opacity:0.13" />
<ellipse cx="175.000000" cy="237.219534" rx="16.666667" ry="23.016833" fill="rgb(255, 255, 255)" style="fill-opacity:1.00" />
<rect height="34.525249" width="25.000000" x="175.000000" y="219.956910" fill="rgb(255, 255, 255)" style="fill-opacity:1.00" />
<!-- End 'C' -->
<!-- Begin 'A' -->
<polygon points=" 150.000000, 281.527064, 171.000000, 271.744784, 179.000000, 271.744784, 200.000000, 281.527064, 192.500000, 281.527064, 186.250000, 279.081494, 163.750000, 279.081494, 157.500000, 281.527064" fill="rgb(178, 34, 34)" style="fill-opacity:0.13" />
<polygon points=" 175.000000, 273.701240, 167.000000, 276.614152, 182.000000, 276.614152" fill="rgb(255, 255, 255)" style="fill-opacity:1.00" />
<!-- End 'A' -->
<!-- Begin 'G' -->
<ellipse cx="175.000000" cy="284.543393" rx="25.000000" ry="3.016329" fill="rgb(255, 165, 0)" style="fill-opacity:0.13" />
<ellipse cx="175.000000" cy="284.543393" rx="16.666667" ry="2.010886" fill="rgb(255, 255, 255)" style="fill-opacity:1.00" />
<rect height="3.016329" width="25.000000" x="175.000000" y="283.035228" fill="rgb(255, 255, 255)" style="fill-opacity:1.00" />
<rect height="0.754082" width="25.000000" x="175.000000" y="285.297475" fill="rgb(255, 165, 0)" style="fill-opacity:0.13" />
<rect height="2.262247" width="6.250000" x="193.750000" y="285.297475" fill="rgb(255, 165, 0)" style="fill-opacity:0.13" />
<!-- End 'G' -->
<!-- Begin 'T' -->
<rect height="0.237073" width="50.000000" x="150.000000" y="287.559722" fill="rgb(0, 100, 0)" style="fill-opacity:0.13" />
<rect height="1.481705" width="10.000000" x="170.000000" y="287.559722" fill="rgb(0, 100, 0)" style="fill-opacity:0.13" />
<!-- End 'T' -->
<!-- Begin 'C' -->
<ellipse cx="175.000000" cy="333.566677" rx="25.000000" ry="34.525249" fill="rgb(0, 0, 128)" style="fill-opacity:0.14" />
<ellipse cx="175.000000" cy="333.566677" rx="16.666667" ry="23.016833" fill="rgb(255, 255, 255)" style="fill-opacity:1.00" />
<rect height="34.525249" width="25.000000" x="175.000000" y="316.304052" fill="rgb(255, 255, 255)" style="fill-opacity:1.00" />
<!-- End 'C' -->
<!-- Begin 'A' -->
<polygon points=" 150.000000, 377.874206, 171.000000, 368.091926, 179.000000, 368.091926, 200.000000, 377.874206, 192.500000, 377.874206, 186.250000, 375.428636, 163.750000, 375.428636, 157.500000, 377.874206" fill="rgb(178, 34, 34)" style="fill-opacity:0.14" />
<polygon points=" 175.000000, 370.048382, 167.000000, 372.961294, 182.000000, 372.961294" fill="rgb(255, 255, 255)" style="fill-opacity:1.00" />
<!-- End 'A' -->
<!-- Begin 'G' -->
<ellipse cx="175.000000" cy="380.890535" rx="25.000000" ry="3.016329" fill="rgb(255, 165, 0)" style="fill-opacity:0.14" />
<ellipse cx="175.000000" cy="380.890535" rx="16.666667" ry="2.010886" fill="rgb(255, 255, 255)" style="fill-opacity:1.00" />
<rect height="3.016329" width="25.000000" x="175.000000" y="379.382371" fill="rgb(255, 255, 255)" style="fill-opacity:1.00" />
<rect height="0.754082" width="25.000000" x="175.000000" y="381.644617" fill="rgb(255, 165, 0)" style="fill-opacity:0.14" />
<rect height="2.262247" width="6.250000" x="193.750000" y="381.644617" fill="rgb(255, 165, 0)" style="fill-opacity:0.14" />
<!-- End 'G' -->
<!-- Begin 'T' -->
<rect height="0.237073" width="50.000000" x="150.000000" y="383.906864" fill="rgb(0, 100, 0)" style="fill-opacity:0.14" />
<rect height="1.481705" width="10.000000" x="170.000000" y="383.906864" fill="rgb(0, 100, 0)" style="fill-opacity:0.14" />
<!-- End 'T' -->
<!-- Begin 'C' -->
<ellipse cx="235.000000" cy="44.525249" rx="25.000000" ry="34.525249" fill="rgb(0, 0, 128)" style="fill-opacity:0.10" />
<ellipse cx="235.000000" cy="44.525249" rx="16.666667" ry="23.016833" fill="rgb(255, 255, 255)" style="fill-opacity:1.00" />
<rect height="34.525249" width="25.000000" x="235.000000" y="27.262625" fill="rgb(255, 255, 255)" style="fill-opacity:1.00" />
<!-- End 'C' -->
<!-- Begin 'A' -->
<polygon points=" 210.000000, 88.666465, 231.000000, 79.050499, 239.000000, 79.050499, 260.000000, 88.666465, 252.500000, 88.666465, 246.250000, 86.262474, 223.750000, 86.262474, 217.500000, 88.666465" fill="rgb(178, 34, 34)" style="fill-opacity:0.10" />
<polygon points=" 235.000000, 80.973692, 227.000000, 83.820079, 242.000000, 83.820079" fill="rgb(255, 255, 255)" style="fill-opacity:1.00" />
<!-- End 'A' -->
<!-- Begin 'G' -->
<ellipse cx="235.000000" cy="88.840339" rx="25.000000" ry="0.173874" fill="rgb(255, 165, 0)" style="fill-opacity:0.10" />
<ellipse cx="235.000000" cy="88.840339" rx="16.666667" ry="0.115916" fill="rgb(255, 255, 255)" style="fill-opacity:1.00" />
<rect height="0.173874" width="25.000000" x="235.000000" y="88.753402" fill="rgb(255, 255, 255)" style="fill-opacity:1.00" />
<rect height="0.043468" width="25.000000" x="235.000000" y="88.883807" fill="rgb(255, 165, 0)" style="fill-opacity:0.10" />
<rect height="0.130405" width="6.250000" x="253.750000" y="88.883807" fill="rgb(255, 165, 0)" style="fill-opacity:0.10" />
<!-- End 'G' -->
<!-- Begin 'T' -->
<rect height="0.016934" width="50.000000" x="210.000000" y="89.014212" fill="rgb(0, 100, 0)" style="fill-opacity:0.10" />
<rect height="0.105836" width="10.000000" x="230.000000" y="89.014212" fill="rgb(0, 100, 0)" style="fill-opacity:0.10" />
<!-- End 'T' -->
<!-- Begin 'C' -->
<ellipse cx="235.000000" cy="133.645298" rx="25.000000" ry="34.525249" fill="rgb(0, 0, 128)" style="fill-opacity:0.69" />
<ellipse cx="235.000000" cy="133.645298" rx="16.666667" ry="23.016833" fill="rgb(255, 255, 255)" style="fill-opacity:1.00" />
<rect height="34.525249" width="25.000000" x="235.000000" y="116.382673" fill="rgb(255, 255, 255)" style="fill-opacity:1.00" />
<!-- End 'C' -->
<!-- Begin 'A' -->
<polygon points=" 210.000000, 177.786513, 231.000000, 168.170547, 239.000000, 168.170547, 260.000000, 177.786513, 252.500000, 177.786513, 246.250000, 175.382522, 223.750000, 175.382522, 217.500000, 177.786513" fill="rgb(178, 34, 34)" style="fill-opacity:0.69" />
<polygon points=" 235.000000, 170.093741, 227.000000, 172.940127, 242.000000, 172.940127" fill="rgb(255, 255, 255)" style="fill-opacity:1.00" />
<!-- End 'A' -->
<!-- Begin 'G' -->
<ellipse cx="235.000000" cy="177.960387" rx="25.000000" ry="0.173874" fill="rgb(255, 165, 0)" style="fill-opacity:0.69" />
<ellipse cx="235.000000" cy="177.960387" rx="16.666667" ry="0.115916" fill="rgb(255, 255, 255)" style="fill-opacity:1.00" />
<rect height="0.173874" width="25.000000" x="235.000000" y="177.873450" fill="rgb(255, 255, 255)" style="fill-opacity:1.00" />
<rect height="0.043468" width="25.000000" x="235.000000" y="178.003855" fill="rgb(255, 165, 0)" style="fill-opacity:0.69" />
<rect height="0.130405" width="6.250000" x="253.750000" y="178.003855" fill="rgb(255, 165, 0)" style="fill-opacity:0.69" />
<!-- End 'G' -->
<!-- Begin 'T' -->
<rect height="0.016934" width="50.000000" x="210.000000" y="178.134261" fill="rgb(0, 100, 0)" style="fill-opacity:0.69" />
<rect height="0.105836" width="10.000000" x="230.000000" y="178.134261" fill="rgb(0, 100, 0)" style="fill-opacity:0.69" />
<!-- End 'T' -->
<!-- Begin 'C' -->
<ellipse cx="235.000000" cy="222.765346" rx="25.000000" ry="34.525249" fill="rgb(0, 0, 128)" style="fill-opacity:0.06" />
<ellipse cx="235.000000" cy="222.765346" rx="16.666667" ry="23.016833" fill="rgb(255, 255, 255)" style="fill-opacity:1.00" />
<rect height="34.525249" width="25.000000" x="235.000000" y="205.502721" fill="rgb(255, 255, 255)" style="fill-opacity:1.00" />
<!-- End 'C' -->
<!-- Begin 'A' -->
<polygon points=" 210.000000, 266.906562, 231.000000, 257.290596, 239.000000, 257.290596, 260.000000, 266.906562, 252.500000, 266.906562, 246.250000, 264.502570, 223.750000, 264.502570, 217.500000, 266.906562" fill="rgb(178, 34, 34)" style="fill-opacity:0.06" />
<polygon points=" 235.000000, 259.213789, 227.000000, 262.060175, 242.000000, 262.060175" fill="rgb(255, 255, 255)" style="fill-opacity:1.00" />
<!-- End 'A' -->
<!-- Begin 'G' -->
<ellipse cx="235.000000" cy="267.080435" rx="25.000000" ry="0.173874" fill="rgb(255, 165, 0)" style="fill-opacity:0.06" />
<ellipse cx="235.000000" cy="267.080435" rx="16.666667" ry="0.115916" fill="rgb(255, 255, 255)" style="fill-opacity:1.00" />
<rect height="0.173874" width="25.000000" x="235.000000" y="266.993499" fill="rgb(255, 255, 255)" style="fill-opacity:1.00" />
<rect height="0.043468" width="25.000000" x="235.000000" y="267.123904" fill="rgb(255, 165, 0)" style="fill-opacity:0.06" />
<rect height="0.130405" width="6.250000" x="253.750000" y="267.123904" fill="rgb(255, 165, 0)" style="fill-opacity:0.06" />
<!-- End 'G' -->
<!-- Begin 'T' -->
<rect height="0.016934" width="50.000000" x="210.000000" y="267.254309" fill="rgb(0, 100, 0)" style="fill-opacity:0.06" />
<rect height="0.105836" width="10.000000" x="230.000000" y="267.254309" fill="rgb(0, 100, 0)" style="fill-opacity:0.06" />
<!-- End 'T' -->
<!-- Begin 'C' -->
<ellipse cx="235.000000" cy="311.885395" rx="25.000000" ry="34.525249" fill="rgb(0, 0, 128)" style="fill-opacity:0.01" />
<ellipse cx="235.000000" cy="311.885395" rx="16.666667" ry="23.016833" fill="rgb(255, 255, 255)" style="fill-opacity:1.00" />
<rect height="34.525249" width="25.000000" x="235.000000" y="294.622770" fill="rgb(255, 255, 255)" style="fill-opacity:1.00" />
<!-- End 'C' -->
<!-- Begin 'A' -->
<polygon points=" 210.000000, 356.026610, 231.000000, 346.410644, 239.000000, 346.410644, 260.000000, 356.026610, 252.500000, 356.026610, 246.250000, 353.622619, 223.750000, 353.622619, 217.500000, 356.026610" fill="rgb(178, 34, 34)" style="fill-opacity:0.01" />
<polygon points=" 235.000000, 348.333837, 227.000000, 351.180224, 242.000000, 351.180224" fill="rgb(255, 255, 255)" style="fill-opacity:1.00" />
<!-- End 'A' -->
<!-- Begin 'G' -->
<ellipse cx="235.000000" cy="356.200484" rx="25.000000" ry="0.173874" fill="rgb(255, 165, 0)" style="fill-opacity:0.01" />
<ellipse cx="235.000000" cy="356.200484" rx="16.666667" ry="0.115916" fill="rgb(255, 255, 255)" style="fill-opacity:1.00" />
<rect height="0.173874" width="25.000000" x="235.000000" y="356.113547" fill="rgb(255, 255, 255)" style="fill-opacity:1.00" />
<rect height="0.043468" width="25.000000" x="235.000000" y="356.243952" fill="rgb(255, 165, 0)" style="fill-opacity:0.01" />
<rect height="0.130405" width="6.250000" x="253.750000" y="356.243952" fill="rgb(255, 165, 0)" style="fill-opacity:0.01" />
<!-- End 'G' -->
<!-- Begin 'T' -->
<rect height="0.016934" width="50.000000" x="210.000000" y="356.374357" fill="rgb(0, 100, 0)" style="fill-opacity:0.01" />
<rect height="0.105836" width="10.000000" x="230.000000" y="356.374357" fill="rgb(0, 100, 0)" style="fill-opacity:0.01" />
<!-- End 'T' -->
<!-- Begin 'G' -->
<ellipse cx="295.000000" cy="44.525249" rx="25.000000" ry="34.525249" fill="rgb(255, 165, 0)" style="fill-opacity:0.08" />
<ellipse cx="295.000000" cy="44.525249" rx="16.666667" ry="23.016833" fill="rgb(255, 255, 255)" style="fill-opacity:1.00" />
<rect height="34.525249" width="25.000000" x="295.000000" y="27.262625" fill="rgb(255, 255, 255)" style="fill-opacity:1.00" />
<rect height="8.631312" width="25.000000" x="295.000000" y="53.156562" fill="rgb(255, 165, 0)" style="fill-opacity:0.08" />
<rect height="25.893937" width="6.250000" x="313.750000" y="53.156562" fill="rgb(255, 165, 0)" style="fill-opacity:0.08" />
<!-- End 'G' -->
<!-- Begin 'A' -->
<polygon points=" 270.000000, 79.080738, 291.000000, 79.050499, 299.000000, 79.050499, 320.000000, 79.080738, 312.500000, 79.080738, 306.250000, 79.073178, 283.750000, 79.073178, 277.500000, 79.080738" fill="rgb(178, 34, 34)" style="fill-opacity:0.08" />
<!-- End 'A' -->
<!-- Begin 'T' -->
<rect height="0.002419" width="50.000000" x="270.000000" y="79.080738" fill="rgb(0, 100, 0)" style="fill-opacity:0.08" />
<rect height="0.015119" width="10.000000" x="290.000000" y="79.080738" fill="rgb(0, 100, 0)" style="fill-opacity:0.08" />
<!-- End 'T' -->
<!-- Begin 'C' -->
<ellipse cx="295.000000" cy="79.103417" rx="25.000000" ry="0.007560" fill="rgb(0, 0, 128)" style="fill-opacity:0.08" />
<ellipse cx="295.000000" cy="79.103417" rx="16.666667" ry="0.005040" fill="rgb(255, 255, 255)" style="fill-opacity:1.00" />
<rect height="0.007560" width="25.000000" x="295.000000" y="79.099637" fill="rgb(255, 255, 255)" style="fill-opacity:1.00" />
<!-- End 'C' -->
<!-- Begin 'G' -->
<ellipse cx="295.000000" cy="123.636226" rx="25.000000" ry="34.525249" fill="rgb(255, 165, 0)" style="fill-opacity:0.60" />
<ellipse cx="295.000000" cy="123.636226" rx="16.666667" ry="23.016833" fill="rgb(255, 255, 255)" style="fill-opacity:1.00" />
<rect height="34.525249" width="25.000000" x="295.000000" y="106.373601" fill="rgb(255, 255, 255)" style="fill-opacity:1.00" />
<rect height="8.631312" width="25.000000" x="295.000000" y="132.267539" fill="rgb(255, 165, 0)" style="fill-opacity:0.60" />
<rect height="25.893937" width="6.250000" x="313.750000" y="132.267539" fill="rgb(255, 165, 0)" style="fill-opacity:0.60" />
<!-- End 'G' -->
<!-- Begin 'A' -->
<polygon points=" 270.000000, 158.191715, 291.000000, 158.161476, 299.000000, 158.161476, 320.000000, 158.191715, 312.500000, 158.191715, 306.250000, 158.184155, 283.750000, 158.184155, 277.500000, 158.191715" fill="rgb(178, 34, 34)" style="fill-opacity:0.60" />
<!-- End 'A' -->
<!-- Begin 'T' -->
<rect height="0.002419" width="50.000000" x="270.000000" y="158.191715" fill="rgb(0, 100, 0)" style="fill-opacity:0.60" />
<rect height="0.015119" width="10.000000" x="290.000000" y="158.191715" fill="rgb(0, 100, 0)" style="fill-opacity:0.60" />
<!-- End 'T' -->
<!-- Begin 'C' -->
<ellipse cx="295.000000" cy="158.214394" rx="25.000000" ry="0.007560" fill="rgb(0, 0, 128)" style="fill-opacity:0.60" />
<ellipse cx="295.000000" cy="158.214394" rx="16.666667" ry="0.005040" fill="rgb(255, 255, 255)" style="fill-opacity:1.00" />
<rect height="0.007560" width="25.000000" x="295.000000" y="158.210614" fill="rgb(255, 255, 255)" style="fill-opacity:1.00" />
<!-- End 'C' -->
<!-- Begin 'G' -->
<ellipse cx="295.000000" cy="202.747203" rx="25.000000" ry="34.525249" fill="rgb(255, 165, 0)" style="fill-opacity:0.00" />
<ellipse cx="295.000000" cy="202.747203" rx="16.666667" ry="23.016833" fill="rgb(255, 255, 255)" style="fill-opacity:1.00" />
<rect height="34.525249" width="25.000000" x="295.000000" y="185.484578" fill="rgb(255, 255, 255)" style="fill-opacity:1.00" />
<rect height="8.631312" width="25.000000" x="295.000000" y="211.378515" fill="rgb(255, 165, 0)" style="fill-opacity:0.00" />
<rect height="25.893937" width="6.250000" x="313.750000" y="211.378515" fill="rgb(255, 165, 0)" style="fill-opacity:0.00" />
<!-- End 'G' -->
<!-- Begin 'A' -->
<polygon points=" 270.000000, 237.302691, 291.000000, 237.272452, 299.000000, 237.272452, 320.000000, 237.302691, 312.500000, 237.302691, 306.250000, 237.295132, 283.750000, 237.295132, 277.500000, 237.302691" fill="rgb(178, 34, 34)" style="fill-opacity:0.00" />
<!-- End 'A' -->
<!-- Begin 'T' -->
<rect height="0.002419" width="50.000000" x="270.000000" y="237.302691" fill="rgb(0, 100, 0)" style="fill-opacity:0.00" />
<rect height="0.015119" width="10.000000" x="290.000000" y="237.302691" fill="rgb(0, 100, 0)" style="fill-opacity:0.00" />
<!-- End 'T' -->
<!-- Begin 'C' -->
<ellipse cx="295.000000" cy="237.325370" rx="25.000000" ry="0.007560" fill="rgb(0, 0, 128)" style="fill-opacity:0.00" />
<ellipse cx="295.000000" cy="237.325370" rx="16.666667" ry="0.005040" fill="rgb(255, 255, 255)" style="fill-opacity:1.00" />
<rect height="0.007560" width="25.000000" x="295.000000" y="237.321591" fill="rgb(255, 255, 255)" style="fill-opacity:1.00" />
<!-- End 'C' -->
<!-- Begin 'G' -->
<ellipse cx="295.000000" cy="281.858180" rx="25.000000" ry="34.525249" fill="rgb(255, 165, 0)" style="fill-opacity:0.00" />
<ellipse cx="295.000000" cy="281.858180" rx="16.666667" ry="23.016833" fill="rgb(255, 255, 255)" style="fill-opacity:1.00" />
<rect height="34.525249" width="25.000000" x="295.000000" y="264.595555" fill="rgb(255, 255, 255)" style="fill-opacity:1.00" />
<rect height="8.631312" width="25.000000" x="295.000000" y="290.489492" fill="rgb(255, 165, 0)" style="fill-opacity:0.00" />
<rect height="25.893937" width="6.250000" x="313.750000" y="290.489492" fill="rgb(255, 165, 0)" style="fill-opacity:0.00" />
<!-- End 'G' -->
<!-- Begin 'A' -->
<polygon points=" 270.000000, 316.413668, 291.000000, 316.383429, 299.000000, 316.383429, 320.000000, 316.413668, 312.500000, 316.413668, 306.250000, 316.406108, 283.750000, 316.406108, 277.500000, 316.413668" fill="rgb(178, 34, 34)" style="fill-opacity:0.00" />
<!-- End 'A' -->
<!-- Begin 'T' -->
<rect height="0.002419" width="50.000000" x="270.000000" y="316.413668" fill="rgb(0, 100, 0)" style="fill-opacity:0.00" />
<rect height="0.015119" width="10.000000" x="290.000000" y="316.413668" fill="rgb(0, 100, 0)" style="fill-opacity:0.00" />
<!-- End 'T' -->
<!-- Begin 'C' -->
<ellipse cx="295.000000" cy="316.436347" rx="25.000000" ry="0.007560" fill="rgb(0, 0, 128)" style="fill-opacity:0.00" />
<ellipse cx="295.000000" cy="316.436347" rx="16.666667" ry="0.005040" fill="rgb(255, 255, 255)" style="fill-opacity:1.00" />
<rect height="0.007560" width="25.000000" x="295.000000" y="316.432567" fill="rgb(255, 255, 255)" style="fill-opacity:1.00" />
<!-- End 'C' -->
<!-- Begin 'G' -->
<ellipse cx="355.000000" cy="44.525249" rx="25.000000" ry="34.525249" fill="rgb(255, 165, 0)" style="fill-opacity:0.00" />
<ellipse cx="355.000000" cy="44.525249" rx="16.666667" ry="23.016833" fill="rgb(255, 255, 255)" style="fill-opacity:1.00" />
<rect height="34.525249" width="25.000000" x="355.000000" y="27.262625" fill="rgb(255, 255, 255)" style="fill-opacity:1.00" />
<rect height="8.631312" width="25.000000" x="355.000000" y="53.156562" fill="rgb(255, 165, 0)" style="fill-opacity:0.00" />
<rect height="25.893937" width="6.250000" x="373.750000" y="53.156562" fill="rgb(255, 165, 0)" style="fill-opacity:0.00" />
<!-- End 'G' -->
<!-- Begin 'T' -->
<rect height="0.072573" width="50.000000" x="330.000000" y="79.050499" fill="rgb(0, 100, 0)" style="fill-opacity:0.00" />
<rect height="0.453583" width="10.000000" x="350.000000" y="79.050499" fill="rgb(0, 100, 0)" style="fill-opacity:0.00" />
<!-- End 'T' -->
<!-- Begin 'C' -->
<ellipse cx="355.000000" cy="79.519202" rx="25.000000" ry="0.015119" fill="rgb(0, 0, 128)" style="fill-opacity:0.00" />
<ellipse cx="355.000000" cy="79.519202" rx="16.666667" ry="0.010080" fill="rgb(255, 255, 255)" style="fill-opacity:1.00" />
<rect height="0.015119" width="25.000000" x="355.000000" y="79.511642" fill="rgb(255, 255, 255)" style="fill-opacity:1.00" />
<!-- End 'C' -->
<!-- Begin 'A' -->
<polygon points=" 330.000000, 79.549441, 351.000000, 79.534321, 359.000000, 79.534321, 380.000000, 79.549441, 372.500000, 79.549441, 366.250000, 79.545661, 343.750000, 79.545661, 337.500000, 79.549441" fill="rgb(178, 34, 34)" style="fill-opacity:0.00" />
<!-- End 'A' -->
<!-- Begin 'G' -->
<ellipse cx="355.000000" cy="124.074690" rx="25.000000" ry="34.525249" fill="rgb(255, 165, 0)" style="fill-opacity:0.00" />
<ellipse cx="355.000000" cy="124.074690" rx="16.666667" ry="23.016833" fill="rgb(255, 255, 255)" style="fill-opacity:1.00" />
<rect height="34.525249" width="25.000000" x="355.000000" y="106.812065" fill="rgb(255, 255, 255)" style="fill-opacity:1.00" />
<rect height="8.631312" width="25.000000" x="355.000000" y="132.706002" fill="rgb(255, 165, 0)" style="fill-opacity:0.00" />
<rect height="25.893937" width="6.250000" x="373.750000" y="132.706002" fill="rgb(255, 165, 0)" style="fill-opacity:0.00" />
<!-- End 'G' -->
<!-- Begin 'T' -->
<rect height="0.072573" width="50.000000" x="330.000000" y="158.599940" fill="rgb(0, 100, 0)" style="fill-opacity:0.00" />
<rect height="0.453583" width="10.000000" x="350.000000" y="158.599940" fill="rgb(0, 100, 0)" style="fill-opacity:0.00" />
<!-- End 'T' -->
<!-- Begin 'C' -->
<ellipse cx="355.000000" cy="159.068642" rx="25.000000" ry="0.015119" fill="rgb(0, 0, 128)" style="fill-opacity:0.00" />
<ellipse cx="355.000000" cy="159.068642" rx="16.666667" ry="0.010080" fill="rgb(255, 255, 255)" style="fill-opacity:1.00" />
<rect height="0.015119" width="25.000000" x="355.000000" y="159.061083" fill="rgb(255, 255, 255)" style="fill-opacity:1.00" />
<!-- End 'C' -->
<!-- Begin 'A' -->
<polygon points=" 330.000000, 159.098881, 351.000000, 159.083762, 359.000000, 159.083762, 380.000000, 159.098881, 372.500000, 159.098881, 366.250000, 159.095101, 343.750000, 159.095101, 337.500000, 159.098881" fill="rgb(178, 34, 34)" style="fill-opacity:0.00" />
<!-- End 'A' -->
<!-- Begin 'G' -->
<ellipse cx="355.000000" cy="203.624131" rx="25.000000" ry="34.525249" fill="rgb(255, 165, 0)" style="fill-opacity:0.47" />
<ellipse cx="355.000000" cy="203.624131" rx="16.666667" ry="23.016833" fill="rgb(255, 255, 255)" style="fill-opacity:1.00" />
<rect height="34.525249" width="25.000000" x="355.000000" y="186.361506" fill="rgb(255, 255, 255)" style="fill-opacity:1.00" />
<rect height="8.631312" width="25.000000" x="355.000000" y="212.255443" fill="rgb(255, 165, 0)" style="fill-opacity:0.47" />
<rect height="25.893937" width="6.250000" x="373.750000" y="212.255443" fill="rgb(255, 165, 0)" style="fill-opacity:0.47" />
<!-- End 'G' -->
<!-- Begin 'T' -->
<rect height="0.072573" width="50.000000" x="330.000000" y="238.149380" fill="rgb(0, 100, 0)" style="fill-opacity:0.47" />
<rect height="0.453583" width="10.000000" x="350.000000" y="238.149380" fill="rgb(0, 100, 0)" style="fill-opacity:0.47" />
<!-- End 'T' -->
<!-- Begin 'C' -->
<ellipse cx="355.000000" cy="238.618083" rx="25.000000" ry="0.015119" fill="rgb(0, 0, 128)" style="fill-opacity:0.47" />
<ellipse cx="355.000000" cy="238.618083" rx="16.666667" ry="0.010080" fill="rgb(255, 255, 255)" style="fill-opacity:1.00" />
<rect height="0.015119" width="25.000000" x="355.000000" y="238.610523" fill="rgb(255, 255, 255)" style="fill-opacity:1.00" />
<!-- End 'C' -->
<!-- Begin 'A' -->
<polygon points=" 330.000000, 238.648322, 351.000000, 238.633202, 359.000000, 238.633202, 380.000000, 238.648322, 372.500000, 238.648322, 366.250000, 238.644542, 343.750000, 238.644542, 337.500000, 238.648322" fill="rgb(178, 34, 34)" style="fill-opacity:0.47" />
<!-- End 'A' -->
<!-- Begin 'G' -->
<ellipse cx="355.000000" cy="283.173571" rx="25.000000" ry="34.525249" fill="rgb(255, 165, 0)" style="fill-opacity:0.00" />
<ellipse cx="355.000000" cy="283.173571" rx="16.666667" ry="23.016833" fill="rgb(255, 255, 255)" style="fill-opacity:1.00" />
<rect height="34.525249" width="25.000000" x="355.000000" y="265.910946" fill="rgb(255, 255, 255)" style="fill-opacity:1.00" />
<rect height="8.631312" width="25.000000" x="355.000000" y="291.804884" fill="rgb(255, 165, 0)" style="fill-opacity:0.00" />
<rect height="25.893937" width="6.250000" x="373.750000" y="291.804884" fill="rgb(255, 165, 0)" style="fill-opacity:0.00" />
<!-- End 'G' -->
<!-- Begin 'T' -->
<rect height="0.072573" width="50.000000" x="330.000000" y="317.698821" fill="rgb(0, 100, 0)" style="fill-opacity:0.00" />
<rect height="0.453583" width="10.000000" x="350.000000" y="317.698821" fill="rgb(0, 100, 0)" style="fill-opacity:0.00" />
<!-- End 'T' -->
<!-- Begin 'C' -->
<ellipse cx="355.000000" cy="318.167523" rx="25.000000" ry="0.015119" fill="rgb(0, 0, 128)" style="fill-opacity:0.00" />
<ellipse cx="355.000000" cy="318.167523" rx="16.666667" ry="0.010080" fill="rgb(255, 255, 255)" style="fill-opacity:1.00" />
<rect height="0.015119" width="25.000000" x="355.000000" y="318.159964" fill="rgb(255, 255, 255)" style="fill-opacity:1.00" />
<!-- End 'C' -->
<!-- Begin 'A' -->
<polygon points=" 330.000000, 318.197762, 351.000000, 318.182643, 359.000000, 318.182643, 380.000000, 318.197762, 372.500000, 318.197762, 366.250000, 318.193982, 343.750000, 318.193982, 337.500000, 318.197762" fill="rgb(178, 34, 34)" style="fill-opacity:0.00" />
<!-- End 'A' -->
<!-- Begin 'A' -->
<polygon points=" 390.000000, 79.050499, 411.000000, 10.000000, 419.000000, 10.000000, 440.000000, 79.050499, 432.500000, 79.050499, 426.250000, 61.787874, 403.750000, 61.787874, 397.500000, 79.050499" fill="rgb(178, 34, 34)" style="fill-opacity:0.00" />
<polygon points=" 415.000000, 23.810100, 407.000000, 50.430299, 422.000000, 50.430299" fill="rgb(255, 255, 255)" style="fill-opacity:1.00" />
<!-- End 'A' -->
<!-- Begin 'C' -->
<ellipse cx="415.000000" cy="79.209253" rx="25.000000" ry="0.158754" fill="rgb(0, 0, 128)" style="fill-opacity:0.00" />
<ellipse cx="415.000000" cy="79.209253" rx="16.666667" ry="0.105836" fill="rgb(255, 255, 255)" style="fill-opacity:1.00" />
<rect height="0.158754" width="25.000000" x="415.000000" y="79.129876" fill="rgb(255, 255, 255)" style="fill-opacity:1.00" />
<!-- End 'C' -->
<!-- Begin 'T' -->
<rect height="0.019353" width="50.000000" x="390.000000" y="79.368007" fill="rgb(0, 100, 0)" style="fill-opacity:0.00" />
<rect height="0.120956" width="10.000000" x="410.000000" y="79.368007" fill="rgb(0, 100, 0)" style="fill-opacity:0.00" />
<!-- End 'T' -->
<!-- Begin 'G' -->
<ellipse cx="415.000000" cy="79.496523" rx="25.000000" ry="0.007560" fill="rgb(255, 165, 0)" style="fill-opacity:0.00" />
<ellipse cx="415.000000" cy="79.496523" rx="16.666667" ry="0.005040" fill="rgb(255, 255, 255)" style="fill-opacity:1.00" />
<rect height="0.007560" width="25.000000" x="415.000000" y="79.492743" fill="rgb(255, 255, 255)" style="fill-opacity:1.00" />
<rect height="0.001890" width="25.000000" x="415.000000" y="79.498412" fill="rgb(255, 165, 0)" style="fill-opacity:0.00" />
<rect height="0.005670" width="6.250000" x="433.750000" y="79.498412" fill="rgb(255, 165, 0)" style="fill-opacity:0.00" />
<!-- End 'G' -->
<!-- Begin 'A' -->
<polygon points=" 390.000000, 158.554581, 411.000000, 89.504082, 419.000000, 89.504082, 440.000000, 158.554581, 432.500000, 158.554581, 426.250000, 141.291956, 403.750000, 141.291956, 397.500000, 158.554581" fill="rgb(178, 34, 34)" style="fill-opacity:0.00" />
<polygon points=" 415.000000, 103.314182, 407.000000, 129.934382, 422.000000, 129.934382" fill="rgb(255, 255, 255)" style="fill-opacity:1.00" />
<!-- End 'A' -->
<!-- Begin 'C' -->
<ellipse cx="415.000000" cy="158.713335" rx="25.000000" ry="0.158754" fill="rgb(0, 0, 128)" style="fill-opacity:0.00" />
<ellipse cx="415.000000" cy="158.713335" rx="16.666667" ry="0.105836" fill="rgb(255, 255, 255)" style="fill-opacity:1.00" />
<rect height="0.158754" width="25.000000" x="415.000000" y="158.633958" fill="rgb(255, 255, 255)" style="fill-opacity:1.00" />
<!-- End 'C' -->
<!-- Begin 'T' -->
<rect height="0.019353" width="50.000000" x="390.000000" y="158.872090" fill="rgb(0, 100, 0)" style="fill-opacity:0.00" />
<rect height="0.120956" width="10.000000" x="410.000000" y="158.872090" fill="rgb(0, 100, 0)" style="fill-opacity:0.00" />
<!-- End 'T' -->
<!-- Begin 'G' -->
<ellipse cx="415.000000" cy="159.000605" rx="25.000000" ry="0.007560" fill="rgb(255, 165, 0)" style="fill-opacity:0.00" />
<ellipse cx="415.000000" cy="159.000605" rx="16.666667" ry="0.005040" fill="rgb(255, 255, 255)" style="fill-opacity:1.00" />
<rect height="0.007560" width="25.000000" x="415.000000" y="158.996825" fill="rgb(255, 255, 255)" style="fill-opacity:1.00" />
<rect height="0.001890" width="25.000000" x="415.000000" y="159.002495" fill="rgb(255, 165, 0)" style="fill-opacity:0.00" />
<rect height="0.005670" width="6.250000" x="433.750000" y="159.002495" fill="rgb(255, 165, 0)" style="fill-opacity:0.00" />
<!-- End 'G' -->
<!-- Begin 'A' -->
<polygon points=" 390.000000, 238.058663, 411.000000, 169.008164, 419.000000, 169.008164, 440.000000, 238.058663, 432.500000, 238.058663, 426.250000, 220.796039, 403.750000, 220.796039, 397.500000, 238.058663" fill="rgb(178, 34, 34)" style="fill-opacity:0.33" />
<polygon points=" 415.000000, 182.818264, 407.000000, 209.438464, 422.000000, 209.438464" fill="rgb(255, 255, 255)" style="fill-opacity:1.00" />
<!-- End 'A' -->
<!-- Begin 'C' -->
<ellipse cx="415.000000" cy="238.217418" rx="25.000000" ry="0.158754" fill="rgb(0, 0, 128)" style="fill-opacity:0.33" />
<ellipse cx="415.000000" cy="238.217418" rx="16.666667" ry="0.105836" fill="rgb(255, 255, 255)" style="fill-opacity:1.00" />
<rect height="0.158754" width="25.000000" x="415.000000" y="238.138041" fill="rgb(255, 255, 255)" style="fill-opacity:1.00" />
<!-- End 'C' -->
<!-- Begin 'T' -->
<rect height="0.019353" width="50.000000" x="390.000000" y="238.376172" fill="rgb(0, 100, 0)" style="fill-opacity:0.33" />
<rect height="0.120956" width="10.000000" x="410.000000" y="238.376172" fill="rgb(0, 100, 0)" style="fill-opacity:0.33" />
<!-- End 'T' -->
<!-- Begin 'G' -->
<ellipse cx="415.000000" cy="238.504687" rx="25.000000" ry="0.007560" fill="rgb(255, 165, 0)" style="fill-opacity:0.33" />
<ellipse cx="415.000000" cy="238.504687" rx="16.666667" ry="0.005040" fill="rgb(255, 255, 255)" style="fill-opacity:1.00" />
<rect height="0.007560" width="25.000000" x="415.000000" y="238.500907" fill="rgb(255, 255, 255)" style="fill-opacity:1.00" />
<rect height="0.001890" width="25.000000" x="415.000000" y="238.506577" fill="rgb(255, 165, 0)" style="fill-opacity:0.33" />
<rect height="0.005670" width="6.250000" x="433.750000" y="238.506577" fill="rgb(255, 165, 0)" style="fill-opacity:0.33" />
<!-- End 'G' -->
<!-- Begin 'A' -->
<polygon points=" 390.000000, 317.562746, 411.000000, 248.512247, 419.000000, 248.512247, 440.000000, 317.562746, 432.500000, 317.562746, 426.250000, 300.300121, 403.750000, 300.300121, 397.500000, 317.562746" fill="rgb(178, 34, 34)" style="fill-opacity:0.00" />
<polygon points=" 415.000000, 262.322347, 407.000000, 288.942546, 422.000000, 288.942546" fill="rgb(255, 255, 255)" style="fill-opacity:1.00" />
<!-- End 'A' -->
<!-- Begin 'C' -->
<ellipse cx="415.000000" cy="317.721500" rx="25.000000" ry="0.158754" fill="rgb(0, 0, 128)" style="fill-opacity:0.00" />
<ellipse cx="415.000000" cy="317.721500" rx="16.666667" ry="0.105836" fill="rgb(255, 255, 255)" style="fill-opacity:1.00" />
<rect height="0.158754" width="25.000000" x="415.000000" y="317.642123" fill="rgb(255, 255, 255)" style="fill-opacity:1.00" />
<!-- End 'C' -->
<!-- Begin 'T' -->
<rect height="0.019353" width="50.000000" x="390.000000" y="317.880254" fill="rgb(0, 100, 0)" style="fill-opacity:0.00" />
<rect height="0.120956" width="10.000000" x="410.000000" y="317.880254" fill="rgb(0, 100, 0)" style="fill-opacity:0.00" />
<!-- End 'T' -->
<!-- Begin 'G' -->
<ellipse cx="415.000000" cy="318.008769" rx="25.000000" ry="0.007560" fill="rgb(255, 165, 0)" style="fill-opacity:0.00" />
<ellipse cx="415.000000" cy="318.008769" rx="16.666667" ry="0.005040" fill="rgb(255, 255, 255)" style="fill-opacity:1.00" />
<rect height="0.007560" width="25.000000" x="415.000000" y="318.004989" fill="rgb(255, 255, 255)" style="fill-opacity:1.00" />
<rect height="0.001890" width="25.000000" x="415.000000" y="318.010659" fill="rgb(255, 165, 0)" style="fill-opacity:0.00" />
<rect height="0.005670" width="6.250000" x="433.750000" y="318.010659" fill="rgb(255, 165, 0)" style="fill-opacity:0.00" />
<!-- End 'G' -->
<!-- Begin 'A' -->
<polygon points=" 450.000000, 79.050499, 471.000000, 10.000000, 479.000000, 10.000000, 500.000000, 79.050499, 492.500000, 79.050499, 486.250000, 61.787874, 463.750000, 61.787874, 457.500000, 79.050499" fill="rgb(178, 34, 34)" style="fill-opacity:0.23" />
<polygon points=" 475.000000, 23.810100, 467.000000, 50.430299, 482.000000, 50.430299" fill="rgb(255, 255, 255)" style="fill-opacity:1.00" />
<!-- End 'A' -->
<!-- Begin 'T' -->
<rect height="3.014212" width="50.000000" x="450.000000" y="79.050499" fill="rgb(0, 100, 0)" style="fill-opacity:0.23" />
<rect height="18.838827" width="10.000000" x="470.000000" y="79.050499" fill="rgb(0, 100, 0)" style="fill-opacity:0.23" />
<!-- End 'T' -->
<!-- Begin 'C' -->
<ellipse cx="475.000000" cy="98.796492" rx="25.000000" ry="0.907167" fill="rgb(0, 0, 128)" style="fill-opacity:0.23" />
<ellipse cx="475.000000" cy="98.796492" rx="16.666667" ry="0.604778" fill="rgb(255, 255, 255)" style="fill-opacity:1.00" />
<rect height="0.907167" width="25.000000" x="475.000000" y="98.342909" fill="rgb(255, 255, 255)" style="fill-opacity:1.00" />
<!-- End 'C' -->
<!-- Begin 'G' -->
<ellipse cx="475.000000" cy="99.764137" rx="25.000000" ry="0.060478" fill="rgb(255, 165, 0)" style="fill-opacity:0.23" />
<ellipse cx="475.000000" cy="99.764137" rx="16.666667" ry="0.040319" fill="rgb(255, 255, 255)" style="fill-opacity:1.00" />
<rect height="0.060478" width="25.000000" x="475.000000" y="99.733898" fill="rgb(255, 255, 255)" style="fill-opacity:1.00" />
<rect height="0.015119" width="25.000000" x="475.000000" y="99.779256" fill="rgb(255, 165, 0)" style="fill-opacity:0.23" />
<rect height="0.045358" width="6.250000" x="493.750000" y="99.779256" fill="rgb(255, 165, 0)" style="fill-opacity:0.23" />
<!-- End 'G' -->
<!-- Begin 'A' -->
<polygon points=" 450.000000, 178.875113, 471.000000, 109.824614, 479.000000, 109.824614, 500.000000, 178.875113, 492.500000, 178.875113, 486.250000, 161.612489, 463.750000, 161.612489, 457.500000, 178.875113" fill="rgb(178, 34, 34)" style="fill-opacity:0.00" />
<polygon points=" 475.000000, 123.634714, 467.000000, 150.254914, 482.000000, 150.254914" fill="rgb(255, 255, 255)" style="fill-opacity:1.00" />
<!-- End 'A' -->
<!-- Begin 'T' -->
<rect height="3.014212" width="50.000000" x="450.000000" y="178.875113" fill="rgb(0, 100, 0)" style="fill-opacity:0.00" />
<rect height="18.838827" width="10.000000" x="470.000000" y="178.875113" fill="rgb(0, 100, 0)" style="fill-opacity:0.00" />
<!-- End 'T' -->
<!-- Begin 'C' -->
<ellipse cx="475.000000" cy="198.621107" rx="25.000000" ry="0.907167" fill="rgb(0, 0, 128)" style="fill-opacity:0.00" />
<ellipse cx="475.000000" cy="198.621107" rx="16.666667" ry="0.604778" fill="rgb(255, 255, 255)" style="fill-opacity:1.00" />
<rect height="0.907167" width="25.000000" x="475.000000" y="198.167523" fill="rgb(255, 255, 255)" style="fill-opacity:1.00" />
<!-- End 'C' -->
<!-- Begin 'G' -->
<ellipse cx="475.000000" cy="199.588751" rx="25.000000" ry="0.060478" fill="rgb(255, 165, 0)" style="fill-opacity:0.00" />
<ellipse cx="475.000000" cy="199.588751" rx="16.666667" ry="0.040319" fill="rgb(255, 255, 255)" style="fill-opacity:1.00" />
<rect height="0.060478" width="25.000000" x="475.000000" y="199.558512" fill="rgb(255, 255, 255)" style="fill-opacity:1.00" />
<rect height="0.015119" width="25.000000" x="475.000000" y="199.603871" fill="rgb(255, 165, 0)" style="fill-opacity:0.00" />
<rect height="0.045358" width="6.250000" x="493.750000" y="199.603871" fill="rgb(255, 165, 0)" style="fill-opacity:0.00" />
<!-- End 'G' -->
<!-- Begin 'A' -->
<polygon points=" 450.000000, 278.699728, 471.000000, 209.649229, 479.000000, 209.649229, 500.000000, 278.699728, 492.500000, 278.699728, 486.250000, 261.437103, 463.750000, 261.437103, 457.500000, 278.699728" fill="rgb(178, 34, 34)" style="fill-opacity:0.00" />
<polygon points=" 475.000000, 223.459329, 467.000000, 250.079528, 482.000000, 250.079528" fill="rgb(255, 255, 255)" style="fill-opacity:1.00" />
<!-- End 'A' -->
<!-- Begin 'T' -->
<rect height="3.014212" width="50.000000" x="450.000000" y="278.699728" fill="rgb(0, 100, 0)" style="fill-opacity:0.00" />
<rect height="18.838827" width="10.000000" x="470.000000" y="278.699728" fill="rgb(0, 100, 0)" style="fill-opacity:0.00" />
<!-- End 'T' -->
<!-- Begin 'C' -->
<ellipse cx="475.000000" cy="298.445721" rx="25.000000" ry="0.907167" fill="rgb(0, 0, 128)" style="fill-opacity:0.00" />
<ellipse cx="475.000000" cy="298.445721" rx="16.666667" ry="0.604778" fill="rgb(255, 255, 255)" style="fill-opacity:1.00" />
<rect height="0.907167" width="25.000000" x="475.000000" y="297.992138" fill="rgb(255, 255, 255)" style="fill-opacity:1.00" />
<!-- End 'C' -->
<!-- Begin 'G' -->
<ellipse cx="475.000000" cy="299.413366" rx="25.000000" ry="0.060478" fill="rgb(255, 165, 0)" style="fill-opacity:0.00" />
<ellipse cx="475.000000" cy="299.413366" rx="16.666667" ry="0.040319" fill="rgb(255, 255, 255)" style="fill-opacity:1.00" />
<rect height="0.060478" width="25.000000" x="475.000000" y="299.383127" fill="rgb(255, 255, 255)" style="fill-opacity:1.00" />
<rect height="0.015119" width="25.000000" x="475.000000" y="299.428485" fill="rgb(255, 165, 0)" style="fill-opacity:0.00" />
<rect height="0.045358" width="6.250000" x="493.750000" y="299.428485" fill="rgb(255, 165, 0)" style="fill-opacity:0.00" />
<!-- End 'G' -->
<!-- Begin 'A' -->
<polygon points=" 450.000000, 378.524342, 471.000000, 309.473843, 479.000000, 309.473843, 500.000000, 378.524342, 492.500000, 378.524342, 486.250000, 361.261718, 463.750000, 361.261718, 457.500000, 378.524342" fill="rgb(178, 34, 34)" style="fill-opacity:0.00" />
<polygon points=" 475.000000, 323.283943, 467.000000, 349.904143, 482.000000, 349.904143" fill="rgb(255, 255, 255)" style="fill-opacity:1.00" />
<!-- End 'A' -->
<!-- Begin 'T' -->
<rect height="3.014212" width="50.000000" x="450.000000" y="378.524342" fill="rgb(0, 100, 0)" style="fill-opacity:0.00" />
<rect height="18.838827" width="10.000000" x="470.000000" y="378.524342" fill="rgb(0, 100, 0)" style="fill-opacity:0.00" />
<!-- End 'T' -->
<!-- Begin 'C' -->
<ellipse cx="475.000000" cy="398.270336" rx="25.000000" ry="0.907167" fill="rgb(0, 0, 128)" style="fill-opacity:0.00" />
<ellipse cx="475.000000" cy="398.270336" rx="16.666667" ry="0.604778" fill="rgb(255, 255, 255)" style="fill-opacity:1.00" />
<rect height="0.907167" width="25.000000" x="475.000000" y="397.816752" fill="rgb(255, 255, 255)" style="fill-opacity:1.00" />
<!-- End 'C' -->
<!-- Begin 'G' -->
<ellipse cx="475.000000" cy="399.237980" rx="25.000000" ry="0.060478" fill="rgb(255, 165, 0)" style="fill-opacity:0.00" />
<ellipse cx="475.000000" cy="399.237980" rx="16.666667" ry="0.040319" fill="rgb(255, 255, 255)" style="fill-opacity:1.00" />
<rect height="0.060478" width="25.000000" x="475.000000" y="399.207741" fill="rgb(255, 255, 255)" style="fill-opacity:1.00" />
<rect height="0.015119" width="25.000000" x="475.000000" y="399.253099" fill="rgb(255, 165, 0)" style="fill-opacity:0.00" />
<rect height="0.045358" width="6.250000" x="493.750000" y="399.253099" fill="rgb(255, 165, 0)" style="fill-opacity:0.00" />
<!-- End 'G' -->
<!-- Begin 'G' -->
<ellipse cx="535.000000" cy="29.481403" rx="25.000000" ry="19.481403" fill="rgb(255, 165, 0)" style="fill-opacity:0.16" />
<ellipse cx="535.000000" cy="29.481403" rx="16.666667" ry="12.987602" fill="rgb(255, 255, 255)" style="fill-opacity:1.00" />
<rect height="19.481403" width="25.000000" x="535.000000" y="19.740702" fill="rgb(255, 255, 255)" style="fill-opacity:1.00" />
<rect height="4.870351" width="25.000000" x="535.000000" y="34.351754" fill="rgb(255, 165, 0)" style="fill-opacity:0.16" />
<rect height="14.611052" width="6.250000" x="553.750000" y="34.351754" fill="rgb(255, 165, 0)" style="fill-opacity:0.16" />
<!-- End 'G' -->
<!-- Begin 'A' -->
<polygon points=" 510.000000, 79.065618, 531.000000, 48.962806, 539.000000, 48.962806, 560.000000, 79.065618, 552.500000, 79.065618, 546.250000, 71.539915, 523.750000, 71.539915, 517.500000, 79.065618" fill="rgb(178, 34, 34)" style="fill-opacity:0.16" />
<polygon points=" 535.000000, 54.983369, 527.000000, 66.024493, 542.000000, 66.024493" fill="rgb(255, 255, 255)" style="fill-opacity:1.00" />
<!-- End 'A' -->
<!-- Begin 'C' -->
<ellipse cx="535.000000" cy="79.829150" rx="25.000000" ry="0.763532" fill="rgb(0, 0, 128)" style="fill-opacity:0.16" />
<ellipse cx="535.000000" cy="79.829150" rx="16.666667" ry="0.509021" fill="rgb(255, 255, 255)" style="fill-opacity:1.00" />
<rect height="0.763532" width="25.000000" x="535.000000" y="79.447384" fill="rgb(255, 255, 255)" style="fill-opacity:1.00" />
<!-- End 'C' -->
<!-- Begin 'T' -->
<rect height="0.070154" width="50.000000" x="510.000000" y="80.592682" fill="rgb(0, 100, 0)" style="fill-opacity:0.16" />
<rect height="0.438464" width="10.000000" x="530.000000" y="80.592682" fill="rgb(0, 100, 0)" style="fill-opacity:0.16" />
<!-- End 'T' -->
<!-- Begin 'G' -->
<ellipse cx="535.000000" cy="110.512549" rx="25.000000" ry="19.481403" fill="rgb(255, 165, 0)" style="fill-opacity:0.00" />
<ellipse cx="535.000000" cy="110.512549" rx="16.666667" ry="12.987602" fill="rgb(255, 255, 255)" style="fill-opacity:1.00" />
<rect height="19.481403" width="25.000000" x="535.000000" y="100.771848" fill="rgb(255, 255, 255)" style="fill-opacity:1.00" />
<rect height="4.870351" width="25.000000" x="535.000000" y="115.382900" fill="rgb(255, 165, 0)" style="fill-opacity:0.00" />
<rect height="14.611052" width="6.250000" x="553.750000" y="115.382900" fill="rgb(255, 165, 0)" style="fill-opacity:0.00" />
<!-- End 'G' -->
<!-- Begin 'A' -->
<polygon points=" 510.000000, 160.096764, 531.000000, 129.993952, 539.000000, 129.993952, 560.000000, 160.096764, 552.500000, 160.096764, 546.250000, 152.571061, 523.750000, 152.571061, 517.500000, 160.096764" fill="rgb(178, 34, 34)" style="fill-opacity:0.00" />
<polygon points=" 535.000000, 136.014515, 527.000000, 147.055640, 542.000000, 147.055640" fill="rgb(255, 255, 255)" style="fill-opacity:1.00" />
<!-- End 'A' -->
<!-- Begin 'C' -->
<ellipse cx="535.000000" cy="160.860296" rx="25.000000" ry="0.763532" fill="rgb(0, 0, 128)" style="fill-opacity:0.00" />
<ellipse cx="535.000000" cy="160.860296" rx="16.666667" ry="0.509021" fill="rgb(255, 255, 255)" style="fill-opacity:1.00" />
<rect height="0.763532" width="25.000000" x="535.000000" y="160.478530" fill="rgb(255, 255, 255)" style="fill-opacity:1.00" />
<!-- End 'C' -->
<!-- Begin 'T' -->
<rect height="0.070154" width="50.000000" x="510.000000" y="161.623828" fill="rgb(0, 100, 0)" style="fill-opacity:0.00" />
<rect height="0.438464" width="10.000000" x="530.000000" y="161.623828" fill="rgb(0, 100, 0)" style="fill-opacity:0.00" />
<!-- End 'T' -->
<!-- Begin 'G' -->
<ellipse cx="535.000000" cy="191.543695" rx="25.000000" ry="19.481403" fill="rgb(255, 165, 0)" style="fill-opacity:0.00" />
<ellipse cx="535.000000" cy="191.543695" rx="16.666667" ry="12.987602" fill="rgb(255, 255, 255)" style="fill-opacity:1.00" />
<rect height="19.481403" width="25.000000" x="535.000000" y="181.802994" fill="rgb(255, 255, 255)" style="fill-opacity:1.00" />
<rect height="4.870351" width="25.000000" x="535.000000" y="196.414046" fill="rgb(255, 165, 0)" style="fill-opacity:0.00" />
<rect height="14.611052" width="6.250000" x="553.750000" y="196.414046" fill="rgb(255, 165, 0)" style="fill-opacity:0.00" />
<!-- End 'G' -->
<!-- Begin 'A' -->
<polygon points=" 510.000000, 241.127910, 531.000000, 211.025098, 539.000000, 211.025098, 560.000000, 241.127910, 552.500000, 241.127910, 546.250000, 233.602207, 523.750000, 233.602207, 517.500000, 241.127910" fill="rgb(178, 34, 34)" style="fill-opacity:0.00" />
<polygon points=" 535.000000, 217.045661, 527.000000, 228.086786, 542.000000, 228.086786" fill="rgb(255, 255, 255)" style="fill-opacity:1.00" />
<!-- End 'A' -->
<!-- Begin 'C' -->
<ellipse cx="535.000000" cy="241.891442" rx="25.000000" ry="0.763532" fill="rgb(0, 0, 128)" style="fill-opacity:0.00" />
<ellipse cx="535.000000" cy="241.891442" rx="16.666667" ry="0.509021" fill="rgb(255, 255, 255)" style="fill-opacity:1.00" />
<rect height="0.763532" width="25.000000" x="535.000000" y="241.509676" fill="rgb(255, 255, 255)" style="fill-opacity:1.00" />
<!-- End 'C' -->
<!-- Begin 'T' -->
<rect height="0.070154" width="50.000000" x="510.000000" y="242.654974" fill="rgb(0, 100, 0)" style="fill-opacity:0.00" />
<rect height="0.438464" width="10.000000" x="530.000000" y="242.654974" fill="rgb(0, 100, 0)" style="fill-opacity:0.00" />
<!-- End 'T' -->
<!-- Begin 'G' -->
<ellipse cx="535.000000" cy="272.574841" rx="25.000000" ry="19.481403" fill="rgb(255, 165, 0)" style="fill-opacity:0.04" />
<ellipse cx="535.000000" cy="272.574841" rx="16.666667" ry="12.987602" fill="rgb(255, 255, 255)" style="fill-opacity:1.00" />
<rect height="19.481403" width="25.000000" x="535.000000" y="262.834140" fill="rgb(255, 255, 255)" style="fill-opacity:1.00" />
<rect height="4.870351" width="25.000000" x="535.000000" y="277.445192" fill="rgb(255, 165, 0)" style="fill-opacity:0.04" />
<rect height="14.611052" width="6.250000" x="553.750000" y="277.445192" fill="rgb(255, 165, 0)" style="fill-opacity:0.04" />
<!-- End 'G' -->
<!-- Begin 'A' -->
<polygon points=" 510.000000, 322.159057, 531.000000, 292.056244, 539.000000, 292.056244, 560.000000, 322.159057, 552.500000, 322.159057, 546.250000, 314.633353, 523.750000, 314.633353, 517.500000, 322.159057" fill="rgb(178, 34, 34)" style="fill-opacity:0.04" />
<polygon points=" 535.000000, 298.076807, 527.000000, 309.117932, 542.000000, 309.117932" fill="rgb(255, 255, 255)" style="fill-opacity:1.00" />
<!-- End 'A' -->
<!-- Begin 'C' -->
<ellipse cx="535.000000" cy="322.922588" rx="25.000000" ry="0.763532" fill="rgb(0, 0, 128)" style="fill-opacity:0.04" />
<ellipse cx="535.000000" cy="322.922588" rx="16.666667" ry="0.509021" fill="rgb(255, 255, 255)" style="fill-opacity:1.00" />
<rect height="0.763532" width="25.000000" x="535.000000" y="322.540822" fill="rgb(255, 255, 255)" style="fill-opacity:1.00" />
<!-- End 'C' -->
<!-- Begin 'T' -->
<rect height="0.070154" width="50.000000" x="510.000000" y="323.686120" fill="rgb(0, 100, 0)" style="fill-opacity:0.04" />
<rect height="0.438464" width="10.000000" x="530.000000" y="323.686120" fill="rgb(0, 100, 0)" style="fill-opacity:0.04" />
<!-- End 'T' -->
<!-- Begin 'T' -->
<rect height="11.048080" width="50.000000" x="570.000000" y="10.000000" fill="rgb(0, 100, 0)" style="fill-opacity:0.06" />
<rect height="69.050499" width="10.000000" x="590.000000" y="10.000000" fill="rgb(0, 100, 0)" style="fill-opacity:0.06" />
<!-- End 'T' -->
<!-- Begin 'C' -->
<ellipse cx="595.000000" cy="91.047777" rx="25.000000" ry="11.997279" fill="rgb(0, 0, 128)" style="fill-opacity:0.06" />
<ellipse cx="595.000000" cy="91.047777" rx="16.666667" ry="7.998186" fill="rgb(255, 255, 255)" style="fill-opacity:1.00" />
<rect height="11.997279" width="25.000000" x="595.000000" y="85.049138" fill="rgb(255, 255, 255)" style="fill-opacity:1.00" />
<!-- End 'C' -->
<!-- Begin 'G' -->
<ellipse cx="595.000000" cy="105.736317" rx="25.000000" ry="2.691261" fill="rgb(255, 165, 0)" style="fill-opacity:0.06" />
<ellipse cx="595.000000" cy="105.736317" rx="16.666667" ry="1.794174" fill="rgb(255, 255, 255)" style="fill-opacity:1.00" />
<rect height="2.691261" width="25.000000" x="595.000000" y="104.390686" fill="rgb(255, 255, 255)" style="fill-opacity:1.00" />
<rect height="0.672815" width="25.000000" x="595.000000" y="106.409132" fill="rgb(255, 165, 0)" style="fill-opacity:0.06" />
<rect height="2.018446" width="6.250000" x="613.750000" y="106.409132" fill="rgb(255, 165, 0)" style="fill-opacity:0.06" />
<!-- End 'G' -->
<!-- Begin 'A' -->
<polygon points=" 570.000000, 110.514061, 591.000000, 108.427578, 599.000000, 108.427578, 620.000000, 110.514061, 612.500000, 110.514061, 606.250000, 109.992440, 583.750000, 109.992440, 577.500000, 110.514061" fill="rgb(178, 34, 34)" style="fill-opacity:0.06" />
<!-- End 'A' -->
<!-- Begin 'T' -->
<rect height="11.048080" width="50.000000" x="570.000000" y="120.514061" fill="rgb(0, 100, 0)" style="fill-opacity:0.00" />
<rect height="69.050499" width="10.000000" x="590.000000" y="120.514061" fill="rgb(0, 100, 0)" style="fill-opacity:0.00" />
<!-- End 'T' -->
<!-- Begin 'C' -->
<ellipse cx="595.000000" cy="201.561839" rx="25.000000" ry="11.997279" fill="rgb(0, 0, 128)" style="fill-opacity:0.00" />
<ellipse cx="595.000000" cy="201.561839" rx="16.666667" ry="7.998186" fill="rgb(255, 255, 255)" style="fill-opacity:1.00" />
<rect height="11.997279" width="25.000000" x="595.000000" y="195.563199" fill="rgb(255, 255, 255)" style="fill-opacity:1.00" />
<!-- End 'C' -->
<!-- Begin 'G' -->
<ellipse cx="595.000000" cy="216.250378" rx="25.000000" ry="2.691261" fill="rgb(255, 165, 0)" style="fill-opacity:0.00" />
<ellipse cx="595.000000" cy="216.250378" rx="16.666667" ry="1.794174" fill="rgb(255, 255, 255)" style="fill-opacity:1.00" />
<rect height="2.691261" width="25.000000" x="595.000000" y="214.904748" fill="rgb(255, 255, 255)" style="fill-opacity:1.00" />
<rect height="0.672815" width="25.000000" x="595.000000" y="216.923193" fill="rgb(255, 165, 0)" style="fill-opacity:0.00" />
<rect height="2.018446" width="6.250000" x="613.750000" y="216.923193" fill="rgb(255, 165, 0)" style="fill-opacity:0.00" />
<!-- End 'G' -->
<!-- Begin 'A' -->
<polygon points=" 570.000000, 221.028122, 591.000000, 218.941639, 599.000000, 218.941639, 620.000000, 221.028122, 612.500000, 221.028122, 606.250000, 220.506501, 583.750000, 220.506501, 577.500000, 221.028122" fill="rgb(178, 34, 34)" style="fill-opacity:0.00" />
<!-- End 'A' -->
<!-- Begin 'T' -->
<rect height="11.048080" width="50.000000" x="570.000000" y="231.028122" fill="rgb(0, 100, 0)" style="fill-opacity:0.08" />
<rect height="69.050499" width="10.000000" x="590.000000" y="231.028122" fill="rgb(0, 100, 0)" style="fill-opacity:0.08" />
<!-- End 'T' -->
<!-- Begin 'C' -->
<ellipse cx="595.000000" cy="312.075900" rx="25.000000" ry="11.997279" fill="rgb(0, 0, 128)" style="fill-opacity:0.08" />
<ellipse cx="595.000000" cy="312.075900" rx="16.666667" ry="7.998186" fill="rgb(255, 255, 255)" style="fill-opacity:1.00" />
<rect height="11.997279" width="25.000000" x="595.000000" y="306.077260" fill="rgb(255, 255, 255)" style="fill-opacity:1.00" />
<!-- End 'C' -->
<!-- Begin 'G' -->
<ellipse cx="595.000000" cy="326.764439" rx="25.000000" ry="2.691261" fill="rgb(255, 165, 0)" style="fill-opacity:0.08" />
<ellipse cx="595.000000" cy="326.764439" rx="16.666667" ry="1.794174" fill="rgb(255, 255, 255)" style="fill-opacity:1.00" />
<rect height="2.691261" width="25.000000" x="595.000000" y="325.418809" fill="rgb(255, 255, 255)" style="fill-opacity:1.00" />
<rect height="0.672815" width="25.000000" x="595.000000" y="327.437254" fill="rgb(255, 165, 0)" style="fill-opacity:0.08" />
<rect height="2.018446" width="6.250000" x="613.750000" y="327.437254" fill="rgb(255, 165, 0)" style="fill-opacity:0.08" />
<!-- End 'G' -->
<!-- Begin 'A' -->
<polygon points=" 570.000000, 331.542183, 591.000000, 329.455700, 599.000000, 329.455700, 620.000000, 331.542183, 612.500000, 331.542183, 606.250000, 331.020562, 583.750000, 331.020562, 577.500000, 331.542183" fill="rgb(178, 34, 34)" style="fill-opacity:0.08" />
<!-- End 'A' -->
<!-- Begin 'T' -->
<rect height="11.048080" width="50.000000" x="570.000000" y="341.542183" fill="rgb(0, 100, 0)" style="fill-opacity:0.00" />
<rect height="69.050499" width="10.000000" x="590.000000" y="341.542183" fill="rgb(0, 100, 0)" style="fill-opacity:0.00" />
<!-- End 'T' -->
<!-- Begin 'C' -->
<ellipse cx="595.000000" cy="422.589961" rx="25.000000" ry="11.997279" fill="rgb(0, 0, 128)" style="fill-opacity:0.00" />
<ellipse cx="595.000000" cy="422.589961" rx="16.666667" ry="7.998186" fill="rgb(255, 255, 255)" style="fill-opacity:1.00" />
<rect height="11.997279" width="25.000000" x="595.000000" y="416.591321" fill="rgb(255, 255, 255)" style="fill-opacity:1.00" />
<!-- End 'C' -->
<!-- Begin 'G' -->
<ellipse cx="595.000000" cy="437.278500" rx="25.000000" ry="2.691261" fill="rgb(255, 165, 0)" style="fill-opacity:0.00" />
<ellipse cx="595.000000" cy="437.278500" rx="16.666667" ry="1.794174" fill="rgb(255, 255, 255)" style="fill-opacity:1.00" />
<rect height="2.691261" width="25.000000" x="595.000000" y="435.932870" fill="rgb(255, 255, 255)" style="fill-opacity:1.00" />
<rect height="0.672815" width="25.000000" x="595.000000" y="437.951315" fill="rgb(255, 165, 0)" style="fill-opacity:0.00" />
<rect height="2.018446" width="6.250000" x="613.750000" y="437.951315" fill="rgb(255, 165, 0)" style="fill-opacity:0.00" />
<!-- End 'G' -->
<!-- Begin 'A' -->
<polygon points=" 570.000000, 442.056244, 591.000000, 439.969761, 599.000000, 439.969761, 620.000000, 442.056244, 612.500000, 442.056244, 606.250000, 441.534624, 583.750000, 441.534624, 577.500000, 442.056244" fill="rgb(178, 34, 34)" style="fill-opacity:0.00" />
<!-- End 'A' -->
<!-- Begin 'G' -->
<ellipse cx="655.000000" cy="22.617176" rx="25.000000" ry="12.617176" fill="rgb(255, 165, 0)" style="fill-opacity:0.00" />
<ellipse cx="655.000000" cy="22.617176" rx="16.666667" ry="8.411450" fill="rgb(255, 255, 255)" style="fill-opacity:1.00" />
<rect height="12.617176" width="25.000000" x="655.000000" y="16.308588" fill="rgb(255, 255, 255)" style="fill-opacity:1.00" />
<rect height="3.154294" width="25.000000" x="655.000000" y="25.771470" fill="rgb(255, 165, 0)" style="fill-opacity:0.00" />
<rect height="9.462882" width="6.250000" x="673.750000" y="25.771470" fill="rgb(255, 165, 0)" style="fill-opacity:0.00" />
<!-- End 'G' -->
<!-- Begin 'C' -->
<ellipse cx="655.000000" cy="43.557605" rx="25.000000" ry="8.323254" fill="rgb(0, 0, 128)" style="fill-opacity:0.00" />
<ellipse cx="655.000000" cy="43.557605" rx="16.666667" ry="5.548836" fill="rgb(255, 255, 255)" style="fill-opacity:1.00" />
<rect height="8.323254" width="25.000000" x="655.000000" y="39.395978" fill="rgb(255, 255, 255)" style="fill-opacity:1.00" />
<!-- End 'C' -->
<!-- Begin 'A' -->
<polygon points=" 630.000000, 67.106138, 651.000000, 51.880859, 659.000000, 51.880859, 680.000000, 67.106138, 672.500000, 67.106138, 666.250000, 63.299819, 643.750000, 63.299819, 637.500000, 67.106138" fill="rgb(178, 34, 34)" style="fill-opacity:0.00" />
<polygon points=" 655.000000, 54.925915, 647.000000, 60.016027, 662.000000, 60.016027" fill="rgb(255, 255, 255)" style="fill-opacity:1.00" />
<!-- End 'A' -->
<!-- Begin 'T' -->
<rect height="1.918355" width="50.000000" x="630.000000" y="67.106138" fill="rgb(0, 100, 0)" style="fill-opacity:0.00" />
<rect height="11.989719" width="10.000000" x="650.000000" y="67.106138" fill="rgb(0, 100, 0)" style="fill-opacity:0.00" />
<!-- End 'T' -->
<!-- Begin 'G' -->
<ellipse cx="655.000000" cy="101.713033" rx="25.000000" ry="12.617176" fill="rgb(255, 165, 0)" style="fill-opacity:0.03" />
<ellipse cx="655.000000" cy="101.713033" rx="16.666667" ry="8.411450" fill="rgb(255, 255, 255)" style="fill-opacity:1.00" />
<rect height="12.617176" width="25.000000" x="655.000000" y="95.404445" fill="rgb(255, 255, 255)" style="fill-opacity:1.00" />
<rect height="3.154294" width="25.000000" x="655.000000" y="104.867327" fill="rgb(255, 165, 0)" style="fill-opacity:0.03" />
<rect height="9.462882" width="6.250000" x="673.750000" y="104.867327" fill="rgb(255, 165, 0)" style="fill-opacity:0.03" />
<!-- End 'G' -->
<!-- Begin 'C' -->
<ellipse cx="655.000000" cy="122.653462" rx="25.000000" ry="8.323254" fill="rgb(0, 0, 128)" style="fill-opacity:0.03" />
<ellipse cx="655.000000" cy="122.653462" rx="16.666667" ry="5.548836" fill="rgb(255, 255, 255)" style="fill-opacity:1.00" />
<rect height="8.323254" width="25.000000" x="655.000000" y="118.491836" fill="rgb(255, 255, 255)" style="fill-opacity:1.00" />
<!-- End 'C' -->
<!-- Begin 'A' -->
<polygon points=" 630.000000, 146.201996, 651.000000, 130.976716, 659.000000, 130.976716, 680.000000, 146.201996, 672.500000, 146.201996, 666.250000, 142.395676, 643.750000, 142.395676, 637.500000, 146.201996" fill="rgb(178, 34, 34)" style="fill-opacity:0.03" />
<polygon points=" 655.000000, 134.021772, 647.000000, 139.111884, 662.000000, 139.111884" fill="rgb(255, 255, 255)" style="fill-opacity:1.00" />
<!-- End 'A' -->
<!-- Begin 'T' -->
<rect height="1.918355" width="50.000000" x="630.000000" y="146.201996" fill="rgb(0, 100, 0)" style="fill-opacity:0.03" />
<rect height="11.989719" width="10.000000" x="650.000000" y="146.201996" fill="rgb(0, 100, 0)" style="fill-opacity:0.03" />
<!-- End 'T' -->
<!-- Begin 'G' -->
<ellipse cx="655.000000" cy="180.808890" rx="25.000000" ry="12.617176" fill="rgb(255, 165, 0)" style="fill-opacity:0.01" />
<ellipse cx="655.000000" cy="180.808890" rx="16.666667" ry="8.411450" fill="rgb(255, 255, 255)" style="fill-opacity:1.00" />
<rect height="12.617176" width="25.000000" x="655.000000" y="174.500302" fill="rgb(255, 255, 255)" style="fill-opacity:1.00" />
<rect height="3.154294" width="25.000000" x="655.000000" y="183.963184" fill="rgb(255, 165, 0)" style="fill-opacity:0.01" />
<rect height="9.462882" width="6.250000" x="673.750000" y="183.963184" fill="rgb(255, 165, 0)" style="fill-opacity:0.01" />
<!-- End 'G' -->
<!-- Begin 'C' -->
<ellipse cx="655.000000" cy="201.749320" rx="25.000000" ry="8.323254" fill="rgb(0, 0, 128)" style="fill-opacity:0.01" />
<ellipse cx="655.000000" cy="201.749320" rx="16.666667" ry="5.548836" fill="rgb(255, 255, 255)" style="fill-opacity:1.00" />
<rect height="8.323254" width="25.000000" x="655.000000" y="197.587693" fill="rgb(255, 255, 255)" style="fill-opacity:1.00" />
<!-- End 'C' -->
<!-- Begin 'A' -->
<polygon points=" 630.000000, 225.297853, 651.000000, 210.072573, 659.000000, 210.072573, 680.000000, 225.297853, 672.500000, 225.297853, 666.250000, 221.491533, 643.750000, 221.491533, 637.500000, 225.297853" fill="rgb(178, 34, 34)" style="fill-opacity:0.01" />
<polygon points=" 655.000000, 213.117629, 647.000000, 218.207741, 662.000000, 218.207741" fill="rgb(255, 255, 255)" style="fill-opacity:1.00" />
<!-- End 'A' -->
<!-- Begin 'T' -->
<rect height="1.918355" width="50.000000" x="630.000000" y="225.297853" fill="rgb(0, 100, 0)" style="fill-opacity:0.01" />
<rect height="11.989719" width="10.000000" x="650.000000" y="225.297853" fill="rgb(0, 100, 0)" style="fill-opacity:0.01" />
<!-- End 'T' -->
<!-- Begin 'G' -->
<ellipse cx="655.000000" cy="259.904748" rx="25.000000" ry="12.617176" fill="rgb(255, 165, 0)" style="fill-opacity:0.10" />
<ellipse cx="655.000000" cy="259.904748" rx="16.666667" ry="8.411450" fill="rgb(255, 255, 255)" style="fill-opacity:1.00" />
<rect height="12.617176" width="25.000000" x="655.000000" y="253.596160" fill="rgb(255, 255, 255)" style="fill-opacity:1.00" />
<rect height="3.154294" width="25.000000" x="655.000000" y="263.059041" fill="rgb(255, 165, 0)" style="fill-opacity:0.10" />
<rect height="9.462882" width="6.250000" x="673.750000" y="263.059041" fill="rgb(255, 165, 0)" style="fill-opacity:0.10" />
<!-- End 'G' -->
<!-- Begin 'C' -->
<ellipse cx="655.000000" cy="280.845177" rx="25.000000" ry="8.323254" fill="rgb(0, 0, 128)" style="fill-opacity:0.10" />
<ellipse cx="655.000000" cy="280.845177" rx="16.666667" ry="5.548836" fill="rgb(255, 255, 255)" style="fill-opacity:1.00" />
<rect height="8.323254" width="25.000000" x="655.000000" y="276.683550" fill="rgb(255, 255, 255)" style="fill-opacity:1.00" />
<!-- End 'C' -->
<!-- Begin 'A' -->
<polygon points=" 630.000000, 304.393710, 651.000000, 289.168431, 659.000000, 289.168431, 680.000000, 304.393710, 672.500000, 304.393710, 666.250000, 300.587390, 643.750000, 300.587390, 637.500000, 304.393710" fill="rgb(178, 34, 34)" style="fill-opacity:0.10" />
<polygon points=" 655.000000, 292.213487, 647.000000, 297.303598, 662.000000, 297.303598" fill="rgb(255, 255, 255)" style="fill-opacity:1.00" />
<!-- End 'A' -->
<!-- Begin 'T' -->
<rect height="1.918355" width="50.000000" x="630.000000" y="304.393710" fill="rgb(0, 100, 0)" style="fill-opacity:0.10" />
<rect height="11.989719" width="10.000000" x="650.000000" y="304.393710" fill="rgb(0, 100, 0)" style="fill-opacity:0.10" />
<!-- End 'T' -->
<text x="370.000000" y="495">
IC = 12.95
</text>

</svg>
