<?xml version="1.0" encoding="UTF-8" standalone="yes"?>
                 <!DOCTYPE svg PUBLIC "-//W3C//DTD SVG 1.0//EN" "http://www.w3.org/TR/2001/REC-SVG-20010904/DTD/svg10.dtd">
                 <svg height="170" width="1020" xmlns="http://www.w3.org/2000/svg" xmlns:xlink="http://www.w3.org/1999/xlink">
                 <line x1="85" y1="120" x2="987" y2="120" style="stroke:rgb(99,99,99);stroke-width:2" />
<rect height="7.000000" width="2.000000" x="85.000000" y="120.000000" fill="rgb(0, 0, 0)" style="fill-opacity:1.00" />
<text x="107.000000" y="140">
1
</text>
<rect height="7.000000" width="2.000000" x="145.000000" y="120.000000" fill="rgb(0, 0, 0)" style="fill-opacity:1.00" />
<text x="167.000000" y="140">
2
</text>
<rect height="7.000000" width="2.000000" x="205.000000" y="120.000000" fill="rgb(0, 0, 0)" style="fill-opacity:1.00" />
<text x="227.000000" y="140">
3
</text>
<rect height="7.000000" width="2.000000" x="265.000000" y="120.000000" fill="rgb(0, 0, 0)" style="fill-opacity:1.00" />
<text x="287.000000" y="140">
4
</text>
<rect height="7.000000" width="2.000000" x="325.000000" y="120.000000" fill="rgb(0, 0, 0)" style="fill-opacity:1.00" />
<text x="347.000000" y="140">
5
</text>
<rect height="7.000000" width="2.000000" x="385.000000" y="120.000000" fill="rgb(0, 0, 0)" style="fill-opacity:1.00" />
<text x="407.000000" y="140">
6
</text>
<rect height="7.000000" width="2.000000" x="445.000000" y="120.000000" fill="rgb(0, 0, 0)" style="fill-opacity:1.00" />
<text x="467.000000" y="140">
7
</text>
<rect height="7.000000" width="2.000000" x="505.000000" y="120.000000" fill="rgb(0, 0, 0)" style="fill-opacity:1.00" />
<text x="527.000000" y="140">
8
</text>
<rect height="7.000000" width="2.000000" x="565.000000" y="120.000000" fill="rgb(0, 0, 0)" style="fill-opacity:1.00" />
<text x="587.000000" y="140">
9
</text>
<rect height="7.000000" width="2.000000" x="625.000000" y="120.000000" fill="rgb(0, 0, 0)" style="fill-opacity:1.00" />
<text x="647.000000" y="140">
10
</text>
<rect height="7.000000" width="2.000000" x="685.000000" y="120.000000" fill="rgb(0, 0, 0)" style="fill-opacity:1.00" />
<text x="707.000000" y="140">
11
</text>
<rect height="7.000000" width="2.000000" x="745.000000" y="120.000000" fill="rgb(0, 0, 0)" style="fill-opacity:1.00" />
<text x="767.000000" y="140">
12
</text>
<rect height="7.000000" width="2.000000" x="805.000000" y="120.000000" fill="rgb(0, 0, 0)" style="fill-opacity:1.00" />
<text x="827.000000" y="140">
13
</text>
<rect height="7.000000" width="2.000000" x="865.000000" y="120.000000" fill="rgb(0, 0, 0)" style="fill-opacity:1.00" />
<text x="887.000000" y="140">
14
</text>
<rect height="7.000000" width="2.000000" x="925.000000" y="120.000000" fill="rgb(0, 0, 0)" style="fill-opacity:1.00" />
<text x="947.000000" y="140">
15
</text>
<rect height="7.000000" width="2.000000" x="985.000000" y="120.000000" fill="rgb(0, 0, 0)" style="fill-opacity:1.00" />
<line x1="80" y1="112" x2="80" y2="10" style="stroke:rgb(99,99,99);stroke-width:2" />
<rect height="2.000000" width="7.000000" x="73.000000" y="110.000000" fill="rgb(0, 0, 0)" style="fill-opacity:1.00" />
<text x="63" y="115">
0
</text>
<rect height="2.000000" width="7.000000" x="73.000000" y="60.000000" fill="rgb(0, 0, 0)" style="fill-opacity:1.00" />
<text x="63" y="65">
1
</text>
<rect height="2.000000" width="7.000000" x="73.000000" y="10.000000" fill="rgb(0, 0, 0)" style="fill-opacity:1.00" />
<text x="63" y="15">
2
</text>
<text x="50" y="65"
transform="rotate(-90, 50, 70)">
bits
</text>
<!-- Begin 'T' -->
<rect height="0.926418" width="50.000000" x="90.000000" y="96.128060" fill="rgb(0, 100, 0)" style="fill-opacity:1.00" />
<rect height="5.790115" width="10.000000" x="110.000000" y="96.128060" fill="rgb(0, 100, 0)" style="fill-opacity:1.00" />
<!-- End 'T' -->
<!-- Begin 'A' -->
<polygon points=" 90.000000, 107.211985, 111.000000, 101.918175, 119.000000, 101.918175, 140.000000, 107.211985, 132.500000, 107.211985, 126.250000, 105.888533, 103.750000, 105.888533, 97.500000, 107.211985" fill="rgb(178, 34, 34)" style="fill-opacity:1.00" />
<!-- End 'A' -->
<!-- Begin 'C' -->
<ellipse cx="115.000000" cy="107.932940" rx="25.000000" ry="0.720955" fill="rgb(0, 0, 128)" style="fill-opacity:1.00" />
<ellipse cx="115.000000" cy="107.932940" rx="16.666667" ry="0.480637" fill="rgb(255, 255, 255)" style="fill-opacity:1.00" />
<rect height="0.720955" width="25.000000" x="115.000000" y="107.572463" fill="rgb(255, 255, 255)" style="fill-opacity:1.00" />
<!-- End 'C' -->
<!-- Begin 'G' -->
<ellipse cx="115.000000" cy="109.326948" rx="25.000000" ry="0.673052" fill="rgb(255, 165, 0)" style="fill-opacity:1.00" />
<ellipse cx="115.000000" cy="109.326948" rx="16.666667" ry="0.448701" fill="rgb(255, 255, 255)" style="fill-opacity:1.00" />
<rect height="0.673052" width="25.000000" x="115.000000" y="108.990422" fill="rgb(255, 255, 255)" style="fill-opacity:1.00" />
<rect height="0.168263" width="25.000000" x="115.000000" y="109.495211" fill="rgb(255, 165, 0)" style="fill-opacity:1.00" />
<rect height="0.504789" width="6.250000" x="133.750000" y="109.495211" fill="rgb(255, 165, 0)" style="fill-opacity:1.00" />
<!-- End 'G' -->
<!-- Begin 'T' -->
<rect height="1.472024" width="50.000000" x="150.000000" y="90.392359" fill="rgb(0, 100, 0)" style="fill-opacity:1.00" />
<rect height="9.200151" width="10.000000" x="170.000000" y="90.392359" fill="rgb(0, 100, 0)" style="fill-opacity:1.00" />
<!-- End 'T' -->
<!-- Begin 'A' -->
<polygon points=" 150.000000, 107.019695, 171.000000, 99.592511, 179.000000, 99.592511, 200.000000, 107.019695, 192.500000, 107.019695, 186.250000, 105.162899, 163.750000, 105.162899, 157.500000, 107.019695" fill="rgb(178, 34, 34)" style="fill-opacity:1.00" />
<!-- End 'A' -->
<!-- Begin 'G' -->
<ellipse cx="175.000000" cy="107.765616" rx="25.000000" ry="0.745921" fill="rgb(255, 165, 0)" style="fill-opacity:1.00" />
<ellipse cx="175.000000" cy="107.765616" rx="16.666667" ry="0.497280" fill="rgb(255, 255, 255)" style="fill-opacity:1.00" />
<rect height="0.745921" width="25.000000" x="175.000000" y="107.392656" fill="rgb(255, 255, 255)" style="fill-opacity:1.00" />
<rect height="0.186480" width="25.000000" x="175.000000" y="107.952096" fill="rgb(255, 165, 0)" style="fill-opacity:1.00" />
<rect height="0.559440" width="6.250000" x="193.750000" y="107.952096" fill="rgb(255, 165, 0)" style="fill-opacity:1.00" />
<!-- End 'G' -->
<!-- Begin 'C' -->
<ellipse cx="175.000000" cy="109.255768" rx="25.000000" ry="0.744232" fill="rgb(0, 0, 128)" style="fill-opacity:1.00" />
<ellipse cx="175.000000" cy="109.255768" rx="16.666667" ry="0.496155" fill="rgb(255, 255, 255)" style="fill-opacity:1.00" />
<rect height="0.744232" width="25.000000" x="175.000000" y="108.883652" fill="rgb(255, 255, 255)" style="fill-opacity:1.00" />
<!-- End 'C' -->
<!-- Begin 'T' -->
<rect height="1.456416" width="50.000000" x="210.000000" y="90.285907" fill="rgb(0, 100, 0)" style="fill-opacity:1.00" />
<rect height="9.102599" width="10.000000" x="230.000000" y="90.285907" fill="rgb(0, 100, 0)" style="fill-opacity:1.00" />
<!-- End 'T' -->
<!-- Begin 'A' -->
<polygon points=" 210.000000, 106.989073, 231.000000, 99.388506, 239.000000, 99.388506, 260.000000, 106.989073, 252.500000, 106.989073, 246.250000, 105.088931, 223.750000, 105.088931, 217.500000, 106.989073" fill="rgb(178, 34, 34)" style="fill-opacity:1.00" />
<!-- End 'A' -->
<!-- Begin 'C' -->
<ellipse cx="235.000000" cy="107.916121" rx="25.000000" ry="0.927048" fill="rgb(0, 0, 128)" style="fill-opacity:1.00" />
<ellipse cx="235.000000" cy="107.916121" rx="16.666667" ry="0.618032" fill="rgb(255, 255, 255)" style="fill-opacity:1.00" />
<rect height="0.927048" width="25.000000" x="235.000000" y="107.452597" fill="rgb(255, 255, 255)" style="fill-opacity:1.00" />
<!-- End 'C' -->
<!-- Begin 'G' -->
<ellipse cx="235.000000" cy="109.421584" rx="25.000000" ry="0.578416" fill="rgb(255, 165, 0)" style="fill-opacity:1.00" />
<ellipse cx="235.000000" cy="109.421584" rx="16.666667" ry="0.385611" fill="rgb(255, 255, 255)" style="fill-opacity:1.00" />
<rect height="0.578416" width="25.000000" x="235.000000" y="109.132376" fill="rgb(255, 255, 255)" style="fill-opacity:1.00" />
<rect height="0.144604" width="25.000000" x="235.000000" y="109.566188" fill="rgb(255, 165, 0)" style="fill-opacity:1.00" />
<rect height="0.433812" width="6.250000" x="253.750000" y="109.566188" fill="rgb(255, 165, 0)" style="fill-opacity:1.00" />
<!-- End 'G' -->
<!-- Begin 'A' -->
<polygon points=" 270.000000, 102.560740, 291.000000, 97.407414, 299.000000, 97.407414, 320.000000, 102.560740, 312.500000, 102.560740, 306.250000, 101.272409, 283.750000, 101.272409, 277.500000, 102.560740" fill="rgb(178, 34, 34)" style="fill-opacity:1.00" />
<!-- End 'A' -->
<!-- Begin 'T' -->
<rect height="0.759048" width="50.000000" x="270.000000" y="102.560740" fill="rgb(0, 100, 0)" style="fill-opacity:1.00" />
<rect height="4.744048" width="10.000000" x="290.000000" y="102.560740" fill="rgb(0, 100, 0)" style="fill-opacity:1.00" />
<!-- End 'T' -->
<!-- Begin 'G' -->
<ellipse cx="295.000000" cy="107.979929" rx="25.000000" ry="0.675141" fill="rgb(255, 165, 0)" style="fill-opacity:1.00" />
<ellipse cx="295.000000" cy="107.979929" rx="16.666667" ry="0.450094" fill="rgb(255, 255, 255)" style="fill-opacity:1.00" />
<rect height="0.675141" width="25.000000" x="295.000000" y="107.642359" fill="rgb(255, 255, 255)" style="fill-opacity:1.00" />
<rect height="0.168785" width="25.000000" x="295.000000" y="108.148714" fill="rgb(255, 165, 0)" style="fill-opacity:1.00" />
<rect height="0.506355" width="6.250000" x="313.750000" y="108.148714" fill="rgb(255, 165, 0)" style="fill-opacity:1.00" />
<!-- End 'G' -->
<!-- Begin 'C' -->
<ellipse cx="295.000000" cy="109.327535" rx="25.000000" ry="0.672465" fill="rgb(0, 0, 128)" style="fill-opacity:1.00" />
<ellipse cx="295.000000" cy="109.327535" rx="16.666667" ry="0.448310" fill="rgb(255, 255, 255)" style="fill-opacity:1.00" />
<rect height="0.672465" width="25.000000" x="295.000000" y="108.991302" fill="rgb(255, 255, 255)" style="fill-opacity:1.00" />
<!-- End 'C' -->
<!-- Begin 'A' -->
<polygon points=" 330.000000, 103.579155, 351.000000, 97.635890, 359.000000, 97.635890, 380.000000, 103.579155, 372.500000, 103.579155, 366.250000, 102.093339, 343.750000, 102.093339, 337.500000, 103.579155" fill="rgb(178, 34, 34)" style="fill-opacity:1.00" />
<!-- End 'A' -->
<!-- Begin 'T' -->
<rect height="0.556704" width="50.000000" x="330.000000" y="103.579155" fill="rgb(0, 100, 0)" style="fill-opacity:1.00" />
<rect height="3.479402" width="10.000000" x="350.000000" y="103.579155" fill="rgb(0, 100, 0)" style="fill-opacity:1.00" />
<!-- End 'T' -->
<!-- Begin 'G' -->
<ellipse cx="355.000000" cy="107.843727" rx="25.000000" ry="0.785170" fill="rgb(255, 165, 0)" style="fill-opacity:1.00" />
<ellipse cx="355.000000" cy="107.843727" rx="16.666667" ry="0.523447" fill="rgb(255, 255, 255)" style="fill-opacity:1.00" />
<rect height="0.785170" width="25.000000" x="355.000000" y="107.451142" fill="rgb(255, 255, 255)" style="fill-opacity:1.00" />
<rect height="0.196293" width="25.000000" x="355.000000" y="108.040020" fill="rgb(255, 165, 0)" style="fill-opacity:1.00" />
<rect height="0.588878" width="6.250000" x="373.750000" y="108.040020" fill="rgb(255, 165, 0)" style="fill-opacity:1.00" />
<!-- End 'G' -->
<!-- Begin 'C' -->
<ellipse cx="355.000000" cy="109.314449" rx="25.000000" ry="0.685551" fill="rgb(0, 0, 128)" style="fill-opacity:1.00" />
<ellipse cx="355.000000" cy="109.314449" rx="16.666667" ry="0.457034" fill="rgb(255, 255, 255)" style="fill-opacity:1.00" />
<rect height="0.685551" width="25.000000" x="355.000000" y="108.971673" fill="rgb(255, 255, 255)" style="fill-opacity:1.00" />
<!-- End 'C' -->
<!-- Begin 'A' -->
<polygon points=" 390.000000, 101.686230, 411.000000, 91.162318, 419.000000, 91.162318, 440.000000, 101.686230, 432.500000, 101.686230, 426.250000, 99.055252, 403.750000, 99.055252, 397.500000, 101.686230" fill="rgb(178, 34, 34)" style="fill-opacity:1.00" />
<polygon points=" 415.000000, 93.267100, 407.000000, 96.476665, 422.000000, 96.476665" fill="rgb(255, 255, 255)" style="fill-opacity:1.00" />
<!-- End 'A' -->
<!-- Begin 'T' -->
<rect height="0.707833" width="50.000000" x="390.000000" y="101.686230" fill="rgb(0, 100, 0)" style="fill-opacity:1.00" />
<rect height="4.423955" width="10.000000" x="410.000000" y="101.686230" fill="rgb(0, 100, 0)" style="fill-opacity:1.00" />
<!-- End 'T' -->
<!-- Begin 'G' -->
<ellipse cx="415.000000" cy="107.371195" rx="25.000000" ry="1.261010" fill="rgb(255, 165, 0)" style="fill-opacity:1.00" />
<ellipse cx="415.000000" cy="107.371195" rx="16.666667" ry="0.840673" fill="rgb(255, 255, 255)" style="fill-opacity:1.00" />
<rect height="1.261010" width="25.000000" x="415.000000" y="106.740690" fill="rgb(255, 255, 255)" style="fill-opacity:1.00" />
<rect height="0.315252" width="25.000000" x="415.000000" y="107.686447" fill="rgb(255, 165, 0)" style="fill-opacity:1.00" />
<rect height="0.945757" width="6.250000" x="433.750000" y="107.686447" fill="rgb(255, 165, 0)" style="fill-opacity:1.00" />
<!-- End 'G' -->
<!-- Begin 'C' -->
<ellipse cx="415.000000" cy="109.316102" rx="25.000000" ry="0.683898" fill="rgb(0, 0, 128)" style="fill-opacity:1.00" />
<ellipse cx="415.000000" cy="109.316102" rx="16.666667" ry="0.455932" fill="rgb(255, 255, 255)" style="fill-opacity:1.00" />
<rect height="0.683898" width="25.000000" x="415.000000" y="108.974153" fill="rgb(255, 255, 255)" style="fill-opacity:1.00" />
<!-- End 'C' -->
<!-- Begin 'A' -->
<polygon points=" 450.000000, 102.094197, 471.000000, 93.041640, 479.000000, 93.041640, 500.000000, 102.094197, 492.500000, 102.094197, 486.250000, 99.831058, 463.750000, 99.831058, 457.500000, 102.094197" fill="rgb(178, 34, 34)" style="fill-opacity:1.00" />
<polygon points=" 475.000000, 94.852151, 467.000000, 97.473174, 482.000000, 97.473174" fill="rgb(255, 255, 255)" style="fill-opacity:1.00" />
<!-- End 'A' -->
<!-- Begin 'T' -->
<rect height="0.708101" width="50.000000" x="450.000000" y="102.094197" fill="rgb(0, 100, 0)" style="fill-opacity:1.00" />
<rect height="4.425633" width="10.000000" x="470.000000" y="102.094197" fill="rgb(0, 100, 0)" style="fill-opacity:1.00" />
<!-- End 'T' -->
<!-- Begin 'G' -->
<ellipse cx="475.000000" cy="107.501710" rx="25.000000" ry="0.981880" fill="rgb(255, 165, 0)" style="fill-opacity:1.00" />
<ellipse cx="475.000000" cy="107.501710" rx="16.666667" ry="0.654586" fill="rgb(255, 255, 255)" style="fill-opacity:1.00" />
<rect height="0.981880" width="25.000000" x="475.000000" y="107.010770" fill="rgb(255, 255, 255)" style="fill-opacity:1.00" />
<rect height="0.245470" width="25.000000" x="475.000000" y="107.747179" fill="rgb(255, 165, 0)" style="fill-opacity:1.00" />
<rect height="0.736410" width="6.250000" x="493.750000" y="107.747179" fill="rgb(255, 165, 0)" style="fill-opacity:1.00" />
<!-- End 'G' -->
<!-- Begin 'C' -->
<ellipse cx="475.000000" cy="109.241795" rx="25.000000" ry="0.758205" fill="rgb(0, 0, 128)" style="fill-opacity:1.00" />
<ellipse cx="475.000000" cy="109.241795" rx="16.666667" ry="0.505470" fill="rgb(255, 255, 255)" style="fill-opacity:1.00" />
<rect height="0.758205" width="25.000000" x="475.000000" y="108.862692" fill="rgb(255, 255, 255)" style="fill-opacity:1.00" />
<!-- End 'C' -->
<!-- Begin 'A' -->
<polygon points=" 510.000000, 94.324389, 531.000000, 79.706772, 539.000000, 79.706772, 560.000000, 94.324389, 552.500000, 94.324389, 546.250000, 90.669985, 523.750000, 90.669985, 517.500000, 94.324389" fill="rgb(178, 34, 34)" style="fill-opacity:1.00" />
<polygon points=" 535.000000, 82.630295, 527.000000, 87.477342, 542.000000, 87.477342" fill="rgb(255, 255, 255)" style="fill-opacity:1.00" />
<!-- End 'A' -->
<!-- Begin 'T' -->
<rect height="2.098754" width="50.000000" x="510.000000" y="94.324389" fill="rgb(0, 100, 0)" style="fill-opacity:1.00" />
<rect height="13.117211" width="10.000000" x="530.000000" y="94.324389" fill="rgb(0, 100, 0)" style="fill-opacity:1.00" />
<!-- End 'T' -->
<!-- Begin 'G' -->
<ellipse cx="535.000000" cy="108.450432" rx="25.000000" ry="1.008832" fill="rgb(255, 165, 0)" style="fill-opacity:1.00" />
<ellipse cx="535.000000" cy="108.450432" rx="16.666667" ry="0.672554" fill="rgb(255, 255, 255)" style="fill-opacity:1.00" />
<rect height="1.008832" width="25.000000" x="535.000000" y="107.946016" fill="rgb(255, 255, 255)" style="fill-opacity:1.00" />
<rect height="0.252208" width="25.000000" x="535.000000" y="108.702639" fill="rgb(255, 165, 0)" style="fill-opacity:1.00" />
<rect height="0.756624" width="6.250000" x="553.750000" y="108.702639" fill="rgb(255, 165, 0)" style="fill-opacity:1.00" />
<!-- End 'G' -->
<!-- Begin 'C' -->
<ellipse cx="535.000000" cy="109.729632" rx="25.000000" ry="0.270368" fill="rgb(0, 0, 128)" style="fill-opacity:1.00" />
<ellipse cx="535.000000" cy="109.729632" rx="16.666667" ry="0.180246" fill="rgb(255, 255, 255)" style="fill-opacity:1.00" />
<rect height="0.270368" width="25.000000" x="535.000000" y="109.594447" fill="rgb(255, 255, 255)" style="fill-opacity:1.00" />
<!-- End 'C' -->
<!-- Begin 'T' -->
<rect height="11.538637" width="50.000000" x="570.000000" y="32.354107" fill="rgb(0, 100, 0)" style="fill-opacity:1.00" />
<rect height="72.116481" width="10.000000" x="590.000000" y="32.354107" fill="rgb(0, 100, 0)" style="fill-opacity:1.00" />
<!-- End 'T' -->
<!-- Begin 'A' -->
<polygon points=" 570.000000, 108.494171, 591.000000, 104.470588, 599.000000, 104.470588, 620.000000, 108.494171, 612.500000, 108.494171, 606.250000, 107.488275, 583.750000, 107.488275, 577.500000, 108.494171" fill="rgb(178, 34, 34)" style="fill-opacity:1.00" />
<!-- End 'A' -->
<!-- Begin 'C' -->
<ellipse cx="595.000000" cy="109.039177" rx="25.000000" ry="0.545006" fill="rgb(0, 0, 128)" style="fill-opacity:1.00" />
<ellipse cx="595.000000" cy="109.039177" rx="16.666667" ry="0.363337" fill="rgb(255, 255, 255)" style="fill-opacity:1.00" />
<rect height="0.545006" width="25.000000" x="595.000000" y="108.766674" fill="rgb(255, 255, 255)" style="fill-opacity:1.00" />
<!-- End 'C' -->
<!-- Begin 'G' -->
<ellipse cx="595.000000" cy="109.792091" rx="25.000000" ry="0.207909" fill="rgb(255, 165, 0)" style="fill-opacity:1.00" />
<ellipse cx="595.000000" cy="109.792091" rx="16.666667" ry="0.138606" fill="rgb(255, 255, 255)" style="fill-opacity:1.00" />
<rect height="0.207909" width="25.000000" x="595.000000" y="109.688137" fill="rgb(255, 255, 255)" style="fill-opacity:1.00" />
<rect height="0.051977" width="25.000000" x="595.000000" y="109.844069" fill="rgb(255, 165, 0)" style="fill-opacity:1.00" />
<rect height="0.155931" width="6.250000" x="613.750000" y="109.844069" fill="rgb(255, 165, 0)" style="fill-opacity:1.00" />
<!-- End 'G' -->
<!-- Begin 'T' -->
<rect height="12.629958" width="50.000000" x="630.000000" y="27.082657" fill="rgb(0, 100, 0)" style="fill-opacity:1.00" />
<rect height="78.937238" width="10.000000" x="650.000000" y="27.082657" fill="rgb(0, 100, 0)" style="fill-opacity:1.00" />
<!-- End 'T' -->
<!-- Begin 'A' -->
<polygon points=" 630.000000, 108.224904, 651.000000, 106.019895, 659.000000, 106.019895, 680.000000, 108.224904, 672.500000, 108.224904, 666.250000, 107.673652, 643.750000, 107.673652, 637.500000, 108.224904" fill="rgb(178, 34, 34)" style="fill-opacity:1.00" />
<!-- End 'A' -->
<!-- Begin 'C' -->
<ellipse cx="655.000000" cy="108.918549" rx="25.000000" ry="0.693645" fill="rgb(0, 0, 128)" style="fill-opacity:1.00" />
<ellipse cx="655.000000" cy="108.918549" rx="16.666667" ry="0.462430" fill="rgb(255, 255, 255)" style="fill-opacity:1.00" />
<rect height="0.693645" width="25.000000" x="655.000000" y="108.571727" fill="rgb(255, 255, 255)" style="fill-opacity:1.00" />
<!-- End 'C' -->
<!-- Begin 'G' -->
<ellipse cx="655.000000" cy="109.806097" rx="25.000000" ry="0.193903" fill="rgb(255, 165, 0)" style="fill-opacity:1.00" />
<ellipse cx="655.000000" cy="109.806097" rx="16.666667" ry="0.129269" fill="rgb(255, 255, 255)" style="fill-opacity:1.00" />
<rect height="0.193903" width="25.000000" x="655.000000" y="109.709145" fill="rgb(255, 255, 255)" style="fill-opacity:1.00" />
<rect height="0.048476" width="25.000000" x="655.000000" y="109.854573" fill="rgb(255, 165, 0)" style="fill-opacity:1.00" />
<rect height="0.145427" width="6.250000" x="673.750000" y="109.854573" fill="rgb(255, 165, 0)" style="fill-opacity:1.00" />
<!-- End 'G' -->
<!-- Begin 'T' -->
<rect height="6.036766" width="50.000000" x="690.000000" y="58.642844" fill="rgb(0, 100, 0)" style="fill-opacity:1.00" />
<rect height="37.729789" width="10.000000" x="710.000000" y="58.642844" fill="rgb(0, 100, 0)" style="fill-opacity:1.00" />
<!-- End 'T' -->
<!-- Begin 'C' -->
<ellipse cx="715.000000" cy="102.568377" rx="25.000000" ry="6.195744" fill="rgb(0, 0, 128)" style="fill-opacity:1.00" />
<ellipse cx="715.000000" cy="102.568377" rx="16.666667" ry="4.130496" fill="rgb(255, 255, 255)" style="fill-opacity:1.00" />
<rect height="6.195744" width="25.000000" x="715.000000" y="99.470505" fill="rgb(255, 255, 255)" style="fill-opacity:1.00" />
<!-- End 'C' -->
<!-- Begin 'A' -->
<polygon points=" 690.000000, 109.606306, 711.000000, 108.764120, 719.000000, 108.764120, 740.000000, 109.606306, 732.500000, 109.606306, 726.250000, 109.395759, 703.750000, 109.395759, 697.500000, 109.606306" fill="rgb(178, 34, 34)" style="fill-opacity:1.00" />
<!-- End 'A' -->
<!-- Begin 'G' -->
<ellipse cx="715.000000" cy="109.803153" rx="25.000000" ry="0.196847" fill="rgb(255, 165, 0)" style="fill-opacity:1.00" />
<ellipse cx="715.000000" cy="109.803153" rx="16.666667" ry="0.131231" fill="rgb(255, 255, 255)" style="fill-opacity:1.00" />
<rect height="0.196847" width="25.000000" x="715.000000" y="109.704729" fill="rgb(255, 255, 255)" style="fill-opacity:1.00" />
<rect height="0.049212" width="25.000000" x="715.000000" y="109.852365" fill="rgb(255, 165, 0)" style="fill-opacity:1.00" />
<rect height="0.147635" width="6.250000" x="733.750000" y="109.852365" fill="rgb(255, 165, 0)" style="fill-opacity:1.00" />
<!-- End 'G' -->
<!-- Begin 'A' -->
<polygon points=" 750.000000, 96.495917, 771.000000, 59.903663, 779.000000, 59.903663, 800.000000, 96.495917, 792.500000, 96.495917, 786.250000, 87.347853, 763.750000, 87.347853, 757.500000, 96.495917" fill="rgb(178, 34, 34)" style="fill-opacity:1.00" />
<polygon points=" 775.000000, 67.222114, 767.000000, 80.859015, 782.000000, 80.859015" fill="rgb(255, 255, 255)" style="fill-opacity:1.00" />
<!-- End 'A' -->
<!-- Begin 'G' -->
<ellipse cx="775.000000" cy="102.520234" rx="25.000000" ry="6.024317" fill="rgb(255, 165, 0)" style="fill-opacity:1.00" />
<ellipse cx="775.000000" cy="102.520234" rx="16.666667" ry="4.016211" fill="rgb(255, 255, 255)" style="fill-opacity:1.00" />
<rect height="6.024317" width="25.000000" x="775.000000" y="99.508075" fill="rgb(255, 255, 255)" style="fill-opacity:1.00" />
<rect height="1.506079" width="25.000000" x="775.000000" y="104.026313" fill="rgb(255, 165, 0)" style="fill-opacity:1.00" />
<rect height="4.518238" width="6.250000" x="793.750000" y="104.026313" fill="rgb(255, 165, 0)" style="fill-opacity:1.00" />
<!-- End 'G' -->
<!-- Begin 'T' -->
<rect height="0.170838" width="50.000000" x="750.000000" y="108.544551" fill="rgb(0, 100, 0)" style="fill-opacity:1.00" />
<rect height="1.067736" width="10.000000" x="770.000000" y="108.544551" fill="rgb(0, 100, 0)" style="fill-opacity:1.00" />
<!-- End 'T' -->
<!-- Begin 'C' -->
<ellipse cx="775.000000" cy="109.806143" rx="25.000000" ry="0.193857" fill="rgb(0, 0, 128)" style="fill-opacity:1.00" />
<ellipse cx="775.000000" cy="109.806143" rx="16.666667" ry="0.129238" fill="rgb(255, 255, 255)" style="fill-opacity:1.00" />
<rect height="0.193857" width="25.000000" x="775.000000" y="109.709215" fill="rgb(255, 255, 255)" style="fill-opacity:1.00" />
<!-- End 'C' -->
<!-- Begin 'A' -->
<polygon points=" 810.000000, 105.799524, 831.000000, 28.713537, 839.000000, 28.713537, 860.000000, 105.799524, 852.500000, 105.799524, 846.250000, 86.528027, 823.750000, 86.528027, 817.500000, 105.799524" fill="rgb(178, 34, 34)" style="fill-opacity:1.00" />
<polygon points=" 835.000000, 44.130735, 827.000000, 73.965129, 842.000000, 73.965129" fill="rgb(255, 255, 255)" style="fill-opacity:1.00" />
<!-- End 'A' -->
<!-- Begin 'T' -->
<rect height="0.258783" width="50.000000" x="810.000000" y="105.799524" fill="rgb(0, 100, 0)" style="fill-opacity:1.00" />
<rect height="1.617392" width="10.000000" x="830.000000" y="105.799524" fill="rgb(0, 100, 0)" style="fill-opacity:1.00" />
<!-- End 'T' -->
<!-- Begin 'C' -->
<ellipse cx="835.000000" cy="108.172315" rx="25.000000" ry="0.755399" fill="rgb(0, 0, 128)" style="fill-opacity:1.00" />
<ellipse cx="835.000000" cy="108.172315" rx="16.666667" ry="0.503599" fill="rgb(255, 255, 255)" style="fill-opacity:1.00" />
<rect height="0.755399" width="25.000000" x="835.000000" y="107.794615" fill="rgb(255, 255, 255)" style="fill-opacity:1.00" />
<!-- End 'C' -->
<!-- Begin 'G' -->
<ellipse cx="835.000000" cy="109.463857" rx="25.000000" ry="0.536143" fill="rgb(255, 165, 0)" style="fill-opacity:1.00" />
<ellipse cx="835.000000" cy="109.463857" rx="16.666667" ry="0.357429" fill="rgb(255, 255, 255)" style="fill-opacity:1.00" />
<rect height="0.536143" width="25.000000" x="835.000000" y="109.195785" fill="rgb(255, 255, 255)" style="fill-opacity:1.00" />
<rect height="0.134036" width="25.000000" x="835.000000" y="109.597892" fill="rgb(255, 165, 0)" style="fill-opacity:1.00" />
<rect height="0.402108" width="6.250000" x="853.750000" y="109.597892" fill="rgb(255, 165, 0)" style="fill-opacity:1.00" />
<!-- End 'G' -->
<!-- Begin 'A' -->
<polygon points=" 870.000000, 105.611434, 891.000000, 28.287161, 899.000000, 28.287161, 920.000000, 105.611434, 912.500000, 105.611434, 906.250000, 86.280366, 883.750000, 86.280366, 877.500000, 105.611434" fill="rgb(178, 34, 34)" style="fill-opacity:1.00" />
<polygon points=" 895.000000, 43.752016, 887.000000, 73.681725, 902.000000, 73.681725" fill="rgb(255, 255, 255)" style="fill-opacity:1.00" />
<!-- End 'A' -->
<!-- Begin 'T' -->
<rect height="0.487633" width="50.000000" x="870.000000" y="105.611434" fill="rgb(0, 100, 0)" style="fill-opacity:1.00" />
<rect height="3.047705" width="10.000000" x="890.000000" y="105.611434" fill="rgb(0, 100, 0)" style="fill-opacity:1.00" />
<!-- End 'T' -->
<!-- Begin 'G' -->
<ellipse cx="895.000000" cy="109.047290" rx="25.000000" ry="0.388151" fill="rgb(255, 165, 0)" style="fill-opacity:1.00" />
<ellipse cx="895.000000" cy="109.047290" rx="16.666667" ry="0.258767" fill="rgb(255, 255, 255)" style="fill-opacity:1.00" />
<rect height="0.388151" width="25.000000" x="895.000000" y="108.853214" fill="rgb(255, 255, 255)" style="fill-opacity:1.00" />
<rect height="0.097038" width="25.000000" x="895.000000" y="109.144327" fill="rgb(255, 165, 0)" style="fill-opacity:1.00" />
<rect height="0.291113" width="6.250000" x="913.750000" y="109.144327" fill="rgb(255, 165, 0)" style="fill-opacity:1.00" />
<!-- End 'G' -->
<!-- Begin 'C' -->
<ellipse cx="895.000000" cy="109.717720" rx="25.000000" ry="0.282280" fill="rgb(0, 0, 128)" style="fill-opacity:1.00" />
<ellipse cx="895.000000" cy="109.717720" rx="16.666667" ry="0.188187" fill="rgb(255, 255, 255)" style="fill-opacity:1.00" />
<rect height="0.282280" width="25.000000" x="895.000000" y="109.576580" fill="rgb(255, 255, 255)" style="fill-opacity:1.00" />
<!-- End 'C' -->
<!-- Begin 'A' -->
<polygon points=" 930.000000, 95.077743, 951.000000, 82.843507, 959.000000, 82.843507, 980.000000, 95.077743, 972.500000, 95.077743, 966.250000, 92.019184, 943.750000, 92.019184, 937.500000, 95.077743" fill="rgb(178, 34, 34)" style="fill-opacity:1.00" />
<polygon points=" 955.000000, 85.290354, 947.000000, 89.184049, 962.000000, 89.184049" fill="rgb(255, 255, 255)" style="fill-opacity:1.00" />
<!-- End 'A' -->
<!-- Begin 'T' -->
<rect height="1.927872" width="50.000000" x="930.000000" y="95.077743" fill="rgb(0, 100, 0)" style="fill-opacity:1.00" />
<rect height="12.049203" width="10.000000" x="950.000000" y="95.077743" fill="rgb(0, 100, 0)" style="fill-opacity:1.00" />
<!-- End 'T' -->
<!-- Begin 'C' -->
<ellipse cx="955.000000" cy="108.281405" rx="25.000000" ry="1.154459" fill="rgb(0, 0, 128)" style="fill-opacity:1.00" />
<ellipse cx="955.000000" cy="108.281405" rx="16.666667" ry="0.769639" fill="rgb(255, 255, 255)" style="fill-opacity:1.00" />
<rect height="1.154459" width="25.000000" x="955.000000" y="107.704175" fill="rgb(255, 255, 255)" style="fill-opacity:1.00" />
<!-- End 'C' -->
<!-- Begin 'G' -->
<ellipse cx="955.000000" cy="109.717932" rx="25.000000" ry="0.282068" fill="rgb(255, 165, 0)" style="fill-opacity:1.00" />
<ellipse cx="955.000000" cy="109.717932" rx="16.666667" ry="0.188045" fill="rgb(255, 255, 255)" style="fill-opacity:1.00" />
<rect height="0.282068" width="25.000000" x="955.000000" y="109.576898" fill="rgb(255, 255, 255)" style="fill-opacity:1.00" />
<rect height="0.070517" width="25.000000" x="955.000000" y="109.788449" fill="rgb(255, 165, 0)" style="fill-opacity:1.00" />
<rect height="0.211551" width="6.250000" x="973.750000" y="109.788449" fill="rgb(255, 165, 0)" style="fill-opacity:1.00" />
<!-- End 'G' -->
<text x="520.000000" y="165">
IC = 11.93
</text>

</svg>
