<?xml version="1.0" encoding="UTF-8" standalone="yes"?>
                 <!DOCTYPE svg PUBLIC "-//W3C//DTD SVG 1.0//EN" "http://www.w3.org/TR/2001/REC-SVG-20010904/DTD/svg10.dtd">
                 <svg height="500" width="780" xmlns="http://www.w3.org/2000/svg" xmlns:xlink="http://www.w3.org/1999/xlink">
                 <line x1="85" y1="450" x2="747" y2="450" style="stroke:rgb(99,99,99);stroke-width:2" />
<rect height="7.000000" width="2.000000" x="85.000000" y="450.000000" fill="rgb(0, 0, 0)" style="fill-opacity:1.00" />
<text x="107.000000" y="470">
1
</text>
<rect height="7.000000" width="2.000000" x="145.000000" y="450.000000" fill="rgb(0, 0, 0)" style="fill-opacity:1.00" />
<text x="167.000000" y="470">
2
</text>
<rect height="7.000000" width="2.000000" x="205.000000" y="450.000000" fill="rgb(0, 0, 0)" style="fill-opacity:1.00" />
<text x="227.000000" y="470">
3
</text>
<rect height="7.000000" width="2.000000" x="265.000000" y="450.000000" fill="rgb(0, 0, 0)" style="fill-opacity:1.00" />
<text x="287.000000" y="470">
4
</text>
<rect height="7.000000" width="2.000000" x="325.000000" y="450.000000" fill="rgb(0, 0, 0)" style="fill-opacity:1.00" />
<text x="347.000000" y="470">
5
</text>
<rect height="7.000000" width="2.000000" x="385.000000" y="450.000000" fill="rgb(0, 0, 0)" style="fill-opacity:1.00" />
<text x="407.000000" y="470">
6
</text>
<rect height="7.000000" width="2.000000" x="445.000000" y="450.000000" fill="rgb(0, 0, 0)" style="fill-opacity:1.00" />
<text x="467.000000" y="470">
7
</text>
<rect height="7.000000" width="2.000000" x="505.000000" y="450.000000" fill="rgb(0, 0, 0)" style="fill-opacity:1.00" />
<text x="527.000000" y="470">
8
</text>
<rect height="7.000000" width="2.000000" x="565.000000" y="450.000000" fill="rgb(0, 0, 0)" style="fill-opacity:1.00" />
<text x="587.000000" y="470">
9
</text>
<rect height="7.000000" width="2.000000" x="625.000000" y="450.000000" fill="rgb(0, 0, 0)" style="fill-opacity:1.00" />
<text x="647.000000" y="470">
10
</text>
<rect height="7.000000" width="2.000000" x="685.000000" y="450.000000" fill="rgb(0, 0, 0)" style="fill-opacity:1.00" />
<text x="707.000000" y="470">
11
</text>
<rect height="7.000000" width="2.000000" x="745.000000" y="450.000000" fill="rgb(0, 0, 0)" style="fill-opacity:1.00" />
<!-- Begin 'A' -->
<polygon points=" 10.000000, 110.000000, 35.200000, 10.000000, 44.800000, 10.000000, 70.000000, 110.000000, 61.000000, 110.000000, 53.500000, 85.000000, 26.500000, 85.000000, 19.000000, 110.000000" fill="rgb(178, 34, 34)" style="fill-opacity:1.00" />
<polygon points=" 40.000000, 30.000000, 30.400000, 69.000000, 48.400000, 69.000000" fill="rgb(255, 255, 255)" style="fill-opacity:1.00" />
<!-- End 'A' -->
<!-- Begin 'C' -->
<ellipse cx="40.000000" cy="170.000000" rx="30.000000" ry="50.000000" fill="rgb(0, 0, 128)" style="fill-opacity:1.00" />
<ellipse cx="40.000000" cy="170.000000" rx="20.000000" ry="33.333333" fill="rgb(255, 255, 255)" style="fill-opacity:1.00" />
<rect height="50.000000" width="30.000000" x="40.000000" y="145.000000" fill="rgb(255, 255, 255)" style="fill-opacity:1.00" />
<!-- End 'C' -->
<!-- Begin 'G' -->
<ellipse cx="40.000000" cy="280.000000" rx="30.000000" ry="50.000000" fill="rgb(255, 165, 0)" style="fill-opacity:1.00" />
<ellipse cx="40.000000" cy="280.000000" rx="20.000000" ry="33.333333" fill="rgb(255, 255, 255)" style="fill-opacity:1.00" />
<rect height="50.000000" width="30.000000" x="40.000000" y="255.000000" fill="rgb(255, 255, 255)" style="fill-opacity:1.00" />
<rect height="12.500000" width="30.000000" x="40.000000" y="292.500000" fill="rgb(255, 165, 0)" style="fill-opacity:1.00" />
<rect height="37.500000" width="7.500000" x="62.500000" y="292.500000" fill="rgb(255, 165, 0)" style="fill-opacity:1.00" />
<!-- End 'G' -->
<!-- Begin 'T' -->
<rect height="16.000000" width="60.000000" x="10.000000" y="340.000000" fill="rgb(0, 100, 0)" style="fill-opacity:1.00" />
<rect height="100.000000" width="12.000000" x="34.000000" y="340.000000" fill="rgb(0, 100, 0)" style="fill-opacity:1.00" />
<!-- End 'T' -->
<!-- Begin 'C' -->
<ellipse cx="115.000000" cy="28.951217" rx="25.000000" ry="18.951217" fill="rgb(0, 0, 128)" style="fill-opacity:0.32" />
<ellipse cx="115.000000" cy="28.951217" rx="16.666667" ry="12.634144" fill="rgb(255, 255, 255)" style="fill-opacity:1.00" />
<rect height="18.951217" width="25.000000" x="115.000000" y="19.475608" fill="rgb(255, 255, 255)" style="fill-opacity:1.00" />
<!-- End 'C' -->
<!-- Begin 'T' -->
<rect height="4.793819" width="50.000000" x="90.000000" y="47.902433" fill="rgb(0, 100, 0)" style="fill-opacity:0.32" />
<rect height="29.961369" width="10.000000" x="110.000000" y="47.902433" fill="rgb(0, 100, 0)" style="fill-opacity:0.32" />
<!-- End 'T' -->
<!-- Begin 'A' -->
<polygon points=" 90.000000, 98.624151, 111.000000, 77.863802, 119.000000, 77.863802, 140.000000, 98.624151, 132.500000, 98.624151, 126.250000, 93.434064, 103.750000, 93.434064, 97.500000, 98.624151" fill="rgb(178, 34, 34)" style="fill-opacity:0.32" />
<polygon points=" 115.000000, 82.015872, 107.000000, 89.320011, 122.000000, 89.320011" fill="rgb(255, 255, 255)" style="fill-opacity:1.00" />
<!-- End 'A' -->
<!-- Begin 'G' -->
<ellipse cx="115.000000" cy="104.312075" rx="25.000000" ry="5.687925" fill="rgb(255, 165, 0)" style="fill-opacity:0.32" />
<ellipse cx="115.000000" cy="104.312075" rx="16.666667" ry="3.791950" fill="rgb(255, 255, 255)" style="fill-opacity:1.00" />
<rect height="5.687925" width="25.000000" x="115.000000" y="101.468113" fill="rgb(255, 255, 255)" style="fill-opacity:1.00" />
<rect height="1.421981" width="25.000000" x="115.000000" y="105.734057" fill="rgb(255, 165, 0)" style="fill-opacity:0.32" />
<rect height="4.265943" width="6.250000" x="133.750000" y="105.734057" fill="rgb(255, 165, 0)" style="fill-opacity:0.32" />
<!-- End 'G' -->
<!-- Begin 'T' -->
<rect height="7.091084" width="50.000000" x="90.000000" y="120.000000" fill="rgb(0, 100, 0)" style="fill-opacity:0.18" />
<rect height="44.319273" width="10.000000" x="110.000000" y="120.000000" fill="rgb(0, 100, 0)" style="fill-opacity:0.18" />
<!-- End 'T' -->
<!-- Begin 'A' -->
<polygon points=" 90.000000, 192.481300, 111.000000, 164.319273, 119.000000, 164.319273, 140.000000, 192.481300, 132.500000, 192.481300, 126.250000, 185.440793, 103.750000, 185.440793, 97.500000, 192.481300" fill="rgb(178, 34, 34)" style="fill-opacity:0.18" />
<polygon points=" 115.000000, 169.951678, 107.000000, 180.216489, 122.000000, 180.216489" fill="rgb(255, 255, 255)" style="fill-opacity:1.00" />
<!-- End 'A' -->
<!-- Begin 'C' -->
<ellipse cx="115.000000" cy="203.863367" rx="25.000000" ry="11.382067" fill="rgb(0, 0, 128)" style="fill-opacity:0.18" />
<ellipse cx="115.000000" cy="203.863367" rx="16.666667" ry="7.588045" fill="rgb(255, 255, 255)" style="fill-opacity:1.00" />
<rect height="11.382067" width="25.000000" x="115.000000" y="198.172334" fill="rgb(255, 255, 255)" style="fill-opacity:1.00" />
<!-- End 'C' -->
<!-- Begin 'G' -->
<ellipse cx="115.000000" cy="217.622717" rx="25.000000" ry="2.377283" fill="rgb(255, 165, 0)" style="fill-opacity:0.18" />
<ellipse cx="115.000000" cy="217.622717" rx="16.666667" ry="1.584855" fill="rgb(255, 255, 255)" style="fill-opacity:1.00" />
<rect height="2.377283" width="25.000000" x="115.000000" y="216.434076" fill="rgb(255, 255, 255)" style="fill-opacity:1.00" />
<rect height="0.594321" width="25.000000" x="115.000000" y="218.217038" fill="rgb(255, 165, 0)" style="fill-opacity:0.18" />
<rect height="1.782962" width="6.250000" x="133.750000" y="218.217038" fill="rgb(255, 165, 0)" style="fill-opacity:0.18" />
<!-- End 'G' -->
<!-- Begin 'T' -->
<rect height="6.375890" width="50.000000" x="90.000000" y="230.000000" fill="rgb(0, 100, 0)" style="fill-opacity:0.19" />
<rect height="39.849311" width="10.000000" x="110.000000" y="230.000000" fill="rgb(0, 100, 0)" style="fill-opacity:0.19" />
<!-- End 'T' -->
<!-- Begin 'A' -->
<polygon points=" 90.000000, 295.243227, 111.000000, 269.849311, 119.000000, 269.849311, 140.000000, 295.243227, 132.500000, 295.243227, 126.250000, 288.894748, 103.750000, 288.894748, 97.500000, 295.243227" fill="rgb(178, 34, 34)" style="fill-opacity:0.19" />
<polygon points=" 115.000000, 274.928094, 107.000000, 284.085660, 122.000000, 284.085660" fill="rgb(255, 255, 255)" style="fill-opacity:1.00" />
<!-- End 'A' -->
<!-- Begin 'C' -->
<ellipse cx="115.000000" cy="307.938145" rx="25.000000" ry="12.694918" fill="rgb(0, 0, 128)" style="fill-opacity:0.19" />
<ellipse cx="115.000000" cy="307.938145" rx="16.666667" ry="8.463279" fill="rgb(255, 255, 255)" style="fill-opacity:1.00" />
<rect height="12.694918" width="25.000000" x="115.000000" y="301.590686" fill="rgb(255, 255, 255)" style="fill-opacity:1.00" />
<!-- End 'C' -->
<!-- Begin 'G' -->
<ellipse cx="115.000000" cy="325.316532" rx="25.000000" ry="4.683468" fill="rgb(255, 165, 0)" style="fill-opacity:0.19" />
<ellipse cx="115.000000" cy="325.316532" rx="16.666667" ry="3.122312" fill="rgb(255, 255, 255)" style="fill-opacity:1.00" />
<rect height="4.683468" width="25.000000" x="115.000000" y="322.974798" fill="rgb(255, 255, 255)" style="fill-opacity:1.00" />
<rect height="1.170867" width="25.000000" x="115.000000" y="326.487399" fill="rgb(255, 165, 0)" style="fill-opacity:0.19" />
<rect height="3.512601" width="6.250000" x="133.750000" y="326.487399" fill="rgb(255, 165, 0)" style="fill-opacity:0.19" />
<!-- End 'G' -->
<!-- Begin 'C' -->
<ellipse cx="115.000000" cy="358.474060" rx="25.000000" ry="18.474060" fill="rgb(0, 0, 128)" style="fill-opacity:0.31" />
<ellipse cx="115.000000" cy="358.474060" rx="16.666667" ry="12.316040" fill="rgb(255, 255, 255)" style="fill-opacity:1.00" />
<rect height="18.474060" width="25.000000" x="115.000000" y="349.237030" fill="rgb(255, 255, 255)" style="fill-opacity:1.00" />
<!-- End 'C' -->
<!-- Begin 'T' -->
<rect height="5.026084" width="50.000000" x="90.000000" y="376.948119" fill="rgb(0, 100, 0)" style="fill-opacity:0.31" />
<rect height="31.413027" width="10.000000" x="110.000000" y="376.948119" fill="rgb(0, 100, 0)" style="fill-opacity:0.31" />
<!-- End 'T' -->
<!-- Begin 'A' -->
<polygon points=" 90.000000, 429.107657, 111.000000, 408.361146, 119.000000, 408.361146, 140.000000, 429.107657, 132.500000, 429.107657, 126.250000, 423.921029, 103.750000, 423.921029, 97.500000, 429.107657" fill="rgb(178, 34, 34)" style="fill-opacity:0.31" />
<polygon points=" 115.000000, 412.510448, 107.000000, 419.809052, 122.000000, 419.809052" fill="rgb(255, 255, 255)" style="fill-opacity:1.00" />
<!-- End 'A' -->
<!-- Begin 'G' -->
<ellipse cx="115.000000" cy="434.553828" rx="25.000000" ry="5.446172" fill="rgb(255, 165, 0)" style="fill-opacity:0.31" />
<ellipse cx="115.000000" cy="434.553828" rx="16.666667" ry="3.630781" fill="rgb(255, 255, 255)" style="fill-opacity:1.00" />
<rect height="5.446172" width="25.000000" x="115.000000" y="431.830743" fill="rgb(255, 255, 255)" style="fill-opacity:1.00" />
<rect height="1.361543" width="25.000000" x="115.000000" y="435.915371" fill="rgb(255, 165, 0)" style="fill-opacity:0.31" />
<rect height="4.084629" width="6.250000" x="133.750000" y="435.915371" fill="rgb(255, 165, 0)" style="fill-opacity:0.31" />
<!-- End 'G' -->
<!-- Begin 'A' -->
<polygon points=" 150.000000, 42.859734, 171.000000, 10.000000, 179.000000, 10.000000, 200.000000, 42.859734, 192.500000, 42.859734, 186.250000, 34.644800, 163.750000, 34.644800, 157.500000, 42.859734" fill="rgb(178, 34, 34)" style="fill-opacity:0.23" />
<polygon points=" 175.000000, 16.571947, 167.000000, 28.715840, 182.000000, 28.715840" fill="rgb(255, 255, 255)" style="fill-opacity:1.00" />
<!-- End 'A' -->
<!-- Begin 'T' -->
<rect height="4.983098" width="50.000000" x="150.000000" y="42.859734" fill="rgb(0, 100, 0)" style="fill-opacity:0.23" />
<rect height="31.144365" width="10.000000" x="170.000000" y="42.859734" fill="rgb(0, 100, 0)" style="fill-opacity:0.23" />
<!-- End 'T' -->
<!-- Begin 'C' -->
<ellipse cx="175.000000" cy="83.920737" rx="25.000000" ry="9.916639" fill="rgb(0, 0, 128)" style="fill-opacity:0.23" />
<ellipse cx="175.000000" cy="83.920737" rx="16.666667" ry="6.611093" fill="rgb(255, 255, 255)" style="fill-opacity:1.00" />
<rect height="9.916639" width="25.000000" x="175.000000" y="78.962418" fill="rgb(255, 255, 255)" style="fill-opacity:1.00" />
<!-- End 'C' -->
<!-- Begin 'G' -->
<ellipse cx="175.000000" cy="101.918688" rx="25.000000" ry="8.081312" fill="rgb(255, 165, 0)" style="fill-opacity:0.23" />
<ellipse cx="175.000000" cy="101.918688" rx="16.666667" ry="5.387541" fill="rgb(255, 255, 255)" style="fill-opacity:1.00" />
<rect height="8.081312" width="25.000000" x="175.000000" y="97.878032" fill="rgb(255, 255, 255)" style="fill-opacity:1.00" />
<rect height="2.020328" width="25.000000" x="175.000000" y="103.939016" fill="rgb(255, 165, 0)" style="fill-opacity:0.23" />
<rect height="6.060984" width="6.250000" x="193.750000" y="103.939016" fill="rgb(255, 165, 0)" style="fill-opacity:0.23" />
<!-- End 'G' -->
<!-- Begin 'A' -->
<polygon points=" 150.000000, 164.881845, 171.000000, 120.000000, 179.000000, 120.000000, 200.000000, 164.881845, 192.500000, 164.881845, 186.250000, 153.661384, 163.750000, 153.661384, 157.500000, 164.881845" fill="rgb(178, 34, 34)" style="fill-opacity:0.32" />
<polygon points=" 175.000000, 128.976369, 167.000000, 145.929107, 182.000000, 145.929107" fill="rgb(255, 255, 255)" style="fill-opacity:1.00" />
<!-- End 'A' -->
<!-- Begin 'T' -->
<rect height="6.015179" width="50.000000" x="150.000000" y="164.881845" fill="rgb(0, 100, 0)" style="fill-opacity:0.32" />
<rect height="37.594867" width="10.000000" x="170.000000" y="164.881845" fill="rgb(0, 100, 0)" style="fill-opacity:0.32" />
<!-- End 'T' -->
<!-- Begin 'C' -->
<ellipse cx="175.000000" cy="207.790032" rx="25.000000" ry="5.313320" fill="rgb(0, 0, 128)" style="fill-opacity:0.32" />
<ellipse cx="175.000000" cy="207.790032" rx="16.666667" ry="3.542213" fill="rgb(255, 255, 255)" style="fill-opacity:1.00" />
<rect height="5.313320" width="25.000000" x="175.000000" y="205.133372" fill="rgb(255, 255, 255)" style="fill-opacity:1.00" />
<!-- End 'C' -->
<!-- Begin 'G' -->
<ellipse cx="175.000000" cy="216.551676" rx="25.000000" ry="3.448324" fill="rgb(255, 165, 0)" style="fill-opacity:0.32" />
<ellipse cx="175.000000" cy="216.551676" rx="16.666667" ry="2.298883" fill="rgb(255, 255, 255)" style="fill-opacity:1.00" />
<rect height="3.448324" width="25.000000" x="175.000000" y="214.827514" fill="rgb(255, 255, 255)" style="fill-opacity:1.00" />
<rect height="0.862081" width="25.000000" x="175.000000" y="217.413757" fill="rgb(255, 165, 0)" style="fill-opacity:0.32" />
<rect height="2.586243" width="6.250000" x="193.750000" y="217.413757" fill="rgb(255, 165, 0)" style="fill-opacity:0.32" />
<!-- End 'G' -->
<!-- Begin 'T' -->
<rect height="7.064517" width="50.000000" x="150.000000" y="230.000000" fill="rgb(0, 100, 0)" style="fill-opacity:0.09" />
<rect height="44.153232" width="10.000000" x="170.000000" y="230.000000" fill="rgb(0, 100, 0)" style="fill-opacity:0.09" />
<!-- End 'T' -->
<!-- Begin 'A' -->
<polygon points=" 150.000000, 313.662378, 171.000000, 274.153232, 179.000000, 274.153232, 200.000000, 313.662378, 192.500000, 313.662378, 186.250000, 303.785092, 163.750000, 303.785092, 157.500000, 313.662378" fill="rgb(178, 34, 34)" style="fill-opacity:0.09" />
<polygon points=" 175.000000, 282.055061, 167.000000, 296.858720, 182.000000, 296.858720" fill="rgb(255, 255, 255)" style="fill-opacity:1.00" />
<!-- End 'A' -->
<!-- Begin 'G' -->
<ellipse cx="175.000000" cy="319.547799" rx="25.000000" ry="5.885420" fill="rgb(255, 165, 0)" style="fill-opacity:0.09" />
<ellipse cx="175.000000" cy="319.547799" rx="16.666667" ry="3.923614" fill="rgb(255, 255, 255)" style="fill-opacity:1.00" />
<rect height="5.885420" width="25.000000" x="175.000000" y="316.605088" fill="rgb(255, 255, 255)" style="fill-opacity:1.00" />
<rect height="1.471355" width="25.000000" x="175.000000" y="321.019154" fill="rgb(255, 165, 0)" style="fill-opacity:0.09" />
<rect height="4.414065" width="6.250000" x="193.750000" y="321.019154" fill="rgb(255, 165, 0)" style="fill-opacity:0.09" />
<!-- End 'G' -->
<!-- Begin 'C' -->
<ellipse cx="175.000000" cy="327.716610" rx="25.000000" ry="2.283390" fill="rgb(0, 0, 128)" style="fill-opacity:0.09" />
<ellipse cx="175.000000" cy="327.716610" rx="16.666667" ry="1.522260" fill="rgb(255, 255, 255)" style="fill-opacity:1.00" />
<rect height="2.283390" width="25.000000" x="175.000000" y="326.574914" fill="rgb(255, 255, 255)" style="fill-opacity:1.00" />
<!-- End 'C' -->
<!-- Begin 'A' -->
<polygon points=" 150.000000, 372.854156, 171.000000, 340.000000, 179.000000, 340.000000, 200.000000, 372.854156, 192.500000, 372.854156, 186.250000, 364.640617, 163.750000, 364.640617, 157.500000, 372.854156" fill="rgb(178, 34, 34)" style="fill-opacity:0.35" />
<polygon points=" 175.000000, 346.570831, 167.000000, 358.712493, 182.000000, 358.712493" fill="rgb(255, 255, 255)" style="fill-opacity:1.00" />
<!-- End 'A' -->
<!-- Begin 'T' -->
<rect height="4.865218" width="50.000000" x="150.000000" y="372.854156" fill="rgb(0, 100, 0)" style="fill-opacity:0.35" />
<rect height="30.407610" width="10.000000" x="170.000000" y="372.854156" fill="rgb(0, 100, 0)" style="fill-opacity:0.35" />
<!-- End 'T' -->
<!-- Begin 'G' -->
<ellipse cx="175.000000" cy="413.654239" rx="25.000000" ry="10.392473" fill="rgb(255, 165, 0)" style="fill-opacity:0.35" />
<ellipse cx="175.000000" cy="413.654239" rx="16.666667" ry="6.928315" fill="rgb(255, 255, 255)" style="fill-opacity:1.00" />
<rect height="10.392473" width="25.000000" x="175.000000" y="408.458002" fill="rgb(255, 255, 255)" style="fill-opacity:1.00" />
<rect height="2.598118" width="25.000000" x="175.000000" y="416.252357" fill="rgb(255, 165, 0)" style="fill-opacity:0.35" />
<rect height="7.794354" width="6.250000" x="193.750000" y="416.252357" fill="rgb(255, 165, 0)" style="fill-opacity:0.35" />
<!-- End 'G' -->
<!-- Begin 'C' -->
<ellipse cx="175.000000" cy="432.023356" rx="25.000000" ry="7.976644" fill="rgb(0, 0, 128)" style="fill-opacity:0.35" />
<ellipse cx="175.000000" cy="432.023356" rx="16.666667" ry="5.317763" fill="rgb(255, 255, 255)" style="fill-opacity:1.00" />
<rect height="7.976644" width="25.000000" x="175.000000" y="428.035034" fill="rgb(255, 255, 255)" style="fill-opacity:1.00" />
<!-- End 'C' -->
<!-- Begin 'C' -->
<ellipse cx="235.000000" cy="24.957855" rx="25.000000" ry="14.957855" fill="rgb(0, 0, 128)" style="fill-opacity:0.37" />
<ellipse cx="235.000000" cy="24.957855" rx="16.666667" ry="9.971903" fill="rgb(255, 255, 255)" style="fill-opacity:1.00" />
<rect height="14.957855" width="25.000000" x="235.000000" y="17.478927" fill="rgb(255, 255, 255)" style="fill-opacity:1.00" />
<!-- End 'C' -->
<!-- Begin 'A' -->
<polygon points=" 210.000000, 66.609931, 231.000000, 39.915710, 239.000000, 39.915710, 260.000000, 66.609931, 252.500000, 66.609931, 246.250000, 59.936376, 223.750000, 59.936376, 217.500000, 66.609931" fill="rgb(178, 34, 34)" style="fill-opacity:0.37" />
<polygon points=" 235.000000, 45.254554, 227.000000, 54.932243, 242.000000, 54.932243" fill="rgb(255, 255, 255)" style="fill-opacity:1.00" />
<!-- End 'A' -->
<!-- Begin 'T' -->
<rect height="3.834967" width="50.000000" x="210.000000" y="66.609931" fill="rgb(0, 100, 0)" style="fill-opacity:0.37" />
<rect height="23.968542" width="10.000000" x="230.000000" y="66.609931" fill="rgb(0, 100, 0)" style="fill-opacity:0.37" />
<!-- End 'T' -->
<!-- Begin 'G' -->
<ellipse cx="235.000000" cy="100.289237" rx="25.000000" ry="9.710763" fill="rgb(255, 165, 0)" style="fill-opacity:0.37" />
<ellipse cx="235.000000" cy="100.289237" rx="16.666667" ry="6.473842" fill="rgb(255, 255, 255)" style="fill-opacity:1.00" />
<rect height="9.710763" width="25.000000" x="235.000000" y="95.433855" fill="rgb(255, 255, 255)" style="fill-opacity:1.00" />
<rect height="2.427691" width="25.000000" x="235.000000" y="102.716927" fill="rgb(255, 165, 0)" style="fill-opacity:0.37" />
<rect height="7.283073" width="6.250000" x="253.750000" y="102.716927" fill="rgb(255, 165, 0)" style="fill-opacity:0.37" />
<!-- End 'G' -->
<!-- Begin 'A' -->
<polygon points=" 210.000000, 160.396727, 231.000000, 120.000000, 239.000000, 120.000000, 260.000000, 160.396727, 252.500000, 160.396727, 246.250000, 150.297546, 223.750000, 150.297546, 217.500000, 160.396727" fill="rgb(178, 34, 34)" style="fill-opacity:0.14" />
<polygon points=" 235.000000, 128.079345, 227.000000, 143.238036, 242.000000, 143.238036" fill="rgb(255, 255, 255)" style="fill-opacity:1.00" />
<!-- End 'A' -->
<!-- Begin 'T' -->
<rect height="6.053441" width="50.000000" x="210.000000" y="160.396727" fill="rgb(0, 100, 0)" style="fill-opacity:0.14" />
<rect height="37.834006" width="10.000000" x="230.000000" y="160.396727" fill="rgb(0, 100, 0)" style="fill-opacity:0.14" />
<!-- End 'T' -->
<!-- Begin 'C' -->
<ellipse cx="235.000000" cy="205.822390" rx="25.000000" ry="7.591657" fill="rgb(0, 0, 128)" style="fill-opacity:0.14" />
<ellipse cx="235.000000" cy="205.822390" rx="16.666667" ry="5.061105" fill="rgb(255, 255, 255)" style="fill-opacity:1.00" />
<rect height="7.591657" width="25.000000" x="235.000000" y="202.026562" fill="rgb(255, 255, 255)" style="fill-opacity:1.00" />
<!-- End 'C' -->
<!-- Begin 'G' -->
<ellipse cx="235.000000" cy="216.707024" rx="25.000000" ry="3.292976" fill="rgb(255, 165, 0)" style="fill-opacity:0.14" />
<ellipse cx="235.000000" cy="216.707024" rx="16.666667" ry="2.195318" fill="rgb(255, 255, 255)" style="fill-opacity:1.00" />
<rect height="3.292976" width="25.000000" x="235.000000" y="215.060535" fill="rgb(255, 255, 255)" style="fill-opacity:1.00" />
<rect height="0.823244" width="25.000000" x="235.000000" y="217.530268" fill="rgb(255, 165, 0)" style="fill-opacity:0.14" />
<rect height="2.469732" width="6.250000" x="253.750000" y="217.530268" fill="rgb(255, 165, 0)" style="fill-opacity:0.14" />
<!-- End 'G' -->
<!-- Begin 'A' -->
<polygon points=" 210.000000, 261.962877, 231.000000, 230.000000, 239.000000, 230.000000, 260.000000, 261.962877, 252.500000, 261.962877, 246.250000, 253.972158, 223.750000, 253.972158, 217.500000, 261.962877" fill="rgb(178, 34, 34)" style="fill-opacity:0.14" />
<polygon points=" 235.000000, 236.392575, 227.000000, 248.177726, 242.000000, 248.177726" fill="rgb(255, 255, 255)" style="fill-opacity:1.00" />
<!-- End 'A' -->
<!-- Begin 'T' -->
<rect height="4.309416" width="50.000000" x="210.000000" y="261.962877" fill="rgb(0, 100, 0)" style="fill-opacity:0.14" />
<rect height="26.933847" width="10.000000" x="230.000000" y="261.962877" fill="rgb(0, 100, 0)" style="fill-opacity:0.14" />
<!-- End 'T' -->
<!-- Begin 'C' -->
<ellipse cx="235.000000" cy="300.607858" rx="25.000000" ry="11.711134" fill="rgb(0, 0, 128)" style="fill-opacity:0.14" />
<ellipse cx="235.000000" cy="300.607858" rx="16.666667" ry="7.807423" fill="rgb(255, 255, 255)" style="fill-opacity:1.00" />
<rect height="11.711134" width="25.000000" x="235.000000" y="294.752291" fill="rgb(255, 255, 255)" style="fill-opacity:1.00" />
<!-- End 'C' -->
<!-- Begin 'G' -->
<ellipse cx="235.000000" cy="321.159496" rx="25.000000" ry="8.840504" fill="rgb(255, 165, 0)" style="fill-opacity:0.14" />
<ellipse cx="235.000000" cy="321.159496" rx="16.666667" ry="5.893669" fill="rgb(255, 255, 255)" style="fill-opacity:1.00" />
<rect height="8.840504" width="25.000000" x="235.000000" y="316.739244" fill="rgb(255, 255, 255)" style="fill-opacity:1.00" />
<rect height="2.210126" width="25.000000" x="235.000000" y="323.369622" fill="rgb(255, 165, 0)" style="fill-opacity:0.14" />
<rect height="6.630378" width="6.250000" x="253.750000" y="323.369622" fill="rgb(255, 165, 0)" style="fill-opacity:0.14" />
<!-- End 'G' -->
<!-- Begin 'T' -->
<rect height="4.988036" width="50.000000" x="210.000000" y="340.000000" fill="rgb(0, 100, 0)" style="fill-opacity:0.34" />
<rect height="31.175226" width="10.000000" x="230.000000" y="340.000000" fill="rgb(0, 100, 0)" style="fill-opacity:0.34" />
<!-- End 'T' -->
<!-- Begin 'C' -->
<ellipse cx="235.000000" cy="385.546001" rx="25.000000" ry="14.370775" fill="rgb(0, 0, 128)" style="fill-opacity:0.34" />
<ellipse cx="235.000000" cy="385.546001" rx="16.666667" ry="9.580517" fill="rgb(255, 255, 255)" style="fill-opacity:1.00" />
<rect height="14.370775" width="25.000000" x="235.000000" y="378.360613" fill="rgb(255, 255, 255)" style="fill-opacity:1.00" />
<!-- End 'C' -->
<!-- Begin 'A' -->
<polygon points=" 210.000000, 425.851859, 231.000000, 399.916776, 239.000000, 399.916776, 260.000000, 425.851859, 252.500000, 425.851859, 246.250000, 419.368088, 223.750000, 419.368088, 217.500000, 425.851859" fill="rgb(178, 34, 34)" style="fill-opacity:0.34" />
<polygon points=" 235.000000, 405.103792, 227.000000, 414.477826, 242.000000, 414.477826" fill="rgb(255, 255, 255)" style="fill-opacity:1.00" />
<!-- End 'A' -->
<!-- Begin 'G' -->
<ellipse cx="235.000000" cy="432.925929" rx="25.000000" ry="7.074071" fill="rgb(255, 165, 0)" style="fill-opacity:0.34" />
<ellipse cx="235.000000" cy="432.925929" rx="16.666667" ry="4.716047" fill="rgb(255, 255, 255)" style="fill-opacity:1.00" />
<rect height="7.074071" width="25.000000" x="235.000000" y="429.388894" fill="rgb(255, 255, 255)" style="fill-opacity:1.00" />
<rect height="1.768518" width="25.000000" x="235.000000" y="434.694447" fill="rgb(255, 165, 0)" style="fill-opacity:0.34" />
<rect height="5.305553" width="6.250000" x="253.750000" y="434.694447" fill="rgb(255, 165, 0)" style="fill-opacity:0.34" />
<!-- End 'G' -->
<!-- Begin 'C' -->
<ellipse cx="295.000000" cy="25.642835" rx="25.000000" ry="15.642835" fill="rgb(0, 0, 128)" style="fill-opacity:0.29" />
<ellipse cx="295.000000" cy="25.642835" rx="16.666667" ry="10.428557" fill="rgb(255, 255, 255)" style="fill-opacity:1.00" />
<rect height="15.642835" width="25.000000" x="295.000000" y="17.821418" fill="rgb(255, 255, 255)" style="fill-opacity:1.00" />
<!-- End 'C' -->
<!-- Begin 'G' -->
<ellipse cx="295.000000" cy="54.791557" rx="25.000000" ry="13.505887" fill="rgb(255, 165, 0)" style="fill-opacity:0.29" />
<ellipse cx="295.000000" cy="54.791557" rx="16.666667" ry="9.003924" fill="rgb(255, 255, 255)" style="fill-opacity:1.00" />
<rect height="13.505887" width="25.000000" x="295.000000" y="48.038614" fill="rgb(255, 255, 255)" style="fill-opacity:1.00" />
<rect height="3.376472" width="25.000000" x="295.000000" y="58.168029" fill="rgb(255, 165, 0)" style="fill-opacity:0.29" />
<rect height="10.129415" width="6.250000" x="313.750000" y="58.168029" fill="rgb(255, 165, 0)" style="fill-opacity:0.29" />
<!-- End 'G' -->
<!-- Begin 'T' -->
<rect height="3.712993" width="50.000000" x="270.000000" y="68.297444" fill="rgb(0, 100, 0)" style="fill-opacity:0.29" />
<rect height="23.206206" width="10.000000" x="290.000000" y="68.297444" fill="rgb(0, 100, 0)" style="fill-opacity:0.29" />
<!-- End 'T' -->
<!-- Begin 'A' -->
<polygon points=" 270.000000, 110.000000, 291.000000, 91.503650, 299.000000, 91.503650, 320.000000, 110.000000, 312.500000, 110.000000, 306.250000, 105.375912, 283.750000, 105.375912, 277.500000, 110.000000" fill="rgb(178, 34, 34)" style="fill-opacity:0.29" />
<polygon points=" 295.000000, 95.202920, 287.000000, 101.601460, 302.000000, 101.601460" fill="rgb(255, 255, 255)" style="fill-opacity:1.00" />
<!-- End 'A' -->
<!-- Begin 'T' -->
<rect height="7.363505" width="50.000000" x="270.000000" y="120.000000" fill="rgb(0, 100, 0)" style="fill-opacity:0.27" />
<rect height="46.021906" width="10.000000" x="290.000000" y="120.000000" fill="rgb(0, 100, 0)" style="fill-opacity:0.27" />
<!-- End 'T' -->
<!-- Begin 'A' -->
<polygon points=" 270.000000, 197.904070, 291.000000, 166.021906, 299.000000, 166.021906, 320.000000, 197.904070, 312.500000, 197.904070, 306.250000, 189.933529, 283.750000, 189.933529, 277.500000, 197.904070" fill="rgb(178, 34, 34)" style="fill-opacity:0.27" />
<polygon points=" 295.000000, 172.398339, 287.000000, 184.151204, 302.000000, 184.151204" fill="rgb(255, 255, 255)" style="fill-opacity:1.00" />
<!-- End 'A' -->
<!-- Begin 'C' -->
<ellipse cx="295.000000" cy="206.997902" rx="25.000000" ry="9.093832" fill="rgb(0, 0, 128)" style="fill-opacity:0.27" />
<ellipse cx="295.000000" cy="206.997902" rx="16.666667" ry="6.062555" fill="rgb(255, 255, 255)" style="fill-opacity:1.00" />
<rect height="9.093832" width="25.000000" x="295.000000" y="202.450986" fill="rgb(255, 255, 255)" style="fill-opacity:1.00" />
<!-- End 'C' -->
<!-- Begin 'G' -->
<ellipse cx="295.000000" cy="218.045867" rx="25.000000" ry="1.954133" fill="rgb(255, 165, 0)" style="fill-opacity:0.27" />
<ellipse cx="295.000000" cy="218.045867" rx="16.666667" ry="1.302755" fill="rgb(255, 255, 255)" style="fill-opacity:1.00" />
<rect height="1.954133" width="25.000000" x="295.000000" y="217.068801" fill="rgb(255, 255, 255)" style="fill-opacity:1.00" />
<rect height="0.488533" width="25.000000" x="295.000000" y="218.534400" fill="rgb(255, 165, 0)" style="fill-opacity:0.27" />
<rect height="1.465600" width="6.250000" x="313.750000" y="218.534400" fill="rgb(255, 165, 0)" style="fill-opacity:0.27" />
<!-- End 'G' -->
<!-- Begin 'T' -->
<rect height="7.705977" width="50.000000" x="270.000000" y="230.000000" fill="rgb(0, 100, 0)" style="fill-opacity:0.16" />
<rect height="48.162359" width="10.000000" x="290.000000" y="230.000000" fill="rgb(0, 100, 0)" style="fill-opacity:0.16" />
<!-- End 'T' -->
<!-- Begin 'C' -->
<ellipse cx="295.000000" cy="291.793800" rx="25.000000" ry="13.631442" fill="rgb(0, 0, 128)" style="fill-opacity:0.16" />
<ellipse cx="295.000000" cy="291.793800" rx="16.666667" ry="9.087628" fill="rgb(255, 255, 255)" style="fill-opacity:1.00" />
<rect height="13.631442" width="25.000000" x="295.000000" y="284.978080" fill="rgb(255, 255, 255)" style="fill-opacity:1.00" />
<!-- End 'C' -->
<!-- Begin 'A' -->
<polygon points=" 270.000000, 322.231619, 291.000000, 305.425242, 299.000000, 305.425242, 320.000000, 322.231619, 312.500000, 322.231619, 306.250000, 318.030025, 283.750000, 318.030025, 277.500000, 322.231619" fill="rgb(178, 34, 34)" style="fill-opacity:0.16" />
<polygon points=" 295.000000, 308.786517, 287.000000, 314.509068, 302.000000, 314.509068" fill="rgb(255, 255, 255)" style="fill-opacity:1.00" />
<!-- End 'A' -->
<!-- Begin 'G' -->
<ellipse cx="295.000000" cy="326.115810" rx="25.000000" ry="3.884190" fill="rgb(255, 165, 0)" style="fill-opacity:0.16" />
<ellipse cx="295.000000" cy="326.115810" rx="16.666667" ry="2.589460" fill="rgb(255, 255, 255)" style="fill-opacity:1.00" />
<rect height="3.884190" width="25.000000" x="295.000000" y="324.173714" fill="rgb(255, 255, 255)" style="fill-opacity:1.00" />
<rect height="0.971048" width="25.000000" x="295.000000" y="327.086857" fill="rgb(255, 165, 0)" style="fill-opacity:0.16" />
<rect height="2.913143" width="6.250000" x="313.750000" y="327.086857" fill="rgb(255, 165, 0)" style="fill-opacity:0.16" />
<!-- End 'G' -->
<!-- Begin 'C' -->
<ellipse cx="295.000000" cy="357.074869" rx="25.000000" ry="17.074869" fill="rgb(0, 0, 128)" style="fill-opacity:0.29" />
<ellipse cx="295.000000" cy="357.074869" rx="16.666667" ry="11.383246" fill="rgb(255, 255, 255)" style="fill-opacity:1.00" />
<rect height="17.074869" width="25.000000" x="295.000000" y="348.537435" fill="rgb(255, 255, 255)" style="fill-opacity:1.00" />
<!-- End 'C' -->
<!-- Begin 'T' -->
<rect height="5.166700" width="50.000000" x="270.000000" y="374.149738" fill="rgb(0, 100, 0)" style="fill-opacity:0.29" />
<rect height="32.291875" width="10.000000" x="290.000000" y="374.149738" fill="rgb(0, 100, 0)" style="fill-opacity:0.29" />
<!-- End 'T' -->
<!-- Begin 'A' -->
<polygon points=" 270.000000, 430.964538, 291.000000, 406.441613, 299.000000, 406.441613, 320.000000, 430.964538, 312.500000, 430.964538, 306.250000, 424.833806, 283.750000, 424.833806, 277.500000, 430.964538" fill="rgb(178, 34, 34)" style="fill-opacity:0.29" />
<polygon points=" 295.000000, 411.346198, 287.000000, 420.155368, 302.000000, 420.155368" fill="rgb(255, 255, 255)" style="fill-opacity:1.00" />
<!-- End 'A' -->
<!-- Begin 'G' -->
<ellipse cx="295.000000" cy="435.482269" rx="25.000000" ry="4.517731" fill="rgb(255, 165, 0)" style="fill-opacity:0.29" />
<ellipse cx="295.000000" cy="435.482269" rx="16.666667" ry="3.011821" fill="rgb(255, 255, 255)" style="fill-opacity:1.00" />
<rect height="4.517731" width="25.000000" x="295.000000" y="433.223403" fill="rgb(255, 255, 255)" style="fill-opacity:1.00" />
<rect height="1.129433" width="25.000000" x="295.000000" y="436.611702" fill="rgb(255, 165, 0)" style="fill-opacity:0.29" />
<rect height="3.388298" width="6.250000" x="313.750000" y="436.611702" fill="rgb(255, 165, 0)" style="fill-opacity:0.29" />
<!-- End 'G' -->
<!-- Begin 'C' -->
<ellipse cx="355.000000" cy="24.021566" rx="25.000000" ry="14.021566" fill="rgb(0, 0, 128)" style="fill-opacity:0.24" />
<ellipse cx="355.000000" cy="24.021566" rx="16.666667" ry="9.347711" fill="rgb(255, 255, 255)" style="fill-opacity:1.00" />
<rect height="14.021566" width="25.000000" x="355.000000" y="17.010783" fill="rgb(255, 255, 255)" style="fill-opacity:1.00" />
<!-- End 'C' -->
<!-- Begin 'T' -->
<rect height="4.096610" width="50.000000" x="330.000000" y="38.043133" fill="rgb(0, 100, 0)" style="fill-opacity:0.24" />
<rect height="25.603810" width="10.000000" x="350.000000" y="38.043133" fill="rgb(0, 100, 0)" style="fill-opacity:0.24" />
<!-- End 'T' -->
<!-- Begin 'G' -->
<ellipse cx="355.000000" cy="76.347693" rx="25.000000" ry="12.700750" fill="rgb(255, 165, 0)" style="fill-opacity:0.24" />
<ellipse cx="355.000000" cy="76.347693" rx="16.666667" ry="8.467167" fill="rgb(255, 255, 255)" style="fill-opacity:1.00" />
<rect height="12.700750" width="25.000000" x="355.000000" y="69.997318" fill="rgb(255, 255, 255)" style="fill-opacity:1.00" />
<rect height="3.175187" width="25.000000" x="355.000000" y="79.522880" fill="rgb(255, 165, 0)" style="fill-opacity:0.24" />
<rect height="9.525562" width="6.250000" x="373.750000" y="79.522880" fill="rgb(255, 165, 0)" style="fill-opacity:0.24" />
<!-- End 'G' -->
<!-- Begin 'A' -->
<polygon points=" 330.000000, 110.000000, 351.000000, 89.048443, 359.000000, 89.048443, 380.000000, 110.000000, 372.500000, 110.000000, 366.250000, 104.762111, 343.750000, 104.762111, 337.500000, 110.000000" fill="rgb(178, 34, 34)" style="fill-opacity:0.24" />
<polygon points=" 355.000000, 93.238754, 347.000000, 100.619377, 362.000000, 100.619377" fill="rgb(255, 255, 255)" style="fill-opacity:1.00" />
<!-- End 'A' -->
<!-- Begin 'T' -->
<rect height="8.105183" width="50.000000" x="330.000000" y="120.000000" fill="rgb(0, 100, 0)" style="fill-opacity:0.28" />
<rect height="50.657394" width="10.000000" x="350.000000" y="120.000000" fill="rgb(0, 100, 0)" style="fill-opacity:0.28" />
<!-- End 'T' -->
<!-- Begin 'A' -->
<polygon points=" 330.000000, 203.981938, 351.000000, 170.657394, 359.000000, 170.657394, 380.000000, 203.981938, 372.500000, 203.981938, 366.250000, 195.650802, 343.750000, 195.650802, 337.500000, 203.981938" fill="rgb(178, 34, 34)" style="fill-opacity:0.28" />
<polygon points=" 355.000000, 177.322303, 347.000000, 189.652120, 362.000000, 189.652120" fill="rgb(255, 255, 255)" style="fill-opacity:1.00" />
<!-- End 'A' -->
<!-- Begin 'C' -->
<ellipse cx="355.000000" cy="208.270419" rx="25.000000" ry="4.288481" fill="rgb(0, 0, 128)" style="fill-opacity:0.28" />
<ellipse cx="355.000000" cy="208.270419" rx="16.666667" ry="2.858987" fill="rgb(255, 255, 255)" style="fill-opacity:1.00" />
<rect height="4.288481" width="25.000000" x="355.000000" y="206.126178" fill="rgb(255, 255, 255)" style="fill-opacity:1.00" />
<!-- End 'C' -->
<!-- Begin 'G' -->
<ellipse cx="355.000000" cy="216.279450" rx="25.000000" ry="3.720550" fill="rgb(255, 165, 0)" style="fill-opacity:0.28" />
<ellipse cx="355.000000" cy="216.279450" rx="16.666667" ry="2.480367" fill="rgb(255, 255, 255)" style="fill-opacity:1.00" />
<rect height="3.720550" width="25.000000" x="355.000000" y="214.419175" fill="rgb(255, 255, 255)" style="fill-opacity:1.00" />
<rect height="0.930138" width="25.000000" x="355.000000" y="217.209587" fill="rgb(255, 165, 0)" style="fill-opacity:0.28" />
<rect height="2.790413" width="6.250000" x="373.750000" y="217.209587" fill="rgb(255, 165, 0)" style="fill-opacity:0.28" />
<!-- End 'G' -->
<!-- Begin 'T' -->
<rect height="8.611635" width="50.000000" x="330.000000" y="230.000000" fill="rgb(0, 100, 0)" style="fill-opacity:0.13" />
<rect height="53.822720" width="10.000000" x="350.000000" y="230.000000" fill="rgb(0, 100, 0)" style="fill-opacity:0.13" />
<!-- End 'T' -->
<!-- Begin 'C' -->
<ellipse cx="355.000000" cy="297.779673" rx="25.000000" ry="13.956952" fill="rgb(0, 0, 128)" style="fill-opacity:0.13" />
<ellipse cx="355.000000" cy="297.779673" rx="16.666667" ry="9.304635" fill="rgb(255, 255, 255)" style="fill-opacity:1.00" />
<rect height="13.956952" width="25.000000" x="355.000000" y="290.801196" fill="rgb(255, 255, 255)" style="fill-opacity:1.00" />
<!-- End 'C' -->
<!-- Begin 'A' -->
<polygon points=" 330.000000, 322.931124, 351.000000, 311.736625, 359.000000, 311.736625, 380.000000, 322.931124, 372.500000, 322.931124, 366.250000, 320.132499, 343.750000, 320.132499, 337.500000, 322.931124" fill="rgb(178, 34, 34)" style="fill-opacity:0.13" />
<polygon points=" 355.000000, 313.975525, 347.000000, 317.453324, 362.000000, 317.453324" fill="rgb(255, 255, 255)" style="fill-opacity:1.00" />
<!-- End 'A' -->
<!-- Begin 'G' -->
<ellipse cx="355.000000" cy="326.465562" rx="25.000000" ry="3.534438" fill="rgb(255, 165, 0)" style="fill-opacity:0.13" />
<ellipse cx="355.000000" cy="326.465562" rx="16.666667" ry="2.356292" fill="rgb(255, 255, 255)" style="fill-opacity:1.00" />
<rect height="3.534438" width="25.000000" x="355.000000" y="324.698343" fill="rgb(255, 255, 255)" style="fill-opacity:1.00" />
<rect height="0.883609" width="25.000000" x="355.000000" y="327.349172" fill="rgb(255, 165, 0)" style="fill-opacity:0.13" />
<rect height="2.650828" width="6.250000" x="373.750000" y="327.349172" fill="rgb(255, 165, 0)" style="fill-opacity:0.13" />
<!-- End 'G' -->
<!-- Begin 'T' -->
<rect height="5.334555" width="50.000000" x="330.000000" y="340.000000" fill="rgb(0, 100, 0)" style="fill-opacity:0.36" />
<rect height="33.340971" width="10.000000" x="350.000000" y="340.000000" fill="rgb(0, 100, 0)" style="fill-opacity:0.36" />
<!-- End 'T' -->
<!-- Begin 'A' -->
<polygon points=" 330.000000, 397.030290, 351.000000, 373.340971, 359.000000, 373.340971, 380.000000, 397.030290, 372.500000, 397.030290, 366.250000, 391.107960, 343.750000, 391.107960, 337.500000, 397.030290" fill="rgb(178, 34, 34)" style="fill-opacity:0.36" />
<polygon points=" 355.000000, 378.078835, 347.000000, 386.554563, 362.000000, 386.554563" fill="rgb(255, 255, 255)" style="fill-opacity:1.00" />
<!-- End 'A' -->
<!-- Begin 'C' -->
<ellipse cx="355.000000" cy="407.857393" rx="25.000000" ry="10.827103" fill="rgb(0, 0, 128)" style="fill-opacity:0.36" />
<ellipse cx="355.000000" cy="407.857393" rx="16.666667" ry="7.218068" fill="rgb(255, 255, 255)" style="fill-opacity:1.00" />
<rect height="10.827103" width="25.000000" x="355.000000" y="402.443841" fill="rgb(255, 255, 255)" style="fill-opacity:1.00" />
<!-- End 'C' -->
<!-- Begin 'G' -->
<ellipse cx="355.000000" cy="429.342248" rx="25.000000" ry="10.657752" fill="rgb(255, 165, 0)" style="fill-opacity:0.36" />
<ellipse cx="355.000000" cy="429.342248" rx="16.666667" ry="7.105168" fill="rgb(255, 255, 255)" style="fill-opacity:1.00" />
<rect height="10.657752" width="25.000000" x="355.000000" y="424.013372" fill="rgb(255, 255, 255)" style="fill-opacity:1.00" />
<rect height="2.664438" width="25.000000" x="355.000000" y="432.006686" fill="rgb(255, 165, 0)" style="fill-opacity:0.36" />
<rect height="7.993314" width="6.250000" x="373.750000" y="432.006686" fill="rgb(255, 165, 0)" style="fill-opacity:0.36" />
<!-- End 'G' -->
<!-- Begin 'T' -->
<rect height="7.198828" width="50.000000" x="390.000000" y="10.000000" fill="rgb(0, 100, 0)" style="fill-opacity:0.24" />
<rect height="44.992675" width="10.000000" x="410.000000" y="10.000000" fill="rgb(0, 100, 0)" style="fill-opacity:0.24" />
<!-- End 'T' -->
<!-- Begin 'A' -->
<polygon points=" 390.000000, 82.158487, 411.000000, 54.992675, 419.000000, 54.992675, 440.000000, 82.158487, 432.500000, 82.158487, 426.250000, 75.367034, 403.750000, 75.367034, 397.500000, 82.158487" fill="rgb(178, 34, 34)" style="fill-opacity:0.24" />
<polygon points=" 415.000000, 60.425837, 407.000000, 70.292162, 422.000000, 70.292162" fill="rgb(255, 255, 255)" style="fill-opacity:1.00" />
<!-- End 'A' -->
<!-- Begin 'C' -->
<ellipse cx="415.000000" cy="94.960336" rx="25.000000" ry="12.801849" fill="rgb(0, 0, 128)" style="fill-opacity:0.24" />
<ellipse cx="415.000000" cy="94.960336" rx="16.666667" ry="8.534566" fill="rgb(255, 255, 255)" style="fill-opacity:1.00" />
<rect height="12.801849" width="25.000000" x="415.000000" y="88.559412" fill="rgb(255, 255, 255)" style="fill-opacity:1.00" />
<!-- End 'C' -->
<!-- Begin 'G' -->
<ellipse cx="415.000000" cy="108.881093" rx="25.000000" ry="1.118907" fill="rgb(255, 165, 0)" style="fill-opacity:0.24" />
<ellipse cx="415.000000" cy="108.881093" rx="16.666667" ry="0.745938" fill="rgb(255, 255, 255)" style="fill-opacity:1.00" />
<rect height="1.118907" width="25.000000" x="415.000000" y="108.321639" fill="rgb(255, 255, 255)" style="fill-opacity:1.00" />
<rect height="0.279727" width="25.000000" x="415.000000" y="109.160820" fill="rgb(255, 165, 0)" style="fill-opacity:0.24" />
<rect height="0.839180" width="6.250000" x="433.750000" y="109.160820" fill="rgb(255, 165, 0)" style="fill-opacity:0.24" />
<!-- End 'G' -->
<!-- Begin 'T' -->
<rect height="10.241513" width="50.000000" x="390.000000" y="120.000000" fill="rgb(0, 100, 0)" style="fill-opacity:0.20" />
<rect height="64.009455" width="10.000000" x="410.000000" y="120.000000" fill="rgb(0, 100, 0)" style="fill-opacity:0.20" />
<!-- End 'T' -->
<!-- Begin 'A' -->
<polygon points=" 390.000000, 209.267357, 411.000000, 184.009455, 419.000000, 184.009455, 440.000000, 209.267357, 432.500000, 209.267357, 426.250000, 202.952881, 403.750000, 202.952881, 397.500000, 209.267357" fill="rgb(178, 34, 34)" style="fill-opacity:0.20" />
<polygon points=" 415.000000, 189.061035, 407.000000, 198.164196, 422.000000, 198.164196" fill="rgb(255, 255, 255)" style="fill-opacity:1.00" />
<!-- End 'A' -->
<!-- Begin 'C' -->
<ellipse cx="415.000000" cy="214.463563" rx="25.000000" ry="5.196206" fill="rgb(0, 0, 128)" style="fill-opacity:0.20" />
<ellipse cx="415.000000" cy="214.463563" rx="16.666667" ry="3.464137" fill="rgb(255, 255, 255)" style="fill-opacity:1.00" />
<rect height="5.196206" width="25.000000" x="415.000000" y="211.865460" fill="rgb(255, 255, 255)" style="fill-opacity:1.00" />
<!-- End 'C' -->
<!-- Begin 'G' -->
<ellipse cx="415.000000" cy="219.829884" rx="25.000000" ry="0.170116" fill="rgb(255, 165, 0)" style="fill-opacity:0.20" />
<ellipse cx="415.000000" cy="219.829884" rx="16.666667" ry="0.113411" fill="rgb(255, 255, 255)" style="fill-opacity:1.00" />
<rect height="0.170116" width="25.000000" x="415.000000" y="219.744826" fill="rgb(255, 255, 255)" style="fill-opacity:1.00" />
<rect height="0.042529" width="25.000000" x="415.000000" y="219.872413" fill="rgb(255, 165, 0)" style="fill-opacity:0.20" />
<rect height="0.127587" width="6.250000" x="433.750000" y="219.872413" fill="rgb(255, 165, 0)" style="fill-opacity:0.20" />
<!-- End 'G' -->
<!-- Begin 'T' -->
<rect height="7.069280" width="50.000000" x="390.000000" y="230.000000" fill="rgb(0, 100, 0)" style="fill-opacity:0.17" />
<rect height="44.182998" width="10.000000" x="410.000000" y="230.000000" fill="rgb(0, 100, 0)" style="fill-opacity:0.17" />
<!-- End 'T' -->
<!-- Begin 'C' -->
<ellipse cx="415.000000" cy="289.243322" rx="25.000000" ry="15.060323" fill="rgb(0, 0, 128)" style="fill-opacity:0.17" />
<ellipse cx="415.000000" cy="289.243322" rx="16.666667" ry="10.040215" fill="rgb(255, 255, 255)" style="fill-opacity:1.00" />
<rect height="15.060323" width="25.000000" x="415.000000" y="281.713160" fill="rgb(255, 255, 255)" style="fill-opacity:1.00" />
<!-- End 'C' -->
<!-- Begin 'A' -->
<polygon points=" 390.000000, 328.165319, 411.000000, 304.303645, 419.000000, 304.303645, 440.000000, 328.165319, 432.500000, 328.165319, 426.250000, 322.199901, 403.750000, 322.199901, 397.500000, 328.165319" fill="rgb(178, 34, 34)" style="fill-opacity:0.17" />
<polygon points=" 415.000000, 309.075980, 407.000000, 317.620650, 422.000000, 317.620650" fill="rgb(255, 255, 255)" style="fill-opacity:1.00" />
<!-- End 'A' -->
<!-- Begin 'G' -->
<ellipse cx="415.000000" cy="329.082660" rx="25.000000" ry="0.917340" fill="rgb(255, 165, 0)" style="fill-opacity:0.17" />
<ellipse cx="415.000000" cy="329.082660" rx="16.666667" ry="0.611560" fill="rgb(255, 255, 255)" style="fill-opacity:1.00" />
<rect height="0.917340" width="25.000000" x="415.000000" y="328.623990" fill="rgb(255, 255, 255)" style="fill-opacity:1.00" />
<rect height="0.229335" width="25.000000" x="415.000000" y="329.311995" fill="rgb(255, 165, 0)" style="fill-opacity:0.17" />
<rect height="0.688005" width="6.250000" x="433.750000" y="329.311995" fill="rgb(255, 165, 0)" style="fill-opacity:0.17" />
<!-- End 'G' -->
<!-- Begin 'T' -->
<rect height="7.995636" width="50.000000" x="390.000000" y="340.000000" fill="rgb(0, 100, 0)" style="fill-opacity:0.39" />
<rect height="49.972726" width="10.000000" x="410.000000" y="340.000000" fill="rgb(0, 100, 0)" style="fill-opacity:0.39" />
<!-- End 'T' -->
<!-- Begin 'C' -->
<ellipse cx="415.000000" cy="403.400574" rx="25.000000" ry="13.427847" fill="rgb(0, 0, 128)" style="fill-opacity:0.39" />
<ellipse cx="415.000000" cy="403.400574" rx="16.666667" ry="8.951898" fill="rgb(255, 255, 255)" style="fill-opacity:1.00" />
<rect height="13.427847" width="25.000000" x="415.000000" y="396.686650" fill="rgb(255, 255, 255)" style="fill-opacity:1.00" />
<!-- End 'C' -->
<!-- Begin 'A' -->
<polygon points=" 390.000000, 438.679683, 411.000000, 416.828421, 419.000000, 416.828421, 440.000000, 438.679683, 432.500000, 438.679683, 426.250000, 433.216867, 403.750000, 433.216867, 397.500000, 438.679683" fill="rgb(178, 34, 34)" style="fill-opacity:0.39" />
<polygon points=" 415.000000, 421.198673, 407.000000, 428.939178, 422.000000, 428.939178" fill="rgb(255, 255, 255)" style="fill-opacity:1.00" />
<!-- End 'A' -->
<!-- Begin 'G' -->
<ellipse cx="415.000000" cy="439.339841" rx="25.000000" ry="0.660159" fill="rgb(255, 165, 0)" style="fill-opacity:0.39" />
<ellipse cx="415.000000" cy="439.339841" rx="16.666667" ry="0.440106" fill="rgb(255, 255, 255)" style="fill-opacity:1.00" />
<rect height="0.660159" width="25.000000" x="415.000000" y="439.009762" fill="rgb(255, 255, 255)" style="fill-opacity:1.00" />
<rect height="0.165040" width="25.000000" x="415.000000" y="439.504881" fill="rgb(255, 165, 0)" style="fill-opacity:0.39" />
<rect height="0.495119" width="6.250000" x="433.750000" y="439.504881" fill="rgb(255, 165, 0)" style="fill-opacity:0.39" />
<!-- End 'G' -->
<!-- Begin 'C' -->
<ellipse cx="475.000000" cy="42.058578" rx="25.000000" ry="32.058578" fill="rgb(0, 0, 128)" style="fill-opacity:0.24" />
<ellipse cx="475.000000" cy="42.058578" rx="16.666667" ry="21.372385" fill="rgb(255, 255, 255)" style="fill-opacity:1.00" />
<rect height="32.058578" width="25.000000" x="475.000000" y="26.029289" fill="rgb(255, 255, 255)" style="fill-opacity:1.00" />
<!-- End 'C' -->
<!-- Begin 'T' -->
<rect height="5.559273" width="50.000000" x="450.000000" y="74.117156" fill="rgb(0, 100, 0)" style="fill-opacity:0.24" />
<rect height="34.745456" width="10.000000" x="470.000000" y="74.117156" fill="rgb(0, 100, 0)" style="fill-opacity:0.24" />
<!-- End 'T' -->
<!-- Begin 'A' -->
<polygon points=" 450.000000, 109.911580, 471.000000, 108.862612, 479.000000, 108.862612, 500.000000, 109.911580, 492.500000, 109.911580, 486.250000, 109.649338, 463.750000, 109.649338, 457.500000, 109.911580" fill="rgb(178, 34, 34)" style="fill-opacity:0.24" />
<!-- End 'A' -->
<!-- Begin 'G' -->
<ellipse cx="475.000000" cy="109.955790" rx="25.000000" ry="0.044210" fill="rgb(255, 165, 0)" style="fill-opacity:0.24" />
<ellipse cx="475.000000" cy="109.955790" rx="16.666667" ry="0.029473" fill="rgb(255, 255, 255)" style="fill-opacity:1.00" />
<rect height="0.044210" width="25.000000" x="475.000000" y="109.933685" fill="rgb(255, 255, 255)" style="fill-opacity:1.00" />
<rect height="0.011052" width="25.000000" x="475.000000" y="109.966843" fill="rgb(255, 165, 0)" style="fill-opacity:0.24" />
<rect height="0.033157" width="6.250000" x="493.750000" y="109.966843" fill="rgb(255, 165, 0)" style="fill-opacity:0.24" />
<!-- End 'G' -->
<!-- Begin 'C' -->
<ellipse cx="475.000000" cy="153.646878" rx="25.000000" ry="33.646878" fill="rgb(0, 0, 128)" style="fill-opacity:0.24" />
<ellipse cx="475.000000" cy="153.646878" rx="16.666667" ry="22.431252" fill="rgb(255, 255, 255)" style="fill-opacity:1.00" />
<rect height="33.646878" width="25.000000" x="475.000000" y="136.823439" fill="rgb(255, 255, 255)" style="fill-opacity:1.00" />
<!-- End 'C' -->
<!-- Begin 'T' -->
<rect height="5.063843" width="50.000000" x="450.000000" y="187.293755" fill="rgb(0, 100, 0)" style="fill-opacity:0.24" />
<rect height="31.649018" width="10.000000" x="470.000000" y="187.293755" fill="rgb(0, 100, 0)" style="fill-opacity:0.24" />
<!-- End 'T' -->
<!-- Begin 'A' -->
<polygon points=" 450.000000, 219.656696, 471.000000, 218.942773, 479.000000, 218.942773, 500.000000, 219.656696, 492.500000, 219.656696, 486.250000, 219.478215, 463.750000, 219.478215, 457.500000, 219.656696" fill="rgb(178, 34, 34)" style="fill-opacity:0.24" />
<!-- End 'A' -->
<!-- Begin 'G' -->
<ellipse cx="475.000000" cy="219.828348" rx="25.000000" ry="0.171652" fill="rgb(255, 165, 0)" style="fill-opacity:0.24" />
<ellipse cx="475.000000" cy="219.828348" rx="16.666667" ry="0.114435" fill="rgb(255, 255, 255)" style="fill-opacity:1.00" />
<rect height="0.171652" width="25.000000" x="475.000000" y="219.742522" fill="rgb(255, 255, 255)" style="fill-opacity:1.00" />
<rect height="0.042913" width="25.000000" x="475.000000" y="219.871261" fill="rgb(255, 165, 0)" style="fill-opacity:0.24" />
<rect height="0.128739" width="6.250000" x="493.750000" y="219.871261" fill="rgb(255, 165, 0)" style="fill-opacity:0.24" />
<!-- End 'G' -->
<!-- Begin 'T' -->
<rect height="8.116682" width="50.000000" x="450.000000" y="230.000000" fill="rgb(0, 100, 0)" style="fill-opacity:0.01" />
<rect height="50.729265" width="10.000000" x="470.000000" y="230.000000" fill="rgb(0, 100, 0)" style="fill-opacity:0.01" />
<!-- End 'T' -->
<!-- Begin 'C' -->
<ellipse cx="475.000000" cy="305.228127" rx="25.000000" ry="24.498862" fill="rgb(0, 0, 128)" style="fill-opacity:0.01" />
<ellipse cx="475.000000" cy="305.228127" rx="16.666667" ry="16.332575" fill="rgb(255, 255, 255)" style="fill-opacity:1.00" />
<rect height="24.498862" width="25.000000" x="475.000000" y="292.978696" fill="rgb(255, 255, 255)" style="fill-opacity:1.00" />
<!-- End 'C' -->
<!-- Begin 'A' -->
<polygon points=" 450.000000, 329.971118, 471.000000, 329.726989, 479.000000, 329.726989, 500.000000, 329.971118, 492.500000, 329.971118, 486.250000, 329.910086, 463.750000, 329.910086, 457.500000, 329.971118" fill="rgb(178, 34, 34)" style="fill-opacity:0.01" />
<!-- End 'A' -->
<!-- Begin 'G' -->
<ellipse cx="475.000000" cy="329.985559" rx="25.000000" ry="0.014441" fill="rgb(255, 165, 0)" style="fill-opacity:0.01" />
<ellipse cx="475.000000" cy="329.985559" rx="16.666667" ry="0.009627" fill="rgb(255, 255, 255)" style="fill-opacity:1.00" />
<rect height="0.014441" width="25.000000" x="475.000000" y="329.978339" fill="rgb(255, 255, 255)" style="fill-opacity:1.00" />
<rect height="0.003610" width="25.000000" x="475.000000" y="329.989169" fill="rgb(255, 165, 0)" style="fill-opacity:0.01" />
<rect height="0.010831" width="6.250000" x="493.750000" y="329.989169" fill="rgb(255, 165, 0)" style="fill-opacity:0.01" />
<!-- End 'G' -->
<!-- Begin 'C' -->
<ellipse cx="475.000000" cy="376.859888" rx="25.000000" ry="36.859888" fill="rgb(0, 0, 128)" style="fill-opacity:0.51" />
<ellipse cx="475.000000" cy="376.859888" rx="16.666667" ry="24.573258" fill="rgb(255, 255, 255)" style="fill-opacity:1.00" />
<rect height="36.859888" width="25.000000" x="475.000000" y="358.429944" fill="rgb(255, 255, 255)" style="fill-opacity:1.00" />
<!-- End 'C' -->
<!-- Begin 'T' -->
<rect height="3.957742" width="50.000000" x="450.000000" y="413.719775" fill="rgb(0, 100, 0)" style="fill-opacity:0.51" />
<rect height="24.735885" width="10.000000" x="470.000000" y="413.719775" fill="rgb(0, 100, 0)" style="fill-opacity:0.51" />
<!-- End 'T' -->
<!-- Begin 'A' -->
<polygon points=" 450.000000, 439.913475, 471.000000, 438.455660, 479.000000, 438.455660, 500.000000, 439.913475, 492.500000, 439.913475, 486.250000, 439.549021, 463.750000, 439.549021, 457.500000, 439.913475" fill="rgb(178, 34, 34)" style="fill-opacity:0.51" />
<!-- End 'A' -->
<!-- Begin 'G' -->
<ellipse cx="475.000000" cy="439.956737" rx="25.000000" ry="0.043263" fill="rgb(255, 165, 0)" style="fill-opacity:0.51" />
<ellipse cx="475.000000" cy="439.956737" rx="16.666667" ry="0.028842" fill="rgb(255, 255, 255)" style="fill-opacity:1.00" />
<rect height="0.043263" width="25.000000" x="475.000000" y="439.935106" fill="rgb(255, 255, 255)" style="fill-opacity:1.00" />
<rect height="0.010816" width="25.000000" x="475.000000" y="439.967553" fill="rgb(255, 165, 0)" style="fill-opacity:0.51" />
<rect height="0.032447" width="6.250000" x="493.750000" y="439.967553" fill="rgb(255, 165, 0)" style="fill-opacity:0.51" />
<!-- End 'G' -->
<!-- Begin 'A' -->
<polygon points=" 510.000000, 109.913183, 531.000000, 10.000000, 539.000000, 10.000000, 560.000000, 109.913183, 552.500000, 109.913183, 546.250000, 84.934887, 523.750000, 84.934887, 517.500000, 109.913183" fill="rgb(178, 34, 34)" style="fill-opacity:0.01" />
<polygon points=" 535.000000, 29.982637, 527.000000, 68.947910, 542.000000, 68.947910" fill="rgb(255, 255, 255)" style="fill-opacity:1.00" />
<!-- End 'A' -->
<!-- Begin 'T' -->
<rect height="0.008452" width="50.000000" x="510.000000" y="109.913183" fill="rgb(0, 100, 0)" style="fill-opacity:0.01" />
<rect height="0.052826" width="10.000000" x="530.000000" y="109.913183" fill="rgb(0, 100, 0)" style="fill-opacity:0.01" />
<!-- End 'T' -->
<!-- Begin 'G' -->
<ellipse cx="535.000000" cy="109.980752" rx="25.000000" ry="0.014743" fill="rgb(255, 165, 0)" style="fill-opacity:0.01" />
<ellipse cx="535.000000" cy="109.980752" rx="16.666667" ry="0.009829" fill="rgb(255, 255, 255)" style="fill-opacity:1.00" />
<rect height="0.014743" width="25.000000" x="535.000000" y="109.973380" fill="rgb(255, 255, 255)" style="fill-opacity:1.00" />
<rect height="0.003686" width="25.000000" x="535.000000" y="109.984438" fill="rgb(255, 165, 0)" style="fill-opacity:0.01" />
<rect height="0.011058" width="6.250000" x="553.750000" y="109.984438" fill="rgb(255, 165, 0)" style="fill-opacity:0.01" />
<!-- End 'G' -->
<!-- Begin 'C' -->
<ellipse cx="535.000000" cy="109.997748" rx="25.000000" ry="0.002252" fill="rgb(0, 0, 128)" style="fill-opacity:0.01" />
<ellipse cx="535.000000" cy="109.997748" rx="16.666667" ry="0.001502" fill="rgb(255, 255, 255)" style="fill-opacity:1.00" />
<rect height="0.002252" width="25.000000" x="535.000000" y="109.996621" fill="rgb(255, 255, 255)" style="fill-opacity:1.00" />
<!-- End 'C' -->
<!-- Begin 'A' -->
<polygon points=" 510.000000, 211.107022, 531.000000, 120.000000, 539.000000, 120.000000, 560.000000, 211.107022, 552.500000, 211.107022, 546.250000, 188.330267, 523.750000, 188.330267, 517.500000, 211.107022" fill="rgb(178, 34, 34)" style="fill-opacity:0.70" />
<polygon points=" 535.000000, 138.221404, 527.000000, 173.664213, 542.000000, 173.664213" fill="rgb(255, 255, 255)" style="fill-opacity:1.00" />
<!-- End 'A' -->
<!-- Begin 'T' -->
<rect height="1.208006" width="50.000000" x="510.000000" y="211.107022" fill="rgb(0, 100, 0)" style="fill-opacity:0.70" />
<rect height="7.550039" width="10.000000" x="530.000000" y="211.107022" fill="rgb(0, 100, 0)" style="fill-opacity:0.70" />
<!-- End 'T' -->
<!-- Begin 'G' -->
<ellipse cx="535.000000" cy="219.256212" rx="25.000000" ry="0.599151" fill="rgb(255, 165, 0)" style="fill-opacity:0.70" />
<ellipse cx="535.000000" cy="219.256212" rx="16.666667" ry="0.399434" fill="rgb(255, 255, 255)" style="fill-opacity:1.00" />
<rect height="0.599151" width="25.000000" x="535.000000" y="218.956637" fill="rgb(255, 255, 255)" style="fill-opacity:1.00" />
<rect height="0.149788" width="25.000000" x="535.000000" y="219.406000" fill="rgb(255, 165, 0)" style="fill-opacity:0.70" />
<rect height="0.449363" width="6.250000" x="553.750000" y="219.406000" fill="rgb(255, 165, 0)" style="fill-opacity:0.70" />
<!-- End 'G' -->
<!-- Begin 'C' -->
<ellipse cx="535.000000" cy="219.927682" rx="25.000000" ry="0.072318" fill="rgb(0, 0, 128)" style="fill-opacity:0.70" />
<ellipse cx="535.000000" cy="219.927682" rx="16.666667" ry="0.048212" fill="rgb(255, 255, 255)" style="fill-opacity:1.00" />
<rect height="0.072318" width="25.000000" x="535.000000" y="219.891522" fill="rgb(255, 255, 255)" style="fill-opacity:1.00" />
<!-- End 'C' -->
<!-- Begin 'A' -->
<polygon points=" 510.000000, 329.811750, 531.000000, 230.000000, 539.000000, 230.000000, 560.000000, 329.811750, 552.500000, 329.811750, 546.250000, 304.858813, 523.750000, 304.858813, 517.500000, 329.811750" fill="rgb(178, 34, 34)" style="fill-opacity:0.00" />
<polygon points=" 535.000000, 249.962350, 527.000000, 288.887050, 542.000000, 288.887050" fill="rgb(255, 255, 255)" style="fill-opacity:1.00" />
<!-- End 'A' -->
<!-- Begin 'G' -->
<ellipse cx="535.000000" cy="329.894795" rx="25.000000" ry="0.083045" fill="rgb(255, 165, 0)" style="fill-opacity:0.00" />
<ellipse cx="535.000000" cy="329.894795" rx="16.666667" ry="0.055363" fill="rgb(255, 255, 255)" style="fill-opacity:1.00" />
<rect height="0.083045" width="25.000000" x="535.000000" y="329.853273" fill="rgb(255, 255, 255)" style="fill-opacity:1.00" />
<rect height="0.020761" width="25.000000" x="535.000000" y="329.915556" fill="rgb(255, 165, 0)" style="fill-opacity:0.00" />
<rect height="0.062284" width="6.250000" x="553.750000" y="329.915556" fill="rgb(255, 165, 0)" style="fill-opacity:0.00" />
<!-- End 'G' -->
<!-- Begin 'T' -->
<rect height="0.002777" width="50.000000" x="510.000000" y="329.977840" fill="rgb(0, 100, 0)" style="fill-opacity:0.00" />
<rect height="0.017356" width="10.000000" x="530.000000" y="329.977840" fill="rgb(0, 100, 0)" style="fill-opacity:0.00" />
<!-- End 'T' -->
<!-- Begin 'C' -->
<ellipse cx="535.000000" cy="329.997598" rx="25.000000" ry="0.002402" fill="rgb(0, 0, 128)" style="fill-opacity:0.00" />
<ellipse cx="535.000000" cy="329.997598" rx="16.666667" ry="0.001601" fill="rgb(255, 255, 255)" style="fill-opacity:1.00" />
<rect height="0.002402" width="25.000000" x="535.000000" y="329.996397" fill="rgb(255, 255, 255)" style="fill-opacity:1.00" />
<!-- End 'C' -->
<!-- Begin 'A' -->
<polygon points=" 510.000000, 435.240573, 531.000000, 340.000000, 539.000000, 340.000000, 560.000000, 435.240573, 552.500000, 435.240573, 546.250000, 411.430430, 523.750000, 411.430430, 517.500000, 435.240573" fill="rgb(178, 34, 34)" style="fill-opacity:0.29" />
<polygon points=" 535.000000, 359.048115, 527.000000, 396.144344, 542.000000, 396.144344" fill="rgb(255, 255, 255)" style="fill-opacity:1.00" />
<!-- End 'A' -->
<!-- Begin 'T' -->
<rect height="0.538715" width="50.000000" x="510.000000" y="435.240573" fill="rgb(0, 100, 0)" style="fill-opacity:0.29" />
<rect height="3.366970" width="10.000000" x="530.000000" y="435.240573" fill="rgb(0, 100, 0)" style="fill-opacity:0.29" />
<!-- End 'T' -->
<!-- Begin 'G' -->
<ellipse cx="535.000000" cy="439.140878" rx="25.000000" ry="0.533335" fill="rgb(255, 165, 0)" style="fill-opacity:0.29" />
<ellipse cx="535.000000" cy="439.140878" rx="16.666667" ry="0.355557" fill="rgb(255, 255, 255)" style="fill-opacity:1.00" />
<rect height="0.533335" width="25.000000" x="535.000000" y="438.874211" fill="rgb(255, 255, 255)" style="fill-opacity:1.00" />
<rect height="0.133334" width="25.000000" x="535.000000" y="439.274212" fill="rgb(255, 165, 0)" style="fill-opacity:0.29" />
<rect height="0.400001" width="6.250000" x="553.750000" y="439.274212" fill="rgb(255, 165, 0)" style="fill-opacity:0.29" />
<!-- End 'G' -->
<!-- Begin 'C' -->
<ellipse cx="535.000000" cy="439.837107" rx="25.000000" ry="0.162893" fill="rgb(0, 0, 128)" style="fill-opacity:0.29" />
<ellipse cx="535.000000" cy="439.837107" rx="16.666667" ry="0.108596" fill="rgb(255, 255, 255)" style="fill-opacity:1.00" />
<rect height="0.162893" width="25.000000" x="535.000000" y="439.755660" fill="rgb(255, 255, 255)" style="fill-opacity:1.00" />
<!-- End 'C' -->
<!-- Begin 'C' -->
<ellipse cx="595.000000" cy="47.082124" rx="25.000000" ry="37.082124" fill="rgb(0, 0, 128)" style="fill-opacity:0.92" />
<ellipse cx="595.000000" cy="47.082124" rx="16.666667" ry="24.721416" fill="rgb(255, 255, 255)" style="fill-opacity:1.00" />
<rect height="37.082124" width="25.000000" x="595.000000" y="28.541062" fill="rgb(255, 255, 255)" style="fill-opacity:1.00" />
<!-- End 'C' -->
<!-- Begin 'G' -->
<ellipse cx="595.000000" cy="96.148373" rx="25.000000" ry="11.984126" fill="rgb(255, 165, 0)" style="fill-opacity:0.92" />
<ellipse cx="595.000000" cy="96.148373" rx="16.666667" ry="7.989418" fill="rgb(255, 255, 255)" style="fill-opacity:1.00" />
<rect height="11.984126" width="25.000000" x="595.000000" y="90.156310" fill="rgb(255, 255, 255)" style="fill-opacity:1.00" />
<rect height="2.996032" width="25.000000" x="595.000000" y="99.144405" fill="rgb(255, 165, 0)" style="fill-opacity:0.92" />
<rect height="8.988095" width="6.250000" x="613.750000" y="99.144405" fill="rgb(255, 165, 0)" style="fill-opacity:0.92" />
<!-- End 'G' -->
<!-- Begin 'T' -->
<rect height="0.255327" width="50.000000" x="570.000000" y="108.132500" fill="rgb(0, 100, 0)" style="fill-opacity:0.92" />
<rect height="1.595794" width="10.000000" x="590.000000" y="108.132500" fill="rgb(0, 100, 0)" style="fill-opacity:0.92" />
<!-- End 'T' -->
<!-- Begin 'A' -->
<polygon points=" 570.000000, 110.000000, 591.000000, 109.728294, 599.000000, 109.728294, 620.000000, 110.000000, 612.500000, 110.000000, 606.250000, 109.932073, 583.750000, 109.932073, 577.500000, 110.000000" fill="rgb(178, 34, 34)" style="fill-opacity:0.92" />
<!-- End 'A' -->
<!-- Begin 'C' -->
<ellipse cx="595.000000" cy="165.210395" rx="25.000000" ry="45.210395" fill="rgb(0, 0, 128)" style="fill-opacity:0.00" />
<ellipse cx="595.000000" cy="165.210395" rx="16.666667" ry="30.140263" fill="rgb(255, 255, 255)" style="fill-opacity:1.00" />
<rect height="45.210395" width="25.000000" x="595.000000" y="142.605198" fill="rgb(255, 255, 255)" style="fill-opacity:1.00" />
<!-- End 'C' -->
<!-- Begin 'G' -->
<ellipse cx="595.000000" cy="213.881039" rx="25.000000" ry="3.460249" fill="rgb(255, 165, 0)" style="fill-opacity:0.00" />
<ellipse cx="595.000000" cy="213.881039" rx="16.666667" ry="2.306833" fill="rgb(255, 255, 255)" style="fill-opacity:1.00" />
<rect height="3.460249" width="25.000000" x="595.000000" y="212.150915" fill="rgb(255, 255, 255)" style="fill-opacity:1.00" />
<rect height="0.865062" width="25.000000" x="595.000000" y="214.746101" fill="rgb(255, 165, 0)" style="fill-opacity:0.00" />
<rect height="2.595187" width="6.250000" x="613.750000" y="214.746101" fill="rgb(255, 165, 0)" style="fill-opacity:0.00" />
<!-- End 'G' -->
<!-- Begin 'A' -->
<polygon points=" 570.000000, 219.088630, 591.000000, 217.341288, 599.000000, 217.341288, 620.000000, 219.088630, 612.500000, 219.088630, 606.250000, 218.651795, 583.750000, 218.651795, 577.500000, 219.088630" fill="rgb(178, 34, 34)" style="fill-opacity:0.00" />
<!-- End 'A' -->
<!-- Begin 'T' -->
<rect height="0.145819" width="50.000000" x="570.000000" y="219.088630" fill="rgb(0, 100, 0)" style="fill-opacity:0.00" />
<rect height="0.911370" width="10.000000" x="590.000000" y="219.088630" fill="rgb(0, 100, 0)" style="fill-opacity:0.00" />
<!-- End 'T' -->
<!-- Begin 'G' -->
<ellipse cx="595.000000" cy="256.562655" rx="25.000000" ry="26.562655" fill="rgb(255, 165, 0)" style="fill-opacity:0.01" />
<ellipse cx="595.000000" cy="256.562655" rx="16.666667" ry="17.708436" fill="rgb(255, 255, 255)" style="fill-opacity:1.00" />
<rect height="26.562655" width="25.000000" x="595.000000" y="243.281327" fill="rgb(255, 255, 255)" style="fill-opacity:1.00" />
<rect height="6.640664" width="25.000000" x="595.000000" y="263.203318" fill="rgb(255, 165, 0)" style="fill-opacity:0.01" />
<rect height="19.921991" width="6.250000" x="613.750000" y="263.203318" fill="rgb(255, 165, 0)" style="fill-opacity:0.01" />
<!-- End 'G' -->
<!-- Begin 'C' -->
<ellipse cx="595.000000" cy="306.465971" rx="25.000000" ry="23.340661" fill="rgb(0, 0, 128)" style="fill-opacity:0.01" />
<ellipse cx="595.000000" cy="306.465971" rx="16.666667" ry="15.560441" fill="rgb(255, 255, 255)" style="fill-opacity:1.00" />
<rect height="23.340661" width="25.000000" x="595.000000" y="294.795640" fill="rgb(255, 255, 255)" style="fill-opacity:1.00" />
<!-- End 'C' -->
<!-- Begin 'A' -->
<polygon points=" 570.000000, 329.956363, 591.000000, 329.806632, 599.000000, 329.806632, 620.000000, 329.956363, 612.500000, 329.956363, 606.250000, 329.918930, 583.750000, 329.918930, 577.500000, 329.956363" fill="rgb(178, 34, 34)" style="fill-opacity:0.01" />
<!-- End 'A' -->
<!-- Begin 'T' -->
<rect height="0.006982" width="50.000000" x="570.000000" y="329.956363" fill="rgb(0, 100, 0)" style="fill-opacity:0.01" />
<rect height="0.043637" width="10.000000" x="590.000000" y="329.956363" fill="rgb(0, 100, 0)" style="fill-opacity:0.01" />
<!-- End 'T' -->
<!-- Begin 'C' -->
<ellipse cx="595.000000" cy="389.748646" rx="25.000000" ry="49.748646" fill="rgb(0, 0, 128)" style="fill-opacity:0.06" />
<ellipse cx="595.000000" cy="389.748646" rx="16.666667" ry="33.165764" fill="rgb(255, 255, 255)" style="fill-opacity:1.00" />
<rect height="49.748646" width="25.000000" x="595.000000" y="364.874323" fill="rgb(255, 255, 255)" style="fill-opacity:1.00" />
<!-- End 'C' -->
<!-- Begin 'G' -->
<ellipse cx="595.000000" cy="439.655870" rx="25.000000" ry="0.158579" fill="rgb(255, 165, 0)" style="fill-opacity:0.06" />
<ellipse cx="595.000000" cy="439.655870" rx="16.666667" ry="0.105719" fill="rgb(255, 255, 255)" style="fill-opacity:1.00" />
<rect height="0.158579" width="25.000000" x="595.000000" y="439.576581" fill="rgb(255, 255, 255)" style="fill-opacity:1.00" />
<rect height="0.039645" width="25.000000" x="595.000000" y="439.695515" fill="rgb(255, 165, 0)" style="fill-opacity:0.06" />
<rect height="0.118934" width="6.250000" x="613.750000" y="439.695515" fill="rgb(255, 165, 0)" style="fill-opacity:0.06" />
<!-- End 'G' -->
<!-- Begin 'T' -->
<rect height="0.027939" width="50.000000" x="570.000000" y="439.814449" fill="rgb(0, 100, 0)" style="fill-opacity:0.06" />
<rect height="0.174618" width="10.000000" x="590.000000" y="439.814449" fill="rgb(0, 100, 0)" style="fill-opacity:0.06" />
<!-- End 'T' -->
<!-- Begin 'A' -->
<polygon points=" 570.000000, 440.000000, 591.000000, 439.989066, 599.000000, 439.989066, 620.000000, 440.000000, 612.500000, 440.000000, 606.250000, 439.997267, 583.750000, 439.997267, 577.500000, 440.000000" fill="rgb(178, 34, 34)" style="fill-opacity:0.06" />
<!-- End 'A' -->
<!-- Begin 'T' -->
<rect height="11.746745" width="50.000000" x="630.000000" y="10.000000" fill="rgb(0, 100, 0)" style="fill-opacity:0.00" />
<rect height="73.417157" width="10.000000" x="650.000000" y="10.000000" fill="rgb(0, 100, 0)" style="fill-opacity:0.00" />
<!-- End 'T' -->
<!-- Begin 'A' -->
<polygon points=" 630.000000, 98.834641, 651.000000, 83.417157, 659.000000, 83.417157, 680.000000, 98.834641, 672.500000, 98.834641, 666.250000, 94.980270, 643.750000, 94.980270, 637.500000, 98.834641" fill="rgb(178, 34, 34)" style="fill-opacity:0.00" />
<polygon points=" 655.000000, 86.500654, 647.000000, 91.667647, 662.000000, 91.667647" fill="rgb(255, 255, 255)" style="fill-opacity:1.00" />
<!-- End 'A' -->
<!-- Begin 'C' -->
<ellipse cx="655.000000" cy="104.334368" rx="25.000000" ry="5.499727" fill="rgb(0, 0, 128)" style="fill-opacity:0.00" />
<ellipse cx="655.000000" cy="104.334368" rx="16.666667" ry="3.666485" fill="rgb(255, 255, 255)" style="fill-opacity:1.00" />
<rect height="5.499727" width="25.000000" x="655.000000" y="101.584505" fill="rgb(255, 255, 255)" style="fill-opacity:1.00" />
<!-- End 'C' -->
<!-- Begin 'G' -->
<ellipse cx="655.000000" cy="109.917048" rx="25.000000" ry="0.082952" fill="rgb(255, 165, 0)" style="fill-opacity:0.00" />
<ellipse cx="655.000000" cy="109.917048" rx="16.666667" ry="0.055301" fill="rgb(255, 255, 255)" style="fill-opacity:1.00" />
<rect height="0.082952" width="25.000000" x="655.000000" y="109.875572" fill="rgb(255, 255, 255)" style="fill-opacity:1.00" />
<rect height="0.020738" width="25.000000" x="655.000000" y="109.937786" fill="rgb(255, 165, 0)" style="fill-opacity:0.00" />
<rect height="0.062214" width="6.250000" x="673.750000" y="109.937786" fill="rgb(255, 165, 0)" style="fill-opacity:0.00" />
<!-- End 'G' -->
<!-- Begin 'T' -->
<rect height="13.653851" width="50.000000" x="630.000000" y="120.000000" fill="rgb(0, 100, 0)" style="fill-opacity:0.75" />
<rect height="85.336568" width="10.000000" x="650.000000" y="120.000000" fill="rgb(0, 100, 0)" style="fill-opacity:0.75" />
<!-- End 'T' -->
<!-- Begin 'C' -->
<ellipse cx="655.000000" cy="209.280631" rx="25.000000" ry="3.944063" fill="rgb(0, 0, 128)" style="fill-opacity:0.75" />
<ellipse cx="655.000000" cy="209.280631" rx="16.666667" ry="2.629376" fill="rgb(255, 255, 255)" style="fill-opacity:1.00" />
<rect height="3.944063" width="25.000000" x="655.000000" y="207.308600" fill="rgb(255, 255, 255)" style="fill-opacity:1.00" />
<!-- End 'C' -->
<!-- Begin 'A' -->
<polygon points=" 630.000000, 219.902632, 651.000000, 213.224695, 659.000000, 213.224695, 680.000000, 219.902632, 672.500000, 219.902632, 666.250000, 218.233148, 643.750000, 218.233148, 637.500000, 219.902632" fill="rgb(178, 34, 34)" style="fill-opacity:0.75" />
<!-- End 'A' -->
<!-- Begin 'G' -->
<ellipse cx="655.000000" cy="219.951316" rx="25.000000" ry="0.048684" fill="rgb(255, 165, 0)" style="fill-opacity:0.75" />
<ellipse cx="655.000000" cy="219.951316" rx="16.666667" ry="0.032456" fill="rgb(255, 255, 255)" style="fill-opacity:1.00" />
<rect height="0.048684" width="25.000000" x="655.000000" y="219.926974" fill="rgb(255, 255, 255)" style="fill-opacity:1.00" />
<rect height="0.012171" width="25.000000" x="655.000000" y="219.963487" fill="rgb(255, 165, 0)" style="fill-opacity:0.75" />
<rect height="0.036513" width="6.250000" x="673.750000" y="219.963487" fill="rgb(255, 165, 0)" style="fill-opacity:0.75" />
<!-- End 'G' -->
<!-- Begin 'T' -->
<rect height="15.410576" width="50.000000" x="630.000000" y="230.000000" fill="rgb(0, 100, 0)" style="fill-opacity:0.23" />
<rect height="96.316098" width="10.000000" x="650.000000" y="230.000000" fill="rgb(0, 100, 0)" style="fill-opacity:0.23" />
<!-- End 'T' -->
<!-- Begin 'C' -->
<ellipse cx="655.000000" cy="327.959673" rx="25.000000" ry="1.643574" fill="rgb(0, 0, 128)" style="fill-opacity:0.23" />
<ellipse cx="655.000000" cy="327.959673" rx="16.666667" ry="1.095716" fill="rgb(255, 255, 255)" style="fill-opacity:1.00" />
<rect height="1.643574" width="25.000000" x="655.000000" y="327.137885" fill="rgb(255, 255, 255)" style="fill-opacity:1.00" />
<!-- End 'C' -->
<!-- Begin 'A' -->
<polygon points=" 630.000000, 329.995302, 651.000000, 329.603247, 659.000000, 329.603247, 680.000000, 329.995302, 672.500000, 329.995302, 666.250000, 329.897288, 643.750000, 329.897288, 637.500000, 329.995302" fill="rgb(178, 34, 34)" style="fill-opacity:0.23" />
<!-- End 'A' -->
<!-- Begin 'G' -->
<ellipse cx="655.000000" cy="329.997651" rx="25.000000" ry="0.002349" fill="rgb(255, 165, 0)" style="fill-opacity:0.23" />
<ellipse cx="655.000000" cy="329.997651" rx="16.666667" ry="0.001566" fill="rgb(255, 255, 255)" style="fill-opacity:1.00" />
<rect height="0.002349" width="25.000000" x="655.000000" y="329.996476" fill="rgb(255, 255, 255)" style="fill-opacity:1.00" />
<rect height="0.000587" width="25.000000" x="655.000000" y="329.998238" fill="rgb(255, 165, 0)" style="fill-opacity:0.23" />
<rect height="0.001762" width="6.250000" x="673.750000" y="329.998238" fill="rgb(255, 165, 0)" style="fill-opacity:0.23" />
<!-- End 'G' -->
<!-- Begin 'T' -->
<rect height="9.040834" width="50.000000" x="630.000000" y="340.000000" fill="rgb(0, 100, 0)" style="fill-opacity:0.01" />
<rect height="56.505213" width="10.000000" x="650.000000" y="340.000000" fill="rgb(0, 100, 0)" style="fill-opacity:0.01" />
<!-- End 'T' -->
<!-- Begin 'C' -->
<ellipse cx="655.000000" cy="415.425036" rx="25.000000" ry="18.919824" fill="rgb(0, 0, 128)" style="fill-opacity:0.01" />
<ellipse cx="655.000000" cy="415.425036" rx="16.666667" ry="12.613216" fill="rgb(255, 255, 255)" style="fill-opacity:1.00" />
<rect height="18.919824" width="25.000000" x="655.000000" y="405.965125" fill="rgb(255, 255, 255)" style="fill-opacity:1.00" />
<!-- End 'C' -->
<!-- Begin 'A' -->
<polygon points=" 630.000000, 439.973467, 651.000000, 434.344860, 659.000000, 434.344860, 680.000000, 439.973467, 672.500000, 439.973467, 666.250000, 438.566316, 643.750000, 438.566316, 637.500000, 439.973467" fill="rgb(178, 34, 34)" style="fill-opacity:0.01" />
<!-- End 'A' -->
<!-- Begin 'G' -->
<ellipse cx="655.000000" cy="439.986734" rx="25.000000" ry="0.013266" fill="rgb(255, 165, 0)" style="fill-opacity:0.01" />
<ellipse cx="655.000000" cy="439.986734" rx="16.666667" ry="0.008844" fill="rgb(255, 255, 255)" style="fill-opacity:1.00" />
<rect height="0.013266" width="25.000000" x="655.000000" y="439.980101" fill="rgb(255, 255, 255)" style="fill-opacity:1.00" />
<rect height="0.003317" width="25.000000" x="655.000000" y="439.990050" fill="rgb(255, 165, 0)" style="fill-opacity:0.01" />
<rect height="0.009950" width="6.250000" x="673.750000" y="439.990050" fill="rgb(255, 165, 0)" style="fill-opacity:0.01" />
<!-- End 'G' -->
<!-- Begin 'C' -->
<ellipse cx="715.000000" cy="38.877320" rx="25.000000" ry="28.877320" fill="rgb(0, 0, 128)" style="fill-opacity:0.05" />
<ellipse cx="715.000000" cy="38.877320" rx="16.666667" ry="19.251547" fill="rgb(255, 255, 255)" style="fill-opacity:1.00" />
<rect height="28.877320" width="25.000000" x="715.000000" y="24.438660" fill="rgb(255, 255, 255)" style="fill-opacity:1.00" />
<!-- End 'C' -->
<!-- Begin 'T' -->
<rect height="3.332048" width="50.000000" x="690.000000" y="67.754640" fill="rgb(0, 100, 0)" style="fill-opacity:0.05" />
<rect height="20.825300" width="10.000000" x="710.000000" y="67.754640" fill="rgb(0, 100, 0)" style="fill-opacity:0.05" />
<!-- End 'T' -->
<!-- Begin 'A' -->
<polygon points=" 690.000000, 103.086590, 711.000000, 88.579940, 719.000000, 88.579940, 740.000000, 103.086590, 732.500000, 103.086590, 726.250000, 99.459927, 703.750000, 99.459927, 697.500000, 103.086590" fill="rgb(178, 34, 34)" style="fill-opacity:0.05" />
<polygon points=" 715.000000, 91.481270, 707.000000, 96.283930, 722.000000, 96.283930" fill="rgb(255, 255, 255)" style="fill-opacity:1.00" />
<!-- End 'A' -->
<!-- Begin 'G' -->
<ellipse cx="715.000000" cy="106.543295" rx="25.000000" ry="3.456705" fill="rgb(255, 165, 0)" style="fill-opacity:0.05" />
<ellipse cx="715.000000" cy="106.543295" rx="16.666667" ry="2.304470" fill="rgb(255, 255, 255)" style="fill-opacity:1.00" />
<rect height="3.456705" width="25.000000" x="715.000000" y="104.814942" fill="rgb(255, 255, 255)" style="fill-opacity:1.00" />
<rect height="0.864176" width="25.000000" x="715.000000" y="107.407471" fill="rgb(255, 165, 0)" style="fill-opacity:0.05" />
<rect height="2.592529" width="6.250000" x="733.750000" y="107.407471" fill="rgb(255, 165, 0)" style="fill-opacity:0.05" />
<!-- End 'G' -->
<!-- Begin 'A' -->
<polygon points=" 690.000000, 184.918401, 711.000000, 120.000000, 719.000000, 120.000000, 740.000000, 184.918401, 732.500000, 184.918401, 726.250000, 168.688801, 703.750000, 168.688801, 697.500000, 184.918401" fill="rgb(178, 34, 34)" style="fill-opacity:0.07" />
<polygon points=" 715.000000, 132.983680, 707.000000, 157.951041, 722.000000, 157.951041" fill="rgb(255, 255, 255)" style="fill-opacity:1.00" />
<!-- End 'A' -->
<!-- Begin 'G' -->
<ellipse cx="715.000000" cy="195.056426" rx="25.000000" ry="10.138025" fill="rgb(255, 165, 0)" style="fill-opacity:0.07" />
<ellipse cx="715.000000" cy="195.056426" rx="16.666667" ry="6.758683" fill="rgb(255, 255, 255)" style="fill-opacity:1.00" />
<rect height="10.138025" width="25.000000" x="715.000000" y="189.987414" fill="rgb(255, 255, 255)" style="fill-opacity:1.00" />
<rect height="2.534506" width="25.000000" x="715.000000" y="197.590932" fill="rgb(255, 165, 0)" style="fill-opacity:0.07" />
<rect height="7.603519" width="6.250000" x="733.750000" y="197.590932" fill="rgb(255, 165, 0)" style="fill-opacity:0.07" />
<!-- End 'G' -->
<!-- Begin 'T' -->
<rect height="1.924028" width="50.000000" x="690.000000" y="205.194451" fill="rgb(0, 100, 0)" style="fill-opacity:0.07" />
<rect height="12.025176" width="10.000000" x="710.000000" y="205.194451" fill="rgb(0, 100, 0)" style="fill-opacity:0.07" />
<!-- End 'T' -->
<!-- Begin 'C' -->
<ellipse cx="715.000000" cy="218.609814" rx="25.000000" ry="1.390186" fill="rgb(0, 0, 128)" style="fill-opacity:0.07" />
<ellipse cx="715.000000" cy="218.609814" rx="16.666667" ry="0.926791" fill="rgb(255, 255, 255)" style="fill-opacity:1.00" />
<rect height="1.390186" width="25.000000" x="715.000000" y="217.914720" fill="rgb(255, 255, 255)" style="fill-opacity:1.00" />
<!-- End 'C' -->
<!-- Begin 'G' -->
<ellipse cx="715.000000" cy="254.376538" rx="25.000000" ry="24.376538" fill="rgb(255, 165, 0)" style="fill-opacity:0.00" />
<ellipse cx="715.000000" cy="254.376538" rx="16.666667" ry="16.251025" fill="rgb(255, 255, 255)" style="fill-opacity:1.00" />
<rect height="24.376538" width="25.000000" x="715.000000" y="242.188269" fill="rgb(255, 255, 255)" style="fill-opacity:1.00" />
<rect height="6.094135" width="25.000000" x="715.000000" y="260.470673" fill="rgb(255, 165, 0)" style="fill-opacity:0.00" />
<rect height="18.282404" width="6.250000" x="733.750000" y="260.470673" fill="rgb(255, 165, 0)" style="fill-opacity:0.00" />
<!-- End 'G' -->
<!-- Begin 'C' -->
<ellipse cx="715.000000" cy="288.635351" rx="25.000000" ry="9.882275" fill="rgb(0, 0, 128)" style="fill-opacity:0.00" />
<ellipse cx="715.000000" cy="288.635351" rx="16.666667" ry="6.588183" fill="rgb(255, 255, 255)" style="fill-opacity:1.00" />
<rect height="9.882275" width="25.000000" x="715.000000" y="283.694214" fill="rgb(255, 255, 255)" style="fill-opacity:1.00" />
<!-- End 'C' -->
<!-- Begin 'A' -->
<polygon points=" 690.000000, 316.527275, 711.000000, 298.517626, 719.000000, 298.517626, 740.000000, 316.527275, 732.500000, 316.527275, 726.250000, 312.024863, 703.750000, 312.024863, 697.500000, 316.527275" fill="rgb(178, 34, 34)" style="fill-opacity:0.00" />
<polygon points=" 715.000000, 302.119556, 707.000000, 308.323416, 722.000000, 308.323416" fill="rgb(255, 255, 255)" style="fill-opacity:1.00" />
<!-- End 'A' -->
<!-- Begin 'T' -->
<rect height="2.155636" width="50.000000" x="690.000000" y="316.527275" fill="rgb(0, 100, 0)" style="fill-opacity:0.00" />
<rect height="13.472725" width="10.000000" x="710.000000" y="316.527275" fill="rgb(0, 100, 0)" style="fill-opacity:0.00" />
<!-- End 'T' -->
<!-- Begin 'G' -->
<ellipse cx="715.000000" cy="354.223028" rx="25.000000" ry="14.223028" fill="rgb(255, 165, 0)" style="fill-opacity:0.87" />
<ellipse cx="715.000000" cy="354.223028" rx="16.666667" ry="9.482019" fill="rgb(255, 255, 255)" style="fill-opacity:1.00" />
<rect height="14.223028" width="25.000000" x="715.000000" y="347.111514" fill="rgb(255, 255, 255)" style="fill-opacity:1.00" />
<rect height="3.555757" width="25.000000" x="715.000000" y="357.778785" fill="rgb(255, 165, 0)" style="fill-opacity:0.87" />
<rect height="10.667271" width="6.250000" x="733.750000" y="357.778785" fill="rgb(255, 165, 0)" style="fill-opacity:0.87" />
<!-- End 'G' -->
<!-- Begin 'A' -->
<polygon points=" 690.000000, 395.199279, 711.000000, 368.446057, 719.000000, 368.446057, 740.000000, 395.199279, 732.500000, 395.199279, 726.250000, 388.510973, 703.750000, 388.510973, 697.500000, 395.199279" fill="rgb(178, 34, 34)" style="fill-opacity:0.87" />
<polygon points=" 715.000000, 373.796701, 707.000000, 383.497990, 722.000000, 383.497990" fill="rgb(255, 255, 255)" style="fill-opacity:1.00" />
<!-- End 'A' -->
<!-- Begin 'T' -->
<rect height="3.754186" width="50.000000" x="690.000000" y="395.199279" fill="rgb(0, 100, 0)" style="fill-opacity:0.87" />
<rect height="23.463662" width="10.000000" x="710.000000" y="395.199279" fill="rgb(0, 100, 0)" style="fill-opacity:0.87" />
<!-- End 'T' -->
<!-- Begin 'C' -->
<ellipse cx="715.000000" cy="429.331470" rx="25.000000" ry="10.668530" fill="rgb(0, 0, 128)" style="fill-opacity:0.87" />
<ellipse cx="715.000000" cy="429.331470" rx="16.666667" ry="7.112353" fill="rgb(255, 255, 255)" style="fill-opacity:1.00" />
<rect height="10.668530" width="25.000000" x="715.000000" y="423.997206" fill="rgb(255, 255, 255)" style="fill-opacity:1.00" />
<!-- End 'C' -->
<text x="400.000000" y="495">
IC = 5.91
</text>

</svg>
