<?xml version="1.0" encoding="UTF-8" standalone="yes"?>
                 <!DOCTYPE svg PUBLIC "-//W3C//DTD SVG 1.0//EN" "http://www.w3.org/TR/2001/REC-SVG-20010904/DTD/svg10.dtd">
                 <svg height="500" width="720" xmlns="http://www.w3.org/2000/svg" xmlns:xlink="http://www.w3.org/1999/xlink">
                 <line x1="85" y1="450" x2="687" y2="450" style="stroke:rgb(99,99,99);stroke-width:2" />
<rect height="7.000000" width="2.000000" x="85.000000" y="450.000000" fill="rgb(0, 0, 0)" style="fill-opacity:1.00" />
<text x="107.000000" y="470">
1
</text>
<rect height="7.000000" width="2.000000" x="145.000000" y="450.000000" fill="rgb(0, 0, 0)" style="fill-opacity:1.00" />
<text x="167.000000" y="470">
2
</text>
<rect height="7.000000" width="2.000000" x="205.000000" y="450.000000" fill="rgb(0, 0, 0)" style="fill-opacity:1.00" />
<text x="227.000000" y="470">
3
</text>
<rect height="7.000000" width="2.000000" x="265.000000" y="450.000000" fill="rgb(0, 0, 0)" style="fill-opacity:1.00" />
<text x="287.000000" y="470">
4
</text>
<rect height="7.000000" width="2.000000" x="325.000000" y="450.000000" fill="rgb(0, 0, 0)" style="fill-opacity:1.00" />
<text x="347.000000" y="470">
5
</text>
<rect height="7.000000" width="2.000000" x="385.000000" y="450.000000" fill="rgb(0, 0, 0)" style="fill-opacity:1.00" />
<text x="407.000000" y="470">
6
</text>
<rect height="7.000000" width="2.000000" x="445.000000" y="450.000000" fill="rgb(0, 0, 0)" style="fill-opacity:1.00" />
<text x="467.000000" y="470">
7
</text>
<rect height="7.000000" width="2.000000" x="505.000000" y="450.000000" fill="rgb(0, 0, 0)" style="fill-opacity:1.00" />
<text x="527.000000" y="470">
8
</text>
<rect height="7.000000" width="2.000000" x="565.000000" y="450.000000" fill="rgb(0, 0, 0)" style="fill-opacity:1.00" />
<text x="587.000000" y="470">
9
</text>
<rect height="7.000000" width="2.000000" x="625.000000" y="450.000000" fill="rgb(0, 0, 0)" style="fill-opacity:1.00" />
<text x="647.000000" y="470">
10
</text>
<rect height="7.000000" width="2.000000" x="685.000000" y="450.000000" fill="rgb(0, 0, 0)" style="fill-opacity:1.00" />
<!-- Begin 'A' -->
<polygon points=" 10.000000, 110.000000, 35.200000, 10.000000, 44.800000, 10.000000, 70.000000, 110.000000, 61.000000, 110.000000, 53.500000, 85.000000, 26.500000, 85.000000, 19.000000, 110.000000" fill="rgb(178, 34, 34)" style="fill-opacity:1.00" />
<polygon points=" 40.000000, 30.000000, 30.400000, 69.000000, 48.400000, 69.000000" fill="rgb(255, 255, 255)" style="fill-opacity:1.00" />
<!-- End 'A' -->
<!-- Begin 'C' -->
<ellipse cx="40.000000" cy="170.000000" rx="30.000000" ry="50.000000" fill="rgb(0, 0, 128)" style="fill-opacity:1.00" />
<ellipse cx="40.000000" cy="170.000000" rx="20.000000" ry="33.333333" fill="rgb(255, 255, 255)" style="fill-opacity:1.00" />
<rect height="50.000000" width="30.000000" x="40.000000" y="145.000000" fill="rgb(255, 255, 255)" style="fill-opacity:1.00" />
<!-- End 'C' -->
<!-- Begin 'G' -->
<ellipse cx="40.000000" cy="280.000000" rx="30.000000" ry="50.000000" fill="rgb(255, 165, 0)" style="fill-opacity:1.00" />
<ellipse cx="40.000000" cy="280.000000" rx="20.000000" ry="33.333333" fill="rgb(255, 255, 255)" style="fill-opacity:1.00" />
<rect height="50.000000" width="30.000000" x="40.000000" y="255.000000" fill="rgb(255, 255, 255)" style="fill-opacity:1.00" />
<rect height="12.500000" width="30.000000" x="40.000000" y="292.500000" fill="rgb(255, 165, 0)" style="fill-opacity:1.00" />
<rect height="37.500000" width="7.500000" x="62.500000" y="292.500000" fill="rgb(255, 165, 0)" style="fill-opacity:1.00" />
<!-- End 'G' -->
<!-- Begin 'T' -->
<rect height="16.000000" width="60.000000" x="10.000000" y="340.000000" fill="rgb(0, 100, 0)" style="fill-opacity:1.00" />
<rect height="100.000000" width="12.000000" x="34.000000" y="340.000000" fill="rgb(0, 100, 0)" style="fill-opacity:1.00" />
<!-- End 'T' -->
<!-- Begin 'G' -->
<ellipse cx="115.000000" cy="27.630708" rx="25.000000" ry="17.630708" fill="rgb(255, 165, 0)" style="fill-opacity:0.25" />
<ellipse cx="115.000000" cy="27.630708" rx="16.666667" ry="11.753805" fill="rgb(255, 255, 255)" style="fill-opacity:1.00" />
<rect height="17.630708" width="25.000000" x="115.000000" y="18.815354" fill="rgb(255, 255, 255)" style="fill-opacity:1.00" />
<rect height="4.407677" width="25.000000" x="115.000000" y="32.038385" fill="rgb(255, 165, 0)" style="fill-opacity:0.25" />
<rect height="13.223031" width="6.250000" x="133.750000" y="32.038385" fill="rgb(255, 165, 0)" style="fill-opacity:0.25" />
<!-- End 'G' -->
<!-- Begin 'C' -->
<ellipse cx="115.000000" cy="62.034263" rx="25.000000" ry="16.772847" fill="rgb(0, 0, 128)" style="fill-opacity:0.25" />
<ellipse cx="115.000000" cy="62.034263" rx="16.666667" ry="11.181898" fill="rgb(255, 255, 255)" style="fill-opacity:1.00" />
<rect height="16.772847" width="25.000000" x="115.000000" y="53.647839" fill="rgb(255, 255, 255)" style="fill-opacity:1.00" />
<!-- End 'C' -->
<!-- Begin 'T' -->
<rect height="2.882079" width="50.000000" x="90.000000" y="78.807110" fill="rgb(0, 100, 0)" style="fill-opacity:0.25" />
<rect height="18.012994" width="10.000000" x="110.000000" y="78.807110" fill="rgb(0, 100, 0)" style="fill-opacity:0.25" />
<!-- End 'T' -->
<!-- Begin 'A' -->
<polygon points=" 90.000000, 110.000000, 111.000000, 96.820104, 119.000000, 96.820104, 140.000000, 110.000000, 132.500000, 110.000000, 126.250000, 106.705026, 103.750000, 106.705026, 97.500000, 110.000000" fill="rgb(178, 34, 34)" style="fill-opacity:0.25" />
<polygon points=" 115.000000, 99.456083, 107.000000, 103.728041, 122.000000, 103.728041" fill="rgb(255, 255, 255)" style="fill-opacity:1.00" />
<!-- End 'A' -->
<!-- Begin 'A' -->
<polygon points=" 90.000000, 152.895002, 111.000000, 120.000000, 119.000000, 120.000000, 140.000000, 152.895002, 132.500000, 152.895002, 126.250000, 144.671252, 103.750000, 144.671252, 97.500000, 152.895002" fill="rgb(178, 34, 34)" style="fill-opacity:0.25" />
<polygon points=" 115.000000, 126.579000, 107.000000, 138.737001, 122.000000, 138.737001" fill="rgb(255, 255, 255)" style="fill-opacity:1.00" />
<!-- End 'A' -->
<!-- Begin 'T' -->
<rect height="4.681365" width="50.000000" x="90.000000" y="152.895002" fill="rgb(0, 100, 0)" style="fill-opacity:0.25" />
<rect height="29.258532" width="10.000000" x="110.000000" y="152.895002" fill="rgb(0, 100, 0)" style="fill-opacity:0.25" />
<!-- End 'T' -->
<!-- Begin 'C' -->
<ellipse cx="115.000000" cy="194.950916" rx="25.000000" ry="12.797382" fill="rgb(0, 0, 128)" style="fill-opacity:0.25" />
<ellipse cx="115.000000" cy="194.950916" rx="16.666667" ry="8.531588" fill="rgb(255, 255, 255)" style="fill-opacity:1.00" />
<rect height="12.797382" width="25.000000" x="115.000000" y="188.552225" fill="rgb(255, 255, 255)" style="fill-opacity:1.00" />
<!-- End 'C' -->
<!-- Begin 'G' -->
<ellipse cx="115.000000" cy="213.874149" rx="25.000000" ry="6.125851" fill="rgb(255, 165, 0)" style="fill-opacity:0.25" />
<ellipse cx="115.000000" cy="213.874149" rx="16.666667" ry="4.083901" fill="rgb(255, 255, 255)" style="fill-opacity:1.00" />
<rect height="6.125851" width="25.000000" x="115.000000" y="210.811224" fill="rgb(255, 255, 255)" style="fill-opacity:1.00" />
<rect height="1.531463" width="25.000000" x="115.000000" y="215.405612" fill="rgb(255, 165, 0)" style="fill-opacity:0.25" />
<rect height="4.594388" width="6.250000" x="133.750000" y="215.405612" fill="rgb(255, 165, 0)" style="fill-opacity:0.25" />
<!-- End 'G' -->
<!-- Begin 'T' -->
<rect height="5.434028" width="50.000000" x="90.000000" y="230.000000" fill="rgb(0, 100, 0)" style="fill-opacity:0.25" />
<rect height="33.962678" width="10.000000" x="110.000000" y="230.000000" fill="rgb(0, 100, 0)" style="fill-opacity:0.25" />
<!-- End 'T' -->
<!-- Begin 'G' -->
<ellipse cx="115.000000" cy="276.699839" rx="25.000000" ry="12.737161" fill="rgb(255, 165, 0)" style="fill-opacity:0.25" />
<ellipse cx="115.000000" cy="276.699839" rx="16.666667" ry="8.491441" fill="rgb(255, 255, 255)" style="fill-opacity:1.00" />
<rect height="12.737161" width="25.000000" x="115.000000" y="270.331259" fill="rgb(255, 255, 255)" style="fill-opacity:1.00" />
<rect height="3.184290" width="25.000000" x="115.000000" y="279.884130" fill="rgb(255, 165, 0)" style="fill-opacity:0.25" />
<rect height="9.552871" width="6.250000" x="133.750000" y="279.884130" fill="rgb(255, 165, 0)" style="fill-opacity:0.25" />
<!-- End 'G' -->
<!-- Begin 'C' -->
<ellipse cx="115.000000" cy="301.883109" rx="25.000000" ry="12.446108" fill="rgb(0, 0, 128)" style="fill-opacity:0.25" />
<ellipse cx="115.000000" cy="301.883109" rx="16.666667" ry="8.297405" fill="rgb(255, 255, 255)" style="fill-opacity:1.00" />
<rect height="12.446108" width="25.000000" x="115.000000" y="295.660055" fill="rgb(255, 255, 255)" style="fill-opacity:1.00" />
<!-- End 'C' -->
<!-- Begin 'A' -->
<polygon points=" 90.000000, 330.000000, 111.000000, 314.329216, 119.000000, 314.329216, 140.000000, 330.000000, 132.500000, 330.000000, 126.250000, 326.082304, 103.750000, 326.082304, 97.500000, 330.000000" fill="rgb(178, 34, 34)" style="fill-opacity:0.25" />
<polygon points=" 115.000000, 317.463373, 107.000000, 322.731687, 122.000000, 322.731687" fill="rgb(255, 255, 255)" style="fill-opacity:1.00" />
<!-- End 'A' -->
<!-- Begin 'G' -->
<ellipse cx="115.000000" cy="363.663289" rx="25.000000" ry="23.663289" fill="rgb(255, 165, 0)" style="fill-opacity:0.25" />
<ellipse cx="115.000000" cy="363.663289" rx="16.666667" ry="15.775526" fill="rgb(255, 255, 255)" style="fill-opacity:1.00" />
<rect height="23.663289" width="25.000000" x="115.000000" y="351.831644" fill="rgb(255, 255, 255)" style="fill-opacity:1.00" />
<rect height="5.915822" width="25.000000" x="115.000000" y="369.579111" fill="rgb(255, 165, 0)" style="fill-opacity:0.25" />
<rect height="17.747467" width="6.250000" x="133.750000" y="369.579111" fill="rgb(255, 165, 0)" style="fill-opacity:0.25" />
<!-- End 'G' -->
<!-- Begin 'C' -->
<ellipse cx="115.000000" cy="398.245042" rx="25.000000" ry="10.918465" fill="rgb(0, 0, 128)" style="fill-opacity:0.25" />
<ellipse cx="115.000000" cy="398.245042" rx="16.666667" ry="7.278976" fill="rgb(255, 255, 255)" style="fill-opacity:1.00" />
<rect height="10.918465" width="25.000000" x="115.000000" y="392.785810" fill="rgb(255, 255, 255)" style="fill-opacity:1.00" />
<!-- End 'C' -->
<!-- Begin 'T' -->
<rect height="2.710402" width="50.000000" x="90.000000" y="409.163507" fill="rgb(0, 100, 0)" style="fill-opacity:0.25" />
<rect height="16.940014" width="10.000000" x="110.000000" y="409.163507" fill="rgb(0, 100, 0)" style="fill-opacity:0.25" />
<!-- End 'T' -->
<!-- Begin 'A' -->
<polygon points=" 90.000000, 440.000000, 111.000000, 426.103521, 119.000000, 426.103521, 140.000000, 440.000000, 132.500000, 440.000000, 126.250000, 436.525880, 103.750000, 436.525880, 97.500000, 440.000000" fill="rgb(178, 34, 34)" style="fill-opacity:0.25" />
<polygon points=" 115.000000, 428.882817, 107.000000, 433.441408, 122.000000, 433.441408" fill="rgb(255, 255, 255)" style="fill-opacity:1.00" />
<!-- End 'A' -->
<!-- Begin 'G' -->
<ellipse cx="175.000000" cy="34.245140" rx="25.000000" ry="24.245140" fill="rgb(255, 165, 0)" style="fill-opacity:0.19" />
<ellipse cx="175.000000" cy="34.245140" rx="16.666667" ry="16.163426" fill="rgb(255, 255, 255)" style="fill-opacity:1.00" />
<rect height="24.245140" width="25.000000" x="175.000000" y="22.122570" fill="rgb(255, 255, 255)" style="fill-opacity:1.00" />
<rect height="6.061285" width="25.000000" x="175.000000" y="40.306424" fill="rgb(255, 165, 0)" style="fill-opacity:0.19" />
<rect height="18.183855" width="6.250000" x="193.750000" y="40.306424" fill="rgb(255, 165, 0)" style="fill-opacity:0.19" />
<!-- End 'G' -->
<!-- Begin 'T' -->
<rect height="4.004177" width="50.000000" x="150.000000" y="58.490279" fill="rgb(0, 100, 0)" style="fill-opacity:0.19" />
<rect height="25.026107" width="10.000000" x="170.000000" y="58.490279" fill="rgb(0, 100, 0)" style="fill-opacity:0.19" />
<!-- End 'T' -->
<!-- Begin 'A' -->
<polygon points=" 150.000000, 99.039137, 171.000000, 83.516386, 179.000000, 83.516386, 200.000000, 99.039137, 192.500000, 99.039137, 186.250000, 95.158449, 163.750000, 95.158449, 157.500000, 99.039137" fill="rgb(178, 34, 34)" style="fill-opacity:0.19" />
<polygon points=" 175.000000, 86.620937, 167.000000, 91.830037, 182.000000, 91.830037" fill="rgb(255, 255, 255)" style="fill-opacity:1.00" />
<!-- End 'A' -->
<!-- Begin 'C' -->
<ellipse cx="175.000000" cy="104.519569" rx="25.000000" ry="5.480431" fill="rgb(0, 0, 128)" style="fill-opacity:0.19" />
<ellipse cx="175.000000" cy="104.519569" rx="16.666667" ry="3.653621" fill="rgb(255, 255, 255)" style="fill-opacity:1.00" />
<rect height="5.480431" width="25.000000" x="175.000000" y="101.779353" fill="rgb(255, 255, 255)" style="fill-opacity:1.00" />
<!-- End 'C' -->
<!-- Begin 'A' -->
<polygon points=" 150.000000, 165.354417, 171.000000, 120.000000, 179.000000, 120.000000, 200.000000, 165.354417, 192.500000, 165.354417, 186.250000, 154.015812, 163.750000, 154.015812, 157.500000, 165.354417" fill="rgb(178, 34, 34)" style="fill-opacity:0.26" />
<polygon points=" 175.000000, 129.070883, 167.000000, 146.212650, 182.000000, 146.212650" fill="rgb(255, 255, 255)" style="fill-opacity:1.00" />
<!-- End 'A' -->
<!-- Begin 'T' -->
<rect height="4.349157" width="50.000000" x="150.000000" y="165.354417" fill="rgb(0, 100, 0)" style="fill-opacity:0.26" />
<rect height="27.182229" width="10.000000" x="170.000000" y="165.354417" fill="rgb(0, 100, 0)" style="fill-opacity:0.26" />
<!-- End 'T' -->
<!-- Begin 'G' -->
<ellipse cx="175.000000" cy="201.985510" rx="25.000000" ry="9.448865" fill="rgb(255, 165, 0)" style="fill-opacity:0.26" />
<ellipse cx="175.000000" cy="201.985510" rx="16.666667" ry="6.299243" fill="rgb(255, 255, 255)" style="fill-opacity:1.00" />
<rect height="9.448865" width="25.000000" x="175.000000" y="197.261078" fill="rgb(255, 255, 255)" style="fill-opacity:1.00" />
<rect height="2.362216" width="25.000000" x="175.000000" y="204.347726" fill="rgb(255, 165, 0)" style="fill-opacity:0.26" />
<rect height="7.086649" width="6.250000" x="193.750000" y="204.347726" fill="rgb(255, 165, 0)" style="fill-opacity:0.26" />
<!-- End 'G' -->
<!-- Begin 'C' -->
<ellipse cx="175.000000" cy="215.717188" rx="25.000000" ry="4.282812" fill="rgb(0, 0, 128)" style="fill-opacity:0.26" />
<ellipse cx="175.000000" cy="215.717188" rx="16.666667" ry="2.855208" fill="rgb(255, 255, 255)" style="fill-opacity:1.00" />
<rect height="4.282812" width="25.000000" x="175.000000" y="213.575781" fill="rgb(255, 255, 255)" style="fill-opacity:1.00" />
<!-- End 'C' -->
<!-- Begin 'T' -->
<rect height="7.020959" width="50.000000" x="150.000000" y="230.000000" fill="rgb(0, 100, 0)" style="fill-opacity:0.30" />
<rect height="43.880991" width="10.000000" x="170.000000" y="230.000000" fill="rgb(0, 100, 0)" style="fill-opacity:0.30" />
<!-- End 'T' -->
<!-- Begin 'G' -->
<ellipse cx="175.000000" cy="289.588199" rx="25.000000" ry="15.707209" fill="rgb(255, 165, 0)" style="fill-opacity:0.30" />
<ellipse cx="175.000000" cy="289.588199" rx="16.666667" ry="10.471472" fill="rgb(255, 255, 255)" style="fill-opacity:1.00" />
<rect height="15.707209" width="25.000000" x="175.000000" y="281.734595" fill="rgb(255, 255, 255)" style="fill-opacity:1.00" />
<rect height="3.926802" width="25.000000" x="175.000000" y="293.515002" fill="rgb(255, 165, 0)" style="fill-opacity:0.30" />
<rect height="11.780406" width="6.250000" x="193.750000" y="293.515002" fill="rgb(255, 165, 0)" style="fill-opacity:0.30" />
<!-- End 'G' -->
<!-- Begin 'A' -->
<polygon points=" 150.000000, 319.457023, 171.000000, 305.295408, 179.000000, 305.295408, 200.000000, 319.457023, 192.500000, 319.457023, 186.250000, 315.916620, 163.750000, 315.916620, 157.500000, 319.457023" fill="rgb(178, 34, 34)" style="fill-opacity:0.30" />
<polygon points=" 175.000000, 308.127731, 167.000000, 312.792377, 182.000000, 312.792377" fill="rgb(255, 255, 255)" style="fill-opacity:1.00" />
<!-- End 'A' -->
<!-- Begin 'C' -->
<ellipse cx="175.000000" cy="324.728512" rx="25.000000" ry="5.271488" fill="rgb(0, 0, 128)" style="fill-opacity:0.30" />
<ellipse cx="175.000000" cy="324.728512" rx="16.666667" ry="3.514326" fill="rgb(255, 255, 255)" style="fill-opacity:1.00" />
<rect height="5.271488" width="25.000000" x="175.000000" y="322.092768" fill="rgb(255, 255, 255)" style="fill-opacity:1.00" />
<!-- End 'C' -->
<!-- Begin 'G' -->
<ellipse cx="175.000000" cy="376.661455" rx="25.000000" ry="36.661455" fill="rgb(255, 165, 0)" style="fill-opacity:0.25" />
<ellipse cx="175.000000" cy="376.661455" rx="16.666667" ry="24.440970" fill="rgb(255, 255, 255)" style="fill-opacity:1.00" />
<rect height="36.661455" width="25.000000" x="175.000000" y="358.330728" fill="rgb(255, 255, 255)" style="fill-opacity:1.00" />
<rect height="9.165364" width="25.000000" x="175.000000" y="385.826819" fill="rgb(255, 165, 0)" style="fill-opacity:0.25" />
<rect height="27.496092" width="6.250000" x="193.750000" y="385.826819" fill="rgb(255, 165, 0)" style="fill-opacity:0.25" />
<!-- End 'G' -->
<!-- Begin 'A' -->
<polygon points=" 150.000000, 425.822767, 171.000000, 413.322911, 179.000000, 413.322911, 200.000000, 425.822767, 192.500000, 425.822767, 186.250000, 422.697803, 163.750000, 422.697803, 157.500000, 425.822767" fill="rgb(178, 34, 34)" style="fill-opacity:0.25" />
<polygon points=" 175.000000, 415.822882, 167.000000, 419.822824, 182.000000, 419.822824" fill="rgb(255, 255, 255)" style="fill-opacity:1.00" />
<!-- End 'A' -->
<!-- Begin 'T' -->
<rect height="1.307774" width="50.000000" x="150.000000" y="425.822767" fill="rgb(0, 100, 0)" style="fill-opacity:0.25" />
<rect height="8.173587" width="10.000000" x="170.000000" y="425.822767" fill="rgb(0, 100, 0)" style="fill-opacity:0.25" />
<!-- End 'T' -->
<!-- Begin 'C' -->
<ellipse cx="175.000000" cy="436.998177" rx="25.000000" ry="3.001823" fill="rgb(0, 0, 128)" style="fill-opacity:0.25" />
<ellipse cx="175.000000" cy="436.998177" rx="16.666667" ry="2.001216" fill="rgb(255, 255, 255)" style="fill-opacity:1.00" />
<rect height="3.001823" width="25.000000" x="175.000000" y="435.497265" fill="rgb(255, 255, 255)" style="fill-opacity:1.00" />
<!-- End 'C' -->
<!-- Begin 'C' -->
<ellipse cx="235.000000" cy="50.971253" rx="25.000000" ry="40.971253" fill="rgb(0, 0, 128)" style="fill-opacity:0.22" />
<ellipse cx="235.000000" cy="50.971253" rx="16.666667" ry="27.314168" fill="rgb(255, 255, 255)" style="fill-opacity:1.00" />
<rect height="40.971253" width="25.000000" x="235.000000" y="30.485626" fill="rgb(255, 255, 255)" style="fill-opacity:1.00" />
<!-- End 'C' -->
<!-- Begin 'A' -->
<polygon points=" 210.000000, 103.986257, 231.000000, 91.942505, 239.000000, 91.942505, 260.000000, 103.986257, 252.500000, 103.986257, 246.250000, 100.975319, 223.750000, 100.975319, 217.500000, 103.986257" fill="rgb(178, 34, 34)" style="fill-opacity:0.22" />
<polygon points=" 235.000000, 94.351255, 227.000000, 98.168756, 242.000000, 98.168756" fill="rgb(255, 255, 255)" style="fill-opacity:1.00" />
<!-- End 'A' -->
<!-- Begin 'T' -->
<rect height="0.946086" width="50.000000" x="210.000000" y="103.986257" fill="rgb(0, 100, 0)" style="fill-opacity:0.22" />
<rect height="5.913037" width="10.000000" x="230.000000" y="103.986257" fill="rgb(0, 100, 0)" style="fill-opacity:0.22" />
<!-- End 'T' -->
<!-- Begin 'G' -->
<ellipse cx="235.000000" cy="109.949647" rx="25.000000" ry="0.050353" fill="rgb(255, 165, 0)" style="fill-opacity:0.22" />
<ellipse cx="235.000000" cy="109.949647" rx="16.666667" ry="0.033569" fill="rgb(255, 255, 255)" style="fill-opacity:1.00" />
<rect height="0.050353" width="25.000000" x="235.000000" y="109.924470" fill="rgb(255, 255, 255)" style="fill-opacity:1.00" />
<rect height="0.012588" width="25.000000" x="235.000000" y="109.962235" fill="rgb(255, 165, 0)" style="fill-opacity:0.22" />
<rect height="0.037765" width="6.250000" x="253.750000" y="109.962235" fill="rgb(255, 165, 0)" style="fill-opacity:0.22" />
<!-- End 'G' -->
<!-- Begin 'C' -->
<ellipse cx="235.000000" cy="169.644668" rx="25.000000" ry="49.644668" fill="rgb(0, 0, 128)" style="fill-opacity:0.09" />
<ellipse cx="235.000000" cy="169.644668" rx="16.666667" ry="33.096445" fill="rgb(255, 255, 255)" style="fill-opacity:1.00" />
<rect height="49.644668" width="25.000000" x="235.000000" y="144.822334" fill="rgb(255, 255, 255)" style="fill-opacity:1.00" />
<!-- End 'C' -->
<!-- Begin 'T' -->
<rect height="0.097608" width="50.000000" x="210.000000" y="219.289335" fill="rgb(0, 100, 0)" style="fill-opacity:0.09" />
<rect height="0.610050" width="10.000000" x="230.000000" y="219.289335" fill="rgb(0, 100, 0)" style="fill-opacity:0.09" />
<!-- End 'T' -->
<!-- Begin 'A' -->
<polygon points=" 210.000000, 219.999152, 231.000000, 219.899385, 239.000000, 219.899385, 260.000000, 219.999152, 252.500000, 219.999152, 246.250000, 219.974210, 223.750000, 219.974210, 217.500000, 219.999152" fill="rgb(178, 34, 34)" style="fill-opacity:0.09" />
<!-- End 'A' -->
<!-- Begin 'G' -->
<ellipse cx="235.000000" cy="219.999576" rx="25.000000" ry="0.000424" fill="rgb(255, 165, 0)" style="fill-opacity:0.09" />
<ellipse cx="235.000000" cy="219.999576" rx="16.666667" ry="0.000283" fill="rgb(255, 255, 255)" style="fill-opacity:1.00" />
<rect height="0.000424" width="25.000000" x="235.000000" y="219.999364" fill="rgb(255, 255, 255)" style="fill-opacity:1.00" />
<rect height="0.000106" width="25.000000" x="235.000000" y="219.999682" fill="rgb(255, 165, 0)" style="fill-opacity:0.09" />
<rect height="0.000318" width="6.250000" x="253.750000" y="219.999682" fill="rgb(255, 165, 0)" style="fill-opacity:0.09" />
<!-- End 'G' -->
<!-- Begin 'C' -->
<ellipse cx="235.000000" cy="267.119648" rx="25.000000" ry="37.119648" fill="rgb(0, 0, 128)" style="fill-opacity:0.42" />
<ellipse cx="235.000000" cy="267.119648" rx="16.666667" ry="24.746432" fill="rgb(255, 255, 255)" style="fill-opacity:1.00" />
<rect height="37.119648" width="25.000000" x="235.000000" y="248.559824" fill="rgb(255, 255, 255)" style="fill-opacity:1.00" />
<!-- End 'C' -->
<!-- Begin 'T' -->
<rect height="3.514929" width="50.000000" x="210.000000" y="304.239296" fill="rgb(0, 100, 0)" style="fill-opacity:0.42" />
<rect height="21.968304" width="10.000000" x="230.000000" y="304.239296" fill="rgb(0, 100, 0)" style="fill-opacity:0.42" />
<!-- End 'T' -->
<!-- Begin 'A' -->
<polygon points=" 210.000000, 329.829617, 231.000000, 326.207600, 239.000000, 326.207600, 260.000000, 329.829617, 252.500000, 329.829617, 246.250000, 328.924113, 223.750000, 328.924113, 217.500000, 329.829617" fill="rgb(178, 34, 34)" style="fill-opacity:0.42" />
<!-- End 'A' -->
<!-- Begin 'G' -->
<ellipse cx="235.000000" cy="329.914809" rx="25.000000" ry="0.085191" fill="rgb(255, 165, 0)" style="fill-opacity:0.42" />
<ellipse cx="235.000000" cy="329.914809" rx="16.666667" ry="0.056794" fill="rgb(255, 255, 255)" style="fill-opacity:1.00" />
<rect height="0.085191" width="25.000000" x="235.000000" y="329.872213" fill="rgb(255, 255, 255)" style="fill-opacity:1.00" />
<rect height="0.021298" width="25.000000" x="235.000000" y="329.936106" fill="rgb(255, 165, 0)" style="fill-opacity:0.42" />
<rect height="0.063894" width="6.250000" x="253.750000" y="329.936106" fill="rgb(255, 165, 0)" style="fill-opacity:0.42" />
<!-- End 'G' -->
<!-- Begin 'C' -->
<ellipse cx="235.000000" cy="389.532872" rx="25.000000" ry="49.532872" fill="rgb(0, 0, 128)" style="fill-opacity:0.27" />
<ellipse cx="235.000000" cy="389.532872" rx="16.666667" ry="33.021914" fill="rgb(255, 255, 255)" style="fill-opacity:1.00" />
<rect height="49.532872" width="25.000000" x="235.000000" y="364.766436" fill="rgb(255, 255, 255)" style="fill-opacity:1.00" />
<!-- End 'C' -->
<!-- Begin 'A' -->
<polygon points=" 210.000000, 439.885997, 231.000000, 439.065743, 239.000000, 439.065743, 260.000000, 439.885997, 252.500000, 439.885997, 246.250000, 439.680933, 223.750000, 439.680933, 217.500000, 439.885997" fill="rgb(178, 34, 34)" style="fill-opacity:0.27" />
<!-- End 'A' -->
<!-- Begin 'G' -->
<ellipse cx="235.000000" cy="439.928601" rx="25.000000" ry="0.042605" fill="rgb(255, 165, 0)" style="fill-opacity:0.27" />
<ellipse cx="235.000000" cy="439.928601" rx="16.666667" ry="0.028403" fill="rgb(255, 255, 255)" style="fill-opacity:1.00" />
<rect height="0.042605" width="25.000000" x="235.000000" y="439.907299" fill="rgb(255, 255, 255)" style="fill-opacity:1.00" />
<rect height="0.010651" width="25.000000" x="235.000000" y="439.939252" fill="rgb(255, 165, 0)" style="fill-opacity:0.27" />
<rect height="0.031953" width="6.250000" x="253.750000" y="439.939252" fill="rgb(255, 165, 0)" style="fill-opacity:0.27" />
<!-- End 'G' -->
<!-- Begin 'T' -->
<rect height="0.004607" width="50.000000" x="210.000000" y="439.971206" fill="rgb(0, 100, 0)" style="fill-opacity:0.27" />
<rect height="0.028794" width="10.000000" x="230.000000" y="439.971206" fill="rgb(0, 100, 0)" style="fill-opacity:0.27" />
<!-- End 'T' -->
<!-- Begin 'A' -->
<polygon points=" 270.000000, 92.042430, 291.000000, 10.000000, 299.000000, 10.000000, 320.000000, 92.042430, 312.500000, 92.042430, 306.250000, 71.531823, 283.750000, 71.531823, 277.500000, 92.042430" fill="rgb(178, 34, 34)" style="fill-opacity:0.04" />
<polygon points=" 295.000000, 26.408486, 287.000000, 58.225458, 302.000000, 58.225458" fill="rgb(255, 255, 255)" style="fill-opacity:1.00" />
<!-- End 'A' -->
<!-- Begin 'G' -->
<ellipse cx="295.000000" cy="100.115368" rx="25.000000" ry="8.072938" fill="rgb(255, 165, 0)" style="fill-opacity:0.04" />
<ellipse cx="295.000000" cy="100.115368" rx="16.666667" ry="5.381959" fill="rgb(255, 255, 255)" style="fill-opacity:1.00" />
<rect height="8.072938" width="25.000000" x="295.000000" y="96.078899" fill="rgb(255, 255, 255)" style="fill-opacity:1.00" />
<rect height="2.018235" width="25.000000" x="295.000000" y="102.133603" fill="rgb(255, 165, 0)" style="fill-opacity:0.04" />
<rect height="6.054704" width="6.250000" x="313.750000" y="102.133603" fill="rgb(255, 165, 0)" style="fill-opacity:0.04" />
<!-- End 'G' -->
<!-- Begin 'C' -->
<ellipse cx="295.000000" cy="109.091594" rx="25.000000" ry="0.903287" fill="rgb(0, 0, 128)" style="fill-opacity:0.04" />
<ellipse cx="295.000000" cy="109.091594" rx="16.666667" ry="0.602192" fill="rgb(255, 255, 255)" style="fill-opacity:1.00" />
<rect height="0.903287" width="25.000000" x="295.000000" y="108.639950" fill="rgb(255, 255, 255)" style="fill-opacity:1.00" />
<!-- End 'C' -->
<!-- Begin 'T' -->
<rect height="0.000819" width="50.000000" x="270.000000" y="109.994881" fill="rgb(0, 100, 0)" style="fill-opacity:0.04" />
<rect height="0.005119" width="10.000000" x="290.000000" y="109.994881" fill="rgb(0, 100, 0)" style="fill-opacity:0.04" />
<!-- End 'T' -->
<!-- Begin 'A' -->
<polygon points=" 270.000000, 204.960824, 291.000000, 120.000000, 299.000000, 120.000000, 320.000000, 204.960824, 312.500000, 204.960824, 306.250000, 183.720618, 283.750000, 183.720618, 277.500000, 204.960824" fill="rgb(178, 34, 34)" style="fill-opacity:0.85" />
<polygon points=" 295.000000, 136.992165, 287.000000, 169.976494, 302.000000, 169.976494" fill="rgb(255, 255, 255)" style="fill-opacity:1.00" />
<!-- End 'A' -->
<!-- Begin 'G' -->
<ellipse cx="295.000000" cy="208.254357" rx="25.000000" ry="3.293533" fill="rgb(255, 165, 0)" style="fill-opacity:0.85" />
<ellipse cx="295.000000" cy="208.254357" rx="16.666667" ry="2.195689" fill="rgb(255, 255, 255)" style="fill-opacity:1.00" />
<rect height="3.293533" width="25.000000" x="295.000000" y="206.607590" fill="rgb(255, 255, 255)" style="fill-opacity:1.00" />
<rect height="0.823383" width="25.000000" x="295.000000" y="209.077741" fill="rgb(255, 165, 0)" style="fill-opacity:0.85" />
<rect height="2.470150" width="6.250000" x="313.750000" y="209.077741" fill="rgb(255, 165, 0)" style="fill-opacity:0.85" />
<!-- End 'G' -->
<!-- Begin 'C' -->
<ellipse cx="295.000000" cy="214.003680" rx="25.000000" ry="2.455789" fill="rgb(0, 0, 128)" style="fill-opacity:0.85" />
<ellipse cx="295.000000" cy="214.003680" rx="16.666667" ry="1.637193" fill="rgb(255, 255, 255)" style="fill-opacity:1.00" />
<rect height="2.455789" width="25.000000" x="295.000000" y="212.775785" fill="rgb(255, 255, 255)" style="fill-opacity:1.00" />
<!-- End 'C' -->
<!-- Begin 'T' -->
<rect height="0.566485" width="50.000000" x="270.000000" y="216.459469" fill="rgb(0, 100, 0)" style="fill-opacity:0.85" />
<rect height="3.540531" width="10.000000" x="290.000000" y="216.459469" fill="rgb(0, 100, 0)" style="fill-opacity:0.85" />
<!-- End 'T' -->
<!-- Begin 'A' -->
<polygon points=" 270.000000, 288.901397, 291.000000, 230.000000, 299.000000, 230.000000, 320.000000, 288.901397, 312.500000, 288.901397, 306.250000, 274.176047, 283.750000, 274.176047, 277.500000, 288.901397" fill="rgb(178, 34, 34)" style="fill-opacity:0.00" />
<polygon points=" 295.000000, 241.780279, 287.000000, 264.340838, 302.000000, 264.340838" fill="rgb(255, 255, 255)" style="fill-opacity:1.00" />
<!-- End 'A' -->
<!-- Begin 'G' -->
<ellipse cx="295.000000" cy="308.053940" rx="25.000000" ry="19.152543" fill="rgb(255, 165, 0)" style="fill-opacity:0.00" />
<ellipse cx="295.000000" cy="308.053940" rx="16.666667" ry="12.768362" fill="rgb(255, 255, 255)" style="fill-opacity:1.00" />
<rect height="19.152543" width="25.000000" x="295.000000" y="298.477668" fill="rgb(255, 255, 255)" style="fill-opacity:1.00" />
<rect height="4.788136" width="25.000000" x="295.000000" y="312.842076" fill="rgb(255, 165, 0)" style="fill-opacity:0.00" />
<rect height="14.364407" width="6.250000" x="313.750000" y="312.842076" fill="rgb(255, 165, 0)" style="fill-opacity:0.00" />
<!-- End 'G' -->
<!-- Begin 'C' -->
<ellipse cx="295.000000" cy="328.602638" rx="25.000000" ry="1.396156" fill="rgb(0, 0, 128)" style="fill-opacity:0.00" />
<ellipse cx="295.000000" cy="328.602638" rx="16.666667" ry="0.930770" fill="rgb(255, 255, 255)" style="fill-opacity:1.00" />
<rect height="1.396156" width="25.000000" x="295.000000" y="327.904561" fill="rgb(255, 255, 255)" style="fill-opacity:1.00" />
<!-- End 'C' -->
<!-- Begin 'T' -->
<rect height="0.000193" width="50.000000" x="270.000000" y="329.998794" fill="rgb(0, 100, 0)" style="fill-opacity:0.00" />
<rect height="0.001206" width="10.000000" x="290.000000" y="329.998794" fill="rgb(0, 100, 0)" style="fill-opacity:0.00" />
<!-- End 'T' -->
<!-- Begin 'G' -->
<ellipse cx="295.000000" cy="387.758681" rx="25.000000" ry="47.758681" fill="rgb(255, 165, 0)" style="fill-opacity:0.11" />
<ellipse cx="295.000000" cy="387.758681" rx="16.666667" ry="31.839121" fill="rgb(255, 255, 255)" style="fill-opacity:1.00" />
<rect height="47.758681" width="25.000000" x="295.000000" y="363.879340" fill="rgb(255, 255, 255)" style="fill-opacity:1.00" />
<rect height="11.939670" width="25.000000" x="295.000000" y="399.698351" fill="rgb(255, 165, 0)" style="fill-opacity:0.11" />
<rect height="35.819011" width="6.250000" x="313.750000" y="399.698351" fill="rgb(255, 165, 0)" style="fill-opacity:0.11" />
<!-- End 'G' -->
<!-- Begin 'A' -->
<polygon points=" 270.000000, 439.973466, 291.000000, 435.517362, 299.000000, 435.517362, 320.000000, 439.973466, 312.500000, 439.973466, 306.250000, 438.859440, 283.750000, 438.859440, 277.500000, 439.973466" fill="rgb(178, 34, 34)" style="fill-opacity:0.11" />
<!-- End 'A' -->
<!-- Begin 'C' -->
<ellipse cx="295.000000" cy="439.986401" rx="25.000000" ry="0.012934" fill="rgb(0, 0, 128)" style="fill-opacity:0.11" />
<ellipse cx="295.000000" cy="439.986401" rx="16.666667" ry="0.008623" fill="rgb(255, 255, 255)" style="fill-opacity:1.00" />
<rect height="0.012934" width="25.000000" x="295.000000" y="439.979933" fill="rgb(255, 255, 255)" style="fill-opacity:1.00" />
<!-- End 'C' -->
<!-- Begin 'T' -->
<rect height="0.000106" width="50.000000" x="270.000000" y="439.999335" fill="rgb(0, 100, 0)" style="fill-opacity:0.11" />
<rect height="0.000665" width="10.000000" x="290.000000" y="439.999335" fill="rgb(0, 100, 0)" style="fill-opacity:0.11" />
<!-- End 'T' -->
<!-- Begin 'C' -->
<ellipse cx="355.000000" cy="47.168430" rx="25.000000" ry="37.168430" fill="rgb(0, 0, 128)" style="fill-opacity:0.76" />
<ellipse cx="355.000000" cy="47.168430" rx="16.666667" ry="24.778953" fill="rgb(255, 255, 255)" style="fill-opacity:1.00" />
<rect height="37.168430" width="25.000000" x="355.000000" y="28.584215" fill="rgb(255, 255, 255)" style="fill-opacity:1.00" />
<!-- End 'C' -->
<!-- Begin 'T' -->
<rect height="2.565241" width="50.000000" x="330.000000" y="84.336860" fill="rgb(0, 100, 0)" style="fill-opacity:0.76" />
<rect height="16.032757" width="10.000000" x="350.000000" y="84.336860" fill="rgb(0, 100, 0)" style="fill-opacity:0.76" />
<!-- End 'T' -->
<!-- Begin 'G' -->
<ellipse cx="355.000000" cy="105.158198" rx="25.000000" ry="4.788581" fill="rgb(255, 165, 0)" style="fill-opacity:0.76" />
<ellipse cx="355.000000" cy="105.158198" rx="16.666667" ry="3.192387" fill="rgb(255, 255, 255)" style="fill-opacity:1.00" />
<rect height="4.788581" width="25.000000" x="355.000000" y="102.763908" fill="rgb(255, 255, 255)" style="fill-opacity:1.00" />
<rect height="1.197145" width="25.000000" x="355.000000" y="106.355344" fill="rgb(255, 165, 0)" style="fill-opacity:0.76" />
<rect height="3.591436" width="6.250000" x="373.750000" y="106.355344" fill="rgb(255, 165, 0)" style="fill-opacity:0.76" />
<!-- End 'G' -->
<!-- Begin 'A' -->
<polygon points=" 330.000000, 110.000000, 351.000000, 109.946779, 359.000000, 109.946779, 380.000000, 110.000000, 372.500000, 110.000000, 366.250000, 109.986695, 343.750000, 109.986695, 337.500000, 110.000000" fill="rgb(178, 34, 34)" style="fill-opacity:0.76" />
<!-- End 'A' -->
<!-- Begin 'C' -->
<ellipse cx="355.000000" cy="166.805428" rx="25.000000" ry="46.805428" fill="rgb(0, 0, 128)" style="fill-opacity:0.04" />
<ellipse cx="355.000000" cy="166.805428" rx="16.666667" ry="31.203619" fill="rgb(255, 255, 255)" style="fill-opacity:1.00" />
<rect height="46.805428" width="25.000000" x="355.000000" y="143.402714" fill="rgb(255, 255, 255)" style="fill-opacity:1.00" />
<!-- End 'C' -->
<!-- Begin 'T' -->
<rect height="1.013043" width="50.000000" x="330.000000" y="213.610856" fill="rgb(0, 100, 0)" style="fill-opacity:0.04" />
<rect height="6.331518" width="10.000000" x="350.000000" y="213.610856" fill="rgb(0, 100, 0)" style="fill-opacity:0.04" />
<!-- End 'T' -->
<!-- Begin 'G' -->
<ellipse cx="355.000000" cy="219.966478" rx="25.000000" ry="0.024104" fill="rgb(255, 165, 0)" style="fill-opacity:0.04" />
<ellipse cx="355.000000" cy="219.966478" rx="16.666667" ry="0.016069" fill="rgb(255, 255, 255)" style="fill-opacity:1.00" />
<rect height="0.024104" width="25.000000" x="355.000000" y="219.954426" fill="rgb(255, 255, 255)" style="fill-opacity:1.00" />
<rect height="0.006026" width="25.000000" x="355.000000" y="219.972503" fill="rgb(255, 165, 0)" style="fill-opacity:0.04" />
<rect height="0.018078" width="6.250000" x="373.750000" y="219.972503" fill="rgb(255, 165, 0)" style="fill-opacity:0.04" />
<!-- End 'G' -->
<!-- Begin 'A' -->
<polygon points=" 330.000000, 220.000000, 351.000000, 219.990581, 359.000000, 219.990581, 380.000000, 220.000000, 372.500000, 220.000000, 366.250000, 219.997645, 343.750000, 219.997645, 337.500000, 220.000000" fill="rgb(178, 34, 34)" style="fill-opacity:0.04" />
<!-- End 'A' -->
<!-- Begin 'T' -->
<rect height="9.615864" width="50.000000" x="330.000000" y="230.000000" fill="rgb(0, 100, 0)" style="fill-opacity:0.16" />
<rect height="60.099147" width="10.000000" x="350.000000" y="230.000000" fill="rgb(0, 100, 0)" style="fill-opacity:0.16" />
<!-- End 'T' -->
<!-- Begin 'C' -->
<ellipse cx="355.000000" cy="309.979289" rx="25.000000" ry="19.880142" fill="rgb(0, 0, 128)" style="fill-opacity:0.16" />
<ellipse cx="355.000000" cy="309.979289" rx="16.666667" ry="13.253428" fill="rgb(255, 255, 255)" style="fill-opacity:1.00" />
<rect height="19.880142" width="25.000000" x="355.000000" y="300.039218" fill="rgb(255, 255, 255)" style="fill-opacity:1.00" />
<!-- End 'C' -->
<!-- Begin 'G' -->
<ellipse cx="355.000000" cy="329.928262" rx="25.000000" ry="0.068831" fill="rgb(255, 165, 0)" style="fill-opacity:0.16" />
<ellipse cx="355.000000" cy="329.928262" rx="16.666667" ry="0.045887" fill="rgb(255, 255, 255)" style="fill-opacity:1.00" />
<rect height="0.068831" width="25.000000" x="355.000000" y="329.893846" fill="rgb(255, 255, 255)" style="fill-opacity:1.00" />
<rect height="0.017208" width="25.000000" x="355.000000" y="329.945469" fill="rgb(255, 165, 0)" style="fill-opacity:0.16" />
<rect height="0.051623" width="6.250000" x="373.750000" y="329.945469" fill="rgb(255, 165, 0)" style="fill-opacity:0.16" />
<!-- End 'G' -->
<!-- Begin 'A' -->
<polygon points=" 330.000000, 330.000000, 351.000000, 329.997092, 359.000000, 329.997092, 380.000000, 330.000000, 372.500000, 330.000000, 366.250000, 329.999273, 343.750000, 329.999273, 337.500000, 330.000000" fill="rgb(178, 34, 34)" style="fill-opacity:0.16" />
<!-- End 'A' -->
<!-- Begin 'C' -->
<ellipse cx="355.000000" cy="389.886309" rx="25.000000" ry="49.886309" fill="rgb(0, 0, 128)" style="fill-opacity:0.03" />
<ellipse cx="355.000000" cy="389.886309" rx="16.666667" ry="33.257539" fill="rgb(255, 255, 255)" style="fill-opacity:1.00" />
<rect height="49.886309" width="25.000000" x="355.000000" y="364.943154" fill="rgb(255, 255, 255)" style="fill-opacity:1.00" />
<!-- End 'C' -->
<!-- Begin 'T' -->
<rect height="0.023599" width="50.000000" x="330.000000" y="439.772617" fill="rgb(0, 100, 0)" style="fill-opacity:0.03" />
<rect height="0.147491" width="10.000000" x="350.000000" y="439.772617" fill="rgb(0, 100, 0)" style="fill-opacity:0.03" />
<!-- End 'T' -->
<!-- Begin 'G' -->
<ellipse cx="355.000000" cy="439.957542" rx="25.000000" ry="0.037433" fill="rgb(255, 165, 0)" style="fill-opacity:0.03" />
<ellipse cx="355.000000" cy="439.957542" rx="16.666667" ry="0.024956" fill="rgb(255, 255, 255)" style="fill-opacity:1.00" />
<rect height="0.037433" width="25.000000" x="355.000000" y="439.938825" fill="rgb(255, 255, 255)" style="fill-opacity:1.00" />
<rect height="0.009358" width="25.000000" x="355.000000" y="439.966900" fill="rgb(255, 165, 0)" style="fill-opacity:0.03" />
<rect height="0.028075" width="6.250000" x="373.750000" y="439.966900" fill="rgb(255, 165, 0)" style="fill-opacity:0.03" />
<!-- End 'G' -->
<!-- Begin 'A' -->
<polygon points=" 330.000000, 440.000000, 351.000000, 439.994975, 359.000000, 439.994975, 380.000000, 440.000000, 372.500000, 440.000000, 366.250000, 439.998744, 343.750000, 439.998744, 337.500000, 440.000000" fill="rgb(178, 34, 34)" style="fill-opacity:0.03" />
<!-- End 'A' -->
<!-- Begin 'A' -->
<polygon points=" 390.000000, 74.385521, 411.000000, 10.000000, 419.000000, 10.000000, 440.000000, 74.385521, 432.500000, 74.385521, 426.250000, 58.289141, 403.750000, 58.289141, 397.500000, 74.385521" fill="rgb(178, 34, 34)" style="fill-opacity:0.00" />
<polygon points=" 415.000000, 22.877104, 407.000000, 47.631313, 422.000000, 47.631313" fill="rgb(255, 255, 255)" style="fill-opacity:1.00" />
<!-- End 'A' -->
<!-- Begin 'G' -->
<ellipse cx="415.000000" cy="92.191174" rx="25.000000" ry="17.805653" fill="rgb(255, 165, 0)" style="fill-opacity:0.00" />
<ellipse cx="415.000000" cy="92.191174" rx="16.666667" ry="11.870435" fill="rgb(255, 255, 255)" style="fill-opacity:1.00" />
<rect height="17.805653" width="25.000000" x="415.000000" y="83.288348" fill="rgb(255, 255, 255)" style="fill-opacity:1.00" />
<rect height="4.451413" width="25.000000" x="415.000000" y="96.642587" fill="rgb(255, 165, 0)" style="fill-opacity:0.00" />
<rect height="13.354240" width="6.250000" x="433.750000" y="96.642587" fill="rgb(255, 165, 0)" style="fill-opacity:0.00" />
<!-- End 'G' -->
<!-- Begin 'C' -->
<ellipse cx="415.000000" cy="109.998413" rx="25.000000" ry="0.001587" fill="rgb(0, 0, 128)" style="fill-opacity:0.00" />
<ellipse cx="415.000000" cy="109.998413" rx="16.666667" ry="0.001058" fill="rgb(255, 255, 255)" style="fill-opacity:1.00" />
<rect height="0.001587" width="25.000000" x="415.000000" y="109.997620" fill="rgb(255, 255, 255)" style="fill-opacity:1.00" />
<!-- End 'C' -->
<!-- Begin 'T' -->
<rect height="0.000000" width="50.000000" x="390.000000" y="110.000000" fill="rgb(0, 100, 0)" style="fill-opacity:0.00" />
<rect height="0.000000" width="10.000000" x="410.000000" y="110.000000" fill="rgb(0, 100, 0)" style="fill-opacity:0.00" />
<!-- End 'T' -->
<!-- Begin 'G' -->
<ellipse cx="415.000000" cy="151.392048" rx="25.000000" ry="31.392048" fill="rgb(255, 165, 0)" style="fill-opacity:0.70" />
<ellipse cx="415.000000" cy="151.392048" rx="16.666667" ry="20.928032" fill="rgb(255, 255, 255)" style="fill-opacity:1.00" />
<rect height="31.392048" width="25.000000" x="415.000000" y="135.696024" fill="rgb(255, 255, 255)" style="fill-opacity:1.00" />
<rect height="7.848012" width="25.000000" x="415.000000" y="159.240060" fill="rgb(255, 165, 0)" style="fill-opacity:0.70" />
<rect height="23.544036" width="6.250000" x="433.750000" y="159.240060" fill="rgb(255, 165, 0)" style="fill-opacity:0.70" />
<!-- End 'G' -->
<!-- Begin 'A' -->
<polygon points=" 390.000000, 212.617322, 411.000000, 182.784097, 419.000000, 182.784097, 440.000000, 212.617322, 432.500000, 212.617322, 426.250000, 205.159016, 403.750000, 205.159016, 397.500000, 212.617322" fill="rgb(178, 34, 34)" style="fill-opacity:0.70" />
<polygon points=" 415.000000, 188.750742, 407.000000, 199.684032, 422.000000, 199.684032" fill="rgb(255, 255, 255)" style="fill-opacity:1.00" />
<!-- End 'A' -->
<!-- Begin 'C' -->
<ellipse cx="415.000000" cy="216.306690" rx="25.000000" ry="3.689368" fill="rgb(0, 0, 128)" style="fill-opacity:0.70" />
<ellipse cx="415.000000" cy="216.306690" rx="16.666667" ry="2.459579" fill="rgb(255, 255, 255)" style="fill-opacity:1.00" />
<rect height="3.689368" width="25.000000" x="415.000000" y="214.462006" fill="rgb(255, 255, 255)" style="fill-opacity:1.00" />
<!-- End 'C' -->
<!-- Begin 'T' -->
<rect height="0.000631" width="50.000000" x="390.000000" y="219.996058" fill="rgb(0, 100, 0)" style="fill-opacity:0.70" />
<rect height="0.003942" width="10.000000" x="410.000000" y="219.996058" fill="rgb(0, 100, 0)" style="fill-opacity:0.70" />
<!-- End 'T' -->
<!-- Begin 'G' -->
<ellipse cx="415.000000" cy="263.054168" rx="25.000000" ry="33.054168" fill="rgb(255, 165, 0)" style="fill-opacity:0.07" />
<ellipse cx="415.000000" cy="263.054168" rx="16.666667" ry="22.036112" fill="rgb(255, 255, 255)" style="fill-opacity:1.00" />
<rect height="33.054168" width="25.000000" x="415.000000" y="246.527084" fill="rgb(255, 255, 255)" style="fill-opacity:1.00" />
<rect height="8.263542" width="25.000000" x="415.000000" y="271.317710" fill="rgb(255, 165, 0)" style="fill-opacity:0.07" />
<rect height="24.790626" width="6.250000" x="433.750000" y="271.317710" fill="rgb(255, 165, 0)" style="fill-opacity:0.07" />
<!-- End 'G' -->
<!-- Begin 'C' -->
<ellipse cx="415.000000" cy="312.733644" rx="25.000000" ry="16.625307" fill="rgb(0, 0, 128)" style="fill-opacity:0.07" />
<ellipse cx="415.000000" cy="312.733644" rx="16.666667" ry="11.083538" fill="rgb(255, 255, 255)" style="fill-opacity:1.00" />
<rect height="16.625307" width="25.000000" x="415.000000" y="304.420990" fill="rgb(255, 255, 255)" style="fill-opacity:1.00" />
<!-- End 'C' -->
<!-- Begin 'A' -->
<polygon points=" 390.000000, 330.000000, 411.000000, 329.358951, 419.000000, 329.358951, 440.000000, 330.000000, 432.500000, 330.000000, 426.250000, 329.839738, 403.750000, 329.839738, 397.500000, 330.000000" fill="rgb(178, 34, 34)" style="fill-opacity:0.07" />
<!-- End 'A' -->
<!-- Begin 'T' -->
<rect height="0.000000" width="50.000000" x="390.000000" y="330.000000" fill="rgb(0, 100, 0)" style="fill-opacity:0.07" />
<rect height="0.000000" width="10.000000" x="410.000000" y="330.000000" fill="rgb(0, 100, 0)" style="fill-opacity:0.07" />
<!-- End 'T' -->
<!-- Begin 'G' -->
<ellipse cx="415.000000" cy="384.385881" rx="25.000000" ry="44.385881" fill="rgb(255, 165, 0)" style="fill-opacity:0.22" />
<ellipse cx="415.000000" cy="384.385881" rx="16.666667" ry="29.590587" fill="rgb(255, 255, 255)" style="fill-opacity:1.00" />
<rect height="44.385881" width="25.000000" x="415.000000" y="362.192941" fill="rgb(255, 255, 255)" style="fill-opacity:1.00" />
<rect height="11.096470" width="25.000000" x="415.000000" y="395.482351" fill="rgb(255, 165, 0)" style="fill-opacity:0.22" />
<rect height="33.289411" width="6.250000" x="433.750000" y="395.482351" fill="rgb(255, 165, 0)" style="fill-opacity:0.22" />
<!-- End 'G' -->
<!-- Begin 'A' -->
<polygon points=" 390.000000, 438.716256, 411.000000, 428.771762, 419.000000, 428.771762, 440.000000, 438.716256, 432.500000, 438.716256, 426.250000, 436.230132, 403.750000, 436.230132, 397.500000, 438.716256" fill="rgb(178, 34, 34)" style="fill-opacity:0.22" />
<polygon points=" 415.000000, 430.760661, 407.000000, 433.738458, 422.000000, 433.738458" fill="rgb(255, 255, 255)" style="fill-opacity:1.00" />
<!-- End 'A' -->
<!-- Begin 'C' -->
<ellipse cx="415.000000" cy="439.355765" rx="25.000000" ry="0.639509" fill="rgb(0, 0, 128)" style="fill-opacity:0.22" />
<ellipse cx="415.000000" cy="439.355765" rx="16.666667" ry="0.426339" fill="rgb(255, 255, 255)" style="fill-opacity:1.00" />
<rect height="0.639509" width="25.000000" x="415.000000" y="439.036010" fill="rgb(255, 255, 255)" style="fill-opacity:1.00" />
<!-- End 'C' -->
<!-- Begin 'T' -->
<rect height="0.000756" width="50.000000" x="390.000000" y="439.995274" fill="rgb(0, 100, 0)" style="fill-opacity:0.22" />
<rect height="0.004726" width="10.000000" x="410.000000" y="439.995274" fill="rgb(0, 100, 0)" style="fill-opacity:0.22" />
<!-- End 'T' -->
<!-- Begin 'T' -->
<rect height="8.520281" width="50.000000" x="450.000000" y="10.000000" fill="rgb(0, 100, 0)" style="fill-opacity:0.23" />
<rect height="53.251754" width="10.000000" x="470.000000" y="10.000000" fill="rgb(0, 100, 0)" style="fill-opacity:0.23" />
<!-- End 'T' -->
<!-- Begin 'C' -->
<ellipse cx="475.000000" cy="85.401102" rx="25.000000" ry="22.149349" fill="rgb(0, 0, 128)" style="fill-opacity:0.23" />
<ellipse cx="475.000000" cy="85.401102" rx="16.666667" ry="14.766232" fill="rgb(255, 255, 255)" style="fill-opacity:1.00" />
<rect height="22.149349" width="25.000000" x="475.000000" y="74.326428" fill="rgb(255, 255, 255)" style="fill-opacity:1.00" />
<!-- End 'C' -->
<!-- Begin 'G' -->
<ellipse cx="475.000000" cy="108.700104" rx="25.000000" ry="1.149653" fill="rgb(255, 165, 0)" style="fill-opacity:0.23" />
<ellipse cx="475.000000" cy="108.700104" rx="16.666667" ry="0.766435" fill="rgb(255, 255, 255)" style="fill-opacity:1.00" />
<rect height="1.149653" width="25.000000" x="475.000000" y="108.125278" fill="rgb(255, 255, 255)" style="fill-opacity:1.00" />
<rect height="0.287413" width="25.000000" x="475.000000" y="108.987517" fill="rgb(255, 165, 0)" style="fill-opacity:0.23" />
<rect height="0.862240" width="6.250000" x="493.750000" y="108.987517" fill="rgb(255, 165, 0)" style="fill-opacity:0.23" />
<!-- End 'G' -->
<!-- Begin 'A' -->
<polygon points=" 450.000000, 110.000000, 471.000000, 109.849757, 479.000000, 109.849757, 500.000000, 110.000000, 492.500000, 110.000000, 486.250000, 109.962439, 463.750000, 109.962439, 457.500000, 110.000000" fill="rgb(178, 34, 34)" style="fill-opacity:0.23" />
<!-- End 'A' -->
<!-- Begin 'T' -->
<rect height="15.060757" width="50.000000" x="450.000000" y="120.000000" fill="rgb(0, 100, 0)" style="fill-opacity:0.08" />
<rect height="94.129729" width="10.000000" x="470.000000" y="120.000000" fill="rgb(0, 100, 0)" style="fill-opacity:0.08" />
<!-- End 'T' -->
<!-- Begin 'C' -->
<ellipse cx="475.000000" cy="216.705487" rx="25.000000" ry="2.575758" fill="rgb(0, 0, 128)" style="fill-opacity:0.08" />
<ellipse cx="475.000000" cy="216.705487" rx="16.666667" ry="1.717172" fill="rgb(255, 255, 255)" style="fill-opacity:1.00" />
<rect height="2.575758" width="25.000000" x="475.000000" y="215.417608" fill="rgb(255, 255, 255)" style="fill-opacity:1.00" />
<!-- End 'C' -->
<!-- Begin 'A' -->
<polygon points=" 450.000000, 219.837972, 471.000000, 219.281245, 479.000000, 219.281245, 500.000000, 219.837972, 492.500000, 219.837972, 486.250000, 219.698790, 463.750000, 219.698790, 457.500000, 219.837972" fill="rgb(178, 34, 34)" style="fill-opacity:0.08" />
<!-- End 'A' -->
<!-- Begin 'G' -->
<ellipse cx="475.000000" cy="219.918986" rx="25.000000" ry="0.081014" fill="rgb(255, 165, 0)" style="fill-opacity:0.08" />
<ellipse cx="475.000000" cy="219.918986" rx="16.666667" ry="0.054009" fill="rgb(255, 255, 255)" style="fill-opacity:1.00" />
<rect height="0.081014" width="25.000000" x="475.000000" y="219.878479" fill="rgb(255, 255, 255)" style="fill-opacity:1.00" />
<rect height="0.020254" width="25.000000" x="475.000000" y="219.939239" fill="rgb(255, 165, 0)" style="fill-opacity:0.08" />
<rect height="0.060761" width="6.250000" x="493.750000" y="219.939239" fill="rgb(255, 165, 0)" style="fill-opacity:0.08" />
<!-- End 'G' -->
<!-- Begin 'T' -->
<rect height="12.873338" width="50.000000" x="450.000000" y="230.000000" fill="rgb(0, 100, 0)" style="fill-opacity:0.69" />
<rect height="80.458361" width="10.000000" x="470.000000" y="230.000000" fill="rgb(0, 100, 0)" style="fill-opacity:0.69" />
<!-- End 'T' -->
<!-- Begin 'C' -->
<ellipse cx="475.000000" cy="315.285824" rx="25.000000" ry="4.827464" fill="rgb(0, 0, 128)" style="fill-opacity:0.69" />
<ellipse cx="475.000000" cy="315.285824" rx="16.666667" ry="3.218309" fill="rgb(255, 255, 255)" style="fill-opacity:1.00" />
<rect height="4.827464" width="25.000000" x="475.000000" y="312.872093" fill="rgb(255, 255, 255)" style="fill-opacity:1.00" />
<!-- End 'C' -->
<!-- Begin 'G' -->
<ellipse cx="475.000000" cy="323.022021" rx="25.000000" ry="2.908733" fill="rgb(255, 165, 0)" style="fill-opacity:0.69" />
<ellipse cx="475.000000" cy="323.022021" rx="16.666667" ry="1.939155" fill="rgb(255, 255, 255)" style="fill-opacity:1.00" />
<rect height="2.908733" width="25.000000" x="475.000000" y="321.567655" fill="rgb(255, 255, 255)" style="fill-opacity:1.00" />
<rect height="0.727183" width="25.000000" x="475.000000" y="323.749204" fill="rgb(255, 165, 0)" style="fill-opacity:0.69" />
<rect height="2.181550" width="6.250000" x="493.750000" y="323.749204" fill="rgb(255, 165, 0)" style="fill-opacity:0.69" />
<!-- End 'G' -->
<!-- Begin 'A' -->
<polygon points=" 450.000000, 330.000000, 471.000000, 325.930754, 479.000000, 325.930754, 500.000000, 330.000000, 492.500000, 330.000000, 486.250000, 328.982689, 463.750000, 328.982689, 457.500000, 330.000000" fill="rgb(178, 34, 34)" style="fill-opacity:0.69" />
<!-- End 'A' -->
<!-- Begin 'T' -->
<rect height="15.042713" width="50.000000" x="450.000000" y="340.000000" fill="rgb(0, 100, 0)" style="fill-opacity:0.00" />
<rect height="94.016958" width="10.000000" x="470.000000" y="340.000000" fill="rgb(0, 100, 0)" style="fill-opacity:0.00" />
<!-- End 'T' -->
<!-- Begin 'C' -->
<ellipse cx="475.000000" cy="436.405208" rx="25.000000" ry="2.388250" fill="rgb(0, 0, 128)" style="fill-opacity:0.00" />
<ellipse cx="475.000000" cy="436.405208" rx="16.666667" ry="1.592167" fill="rgb(255, 255, 255)" style="fill-opacity:1.00" />
<rect height="2.388250" width="25.000000" x="475.000000" y="435.211083" fill="rgb(255, 255, 255)" style="fill-opacity:1.00" />
<!-- End 'C' -->
<!-- Begin 'G' -->
<ellipse cx="475.000000" cy="439.325470" rx="25.000000" ry="0.532012" fill="rgb(255, 165, 0)" style="fill-opacity:0.00" />
<ellipse cx="475.000000" cy="439.325470" rx="16.666667" ry="0.354675" fill="rgb(255, 255, 255)" style="fill-opacity:1.00" />
<rect height="0.532012" width="25.000000" x="475.000000" y="439.059464" fill="rgb(255, 255, 255)" style="fill-opacity:1.00" />
<rect height="0.133003" width="25.000000" x="475.000000" y="439.458473" fill="rgb(255, 165, 0)" style="fill-opacity:0.00" />
<rect height="0.399009" width="6.250000" x="493.750000" y="439.458473" fill="rgb(255, 165, 0)" style="fill-opacity:0.00" />
<!-- End 'G' -->
<!-- Begin 'A' -->
<polygon points=" 450.000000, 440.000000, 471.000000, 439.857482, 479.000000, 439.857482, 500.000000, 440.000000, 492.500000, 440.000000, 486.250000, 439.964370, 463.750000, 439.964370, 457.500000, 440.000000" fill="rgb(178, 34, 34)" style="fill-opacity:0.00" />
<!-- End 'A' -->
<!-- Begin 'G' -->
<ellipse cx="535.000000" cy="59.995772" rx="25.000000" ry="49.995772" fill="rgb(255, 165, 0)" style="fill-opacity:0.03" />
<ellipse cx="535.000000" cy="59.995772" rx="16.666667" ry="33.330515" fill="rgb(255, 255, 255)" style="fill-opacity:1.00" />
<rect height="49.995772" width="25.000000" x="535.000000" y="34.997886" fill="rgb(255, 255, 255)" style="fill-opacity:1.00" />
<rect height="12.498943" width="25.000000" x="535.000000" y="72.494715" fill="rgb(255, 165, 0)" style="fill-opacity:0.03" />
<rect height="37.496829" width="6.250000" x="553.750000" y="72.494715" fill="rgb(255, 165, 0)" style="fill-opacity:0.03" />
<!-- End 'G' -->
<!-- Begin 'T' -->
<rect height="0.001073" width="50.000000" x="510.000000" y="109.991544" fill="rgb(0, 100, 0)" style="fill-opacity:0.03" />
<rect height="0.006708" width="10.000000" x="530.000000" y="109.991544" fill="rgb(0, 100, 0)" style="fill-opacity:0.03" />
<!-- End 'T' -->
<!-- Begin 'C' -->
<ellipse cx="535.000000" cy="109.998987" rx="25.000000" ry="0.000736" fill="rgb(0, 0, 128)" style="fill-opacity:0.03" />
<ellipse cx="535.000000" cy="109.998987" rx="16.666667" ry="0.000491" fill="rgb(255, 255, 255)" style="fill-opacity:1.00" />
<rect height="0.000736" width="25.000000" x="535.000000" y="109.998619" fill="rgb(255, 255, 255)" style="fill-opacity:1.00" />
<!-- End 'C' -->
<!-- Begin 'A' -->
<polygon points=" 510.000000, 110.000000, 531.000000, 109.999723, 539.000000, 109.999723, 560.000000, 110.000000, 552.500000, 110.000000, 546.250000, 109.999931, 523.750000, 109.999931, 517.500000, 110.000000" fill="rgb(178, 34, 34)" style="fill-opacity:0.03" />
<!-- End 'A' -->
<!-- Begin 'A' -->
<polygon points=" 510.000000, 177.165819, 531.000000, 120.000000, 539.000000, 120.000000, 560.000000, 177.165819, 552.500000, 177.165819, 546.250000, 162.874364, 523.750000, 162.874364, 517.500000, 177.165819" fill="rgb(178, 34, 34)" style="fill-opacity:0.17" />
<polygon points=" 535.000000, 131.433164, 527.000000, 153.299491, 542.000000, 153.299491" fill="rgb(255, 255, 255)" style="fill-opacity:1.00" />
<!-- End 'A' -->
<!-- Begin 'G' -->
<ellipse cx="535.000000" cy="191.738750" rx="25.000000" ry="14.572931" fill="rgb(255, 165, 0)" style="fill-opacity:0.17" />
<ellipse cx="535.000000" cy="191.738750" rx="16.666667" ry="9.715287" fill="rgb(255, 255, 255)" style="fill-opacity:1.00" />
<rect height="14.572931" width="25.000000" x="535.000000" y="184.452284" fill="rgb(255, 255, 255)" style="fill-opacity:1.00" />
<rect height="3.643233" width="25.000000" x="535.000000" y="195.381982" fill="rgb(255, 165, 0)" style="fill-opacity:0.17" />
<rect height="10.929698" width="6.250000" x="553.750000" y="195.381982" fill="rgb(255, 165, 0)" style="fill-opacity:0.17" />
<!-- End 'G' -->
<!-- Begin 'T' -->
<rect height="1.426338" width="50.000000" x="510.000000" y="206.311680" fill="rgb(0, 100, 0)" style="fill-opacity:0.17" />
<rect height="8.914614" width="10.000000" x="530.000000" y="206.311680" fill="rgb(0, 100, 0)" style="fill-opacity:0.17" />
<!-- End 'T' -->
<!-- Begin 'C' -->
<ellipse cx="535.000000" cy="217.613147" rx="25.000000" ry="2.386853" fill="rgb(0, 0, 128)" style="fill-opacity:0.17" />
<ellipse cx="535.000000" cy="217.613147" rx="16.666667" ry="1.591235" fill="rgb(255, 255, 255)" style="fill-opacity:1.00" />
<rect height="2.386853" width="25.000000" x="535.000000" y="216.419721" fill="rgb(255, 255, 255)" style="fill-opacity:1.00" />
<!-- End 'C' -->
<!-- Begin 'G' -->
<ellipse cx="535.000000" cy="277.797752" rx="25.000000" ry="47.797752" fill="rgb(255, 165, 0)" style="fill-opacity:0.05" />
<ellipse cx="535.000000" cy="277.797752" rx="16.666667" ry="31.865168" fill="rgb(255, 255, 255)" style="fill-opacity:1.00" />
<rect height="47.797752" width="25.000000" x="535.000000" y="253.898876" fill="rgb(255, 255, 255)" style="fill-opacity:1.00" />
<rect height="11.949438" width="25.000000" x="535.000000" y="289.747189" fill="rgb(255, 165, 0)" style="fill-opacity:0.05" />
<rect height="35.848314" width="6.250000" x="553.750000" y="289.747189" fill="rgb(255, 165, 0)" style="fill-opacity:0.05" />
<!-- End 'G' -->
<!-- Begin 'T' -->
<rect height="0.647461" width="50.000000" x="510.000000" y="325.595503" fill="rgb(0, 100, 0)" style="fill-opacity:0.05" />
<rect height="4.046630" width="10.000000" x="530.000000" y="325.595503" fill="rgb(0, 100, 0)" style="fill-opacity:0.05" />
<!-- End 'T' -->
<!-- Begin 'C' -->
<ellipse cx="535.000000" cy="329.813557" rx="25.000000" ry="0.171424" fill="rgb(0, 0, 128)" style="fill-opacity:0.05" />
<ellipse cx="535.000000" cy="329.813557" rx="16.666667" ry="0.114282" fill="rgb(255, 255, 255)" style="fill-opacity:1.00" />
<rect height="0.171424" width="25.000000" x="535.000000" y="329.727845" fill="rgb(255, 255, 255)" style="fill-opacity:1.00" />
<!-- End 'C' -->
<!-- Begin 'A' -->
<polygon points=" 510.000000, 330.000000, 531.000000, 329.984980, 539.000000, 329.984980, 560.000000, 330.000000, 552.500000, 330.000000, 546.250000, 329.996245, 523.750000, 329.996245, 517.500000, 330.000000" fill="rgb(178, 34, 34)" style="fill-opacity:0.05" />
<!-- End 'A' -->
<!-- Begin 'G' -->
<ellipse cx="535.000000" cy="387.111350" rx="25.000000" ry="47.111350" fill="rgb(255, 165, 0)" style="fill-opacity:0.75" />
<ellipse cx="535.000000" cy="387.111350" rx="16.666667" ry="31.407567" fill="rgb(255, 255, 255)" style="fill-opacity:1.00" />
<rect height="47.111350" width="25.000000" x="535.000000" y="363.555675" fill="rgb(255, 255, 255)" style="fill-opacity:1.00" />
<rect height="11.777838" width="25.000000" x="535.000000" y="398.889188" fill="rgb(255, 165, 0)" style="fill-opacity:0.75" />
<rect height="35.333513" width="6.250000" x="553.750000" y="398.889188" fill="rgb(255, 165, 0)" style="fill-opacity:0.75" />
<!-- End 'G' -->
<!-- Begin 'T' -->
<rect height="0.782710" width="50.000000" x="510.000000" y="434.222700" fill="rgb(0, 100, 0)" style="fill-opacity:0.75" />
<rect height="4.891940" width="10.000000" x="530.000000" y="434.222700" fill="rgb(0, 100, 0)" style="fill-opacity:0.75" />
<!-- End 'T' -->
<!-- Begin 'A' -->
<polygon points=" 510.000000, 439.570168, 531.000000, 439.114640, 539.000000, 439.114640, 560.000000, 439.570168, 552.500000, 439.570168, 546.250000, 439.456286, 523.750000, 439.456286, 517.500000, 439.570168" fill="rgb(178, 34, 34)" style="fill-opacity:0.75" />
<!-- End 'A' -->
<!-- Begin 'C' -->
<ellipse cx="535.000000" cy="439.785084" rx="25.000000" ry="0.214916" fill="rgb(0, 0, 128)" style="fill-opacity:0.75" />
<ellipse cx="535.000000" cy="439.785084" rx="16.666667" ry="0.143277" fill="rgb(255, 255, 255)" style="fill-opacity:1.00" />
<rect height="0.214916" width="25.000000" x="535.000000" y="439.677626" fill="rgb(255, 255, 255)" style="fill-opacity:1.00" />
<!-- End 'C' -->
<!-- Begin 'C' -->
<ellipse cx="595.000000" cy="57.743090" rx="25.000000" ry="47.743090" fill="rgb(0, 0, 128)" style="fill-opacity:0.10" />
<ellipse cx="595.000000" cy="57.743090" rx="16.666667" ry="31.828727" fill="rgb(255, 255, 255)" style="fill-opacity:1.00" />
<rect height="47.743090" width="25.000000" x="595.000000" y="33.871545" fill="rgb(255, 255, 255)" style="fill-opacity:1.00" />
<!-- End 'C' -->
<!-- Begin 'T' -->
<rect height="0.673845" width="50.000000" x="570.000000" y="105.486180" fill="rgb(0, 100, 0)" style="fill-opacity:0.10" />
<rect height="4.211530" width="10.000000" x="590.000000" y="105.486180" fill="rgb(0, 100, 0)" style="fill-opacity:0.10" />
<!-- End 'T' -->
<!-- Begin 'G' -->
<ellipse cx="595.000000" cy="109.846510" rx="25.000000" ry="0.148800" fill="rgb(255, 165, 0)" style="fill-opacity:0.10" />
<ellipse cx="595.000000" cy="109.846510" rx="16.666667" ry="0.099200" fill="rgb(255, 255, 255)" style="fill-opacity:1.00" />
<rect height="0.148800" width="25.000000" x="595.000000" y="109.772110" fill="rgb(255, 255, 255)" style="fill-opacity:1.00" />
<rect height="0.037200" width="25.000000" x="595.000000" y="109.883710" fill="rgb(255, 165, 0)" style="fill-opacity:0.10" />
<rect height="0.111600" width="6.250000" x="613.750000" y="109.883710" fill="rgb(255, 165, 0)" style="fill-opacity:0.10" />
<!-- End 'G' -->
<!-- Begin 'A' -->
<polygon points=" 570.000000, 110.000000, 591.000000, 109.995310, 599.000000, 109.995310, 620.000000, 110.000000, 612.500000, 110.000000, 606.250000, 109.998828, 583.750000, 109.998828, 577.500000, 110.000000" fill="rgb(178, 34, 34)" style="fill-opacity:0.10" />
<!-- End 'A' -->
<!-- Begin 'C' -->
<ellipse cx="595.000000" cy="151.246581" rx="25.000000" ry="31.246581" fill="rgb(0, 0, 128)" style="fill-opacity:0.01" />
<ellipse cx="595.000000" cy="151.246581" rx="16.666667" ry="20.831054" fill="rgb(255, 255, 255)" style="fill-opacity:1.00" />
<rect height="31.246581" width="25.000000" x="595.000000" y="135.623291" fill="rgb(255, 255, 255)" style="fill-opacity:1.00" />
<!-- End 'C' -->
<!-- Begin 'A' -->
<polygon points=" 570.000000, 203.172979, 591.000000, 182.493162, 599.000000, 182.493162, 620.000000, 203.172979, 612.500000, 203.172979, 606.250000, 198.003024, 583.750000, 198.003024, 577.500000, 203.172979" fill="rgb(178, 34, 34)" style="fill-opacity:0.01" />
<polygon points=" 595.000000, 186.629125, 587.000000, 193.901052, 602.000000, 193.901052" fill="rgb(255, 255, 255)" style="fill-opacity:1.00" />
<!-- End 'A' -->
<!-- Begin 'T' -->
<rect height="2.437748" width="50.000000" x="570.000000" y="203.172979" fill="rgb(0, 100, 0)" style="fill-opacity:0.01" />
<rect height="15.235925" width="10.000000" x="590.000000" y="203.172979" fill="rgb(0, 100, 0)" style="fill-opacity:0.01" />
<!-- End 'T' -->
<!-- Begin 'G' -->
<ellipse cx="595.000000" cy="219.204452" rx="25.000000" ry="0.795548" fill="rgb(255, 165, 0)" style="fill-opacity:0.01" />
<ellipse cx="595.000000" cy="219.204452" rx="16.666667" ry="0.530365" fill="rgb(255, 255, 255)" style="fill-opacity:1.00" />
<rect height="0.795548" width="25.000000" x="595.000000" y="218.806678" fill="rgb(255, 255, 255)" style="fill-opacity:1.00" />
<rect height="0.198887" width="25.000000" x="595.000000" y="219.403339" fill="rgb(255, 165, 0)" style="fill-opacity:0.01" />
<rect height="0.596661" width="6.250000" x="613.750000" y="219.403339" fill="rgb(255, 165, 0)" style="fill-opacity:0.01" />
<!-- End 'G' -->
<!-- Begin 'C' -->
<ellipse cx="595.000000" cy="248.050912" rx="25.000000" ry="18.050912" fill="rgb(0, 0, 128)" style="fill-opacity:0.83" />
<ellipse cx="595.000000" cy="248.050912" rx="16.666667" ry="12.033941" fill="rgb(255, 255, 255)" style="fill-opacity:1.00" />
<rect height="18.050912" width="25.000000" x="595.000000" y="239.025456" fill="rgb(255, 255, 255)" style="fill-opacity:1.00" />
<!-- End 'C' -->
<!-- Begin 'A' -->
<polygon points=" 570.000000, 298.211921, 591.000000, 266.101823, 599.000000, 266.101823, 620.000000, 298.211921, 612.500000, 298.211921, 606.250000, 290.184396, 583.750000, 290.184396, 577.500000, 298.211921" fill="rgb(178, 34, 34)" style="fill-opacity:0.83" />
<polygon points=" 595.000000, 272.523843, 587.000000, 284.367882, 602.000000, 284.367882" fill="rgb(255, 255, 255)" style="fill-opacity:1.00" />
<!-- End 'A' -->
<!-- Begin 'T' -->
<rect height="3.402285" width="50.000000" x="570.000000" y="298.211921" fill="rgb(0, 100, 0)" style="fill-opacity:0.83" />
<rect height="21.264279" width="10.000000" x="590.000000" y="298.211921" fill="rgb(0, 100, 0)" style="fill-opacity:0.83" />
<!-- End 'T' -->
<!-- Begin 'G' -->
<ellipse cx="595.000000" cy="324.738100" rx="25.000000" ry="5.261900" fill="rgb(255, 165, 0)" style="fill-opacity:0.83" />
<ellipse cx="595.000000" cy="324.738100" rx="16.666667" ry="3.507933" fill="rgb(255, 255, 255)" style="fill-opacity:1.00" />
<rect height="5.261900" width="25.000000" x="595.000000" y="322.107150" fill="rgb(255, 255, 255)" style="fill-opacity:1.00" />
<rect height="1.315475" width="25.000000" x="595.000000" y="326.053575" fill="rgb(255, 165, 0)" style="fill-opacity:0.83" />
<rect height="3.946425" width="6.250000" x="613.750000" y="326.053575" fill="rgb(255, 165, 0)" style="fill-opacity:0.83" />
<!-- End 'G' -->
<!-- Begin 'T' -->
<rect height="8.939102" width="50.000000" x="570.000000" y="340.000000" fill="rgb(0, 100, 0)" style="fill-opacity:0.05" />
<rect height="55.869387" width="10.000000" x="590.000000" y="340.000000" fill="rgb(0, 100, 0)" style="fill-opacity:0.05" />
<!-- End 'T' -->
<!-- Begin 'C' -->
<ellipse cx="595.000000" cy="415.395410" rx="25.000000" ry="19.526023" fill="rgb(0, 0, 128)" style="fill-opacity:0.05" />
<ellipse cx="595.000000" cy="415.395410" rx="16.666667" ry="13.017349" fill="rgb(255, 255, 255)" style="fill-opacity:1.00" />
<rect height="19.526023" width="25.000000" x="595.000000" y="405.632398" fill="rgb(255, 255, 255)" style="fill-opacity:1.00" />
<!-- End 'C' -->
<!-- Begin 'A' -->
<polygon points=" 570.000000, 439.856920, 591.000000, 434.921433, 599.000000, 434.921433, 620.000000, 439.856920, 612.500000, 439.856920, 606.250000, 438.623048, 583.750000, 438.623048, 577.500000, 439.856920" fill="rgb(178, 34, 34)" style="fill-opacity:0.05" />
<!-- End 'A' -->
<!-- Begin 'G' -->
<ellipse cx="595.000000" cy="439.928460" rx="25.000000" ry="0.071540" fill="rgb(255, 165, 0)" style="fill-opacity:0.05" />
<ellipse cx="595.000000" cy="439.928460" rx="16.666667" ry="0.047693" fill="rgb(255, 255, 255)" style="fill-opacity:1.00" />
<rect height="0.071540" width="25.000000" x="595.000000" y="439.892690" fill="rgb(255, 255, 255)" style="fill-opacity:1.00" />
<rect height="0.017885" width="25.000000" x="595.000000" y="439.946345" fill="rgb(255, 165, 0)" style="fill-opacity:0.05" />
<rect height="0.053655" width="6.250000" x="613.750000" y="439.946345" fill="rgb(255, 165, 0)" style="fill-opacity:0.05" />
<!-- End 'G' -->
<!-- Begin 'C' -->
<ellipse cx="655.000000" cy="34.328158" rx="25.000000" ry="24.328158" fill="rgb(0, 0, 128)" style="fill-opacity:0.27" />
<ellipse cx="655.000000" cy="34.328158" rx="16.666667" ry="16.218772" fill="rgb(255, 255, 255)" style="fill-opacity:1.00" />
<rect height="24.328158" width="25.000000" x="655.000000" y="22.164079" fill="rgb(255, 255, 255)" style="fill-opacity:1.00" />
<!-- End 'C' -->
<!-- Begin 'G' -->
<ellipse cx="655.000000" cy="72.540733" rx="25.000000" ry="13.884417" fill="rgb(255, 165, 0)" style="fill-opacity:0.27" />
<ellipse cx="655.000000" cy="72.540733" rx="16.666667" ry="9.256278" fill="rgb(255, 255, 255)" style="fill-opacity:1.00" />
<rect height="13.884417" width="25.000000" x="655.000000" y="65.598525" fill="rgb(255, 255, 255)" style="fill-opacity:1.00" />
<rect height="3.471104" width="25.000000" x="655.000000" y="76.011837" fill="rgb(255, 165, 0)" style="fill-opacity:0.27" />
<rect height="10.413313" width="6.250000" x="673.750000" y="76.011837" fill="rgb(255, 165, 0)" style="fill-opacity:0.27" />
<!-- End 'G' -->
<!-- Begin 'T' -->
<rect height="2.578672" width="50.000000" x="630.000000" y="86.425150" fill="rgb(0, 100, 0)" style="fill-opacity:0.27" />
<rect height="16.116698" width="10.000000" x="650.000000" y="86.425150" fill="rgb(0, 100, 0)" style="fill-opacity:0.27" />
<!-- End 'T' -->
<!-- Begin 'A' -->
<polygon points=" 630.000000, 110.000000, 651.000000, 102.541849, 659.000000, 102.541849, 680.000000, 110.000000, 672.500000, 110.000000, 666.250000, 108.135462, 643.750000, 108.135462, 637.500000, 110.000000" fill="rgb(178, 34, 34)" style="fill-opacity:0.27" />
<!-- End 'A' -->
<!-- Begin 'A' -->
<polygon points=" 630.000000, 163.562043, 651.000000, 120.000000, 659.000000, 120.000000, 680.000000, 163.562043, 672.500000, 163.562043, 666.250000, 152.671532, 643.750000, 152.671532, 637.500000, 163.562043" fill="rgb(178, 34, 34)" style="fill-opacity:0.43" />
<polygon points=" 655.000000, 128.712409, 647.000000, 145.137226, 662.000000, 145.137226" fill="rgb(255, 255, 255)" style="fill-opacity:1.00" />
<!-- End 'A' -->
<!-- Begin 'C' -->
<ellipse cx="655.000000" cy="174.658244" rx="25.000000" ry="11.096201" fill="rgb(0, 0, 128)" style="fill-opacity:0.43" />
<ellipse cx="655.000000" cy="174.658244" rx="16.666667" ry="7.397468" fill="rgb(255, 255, 255)" style="fill-opacity:1.00" />
<rect height="11.096201" width="25.000000" x="655.000000" y="169.110143" fill="rgb(255, 255, 255)" style="fill-opacity:1.00" />
<!-- End 'C' -->
<!-- Begin 'T' -->
<rect height="3.384681" width="50.000000" x="630.000000" y="185.754445" fill="rgb(0, 100, 0)" style="fill-opacity:0.43" />
<rect height="21.154254" width="10.000000" x="650.000000" y="185.754445" fill="rgb(0, 100, 0)" style="fill-opacity:0.43" />
<!-- End 'T' -->
<!-- Begin 'G' -->
<ellipse cx="655.000000" cy="213.454349" rx="25.000000" ry="6.545651" fill="rgb(255, 165, 0)" style="fill-opacity:0.43" />
<ellipse cx="655.000000" cy="213.454349" rx="16.666667" ry="4.363767" fill="rgb(255, 255, 255)" style="fill-opacity:1.00" />
<rect height="6.545651" width="25.000000" x="655.000000" y="210.181524" fill="rgb(255, 255, 255)" style="fill-opacity:1.00" />
<rect height="1.636413" width="25.000000" x="655.000000" y="215.090762" fill="rgb(255, 165, 0)" style="fill-opacity:0.43" />
<rect height="4.909238" width="6.250000" x="673.750000" y="215.090762" fill="rgb(255, 165, 0)" style="fill-opacity:0.43" />
<!-- End 'G' -->
<!-- Begin 'C' -->
<ellipse cx="655.000000" cy="248.230101" rx="25.000000" ry="18.230101" fill="rgb(0, 0, 128)" style="fill-opacity:0.09" />
<ellipse cx="655.000000" cy="248.230101" rx="16.666667" ry="12.153401" fill="rgb(255, 255, 255)" style="fill-opacity:1.00" />
<rect height="18.230101" width="25.000000" x="655.000000" y="239.115051" fill="rgb(255, 255, 255)" style="fill-opacity:1.00" />
<!-- End 'C' -->
<!-- Begin 'G' -->
<ellipse cx="655.000000" cy="280.050961" rx="25.000000" ry="13.590758" fill="rgb(255, 165, 0)" style="fill-opacity:0.09" />
<ellipse cx="655.000000" cy="280.050961" rx="16.666667" ry="9.060506" fill="rgb(255, 255, 255)" style="fill-opacity:1.00" />
<rect height="13.590758" width="25.000000" x="655.000000" y="273.255581" fill="rgb(255, 255, 255)" style="fill-opacity:1.00" />
<rect height="3.397690" width="25.000000" x="655.000000" y="283.448650" fill="rgb(255, 165, 0)" style="fill-opacity:0.09" />
<rect height="10.193069" width="6.250000" x="673.750000" y="283.448650" fill="rgb(255, 165, 0)" style="fill-opacity:0.09" />
<!-- End 'G' -->
<!-- Begin 'T' -->
<rect height="2.986152" width="50.000000" x="630.000000" y="293.641719" fill="rgb(0, 100, 0)" style="fill-opacity:0.09" />
<rect height="18.663452" width="10.000000" x="650.000000" y="293.641719" fill="rgb(0, 100, 0)" style="fill-opacity:0.09" />
<!-- End 'T' -->
<!-- Begin 'A' -->
<polygon points=" 630.000000, 330.000000, 651.000000, 312.305171, 659.000000, 312.305171, 680.000000, 330.000000, 672.500000, 330.000000, 666.250000, 325.576293, 643.750000, 325.576293, 637.500000, 330.000000" fill="rgb(178, 34, 34)" style="fill-opacity:0.09" />
<polygon points=" 655.000000, 315.844136, 647.000000, 321.922068, 662.000000, 321.922068" fill="rgb(255, 255, 255)" style="fill-opacity:1.00" />
<!-- End 'A' -->
<!-- Begin 'G' -->
<ellipse cx="655.000000" cy="366.857387" rx="25.000000" ry="26.857387" fill="rgb(255, 165, 0)" style="fill-opacity:0.21" />
<ellipse cx="655.000000" cy="366.857387" rx="16.666667" ry="17.904925" fill="rgb(255, 255, 255)" style="fill-opacity:1.00" />
<rect height="26.857387" width="25.000000" x="655.000000" y="353.428694" fill="rgb(255, 255, 255)" style="fill-opacity:1.00" />
<rect height="6.714347" width="25.000000" x="655.000000" y="373.571734" fill="rgb(255, 165, 0)" style="fill-opacity:0.21" />
<rect height="20.143040" width="6.250000" x="673.750000" y="373.571734" fill="rgb(255, 165, 0)" style="fill-opacity:0.21" />
<!-- End 'G' -->
<!-- Begin 'C' -->
<ellipse cx="655.000000" cy="402.936387" rx="25.000000" ry="9.221612" fill="rgb(0, 0, 128)" style="fill-opacity:0.21" />
<ellipse cx="655.000000" cy="402.936387" rx="16.666667" ry="6.147742" fill="rgb(255, 255, 255)" style="fill-opacity:1.00" />
<rect height="9.221612" width="25.000000" x="655.000000" y="398.325580" fill="rgb(255, 255, 255)" style="fill-opacity:1.00" />
<!-- End 'C' -->
<!-- Begin 'T' -->
<rect height="2.316394" width="50.000000" x="630.000000" y="412.157999" fill="rgb(0, 100, 0)" style="fill-opacity:0.21" />
<rect height="14.477461" width="10.000000" x="650.000000" y="412.157999" fill="rgb(0, 100, 0)" style="fill-opacity:0.21" />
<!-- End 'T' -->
<!-- Begin 'A' -->
<polygon points=" 630.000000, 440.000000, 651.000000, 426.635460, 659.000000, 426.635460, 680.000000, 440.000000, 672.500000, 440.000000, 666.250000, 436.658865, 643.750000, 436.658865, 637.500000, 440.000000" fill="rgb(178, 34, 34)" style="fill-opacity:0.21" />
<polygon points=" 655.000000, 429.308368, 647.000000, 433.654184, 662.000000, 433.654184" fill="rgb(255, 255, 255)" style="fill-opacity:1.00" />
<!-- End 'A' -->
<text x="370.000000" y="495">
IC = 6.34
</text>

</svg>
