<?xml version="1.0" encoding="UTF-8" standalone="yes"?>
                 <!DOCTYPE svg PUBLIC "-//W3C//DTD SVG 1.0//EN" "http://www.w3.org/TR/2001/REC-SVG-20010904/DTD/svg10.dtd">
                 <svg height="170" width="900" xmlns="http://www.w3.org/2000/svg" xmlns:xlink="http://www.w3.org/1999/xlink">
                 <line x1="85" y1="120" x2="867" y2="120" style="stroke:rgb(99,99,99);stroke-width:2" />
<rect height="7.000000" width="2.000000" x="85.000000" y="120.000000" fill="rgb(0, 0, 0)" style="fill-opacity:1.00" />
<text x="107.000000" y="140">
1
</text>
<rect height="7.000000" width="2.000000" x="145.000000" y="120.000000" fill="rgb(0, 0, 0)" style="fill-opacity:1.00" />
<text x="167.000000" y="140">
2
</text>
<rect height="7.000000" width="2.000000" x="205.000000" y="120.000000" fill="rgb(0, 0, 0)" style="fill-opacity:1.00" />
<text x="227.000000" y="140">
3
</text>
<rect height="7.000000" width="2.000000" x="265.000000" y="120.000000" fill="rgb(0, 0, 0)" style="fill-opacity:1.00" />
<text x="287.000000" y="140">
4
</text>
<rect height="7.000000" width="2.000000" x="325.000000" y="120.000000" fill="rgb(0, 0, 0)" style="fill-opacity:1.00" />
<text x="347.000000" y="140">
5
</text>
<rect height="7.000000" width="2.000000" x="385.000000" y="120.000000" fill="rgb(0, 0, 0)" style="fill-opacity:1.00" />
<text x="407.000000" y="140">
6
</text>
<rect height="7.000000" width="2.000000" x="445.000000" y="120.000000" fill="rgb(0, 0, 0)" style="fill-opacity:1.00" />
<text x="467.000000" y="140">
7
</text>
<rect height="7.000000" width="2.000000" x="505.000000" y="120.000000" fill="rgb(0, 0, 0)" style="fill-opacity:1.00" />
<text x="527.000000" y="140">
8
</text>
<rect height="7.000000" width="2.000000" x="565.000000" y="120.000000" fill="rgb(0, 0, 0)" style="fill-opacity:1.00" />
<text x="587.000000" y="140">
9
</text>
<rect height="7.000000" width="2.000000" x="625.000000" y="120.000000" fill="rgb(0, 0, 0)" style="fill-opacity:1.00" />
<text x="647.000000" y="140">
10
</text>
<rect height="7.000000" width="2.000000" x="685.000000" y="120.000000" fill="rgb(0, 0, 0)" style="fill-opacity:1.00" />
<text x="707.000000" y="140">
11
</text>
<rect height="7.000000" width="2.000000" x="745.000000" y="120.000000" fill="rgb(0, 0, 0)" style="fill-opacity:1.00" />
<text x="767.000000" y="140">
12
</text>
<rect height="7.000000" width="2.000000" x="805.000000" y="120.000000" fill="rgb(0, 0, 0)" style="fill-opacity:1.00" />
<text x="827.000000" y="140">
13
</text>
<rect height="7.000000" width="2.000000" x="865.000000" y="120.000000" fill="rgb(0, 0, 0)" style="fill-opacity:1.00" />
<line x1="80" y1="112" x2="80" y2="10" style="stroke:rgb(99,99,99);stroke-width:2" />
<rect height="2.000000" width="7.000000" x="73.000000" y="110.000000" fill="rgb(0, 0, 0)" style="fill-opacity:1.00" />
<text x="63" y="115">
0
</text>
<rect height="2.000000" width="7.000000" x="73.000000" y="60.000000" fill="rgb(0, 0, 0)" style="fill-opacity:1.00" />
<text x="63" y="65">
1
</text>
<rect height="2.000000" width="7.000000" x="73.000000" y="10.000000" fill="rgb(0, 0, 0)" style="fill-opacity:1.00" />
<text x="63" y="15">
2
</text>
<text x="50" y="65"
transform="rotate(-90, 50, 70)">
bits
</text>
<!-- Begin 'A' -->
<polygon points=" 90.000000, 102.855525, 111.000000, 95.044415, 119.000000, 95.044415, 140.000000, 102.855525, 132.500000, 102.855525, 126.250000, 100.902747, 103.750000, 100.902747, 97.500000, 102.855525" fill="rgb(178, 34, 34)" style="fill-opacity:1.00" />
<!-- End 'A' -->
<!-- Begin 'T' -->
<rect height="0.575574" width="50.000000" x="90.000000" y="102.855525" fill="rgb(0, 100, 0)" style="fill-opacity:1.00" />
<rect height="3.597336" width="10.000000" x="110.000000" y="102.855525" fill="rgb(0, 100, 0)" style="fill-opacity:1.00" />
<!-- End 'T' -->
<!-- Begin 'G' -->
<ellipse cx="115.000000" cy="107.578361" rx="25.000000" ry="1.125500" fill="rgb(255, 165, 0)" style="fill-opacity:1.00" />
<ellipse cx="115.000000" cy="107.578361" rx="16.666667" ry="0.750333" fill="rgb(255, 255, 255)" style="fill-opacity:1.00" />
<rect height="1.125500" width="25.000000" x="115.000000" y="107.015611" fill="rgb(255, 255, 255)" style="fill-opacity:1.00" />
<rect height="0.281375" width="25.000000" x="115.000000" y="107.859736" fill="rgb(255, 165, 0)" style="fill-opacity:1.00" />
<rect height="0.844125" width="6.250000" x="133.750000" y="107.859736" fill="rgb(255, 165, 0)" style="fill-opacity:1.00" />
<!-- End 'G' -->
<!-- Begin 'C' -->
<ellipse cx="115.000000" cy="109.351931" rx="25.000000" ry="0.648069" fill="rgb(0, 0, 128)" style="fill-opacity:1.00" />
<ellipse cx="115.000000" cy="109.351931" rx="16.666667" ry="0.432046" fill="rgb(255, 255, 255)" style="fill-opacity:1.00" />
<rect height="0.648069" width="25.000000" x="115.000000" y="109.027896" fill="rgb(255, 255, 255)" style="fill-opacity:1.00" />
<!-- End 'C' -->
<!-- Begin 'A' -->
<polygon points=" 150.000000, 104.939497, 171.000000, 100.616348, 179.000000, 100.616348, 200.000000, 104.939497, 192.500000, 104.939497, 186.250000, 103.858710, 163.750000, 103.858710, 157.500000, 104.939497" fill="rgb(178, 34, 34)" style="fill-opacity:1.00" />
<!-- End 'A' -->
<!-- Begin 'T' -->
<rect height="0.377862" width="50.000000" x="150.000000" y="104.939497" fill="rgb(0, 100, 0)" style="fill-opacity:1.00" />
<rect height="2.361636" width="10.000000" x="170.000000" y="104.939497" fill="rgb(0, 100, 0)" style="fill-opacity:1.00" />
<!-- End 'T' -->
<!-- Begin 'G' -->
<ellipse cx="175.000000" cy="108.111062" rx="25.000000" ry="0.809928" fill="rgb(255, 165, 0)" style="fill-opacity:1.00" />
<ellipse cx="175.000000" cy="108.111062" rx="16.666667" ry="0.539952" fill="rgb(255, 255, 255)" style="fill-opacity:1.00" />
<rect height="0.809928" width="25.000000" x="175.000000" y="107.706098" fill="rgb(255, 255, 255)" style="fill-opacity:1.00" />
<rect height="0.202482" width="25.000000" x="175.000000" y="108.313544" fill="rgb(255, 165, 0)" style="fill-opacity:1.00" />
<rect height="0.607446" width="6.250000" x="193.750000" y="108.313544" fill="rgb(255, 165, 0)" style="fill-opacity:1.00" />
<!-- End 'G' -->
<!-- Begin 'C' -->
<ellipse cx="175.000000" cy="109.460495" rx="25.000000" ry="0.539505" fill="rgb(0, 0, 128)" style="fill-opacity:1.00" />
<ellipse cx="175.000000" cy="109.460495" rx="16.666667" ry="0.359670" fill="rgb(255, 255, 255)" style="fill-opacity:1.00" />
<rect height="0.539505" width="25.000000" x="175.000000" y="109.190742" fill="rgb(255, 255, 255)" style="fill-opacity:1.00" />
<!-- End 'C' -->
<!-- Begin 'A' -->
<polygon points=" 210.000000, 103.498396, 231.000000, 96.642876, 239.000000, 96.642876, 260.000000, 103.498396, 252.500000, 103.498396, 246.250000, 101.784516, 223.750000, 101.784516, 217.500000, 103.498396" fill="rgb(178, 34, 34)" style="fill-opacity:1.00" />
<!-- End 'A' -->
<!-- Begin 'C' -->
<ellipse cx="235.000000" cy="105.030211" rx="25.000000" ry="1.531815" fill="rgb(0, 0, 128)" style="fill-opacity:1.00" />
<ellipse cx="235.000000" cy="105.030211" rx="16.666667" ry="1.021210" fill="rgb(255, 255, 255)" style="fill-opacity:1.00" />
<rect height="1.531815" width="25.000000" x="235.000000" y="104.264304" fill="rgb(255, 255, 255)" style="fill-opacity:1.00" />
<!-- End 'C' -->
<!-- Begin 'G' -->
<ellipse cx="235.000000" cy="107.616232" rx="25.000000" ry="1.054205" fill="rgb(255, 165, 0)" style="fill-opacity:1.00" />
<ellipse cx="235.000000" cy="107.616232" rx="16.666667" ry="0.702803" fill="rgb(255, 255, 255)" style="fill-opacity:1.00" />
<rect height="1.054205" width="25.000000" x="235.000000" y="107.089129" fill="rgb(255, 255, 255)" style="fill-opacity:1.00" />
<rect height="0.263551" width="25.000000" x="235.000000" y="107.879783" fill="rgb(255, 165, 0)" style="fill-opacity:1.00" />
<rect height="0.790654" width="6.250000" x="253.750000" y="107.879783" fill="rgb(255, 165, 0)" style="fill-opacity:1.00" />
<!-- End 'G' -->
<!-- Begin 'T' -->
<rect height="0.212730" width="50.000000" x="210.000000" y="108.670436" fill="rgb(0, 100, 0)" style="fill-opacity:1.00" />
<rect height="1.329564" width="10.000000" x="230.000000" y="108.670436" fill="rgb(0, 100, 0)" style="fill-opacity:1.00" />
<!-- End 'T' -->
<!-- Begin 'G' -->
<ellipse cx="295.000000" cy="74.494275" rx="25.000000" ry="26.197993" fill="rgb(255, 165, 0)" style="fill-opacity:1.00" />
<ellipse cx="295.000000" cy="74.494275" rx="16.666667" ry="17.465329" fill="rgb(255, 255, 255)" style="fill-opacity:1.00" />
<rect height="26.197993" width="25.000000" x="295.000000" y="61.395278" fill="rgb(255, 255, 255)" style="fill-opacity:1.00" />
<rect height="6.549498" width="25.000000" x="295.000000" y="81.043773" fill="rgb(255, 165, 0)" style="fill-opacity:1.00" />
<rect height="19.648495" width="6.250000" x="313.750000" y="81.043773" fill="rgb(255, 165, 0)" style="fill-opacity:1.00" />
<!-- End 'G' -->
<!-- Begin 'T' -->
<rect height="1.075114" width="50.000000" x="270.000000" y="100.692268" fill="rgb(0, 100, 0)" style="fill-opacity:1.00" />
<rect height="6.719464" width="10.000000" x="290.000000" y="100.692268" fill="rgb(0, 100, 0)" style="fill-opacity:1.00" />
<!-- End 'T' -->
<!-- Begin 'A' -->
<polygon points=" 270.000000, 109.617919, 291.000000, 107.411733, 299.000000, 107.411733, 320.000000, 109.617919, 312.500000, 109.617919, 306.250000, 109.066373, 283.750000, 109.066373, 277.500000, 109.617919" fill="rgb(178, 34, 34)" style="fill-opacity:1.00" />
<!-- End 'A' -->
<!-- Begin 'C' -->
<ellipse cx="295.000000" cy="109.808960" rx="25.000000" ry="0.191040" fill="rgb(0, 0, 128)" style="fill-opacity:1.00" />
<ellipse cx="295.000000" cy="109.808960" rx="16.666667" ry="0.127360" fill="rgb(255, 255, 255)" style="fill-opacity:1.00" />
<rect height="0.191040" width="25.000000" x="295.000000" y="109.713440" fill="rgb(255, 255, 255)" style="fill-opacity:1.00" />
<!-- End 'C' -->
<!-- Begin 'T' -->
<rect height="15.037628" width="50.000000" x="330.000000" y="14.977963" fill="rgb(0, 100, 0)" style="fill-opacity:1.00" />
<rect height="93.985174" width="10.000000" x="350.000000" y="14.977963" fill="rgb(0, 100, 0)" style="fill-opacity:1.00" />
<!-- End 'T' -->
<!-- Begin 'C' -->
<ellipse cx="355.000000" cy="109.319621" rx="25.000000" ry="0.356484" fill="rgb(0, 0, 128)" style="fill-opacity:1.00" />
<ellipse cx="355.000000" cy="109.319621" rx="16.666667" ry="0.237656" fill="rgb(255, 255, 255)" style="fill-opacity:1.00" />
<rect height="0.356484" width="25.000000" x="355.000000" y="109.141379" fill="rgb(255, 255, 255)" style="fill-opacity:1.00" />
<!-- End 'C' -->
<!-- Begin 'A' -->
<polygon points=" 330.000000, 109.902805, 351.000000, 109.676105, 359.000000, 109.676105, 380.000000, 109.902805, 372.500000, 109.902805, 366.250000, 109.846130, 343.750000, 109.846130, 337.500000, 109.902805" fill="rgb(178, 34, 34)" style="fill-opacity:1.00" />
<!-- End 'A' -->
<!-- Begin 'G' -->
<ellipse cx="355.000000" cy="109.951403" rx="25.000000" ry="0.048597" fill="rgb(255, 165, 0)" style="fill-opacity:1.00" />
<ellipse cx="355.000000" cy="109.951403" rx="16.666667" ry="0.032398" fill="rgb(255, 255, 255)" style="fill-opacity:1.00" />
<rect height="0.048597" width="25.000000" x="355.000000" y="109.927104" fill="rgb(255, 255, 255)" style="fill-opacity:1.00" />
<rect height="0.012149" width="25.000000" x="355.000000" y="109.963552" fill="rgb(255, 165, 0)" style="fill-opacity:1.00" />
<rect height="0.036448" width="6.250000" x="373.750000" y="109.963552" fill="rgb(255, 165, 0)" style="fill-opacity:1.00" />
<!-- End 'G' -->
<!-- Begin 'T' -->
<rect height="4.082410" width="50.000000" x="390.000000" y="61.186509" fill="rgb(0, 100, 0)" style="fill-opacity:1.00" />
<rect height="25.515062" width="10.000000" x="410.000000" y="61.186509" fill="rgb(0, 100, 0)" style="fill-opacity:1.00" />
<!-- End 'T' -->
<!-- Begin 'C' -->
<ellipse cx="415.000000" cy="98.288971" rx="25.000000" ry="11.587401" fill="rgb(0, 0, 128)" style="fill-opacity:1.00" />
<ellipse cx="415.000000" cy="98.288971" rx="16.666667" ry="7.724934" fill="rgb(255, 255, 255)" style="fill-opacity:1.00" />
<rect height="11.587401" width="25.000000" x="415.000000" y="92.495271" fill="rgb(255, 255, 255)" style="fill-opacity:1.00" />
<!-- End 'C' -->
<!-- Begin 'A' -->
<polygon points=" 390.000000, 109.952638, 411.000000, 109.876371, 419.000000, 109.876371, 440.000000, 109.952638, 432.500000, 109.952638, 426.250000, 109.933572, 403.750000, 109.933572, 397.500000, 109.952638" fill="rgb(178, 34, 34)" style="fill-opacity:1.00" />
<!-- End 'A' -->
<!-- Begin 'G' -->
<ellipse cx="415.000000" cy="109.976319" rx="25.000000" ry="0.023681" fill="rgb(255, 165, 0)" style="fill-opacity:1.00" />
<ellipse cx="415.000000" cy="109.976319" rx="16.666667" ry="0.015787" fill="rgb(255, 255, 255)" style="fill-opacity:1.00" />
<rect height="0.023681" width="25.000000" x="415.000000" y="109.964479" fill="rgb(255, 255, 255)" style="fill-opacity:1.00" />
<rect height="0.005920" width="25.000000" x="415.000000" y="109.982239" fill="rgb(255, 165, 0)" style="fill-opacity:1.00" />
<rect height="0.017761" width="6.250000" x="433.750000" y="109.982239" fill="rgb(255, 165, 0)" style="fill-opacity:1.00" />
<!-- End 'G' -->
<!-- Begin 'G' -->
<ellipse cx="475.000000" cy="75.060038" rx="25.000000" ry="12.251172" fill="rgb(255, 165, 0)" style="fill-opacity:1.00" />
<ellipse cx="475.000000" cy="75.060038" rx="16.666667" ry="8.167448" fill="rgb(255, 255, 255)" style="fill-opacity:1.00" />
<rect height="12.251172" width="25.000000" x="475.000000" y="68.934452" fill="rgb(255, 255, 255)" style="fill-opacity:1.00" />
<rect height="3.062793" width="25.000000" x="475.000000" y="78.122831" fill="rgb(255, 165, 0)" style="fill-opacity:1.00" />
<rect height="9.188379" width="6.250000" x="493.750000" y="78.122831" fill="rgb(255, 165, 0)" style="fill-opacity:1.00" />
<!-- End 'G' -->
<!-- Begin 'A' -->
<polygon points=" 450.000000, 109.649991, 471.000000, 87.311211, 479.000000, 87.311211, 500.000000, 109.649991, 492.500000, 109.649991, 486.250000, 104.065296, 463.750000, 104.065296, 457.500000, 109.649991" fill="rgb(178, 34, 34)" style="fill-opacity:1.00" />
<polygon points=" 475.000000, 91.778967, 467.000000, 99.714479, 482.000000, 99.714479" fill="rgb(255, 255, 255)" style="fill-opacity:1.00" />
<!-- End 'A' -->
<!-- Begin 'T' -->
<rect height="0.053440" width="50.000000" x="450.000000" y="109.649991" fill="rgb(0, 100, 0)" style="fill-opacity:1.00" />
<rect height="0.334000" width="10.000000" x="470.000000" y="109.649991" fill="rgb(0, 100, 0)" style="fill-opacity:1.00" />
<!-- End 'T' -->
<!-- Begin 'C' -->
<ellipse cx="475.000000" cy="109.991995" rx="25.000000" ry="0.008005" fill="rgb(0, 0, 128)" style="fill-opacity:1.00" />
<ellipse cx="475.000000" cy="109.991995" rx="16.666667" ry="0.005336" fill="rgb(255, 255, 255)" style="fill-opacity:1.00" />
<rect height="0.008005" width="25.000000" x="475.000000" y="109.987993" fill="rgb(255, 255, 255)" style="fill-opacity:1.00" />
<!-- End 'C' -->
<!-- Begin 'A' -->
<polygon points=" 510.000000, 109.275618, 531.000000, 13.713558, 539.000000, 13.713558, 560.000000, 109.275618, 552.500000, 109.275618, 546.250000, 85.385103, 523.750000, 85.385103, 517.500000, 109.275618" fill="rgb(178, 34, 34)" style="fill-opacity:1.00" />
<polygon points=" 535.000000, 32.825970, 527.000000, 70.050794, 542.000000, 70.050794" fill="rgb(255, 255, 255)" style="fill-opacity:1.00" />
<!-- End 'A' -->
<!-- Begin 'T' -->
<rect height="0.057986" width="50.000000" x="510.000000" y="109.275618" fill="rgb(0, 100, 0)" style="fill-opacity:1.00" />
<rect height="0.362410" width="10.000000" x="530.000000" y="109.275618" fill="rgb(0, 100, 0)" style="fill-opacity:1.00" />
<!-- End 'T' -->
<!-- Begin 'G' -->
<ellipse cx="535.000000" cy="109.779050" rx="25.000000" ry="0.141022" fill="rgb(255, 165, 0)" style="fill-opacity:1.00" />
<ellipse cx="535.000000" cy="109.779050" rx="16.666667" ry="0.094014" fill="rgb(255, 255, 255)" style="fill-opacity:1.00" />
<rect height="0.141022" width="25.000000" x="535.000000" y="109.708539" fill="rgb(255, 255, 255)" style="fill-opacity:1.00" />
<rect height="0.035255" width="25.000000" x="535.000000" y="109.814305" fill="rgb(255, 165, 0)" style="fill-opacity:1.00" />
<rect height="0.105766" width="6.250000" x="553.750000" y="109.814305" fill="rgb(255, 165, 0)" style="fill-opacity:1.00" />
<!-- End 'G' -->
<!-- Begin 'C' -->
<ellipse cx="535.000000" cy="109.960036" rx="25.000000" ry="0.039964" fill="rgb(0, 0, 128)" style="fill-opacity:1.00" />
<ellipse cx="535.000000" cy="109.960036" rx="16.666667" ry="0.026643" fill="rgb(255, 255, 255)" style="fill-opacity:1.00" />
<rect height="0.039964" width="25.000000" x="535.000000" y="109.940053" fill="rgb(255, 255, 255)" style="fill-opacity:1.00" />
<!-- End 'C' -->
<!-- Begin 'C' -->
<ellipse cx="595.000000" cy="71.097842" rx="25.000000" ry="31.468916" fill="rgb(0, 0, 128)" style="fill-opacity:1.00" />
<ellipse cx="595.000000" cy="71.097842" rx="16.666667" ry="20.979277" fill="rgb(255, 255, 255)" style="fill-opacity:1.00" />
<rect height="31.468916" width="25.000000" x="595.000000" y="55.363384" fill="rgb(255, 255, 255)" style="fill-opacity:1.00" />
<!-- End 'C' -->
<!-- Begin 'A' -->
<polygon points=" 570.000000, 107.817209, 591.000000, 102.566758, 599.000000, 102.566758, 620.000000, 107.817209, 612.500000, 107.817209, 606.250000, 106.504596, 583.750000, 106.504596, 577.500000, 107.817209" fill="rgb(178, 34, 34)" style="fill-opacity:1.00" />
<!-- End 'A' -->
<!-- Begin 'T' -->
<rect height="0.317156" width="50.000000" x="570.000000" y="107.817209" fill="rgb(0, 100, 0)" style="fill-opacity:1.00" />
<rect height="1.982226" width="10.000000" x="590.000000" y="107.817209" fill="rgb(0, 100, 0)" style="fill-opacity:1.00" />
<!-- End 'T' -->
<!-- Begin 'G' -->
<ellipse cx="595.000000" cy="109.899717" rx="25.000000" ry="0.100283" fill="rgb(255, 165, 0)" style="fill-opacity:1.00" />
<ellipse cx="595.000000" cy="109.899717" rx="16.666667" ry="0.066855" fill="rgb(255, 255, 255)" style="fill-opacity:1.00" />
<rect height="0.100283" width="25.000000" x="595.000000" y="109.849576" fill="rgb(255, 255, 255)" style="fill-opacity:1.00" />
<rect height="0.025071" width="25.000000" x="595.000000" y="109.924788" fill="rgb(255, 165, 0)" style="fill-opacity:1.00" />
<rect height="0.075212" width="6.250000" x="613.750000" y="109.924788" fill="rgb(255, 165, 0)" style="fill-opacity:1.00" />
<!-- End 'G' -->
<!-- Begin 'T' -->
<rect height="1.813831" width="50.000000" x="630.000000" y="90.003077" fill="rgb(0, 100, 0)" style="fill-opacity:1.00" />
<rect height="11.336446" width="10.000000" x="650.000000" y="90.003077" fill="rgb(0, 100, 0)" style="fill-opacity:1.00" />
<!-- End 'T' -->
<!-- Begin 'G' -->
<ellipse cx="655.000000" cy="103.626175" rx="25.000000" ry="2.286652" fill="rgb(255, 165, 0)" style="fill-opacity:1.00" />
<ellipse cx="655.000000" cy="103.626175" rx="16.666667" ry="1.524435" fill="rgb(255, 255, 255)" style="fill-opacity:1.00" />
<rect height="2.286652" width="25.000000" x="655.000000" y="102.482849" fill="rgb(255, 255, 255)" style="fill-opacity:1.00" />
<rect height="0.571663" width="25.000000" x="655.000000" y="104.197838" fill="rgb(255, 165, 0)" style="fill-opacity:1.00" />
<rect height="1.714989" width="6.250000" x="673.750000" y="104.197838" fill="rgb(255, 165, 0)" style="fill-opacity:1.00" />
<!-- End 'G' -->
<!-- Begin 'C' -->
<ellipse cx="655.000000" cy="107.336858" rx="25.000000" ry="1.424031" fill="rgb(0, 0, 128)" style="fill-opacity:1.00" />
<ellipse cx="655.000000" cy="107.336858" rx="16.666667" ry="0.949354" fill="rgb(255, 255, 255)" style="fill-opacity:1.00" />
<rect height="1.424031" width="25.000000" x="655.000000" y="106.624842" fill="rgb(255, 255, 255)" style="fill-opacity:1.00" />
<!-- End 'C' -->
<!-- Begin 'A' -->
<polygon points=" 630.000000, 110.000000, 651.000000, 108.760889, 659.000000, 108.760889, 680.000000, 110.000000, 672.500000, 110.000000, 666.250000, 109.690222, 643.750000, 109.690222, 637.500000, 110.000000" fill="rgb(178, 34, 34)" style="fill-opacity:1.00" />
<!-- End 'A' -->
<!-- Begin 'T' -->
<rect height="1.030362" width="50.000000" x="690.000000" y="97.193270" fill="rgb(0, 100, 0)" style="fill-opacity:1.00" />
<rect height="6.439762" width="10.000000" x="710.000000" y="97.193270" fill="rgb(0, 100, 0)" style="fill-opacity:1.00" />
<!-- End 'T' -->
<!-- Begin 'A' -->
<polygon points=" 690.000000, 106.749109, 711.000000, 103.633033, 719.000000, 103.633033, 740.000000, 106.749109, 732.500000, 106.749109, 726.250000, 105.970090, 703.750000, 105.970090, 697.500000, 106.749109" fill="rgb(178, 34, 34)" style="fill-opacity:1.00" />
<!-- End 'A' -->
<!-- Begin 'C' -->
<ellipse cx="715.000000" cy="107.719675" rx="25.000000" ry="0.970566" fill="rgb(0, 0, 128)" style="fill-opacity:1.00" />
<ellipse cx="715.000000" cy="107.719675" rx="16.666667" ry="0.647044" fill="rgb(255, 255, 255)" style="fill-opacity:1.00" />
<rect height="0.970566" width="25.000000" x="715.000000" y="107.234392" fill="rgb(255, 255, 255)" style="fill-opacity:1.00" />
<!-- End 'C' -->
<!-- Begin 'G' -->
<ellipse cx="715.000000" cy="109.345120" rx="25.000000" ry="0.654880" fill="rgb(255, 165, 0)" style="fill-opacity:1.00" />
<ellipse cx="715.000000" cy="109.345120" rx="16.666667" ry="0.436587" fill="rgb(255, 255, 255)" style="fill-opacity:1.00" />
<rect height="0.654880" width="25.000000" x="715.000000" y="109.017680" fill="rgb(255, 255, 255)" style="fill-opacity:1.00" />
<rect height="0.163720" width="25.000000" x="715.000000" y="109.508840" fill="rgb(255, 165, 0)" style="fill-opacity:1.00" />
<rect height="0.491160" width="6.250000" x="733.750000" y="109.508840" fill="rgb(255, 165, 0)" style="fill-opacity:1.00" />
<!-- End 'G' -->
<!-- Begin 'T' -->
<rect height="1.593762" width="50.000000" x="750.000000" y="92.196446" fill="rgb(0, 100, 0)" style="fill-opacity:1.00" />
<rect height="9.961012" width="10.000000" x="770.000000" y="92.196446" fill="rgb(0, 100, 0)" style="fill-opacity:1.00" />
<!-- End 'T' -->
<!-- Begin 'A' -->
<polygon points=" 750.000000, 106.033660, 771.000000, 102.157458, 779.000000, 102.157458, 800.000000, 106.033660, 792.500000, 106.033660, 786.250000, 105.064610, 763.750000, 105.064610, 757.500000, 106.033660" fill="rgb(178, 34, 34)" style="fill-opacity:1.00" />
<!-- End 'A' -->
<!-- Begin 'C' -->
<ellipse cx="775.000000" cy="107.259818" rx="25.000000" ry="1.226158" fill="rgb(0, 0, 128)" style="fill-opacity:1.00" />
<ellipse cx="775.000000" cy="107.259818" rx="16.666667" ry="0.817439" fill="rgb(255, 255, 255)" style="fill-opacity:1.00" />
<rect height="1.226158" width="25.000000" x="775.000000" y="106.646739" fill="rgb(255, 255, 255)" style="fill-opacity:1.00" />
<!-- End 'C' -->
<!-- Begin 'G' -->
<ellipse cx="775.000000" cy="109.242988" rx="25.000000" ry="0.757012" fill="rgb(255, 165, 0)" style="fill-opacity:1.00" />
<ellipse cx="775.000000" cy="109.242988" rx="16.666667" ry="0.504675" fill="rgb(255, 255, 255)" style="fill-opacity:1.00" />
<rect height="0.757012" width="25.000000" x="775.000000" y="108.864482" fill="rgb(255, 255, 255)" style="fill-opacity:1.00" />
<rect height="0.189253" width="25.000000" x="775.000000" y="109.432241" fill="rgb(255, 165, 0)" style="fill-opacity:1.00" />
<rect height="0.567759" width="6.250000" x="793.750000" y="109.432241" fill="rgb(255, 165, 0)" style="fill-opacity:1.00" />
<!-- End 'G' -->
<!-- Begin 'T' -->
<rect height="0.533314" width="50.000000" x="810.000000" y="102.533145" fill="rgb(0, 100, 0)" style="fill-opacity:1.00" />
<rect height="3.333212" width="10.000000" x="830.000000" y="102.533145" fill="rgb(0, 100, 0)" style="fill-opacity:1.00" />
<!-- End 'T' -->
<!-- Begin 'A' -->
<polygon points=" 810.000000, 107.655857, 831.000000, 105.866357, 839.000000, 105.866357, 860.000000, 107.655857, 852.500000, 107.655857, 846.250000, 107.208482, 823.750000, 107.208482, 817.500000, 107.655857" fill="rgb(178, 34, 34)" style="fill-opacity:1.00" />
<!-- End 'A' -->
<!-- Begin 'G' -->
<ellipse cx="835.000000" cy="108.287274" rx="25.000000" ry="0.631416" fill="rgb(255, 165, 0)" style="fill-opacity:1.00" />
<ellipse cx="835.000000" cy="108.287274" rx="16.666667" ry="0.420944" fill="rgb(255, 255, 255)" style="fill-opacity:1.00" />
<rect height="0.631416" width="25.000000" x="835.000000" y="107.971566" fill="rgb(255, 255, 255)" style="fill-opacity:1.00" />
<rect height="0.157854" width="25.000000" x="835.000000" y="108.445128" fill="rgb(255, 165, 0)" style="fill-opacity:1.00" />
<rect height="0.473562" width="6.250000" x="853.750000" y="108.445128" fill="rgb(255, 165, 0)" style="fill-opacity:1.00" />
<!-- End 'G' -->
<!-- Begin 'C' -->
<ellipse cx="835.000000" cy="109.459345" rx="25.000000" ry="0.540655" fill="rgb(0, 0, 128)" style="fill-opacity:1.00" />
<ellipse cx="835.000000" cy="109.459345" rx="16.666667" ry="0.360437" fill="rgb(255, 255, 255)" style="fill-opacity:1.00" />
<rect height="0.540655" width="25.000000" x="835.000000" y="109.189018" fill="rgb(255, 255, 255)" style="fill-opacity:1.00" />
<!-- End 'C' -->
<text x="460.000000" y="165">
IC = 10.30
</text>

</svg>
