<?xml version="1.0" encoding="UTF-8" standalone="yes"?>
                 <!DOCTYPE svg PUBLIC "-//W3C//DTD SVG 1.0//EN" "http://www.w3.org/TR/2001/REC-SVG-20010904/DTD/svg10.dtd">
                 <svg height="170" width="1200" xmlns="http://www.w3.org/2000/svg" xmlns:xlink="http://www.w3.org/1999/xlink">
                 <line x1="85" y1="120" x2="1167" y2="120" style="stroke:rgb(99,99,99);stroke-width:2" />
<rect height="7.000000" width="2.000000" x="85.000000" y="120.000000" fill="rgb(0, 0, 0)" style="fill-opacity:1.00" />
<text x="107.000000" y="140">
1
</text>
<rect height="7.000000" width="2.000000" x="145.000000" y="120.000000" fill="rgb(0, 0, 0)" style="fill-opacity:1.00" />
<text x="167.000000" y="140">
2
</text>
<rect height="7.000000" width="2.000000" x="205.000000" y="120.000000" fill="rgb(0, 0, 0)" style="fill-opacity:1.00" />
<text x="227.000000" y="140">
3
</text>
<rect height="7.000000" width="2.000000" x="265.000000" y="120.000000" fill="rgb(0, 0, 0)" style="fill-opacity:1.00" />
<text x="287.000000" y="140">
4
</text>
<rect height="7.000000" width="2.000000" x="325.000000" y="120.000000" fill="rgb(0, 0, 0)" style="fill-opacity:1.00" />
<text x="347.000000" y="140">
5
</text>
<rect height="7.000000" width="2.000000" x="385.000000" y="120.000000" fill="rgb(0, 0, 0)" style="fill-opacity:1.00" />
<text x="407.000000" y="140">
6
</text>
<rect height="7.000000" width="2.000000" x="445.000000" y="120.000000" fill="rgb(0, 0, 0)" style="fill-opacity:1.00" />
<text x="467.000000" y="140">
7
</text>
<rect height="7.000000" width="2.000000" x="505.000000" y="120.000000" fill="rgb(0, 0, 0)" style="fill-opacity:1.00" />
<text x="527.000000" y="140">
8
</text>
<rect height="7.000000" width="2.000000" x="565.000000" y="120.000000" fill="rgb(0, 0, 0)" style="fill-opacity:1.00" />
<text x="587.000000" y="140">
9
</text>
<rect height="7.000000" width="2.000000" x="625.000000" y="120.000000" fill="rgb(0, 0, 0)" style="fill-opacity:1.00" />
<text x="647.000000" y="140">
10
</text>
<rect height="7.000000" width="2.000000" x="685.000000" y="120.000000" fill="rgb(0, 0, 0)" style="fill-opacity:1.00" />
<text x="707.000000" y="140">
11
</text>
<rect height="7.000000" width="2.000000" x="745.000000" y="120.000000" fill="rgb(0, 0, 0)" style="fill-opacity:1.00" />
<text x="767.000000" y="140">
12
</text>
<rect height="7.000000" width="2.000000" x="805.000000" y="120.000000" fill="rgb(0, 0, 0)" style="fill-opacity:1.00" />
<text x="827.000000" y="140">
13
</text>
<rect height="7.000000" width="2.000000" x="865.000000" y="120.000000" fill="rgb(0, 0, 0)" style="fill-opacity:1.00" />
<text x="887.000000" y="140">
14
</text>
<rect height="7.000000" width="2.000000" x="925.000000" y="120.000000" fill="rgb(0, 0, 0)" style="fill-opacity:1.00" />
<text x="947.000000" y="140">
15
</text>
<rect height="7.000000" width="2.000000" x="985.000000" y="120.000000" fill="rgb(0, 0, 0)" style="fill-opacity:1.00" />
<text x="1007.000000" y="140">
16
</text>
<rect height="7.000000" width="2.000000" x="1045.000000" y="120.000000" fill="rgb(0, 0, 0)" style="fill-opacity:1.00" />
<text x="1067.000000" y="140">
17
</text>
<rect height="7.000000" width="2.000000" x="1105.000000" y="120.000000" fill="rgb(0, 0, 0)" style="fill-opacity:1.00" />
<text x="1127.000000" y="140">
18
</text>
<rect height="7.000000" width="2.000000" x="1165.000000" y="120.000000" fill="rgb(0, 0, 0)" style="fill-opacity:1.00" />
<line x1="80" y1="112" x2="80" y2="10" style="stroke:rgb(99,99,99);stroke-width:2" />
<rect height="2.000000" width="7.000000" x="73.000000" y="110.000000" fill="rgb(0, 0, 0)" style="fill-opacity:1.00" />
<text x="63" y="115">
0
</text>
<rect height="2.000000" width="7.000000" x="73.000000" y="60.000000" fill="rgb(0, 0, 0)" style="fill-opacity:1.00" />
<text x="63" y="65">
1
</text>
<rect height="2.000000" width="7.000000" x="73.000000" y="10.000000" fill="rgb(0, 0, 0)" style="fill-opacity:1.00" />
<text x="63" y="15">
2
</text>
<text x="50" y="65"
transform="rotate(-90, 50, 70)">
bits
</text>
<!-- Begin 'G' -->
<ellipse cx="115.000000" cy="103.137728" rx="25.000000" ry="2.127318" fill="rgb(255, 165, 0)" style="fill-opacity:1.00" />
<ellipse cx="115.000000" cy="103.137728" rx="16.666667" ry="1.418212" fill="rgb(255, 255, 255)" style="fill-opacity:1.00" />
<rect height="2.127318" width="25.000000" x="115.000000" y="102.074069" fill="rgb(255, 255, 255)" style="fill-opacity:1.00" />
<rect height="0.531830" width="25.000000" x="115.000000" y="103.669557" fill="rgb(255, 165, 0)" style="fill-opacity:1.00" />
<rect height="1.595489" width="6.250000" x="133.750000" y="103.669557" fill="rgb(255, 165, 0)" style="fill-opacity:1.00" />
<!-- End 'G' -->
<!-- Begin 'C' -->
<ellipse cx="115.000000" cy="106.259658" rx="25.000000" ry="0.994612" fill="rgb(0, 0, 128)" style="fill-opacity:1.00" />
<ellipse cx="115.000000" cy="106.259658" rx="16.666667" ry="0.663075" fill="rgb(255, 255, 255)" style="fill-opacity:1.00" />
<rect height="0.994612" width="25.000000" x="115.000000" y="105.762352" fill="rgb(255, 255, 255)" style="fill-opacity:1.00" />
<!-- End 'C' -->
<!-- Begin 'A' -->
<polygon points=" 90.000000, 108.661820, 111.000000, 107.254270, 119.000000, 107.254270, 140.000000, 108.661820, 132.500000, 108.661820, 126.250000, 108.309933, 103.750000, 108.309933, 97.500000, 108.661820" fill="rgb(178, 34, 34)" style="fill-opacity:1.00" />
<!-- End 'A' -->
<!-- Begin 'T' -->
<rect height="0.214109" width="50.000000" x="90.000000" y="108.661820" fill="rgb(0, 100, 0)" style="fill-opacity:1.00" />
<rect height="1.338180" width="10.000000" x="110.000000" y="108.661820" fill="rgb(0, 100, 0)" style="fill-opacity:1.00" />
<!-- End 'T' -->
<!-- Begin 'C' -->
<ellipse cx="175.000000" cy="99.384754" rx="25.000000" ry="3.648697" fill="rgb(0, 0, 128)" style="fill-opacity:1.00" />
<ellipse cx="175.000000" cy="99.384754" rx="16.666667" ry="2.432465" fill="rgb(255, 255, 255)" style="fill-opacity:1.00" />
<rect height="3.648697" width="25.000000" x="175.000000" y="97.560405" fill="rgb(255, 255, 255)" style="fill-opacity:1.00" />
<!-- End 'C' -->
<!-- Begin 'A' -->
<polygon points=" 150.000000, 106.017629, 171.000000, 103.033451, 179.000000, 103.033451, 200.000000, 106.017629, 192.500000, 106.017629, 186.250000, 105.271584, 163.750000, 105.271584, 157.500000, 106.017629" fill="rgb(178, 34, 34)" style="fill-opacity:1.00" />
<!-- End 'A' -->
<!-- Begin 'T' -->
<rect height="0.466667" width="50.000000" x="150.000000" y="106.017629" fill="rgb(0, 100, 0)" style="fill-opacity:1.00" />
<rect height="2.916668" width="10.000000" x="170.000000" y="106.017629" fill="rgb(0, 100, 0)" style="fill-opacity:1.00" />
<!-- End 'T' -->
<!-- Begin 'G' -->
<ellipse cx="175.000000" cy="109.467148" rx="25.000000" ry="0.532852" fill="rgb(255, 165, 0)" style="fill-opacity:1.00" />
<ellipse cx="175.000000" cy="109.467148" rx="16.666667" ry="0.355234" fill="rgb(255, 255, 255)" style="fill-opacity:1.00" />
<rect height="0.532852" width="25.000000" x="175.000000" y="109.200723" fill="rgb(255, 255, 255)" style="fill-opacity:1.00" />
<rect height="0.133213" width="25.000000" x="175.000000" y="109.600361" fill="rgb(255, 165, 0)" style="fill-opacity:1.00" />
<rect height="0.399639" width="6.250000" x="193.750000" y="109.600361" fill="rgb(255, 165, 0)" style="fill-opacity:1.00" />
<!-- End 'G' -->
<!-- Begin 'T' -->
<rect height="1.371440" width="50.000000" x="210.000000" y="94.540968" fill="rgb(0, 100, 0)" style="fill-opacity:1.00" />
<rect height="8.571499" width="10.000000" x="230.000000" y="94.540968" fill="rgb(0, 100, 0)" style="fill-opacity:1.00" />
<!-- End 'T' -->
<!-- Begin 'A' -->
<polygon points=" 210.000000, 105.676557, 231.000000, 103.112467, 239.000000, 103.112467, 260.000000, 105.676557, 252.500000, 105.676557, 246.250000, 105.035534, 223.750000, 105.035534, 217.500000, 105.676557" fill="rgb(178, 34, 34)" style="fill-opacity:1.00" />
<!-- End 'A' -->
<!-- Begin 'C' -->
<ellipse cx="235.000000" cy="106.920411" rx="25.000000" ry="1.243855" fill="rgb(0, 0, 128)" style="fill-opacity:1.00" />
<ellipse cx="235.000000" cy="106.920411" rx="16.666667" ry="0.829237" fill="rgb(255, 255, 255)" style="fill-opacity:1.00" />
<rect height="1.243855" width="25.000000" x="235.000000" y="106.298484" fill="rgb(255, 255, 255)" style="fill-opacity:1.00" />
<!-- End 'C' -->
<!-- Begin 'G' -->
<ellipse cx="235.000000" cy="109.082133" rx="25.000000" ry="0.917867" fill="rgb(255, 165, 0)" style="fill-opacity:1.00" />
<ellipse cx="235.000000" cy="109.082133" rx="16.666667" ry="0.611911" fill="rgb(255, 255, 255)" style="fill-opacity:1.00" />
<rect height="0.917867" width="25.000000" x="235.000000" y="108.623200" fill="rgb(255, 255, 255)" style="fill-opacity:1.00" />
<rect height="0.229467" width="25.000000" x="235.000000" y="109.311600" fill="rgb(255, 165, 0)" style="fill-opacity:1.00" />
<rect height="0.688400" width="6.250000" x="253.750000" y="109.311600" fill="rgb(255, 165, 0)" style="fill-opacity:1.00" />
<!-- End 'G' -->
<!-- Begin 'G' -->
<ellipse cx="295.000000" cy="101.205588" rx="25.000000" ry="2.709380" fill="rgb(255, 165, 0)" style="fill-opacity:1.00" />
<ellipse cx="295.000000" cy="101.205588" rx="16.666667" ry="1.806253" fill="rgb(255, 255, 255)" style="fill-opacity:1.00" />
<rect height="2.709380" width="25.000000" x="295.000000" y="99.850898" fill="rgb(255, 255, 255)" style="fill-opacity:1.00" />
<rect height="0.677345" width="25.000000" x="295.000000" y="101.882933" fill="rgb(255, 165, 0)" style="fill-opacity:1.00" />
<rect height="2.032035" width="6.250000" x="313.750000" y="101.882933" fill="rgb(255, 165, 0)" style="fill-opacity:1.00" />
<!-- End 'G' -->
<!-- Begin 'A' -->
<polygon points=" 270.000000, 106.997219, 291.000000, 103.914968, 299.000000, 103.914968, 320.000000, 106.997219, 312.500000, 106.997219, 306.250000, 106.226656, 283.750000, 106.226656, 277.500000, 106.997219" fill="rgb(178, 34, 34)" style="fill-opacity:1.00" />
<!-- End 'A' -->
<!-- Begin 'T' -->
<rect height="0.313035" width="50.000000" x="270.000000" y="106.997219" fill="rgb(0, 100, 0)" style="fill-opacity:1.00" />
<rect height="1.956470" width="10.000000" x="290.000000" y="106.997219" fill="rgb(0, 100, 0)" style="fill-opacity:1.00" />
<!-- End 'T' -->
<!-- Begin 'C' -->
<ellipse cx="295.000000" cy="109.476844" rx="25.000000" ry="0.523156" fill="rgb(0, 0, 128)" style="fill-opacity:1.00" />
<ellipse cx="295.000000" cy="109.476844" rx="16.666667" ry="0.348770" fill="rgb(255, 255, 255)" style="fill-opacity:1.00" />
<rect height="0.523156" width="25.000000" x="295.000000" y="109.215267" fill="rgb(255, 255, 255)" style="fill-opacity:1.00" />
<!-- End 'C' -->
<!-- Begin 'A' -->
<polygon points=" 330.000000, 101.344409, 351.000000, 86.766464, 359.000000, 86.766464, 380.000000, 101.344409, 372.500000, 101.344409, 366.250000, 97.699923, 343.750000, 97.699923, 337.500000, 101.344409" fill="rgb(178, 34, 34)" style="fill-opacity:1.00" />
<polygon points=" 355.000000, 89.682053, 347.000000, 94.513231, 362.000000, 94.513231" fill="rgb(255, 255, 255)" style="fill-opacity:1.00" />
<!-- End 'A' -->
<!-- Begin 'T' -->
<rect height="0.572476" width="50.000000" x="330.000000" y="101.344409" fill="rgb(0, 100, 0)" style="fill-opacity:1.00" />
<rect height="3.577976" width="10.000000" x="350.000000" y="101.344409" fill="rgb(0, 100, 0)" style="fill-opacity:1.00" />
<!-- End 'T' -->
<!-- Begin 'C' -->
<ellipse cx="355.000000" cy="106.243822" rx="25.000000" ry="1.321436" fill="rgb(0, 0, 128)" style="fill-opacity:1.00" />
<ellipse cx="355.000000" cy="106.243822" rx="16.666667" ry="0.880957" fill="rgb(255, 255, 255)" style="fill-opacity:1.00" />
<rect height="1.321436" width="25.000000" x="355.000000" y="105.583104" fill="rgb(255, 255, 255)" style="fill-opacity:1.00" />
<!-- End 'C' -->
<!-- Begin 'G' -->
<ellipse cx="355.000000" cy="108.782629" rx="25.000000" ry="1.217371" fill="rgb(255, 165, 0)" style="fill-opacity:1.00" />
<ellipse cx="355.000000" cy="108.782629" rx="16.666667" ry="0.811581" fill="rgb(255, 255, 255)" style="fill-opacity:1.00" />
<rect height="1.217371" width="25.000000" x="355.000000" y="108.173943" fill="rgb(255, 255, 255)" style="fill-opacity:1.00" />
<rect height="0.304343" width="25.000000" x="355.000000" y="109.086972" fill="rgb(255, 165, 0)" style="fill-opacity:1.00" />
<rect height="0.913028" width="6.250000" x="373.750000" y="109.086972" fill="rgb(255, 165, 0)" style="fill-opacity:1.00" />
<!-- End 'G' -->
<!-- Begin 'G' -->
<ellipse cx="415.000000" cy="102.823225" rx="25.000000" ry="1.688073" fill="rgb(255, 165, 0)" style="fill-opacity:1.00" />
<ellipse cx="415.000000" cy="102.823225" rx="16.666667" ry="1.125382" fill="rgb(255, 255, 255)" style="fill-opacity:1.00" />
<rect height="1.688073" width="25.000000" x="415.000000" y="101.979188" fill="rgb(255, 255, 255)" style="fill-opacity:1.00" />
<rect height="0.422018" width="25.000000" x="415.000000" y="103.245243" fill="rgb(255, 165, 0)" style="fill-opacity:1.00" />
<rect height="1.266055" width="6.250000" x="433.750000" y="103.245243" fill="rgb(255, 165, 0)" style="fill-opacity:1.00" />
<!-- End 'G' -->
<!-- Begin 'C' -->
<ellipse cx="415.000000" cy="106.110709" rx="25.000000" ry="1.599411" fill="rgb(0, 0, 128)" style="fill-opacity:1.00" />
<ellipse cx="415.000000" cy="106.110709" rx="16.666667" ry="1.066274" fill="rgb(255, 255, 255)" style="fill-opacity:1.00" />
<rect height="1.599411" width="25.000000" x="415.000000" y="105.311004" fill="rgb(255, 255, 255)" style="fill-opacity:1.00" />
<!-- End 'C' -->
<!-- Begin 'A' -->
<polygon points=" 390.000000, 108.942720, 411.000000, 107.710120, 419.000000, 107.710120, 440.000000, 108.942720, 432.500000, 108.942720, 426.250000, 108.634570, 403.750000, 108.634570, 397.500000, 108.942720" fill="rgb(178, 34, 34)" style="fill-opacity:1.00" />
<!-- End 'A' -->
<!-- Begin 'T' -->
<rect height="0.169165" width="50.000000" x="390.000000" y="108.942720" fill="rgb(0, 100, 0)" style="fill-opacity:1.00" />
<rect height="1.057280" width="10.000000" x="410.000000" y="108.942720" fill="rgb(0, 100, 0)" style="fill-opacity:1.00" />
<!-- End 'T' -->
<!-- Begin 'T' -->
<rect height="4.079561" width="50.000000" x="450.000000" y="74.508909" fill="rgb(0, 100, 0)" style="fill-opacity:1.00" />
<rect height="25.497258" width="10.000000" x="470.000000" y="74.508909" fill="rgb(0, 100, 0)" style="fill-opacity:1.00" />
<!-- End 'T' -->
<!-- Begin 'A' -->
<polygon points=" 450.000000, 104.592102, 471.000000, 100.006167, 479.000000, 100.006167, 500.000000, 104.592102, 492.500000, 104.592102, 486.250000, 103.445618, 463.750000, 103.445618, 457.500000, 104.592102" fill="rgb(178, 34, 34)" style="fill-opacity:1.00" />
<!-- End 'A' -->
<!-- Begin 'C' -->
<ellipse cx="475.000000" cy="105.957628" rx="25.000000" ry="1.365526" fill="rgb(0, 0, 128)" style="fill-opacity:1.00" />
<ellipse cx="475.000000" cy="105.957628" rx="16.666667" ry="0.910350" fill="rgb(255, 255, 255)" style="fill-opacity:1.00" />
<rect height="1.365526" width="25.000000" x="475.000000" y="105.274865" fill="rgb(255, 255, 255)" style="fill-opacity:1.00" />
<!-- End 'C' -->
<!-- Begin 'G' -->
<ellipse cx="475.000000" cy="108.661577" rx="25.000000" ry="1.338423" fill="rgb(255, 165, 0)" style="fill-opacity:1.00" />
<ellipse cx="475.000000" cy="108.661577" rx="16.666667" ry="0.892282" fill="rgb(255, 255, 255)" style="fill-opacity:1.00" />
<rect height="1.338423" width="25.000000" x="475.000000" y="107.992365" fill="rgb(255, 255, 255)" style="fill-opacity:1.00" />
<rect height="0.334606" width="25.000000" x="475.000000" y="108.996183" fill="rgb(255, 165, 0)" style="fill-opacity:1.00" />
<rect height="1.003817" width="6.250000" x="493.750000" y="108.996183" fill="rgb(255, 165, 0)" style="fill-opacity:1.00" />
<!-- End 'G' -->
<!-- Begin 'C' -->
<ellipse cx="535.000000" cy="97.467594" rx="25.000000" ry="4.846112" fill="rgb(0, 0, 128)" style="fill-opacity:1.00" />
<ellipse cx="535.000000" cy="97.467594" rx="16.666667" ry="3.230742" fill="rgb(255, 255, 255)" style="fill-opacity:1.00" />
<rect height="4.846112" width="25.000000" x="535.000000" y="95.044537" fill="rgb(255, 255, 255)" style="fill-opacity:1.00" />
<!-- End 'C' -->
<!-- Begin 'T' -->
<rect height="0.518252" width="50.000000" x="510.000000" y="102.313706" fill="rgb(0, 100, 0)" style="fill-opacity:1.00" />
<rect height="3.239076" width="10.000000" x="530.000000" y="102.313706" fill="rgb(0, 100, 0)" style="fill-opacity:1.00" />
<!-- End 'T' -->
<!-- Begin 'A' -->
<polygon points=" 510.000000, 108.634442, 531.000000, 105.552782, 539.000000, 105.552782, 560.000000, 108.634442, 552.500000, 108.634442, 546.250000, 107.864027, 523.750000, 107.864027, 517.500000, 108.634442" fill="rgb(178, 34, 34)" style="fill-opacity:1.00" />
<!-- End 'A' -->
<!-- Begin 'G' -->
<ellipse cx="535.000000" cy="109.317221" rx="25.000000" ry="0.682779" fill="rgb(255, 165, 0)" style="fill-opacity:1.00" />
<ellipse cx="535.000000" cy="109.317221" rx="16.666667" ry="0.455186" fill="rgb(255, 255, 255)" style="fill-opacity:1.00" />
<rect height="0.682779" width="25.000000" x="535.000000" y="108.975832" fill="rgb(255, 255, 255)" style="fill-opacity:1.00" />
<rect height="0.170695" width="25.000000" x="535.000000" y="109.487916" fill="rgb(255, 165, 0)" style="fill-opacity:1.00" />
<rect height="0.512084" width="6.250000" x="553.750000" y="109.487916" fill="rgb(255, 165, 0)" style="fill-opacity:1.00" />
<!-- End 'G' -->
<!-- Begin 'A' -->
<polygon points=" 570.000000, 99.483052, 591.000000, 80.361597, 599.000000, 80.361597, 620.000000, 99.483052, 612.500000, 99.483052, 606.250000, 94.702688, 583.750000, 94.702688, 577.500000, 99.483052" fill="rgb(178, 34, 34)" style="fill-opacity:1.00" />
<polygon points=" 595.000000, 84.185888, 587.000000, 90.834470, 602.000000, 90.834470" fill="rgb(255, 255, 255)" style="fill-opacity:1.00" />
<!-- End 'A' -->
<!-- Begin 'T' -->
<rect height="0.782559" width="50.000000" x="570.000000" y="99.483052" fill="rgb(0, 100, 0)" style="fill-opacity:1.00" />
<rect height="4.890995" width="10.000000" x="590.000000" y="99.483052" fill="rgb(0, 100, 0)" style="fill-opacity:1.00" />
<!-- End 'T' -->
<!-- Begin 'G' -->
<ellipse cx="595.000000" cy="106.767658" rx="25.000000" ry="2.393611" fill="rgb(255, 165, 0)" style="fill-opacity:1.00" />
<ellipse cx="595.000000" cy="106.767658" rx="16.666667" ry="1.595740" fill="rgb(255, 255, 255)" style="fill-opacity:1.00" />
<rect height="2.393611" width="25.000000" x="595.000000" y="105.570853" fill="rgb(255, 255, 255)" style="fill-opacity:1.00" />
<rect height="0.598403" width="25.000000" x="595.000000" y="107.366061" fill="rgb(255, 165, 0)" style="fill-opacity:1.00" />
<rect height="1.795208" width="6.250000" x="613.750000" y="107.366061" fill="rgb(255, 165, 0)" style="fill-opacity:1.00" />
<!-- End 'G' -->
<!-- Begin 'C' -->
<ellipse cx="595.000000" cy="109.580634" rx="25.000000" ry="0.419366" fill="rgb(0, 0, 128)" style="fill-opacity:1.00" />
<ellipse cx="595.000000" cy="109.580634" rx="16.666667" ry="0.279577" fill="rgb(255, 255, 255)" style="fill-opacity:1.00" />
<rect height="0.419366" width="25.000000" x="595.000000" y="109.370952" fill="rgb(255, 255, 255)" style="fill-opacity:1.00" />
<!-- End 'C' -->
<!-- Begin 'G' -->
<ellipse cx="655.000000" cy="90.077108" rx="25.000000" ry="9.574090" fill="rgb(255, 165, 0)" style="fill-opacity:1.00" />
<ellipse cx="655.000000" cy="90.077108" rx="16.666667" ry="6.382727" fill="rgb(255, 255, 255)" style="fill-opacity:1.00" />
<rect height="9.574090" width="25.000000" x="655.000000" y="85.290063" fill="rgb(255, 255, 255)" style="fill-opacity:1.00" />
<rect height="2.393523" width="25.000000" x="655.000000" y="92.470631" fill="rgb(255, 165, 0)" style="fill-opacity:1.00" />
<rect height="7.180568" width="6.250000" x="673.750000" y="92.470631" fill="rgb(255, 165, 0)" style="fill-opacity:1.00" />
<!-- End 'G' -->
<!-- Begin 'T' -->
<rect height="0.938574" width="50.000000" x="630.000000" y="99.651198" fill="rgb(0, 100, 0)" style="fill-opacity:1.00" />
<rect height="5.866091" width="10.000000" x="650.000000" y="99.651198" fill="rgb(0, 100, 0)" style="fill-opacity:1.00" />
<!-- End 'T' -->
<!-- Begin 'A' -->
<polygon points=" 630.000000, 108.767684, 651.000000, 105.517289, 659.000000, 105.517289, 680.000000, 108.767684, 672.500000, 108.767684, 666.250000, 107.955085, 643.750000, 107.955085, 637.500000, 108.767684" fill="rgb(178, 34, 34)" style="fill-opacity:1.00" />
<!-- End 'A' -->
<!-- Begin 'C' -->
<ellipse cx="655.000000" cy="109.383842" rx="25.000000" ry="0.616158" fill="rgb(0, 0, 128)" style="fill-opacity:1.00" />
<ellipse cx="655.000000" cy="109.383842" rx="16.666667" ry="0.410772" fill="rgb(255, 255, 255)" style="fill-opacity:1.00" />
<rect height="0.616158" width="25.000000" x="655.000000" y="109.075763" fill="rgb(255, 255, 255)" style="fill-opacity:1.00" />
<!-- End 'C' -->
<!-- Begin 'C' -->
<ellipse cx="715.000000" cy="88.436725" rx="25.000000" ry="11.776215" fill="rgb(0, 0, 128)" style="fill-opacity:1.00" />
<ellipse cx="715.000000" cy="88.436725" rx="16.666667" ry="7.850810" fill="rgb(255, 255, 255)" style="fill-opacity:1.00" />
<rect height="11.776215" width="25.000000" x="715.000000" y="82.548618" fill="rgb(255, 255, 255)" style="fill-opacity:1.00" />
<!-- End 'C' -->
<!-- Begin 'G' -->
<ellipse cx="715.000000" cy="102.213433" rx="25.000000" ry="2.000493" fill="rgb(255, 165, 0)" style="fill-opacity:1.00" />
<ellipse cx="715.000000" cy="102.213433" rx="16.666667" ry="1.333662" fill="rgb(255, 255, 255)" style="fill-opacity:1.00" />
<rect height="2.000493" width="25.000000" x="715.000000" y="101.213186" fill="rgb(255, 255, 255)" style="fill-opacity:1.00" />
<rect height="0.500123" width="25.000000" x="715.000000" y="102.713556" fill="rgb(255, 165, 0)" style="fill-opacity:1.00" />
<rect height="1.500370" width="6.250000" x="733.750000" y="102.713556" fill="rgb(255, 165, 0)" style="fill-opacity:1.00" />
<!-- End 'G' -->
<!-- Begin 'T' -->
<rect height="0.475019" width="50.000000" x="690.000000" y="104.213926" fill="rgb(0, 100, 0)" style="fill-opacity:1.00" />
<rect height="2.968867" width="10.000000" x="710.000000" y="104.213926" fill="rgb(0, 100, 0)" style="fill-opacity:1.00" />
<!-- End 'T' -->
<!-- Begin 'A' -->
<polygon points=" 690.000000, 110.000000, 711.000000, 107.182793, 719.000000, 107.182793, 740.000000, 110.000000, 732.500000, 110.000000, 726.250000, 109.295698, 703.750000, 109.295698, 697.500000, 110.000000" fill="rgb(178, 34, 34)" style="fill-opacity:1.00" />
<!-- End 'A' -->
<!-- Begin 'A' -->
<polygon points=" 750.000000, 100.890649, 771.000000, 84.363721, 779.000000, 84.363721, 800.000000, 100.890649, 792.500000, 100.890649, 786.250000, 96.758917, 763.750000, 96.758917, 757.500000, 100.890649" fill="rgb(178, 34, 34)" style="fill-opacity:1.00" />
<polygon points=" 775.000000, 87.669107, 767.000000, 93.279878, 782.000000, 93.279878" fill="rgb(255, 255, 255)" style="fill-opacity:1.00" />
<!-- End 'A' -->
<!-- Begin 'T' -->
<rect height="0.648884" width="50.000000" x="750.000000" y="100.890649" fill="rgb(0, 100, 0)" style="fill-opacity:1.00" />
<rect height="4.055523" width="10.000000" x="770.000000" y="100.890649" fill="rgb(0, 100, 0)" style="fill-opacity:1.00" />
<!-- End 'T' -->
<!-- Begin 'G' -->
<ellipse cx="775.000000" cy="106.307032" rx="25.000000" ry="1.360860" fill="rgb(255, 165, 0)" style="fill-opacity:1.00" />
<ellipse cx="775.000000" cy="106.307032" rx="16.666667" ry="0.907240" fill="rgb(255, 255, 255)" style="fill-opacity:1.00" />
<rect height="1.360860" width="25.000000" x="775.000000" y="105.626602" fill="rgb(255, 255, 255)" style="fill-opacity:1.00" />
<rect height="0.340215" width="25.000000" x="775.000000" y="106.647247" fill="rgb(255, 165, 0)" style="fill-opacity:1.00" />
<rect height="1.020645" width="6.250000" x="793.750000" y="106.647247" fill="rgb(255, 165, 0)" style="fill-opacity:1.00" />
<!-- End 'G' -->
<!-- Begin 'C' -->
<ellipse cx="775.000000" cy="108.833946" rx="25.000000" ry="1.166054" fill="rgb(0, 0, 128)" style="fill-opacity:1.00" />
<ellipse cx="775.000000" cy="108.833946" rx="16.666667" ry="0.777369" fill="rgb(255, 255, 255)" style="fill-opacity:1.00" />
<rect height="1.166054" width="25.000000" x="775.000000" y="108.250919" fill="rgb(255, 255, 255)" style="fill-opacity:1.00" />
<!-- End 'C' -->
<!-- Begin 'A' -->
<polygon points=" 810.000000, 106.995225, 831.000000, 105.213976, 839.000000, 105.213976, 860.000000, 106.995225, 852.500000, 106.995225, 846.250000, 106.549912, 823.750000, 106.549912, 817.500000, 106.995225" fill="rgb(178, 34, 34)" style="fill-opacity:1.00" />
<!-- End 'A' -->
<!-- Begin 'T' -->
<rect height="0.227535" width="50.000000" x="810.000000" y="106.995225" fill="rgb(0, 100, 0)" style="fill-opacity:1.00" />
<rect height="1.422094" width="10.000000" x="830.000000" y="106.995225" fill="rgb(0, 100, 0)" style="fill-opacity:1.00" />
<!-- End 'T' -->
<!-- Begin 'G' -->
<ellipse cx="835.000000" cy="108.871671" rx="25.000000" ry="0.454353" fill="rgb(255, 165, 0)" style="fill-opacity:1.00" />
<ellipse cx="835.000000" cy="108.871671" rx="16.666667" ry="0.302902" fill="rgb(255, 255, 255)" style="fill-opacity:1.00" />
<rect height="0.454353" width="25.000000" x="835.000000" y="108.644495" fill="rgb(255, 255, 255)" style="fill-opacity:1.00" />
<rect height="0.113588" width="25.000000" x="835.000000" y="108.985260" fill="rgb(255, 165, 0)" style="fill-opacity:1.00" />
<rect height="0.340765" width="6.250000" x="853.750000" y="108.985260" fill="rgb(255, 165, 0)" style="fill-opacity:1.00" />
<!-- End 'G' -->
<!-- Begin 'C' -->
<ellipse cx="835.000000" cy="109.663012" rx="25.000000" ry="0.336988" fill="rgb(0, 0, 128)" style="fill-opacity:1.00" />
<ellipse cx="835.000000" cy="109.663012" rx="16.666667" ry="0.224659" fill="rgb(255, 255, 255)" style="fill-opacity:1.00" />
<rect height="0.336988" width="25.000000" x="835.000000" y="109.494518" fill="rgb(255, 255, 255)" style="fill-opacity:1.00" />
<!-- End 'C' -->
<!-- Begin 'T' -->
<rect height="1.202487" width="50.000000" x="870.000000" y="92.669725" fill="rgb(0, 100, 0)" style="fill-opacity:1.00" />
<rect height="7.515542" width="10.000000" x="890.000000" y="92.669725" fill="rgb(0, 100, 0)" style="fill-opacity:1.00" />
<!-- End 'T' -->
<!-- Begin 'A' -->
<polygon points=" 870.000000, 107.077455, 891.000000, 100.185267, 899.000000, 100.185267, 920.000000, 107.077455, 912.500000, 107.077455, 906.250000, 105.354408, 883.750000, 105.354408, 877.500000, 107.077455" fill="rgb(178, 34, 34)" style="fill-opacity:1.00" />
<!-- End 'A' -->
<!-- Begin 'G' -->
<ellipse cx="895.000000" cy="107.824649" rx="25.000000" ry="0.747195" fill="rgb(255, 165, 0)" style="fill-opacity:1.00" />
<ellipse cx="895.000000" cy="107.824649" rx="16.666667" ry="0.498130" fill="rgb(255, 255, 255)" style="fill-opacity:1.00" />
<rect height="0.747195" width="25.000000" x="895.000000" y="107.451052" fill="rgb(255, 255, 255)" style="fill-opacity:1.00" />
<rect height="0.186799" width="25.000000" x="895.000000" y="108.011448" fill="rgb(255, 165, 0)" style="fill-opacity:1.00" />
<rect height="0.560396" width="6.250000" x="913.750000" y="108.011448" fill="rgb(255, 165, 0)" style="fill-opacity:1.00" />
<!-- End 'G' -->
<!-- Begin 'C' -->
<ellipse cx="895.000000" cy="109.285922" rx="25.000000" ry="0.714078" fill="rgb(0, 0, 128)" style="fill-opacity:1.00" />
<ellipse cx="895.000000" cy="109.285922" rx="16.666667" ry="0.476052" fill="rgb(255, 255, 255)" style="fill-opacity:1.00" />
<rect height="0.714078" width="25.000000" x="895.000000" y="108.928883" fill="rgb(255, 255, 255)" style="fill-opacity:1.00" />
<!-- End 'C' -->
<!-- Begin 'T' -->
<rect height="1.514826" width="50.000000" x="930.000000" y="90.613774" fill="rgb(0, 100, 0)" style="fill-opacity:1.00" />
<rect height="9.467660" width="10.000000" x="950.000000" y="90.613774" fill="rgb(0, 100, 0)" style="fill-opacity:1.00" />
<!-- End 'T' -->
<!-- Begin 'A' -->
<polygon points=" 930.000000, 106.937955, 951.000000, 100.081434, 959.000000, 100.081434, 980.000000, 106.937955, 972.500000, 106.937955, 966.250000, 105.223825, 943.750000, 105.223825, 937.500000, 106.937955" fill="rgb(178, 34, 34)" style="fill-opacity:1.00" />
<!-- End 'A' -->
<!-- Begin 'C' -->
<ellipse cx="955.000000" cy="107.791147" rx="25.000000" ry="0.853193" fill="rgb(0, 0, 128)" style="fill-opacity:1.00" />
<ellipse cx="955.000000" cy="107.791147" rx="16.666667" ry="0.568795" fill="rgb(255, 255, 255)" style="fill-opacity:1.00" />
<rect height="0.853193" width="25.000000" x="955.000000" y="107.364551" fill="rgb(255, 255, 255)" style="fill-opacity:1.00" />
<!-- End 'C' -->
<!-- Begin 'G' -->
<ellipse cx="955.000000" cy="109.322170" rx="25.000000" ry="0.677830" fill="rgb(255, 165, 0)" style="fill-opacity:1.00" />
<ellipse cx="955.000000" cy="109.322170" rx="16.666667" ry="0.451887" fill="rgb(255, 255, 255)" style="fill-opacity:1.00" />
<rect height="0.677830" width="25.000000" x="955.000000" y="108.983255" fill="rgb(255, 255, 255)" style="fill-opacity:1.00" />
<rect height="0.169458" width="25.000000" x="955.000000" y="109.491627" fill="rgb(255, 165, 0)" style="fill-opacity:1.00" />
<rect height="0.508373" width="6.250000" x="973.750000" y="109.491627" fill="rgb(255, 165, 0)" style="fill-opacity:1.00" />
<!-- End 'G' -->
<!-- Begin 'T' -->
<rect height="0.927710" width="50.000000" x="990.000000" y="97.538964" fill="rgb(0, 100, 0)" style="fill-opacity:1.00" />
<rect height="5.798187" width="10.000000" x="1010.000000" y="97.538964" fill="rgb(0, 100, 0)" style="fill-opacity:1.00" />
<!-- End 'T' -->
<!-- Begin 'A' -->
<polygon points=" 990.000000, 107.040893, 1011.000000, 103.337151, 1019.000000, 103.337151, 1040.000000, 107.040893, 1032.500000, 107.040893, 1026.250000, 106.114958, 1003.750000, 106.114958, 997.500000, 107.040893" fill="rgb(178, 34, 34)" style="fill-opacity:1.00" />
<!-- End 'A' -->
<!-- Begin 'C' -->
<ellipse cx="1015.000000" cy="107.983785" rx="25.000000" ry="0.942892" fill="rgb(0, 0, 128)" style="fill-opacity:1.00" />
<ellipse cx="1015.000000" cy="107.983785" rx="16.666667" ry="0.628595" fill="rgb(255, 255, 255)" style="fill-opacity:1.00" />
<rect height="0.942892" width="25.000000" x="1015.000000" y="107.512339" fill="rgb(255, 255, 255)" style="fill-opacity:1.00" />
<!-- End 'C' -->
<!-- Begin 'G' -->
<ellipse cx="1015.000000" cy="109.463339" rx="25.000000" ry="0.536661" fill="rgb(255, 165, 0)" style="fill-opacity:1.00" />
<ellipse cx="1015.000000" cy="109.463339" rx="16.666667" ry="0.357774" fill="rgb(255, 255, 255)" style="fill-opacity:1.00" />
<rect height="0.536661" width="25.000000" x="1015.000000" y="109.195008" fill="rgb(255, 255, 255)" style="fill-opacity:1.00" />
<rect height="0.134165" width="25.000000" x="1015.000000" y="109.597504" fill="rgb(255, 165, 0)" style="fill-opacity:1.00" />
<rect height="0.402496" width="6.250000" x="1033.750000" y="109.597504" fill="rgb(255, 165, 0)" style="fill-opacity:1.00" />
<!-- End 'G' -->
<!-- Begin 'T' -->
<rect height="0.388864" width="50.000000" x="1050.000000" y="104.229320" fill="rgb(0, 100, 0)" style="fill-opacity:1.00" />
<rect height="2.430400" width="10.000000" x="1070.000000" y="104.229320" fill="rgb(0, 100, 0)" style="fill-opacity:1.00" />
<!-- End 'T' -->
<!-- Begin 'A' -->
<polygon points=" 1050.000000, 108.025758, 1071.000000, 106.659720, 1079.000000, 106.659720, 1100.000000, 108.025758, 1092.500000, 108.025758, 1086.250000, 107.684249, 1063.750000, 107.684249, 1057.500000, 108.025758" fill="rgb(178, 34, 34)" style="fill-opacity:1.00" />
<!-- End 'A' -->
<!-- Begin 'C' -->
<ellipse cx="1075.000000" cy="108.585400" rx="25.000000" ry="0.559642" fill="rgb(0, 0, 128)" style="fill-opacity:1.00" />
<ellipse cx="1075.000000" cy="108.585400" rx="16.666667" ry="0.373095" fill="rgb(255, 255, 255)" style="fill-opacity:1.00" />
<rect height="0.559642" width="25.000000" x="1075.000000" y="108.305579" fill="rgb(255, 255, 255)" style="fill-opacity:1.00" />
<!-- End 'C' -->
<!-- Begin 'G' -->
<ellipse cx="1075.000000" cy="109.572521" rx="25.000000" ry="0.427479" fill="rgb(255, 165, 0)" style="fill-opacity:1.00" />
<ellipse cx="1075.000000" cy="109.572521" rx="16.666667" ry="0.284986" fill="rgb(255, 255, 255)" style="fill-opacity:1.00" />
<rect height="0.427479" width="25.000000" x="1075.000000" y="109.358782" fill="rgb(255, 255, 255)" style="fill-opacity:1.00" />
<rect height="0.106870" width="25.000000" x="1075.000000" y="109.679391" fill="rgb(255, 165, 0)" style="fill-opacity:1.00" />
<rect height="0.320609" width="6.250000" x="1093.750000" y="109.679391" fill="rgb(255, 165, 0)" style="fill-opacity:1.00" />
<!-- End 'G' -->
<!-- Begin 'T' -->
<rect height="0.126258" width="50.000000" x="1110.000000" y="107.732253" fill="rgb(0, 100, 0)" style="fill-opacity:1.00" />
<rect height="0.789112" width="10.000000" x="1130.000000" y="107.732253" fill="rgb(0, 100, 0)" style="fill-opacity:1.00" />
<!-- End 'T' -->
<!-- Begin 'A' -->
<polygon points=" 1110.000000, 109.122698, 1131.000000, 108.521365, 1139.000000, 108.521365, 1160.000000, 109.122698, 1152.500000, 109.122698, 1146.250000, 108.972365, 1123.750000, 108.972365, 1117.500000, 109.122698" fill="rgb(178, 34, 34)" style="fill-opacity:1.00" />
<!-- End 'A' -->
<!-- Begin 'G' -->
<ellipse cx="1135.000000" cy="109.343149" rx="25.000000" ry="0.220451" fill="rgb(255, 165, 0)" style="fill-opacity:1.00" />
<ellipse cx="1135.000000" cy="109.343149" rx="16.666667" ry="0.146967" fill="rgb(255, 255, 255)" style="fill-opacity:1.00" />
<rect height="0.220451" width="25.000000" x="1135.000000" y="109.232923" fill="rgb(255, 255, 255)" style="fill-opacity:1.00" />
<rect height="0.055113" width="25.000000" x="1135.000000" y="109.398261" fill="rgb(255, 165, 0)" style="fill-opacity:1.00" />
<rect height="0.165338" width="6.250000" x="1153.750000" y="109.398261" fill="rgb(255, 165, 0)" style="fill-opacity:1.00" />
<!-- End 'G' -->
<!-- Begin 'C' -->
<ellipse cx="1135.000000" cy="109.781800" rx="25.000000" ry="0.218200" fill="rgb(0, 0, 128)" style="fill-opacity:1.00" />
<ellipse cx="1135.000000" cy="109.781800" rx="16.666667" ry="0.145467" fill="rgb(255, 255, 255)" style="fill-opacity:1.00" />
<rect height="0.218200" width="25.000000" x="1135.000000" y="109.672700" fill="rgb(255, 255, 255)" style="fill-opacity:1.00" />
<!-- End 'C' -->
<text x="610.000000" y="165">
IC = 6.31
</text>

</svg>
