<?xml version="1.0" encoding="UTF-8" standalone="yes"?>
                 <!DOCTYPE svg PUBLIC "-//W3C//DTD SVG 1.0//EN" "http://www.w3.org/TR/2001/REC-SVG-20010904/DTD/svg10.dtd">
                 <svg height="500" width="780" xmlns="http://www.w3.org/2000/svg" xmlns:xlink="http://www.w3.org/1999/xlink">
                 <line x1="85" y1="450" x2="747" y2="450" style="stroke:rgb(99,99,99);stroke-width:2" />
<rect height="7.000000" width="2.000000" x="85.000000" y="450.000000" fill="rgb(0, 0, 0)" style="fill-opacity:1.00" />
<text x="107.000000" y="470">
1
</text>
<rect height="7.000000" width="2.000000" x="145.000000" y="450.000000" fill="rgb(0, 0, 0)" style="fill-opacity:1.00" />
<text x="167.000000" y="470">
2
</text>
<rect height="7.000000" width="2.000000" x="205.000000" y="450.000000" fill="rgb(0, 0, 0)" style="fill-opacity:1.00" />
<text x="227.000000" y="470">
3
</text>
<rect height="7.000000" width="2.000000" x="265.000000" y="450.000000" fill="rgb(0, 0, 0)" style="fill-opacity:1.00" />
<text x="287.000000" y="470">
4
</text>
<rect height="7.000000" width="2.000000" x="325.000000" y="450.000000" fill="rgb(0, 0, 0)" style="fill-opacity:1.00" />
<text x="347.000000" y="470">
5
</text>
<rect height="7.000000" width="2.000000" x="385.000000" y="450.000000" fill="rgb(0, 0, 0)" style="fill-opacity:1.00" />
<text x="407.000000" y="470">
6
</text>
<rect height="7.000000" width="2.000000" x="445.000000" y="450.000000" fill="rgb(0, 0, 0)" style="fill-opacity:1.00" />
<text x="467.000000" y="470">
7
</text>
<rect height="7.000000" width="2.000000" x="505.000000" y="450.000000" fill="rgb(0, 0, 0)" style="fill-opacity:1.00" />
<text x="527.000000" y="470">
8
</text>
<rect height="7.000000" width="2.000000" x="565.000000" y="450.000000" fill="rgb(0, 0, 0)" style="fill-opacity:1.00" />
<text x="587.000000" y="470">
9
</text>
<rect height="7.000000" width="2.000000" x="625.000000" y="450.000000" fill="rgb(0, 0, 0)" style="fill-opacity:1.00" />
<text x="647.000000" y="470">
10
</text>
<rect height="7.000000" width="2.000000" x="685.000000" y="450.000000" fill="rgb(0, 0, 0)" style="fill-opacity:1.00" />
<text x="707.000000" y="470">
11
</text>
<rect height="7.000000" width="2.000000" x="745.000000" y="450.000000" fill="rgb(0, 0, 0)" style="fill-opacity:1.00" />
<!-- Begin 'A' -->
<polygon points=" 10.000000, 110.000000, 35.200000, 10.000000, 44.800000, 10.000000, 70.000000, 110.000000, 61.000000, 110.000000, 53.500000, 85.000000, 26.500000, 85.000000, 19.000000, 110.000000" fill="rgb(178, 34, 34)" style="fill-opacity:1.00" />
<polygon points=" 40.000000, 30.000000, 30.400000, 69.000000, 48.400000, 69.000000" fill="rgb(255, 255, 255)" style="fill-opacity:1.00" />
<!-- End 'A' -->
<!-- Begin 'C' -->
<ellipse cx="40.000000" cy="170.000000" rx="30.000000" ry="50.000000" fill="rgb(0, 0, 128)" style="fill-opacity:1.00" />
<ellipse cx="40.000000" cy="170.000000" rx="20.000000" ry="33.333333" fill="rgb(255, 255, 255)" style="fill-opacity:1.00" />
<rect height="50.000000" width="30.000000" x="40.000000" y="145.000000" fill="rgb(255, 255, 255)" style="fill-opacity:1.00" />
<!-- End 'C' -->
<!-- Begin 'G' -->
<ellipse cx="40.000000" cy="280.000000" rx="30.000000" ry="50.000000" fill="rgb(255, 165, 0)" style="fill-opacity:1.00" />
<ellipse cx="40.000000" cy="280.000000" rx="20.000000" ry="33.333333" fill="rgb(255, 255, 255)" style="fill-opacity:1.00" />
<rect height="50.000000" width="30.000000" x="40.000000" y="255.000000" fill="rgb(255, 255, 255)" style="fill-opacity:1.00" />
<rect height="12.500000" width="30.000000" x="40.000000" y="292.500000" fill="rgb(255, 165, 0)" style="fill-opacity:1.00" />
<rect height="37.500000" width="7.500000" x="62.500000" y="292.500000" fill="rgb(255, 165, 0)" style="fill-opacity:1.00" />
<!-- End 'G' -->
<!-- Begin 'T' -->
<rect height="16.000000" width="60.000000" x="10.000000" y="340.000000" fill="rgb(0, 100, 0)" style="fill-opacity:1.00" />
<rect height="100.000000" width="12.000000" x="34.000000" y="340.000000" fill="rgb(0, 100, 0)" style="fill-opacity:1.00" />
<!-- End 'T' -->
<!-- Begin 'G' -->
<ellipse cx="115.000000" cy="35.345055" rx="25.000000" ry="25.345055" fill="rgb(255, 165, 0)" style="fill-opacity:0.19" />
<ellipse cx="115.000000" cy="35.345055" rx="16.666667" ry="16.896703" fill="rgb(255, 255, 255)" style="fill-opacity:1.00" />
<rect height="25.345055" width="25.000000" x="115.000000" y="22.672527" fill="rgb(255, 255, 255)" style="fill-opacity:1.00" />
<rect height="6.336264" width="25.000000" x="115.000000" y="41.681318" fill="rgb(255, 165, 0)" style="fill-opacity:0.19" />
<rect height="19.008791" width="6.250000" x="133.750000" y="41.681318" fill="rgb(255, 165, 0)" style="fill-opacity:0.19" />
<!-- End 'G' -->
<!-- Begin 'C' -->
<ellipse cx="115.000000" cy="73.123416" rx="25.000000" ry="12.433307" fill="rgb(0, 0, 128)" style="fill-opacity:0.19" />
<ellipse cx="115.000000" cy="73.123416" rx="16.666667" ry="8.288871" fill="rgb(255, 255, 255)" style="fill-opacity:1.00" />
<rect height="12.433307" width="25.000000" x="115.000000" y="66.906763" fill="rgb(255, 255, 255)" style="fill-opacity:1.00" />
<!-- End 'C' -->
<!-- Begin 'A' -->
<polygon points=" 90.000000, 99.943951, 111.000000, 85.556723, 119.000000, 85.556723, 140.000000, 99.943951, 132.500000, 99.943951, 126.250000, 96.347144, 103.750000, 96.347144, 97.500000, 99.943951" fill="rgb(178, 34, 34)" style="fill-opacity:0.19" />
<polygon points=" 115.000000, 88.434169, 107.000000, 93.189060, 122.000000, 93.189060" fill="rgb(255, 255, 255)" style="fill-opacity:1.00" />
<!-- End 'A' -->
<!-- Begin 'T' -->
<rect height="1.608968" width="50.000000" x="90.000000" y="99.943951" fill="rgb(0, 100, 0)" style="fill-opacity:0.19" />
<rect height="10.056049" width="10.000000" x="110.000000" y="99.943951" fill="rgb(0, 100, 0)" style="fill-opacity:0.19" />
<!-- End 'T' -->
<!-- Begin 'G' -->
<ellipse cx="115.000000" cy="141.777643" rx="25.000000" ry="21.777643" fill="rgb(255, 165, 0)" style="fill-opacity:0.30" />
<ellipse cx="115.000000" cy="141.777643" rx="16.666667" ry="14.518429" fill="rgb(255, 255, 255)" style="fill-opacity:1.00" />
<rect height="21.777643" width="25.000000" x="115.000000" y="130.888821" fill="rgb(255, 255, 255)" style="fill-opacity:1.00" />
<rect height="5.444411" width="25.000000" x="115.000000" y="147.222054" fill="rgb(255, 165, 0)" style="fill-opacity:0.30" />
<rect height="16.333232" width="6.250000" x="133.750000" y="147.222054" fill="rgb(255, 165, 0)" style="fill-opacity:0.30" />
<!-- End 'G' -->
<!-- Begin 'C' -->
<ellipse cx="115.000000" cy="181.381122" rx="25.000000" ry="17.825836" fill="rgb(0, 0, 128)" style="fill-opacity:0.30" />
<ellipse cx="115.000000" cy="181.381122" rx="16.666667" ry="11.883891" fill="rgb(255, 255, 255)" style="fill-opacity:1.00" />
<rect height="17.825836" width="25.000000" x="115.000000" y="172.468204" fill="rgb(255, 255, 255)" style="fill-opacity:1.00" />
<!-- End 'C' -->
<!-- Begin 'T' -->
<rect height="1.933519" width="50.000000" x="90.000000" y="199.206958" fill="rgb(0, 100, 0)" style="fill-opacity:0.30" />
<rect height="12.084492" width="10.000000" x="110.000000" y="199.206958" fill="rgb(0, 100, 0)" style="fill-opacity:0.30" />
<!-- End 'T' -->
<!-- Begin 'A' -->
<polygon points=" 90.000000, 220.000000, 111.000000, 211.291450, 119.000000, 211.291450, 140.000000, 220.000000, 132.500000, 220.000000, 126.250000, 217.822862, 103.750000, 217.822862, 97.500000, 220.000000" fill="rgb(178, 34, 34)" style="fill-opacity:0.30" />
<polygon points=" 115.000000, 213.033160, 107.000000, 215.516580, 122.000000, 215.516580" fill="rgb(255, 255, 255)" style="fill-opacity:1.00" />
<!-- End 'A' -->
<!-- Begin 'C' -->
<ellipse cx="115.000000" cy="251.293088" rx="25.000000" ry="21.293088" fill="rgb(0, 0, 128)" style="fill-opacity:0.31" />
<ellipse cx="115.000000" cy="251.293088" rx="16.666667" ry="14.195392" fill="rgb(255, 255, 255)" style="fill-opacity:1.00" />
<rect height="21.293088" width="25.000000" x="115.000000" y="240.646544" fill="rgb(255, 255, 255)" style="fill-opacity:1.00" />
<!-- End 'C' -->
<!-- Begin 'G' -->
<ellipse cx="115.000000" cy="287.596053" rx="25.000000" ry="15.009878" fill="rgb(255, 165, 0)" style="fill-opacity:0.31" />
<ellipse cx="115.000000" cy="287.596053" rx="16.666667" ry="10.006585" fill="rgb(255, 255, 255)" style="fill-opacity:1.00" />
<rect height="15.009878" width="25.000000" x="115.000000" y="280.091115" fill="rgb(255, 255, 255)" style="fill-opacity:1.00" />
<rect height="3.752469" width="25.000000" x="115.000000" y="291.348523" fill="rgb(255, 165, 0)" style="fill-opacity:0.31" />
<rect height="11.257408" width="6.250000" x="133.750000" y="291.348523" fill="rgb(255, 165, 0)" style="fill-opacity:0.31" />
<!-- End 'G' -->
<!-- Begin 'A' -->
<polygon points=" 90.000000, 320.207988, 111.000000, 302.605931, 119.000000, 302.605931, 140.000000, 320.207988, 132.500000, 320.207988, 126.250000, 315.807474, 103.750000, 315.807474, 97.500000, 320.207988" fill="rgb(178, 34, 34)" style="fill-opacity:0.31" />
<polygon points=" 115.000000, 306.126343, 107.000000, 312.167165, 122.000000, 312.167165" fill="rgb(255, 255, 255)" style="fill-opacity:1.00" />
<!-- End 'A' -->
<!-- Begin 'T' -->
<rect height="1.566722" width="50.000000" x="90.000000" y="320.207988" fill="rgb(0, 100, 0)" style="fill-opacity:0.31" />
<rect height="9.792012" width="10.000000" x="110.000000" y="320.207988" fill="rgb(0, 100, 0)" style="fill-opacity:0.31" />
<!-- End 'T' -->
<!-- Begin 'G' -->
<ellipse cx="115.000000" cy="362.401969" rx="25.000000" ry="22.401969" fill="rgb(255, 165, 0)" style="fill-opacity:0.20" />
<ellipse cx="115.000000" cy="362.401969" rx="16.666667" ry="14.934646" fill="rgb(255, 255, 255)" style="fill-opacity:1.00" />
<rect height="22.401969" width="25.000000" x="115.000000" y="351.200984" fill="rgb(255, 255, 255)" style="fill-opacity:1.00" />
<rect height="5.600492" width="25.000000" x="115.000000" y="368.002461" fill="rgb(255, 165, 0)" style="fill-opacity:0.20" />
<rect height="16.801477" width="6.250000" x="133.750000" y="368.002461" fill="rgb(255, 165, 0)" style="fill-opacity:0.20" />
<!-- End 'G' -->
<!-- Begin 'C' -->
<ellipse cx="115.000000" cy="404.347372" rx="25.000000" ry="19.543435" fill="rgb(0, 0, 128)" style="fill-opacity:0.20" />
<ellipse cx="115.000000" cy="404.347372" rx="16.666667" ry="13.028956" fill="rgb(255, 255, 255)" style="fill-opacity:1.00" />
<rect height="19.543435" width="25.000000" x="115.000000" y="394.575655" fill="rgb(255, 255, 255)" style="fill-opacity:1.00" />
<!-- End 'C' -->
<!-- Begin 'T' -->
<rect height="2.078102" width="50.000000" x="90.000000" y="423.890807" fill="rgb(0, 100, 0)" style="fill-opacity:0.20" />
<rect height="12.988137" width="10.000000" x="110.000000" y="423.890807" fill="rgb(0, 100, 0)" style="fill-opacity:0.20" />
<!-- End 'T' -->
<!-- Begin 'A' -->
<polygon points=" 90.000000, 440.000000, 111.000000, 436.878944, 119.000000, 436.878944, 140.000000, 440.000000, 132.500000, 440.000000, 126.250000, 439.219736, 103.750000, 439.219736, 97.500000, 440.000000" fill="rgb(178, 34, 34)" style="fill-opacity:0.20" />
<!-- End 'A' -->
<!-- Begin 'G' -->
<ellipse cx="175.000000" cy="40.578566" rx="25.000000" ry="30.578566" fill="rgb(255, 165, 0)" style="fill-opacity:0.13" />
<ellipse cx="175.000000" cy="40.578566" rx="16.666667" ry="20.385711" fill="rgb(255, 255, 255)" style="fill-opacity:1.00" />
<rect height="30.578566" width="25.000000" x="175.000000" y="25.289283" fill="rgb(255, 255, 255)" style="fill-opacity:1.00" />
<rect height="7.644642" width="25.000000" x="175.000000" y="48.223208" fill="rgb(255, 165, 0)" style="fill-opacity:0.13" />
<rect height="22.933925" width="6.250000" x="193.750000" y="48.223208" fill="rgb(255, 165, 0)" style="fill-opacity:0.13" />
<!-- End 'G' -->
<!-- Begin 'C' -->
<ellipse cx="175.000000" cy="85.689069" rx="25.000000" ry="14.531936" fill="rgb(0, 0, 128)" style="fill-opacity:0.13" />
<ellipse cx="175.000000" cy="85.689069" rx="16.666667" ry="9.687958" fill="rgb(255, 255, 255)" style="fill-opacity:1.00" />
<rect height="14.531936" width="25.000000" x="175.000000" y="78.423101" fill="rgb(255, 255, 255)" style="fill-opacity:1.00" />
<!-- End 'C' -->
<!-- Begin 'A' -->
<polygon points=" 150.000000, 109.528619, 171.000000, 100.221005, 179.000000, 100.221005, 200.000000, 109.528619, 192.500000, 109.528619, 186.250000, 107.201715, 163.750000, 107.201715, 157.500000, 109.528619" fill="rgb(178, 34, 34)" style="fill-opacity:0.13" />
<polygon points=" 175.000000, 102.082528, 167.000000, 104.805573, 182.000000, 104.805573" fill="rgb(255, 255, 255)" style="fill-opacity:1.00" />
<!-- End 'A' -->
<!-- Begin 'T' -->
<rect height="0.075421" width="50.000000" x="150.000000" y="109.528619" fill="rgb(0, 100, 0)" style="fill-opacity:0.13" />
<rect height="0.471381" width="10.000000" x="170.000000" y="109.528619" fill="rgb(0, 100, 0)" style="fill-opacity:0.13" />
<!-- End 'T' -->
<!-- Begin 'G' -->
<ellipse cx="175.000000" cy="139.623528" rx="25.000000" ry="19.623528" fill="rgb(255, 165, 0)" style="fill-opacity:0.38" />
<ellipse cx="175.000000" cy="139.623528" rx="16.666667" ry="13.082352" fill="rgb(255, 255, 255)" style="fill-opacity:1.00" />
<rect height="19.623528" width="25.000000" x="175.000000" y="129.811764" fill="rgb(255, 255, 255)" style="fill-opacity:1.00" />
<rect height="4.905882" width="25.000000" x="175.000000" y="144.529410" fill="rgb(255, 165, 0)" style="fill-opacity:0.38" />
<rect height="14.717646" width="6.250000" x="193.750000" y="144.529410" fill="rgb(255, 165, 0)" style="fill-opacity:0.38" />
<!-- End 'G' -->
<!-- Begin 'C' -->
<ellipse cx="175.000000" cy="173.940711" rx="25.000000" ry="14.693656" fill="rgb(0, 0, 128)" style="fill-opacity:0.38" />
<ellipse cx="175.000000" cy="173.940711" rx="16.666667" ry="9.795770" fill="rgb(255, 255, 255)" style="fill-opacity:1.00" />
<rect height="14.693656" width="25.000000" x="175.000000" y="166.593883" fill="rgb(255, 255, 255)" style="fill-opacity:1.00" />
<!-- End 'C' -->
<!-- Begin 'T' -->
<rect height="2.953084" width="50.000000" x="150.000000" y="188.634366" fill="rgb(0, 100, 0)" style="fill-opacity:0.38" />
<rect height="18.456773" width="10.000000" x="170.000000" y="188.634366" fill="rgb(0, 100, 0)" style="fill-opacity:0.38" />
<!-- End 'T' -->
<!-- Begin 'A' -->
<polygon points=" 150.000000, 220.000000, 171.000000, 207.091140, 179.000000, 207.091140, 200.000000, 220.000000, 192.500000, 220.000000, 186.250000, 216.772785, 163.750000, 216.772785, 157.500000, 220.000000" fill="rgb(178, 34, 34)" style="fill-opacity:0.38" />
<polygon points=" 175.000000, 209.672912, 167.000000, 213.836456, 182.000000, 213.836456" fill="rgb(255, 255, 255)" style="fill-opacity:1.00" />
<!-- End 'A' -->
<!-- Begin 'C' -->
<ellipse cx="175.000000" cy="254.253183" rx="25.000000" ry="24.253183" fill="rgb(0, 0, 128)" style="fill-opacity:0.39" />
<ellipse cx="175.000000" cy="254.253183" rx="16.666667" ry="16.168789" fill="rgb(255, 255, 255)" style="fill-opacity:1.00" />
<rect height="24.253183" width="25.000000" x="175.000000" y="242.126592" fill="rgb(255, 255, 255)" style="fill-opacity:1.00" />
<!-- End 'C' -->
<!-- Begin 'G' -->
<ellipse cx="175.000000" cy="299.032587" rx="25.000000" ry="20.526221" fill="rgb(255, 165, 0)" style="fill-opacity:0.39" />
<ellipse cx="175.000000" cy="299.032587" rx="16.666667" ry="13.684147" fill="rgb(255, 255, 255)" style="fill-opacity:1.00" />
<rect height="20.526221" width="25.000000" x="175.000000" y="288.769477" fill="rgb(255, 255, 255)" style="fill-opacity:1.00" />
<rect height="5.131555" width="25.000000" x="175.000000" y="304.164143" fill="rgb(255, 165, 0)" style="fill-opacity:0.39" />
<rect height="15.394665" width="6.250000" x="193.750000" y="304.164143" fill="rgb(255, 165, 0)" style="fill-opacity:0.39" />
<!-- End 'G' -->
<!-- Begin 'A' -->
<polygon points=" 150.000000, 326.206911, 171.000000, 319.558808, 179.000000, 319.558808, 200.000000, 326.206911, 192.500000, 326.206911, 186.250000, 324.544885, 163.750000, 324.544885, 157.500000, 326.206911" fill="rgb(178, 34, 34)" style="fill-opacity:0.39" />
<!-- End 'A' -->
<!-- Begin 'T' -->
<rect height="0.606894" width="50.000000" x="150.000000" y="326.206911" fill="rgb(0, 100, 0)" style="fill-opacity:0.39" />
<rect height="3.793089" width="10.000000" x="170.000000" y="326.206911" fill="rgb(0, 100, 0)" style="fill-opacity:0.39" />
<!-- End 'T' -->
<!-- Begin 'G' -->
<ellipse cx="175.000000" cy="371.637075" rx="25.000000" ry="31.637075" fill="rgb(255, 165, 0)" style="fill-opacity:0.11" />
<ellipse cx="175.000000" cy="371.637075" rx="16.666667" ry="21.091383" fill="rgb(255, 255, 255)" style="fill-opacity:1.00" />
<rect height="31.637075" width="25.000000" x="175.000000" y="355.818537" fill="rgb(255, 255, 255)" style="fill-opacity:1.00" />
<rect height="7.909269" width="25.000000" x="175.000000" y="379.546343" fill="rgb(255, 165, 0)" style="fill-opacity:0.11" />
<rect height="23.727806" width="6.250000" x="193.750000" y="379.546343" fill="rgb(255, 165, 0)" style="fill-opacity:0.11" />
<!-- End 'G' -->
<!-- Begin 'C' -->
<ellipse cx="175.000000" cy="417.540950" rx="25.000000" ry="14.266800" fill="rgb(0, 0, 128)" style="fill-opacity:0.11" />
<ellipse cx="175.000000" cy="417.540950" rx="16.666667" ry="9.511200" fill="rgb(255, 255, 255)" style="fill-opacity:1.00" />
<rect height="14.266800" width="25.000000" x="175.000000" y="410.407550" fill="rgb(255, 255, 255)" style="fill-opacity:1.00" />
<!-- End 'C' -->
<!-- Begin 'A' -->
<polygon points=" 150.000000, 437.880004, 171.000000, 431.807750, 179.000000, 431.807750, 200.000000, 437.880004, 192.500000, 437.880004, 186.250000, 436.361941, 163.750000, 436.361941, 157.500000, 437.880004" fill="rgb(178, 34, 34)" style="fill-opacity:0.11" />
<!-- End 'A' -->
<!-- Begin 'T' -->
<rect height="0.339199" width="50.000000" x="150.000000" y="437.880004" fill="rgb(0, 100, 0)" style="fill-opacity:0.11" />
<rect height="2.119996" width="10.000000" x="170.000000" y="437.880004" fill="rgb(0, 100, 0)" style="fill-opacity:0.11" />
<!-- End 'T' -->
<!-- Begin 'G' -->
<ellipse cx="235.000000" cy="54.253767" rx="25.000000" ry="44.253767" fill="rgb(255, 165, 0)" style="fill-opacity:0.09" />
<ellipse cx="235.000000" cy="54.253767" rx="16.666667" ry="29.502511" fill="rgb(255, 255, 255)" style="fill-opacity:1.00" />
<rect height="44.253767" width="25.000000" x="235.000000" y="32.126883" fill="rgb(255, 255, 255)" style="fill-opacity:1.00" />
<rect height="11.063442" width="25.000000" x="235.000000" y="65.317208" fill="rgb(255, 165, 0)" style="fill-opacity:0.09" />
<rect height="33.190325" width="6.250000" x="253.750000" y="65.317208" fill="rgb(255, 165, 0)" style="fill-opacity:0.09" />
<!-- End 'G' -->
<!-- Begin 'A' -->
<polygon points=" 210.000000, 104.401376, 231.000000, 98.507533, 239.000000, 98.507533, 260.000000, 104.401376, 252.500000, 104.401376, 246.250000, 102.927915, 223.750000, 102.927915, 217.500000, 104.401376" fill="rgb(178, 34, 34)" style="fill-opacity:0.09" />
<!-- End 'A' -->
<!-- Begin 'C' -->
<ellipse cx="235.000000" cy="107.181807" rx="25.000000" ry="2.780431" fill="rgb(0, 0, 128)" style="fill-opacity:0.09" />
<ellipse cx="235.000000" cy="107.181807" rx="16.666667" ry="1.853620" fill="rgb(255, 255, 255)" style="fill-opacity:1.00" />
<rect height="2.780431" width="25.000000" x="235.000000" y="105.791591" fill="rgb(255, 255, 255)" style="fill-opacity:1.00" />
<!-- End 'C' -->
<!-- Begin 'T' -->
<rect height="0.006042" width="50.000000" x="210.000000" y="109.962237" fill="rgb(0, 100, 0)" style="fill-opacity:0.09" />
<rect height="0.037763" width="10.000000" x="230.000000" y="109.962237" fill="rgb(0, 100, 0)" style="fill-opacity:0.09" />
<!-- End 'T' -->
<!-- Begin 'G' -->
<ellipse cx="235.000000" cy="154.897191" rx="25.000000" ry="34.897191" fill="rgb(255, 165, 0)" style="fill-opacity:0.37" />
<ellipse cx="235.000000" cy="154.897191" rx="16.666667" ry="23.264794" fill="rgb(255, 255, 255)" style="fill-opacity:1.00" />
<rect height="34.897191" width="25.000000" x="235.000000" y="137.448596" fill="rgb(255, 255, 255)" style="fill-opacity:1.00" />
<rect height="8.724298" width="25.000000" x="235.000000" y="163.621489" fill="rgb(255, 165, 0)" style="fill-opacity:0.37" />
<rect height="26.172894" width="6.250000" x="253.750000" y="163.621489" fill="rgb(255, 165, 0)" style="fill-opacity:0.37" />
<!-- End 'G' -->
<!-- Begin 'C' -->
<ellipse cx="235.000000" cy="201.682908" rx="25.000000" ry="11.888525" fill="rgb(0, 0, 128)" style="fill-opacity:0.37" />
<ellipse cx="235.000000" cy="201.682908" rx="16.666667" ry="7.925684" fill="rgb(255, 255, 255)" style="fill-opacity:1.00" />
<rect height="11.888525" width="25.000000" x="235.000000" y="195.738646" fill="rgb(255, 255, 255)" style="fill-opacity:1.00" />
<!-- End 'C' -->
<!-- Begin 'T' -->
<rect height="0.613374" width="50.000000" x="210.000000" y="213.571434" fill="rgb(0, 100, 0)" style="fill-opacity:0.37" />
<rect height="3.833588" width="10.000000" x="230.000000" y="213.571434" fill="rgb(0, 100, 0)" style="fill-opacity:0.37" />
<!-- End 'T' -->
<!-- Begin 'A' -->
<polygon points=" 210.000000, 220.000000, 231.000000, 217.405022, 239.000000, 217.405022, 260.000000, 220.000000, 252.500000, 220.000000, 246.250000, 219.351255, 223.750000, 219.351255, 217.500000, 220.000000" fill="rgb(178, 34, 34)" style="fill-opacity:0.37" />
<!-- End 'A' -->
<!-- Begin 'G' -->
<ellipse cx="235.000000" cy="266.010955" rx="25.000000" ry="36.010955" fill="rgb(255, 165, 0)" style="fill-opacity:0.45" />
<ellipse cx="235.000000" cy="266.010955" rx="16.666667" ry="24.007303" fill="rgb(255, 255, 255)" style="fill-opacity:1.00" />
<rect height="36.010955" width="25.000000" x="235.000000" y="248.005477" fill="rgb(255, 255, 255)" style="fill-opacity:1.00" />
<rect height="9.002739" width="25.000000" x="235.000000" y="275.013694" fill="rgb(255, 165, 0)" style="fill-opacity:0.45" />
<rect height="27.008216" width="6.250000" x="253.750000" y="275.013694" fill="rgb(255, 165, 0)" style="fill-opacity:0.45" />
<!-- End 'G' -->
<!-- Begin 'C' -->
<ellipse cx="235.000000" cy="312.032818" rx="25.000000" ry="10.010908" fill="rgb(0, 0, 128)" style="fill-opacity:0.45" />
<ellipse cx="235.000000" cy="312.032818" rx="16.666667" ry="6.673939" fill="rgb(255, 255, 255)" style="fill-opacity:1.00" />
<rect height="10.010908" width="25.000000" x="235.000000" y="307.027364" fill="rgb(255, 255, 255)" style="fill-opacity:1.00" />
<!-- End 'C' -->
<!-- Begin 'A' -->
<polygon points=" 210.000000, 328.776123, 231.000000, 322.043726, 239.000000, 322.043726, 260.000000, 328.776123, 252.500000, 328.776123, 246.250000, 327.093024, 223.750000, 327.093024, 217.500000, 328.776123" fill="rgb(178, 34, 34)" style="fill-opacity:0.45" />
<!-- End 'A' -->
<!-- Begin 'T' -->
<rect height="0.195820" width="50.000000" x="210.000000" y="328.776123" fill="rgb(0, 100, 0)" style="fill-opacity:0.45" />
<rect height="1.223877" width="10.000000" x="230.000000" y="328.776123" fill="rgb(0, 100, 0)" style="fill-opacity:0.45" />
<!-- End 'T' -->
<!-- Begin 'C' -->
<ellipse cx="235.000000" cy="369.100221" rx="25.000000" ry="29.100221" fill="rgb(0, 0, 128)" style="fill-opacity:0.09" />
<ellipse cx="235.000000" cy="369.100221" rx="16.666667" ry="19.400148" fill="rgb(255, 255, 255)" style="fill-opacity:1.00" />
<rect height="29.100221" width="25.000000" x="235.000000" y="354.550111" fill="rgb(255, 255, 255)" style="fill-opacity:1.00" />
<!-- End 'C' -->
<!-- Begin 'G' -->
<ellipse cx="235.000000" cy="418.672238" rx="25.000000" ry="20.471795" fill="rgb(255, 165, 0)" style="fill-opacity:0.09" />
<ellipse cx="235.000000" cy="418.672238" rx="16.666667" ry="13.647863" fill="rgb(255, 255, 255)" style="fill-opacity:1.00" />
<rect height="20.471795" width="25.000000" x="235.000000" y="408.436341" fill="rgb(255, 255, 255)" style="fill-opacity:1.00" />
<rect height="5.117949" width="25.000000" x="235.000000" y="423.790187" fill="rgb(255, 165, 0)" style="fill-opacity:0.09" />
<rect height="15.353846" width="6.250000" x="253.750000" y="423.790187" fill="rgb(255, 165, 0)" style="fill-opacity:0.09" />
<!-- End 'G' -->
<!-- Begin 'A' -->
<polygon points=" 210.000000, 439.909341, 231.000000, 439.144033, 239.000000, 439.144033, 260.000000, 439.909341, 252.500000, 439.909341, 246.250000, 439.718014, 223.750000, 439.718014, 217.500000, 439.909341" fill="rgb(178, 34, 34)" style="fill-opacity:0.09" />
<!-- End 'A' -->
<!-- Begin 'T' -->
<rect height="0.014505" width="50.000000" x="210.000000" y="439.909341" fill="rgb(0, 100, 0)" style="fill-opacity:0.09" />
<rect height="0.090659" width="10.000000" x="230.000000" y="439.909341" fill="rgb(0, 100, 0)" style="fill-opacity:0.09" />
<!-- End 'T' -->
<!-- Begin 'C' -->
<ellipse cx="295.000000" cy="37.973003" rx="25.000000" ry="27.973003" fill="rgb(0, 0, 128)" style="fill-opacity:0.05" />
<ellipse cx="295.000000" cy="37.973003" rx="16.666667" ry="18.648669" fill="rgb(255, 255, 255)" style="fill-opacity:1.00" />
<rect height="27.973003" width="25.000000" x="295.000000" y="23.986502" fill="rgb(255, 255, 255)" style="fill-opacity:1.00" />
<!-- End 'C' -->
<!-- Begin 'A' -->
<polygon points=" 270.000000, 85.727008, 291.000000, 65.946007, 299.000000, 65.946007, 320.000000, 85.727008, 312.500000, 85.727008, 306.250000, 80.781758, 283.750000, 80.781758, 277.500000, 85.727008" fill="rgb(178, 34, 34)" style="fill-opacity:0.05" />
<polygon points=" 295.000000, 69.902207, 287.000000, 76.814608, 302.000000, 76.814608" fill="rgb(255, 255, 255)" style="fill-opacity:1.00" />
<!-- End 'A' -->
<!-- Begin 'G' -->
<ellipse cx="295.000000" cy="91.946242" rx="25.000000" ry="6.219234" fill="rgb(255, 165, 0)" style="fill-opacity:0.05" />
<ellipse cx="295.000000" cy="91.946242" rx="16.666667" ry="4.146156" fill="rgb(255, 255, 255)" style="fill-opacity:1.00" />
<rect height="6.219234" width="25.000000" x="295.000000" y="88.836625" fill="rgb(255, 255, 255)" style="fill-opacity:1.00" />
<rect height="1.554808" width="25.000000" x="295.000000" y="93.501050" fill="rgb(255, 165, 0)" style="fill-opacity:0.05" />
<rect height="4.664425" width="6.250000" x="313.750000" y="93.501050" fill="rgb(255, 165, 0)" style="fill-opacity:0.05" />
<!-- End 'G' -->
<!-- Begin 'T' -->
<rect height="1.893524" width="50.000000" x="270.000000" y="98.165475" fill="rgb(0, 100, 0)" style="fill-opacity:0.05" />
<rect height="11.834525" width="10.000000" x="290.000000" y="98.165475" fill="rgb(0, 100, 0)" style="fill-opacity:0.05" />
<!-- End 'T' -->
<!-- Begin 'C' -->
<ellipse cx="295.000000" cy="158.392542" rx="25.000000" ry="38.392542" fill="rgb(0, 0, 128)" style="fill-opacity:0.23" />
<ellipse cx="295.000000" cy="158.392542" rx="16.666667" ry="25.595028" fill="rgb(255, 255, 255)" style="fill-opacity:1.00" />
<rect height="38.392542" width="25.000000" x="295.000000" y="139.196271" fill="rgb(255, 255, 255)" style="fill-opacity:1.00" />
<!-- End 'C' -->
<!-- Begin 'T' -->
<rect height="2.990143" width="50.000000" x="270.000000" y="196.785084" fill="rgb(0, 100, 0)" style="fill-opacity:0.23" />
<rect height="18.688394" width="10.000000" x="290.000000" y="196.785084" fill="rgb(0, 100, 0)" style="fill-opacity:0.23" />
<!-- End 'T' -->
<!-- Begin 'A' -->
<polygon points=" 270.000000, 219.702656, 291.000000, 215.473478, 299.000000, 215.473478, 320.000000, 219.702656, 312.500000, 219.702656, 306.250000, 218.645362, 283.750000, 218.645362, 277.500000, 219.702656" fill="rgb(178, 34, 34)" style="fill-opacity:0.23" />
<!-- End 'A' -->
<!-- Begin 'G' -->
<ellipse cx="295.000000" cy="219.851328" rx="25.000000" ry="0.148672" fill="rgb(255, 165, 0)" style="fill-opacity:0.23" />
<ellipse cx="295.000000" cy="219.851328" rx="16.666667" ry="0.099115" fill="rgb(255, 255, 255)" style="fill-opacity:1.00" />
<rect height="0.148672" width="25.000000" x="295.000000" y="219.776992" fill="rgb(255, 255, 255)" style="fill-opacity:1.00" />
<rect height="0.037168" width="25.000000" x="295.000000" y="219.888496" fill="rgb(255, 165, 0)" style="fill-opacity:0.23" />
<rect height="0.111504" width="6.250000" x="313.750000" y="219.888496" fill="rgb(255, 165, 0)" style="fill-opacity:0.23" />
<!-- End 'G' -->
<!-- Begin 'C' -->
<ellipse cx="295.000000" cy="266.941536" rx="25.000000" ry="36.941536" fill="rgb(0, 0, 128)" style="fill-opacity:0.70" />
<ellipse cx="295.000000" cy="266.941536" rx="16.666667" ry="24.627690" fill="rgb(255, 255, 255)" style="fill-opacity:1.00" />
<rect height="36.941536" width="25.000000" x="295.000000" y="248.470768" fill="rgb(255, 255, 255)" style="fill-opacity:1.00" />
<!-- End 'C' -->
<!-- Begin 'A' -->
<polygon points=" 270.000000, 319.493365, 291.000000, 303.883071, 299.000000, 303.883071, 320.000000, 319.493365, 312.500000, 319.493365, 306.250000, 315.590792, 283.750000, 315.590792, 277.500000, 319.493365" fill="rgb(178, 34, 34)" style="fill-opacity:0.70" />
<polygon points=" 295.000000, 307.005130, 287.000000, 312.249248, 302.000000, 312.249248" fill="rgb(255, 255, 255)" style="fill-opacity:1.00" />
<!-- End 'A' -->
<!-- Begin 'T' -->
<rect height="0.946033" width="50.000000" x="270.000000" y="319.493365" fill="rgb(0, 100, 0)" style="fill-opacity:0.70" />
<rect height="5.912709" width="10.000000" x="290.000000" y="319.493365" fill="rgb(0, 100, 0)" style="fill-opacity:0.70" />
<!-- End 'T' -->
<!-- Begin 'G' -->
<ellipse cx="295.000000" cy="327.703037" rx="25.000000" ry="2.296963" fill="rgb(255, 165, 0)" style="fill-opacity:0.70" />
<ellipse cx="295.000000" cy="327.703037" rx="16.666667" ry="1.531309" fill="rgb(255, 255, 255)" style="fill-opacity:1.00" />
<rect height="2.296963" width="25.000000" x="295.000000" y="326.554556" fill="rgb(255, 255, 255)" style="fill-opacity:1.00" />
<rect height="0.574241" width="25.000000" x="295.000000" y="328.277278" fill="rgb(255, 165, 0)" style="fill-opacity:0.70" />
<rect height="1.722722" width="6.250000" x="313.750000" y="328.277278" fill="rgb(255, 165, 0)" style="fill-opacity:0.70" />
<!-- End 'G' -->
<!-- Begin 'C' -->
<ellipse cx="295.000000" cy="386.660716" rx="25.000000" ry="46.660716" fill="rgb(0, 0, 128)" style="fill-opacity:0.02" />
<ellipse cx="295.000000" cy="386.660716" rx="16.666667" ry="31.107144" fill="rgb(255, 255, 255)" style="fill-opacity:1.00" />
<rect height="46.660716" width="25.000000" x="295.000000" y="363.330358" fill="rgb(255, 255, 255)" style="fill-opacity:1.00" />
<!-- End 'C' -->
<!-- Begin 'G' -->
<ellipse cx="295.000000" cy="435.967082" rx="25.000000" ry="2.645651" fill="rgb(255, 165, 0)" style="fill-opacity:0.02" />
<ellipse cx="295.000000" cy="435.967082" rx="16.666667" ry="1.763767" fill="rgb(255, 255, 255)" style="fill-opacity:1.00" />
<rect height="2.645651" width="25.000000" x="295.000000" y="434.644257" fill="rgb(255, 255, 255)" style="fill-opacity:1.00" />
<rect height="0.661413" width="25.000000" x="295.000000" y="436.628495" fill="rgb(255, 165, 0)" style="fill-opacity:0.02" />
<rect height="1.984238" width="6.250000" x="313.750000" y="436.628495" fill="rgb(255, 165, 0)" style="fill-opacity:0.02" />
<!-- End 'G' -->
<!-- Begin 'A' -->
<polygon points=" 270.000000, 439.635190, 291.000000, 438.612733, 299.000000, 438.612733, 320.000000, 439.635190, 312.500000, 439.635190, 306.250000, 439.379576, 283.750000, 439.379576, 277.500000, 439.635190" fill="rgb(178, 34, 34)" style="fill-opacity:0.02" />
<!-- End 'A' -->
<!-- Begin 'T' -->
<rect height="0.058370" width="50.000000" x="270.000000" y="439.635190" fill="rgb(0, 100, 0)" style="fill-opacity:0.02" />
<rect height="0.364810" width="10.000000" x="290.000000" y="439.635190" fill="rgb(0, 100, 0)" style="fill-opacity:0.02" />
<!-- End 'T' -->
<!-- Begin 'G' -->
<ellipse cx="355.000000" cy="49.650319" rx="25.000000" ry="39.650319" fill="rgb(255, 165, 0)" style="fill-opacity:0.13" />
<ellipse cx="355.000000" cy="49.650319" rx="16.666667" ry="26.433546" fill="rgb(255, 255, 255)" style="fill-opacity:1.00" />
<rect height="39.650319" width="25.000000" x="355.000000" y="29.825159" fill="rgb(255, 255, 255)" style="fill-opacity:1.00" />
<rect height="9.912580" width="25.000000" x="355.000000" y="59.562898" fill="rgb(255, 165, 0)" style="fill-opacity:0.13" />
<rect height="29.737739" width="6.250000" x="373.750000" y="59.562898" fill="rgb(255, 165, 0)" style="fill-opacity:0.13" />
<!-- End 'G' -->
<!-- Begin 'A' -->
<polygon points=" 330.000000, 104.458026, 351.000000, 89.300637, 359.000000, 89.300637, 380.000000, 104.458026, 372.500000, 104.458026, 366.250000, 100.668679, 343.750000, 100.668679, 337.500000, 104.458026" fill="rgb(178, 34, 34)" style="fill-opacity:0.13" />
<polygon points=" 355.000000, 92.332115, 347.000000, 97.395070, 362.000000, 97.395070" fill="rgb(255, 255, 255)" style="fill-opacity:1.00" />
<!-- End 'A' -->
<!-- Begin 'C' -->
<ellipse cx="355.000000" cy="107.080846" rx="25.000000" ry="2.622821" fill="rgb(0, 0, 128)" style="fill-opacity:0.13" />
<ellipse cx="355.000000" cy="107.080846" rx="16.666667" ry="1.748547" fill="rgb(255, 255, 255)" style="fill-opacity:1.00" />
<rect height="2.622821" width="25.000000" x="355.000000" y="105.769436" fill="rgb(255, 255, 255)" style="fill-opacity:1.00" />
<!-- End 'C' -->
<!-- Begin 'T' -->
<rect height="0.047413" width="50.000000" x="330.000000" y="109.703667" fill="rgb(0, 100, 0)" style="fill-opacity:0.13" />
<rect height="0.296333" width="10.000000" x="350.000000" y="109.703667" fill="rgb(0, 100, 0)" style="fill-opacity:0.13" />
<!-- End 'T' -->
<!-- Begin 'G' -->
<ellipse cx="355.000000" cy="151.493331" rx="25.000000" ry="31.493331" fill="rgb(255, 165, 0)" style="fill-opacity:0.74" />
<ellipse cx="355.000000" cy="151.493331" rx="16.666667" ry="20.995554" fill="rgb(255, 255, 255)" style="fill-opacity:1.00" />
<rect height="31.493331" width="25.000000" x="355.000000" y="135.746666" fill="rgb(255, 255, 255)" style="fill-opacity:1.00" />
<rect height="7.873333" width="25.000000" x="355.000000" y="159.366664" fill="rgb(255, 165, 0)" style="fill-opacity:0.74" />
<rect height="23.619998" width="6.250000" x="373.750000" y="159.366664" fill="rgb(255, 165, 0)" style="fill-opacity:0.74" />
<!-- End 'G' -->
<!-- Begin 'C' -->
<ellipse cx="355.000000" cy="191.209324" rx="25.000000" ry="8.222662" fill="rgb(0, 0, 128)" style="fill-opacity:0.74" />
<ellipse cx="355.000000" cy="191.209324" rx="16.666667" ry="5.481775" fill="rgb(255, 255, 255)" style="fill-opacity:1.00" />
<rect height="8.222662" width="25.000000" x="355.000000" y="187.097994" fill="rgb(255, 255, 255)" style="fill-opacity:1.00" />
<!-- End 'C' -->
<!-- Begin 'A' -->
<polygon points=" 330.000000, 214.037751, 351.000000, 199.431986, 359.000000, 199.431986, 380.000000, 214.037751, 372.500000, 214.037751, 366.250000, 210.386310, 343.750000, 210.386310, 337.500000, 214.037751" fill="rgb(178, 34, 34)" style="fill-opacity:0.74" />
<polygon points=" 355.000000, 202.353139, 347.000000, 207.195445, 362.000000, 207.195445" fill="rgb(255, 255, 255)" style="fill-opacity:1.00" />
<!-- End 'A' -->
<!-- Begin 'T' -->
<rect height="0.953960" width="50.000000" x="330.000000" y="214.037751" fill="rgb(0, 100, 0)" style="fill-opacity:0.74" />
<rect height="5.962249" width="10.000000" x="350.000000" y="214.037751" fill="rgb(0, 100, 0)" style="fill-opacity:0.74" />
<!-- End 'T' -->
<!-- Begin 'A' -->
<polygon points=" 330.000000, 303.376623, 351.000000, 230.000000, 359.000000, 230.000000, 380.000000, 303.376623, 372.500000, 303.376623, 366.250000, 285.032467, 343.750000, 285.032467, 337.500000, 303.376623" fill="rgb(178, 34, 34)" style="fill-opacity:0.04" />
<polygon points=" 355.000000, 244.675325, 347.000000, 273.025974, 362.000000, 273.025974" fill="rgb(255, 255, 255)" style="fill-opacity:1.00" />
<!-- End 'A' -->
<!-- Begin 'C' -->
<ellipse cx="355.000000" cy="311.424809" rx="25.000000" ry="8.048185" fill="rgb(0, 0, 128)" style="fill-opacity:0.04" />
<ellipse cx="355.000000" cy="311.424809" rx="16.666667" ry="5.365457" fill="rgb(255, 255, 255)" style="fill-opacity:1.00" />
<rect height="8.048185" width="25.000000" x="355.000000" y="307.400716" fill="rgb(255, 255, 255)" style="fill-opacity:1.00" />
<!-- End 'C' -->
<!-- Begin 'G' -->
<ellipse cx="355.000000" cy="324.050683" rx="25.000000" ry="4.577689" fill="rgb(255, 165, 0)" style="fill-opacity:0.04" />
<ellipse cx="355.000000" cy="324.050683" rx="16.666667" ry="3.051793" fill="rgb(255, 255, 255)" style="fill-opacity:1.00" />
<rect height="4.577689" width="25.000000" x="355.000000" y="321.761839" fill="rgb(255, 255, 255)" style="fill-opacity:1.00" />
<rect height="1.144422" width="25.000000" x="355.000000" y="325.195105" fill="rgb(255, 165, 0)" style="fill-opacity:0.04" />
<rect height="3.433267" width="6.250000" x="373.750000" y="325.195105" fill="rgb(255, 165, 0)" style="fill-opacity:0.04" />
<!-- End 'G' -->
<!-- Begin 'T' -->
<rect height="0.219460" width="50.000000" x="330.000000" y="328.628372" fill="rgb(0, 100, 0)" style="fill-opacity:0.04" />
<rect height="1.371628" width="10.000000" x="350.000000" y="328.628372" fill="rgb(0, 100, 0)" style="fill-opacity:0.04" />
<!-- End 'T' -->
<!-- Begin 'G' -->
<ellipse cx="355.000000" cy="387.873426" rx="25.000000" ry="47.873426" fill="rgb(255, 165, 0)" style="fill-opacity:0.09" />
<ellipse cx="355.000000" cy="387.873426" rx="16.666667" ry="31.915618" fill="rgb(255, 255, 255)" style="fill-opacity:1.00" />
<rect height="47.873426" width="25.000000" x="355.000000" y="363.936713" fill="rgb(255, 255, 255)" style="fill-opacity:1.00" />
<rect height="11.968357" width="25.000000" x="355.000000" y="399.841783" fill="rgb(255, 165, 0)" style="fill-opacity:0.09" />
<rect height="35.905070" width="6.250000" x="373.750000" y="399.841783" fill="rgb(255, 165, 0)" style="fill-opacity:0.09" />
<!-- End 'G' -->
<!-- Begin 'C' -->
<ellipse cx="355.000000" cy="437.584266" rx="25.000000" ry="1.837414" fill="rgb(0, 0, 128)" style="fill-opacity:0.09" />
<ellipse cx="355.000000" cy="437.584266" rx="16.666667" ry="1.224942" fill="rgb(255, 255, 255)" style="fill-opacity:1.00" />
<rect height="1.837414" width="25.000000" x="355.000000" y="436.665559" fill="rgb(255, 255, 255)" style="fill-opacity:1.00" />
<!-- End 'C' -->
<!-- Begin 'A' -->
<polygon points=" 330.000000, 439.982085, 351.000000, 439.421680, 359.000000, 439.421680, 380.000000, 439.982085, 372.500000, 439.982085, 366.250000, 439.841983, 343.750000, 439.841983, 337.500000, 439.982085" fill="rgb(178, 34, 34)" style="fill-opacity:0.09" />
<!-- End 'A' -->
<!-- Begin 'T' -->
<rect height="0.002866" width="50.000000" x="330.000000" y="439.982085" fill="rgb(0, 100, 0)" style="fill-opacity:0.09" />
<rect height="0.017915" width="10.000000" x="350.000000" y="439.982085" fill="rgb(0, 100, 0)" style="fill-opacity:0.09" />
<!-- End 'T' -->
<!-- Begin 'G' -->
<ellipse cx="415.000000" cy="59.095851" rx="25.000000" ry="49.095851" fill="rgb(255, 165, 0)" style="fill-opacity:0.16" />
<ellipse cx="415.000000" cy="59.095851" rx="16.666667" ry="32.730568" fill="rgb(255, 255, 255)" style="fill-opacity:1.00" />
<rect height="49.095851" width="25.000000" x="415.000000" y="34.547926" fill="rgb(255, 255, 255)" style="fill-opacity:1.00" />
<rect height="12.273963" width="25.000000" x="415.000000" y="71.369814" fill="rgb(255, 165, 0)" style="fill-opacity:0.16" />
<rect height="36.821888" width="6.250000" x="433.750000" y="71.369814" fill="rgb(255, 165, 0)" style="fill-opacity:0.16" />
<!-- End 'G' -->
<!-- Begin 'C' -->
<ellipse cx="415.000000" cy="109.084055" rx="25.000000" ry="0.892352" fill="rgb(0, 0, 128)" style="fill-opacity:0.16" />
<ellipse cx="415.000000" cy="109.084055" rx="16.666667" ry="0.594901" fill="rgb(255, 255, 255)" style="fill-opacity:1.00" />
<rect height="0.892352" width="25.000000" x="415.000000" y="108.637879" fill="rgb(255, 255, 255)" style="fill-opacity:1.00" />
<!-- End 'C' -->
<!-- Begin 'T' -->
<rect height="0.003082" width="50.000000" x="390.000000" y="109.976407" fill="rgb(0, 100, 0)" style="fill-opacity:0.16" />
<rect height="0.019264" width="10.000000" x="410.000000" y="109.976407" fill="rgb(0, 100, 0)" style="fill-opacity:0.16" />
<!-- End 'T' -->
<!-- Begin 'A' -->
<polygon points=" 390.000000, 110.000000, 411.000000, 109.995671, 419.000000, 109.995671, 440.000000, 110.000000, 432.500000, 110.000000, 426.250000, 109.998918, 403.750000, 109.998918, 397.500000, 110.000000" fill="rgb(178, 34, 34)" style="fill-opacity:0.16" />
<!-- End 'A' -->
<!-- Begin 'G' -->
<ellipse cx="415.000000" cy="160.408543" rx="25.000000" ry="40.408543" fill="rgb(255, 165, 0)" style="fill-opacity:0.14" />
<ellipse cx="415.000000" cy="160.408543" rx="16.666667" ry="26.939028" fill="rgb(255, 255, 255)" style="fill-opacity:1.00" />
<rect height="40.408543" width="25.000000" x="415.000000" y="140.204271" fill="rgb(255, 255, 255)" style="fill-opacity:1.00" />
<rect height="10.102136" width="25.000000" x="415.000000" y="170.510678" fill="rgb(255, 165, 0)" style="fill-opacity:0.14" />
<rect height="30.306407" width="6.250000" x="433.750000" y="170.510678" fill="rgb(255, 165, 0)" style="fill-opacity:0.14" />
<!-- End 'G' -->
<!-- Begin 'A' -->
<polygon points=" 390.000000, 209.533500, 411.000000, 200.817085, 419.000000, 200.817085, 440.000000, 209.533500, 432.500000, 209.533500, 426.250000, 207.354396, 403.750000, 207.354396, 397.500000, 209.533500" fill="rgb(178, 34, 34)" style="fill-opacity:0.14" />
<polygon points=" 415.000000, 202.560368, 407.000000, 205.046934, 422.000000, 205.046934" fill="rgb(255, 255, 255)" style="fill-opacity:1.00" />
<!-- End 'A' -->
<!-- Begin 'C' -->
<ellipse cx="415.000000" cy="213.784090" rx="25.000000" ry="4.250590" fill="rgb(0, 0, 128)" style="fill-opacity:0.14" />
<ellipse cx="415.000000" cy="213.784090" rx="16.666667" ry="2.833727" fill="rgb(255, 255, 255)" style="fill-opacity:1.00" />
<rect height="4.250590" width="25.000000" x="415.000000" y="211.658795" fill="rgb(255, 255, 255)" style="fill-opacity:1.00" />
<!-- End 'C' -->
<!-- Begin 'T' -->
<rect height="0.314451" width="50.000000" x="390.000000" y="218.034680" fill="rgb(0, 100, 0)" style="fill-opacity:0.14" />
<rect height="1.965320" width="10.000000" x="410.000000" y="218.034680" fill="rgb(0, 100, 0)" style="fill-opacity:0.14" />
<!-- End 'T' -->
<!-- Begin 'G' -->
<ellipse cx="415.000000" cy="259.162512" rx="25.000000" ry="29.162512" fill="rgb(255, 165, 0)" style="fill-opacity:0.66" />
<ellipse cx="415.000000" cy="259.162512" rx="16.666667" ry="19.441675" fill="rgb(255, 255, 255)" style="fill-opacity:1.00" />
<rect height="29.162512" width="25.000000" x="415.000000" y="244.581256" fill="rgb(255, 255, 255)" style="fill-opacity:1.00" />
<rect height="7.290628" width="25.000000" x="415.000000" y="266.453140" fill="rgb(255, 165, 0)" style="fill-opacity:0.66" />
<rect height="21.871884" width="6.250000" x="433.750000" y="266.453140" fill="rgb(255, 165, 0)" style="fill-opacity:0.66" />
<!-- End 'G' -->
<!-- Begin 'C' -->
<ellipse cx="415.000000" cy="306.748279" rx="25.000000" ry="18.423254" fill="rgb(0, 0, 128)" style="fill-opacity:0.66" />
<ellipse cx="415.000000" cy="306.748279" rx="16.666667" ry="12.282170" fill="rgb(255, 255, 255)" style="fill-opacity:1.00" />
<rect height="18.423254" width="25.000000" x="415.000000" y="297.536651" fill="rgb(255, 255, 255)" style="fill-opacity:1.00" />
<!-- End 'C' -->
<!-- Begin 'T' -->
<rect height="0.498551" width="50.000000" x="390.000000" y="325.171533" fill="rgb(0, 100, 0)" style="fill-opacity:0.66" />
<rect height="3.115946" width="10.000000" x="410.000000" y="325.171533" fill="rgb(0, 100, 0)" style="fill-opacity:0.66" />
<!-- End 'T' -->
<!-- Begin 'A' -->
<polygon points=" 390.000000, 330.000000, 411.000000, 328.287479, 419.000000, 328.287479, 440.000000, 330.000000, 432.500000, 330.000000, 426.250000, 329.571870, 403.750000, 329.571870, 397.500000, 330.000000" fill="rgb(178, 34, 34)" style="fill-opacity:0.66" />
<!-- End 'A' -->
<!-- Begin 'G' -->
<ellipse cx="415.000000" cy="384.114050" rx="25.000000" ry="44.114050" fill="rgb(255, 165, 0)" style="fill-opacity:0.05" />
<ellipse cx="415.000000" cy="384.114050" rx="16.666667" ry="29.409366" fill="rgb(255, 255, 255)" style="fill-opacity:1.00" />
<rect height="44.114050" width="25.000000" x="415.000000" y="362.057025" fill="rgb(255, 255, 255)" style="fill-opacity:1.00" />
<rect height="11.028512" width="25.000000" x="415.000000" y="395.142562" fill="rgb(255, 165, 0)" style="fill-opacity:0.05" />
<rect height="33.085537" width="6.250000" x="433.750000" y="395.142562" fill="rgb(255, 165, 0)" style="fill-opacity:0.05" />
<!-- End 'G' -->
<!-- Begin 'C' -->
<ellipse cx="415.000000" cy="434.036445" rx="25.000000" ry="5.808346" fill="rgb(0, 0, 128)" style="fill-opacity:0.05" />
<ellipse cx="415.000000" cy="434.036445" rx="16.666667" ry="3.872230" fill="rgb(255, 255, 255)" style="fill-opacity:1.00" />
<rect height="5.808346" width="25.000000" x="415.000000" y="431.132272" fill="rgb(255, 255, 255)" style="fill-opacity:1.00" />
<!-- End 'C' -->
<!-- Begin 'A' -->
<polygon points=" 390.000000, 439.997166, 411.000000, 439.844791, 419.000000, 439.844791, 440.000000, 439.997166, 432.500000, 439.997166, 426.250000, 439.959072, 403.750000, 439.959072, 397.500000, 439.997166" fill="rgb(178, 34, 34)" style="fill-opacity:0.05" />
<!-- End 'A' -->
<!-- Begin 'T' -->
<rect height="0.000454" width="50.000000" x="390.000000" y="439.997166" fill="rgb(0, 100, 0)" style="fill-opacity:0.05" />
<rect height="0.002834" width="10.000000" x="410.000000" y="439.997166" fill="rgb(0, 100, 0)" style="fill-opacity:0.05" />
<!-- End 'T' -->
<!-- Begin 'G' -->
<ellipse cx="475.000000" cy="43.820399" rx="25.000000" ry="33.820399" fill="rgb(255, 165, 0)" style="fill-opacity:0.02" />
<ellipse cx="475.000000" cy="43.820399" rx="16.666667" ry="22.546933" fill="rgb(255, 255, 255)" style="fill-opacity:1.00" />
<rect height="33.820399" width="25.000000" x="475.000000" y="26.910200" fill="rgb(255, 255, 255)" style="fill-opacity:1.00" />
<rect height="8.455100" width="25.000000" x="475.000000" y="52.275499" fill="rgb(255, 165, 0)" style="fill-opacity:0.02" />
<rect height="25.365300" width="6.250000" x="493.750000" y="52.275499" fill="rgb(255, 165, 0)" style="fill-opacity:0.02" />
<!-- End 'G' -->
<!-- Begin 'C' -->
<ellipse cx="475.000000" cy="90.386302" rx="25.000000" ry="12.745503" fill="rgb(0, 0, 128)" style="fill-opacity:0.02" />
<ellipse cx="475.000000" cy="90.386302" rx="16.666667" ry="8.497002" fill="rgb(255, 255, 255)" style="fill-opacity:1.00" />
<rect height="12.745503" width="25.000000" x="475.000000" y="84.013550" fill="rgb(255, 255, 255)" style="fill-opacity:1.00" />
<!-- End 'C' -->
<!-- Begin 'T' -->
<rect height="1.092590" width="50.000000" x="450.000000" y="103.131805" fill="rgb(0, 100, 0)" style="fill-opacity:0.02" />
<rect height="6.828686" width="10.000000" x="470.000000" y="103.131805" fill="rgb(0, 100, 0)" style="fill-opacity:0.02" />
<!-- End 'T' -->
<!-- Begin 'A' -->
<polygon points=" 450.000000, 110.000000, 471.000000, 109.960491, 479.000000, 109.960491, 500.000000, 110.000000, 492.500000, 110.000000, 486.250000, 109.990123, 463.750000, 109.990123, 457.500000, 110.000000" fill="rgb(178, 34, 34)" style="fill-opacity:0.02" />
<!-- End 'A' -->
<!-- Begin 'C' -->
<ellipse cx="475.000000" cy="144.444534" rx="25.000000" ry="24.444534" fill="rgb(0, 0, 128)" style="fill-opacity:0.26" />
<ellipse cx="475.000000" cy="144.444534" rx="16.666667" ry="16.296356" fill="rgb(255, 255, 255)" style="fill-opacity:1.00" />
<rect height="24.444534" width="25.000000" x="475.000000" y="132.222267" fill="rgb(255, 255, 255)" style="fill-opacity:1.00" />
<!-- End 'C' -->
<!-- Begin 'G' -->
<ellipse cx="475.000000" cy="188.671276" rx="25.000000" ry="19.782208" fill="rgb(255, 165, 0)" style="fill-opacity:0.26" />
<ellipse cx="475.000000" cy="188.671276" rx="16.666667" ry="13.188139" fill="rgb(255, 255, 255)" style="fill-opacity:1.00" />
<rect height="19.782208" width="25.000000" x="475.000000" y="178.780172" fill="rgb(255, 255, 255)" style="fill-opacity:1.00" />
<rect height="4.945552" width="25.000000" x="475.000000" y="193.616828" fill="rgb(255, 165, 0)" style="fill-opacity:0.26" />
<rect height="14.836656" width="6.250000" x="493.750000" y="193.616828" fill="rgb(255, 165, 0)" style="fill-opacity:0.26" />
<!-- End 'G' -->
<!-- Begin 'T' -->
<rect height="1.591422" width="50.000000" x="450.000000" y="208.453484" fill="rgb(0, 100, 0)" style="fill-opacity:0.26" />
<rect height="9.946389" width="10.000000" x="470.000000" y="208.453484" fill="rgb(0, 100, 0)" style="fill-opacity:0.26" />
<!-- End 'T' -->
<!-- Begin 'A' -->
<polygon points=" 450.000000, 220.000000, 471.000000, 218.399873, 479.000000, 218.399873, 500.000000, 220.000000, 492.500000, 220.000000, 486.250000, 219.599968, 463.750000, 219.599968, 457.500000, 220.000000" fill="rgb(178, 34, 34)" style="fill-opacity:0.26" />
<!-- End 'A' -->
<!-- Begin 'G' -->
<ellipse cx="475.000000" cy="252.360523" rx="25.000000" ry="22.360523" fill="rgb(255, 165, 0)" style="fill-opacity:0.69" />
<ellipse cx="475.000000" cy="252.360523" rx="16.666667" ry="14.907015" fill="rgb(255, 255, 255)" style="fill-opacity:1.00" />
<rect height="22.360523" width="25.000000" x="475.000000" y="241.180261" fill="rgb(255, 255, 255)" style="fill-opacity:1.00" />
<rect height="5.590131" width="25.000000" x="475.000000" y="257.950653" fill="rgb(255, 165, 0)" style="fill-opacity:0.69" />
<rect height="16.770392" width="6.250000" x="493.750000" y="257.950653" fill="rgb(255, 165, 0)" style="fill-opacity:0.69" />
<!-- End 'G' -->
<!-- Begin 'C' -->
<ellipse cx="475.000000" cy="294.063551" rx="25.000000" ry="19.342506" fill="rgb(0, 0, 128)" style="fill-opacity:0.69" />
<ellipse cx="475.000000" cy="294.063551" rx="16.666667" ry="12.895004" fill="rgb(255, 255, 255)" style="fill-opacity:1.00" />
<rect height="19.342506" width="25.000000" x="475.000000" y="284.392298" fill="rgb(255, 255, 255)" style="fill-opacity:1.00" />
<!-- End 'C' -->
<!-- Begin 'A' -->
<polygon points=" 450.000000, 325.160351, 471.000000, 313.406056, 479.000000, 313.406056, 500.000000, 325.160351, 492.500000, 325.160351, 486.250000, 322.221778, 463.750000, 322.221778, 457.500000, 325.160351" fill="rgb(178, 34, 34)" style="fill-opacity:0.69" />
<polygon points=" 475.000000, 315.756915, 467.000000, 319.458633, 482.000000, 319.458633" fill="rgb(255, 255, 255)" style="fill-opacity:1.00" />
<!-- End 'A' -->
<!-- Begin 'T' -->
<rect height="0.774344" width="50.000000" x="450.000000" y="325.160351" fill="rgb(0, 100, 0)" style="fill-opacity:0.69" />
<rect height="4.839649" width="10.000000" x="470.000000" y="325.160351" fill="rgb(0, 100, 0)" style="fill-opacity:0.69" />
<!-- End 'T' -->
<!-- Begin 'C' -->
<ellipse cx="475.000000" cy="365.958049" rx="25.000000" ry="25.958049" fill="rgb(0, 0, 128)" style="fill-opacity:0.02" />
<ellipse cx="475.000000" cy="365.958049" rx="16.666667" ry="17.305366" fill="rgb(255, 255, 255)" style="fill-opacity:1.00" />
<rect height="25.958049" width="25.000000" x="475.000000" y="352.979025" fill="rgb(255, 255, 255)" style="fill-opacity:1.00" />
<!-- End 'C' -->
<!-- Begin 'G' -->
<ellipse cx="475.000000" cy="415.224396" rx="25.000000" ry="23.308297" fill="rgb(255, 165, 0)" style="fill-opacity:0.02" />
<ellipse cx="475.000000" cy="415.224396" rx="16.666667" ry="15.538865" fill="rgb(255, 255, 255)" style="fill-opacity:1.00" />
<rect height="23.308297" width="25.000000" x="475.000000" y="403.570247" fill="rgb(255, 255, 255)" style="fill-opacity:1.00" />
<rect height="5.827074" width="25.000000" x="475.000000" y="421.051470" fill="rgb(255, 165, 0)" style="fill-opacity:0.02" />
<rect height="17.481223" width="6.250000" x="493.750000" y="421.051470" fill="rgb(255, 165, 0)" style="fill-opacity:0.02" />
<!-- End 'G' -->
<!-- Begin 'A' -->
<polygon points=" 450.000000, 439.524306, 471.000000, 438.532693, 479.000000, 438.532693, 500.000000, 439.524306, 492.500000, 439.524306, 486.250000, 439.276403, 463.750000, 439.276403, 457.500000, 439.524306" fill="rgb(178, 34, 34)" style="fill-opacity:0.02" />
<!-- End 'A' -->
<!-- Begin 'T' -->
<rect height="0.076111" width="50.000000" x="450.000000" y="439.524306" fill="rgb(0, 100, 0)" style="fill-opacity:0.02" />
<rect height="0.475694" width="10.000000" x="470.000000" y="439.524306" fill="rgb(0, 100, 0)" style="fill-opacity:0.02" />
<!-- End 'T' -->
<!-- Begin 'G' -->
<ellipse cx="535.000000" cy="39.394776" rx="25.000000" ry="29.394776" fill="rgb(255, 165, 0)" style="fill-opacity:0.09" />
<ellipse cx="535.000000" cy="39.394776" rx="16.666667" ry="19.596518" fill="rgb(255, 255, 255)" style="fill-opacity:1.00" />
<rect height="29.394776" width="25.000000" x="535.000000" y="24.697388" fill="rgb(255, 255, 255)" style="fill-opacity:1.00" />
<rect height="7.348694" width="25.000000" x="535.000000" y="46.743470" fill="rgb(255, 165, 0)" style="fill-opacity:0.09" />
<rect height="22.046082" width="6.250000" x="553.750000" y="46.743470" fill="rgb(255, 165, 0)" style="fill-opacity:0.09" />
<!-- End 'G' -->
<!-- Begin 'A' -->
<polygon points=" 510.000000, 99.596233, 531.000000, 68.789553, 539.000000, 68.789553, 560.000000, 99.596233, 552.500000, 99.596233, 546.250000, 91.894563, 523.750000, 91.894563, 517.500000, 99.596233" fill="rgb(178, 34, 34)" style="fill-opacity:0.09" />
<polygon points=" 535.000000, 74.950889, 527.000000, 86.273561, 542.000000, 86.273561" fill="rgb(255, 255, 255)" style="fill-opacity:1.00" />
<!-- End 'A' -->
<!-- Begin 'C' -->
<ellipse cx="535.000000" cy="104.733139" rx="25.000000" ry="5.136907" fill="rgb(0, 0, 128)" style="fill-opacity:0.09" />
<ellipse cx="535.000000" cy="104.733139" rx="16.666667" ry="3.424604" fill="rgb(255, 255, 255)" style="fill-opacity:1.00" />
<rect height="5.136907" width="25.000000" x="535.000000" y="102.164686" fill="rgb(255, 255, 255)" style="fill-opacity:1.00" />
<!-- End 'C' -->
<!-- Begin 'T' -->
<rect height="0.020793" width="50.000000" x="510.000000" y="109.870046" fill="rgb(0, 100, 0)" style="fill-opacity:0.09" />
<rect height="0.129954" width="10.000000" x="530.000000" y="109.870046" fill="rgb(0, 100, 0)" style="fill-opacity:0.09" />
<!-- End 'T' -->
<!-- Begin 'C' -->
<ellipse cx="535.000000" cy="140.398487" rx="25.000000" ry="20.398487" fill="rgb(0, 0, 128)" style="fill-opacity:0.41" />
<ellipse cx="535.000000" cy="140.398487" rx="16.666667" ry="13.598991" fill="rgb(255, 255, 255)" style="fill-opacity:1.00" />
<rect height="20.398487" width="25.000000" x="535.000000" y="130.199243" fill="rgb(255, 255, 255)" style="fill-opacity:1.00" />
<!-- End 'C' -->
<!-- Begin 'G' -->
<ellipse cx="535.000000" cy="179.999552" rx="25.000000" ry="19.202579" fill="rgb(255, 165, 0)" style="fill-opacity:0.41" />
<ellipse cx="535.000000" cy="179.999552" rx="16.666667" ry="12.801719" fill="rgb(255, 255, 255)" style="fill-opacity:1.00" />
<rect height="19.202579" width="25.000000" x="535.000000" y="170.398262" fill="rgb(255, 255, 255)" style="fill-opacity:1.00" />
<rect height="4.800645" width="25.000000" x="535.000000" y="184.800196" fill="rgb(255, 165, 0)" style="fill-opacity:0.41" />
<rect height="14.401934" width="6.250000" x="553.750000" y="184.800196" fill="rgb(255, 165, 0)" style="fill-opacity:0.41" />
<!-- End 'G' -->
<!-- Begin 'T' -->
<rect height="2.057064" width="50.000000" x="510.000000" y="199.202130" fill="rgb(0, 100, 0)" style="fill-opacity:0.41" />
<rect height="12.856650" width="10.000000" x="530.000000" y="199.202130" fill="rgb(0, 100, 0)" style="fill-opacity:0.41" />
<!-- End 'T' -->
<!-- Begin 'A' -->
<polygon points=" 510.000000, 220.000000, 531.000000, 212.058780, 539.000000, 212.058780, 560.000000, 220.000000, 552.500000, 220.000000, 546.250000, 218.014695, 523.750000, 218.014695, 517.500000, 220.000000" fill="rgb(178, 34, 34)" style="fill-opacity:0.41" />
<!-- End 'A' -->
<!-- Begin 'C' -->
<ellipse cx="535.000000" cy="246.756030" rx="25.000000" ry="16.756030" fill="rgb(0, 0, 128)" style="fill-opacity:0.44" />
<ellipse cx="535.000000" cy="246.756030" rx="16.666667" ry="11.170687" fill="rgb(255, 255, 255)" style="fill-opacity:1.00" />
<rect height="16.756030" width="25.000000" x="535.000000" y="238.378015" fill="rgb(255, 255, 255)" style="fill-opacity:1.00" />
<!-- End 'C' -->
<!-- Begin 'A' -->
<polygon points=" 510.000000, 294.850715, 531.000000, 263.512060, 539.000000, 263.512060, 560.000000, 294.850715, 552.500000, 294.850715, 546.250000, 287.016051, 523.750000, 287.016051, 517.500000, 294.850715" fill="rgb(178, 34, 34)" style="fill-opacity:0.44" />
<polygon points=" 535.000000, 269.779791, 527.000000, 281.315253, 542.000000, 281.315253" fill="rgb(255, 255, 255)" style="fill-opacity:1.00" />
<!-- End 'A' -->
<!-- Begin 'G' -->
<ellipse cx="535.000000" cy="309.810505" rx="25.000000" ry="14.959790" fill="rgb(255, 165, 0)" style="fill-opacity:0.44" />
<ellipse cx="535.000000" cy="309.810505" rx="16.666667" ry="9.973193" fill="rgb(255, 255, 255)" style="fill-opacity:1.00" />
<rect height="14.959790" width="25.000000" x="535.000000" y="302.330610" fill="rgb(255, 255, 255)" style="fill-opacity:1.00" />
<rect height="3.739948" width="25.000000" x="535.000000" y="313.550452" fill="rgb(255, 165, 0)" style="fill-opacity:0.44" />
<rect height="11.219843" width="6.250000" x="553.750000" y="313.550452" fill="rgb(255, 165, 0)" style="fill-opacity:0.44" />
<!-- End 'G' -->
<!-- Begin 'T' -->
<rect height="0.836753" width="50.000000" x="510.000000" y="324.770295" fill="rgb(0, 100, 0)" style="fill-opacity:0.44" />
<rect height="5.229705" width="10.000000" x="530.000000" y="324.770295" fill="rgb(0, 100, 0)" style="fill-opacity:0.44" />
<!-- End 'T' -->
<!-- Begin 'G' -->
<ellipse cx="535.000000" cy="374.001196" rx="25.000000" ry="34.001196" fill="rgb(255, 165, 0)" style="fill-opacity:0.06" />
<ellipse cx="535.000000" cy="374.001196" rx="16.666667" ry="22.667464" fill="rgb(255, 255, 255)" style="fill-opacity:1.00" />
<rect height="34.001196" width="25.000000" x="535.000000" y="357.000598" fill="rgb(255, 255, 255)" style="fill-opacity:1.00" />
<rect height="8.500299" width="25.000000" x="535.000000" y="382.501495" fill="rgb(255, 165, 0)" style="fill-opacity:0.06" />
<rect height="25.500897" width="6.250000" x="553.750000" y="382.501495" fill="rgb(255, 165, 0)" style="fill-opacity:0.06" />
<!-- End 'G' -->
<!-- Begin 'C' -->
<ellipse cx="535.000000" cy="414.576701" rx="25.000000" ry="6.574309" fill="rgb(0, 0, 128)" style="fill-opacity:0.06" />
<ellipse cx="535.000000" cy="414.576701" rx="16.666667" ry="4.382873" fill="rgb(255, 255, 255)" style="fill-opacity:1.00" />
<rect height="6.574309" width="25.000000" x="535.000000" y="411.289546" fill="rgb(255, 255, 255)" style="fill-opacity:1.00" />
<!-- End 'C' -->
<!-- Begin 'A' -->
<polygon points=" 510.000000, 433.464495, 531.000000, 421.151010, 539.000000, 421.151010, 560.000000, 433.464495, 552.500000, 433.464495, 546.250000, 430.386124, 523.750000, 430.386124, 517.500000, 433.464495" fill="rgb(178, 34, 34)" style="fill-opacity:0.06" />
<polygon points=" 535.000000, 423.613707, 527.000000, 427.539101, 542.000000, 427.539101" fill="rgb(255, 255, 255)" style="fill-opacity:1.00" />
<!-- End 'A' -->
<!-- Begin 'T' -->
<rect height="1.045681" width="50.000000" x="510.000000" y="433.464495" fill="rgb(0, 100, 0)" style="fill-opacity:0.06" />
<rect height="6.535505" width="10.000000" x="530.000000" y="433.464495" fill="rgb(0, 100, 0)" style="fill-opacity:0.06" />
<!-- End 'T' -->
<!-- Begin 'G' -->
<ellipse cx="595.000000" cy="30.782449" rx="25.000000" ry="20.782449" fill="rgb(255, 165, 0)" style="fill-opacity:0.20" />
<ellipse cx="595.000000" cy="30.782449" rx="16.666667" ry="13.854966" fill="rgb(255, 255, 255)" style="fill-opacity:1.00" />
<rect height="20.782449" width="25.000000" x="595.000000" y="20.391224" fill="rgb(255, 255, 255)" style="fill-opacity:1.00" />
<rect height="5.195612" width="25.000000" x="595.000000" y="35.978061" fill="rgb(255, 165, 0)" style="fill-opacity:0.20" />
<rect height="15.586836" width="6.250000" x="613.750000" y="35.978061" fill="rgb(255, 165, 0)" style="fill-opacity:0.20" />
<!-- End 'G' -->
<!-- Begin 'A' -->
<polygon points=" 570.000000, 91.594011, 591.000000, 51.564897, 599.000000, 51.564897, 620.000000, 91.594011, 612.500000, 91.594011, 606.250000, 81.586733, 583.750000, 81.586733, 577.500000, 91.594011" fill="rgb(178, 34, 34)" style="fill-opacity:0.20" />
<polygon points=" 595.000000, 59.570720, 587.000000, 74.582366, 602.000000, 74.582366" fill="rgb(255, 255, 255)" style="fill-opacity:1.00" />
<!-- End 'A' -->
<!-- Begin 'C' -->
<ellipse cx="595.000000" cy="99.311057" rx="25.000000" ry="7.717046" fill="rgb(0, 0, 128)" style="fill-opacity:0.20" />
<ellipse cx="595.000000" cy="99.311057" rx="16.666667" ry="5.144697" fill="rgb(255, 255, 255)" style="fill-opacity:1.00" />
<rect height="7.717046" width="25.000000" x="595.000000" y="95.452534" fill="rgb(255, 255, 255)" style="fill-opacity:1.00" />
<!-- End 'C' -->
<!-- Begin 'T' -->
<rect height="0.475504" width="50.000000" x="570.000000" y="107.028103" fill="rgb(0, 100, 0)" style="fill-opacity:0.20" />
<rect height="2.971897" width="10.000000" x="590.000000" y="107.028103" fill="rgb(0, 100, 0)" style="fill-opacity:0.20" />
<!-- End 'T' -->
<!-- Begin 'G' -->
<ellipse cx="595.000000" cy="144.382725" rx="25.000000" ry="24.382725" fill="rgb(255, 165, 0)" style="fill-opacity:0.33" />
<ellipse cx="595.000000" cy="144.382725" rx="16.666667" ry="16.255150" fill="rgb(255, 255, 255)" style="fill-opacity:1.00" />
<rect height="24.382725" width="25.000000" x="595.000000" y="132.191362" fill="rgb(255, 255, 255)" style="fill-opacity:1.00" />
<rect height="6.095681" width="25.000000" x="595.000000" y="150.478406" fill="rgb(255, 165, 0)" style="fill-opacity:0.33" />
<rect height="18.287044" width="6.250000" x="613.750000" y="150.478406" fill="rgb(255, 165, 0)" style="fill-opacity:0.33" />
<!-- End 'G' -->
<!-- Begin 'C' -->
<ellipse cx="595.000000" cy="181.000837" rx="25.000000" ry="12.235387" fill="rgb(0, 0, 128)" style="fill-opacity:0.33" />
<ellipse cx="595.000000" cy="181.000837" rx="16.666667" ry="8.156925" fill="rgb(255, 255, 255)" style="fill-opacity:1.00" />
<rect height="12.235387" width="25.000000" x="595.000000" y="174.883143" fill="rgb(255, 255, 255)" style="fill-opacity:1.00" />
<!-- End 'C' -->
<!-- Begin 'T' -->
<rect height="2.896461" width="50.000000" x="570.000000" y="193.236224" fill="rgb(0, 100, 0)" style="fill-opacity:0.33" />
<rect height="18.102880" width="10.000000" x="590.000000" y="193.236224" fill="rgb(0, 100, 0)" style="fill-opacity:0.33" />
<!-- End 'T' -->
<!-- Begin 'A' -->
<polygon points=" 570.000000, 220.000000, 591.000000, 211.339105, 599.000000, 211.339105, 620.000000, 220.000000, 612.500000, 220.000000, 606.250000, 217.834776, 583.750000, 217.834776, 577.500000, 220.000000" fill="rgb(178, 34, 34)" style="fill-opacity:0.33" />
<polygon points=" 595.000000, 213.071284, 587.000000, 215.535642, 602.000000, 215.535642" fill="rgb(255, 255, 255)" style="fill-opacity:1.00" />
<!-- End 'A' -->
<!-- Begin 'C' -->
<ellipse cx="595.000000" cy="252.610352" rx="25.000000" ry="22.610352" fill="rgb(0, 0, 128)" style="fill-opacity:0.38" />
<ellipse cx="595.000000" cy="252.610352" rx="16.666667" ry="15.073568" fill="rgb(255, 255, 255)" style="fill-opacity:1.00" />
<rect height="22.610352" width="25.000000" x="595.000000" y="241.305176" fill="rgb(255, 255, 255)" style="fill-opacity:1.00" />
<!-- End 'C' -->
<!-- Begin 'G' -->
<ellipse cx="595.000000" cy="291.960125" rx="25.000000" ry="16.739421" fill="rgb(255, 165, 0)" style="fill-opacity:0.38" />
<ellipse cx="595.000000" cy="291.960125" rx="16.666667" ry="11.159614" fill="rgb(255, 255, 255)" style="fill-opacity:1.00" />
<rect height="16.739421" width="25.000000" x="595.000000" y="283.590414" fill="rgb(255, 255, 255)" style="fill-opacity:1.00" />
<rect height="4.184855" width="25.000000" x="595.000000" y="296.144980" fill="rgb(255, 165, 0)" style="fill-opacity:0.38" />
<rect height="12.554566" width="6.250000" x="613.750000" y="296.144980" fill="rgb(255, 165, 0)" style="fill-opacity:0.38" />
<!-- End 'G' -->
<!-- Begin 'A' -->
<polygon points=" 570.000000, 322.932195, 591.000000, 308.699546, 599.000000, 308.699546, 620.000000, 322.932195, 612.500000, 322.932195, 606.250000, 319.374033, 583.750000, 319.374033, 577.500000, 322.932195" fill="rgb(178, 34, 34)" style="fill-opacity:0.38" />
<polygon points=" 595.000000, 311.546076, 587.000000, 316.239135, 602.000000, 316.239135" fill="rgb(255, 255, 255)" style="fill-opacity:1.00" />
<!-- End 'A' -->
<!-- Begin 'T' -->
<rect height="1.130849" width="50.000000" x="570.000000" y="322.932195" fill="rgb(0, 100, 0)" style="fill-opacity:0.38" />
<rect height="7.067805" width="10.000000" x="590.000000" y="322.932195" fill="rgb(0, 100, 0)" style="fill-opacity:0.38" />
<!-- End 'T' -->
<!-- Begin 'C' -->
<ellipse cx="595.000000" cy="365.763622" rx="25.000000" ry="25.763622" fill="rgb(0, 0, 128)" style="fill-opacity:0.08" />
<ellipse cx="595.000000" cy="365.763622" rx="16.666667" ry="17.175748" fill="rgb(255, 255, 255)" style="fill-opacity:1.00" />
<rect height="25.763622" width="25.000000" x="595.000000" y="352.881811" fill="rgb(255, 255, 255)" style="fill-opacity:1.00" />
<!-- End 'C' -->
<!-- Begin 'G' -->
<ellipse cx="595.000000" cy="409.445106" rx="25.000000" ry="17.917861" fill="rgb(255, 165, 0)" style="fill-opacity:0.08" />
<ellipse cx="595.000000" cy="409.445106" rx="16.666667" ry="11.945241" fill="rgb(255, 255, 255)" style="fill-opacity:1.00" />
<rect height="17.917861" width="25.000000" x="595.000000" y="400.486175" fill="rgb(255, 255, 255)" style="fill-opacity:1.00" />
<rect height="4.479465" width="25.000000" x="595.000000" y="413.924571" fill="rgb(255, 165, 0)" style="fill-opacity:0.08" />
<rect height="13.438396" width="6.250000" x="613.750000" y="413.924571" fill="rgb(255, 165, 0)" style="fill-opacity:0.08" />
<!-- End 'G' -->
<!-- Begin 'T' -->
<rect height="1.631172" width="50.000000" x="570.000000" y="427.362967" fill="rgb(0, 100, 0)" style="fill-opacity:0.08" />
<rect height="10.194826" width="10.000000" x="590.000000" y="427.362967" fill="rgb(0, 100, 0)" style="fill-opacity:0.08" />
<!-- End 'T' -->
<!-- Begin 'A' -->
<polygon points=" 570.000000, 440.000000, 591.000000, 437.557793, 599.000000, 437.557793, 620.000000, 440.000000, 612.500000, 440.000000, 606.250000, 439.389448, 583.750000, 439.389448, 577.500000, 440.000000" fill="rgb(178, 34, 34)" style="fill-opacity:0.08" />
<!-- End 'A' -->
<!-- Begin 'G' -->
<ellipse cx="655.000000" cy="29.027027" rx="25.000000" ry="19.027027" fill="rgb(255, 165, 0)" style="fill-opacity:0.17" />
<ellipse cx="655.000000" cy="29.027027" rx="16.666667" ry="12.684685" fill="rgb(255, 255, 255)" style="fill-opacity:1.00" />
<rect height="19.027027" width="25.000000" x="655.000000" y="19.513514" fill="rgb(255, 255, 255)" style="fill-opacity:1.00" />
<rect height="4.756757" width="25.000000" x="655.000000" y="33.783784" fill="rgb(255, 165, 0)" style="fill-opacity:0.17" />
<rect height="14.270270" width="6.250000" x="673.750000" y="33.783784" fill="rgb(255, 165, 0)" style="fill-opacity:0.17" />
<!-- End 'G' -->
<!-- Begin 'C' -->
<ellipse cx="655.000000" cy="64.390413" rx="25.000000" ry="16.336359" fill="rgb(0, 0, 128)" style="fill-opacity:0.17" />
<ellipse cx="655.000000" cy="64.390413" rx="16.666667" ry="10.890906" fill="rgb(255, 255, 255)" style="fill-opacity:1.00" />
<rect height="16.336359" width="25.000000" x="655.000000" y="56.222234" fill="rgb(255, 255, 255)" style="fill-opacity:1.00" />
<!-- End 'C' -->
<!-- Begin 'A' -->
<polygon points=" 630.000000, 105.128777, 651.000000, 80.726772, 659.000000, 80.726772, 680.000000, 105.128777, 672.500000, 105.128777, 666.250000, 99.028276, 643.750000, 99.028276, 637.500000, 105.128777" fill="rgb(178, 34, 34)" style="fill-opacity:0.17" />
<polygon points=" 655.000000, 85.607173, 647.000000, 94.367975, 662.000000, 94.367975" fill="rgb(255, 255, 255)" style="fill-opacity:1.00" />
<!-- End 'A' -->
<!-- Begin 'T' -->
<rect height="0.779396" width="50.000000" x="630.000000" y="105.128777" fill="rgb(0, 100, 0)" style="fill-opacity:0.17" />
<rect height="4.871223" width="10.000000" x="650.000000" y="105.128777" fill="rgb(0, 100, 0)" style="fill-opacity:0.17" />
<!-- End 'T' -->
<!-- Begin 'C' -->
<ellipse cx="655.000000" cy="143.191496" rx="25.000000" ry="23.191496" fill="rgb(0, 0, 128)" style="fill-opacity:0.33" />
<ellipse cx="655.000000" cy="143.191496" rx="16.666667" ry="15.460997" fill="rgb(255, 255, 255)" style="fill-opacity:1.00" />
<rect height="23.191496" width="25.000000" x="655.000000" y="131.595748" fill="rgb(255, 255, 255)" style="fill-opacity:1.00" />
<!-- End 'C' -->
<!-- Begin 'G' -->
<ellipse cx="655.000000" cy="182.921888" rx="25.000000" ry="16.538896" fill="rgb(255, 165, 0)" style="fill-opacity:0.33" />
<ellipse cx="655.000000" cy="182.921888" rx="16.666667" ry="11.025931" fill="rgb(255, 255, 255)" style="fill-opacity:1.00" />
<rect height="16.538896" width="25.000000" x="655.000000" y="174.652440" fill="rgb(255, 255, 255)" style="fill-opacity:1.00" />
<rect height="4.134724" width="25.000000" x="655.000000" y="187.056612" fill="rgb(255, 165, 0)" style="fill-opacity:0.33" />
<rect height="12.404172" width="6.250000" x="673.750000" y="187.056612" fill="rgb(255, 165, 0)" style="fill-opacity:0.33" />
<!-- End 'G' -->
<!-- Begin 'T' -->
<rect height="2.533546" width="50.000000" x="630.000000" y="199.460785" fill="rgb(0, 100, 0)" style="fill-opacity:0.33" />
<rect height="15.834660" width="10.000000" x="650.000000" y="199.460785" fill="rgb(0, 100, 0)" style="fill-opacity:0.33" />
<!-- End 'T' -->
<!-- Begin 'A' -->
<polygon points=" 630.000000, 220.000000, 651.000000, 215.295445, 659.000000, 215.295445, 680.000000, 220.000000, 672.500000, 220.000000, 666.250000, 218.823861, 643.750000, 218.823861, 637.500000, 220.000000" fill="rgb(178, 34, 34)" style="fill-opacity:0.33" />
<!-- End 'A' -->
<!-- Begin 'C' -->
<ellipse cx="655.000000" cy="258.879077" rx="25.000000" ry="28.879077" fill="rgb(0, 0, 128)" style="fill-opacity:0.40" />
<ellipse cx="655.000000" cy="258.879077" rx="16.666667" ry="19.252718" fill="rgb(255, 255, 255)" style="fill-opacity:1.00" />
<rect height="28.879077" width="25.000000" x="655.000000" y="244.439539" fill="rgb(255, 255, 255)" style="fill-opacity:1.00" />
<!-- End 'C' -->
<!-- Begin 'G' -->
<ellipse cx="655.000000" cy="300.872686" rx="25.000000" ry="13.114531" fill="rgb(255, 165, 0)" style="fill-opacity:0.40" />
<ellipse cx="655.000000" cy="300.872686" rx="16.666667" ry="8.743021" fill="rgb(255, 255, 255)" style="fill-opacity:1.00" />
<rect height="13.114531" width="25.000000" x="655.000000" y="294.315420" fill="rgb(255, 255, 255)" style="fill-opacity:1.00" />
<rect height="3.278633" width="25.000000" x="655.000000" y="304.151318" fill="rgb(255, 165, 0)" style="fill-opacity:0.40" />
<rect height="9.835898" width="6.250000" x="673.750000" y="304.151318" fill="rgb(255, 165, 0)" style="fill-opacity:0.40" />
<!-- End 'G' -->
<!-- Begin 'A' -->
<polygon points=" 630.000000, 324.537009, 651.000000, 313.987216, 659.000000, 313.987216, 680.000000, 324.537009, 672.500000, 324.537009, 666.250000, 321.899561, 643.750000, 321.899561, 637.500000, 324.537009" fill="rgb(178, 34, 34)" style="fill-opacity:0.40" />
<polygon points=" 655.000000, 316.097175, 647.000000, 319.317092, 662.000000, 319.317092" fill="rgb(255, 255, 255)" style="fill-opacity:1.00" />
<!-- End 'A' -->
<!-- Begin 'T' -->
<rect height="0.874079" width="50.000000" x="630.000000" y="324.537009" fill="rgb(0, 100, 0)" style="fill-opacity:0.40" />
<rect height="5.462991" width="10.000000" x="650.000000" y="324.537009" fill="rgb(0, 100, 0)" style="fill-opacity:0.40" />
<!-- End 'T' -->
<!-- Begin 'C' -->
<ellipse cx="655.000000" cy="377.490297" rx="25.000000" ry="37.490297" fill="rgb(0, 0, 128)" style="fill-opacity:0.10" />
<ellipse cx="655.000000" cy="377.490297" rx="16.666667" ry="24.993531" fill="rgb(255, 255, 255)" style="fill-opacity:1.00" />
<rect height="37.490297" width="25.000000" x="655.000000" y="358.745148" fill="rgb(255, 255, 255)" style="fill-opacity:1.00" />
<!-- End 'C' -->
<!-- Begin 'G' -->
<ellipse cx="655.000000" cy="422.943385" rx="25.000000" ry="7.962792" fill="rgb(255, 165, 0)" style="fill-opacity:0.10" />
<ellipse cx="655.000000" cy="422.943385" rx="16.666667" ry="5.308528" fill="rgb(255, 255, 255)" style="fill-opacity:1.00" />
<rect height="7.962792" width="25.000000" x="655.000000" y="418.961989" fill="rgb(255, 255, 255)" style="fill-opacity:1.00" />
<rect height="1.990698" width="25.000000" x="655.000000" y="424.934083" fill="rgb(255, 165, 0)" style="fill-opacity:0.10" />
<rect height="5.972094" width="6.250000" x="673.750000" y="424.934083" fill="rgb(255, 165, 0)" style="fill-opacity:0.10" />
<!-- End 'G' -->
<!-- Begin 'T' -->
<rect height="1.307944" width="50.000000" x="630.000000" y="430.906177" fill="rgb(0, 100, 0)" style="fill-opacity:0.10" />
<rect height="8.174650" width="10.000000" x="650.000000" y="430.906177" fill="rgb(0, 100, 0)" style="fill-opacity:0.10" />
<!-- End 'T' -->
<!-- Begin 'A' -->
<polygon points=" 630.000000, 440.000000, 651.000000, 439.080826, 659.000000, 439.080826, 680.000000, 440.000000, 672.500000, 440.000000, 666.250000, 439.770207, 643.750000, 439.770207, 637.500000, 440.000000" fill="rgb(178, 34, 34)" style="fill-opacity:0.10" />
<!-- End 'A' -->
<!-- Begin 'G' -->
<ellipse cx="715.000000" cy="32.997315" rx="25.000000" ry="22.997315" fill="rgb(255, 165, 0)" style="fill-opacity:0.10" />
<ellipse cx="715.000000" cy="32.997315" rx="16.666667" ry="15.331543" fill="rgb(255, 255, 255)" style="fill-opacity:1.00" />
<rect height="22.997315" width="25.000000" x="715.000000" y="21.498657" fill="rgb(255, 255, 255)" style="fill-opacity:1.00" />
<rect height="5.749329" width="25.000000" x="715.000000" y="38.746644" fill="rgb(255, 165, 0)" style="fill-opacity:0.10" />
<rect height="17.247986" width="6.250000" x="733.750000" y="38.746644" fill="rgb(255, 165, 0)" style="fill-opacity:0.10" />
<!-- End 'G' -->
<!-- Begin 'C' -->
<ellipse cx="715.000000" cy="67.614112" rx="25.000000" ry="11.619482" fill="rgb(0, 0, 128)" style="fill-opacity:0.10" />
<ellipse cx="715.000000" cy="67.614112" rx="16.666667" ry="7.746321" fill="rgb(255, 255, 255)" style="fill-opacity:1.00" />
<rect height="11.619482" width="25.000000" x="715.000000" y="61.804371" fill="rgb(255, 255, 255)" style="fill-opacity:1.00" />
<!-- End 'C' -->
<!-- Begin 'A' -->
<polygon points=" 690.000000, 98.991214, 711.000000, 79.233594, 719.000000, 79.233594, 740.000000, 98.991214, 732.500000, 98.991214, 726.250000, 94.051809, 703.750000, 94.051809, 697.500000, 98.991214" fill="rgb(178, 34, 34)" style="fill-opacity:0.10" />
<polygon points=" 715.000000, 83.185118, 707.000000, 90.088166, 722.000000, 90.088166" fill="rgb(255, 255, 255)" style="fill-opacity:1.00" />
<!-- End 'A' -->
<!-- Begin 'T' -->
<rect height="1.761406" width="50.000000" x="690.000000" y="98.991214" fill="rgb(0, 100, 0)" style="fill-opacity:0.10" />
<rect height="11.008786" width="10.000000" x="710.000000" y="98.991214" fill="rgb(0, 100, 0)" style="fill-opacity:0.10" />
<!-- End 'T' -->
<!-- Begin 'G' -->
<ellipse cx="715.000000" cy="140.386161" rx="25.000000" ry="20.386161" fill="rgb(255, 165, 0)" style="fill-opacity:0.52" />
<ellipse cx="715.000000" cy="140.386161" rx="16.666667" ry="13.590774" fill="rgb(255, 255, 255)" style="fill-opacity:1.00" />
<rect height="20.386161" width="25.000000" x="715.000000" y="130.193081" fill="rgb(255, 255, 255)" style="fill-opacity:1.00" />
<rect height="5.096540" width="25.000000" x="715.000000" y="145.482701" fill="rgb(255, 165, 0)" style="fill-opacity:0.52" />
<rect height="15.289621" width="6.250000" x="733.750000" y="145.482701" fill="rgb(255, 165, 0)" style="fill-opacity:0.52" />
<!-- End 'G' -->
<!-- Begin 'C' -->
<ellipse cx="715.000000" cy="175.103720" rx="25.000000" ry="14.331398" fill="rgb(0, 0, 128)" style="fill-opacity:0.52" />
<ellipse cx="715.000000" cy="175.103720" rx="16.666667" ry="9.554265" fill="rgb(255, 255, 255)" style="fill-opacity:1.00" />
<rect height="14.331398" width="25.000000" x="715.000000" y="167.938021" fill="rgb(255, 255, 255)" style="fill-opacity:1.00" />
<!-- End 'C' -->
<!-- Begin 'T' -->
<rect height="3.171141" width="50.000000" x="690.000000" y="189.435117" fill="rgb(0, 100, 0)" style="fill-opacity:0.52" />
<rect height="19.819633" width="10.000000" x="710.000000" y="189.435117" fill="rgb(0, 100, 0)" style="fill-opacity:0.52" />
<!-- End 'T' -->
<!-- Begin 'A' -->
<polygon points=" 690.000000, 220.000000, 711.000000, 209.254750, 719.000000, 209.254750, 740.000000, 220.000000, 732.500000, 220.000000, 726.250000, 217.313688, 703.750000, 217.313688, 697.500000, 220.000000" fill="rgb(178, 34, 34)" style="fill-opacity:0.52" />
<polygon points=" 715.000000, 211.403800, 707.000000, 214.701900, 722.000000, 214.701900" fill="rgb(255, 255, 255)" style="fill-opacity:1.00" />
<!-- End 'A' -->
<!-- Begin 'C' -->
<ellipse cx="715.000000" cy="251.006688" rx="25.000000" ry="21.006688" fill="rgb(0, 0, 128)" style="fill-opacity:0.29" />
<ellipse cx="715.000000" cy="251.006688" rx="16.666667" ry="14.004459" fill="rgb(255, 255, 255)" style="fill-opacity:1.00" />
<rect height="21.006688" width="25.000000" x="715.000000" y="240.503344" fill="rgb(255, 255, 255)" style="fill-opacity:1.00" />
<!-- End 'C' -->
<!-- Begin 'G' -->
<ellipse cx="715.000000" cy="288.551359" rx="25.000000" ry="16.537982" fill="rgb(255, 165, 0)" style="fill-opacity:0.29" />
<ellipse cx="715.000000" cy="288.551359" rx="16.666667" ry="11.025322" fill="rgb(255, 255, 255)" style="fill-opacity:1.00" />
<rect height="16.537982" width="25.000000" x="715.000000" y="280.282368" fill="rgb(255, 255, 255)" style="fill-opacity:1.00" />
<rect height="4.134496" width="25.000000" x="715.000000" y="292.685855" fill="rgb(255, 165, 0)" style="fill-opacity:0.29" />
<rect height="12.403487" width="6.250000" x="733.750000" y="292.685855" fill="rgb(255, 165, 0)" style="fill-opacity:0.29" />
<!-- End 'G' -->
<!-- Begin 'A' -->
<polygon points=" 690.000000, 319.222784, 711.000000, 305.089341, 719.000000, 305.089341, 740.000000, 319.222784, 732.500000, 319.222784, 726.250000, 315.689423, 703.750000, 315.689423, 697.500000, 319.222784" fill="rgb(178, 34, 34)" style="fill-opacity:0.29" />
<polygon points=" 715.000000, 307.916030, 707.000000, 312.569407, 722.000000, 312.569407" fill="rgb(255, 255, 255)" style="fill-opacity:1.00" />
<!-- End 'A' -->
<!-- Begin 'T' -->
<rect height="1.724355" width="50.000000" x="690.000000" y="319.222784" fill="rgb(0, 100, 0)" style="fill-opacity:0.29" />
<rect height="10.777216" width="10.000000" x="710.000000" y="319.222784" fill="rgb(0, 100, 0)" style="fill-opacity:0.29" />
<!-- End 'T' -->
<!-- Begin 'G' -->
<ellipse cx="715.000000" cy="363.926980" rx="25.000000" ry="23.926980" fill="rgb(255, 165, 0)" style="fill-opacity:0.09" />
<ellipse cx="715.000000" cy="363.926980" rx="16.666667" ry="15.951320" fill="rgb(255, 255, 255)" style="fill-opacity:1.00" />
<rect height="23.926980" width="25.000000" x="715.000000" y="351.963490" fill="rgb(255, 255, 255)" style="fill-opacity:1.00" />
<rect height="5.981745" width="25.000000" x="715.000000" y="369.908725" fill="rgb(255, 165, 0)" style="fill-opacity:0.09" />
<rect height="17.945235" width="6.250000" x="733.750000" y="369.908725" fill="rgb(255, 165, 0)" style="fill-opacity:0.09" />
<!-- End 'G' -->
<!-- Begin 'C' -->
<ellipse cx="715.000000" cy="405.324243" rx="25.000000" ry="17.470284" fill="rgb(0, 0, 128)" style="fill-opacity:0.09" />
<ellipse cx="715.000000" cy="405.324243" rx="16.666667" ry="11.646856" fill="rgb(255, 255, 255)" style="fill-opacity:1.00" />
<rect height="17.470284" width="25.000000" x="715.000000" y="396.589101" fill="rgb(255, 255, 255)" style="fill-opacity:1.00" />
<!-- End 'C' -->
<!-- Begin 'T' -->
<rect height="2.205923" width="50.000000" x="690.000000" y="422.794527" fill="rgb(0, 100, 0)" style="fill-opacity:0.09" />
<rect height="13.787021" width="10.000000" x="710.000000" y="422.794527" fill="rgb(0, 100, 0)" style="fill-opacity:0.09" />
<!-- End 'T' -->
<!-- Begin 'A' -->
<polygon points=" 690.000000, 440.000000, 711.000000, 436.581547, 719.000000, 436.581547, 740.000000, 440.000000, 732.500000, 440.000000, 726.250000, 439.145387, 703.750000, 439.145387, 697.500000, 440.000000" fill="rgb(178, 34, 34)" style="fill-opacity:0.09" />
<!-- End 'A' -->
<text x="400.000000" y="495">
IC = 4.89
</text>

</svg>
