<?xml version="1.0" encoding="UTF-8" standalone="yes"?>
                 <!DOCTYPE svg PUBLIC "-//W3C//DTD SVG 1.0//EN" "http://www.w3.org/TR/2001/REC-SVG-20010904/DTD/svg10.dtd">
                 <svg height="170" width="1020" xmlns="http://www.w3.org/2000/svg" xmlns:xlink="http://www.w3.org/1999/xlink">
                 <line x1="85" y1="120" x2="987" y2="120" style="stroke:rgb(99,99,99);stroke-width:2" />
<rect height="7.000000" width="2.000000" x="85.000000" y="120.000000" fill="rgb(0, 0, 0)" style="fill-opacity:1.00" />
<text x="107.000000" y="140">
1
</text>
<rect height="7.000000" width="2.000000" x="145.000000" y="120.000000" fill="rgb(0, 0, 0)" style="fill-opacity:1.00" />
<text x="167.000000" y="140">
2
</text>
<rect height="7.000000" width="2.000000" x="205.000000" y="120.000000" fill="rgb(0, 0, 0)" style="fill-opacity:1.00" />
<text x="227.000000" y="140">
3
</text>
<rect height="7.000000" width="2.000000" x="265.000000" y="120.000000" fill="rgb(0, 0, 0)" style="fill-opacity:1.00" />
<text x="287.000000" y="140">
4
</text>
<rect height="7.000000" width="2.000000" x="325.000000" y="120.000000" fill="rgb(0, 0, 0)" style="fill-opacity:1.00" />
<text x="347.000000" y="140">
5
</text>
<rect height="7.000000" width="2.000000" x="385.000000" y="120.000000" fill="rgb(0, 0, 0)" style="fill-opacity:1.00" />
<text x="407.000000" y="140">
6
</text>
<rect height="7.000000" width="2.000000" x="445.000000" y="120.000000" fill="rgb(0, 0, 0)" style="fill-opacity:1.00" />
<text x="467.000000" y="140">
7
</text>
<rect height="7.000000" width="2.000000" x="505.000000" y="120.000000" fill="rgb(0, 0, 0)" style="fill-opacity:1.00" />
<text x="527.000000" y="140">
8
</text>
<rect height="7.000000" width="2.000000" x="565.000000" y="120.000000" fill="rgb(0, 0, 0)" style="fill-opacity:1.00" />
<text x="587.000000" y="140">
9
</text>
<rect height="7.000000" width="2.000000" x="625.000000" y="120.000000" fill="rgb(0, 0, 0)" style="fill-opacity:1.00" />
<text x="647.000000" y="140">
10
</text>
<rect height="7.000000" width="2.000000" x="685.000000" y="120.000000" fill="rgb(0, 0, 0)" style="fill-opacity:1.00" />
<text x="707.000000" y="140">
11
</text>
<rect height="7.000000" width="2.000000" x="745.000000" y="120.000000" fill="rgb(0, 0, 0)" style="fill-opacity:1.00" />
<text x="767.000000" y="140">
12
</text>
<rect height="7.000000" width="2.000000" x="805.000000" y="120.000000" fill="rgb(0, 0, 0)" style="fill-opacity:1.00" />
<text x="827.000000" y="140">
13
</text>
<rect height="7.000000" width="2.000000" x="865.000000" y="120.000000" fill="rgb(0, 0, 0)" style="fill-opacity:1.00" />
<text x="887.000000" y="140">
14
</text>
<rect height="7.000000" width="2.000000" x="925.000000" y="120.000000" fill="rgb(0, 0, 0)" style="fill-opacity:1.00" />
<text x="947.000000" y="140">
15
</text>
<rect height="7.000000" width="2.000000" x="985.000000" y="120.000000" fill="rgb(0, 0, 0)" style="fill-opacity:1.00" />
<line x1="80" y1="112" x2="80" y2="10" style="stroke:rgb(99,99,99);stroke-width:2" />
<rect height="2.000000" width="7.000000" x="73.000000" y="110.000000" fill="rgb(0, 0, 0)" style="fill-opacity:1.00" />
<text x="63" y="115">
0
</text>
<rect height="2.000000" width="7.000000" x="73.000000" y="60.000000" fill="rgb(0, 0, 0)" style="fill-opacity:1.00" />
<text x="63" y="65">
1
</text>
<rect height="2.000000" width="7.000000" x="73.000000" y="10.000000" fill="rgb(0, 0, 0)" style="fill-opacity:1.00" />
<text x="63" y="15">
2
</text>
<text x="50" y="65"
transform="rotate(-90, 50, 70)">
bits
</text>
<!-- Begin 'A' -->
<polygon points=" 90.000000, 106.844721, 111.000000, 104.636028, 119.000000, 104.636028, 140.000000, 106.844721, 132.500000, 106.844721, 126.250000, 106.292548, 103.750000, 106.292548, 97.500000, 106.844721" fill="rgb(178, 34, 34)" style="fill-opacity:1.00" />
<!-- End 'A' -->
<!-- Begin 'T' -->
<rect height="0.216293" width="50.000000" x="90.000000" y="106.844721" fill="rgb(0, 100, 0)" style="fill-opacity:1.00" />
<rect height="1.351833" width="10.000000" x="110.000000" y="106.844721" fill="rgb(0, 100, 0)" style="fill-opacity:1.00" />
<!-- End 'T' -->
<!-- Begin 'C' -->
<ellipse cx="115.000000" cy="108.666279" rx="25.000000" ry="0.469724" fill="rgb(0, 0, 128)" style="fill-opacity:1.00" />
<ellipse cx="115.000000" cy="108.666279" rx="16.666667" ry="0.313150" fill="rgb(255, 255, 255)" style="fill-opacity:1.00" />
<rect height="0.469724" width="25.000000" x="115.000000" y="108.431417" fill="rgb(255, 255, 255)" style="fill-opacity:1.00" />
<!-- End 'C' -->
<!-- Begin 'G' -->
<ellipse cx="115.000000" cy="109.568002" rx="25.000000" ry="0.431998" fill="rgb(255, 165, 0)" style="fill-opacity:1.00" />
<ellipse cx="115.000000" cy="109.568002" rx="16.666667" ry="0.287999" fill="rgb(255, 255, 255)" style="fill-opacity:1.00" />
<rect height="0.431998" width="25.000000" x="115.000000" y="109.352002" fill="rgb(255, 255, 255)" style="fill-opacity:1.00" />
<rect height="0.108000" width="25.000000" x="115.000000" y="109.676001" fill="rgb(255, 165, 0)" style="fill-opacity:1.00" />
<rect height="0.323999" width="6.250000" x="133.750000" y="109.676001" fill="rgb(255, 165, 0)" style="fill-opacity:1.00" />
<!-- End 'G' -->
<!-- Begin 'A' -->
<polygon points=" 150.000000, 105.089295, 171.000000, 101.207575, 179.000000, 101.207575, 200.000000, 105.089295, 192.500000, 105.089295, 186.250000, 104.118865, 163.750000, 104.118865, 157.500000, 105.089295" fill="rgb(178, 34, 34)" style="fill-opacity:1.00" />
<!-- End 'A' -->
<!-- Begin 'T' -->
<rect height="0.395505" width="50.000000" x="150.000000" y="105.089295" fill="rgb(0, 100, 0)" style="fill-opacity:1.00" />
<rect height="2.471904" width="10.000000" x="170.000000" y="105.089295" fill="rgb(0, 100, 0)" style="fill-opacity:1.00" />
<!-- End 'T' -->
<!-- Begin 'C' -->
<ellipse cx="175.000000" cy="108.228979" rx="25.000000" ry="0.667780" fill="rgb(0, 0, 128)" style="fill-opacity:1.00" />
<ellipse cx="175.000000" cy="108.228979" rx="16.666667" ry="0.445187" fill="rgb(255, 255, 255)" style="fill-opacity:1.00" />
<rect height="0.667780" width="25.000000" x="175.000000" y="107.895089" fill="rgb(255, 255, 255)" style="fill-opacity:1.00" />
<!-- End 'C' -->
<!-- Begin 'G' -->
<ellipse cx="175.000000" cy="109.448380" rx="25.000000" ry="0.551620" fill="rgb(255, 165, 0)" style="fill-opacity:1.00" />
<ellipse cx="175.000000" cy="109.448380" rx="16.666667" ry="0.367747" fill="rgb(255, 255, 255)" style="fill-opacity:1.00" />
<rect height="0.551620" width="25.000000" x="175.000000" y="109.172570" fill="rgb(255, 255, 255)" style="fill-opacity:1.00" />
<rect height="0.137905" width="25.000000" x="175.000000" y="109.586285" fill="rgb(255, 165, 0)" style="fill-opacity:1.00" />
<rect height="0.413715" width="6.250000" x="193.750000" y="109.586285" fill="rgb(255, 165, 0)" style="fill-opacity:1.00" />
<!-- End 'G' -->
<!-- Begin 'A' -->
<polygon points=" 210.000000, 106.902137, 231.000000, 105.197289, 239.000000, 105.197289, 260.000000, 106.902137, 252.500000, 106.902137, 246.250000, 106.475925, 223.750000, 106.475925, 217.500000, 106.902137" fill="rgb(178, 34, 34)" style="fill-opacity:1.00" />
<!-- End 'A' -->
<!-- Begin 'T' -->
<rect height="0.222256" width="50.000000" x="210.000000" y="106.902137" fill="rgb(0, 100, 0)" style="fill-opacity:1.00" />
<rect height="1.389101" width="10.000000" x="230.000000" y="106.902137" fill="rgb(0, 100, 0)" style="fill-opacity:1.00" />
<!-- End 'T' -->
<!-- Begin 'C' -->
<ellipse cx="235.000000" cy="108.863841" rx="25.000000" ry="0.572603" fill="rgb(0, 0, 128)" style="fill-opacity:1.00" />
<ellipse cx="235.000000" cy="108.863841" rx="16.666667" ry="0.381735" fill="rgb(255, 255, 255)" style="fill-opacity:1.00" />
<rect height="0.572603" width="25.000000" x="235.000000" y="108.577540" fill="rgb(255, 255, 255)" style="fill-opacity:1.00" />
<!-- End 'C' -->
<!-- Begin 'G' -->
<ellipse cx="235.000000" cy="109.718222" rx="25.000000" ry="0.281778" fill="rgb(255, 165, 0)" style="fill-opacity:1.00" />
<ellipse cx="235.000000" cy="109.718222" rx="16.666667" ry="0.187852" fill="rgb(255, 255, 255)" style="fill-opacity:1.00" />
<rect height="0.281778" width="25.000000" x="235.000000" y="109.577333" fill="rgb(255, 255, 255)" style="fill-opacity:1.00" />
<rect height="0.070444" width="25.000000" x="235.000000" y="109.788667" fill="rgb(255, 165, 0)" style="fill-opacity:1.00" />
<rect height="0.211333" width="6.250000" x="253.750000" y="109.788667" fill="rgb(255, 165, 0)" style="fill-opacity:1.00" />
<!-- End 'G' -->
<!-- Begin 'T' -->
<rect height="0.164499" width="50.000000" x="270.000000" y="106.487296" fill="rgb(0, 100, 0)" style="fill-opacity:1.00" />
<rect height="1.028118" width="10.000000" x="290.000000" y="106.487296" fill="rgb(0, 100, 0)" style="fill-opacity:1.00" />
<!-- End 'T' -->
<!-- Begin 'A' -->
<polygon points=" 270.000000, 108.539506, 291.000000, 107.515414, 299.000000, 107.515414, 320.000000, 108.539506, 312.500000, 108.539506, 306.250000, 108.283483, 283.750000, 108.283483, 277.500000, 108.539506" fill="rgb(178, 34, 34)" style="fill-opacity:1.00" />
<!-- End 'A' -->
<!-- Begin 'C' -->
<ellipse cx="295.000000" cy="109.051152" rx="25.000000" ry="0.511646" fill="rgb(0, 0, 128)" style="fill-opacity:1.00" />
<ellipse cx="295.000000" cy="109.051152" rx="16.666667" ry="0.341097" fill="rgb(255, 255, 255)" style="fill-opacity:1.00" />
<rect height="0.511646" width="25.000000" x="295.000000" y="108.795329" fill="rgb(255, 255, 255)" style="fill-opacity:1.00" />
<!-- End 'C' -->
<!-- Begin 'G' -->
<ellipse cx="295.000000" cy="109.781399" rx="25.000000" ry="0.218601" fill="rgb(255, 165, 0)" style="fill-opacity:1.00" />
<ellipse cx="295.000000" cy="109.781399" rx="16.666667" ry="0.145734" fill="rgb(255, 255, 255)" style="fill-opacity:1.00" />
<rect height="0.218601" width="25.000000" x="295.000000" y="109.672098" fill="rgb(255, 255, 255)" style="fill-opacity:1.00" />
<rect height="0.054650" width="25.000000" x="295.000000" y="109.836049" fill="rgb(255, 165, 0)" style="fill-opacity:1.00" />
<rect height="0.163951" width="6.250000" x="313.750000" y="109.836049" fill="rgb(255, 165, 0)" style="fill-opacity:1.00" />
<!-- End 'G' -->
<!-- Begin 'A' -->
<polygon points=" 330.000000, 108.221587, 351.000000, 107.256011, 359.000000, 107.256011, 380.000000, 108.221587, 372.500000, 108.221587, 366.250000, 107.980193, 343.750000, 107.980193, 337.500000, 108.221587" fill="rgb(178, 34, 34)" style="fill-opacity:1.00" />
<!-- End 'A' -->
<!-- Begin 'T' -->
<rect height="0.120810" width="50.000000" x="330.000000" y="108.221587" fill="rgb(0, 100, 0)" style="fill-opacity:1.00" />
<rect height="0.755065" width="10.000000" x="350.000000" y="108.221587" fill="rgb(0, 100, 0)" style="fill-opacity:1.00" />
<!-- End 'T' -->
<!-- Begin 'C' -->
<ellipse cx="355.000000" cy="109.248052" rx="25.000000" ry="0.271400" fill="rgb(0, 0, 128)" style="fill-opacity:1.00" />
<ellipse cx="355.000000" cy="109.248052" rx="16.666667" ry="0.180933" fill="rgb(255, 255, 255)" style="fill-opacity:1.00" />
<rect height="0.271400" width="25.000000" x="355.000000" y="109.112353" fill="rgb(255, 255, 255)" style="fill-opacity:1.00" />
<!-- End 'C' -->
<!-- Begin 'G' -->
<ellipse cx="355.000000" cy="109.759726" rx="25.000000" ry="0.240274" fill="rgb(255, 165, 0)" style="fill-opacity:1.00" />
<ellipse cx="355.000000" cy="109.759726" rx="16.666667" ry="0.160183" fill="rgb(255, 255, 255)" style="fill-opacity:1.00" />
<rect height="0.240274" width="25.000000" x="355.000000" y="109.639589" fill="rgb(255, 255, 255)" style="fill-opacity:1.00" />
<rect height="0.060068" width="25.000000" x="355.000000" y="109.819795" fill="rgb(255, 165, 0)" style="fill-opacity:1.00" />
<rect height="0.180205" width="6.250000" x="373.750000" y="109.819795" fill="rgb(255, 165, 0)" style="fill-opacity:1.00" />
<!-- End 'G' -->
<!-- Begin 'T' -->
<rect height="1.158646" width="50.000000" x="390.000000" y="95.016975" fill="rgb(0, 100, 0)" style="fill-opacity:1.00" />
<rect height="7.241539" width="10.000000" x="410.000000" y="95.016975" fill="rgb(0, 100, 0)" style="fill-opacity:1.00" />
<!-- End 'T' -->
<!-- Begin 'A' -->
<polygon points=" 390.000000, 106.969439, 411.000000, 102.258514, 419.000000, 102.258514, 440.000000, 106.969439, 432.500000, 106.969439, 426.250000, 105.791707, 403.750000, 105.791707, 397.500000, 106.969439" fill="rgb(178, 34, 34)" style="fill-opacity:1.00" />
<!-- End 'A' -->
<!-- Begin 'G' -->
<ellipse cx="415.000000" cy="107.747561" rx="25.000000" ry="0.778123" fill="rgb(255, 165, 0)" style="fill-opacity:1.00" />
<ellipse cx="415.000000" cy="107.747561" rx="16.666667" ry="0.518748" fill="rgb(255, 255, 255)" style="fill-opacity:1.00" />
<rect height="0.778123" width="25.000000" x="415.000000" y="107.358500" fill="rgb(255, 255, 255)" style="fill-opacity:1.00" />
<rect height="0.194531" width="25.000000" x="415.000000" y="107.942092" fill="rgb(255, 165, 0)" style="fill-opacity:1.00" />
<rect height="0.583592" width="6.250000" x="433.750000" y="107.942092" fill="rgb(255, 165, 0)" style="fill-opacity:1.00" />
<!-- End 'G' -->
<!-- Begin 'C' -->
<ellipse cx="415.000000" cy="109.262842" rx="25.000000" ry="0.737158" fill="rgb(0, 0, 128)" style="fill-opacity:1.00" />
<ellipse cx="415.000000" cy="109.262842" rx="16.666667" ry="0.491439" fill="rgb(255, 255, 255)" style="fill-opacity:1.00" />
<rect height="0.737158" width="25.000000" x="415.000000" y="108.894263" fill="rgb(255, 255, 255)" style="fill-opacity:1.00" />
<!-- End 'C' -->
<!-- Begin 'A' -->
<polygon points=" 450.000000, 107.675760, 471.000000, 20.498639, 479.000000, 20.498639, 500.000000, 107.675760, 492.500000, 107.675760, 486.250000, 85.881480, 463.750000, 85.881480, 457.500000, 107.675760" fill="rgb(178, 34, 34)" style="fill-opacity:1.00" />
<polygon points=" 475.000000, 37.934063, 467.000000, 71.804912, 482.000000, 71.804912" fill="rgb(255, 255, 255)" style="fill-opacity:1.00" />
<!-- End 'A' -->
<!-- Begin 'T' -->
<rect height="0.203258" width="50.000000" x="450.000000" y="107.675760" fill="rgb(0, 100, 0)" style="fill-opacity:1.00" />
<rect height="1.270361" width="10.000000" x="470.000000" y="107.675760" fill="rgb(0, 100, 0)" style="fill-opacity:1.00" />
<!-- End 'T' -->
<!-- Begin 'C' -->
<ellipse cx="475.000000" cy="109.313661" rx="25.000000" ry="0.367541" fill="rgb(0, 0, 128)" style="fill-opacity:1.00" />
<ellipse cx="475.000000" cy="109.313661" rx="16.666667" ry="0.245027" fill="rgb(255, 255, 255)" style="fill-opacity:1.00" />
<rect height="0.367541" width="25.000000" x="475.000000" y="109.129891" fill="rgb(255, 255, 255)" style="fill-opacity:1.00" />
<!-- End 'C' -->
<!-- Begin 'G' -->
<ellipse cx="475.000000" cy="109.840601" rx="25.000000" ry="0.159399" fill="rgb(255, 165, 0)" style="fill-opacity:1.00" />
<ellipse cx="475.000000" cy="109.840601" rx="16.666667" ry="0.106266" fill="rgb(255, 255, 255)" style="fill-opacity:1.00" />
<rect height="0.159399" width="25.000000" x="475.000000" y="109.760902" fill="rgb(255, 255, 255)" style="fill-opacity:1.00" />
<rect height="0.039850" width="25.000000" x="475.000000" y="109.880451" fill="rgb(255, 165, 0)" style="fill-opacity:1.00" />
<rect height="0.119549" width="6.250000" x="493.750000" y="109.880451" fill="rgb(255, 165, 0)" style="fill-opacity:1.00" />
<!-- End 'G' -->
<!-- Begin 'A' -->
<polygon points=" 510.000000, 108.630191, 531.000000, 16.484547, 539.000000, 16.484547, 560.000000, 108.630191, 552.500000, 108.630191, 546.250000, 85.593780, 523.750000, 85.593780, 517.500000, 108.630191" fill="rgb(178, 34, 34)" style="fill-opacity:1.00" />
<polygon points=" 535.000000, 34.913675, 527.000000, 70.771933, 542.000000, 70.771933" fill="rgb(255, 255, 255)" style="fill-opacity:1.00" />
<!-- End 'A' -->
<!-- Begin 'T' -->
<rect height="0.133821" width="50.000000" x="510.000000" y="108.630191" fill="rgb(0, 100, 0)" style="fill-opacity:1.00" />
<rect height="0.836382" width="10.000000" x="530.000000" y="108.630191" fill="rgb(0, 100, 0)" style="fill-opacity:1.00" />
<!-- End 'T' -->
<!-- Begin 'C' -->
<ellipse cx="535.000000" cy="109.639577" rx="25.000000" ry="0.173004" fill="rgb(0, 0, 128)" style="fill-opacity:1.00" />
<ellipse cx="535.000000" cy="109.639577" rx="16.666667" ry="0.115336" fill="rgb(255, 255, 255)" style="fill-opacity:1.00" />
<rect height="0.173004" width="25.000000" x="535.000000" y="109.553075" fill="rgb(255, 255, 255)" style="fill-opacity:1.00" />
<!-- End 'C' -->
<!-- Begin 'G' -->
<ellipse cx="535.000000" cy="109.906290" rx="25.000000" ry="0.093710" fill="rgb(255, 165, 0)" style="fill-opacity:1.00" />
<ellipse cx="535.000000" cy="109.906290" rx="16.666667" ry="0.062473" fill="rgb(255, 255, 255)" style="fill-opacity:1.00" />
<rect height="0.093710" width="25.000000" x="535.000000" y="109.859435" fill="rgb(255, 255, 255)" style="fill-opacity:1.00" />
<rect height="0.023427" width="25.000000" x="535.000000" y="109.929718" fill="rgb(255, 165, 0)" style="fill-opacity:1.00" />
<rect height="0.070282" width="6.250000" x="553.750000" y="109.929718" fill="rgb(255, 165, 0)" style="fill-opacity:1.00" />
<!-- End 'G' -->
<!-- Begin 'C' -->
<ellipse cx="595.000000" cy="61.106141" rx="25.000000" ry="48.369026" fill="rgb(0, 0, 128)" style="fill-opacity:1.00" />
<ellipse cx="595.000000" cy="61.106141" rx="16.666667" ry="32.246017" fill="rgb(255, 255, 255)" style="fill-opacity:1.00" />
<rect height="48.369026" width="25.000000" x="595.000000" y="36.921628" fill="rgb(255, 255, 255)" style="fill-opacity:1.00" />
<!-- End 'C' -->
<!-- Begin 'T' -->
<rect height="0.058592" width="50.000000" x="570.000000" y="109.475167" fill="rgb(0, 100, 0)" style="fill-opacity:1.00" />
<rect height="0.366197" width="10.000000" x="590.000000" y="109.475167" fill="rgb(0, 100, 0)" style="fill-opacity:1.00" />
<!-- End 'T' -->
<!-- Begin 'A' -->
<polygon points=" 570.000000, 109.940708, 591.000000, 109.841364, 599.000000, 109.841364, 620.000000, 109.940708, 612.500000, 109.940708, 606.250000, 109.915872, 583.750000, 109.915872, 577.500000, 109.940708" fill="rgb(178, 34, 34)" style="fill-opacity:1.00" />
<!-- End 'A' -->
<!-- Begin 'G' -->
<ellipse cx="595.000000" cy="109.970354" rx="25.000000" ry="0.029646" fill="rgb(255, 165, 0)" style="fill-opacity:1.00" />
<ellipse cx="595.000000" cy="109.970354" rx="16.666667" ry="0.019764" fill="rgb(255, 255, 255)" style="fill-opacity:1.00" />
<rect height="0.029646" width="25.000000" x="595.000000" y="109.955531" fill="rgb(255, 255, 255)" style="fill-opacity:1.00" />
<rect height="0.007411" width="25.000000" x="595.000000" y="109.977766" fill="rgb(255, 165, 0)" style="fill-opacity:1.00" />
<rect height="0.022234" width="6.250000" x="613.750000" y="109.977766" fill="rgb(255, 165, 0)" style="fill-opacity:1.00" />
<!-- End 'G' -->
<!-- Begin 'C' -->
<ellipse cx="655.000000" cy="95.263836" rx="25.000000" ry="6.457722" fill="rgb(0, 0, 128)" style="fill-opacity:1.00" />
<ellipse cx="655.000000" cy="95.263836" rx="16.666667" ry="4.305148" fill="rgb(255, 255, 255)" style="fill-opacity:1.00" />
<rect height="6.457722" width="25.000000" x="655.000000" y="92.034975" fill="rgb(255, 255, 255)" style="fill-opacity:1.00" />
<!-- End 'C' -->
<!-- Begin 'T' -->
<rect height="0.533426" width="50.000000" x="630.000000" y="101.721558" fill="rgb(0, 100, 0)" style="fill-opacity:1.00" />
<rect height="3.333910" width="10.000000" x="650.000000" y="101.721558" fill="rgb(0, 100, 0)" style="fill-opacity:1.00" />
<!-- End 'T' -->
<!-- Begin 'A' -->
<polygon points=" 630.000000, 107.812533, 651.000000, 105.055467, 659.000000, 105.055467, 680.000000, 107.812533, 672.500000, 107.812533, 666.250000, 107.123266, 643.750000, 107.123266, 637.500000, 107.812533" fill="rgb(178, 34, 34)" style="fill-opacity:1.00" />
<!-- End 'A' -->
<!-- Begin 'G' -->
<ellipse cx="655.000000" cy="108.906266" rx="25.000000" ry="1.093734" fill="rgb(255, 165, 0)" style="fill-opacity:1.00" />
<ellipse cx="655.000000" cy="108.906266" rx="16.666667" ry="0.729156" fill="rgb(255, 255, 255)" style="fill-opacity:1.00" />
<rect height="1.093734" width="25.000000" x="655.000000" y="108.359400" fill="rgb(255, 255, 255)" style="fill-opacity:1.00" />
<rect height="0.273433" width="25.000000" x="655.000000" y="109.179700" fill="rgb(255, 165, 0)" style="fill-opacity:1.00" />
<rect height="0.820300" width="6.250000" x="673.750000" y="109.179700" fill="rgb(255, 165, 0)" style="fill-opacity:1.00" />
<!-- End 'G' -->
<!-- Begin 'G' -->
<ellipse cx="715.000000" cy="76.834897" rx="25.000000" ry="19.426822" fill="rgb(255, 165, 0)" style="fill-opacity:1.00" />
<ellipse cx="715.000000" cy="76.834897" rx="16.666667" ry="12.951215" fill="rgb(255, 255, 255)" style="fill-opacity:1.00" />
<rect height="19.426822" width="25.000000" x="715.000000" y="67.121486" fill="rgb(255, 255, 255)" style="fill-opacity:1.00" />
<rect height="4.856706" width="25.000000" x="715.000000" y="81.691603" fill="rgb(255, 165, 0)" style="fill-opacity:1.00" />
<rect height="14.570117" width="6.250000" x="733.750000" y="81.691603" fill="rgb(255, 165, 0)" style="fill-opacity:1.00" />
<!-- End 'G' -->
<!-- Begin 'A' -->
<polygon points=" 690.000000, 108.973599, 711.000000, 96.261719, 719.000000, 96.261719, 740.000000, 108.973599, 732.500000, 108.973599, 726.250000, 105.795629, 703.750000, 105.795629, 697.500000, 108.973599" fill="rgb(178, 34, 34)" style="fill-opacity:1.00" />
<polygon points=" 715.000000, 98.804095, 707.000000, 102.888847, 722.000000, 102.888847" fill="rgb(255, 255, 255)" style="fill-opacity:1.00" />
<!-- End 'A' -->
<!-- Begin 'T' -->
<rect height="0.087492" width="50.000000" x="690.000000" y="108.973599" fill="rgb(0, 100, 0)" style="fill-opacity:1.00" />
<rect height="0.546828" width="10.000000" x="710.000000" y="108.973599" fill="rgb(0, 100, 0)" style="fill-opacity:1.00" />
<!-- End 'T' -->
<!-- Begin 'C' -->
<ellipse cx="715.000000" cy="109.760213" rx="25.000000" ry="0.239787" fill="rgb(0, 0, 128)" style="fill-opacity:1.00" />
<ellipse cx="715.000000" cy="109.760213" rx="16.666667" ry="0.159858" fill="rgb(255, 255, 255)" style="fill-opacity:1.00" />
<rect height="0.239787" width="25.000000" x="715.000000" y="109.640320" fill="rgb(255, 255, 255)" style="fill-opacity:1.00" />
<!-- End 'C' -->
<!-- Begin 'A' -->
<polygon points=" 750.000000, 100.438229, 771.000000, 89.090099, 779.000000, 89.090099, 800.000000, 100.438229, 792.500000, 100.438229, 786.250000, 97.601196, 763.750000, 97.601196, 757.500000, 100.438229" fill="rgb(178, 34, 34)" style="fill-opacity:1.00" />
<polygon points=" 775.000000, 91.359725, 767.000000, 94.898977, 782.000000, 94.898977" fill="rgb(255, 255, 255)" style="fill-opacity:1.00" />
<!-- End 'A' -->
<!-- Begin 'T' -->
<rect height="0.993591" width="50.000000" x="750.000000" y="100.438229" fill="rgb(0, 100, 0)" style="fill-opacity:1.00" />
<rect height="6.209943" width="10.000000" x="770.000000" y="100.438229" fill="rgb(0, 100, 0)" style="fill-opacity:1.00" />
<!-- End 'T' -->
<!-- Begin 'C' -->
<ellipse cx="775.000000" cy="107.545564" rx="25.000000" ry="0.897392" fill="rgb(0, 0, 128)" style="fill-opacity:1.00" />
<ellipse cx="775.000000" cy="107.545564" rx="16.666667" ry="0.598261" fill="rgb(255, 255, 255)" style="fill-opacity:1.00" />
<rect height="0.897392" width="25.000000" x="775.000000" y="107.096868" fill="rgb(255, 255, 255)" style="fill-opacity:1.00" />
<!-- End 'C' -->
<!-- Begin 'G' -->
<ellipse cx="775.000000" cy="109.221478" rx="25.000000" ry="0.778522" fill="rgb(255, 165, 0)" style="fill-opacity:1.00" />
<ellipse cx="775.000000" cy="109.221478" rx="16.666667" ry="0.519015" fill="rgb(255, 255, 255)" style="fill-opacity:1.00" />
<rect height="0.778522" width="25.000000" x="775.000000" y="108.832216" fill="rgb(255, 255, 255)" style="fill-opacity:1.00" />
<rect height="0.194631" width="25.000000" x="775.000000" y="109.416108" fill="rgb(255, 165, 0)" style="fill-opacity:1.00" />
<rect height="0.583892" width="6.250000" x="793.750000" y="109.416108" fill="rgb(255, 165, 0)" style="fill-opacity:1.00" />
<!-- End 'G' -->
<!-- Begin 'A' -->
<polygon points=" 810.000000, 97.599409, 831.000000, 80.390774, 839.000000, 80.390774, 860.000000, 97.599409, 852.500000, 97.599409, 846.250000, 93.297250, 823.750000, 93.297250, 817.500000, 97.599409" fill="rgb(178, 34, 34)" style="fill-opacity:1.00" />
<polygon points=" 835.000000, 83.832501, 827.000000, 89.715955, 842.000000, 89.715955" fill="rgb(255, 255, 255)" style="fill-opacity:1.00" />
<!-- End 'A' -->
<!-- Begin 'T' -->
<rect height="1.378795" width="50.000000" x="810.000000" y="97.599409" fill="rgb(0, 100, 0)" style="fill-opacity:1.00" />
<rect height="8.617471" width="10.000000" x="830.000000" y="97.599409" fill="rgb(0, 100, 0)" style="fill-opacity:1.00" />
<!-- End 'T' -->
<!-- Begin 'C' -->
<ellipse cx="835.000000" cy="107.940410" rx="25.000000" ry="1.723530" fill="rgb(0, 0, 128)" style="fill-opacity:1.00" />
<ellipse cx="835.000000" cy="107.940410" rx="16.666667" ry="1.149020" fill="rgb(255, 255, 255)" style="fill-opacity:1.00" />
<rect height="1.723530" width="25.000000" x="835.000000" y="107.078645" fill="rgb(255, 255, 255)" style="fill-opacity:1.00" />
<!-- End 'C' -->
<!-- Begin 'G' -->
<ellipse cx="835.000000" cy="109.831970" rx="25.000000" ry="0.168030" fill="rgb(255, 165, 0)" style="fill-opacity:1.00" />
<ellipse cx="835.000000" cy="109.831970" rx="16.666667" ry="0.112020" fill="rgb(255, 255, 255)" style="fill-opacity:1.00" />
<rect height="0.168030" width="25.000000" x="835.000000" y="109.747955" fill="rgb(255, 255, 255)" style="fill-opacity:1.00" />
<rect height="0.042008" width="25.000000" x="835.000000" y="109.873977" fill="rgb(255, 165, 0)" style="fill-opacity:1.00" />
<rect height="0.126023" width="6.250000" x="853.750000" y="109.873977" fill="rgb(255, 165, 0)" style="fill-opacity:1.00" />
<!-- End 'G' -->
<!-- Begin 'T' -->
<rect height="0.782277" width="50.000000" x="870.000000" y="97.927628" fill="rgb(0, 100, 0)" style="fill-opacity:1.00" />
<rect height="4.889232" width="10.000000" x="890.000000" y="97.927628" fill="rgb(0, 100, 0)" style="fill-opacity:1.00" />
<!-- End 'T' -->
<!-- Begin 'A' -->
<polygon points=" 870.000000, 107.241924, 891.000000, 102.816860, 899.000000, 102.816860, 920.000000, 107.241924, 912.500000, 107.241924, 906.250000, 106.135658, 883.750000, 106.135658, 877.500000, 107.241924" fill="rgb(178, 34, 34)" style="fill-opacity:1.00" />
<!-- End 'A' -->
<!-- Begin 'C' -->
<ellipse cx="895.000000" cy="108.140463" rx="25.000000" ry="0.898539" fill="rgb(0, 0, 128)" style="fill-opacity:1.00" />
<ellipse cx="895.000000" cy="108.140463" rx="16.666667" ry="0.599026" fill="rgb(255, 255, 255)" style="fill-opacity:1.00" />
<rect height="0.898539" width="25.000000" x="895.000000" y="107.691194" fill="rgb(255, 255, 255)" style="fill-opacity:1.00" />
<!-- End 'C' -->
<!-- Begin 'G' -->
<ellipse cx="895.000000" cy="109.519501" rx="25.000000" ry="0.480499" fill="rgb(255, 165, 0)" style="fill-opacity:1.00" />
<ellipse cx="895.000000" cy="109.519501" rx="16.666667" ry="0.320333" fill="rgb(255, 255, 255)" style="fill-opacity:1.00" />
<rect height="0.480499" width="25.000000" x="895.000000" y="109.279251" fill="rgb(255, 255, 255)" style="fill-opacity:1.00" />
<rect height="0.120125" width="25.000000" x="895.000000" y="109.639626" fill="rgb(255, 165, 0)" style="fill-opacity:1.00" />
<rect height="0.360374" width="6.250000" x="913.750000" y="109.639626" fill="rgb(255, 165, 0)" style="fill-opacity:1.00" />
<!-- End 'G' -->
<!-- Begin 'T' -->
<rect height="0.104095" width="50.000000" x="930.000000" y="107.835497" fill="rgb(0, 100, 0)" style="fill-opacity:1.00" />
<rect height="0.650591" width="10.000000" x="950.000000" y="107.835497" fill="rgb(0, 100, 0)" style="fill-opacity:1.00" />
<!-- End 'T' -->
<!-- Begin 'A' -->
<polygon points=" 930.000000, 109.097286, 951.000000, 108.486088, 959.000000, 108.486088, 980.000000, 109.097286, 972.500000, 109.097286, 966.250000, 108.944487, 943.750000, 108.944487, 937.500000, 109.097286" fill="rgb(178, 34, 34)" style="fill-opacity:1.00" />
<!-- End 'A' -->
<!-- Begin 'C' -->
<ellipse cx="955.000000" cy="109.384879" rx="25.000000" ry="0.287593" fill="rgb(0, 0, 128)" style="fill-opacity:1.00" />
<ellipse cx="955.000000" cy="109.384879" rx="16.666667" ry="0.191729" fill="rgb(255, 255, 255)" style="fill-opacity:1.00" />
<rect height="0.287593" width="25.000000" x="955.000000" y="109.241083" fill="rgb(255, 255, 255)" style="fill-opacity:1.00" />
<!-- End 'C' -->
<!-- Begin 'G' -->
<ellipse cx="955.000000" cy="109.836236" rx="25.000000" ry="0.163764" fill="rgb(255, 165, 0)" style="fill-opacity:1.00" />
<ellipse cx="955.000000" cy="109.836236" rx="16.666667" ry="0.109176" fill="rgb(255, 255, 255)" style="fill-opacity:1.00" />
<rect height="0.163764" width="25.000000" x="955.000000" y="109.754354" fill="rgb(255, 255, 255)" style="fill-opacity:1.00" />
<rect height="0.040941" width="25.000000" x="955.000000" y="109.877177" fill="rgb(255, 165, 0)" style="fill-opacity:1.00" />
<rect height="0.122823" width="6.250000" x="973.750000" y="109.877177" fill="rgb(255, 165, 0)" style="fill-opacity:1.00" />
<!-- End 'G' -->
<text x="520.000000" y="165">
IC = 9.18
</text>

</svg>
